BLOCK SPINFO
   1   SPheno
   2   v4.0.5be

BLOCK SPHENOINFO
   1   2
   2   2

BLOCK MODSEL
   1   0

BLOCK MINPAR
   3    46.751389
   4    1

BLOCK EXTPAR
   0    4601.1203
   1   -1219.9605
   2   -3506.901
   3    1016.4451
   11    4464.2904
   12    6931.3578
   13   -5110.0382
   23    2022.0745
   25    45.459876
   26    1571.1763
   31    3579.2017
   32    3579.2017
   33    3915.6833
   34    2362.6108
   35    2362.6108
   36    3462.0875
   41    4218.1928
   42    4218.1928
   43    4840.3014
   44    2582.5772
   45    2582.5772
   46    4423.1398
   47    3109.5418
   48    3109.5418
   49    2120.6939

BLOCK SMINPUTS
   1    127.90897
   2    1.1663787e-05
   3    0.1184
   4    91.1876
   5    4.18
   6    173.2
   7    1.777
   8    0
   11    0.00051099893
   12    0
   13    0.10565837
   14    0
   21    0.005
   22    0.0025
   23    0.095
   24    1.27

BLOCK GAUGE Q=  4601.1203
   1    0.35536298
   2    0.66519887
   3    1.219778

BLOCK YU Q=  4601.1203
   1   1    8.3864004e-06
   2   2    0.0042602914
   3   3    1.0131445

BLOCK YD Q=  4601.1203
   1   1    0.00076609758
   2   2    0.014555854
   3   3    0.75972874

BLOCK YE Q=  4601.1203
   1   1    0.00013368963
   2   2    0.027642775
   3   3    0.46490601

BLOCK AU Q=  4601.1203
   1   1    0
   2   2    0
   3   3    4464.2905

BLOCK AD Q=  4601.1203
   1   1    0
   2   2    0
   3   3    6931.3582

BLOCK AE Q=  4601.1203
   1   1    0
   2   2    0
   3   3   -5110.0383

BLOCK MSOFT Q=  4601.1203
   1   -1219.9605
   2   -3506.901
   3    1016.4451
   21   -1458158.5
   22   -3758946.3
   31    3579.2017
   32    3579.2017
   33    3915.6833
   34    2362.6108
   35    2362.6108
   36    3462.0875
   41    4218.1928
   42    4218.1928
   43    4840.3014
   44    2582.5772
   45    2582.5772
   46    4423.1398
   47    3109.5418
   48    3109.5418
   49    2120.6939

BLOCK MASS
   6    173.2
   23    91.1876
   24    80.429995
   15    1.777
   25    123.18616
   35    1571.0279
   36    1571.1763
   37    1573.6337
   1000001    4299.3616
   2000001    3154.4645
   1000002    4298.6931
   2000002    2627.2763
   1000003    4299.3559
   2000003    3154.4542
   1000004    4298.6874
   2000004    2627.2756
   1000005    2122.5942
   2000005    4829.2867
   1000006    4374.6331
   2000006    4839.3333
   1000011    3613.3454
   2000011    2370.1056
   1000012    3612.0531
   1000013    3613.3135
   2000013    2370.0425
   1000014    3612.0187
   1000015    3434.1301
   2000015    3929.0841
   1000016    3926.7155
   1000021    1268.1126
   1000022   -1201.8943
   1000023   -2041.0467
   1000025    2042.753
   1000035   -3542.0834
   1000024    2040.3825
   1000037    3542.2713

BLOCK ALPHA
      -0.021562161

BLOCK HMIX Q=  4601.1203
   1    2022.0745
   2    45.459876
   3    242.78569
   4    2468594.8

BLOCK STOPMIX
   1   1   -0.14112352
   1   2    0.989992
   2   1   -0.989992
   2   2   -0.14112352

BLOCK SBOTMIX
   1   1    0.0080900064
   1   2    0.99996728
   2   1   -0.99996728
   2   2    0.0080900064

BLOCK STAUMIX
   1   1    0.046463696
   1   2    0.99891998
   2   1   -0.99891998
   2   2    0.046463696

BLOCK NMIX
   1   1   -0.99926233
   1   2    0.00060962169
   1   3   -0.033234281
   1   4   -0.019232962
   2   1    0.037101985
   2   2    0.035594157
   2   3   -0.70631752
   2   4   -0.70602553
   3   1    0.0098926288
   3   2   -0.01009929
   3   3   -0.70688457
   3   4    0.70718763
   4   1    0.0006119525
   4   2   -0.99931511
   4   3   -0.018034356
   4   4   -0.032306328

BLOCK UMIX
   1   1   -0.025517787
   1   2    0.99967437
   2   1   -0.99967437
   2   2   -0.025517787

BLOCK VMIX
   1   1    0.045715267
   1   2    0.99895451
   2   1    0.99895451
   2   2   -0.045715267

BLOCK HIGGSBOUNDSINPUTHIGGSCOUPLINGSFERMIONS
       0, 2066.6003,3,36,15,15

BLOCK HIGGSBOUNDSINPUTHIGGSCOUPLINGSBOSONS
       0,4,36,21,21,23

BLOCK SPHENOLOWENERGY
   1    0.00034526688
   2    1.5884773e-06
   3    3.5265526e-05
   4    2.6709873e-15
   5    1.1410179e-10
   6    2.3900139e-08
   7    8.8273845e-14
   8    3.7710618e-09
   9    8.0022643e-07
   10    9.1065174e-05
   11    0.94066839
   12    0.54199331
   13    19.336863
   14    0
   15    0
   16    0.0021576035
   17    2.2816676e-15
   18    2.4806288e-11
   19    8.2921837e-11
   20   -1.1486663e-15
   21   -4.9107548e-11
   22   -1.3089149e-08
   23    0
   24    0
   25    0
   26    0
   27    0
   28    0
   29    0
   30    0
   31    0
   39    7.1004927e-05
   40    0
   41    0
   42    0

BLOCK FWCOEF Q=  160
   305   4422   0   0   -0.18881911
   305   4422   0   2   -0.2122299
   305   4322   0   2   -0.00052324608
   305   6421   0   0   -0.095227835
   305   6421   0   2   -0.13071929
   305   6321   0   2   -0.00066372903
   3051111   4133   0   0    1.6322476
   3051111   4133   0   2    1.6325425
   3051111   4233   0   2    0.00022684108
   3051111   4137   0   0   -4.4549397
   3051111   4137   0   2   -4.4546054
   3051111   4237   0   2   -0.0016611257
   3051313   4133   0   0    1.6322476
   3051313   4133   0   2    1.6325417
   3051313   4233   0   2    0.00022683543
   3051313   4137   0   0   -4.4549397
   3051313   4137   0   2   -4.4546062
   3051313   4237   0   2   -0.0016611216
   3051212   4137   0   0    1.5053501
   3051212   4137   0   2    1.5052787
   3051212   4237   0   2    0.00035874964
   3051414   4137   0   0    1.5053501
   3051414   4137   0   2    1.5052787
   3051414   4237   0   2    0.00035875077
   3051616   4137   0   0    1.5053501
   3051616   4137   0   2    1.5052787
   3051616   4237   0   2    0.00035906761

BLOCK IMFWCOEF Q=  160
   305   4422   0   0    3.8576576e-07
   305   4422   0   2    2.8328911e-05
   305   4322   0   2   -2.7662689e-06
   305   6421   0   0    3.3043389e-07
   305   6421   0   2   -0.00017191248
   305   6321   0   2   -3.7400569e-06
   3051111   4133   0   2    9.6019177e-07
   3051111   4233   0   2    6.7170966e-06
   3051111   4137   0   2   -5.6599666e-06
   3051111   4237   0   2   -4.9249913e-05
   3051313   4133   0   2    9.6018799e-07
   3051313   4233   0   2    6.7170887e-06
   3051313   4137   0   2   -5.6599687e-06
   3051313   4237   0   2   -4.9249933e-05
   3051212   4137   0   2    1.2364511e-06
   3051212   4237   0   2    1.0636396e-05
   3051414   4137   0   2    1.236451e-06
   3051414   4237   0   2    1.0636396e-05
   3051616   4137   0   2    1.2368179e-06
   3051616   4237   0   2    1.0636396e-05

DECAY 23  2.4952


DECAY 24  2.085


DECAY 2000011  6.5630186
    0.99982146   2    1000022    11
    0.00016678402   2    1000023    11

DECAY 1000011  3.6815084
    0.97151513   2    1000022    11
    0.013101252   2   -1000037    12
    0.0065759306   2    1000035    11
    0.0061510348   2    1000023    11
    0.0026101877   2   -1000024    12

DECAY 2000013  6.5674252
    0.9990903   2    1000022    13
    0.00036731647   2   -1000024    14
    0.00034940086   2    1000023    13
    0.00019298434   2    1000025    13

DECAY 1000013  3.7117278
    0.96360576   2    1000022    13
    0.012983145   2   -1000037    14
    0.0095233784   2    1000023    13
    0.0065166851   2    1000035    13
    0.0034692429   2    1000025    13
    0.0025888709   2   -1000024    14
    0.0013129222   2    2000013    25

DECAY 1000015  25.635045
    0.51793576   2    1000022    15
    0.24126159   2   -1000024    16
    0.12084882   2    1000023    15
    0.11995383   2    1000025    15

DECAY 2000015  16.01061
    0.28181728   2    1000023    15
    0.28136128   2    1000025    15
    0.25347058   2    1000022    15
    0.075622432   2   -1000037    16
    0.037811625   2    1000035    15
    0.035183461   2    1000015    25
    0.034677323   2    1000015    23

DECAY 1000012  3.6953225
    0.97179386   2    1000022    12
    0.012572773   2    1000037    11
    0.0083376496   2    1000024    11
    0.0063286621   2    1000035    12
    0.00049599162   2    1000023    12
    0.00047106642   2    1000025    12

DECAY 1000014  3.7206457
    0.96516595   2    1000022    14
    0.015118981   2    1000024    13
    0.012475092   2    1000037    13
    0.0062795303   2    1000035    14
    0.00049260235   2    1000023    14
    0.00046784745   2    1000025    14

DECAY 1000016  15.996832
    0.56455967   2    1000024    15
    0.25348246   2    1000022    16
    0.074792407   2    1000037    15
    0.069409444   2    1000015    24
    0.037476795   2    1000035    16
    0.00014318298   2    1000023    16
    0.00013603259   2    1000025    16

DECAY 2000001  176.30271
    0.99270626   2    1000021    1
    0.0072886263   2    1000022    1

DECAY 1000001  289.27487
    0.9779068   2    1000021    1
    0.01348764   2   -1000037    2
    0.0067434671   2    1000035    1
    0.0017723368   2    1000022    1

DECAY 2000003  176.31065
    0.99265579   2    1000021    3
    0.0072883159   2    1000022    3

DECAY 1000003  289.28703
    0.97786391   2    1000021    3
    0.013486892   2   -1000037    4
    0.0067431035   2    1000035    3
    0.0017723171   2    1000022    3

DECAY 1000005  69.984011
    0.99006668   2    1000021    5
    0.0080012239   2    1000022    5
    0.00098603769   2    1000023    5
    0.00094605949   2    1000025    5

DECAY 2000005  535.3011
    0.61728351   2    1000021    5
    0.12350178   2   -1000024    6
    0.069132232   2    1000005    36
    0.069101481   2    1000005    35
    0.034910201   2    1000025    5
    0.034880632   2    1000023    5
    0.017088543   2   -1000037    6
    0.015699595   2    1000006   -24
    0.0084792339   2    1000035    5
    0.0062689762   2    1000005    25
    0.0024554502   2    1000005    23
    0.0011983636   2    1000022    5

DECAY 2000002  125.67236
    0.97084204   2    1000021    2
    0.029147139   2    1000022    2

DECAY 1000002  289.23451
    0.97783321   2    1000021    2
    0.013450306   2    1000037    1
    0.0067315624   2    1000035    2
    0.0017480943   2    1000022    2
    0.00016420702   2    1000024    1

DECAY 2000004  125.67247
    0.97083974   2    1000021    4
    0.029147084   2    1000022    4

DECAY 1000004  289.24568
    0.9777934   2    1000021    4
    0.013449615   2    1000037    3
    0.006731197   2    1000035    4
    0.0017480242   2    1000022    4
    0.00020167831   2    1000024    3

DECAY 1000006  409.49977
    0.69988168   2    1000021    6
    0.13327778   2    1000024    5
    0.067465212   2    1000025    6
    0.067196772   2    1000023    6
    0.0202452   2    1000022    6
    0.0096201534   2    1000021    4
    0.0021231254   2    1000005    37

DECAY 2000006  536.56809
    0.61913913   2    1000021    6
    0.13626877   2    1000005    37
    0.070099286   2    1000024    5
    0.06118682   2    1000025    6
    0.06116912   2    1000023    6
    0.017078837   2    1000037    5
    0.012498306   2    1000006    25
    0.0083465019   2    1000035    6
    0.0080803951   2    1000006    23
    0.0048486501   2    1000005    24
    0.0012841848   2    1000022    6

DECAY 1000024  1.2358464
    0.97167331   2    1000022    24
    0.024523299   3    1000022   -5    6
    0.0037419603   3    1000021   -5    6

DECAY 1000037  26.891894
    0.24605814   2    1000024    25
    0.22996891   2    1000023    24
    0.22852373   2    1000024    23
    0.22835576   2    1000025    24
    0.017429466   3    1000023   -5    6
    0.016505536   3    1000025   -5    6
    0.014981112   3    1000024    6   -6
    0.012307649   3    1000024    5   -5
    0.0015547037   3    1000024    15   -15
    0.00085987418   3    1000021   -3    4
    0.00085986619   3    1000021   -1    2
    0.00076378978   3    1000025   -15    16
    0.00072072219   3    1000023   -15    16
    0.00039633452   3    1000021   -5    6
    0.00031822944   2   -1000005    6
    0.00018257083   2    37    1000022

DECAY 1000022 -1


DECAY 1000023  1.0987757
    0.90795656   2    1000022    25
    0.073026848   2    1000022    23
    0.010119842   3    1000022    6   -6
    0.007781853   3    1000021    5   -5
    0.00088107719   3    1000022    5   -5
    0.00016116305   3    1000021    6   -6

DECAY 1000025  2.2476278
    0.50426607   2    1000022    23
    0.4859595   2    1000022    25
    0.0053609912   3    1000022    6   -6
    0.0038784241   3    1000021    5   -5
    0.00041752564   3    1000022    5   -5

DECAY 1000035  33.248926
    0.20167417   2    1000025    25
    0.18656813   2    1000024   -24
    0.18656813   2   -1000024    24
    0.18442046   2    1000023    25
    0.17214854   2    1000025    23
    0.014243028   3    1000024    5   -6
    0.014243028   3   -1000024   -5    6
    0.013815357   2    1000023    23
    0.0061740731   3    1000025    6   -6
    0.0053849326   3    1000023    6   -6
    0.0049189951   3    1000023    5   -5
    0.0044477565   3    1000025    5   -5
    0.00064731197   3    1000023    15   -15
    0.00058718896   3    1000025    15   -15
    0.00058575892   3    1000024    15   -16
    0.00058575892   3   -1000024   -15    16
    0.00046245208   3    1000021    4   -4
    0.00046244794   3    1000021    2   -2
    0.00046217838   3    1000021    3   -3
    0.00046217424   3    1000021    1   -1
    0.00022772873   3    1000021    5   -5
    0.00022231085   3    1000021    6   -6
    0.00012928085   2    1000022    35
    0.00012792396   2    1000005   -5
    0.00012792396   2   -1000005    5
    0.00011444532   3    1000022    12   -12

DECAY 1000021  4.1117949e-09
    0.33446633   3    1000022    2   -2
    0.33315317   3    1000022    4   -4
    0.25225938   3    1000022    5   -5
    0.035948665   3    1000022    1   -1
    0.035947651   3    1000022    3   -3
    0.0082248041   2    1000022    21

DECAY 25  0.003679655
    0.6023229   2   -5    5
    0.19836155   2   -24    24
    0.073234586   2    21    21
    0.069289455   2   -15    15
    0.029507869   2   -4    4
    0.023153644   2    23    23
    0.0023253937   2    22    22
    0.0013370918   2    22    23
    0.00024028259   2   -13    13
    0.00022644133   2   -3    3
    6.2608849e-07   2   -1    1
    1.5206695e-07   2   -2    2
    5.4018427e-09   2   -11    11

DECAY 35  33.67951
    0.81657726   2   -5    5
    0.18196762   2   -15    15
    0.00062163273   2   -13    13
    0.00045131888   2   -6    6
    0.00033923077   2   -3    3
    2.2747148e-05   2    21    21
    1.7710582e-05   2    25    25
    9.3800907e-07   2   -1    1
    8.5592549e-07   2    23    23
    6.4093039e-07   2   -24    24
    1.6210742e-08   2    22    22
    1.396431e-08   2   -11    11
    8.5264799e-09   2    22    23
    7.0345602e-09   2   -4    4
    3.6283058e-14   2   -2    2

DECAY 36  32.266894
    0.81658604   2   -5    5
    0.1819687   2   -15    15
    0.00062163397   2   -13    13
    0.00044255821   2   -6    6
    0.00033922665   2   -3    3
    3.9621549e-05   2    21    21
    1.1829045e-06   2    23    25
    9.3799652e-07   2   -1    1
    5.3234728e-08   2    22    22
    2.7728024e-08   2    22    23
    1.3964327e-08   2   -11    11
    6.5372439e-09   2   -4    4
    3.3733714e-14   2   -2    2
    5.0135675e-36   2    25    25

DECAY 37  31.945544
    0.78240181   2   -5    6
    0.21531625   2   -15    16
    0.0011706787   2   -5    4
    0.00076122121   2   -13    14
    0.000322664   2   -3    4
    1.49951e-05   2   -3    2
    8.3598623e-06   2   -5    2
    1.8022496e-06   2   -3    6
    1.2032853e-06   2    24    25
    8.9547091e-07   2   -1    2
    6.1300691e-08   2   -1    6
    4.2064813e-08   2   -1    4
    1.7805043e-08   2   -11    12
    5.1131991e-12   2    24    35
    3.8144626e-12   2    24    36

DECAY 6  2.43
    1   2    5    24

DECAY 15 -1
