# SUSY Les Houches Accord 2 - MSSM spectrum + Decays
# SPheno v4.0.5be
# W. Porod, Comput. Phys. Commun. 153 (2003) 275-315, hep-ph/0301101;
# W. Porod, F.~Staub, Comput. Phys. Commun. 183 (2012) 2458
#                     arXiv:1104.1573 [hep-ph] 
# in case of problems send email to porod@physik.uni-wuerzburg.de
# Created: 15.03.2021,  18:20
Block SPINFO         # Program information
     1   SPheno      # spectrum calculator
     2   v4.0.5be    # version number
#
Block SPhenoINFO     # SPheno specific information
    1      2         # using 2-loop RGEs
    2      2         # using pole masses for boundary conditions at mZ
Block MODSEL  # Model selection
    1    0    # general MSSM
Block MINPAR  # Input parameters
    3    4.78647206E+01  # tanb at m_Z    
    4    1.00000000E+00  # Sign(mu)
Block EXTPAR  # non-universal input parameters
    0    3.65311147E+03  # scale for input parameters
    1   -1.63204760E+03  # M_1
    2   -4.27102738E+02  # M_2
    3    2.53680095E+03  # M_3
   11    2.52075432E+03  # A_t
   12    1.99340740E+02  # A_b
   13   -1.40970431E+02  # A_tau
   23    2.13522719E+02  # mu
   25    4.69909338E+01  # tan(beta)
   26    3.45560314E+03  # m_A, pole mass
   31    1.00000000E+04  # M_L11
   32    1.00000000E+04  # M_L22
   33    1.00000000E+04  # M_L33
   34    1.00000000E+04  # M_E11
   35    1.00000000E+04  # M_E22
   36    1.00000000E+04  # M_E33
   41    1.00000000E+04  # M_Q11
   42    1.00000000E+04  # M_Q22
   43    3.79245792E+03  # M_Q33
   44    1.00000000E+04  # M_U11
   45    1.00000000E+04  # M_U22
   46    3.45346571E+03  # M_U33
   47    1.00000000E+04  # M_D11
   48    1.00000000E+04  # M_D22
   49    4.94190928E+03  # M_D33
Block SMINPUTS  # SM parameters
         1     1.27908970E+02  # alpha_em^-1(MZ)^MSbar
         2     1.16637870E-05  # G_mu [GeV^-2]
         3     1.18400000E-01  # alpha_s(MZ)^MSbar
         4     9.11876000E+01  # m_Z(pole)
         5     4.18000000E+00  # m_b(m_b), MSbar
         6     1.73200000E+02  # m_t(pole)
         7     1.77700000E+00  # m_tau(pole)
         8     0.00000000E+00  # m_nu_3
        11     5.10998930E-04  # m_e(pole)
        12     0.00000000E+00  # m_nu_1
        13     1.05658372E-01  # m_muon(pole)
        14     0.00000000E+00  # m_nu_2
        21     5.00000000E-03  # m_d(2 GeV), MSbar
        22     2.50000000E-03  # m_u(2 GeV), MSbar
        23     9.50000000E-02  # m_s(2 GeV), MSbar
        24     1.27000000E+00  # m_c(m_c), MSbar
Block gauge Q=  3.65311147E+03  # (SUSY scale)
   1    3.55362975E-01  # g'(Q)^DRbar
   2    6.65198874E-01  # g(Q)^DRbar
   3    1.21977796E+00  # g3(Q)^DRbar
Block Yu Q=  3.65311147E+03  # (SUSY scale)
  1  1     8.38627043E-06   # Y_u(Q)^DRbar
  2  2     4.26022538E-03   # Y_c(Q)^DRbar
  3  3     1.01312883E+00   # Y_t(Q)^DRbar
Block Yd Q=  3.65311147E+03  # (SUSY scale)
  1  1     7.91886949E-04   # Y_d(Q)^DRbar
  2  2     1.50458520E-02   # Y_s(Q)^DRbar
  3  3     7.85303712E-01   # Y_b(Q)^DRbar
Block Ye Q=  3.65311147E+03  # (SUSY scale)
  1  1     1.38190063E-04   # Y_e(Q)^DRbar
  2  2     2.85733223E-02   # Y_mu(Q)^DRbar
  3  3     4.80556276E-01   # Y_tau(Q)^DRbar
Block Au Q=  3.65311147E+03  # (SUSY scale)
  1  1     0.00000000E+00   # A_u(Q)^DRbar
  2  2     0.00000000E+00   # A_c(Q)^DRbar
  3  3     2.52075422E+03   # A_t(Q)^DRbar
Block Ad Q=  3.65311147E+03  # (SUSY scale)
  1  1     0.00000000E+00   # A_d(Q)^DRbar
  2  2     0.00000000E+00   # A_s(Q)^DRbar
  3  3     1.99340761E+02   # A_b(Q)^DRbar
Block Ae Q=  3.65311147E+03  # (SUSY scale)
  1  1     0.00000000E+00   # A_e(Q)^DRbar
  2  2     0.00000000E+00   # A_mu(Q)^DRbar
  3  3    -1.40970429E+02   # A_tau(Q)^DRbar
Block MSOFT Q=  3.65311147E+03  # soft SUSY breaking masses at Q
   1   -1.63204760E+03  # M_1
   2   -4.27102738E+02  # M_2
   3    2.53680095E+03  # M_3
  21    1.19271796E+07  # M^2_(H,d)
  22    2.58605267E+05  # M^2_(H,u)
  31    1.00000000E+04  # M_(L,11)
  32    1.00000000E+04  # M_(L,22)
  33    1.00000000E+04  # M_(L,33)
  34    1.00000000E+04  # M_(E,11)
  35    1.00000000E+04  # M_(E,22)
  36    1.00000000E+04  # M_(E,33)
  41    1.00000000E+04  # M_(Q,11)
  42    1.00000000E+04  # M_(Q,22)
  43    3.79245792E+03  # M_(Q,33)
  44    1.00000000E+04  # M_(U,11)
  45    1.00000000E+04  # M_(U,22)
  46    3.45346571E+03  # M_(U,33)
  47    1.00000000E+04  # M_(D,11)
  48    1.00000000E+04  # M_(D,22)
  49    4.94190928E+03  # M_(D,33)
Block MASS  # Mass spectrum
#   PDG code      mass          particle
         6     1.73200000E+02  # m_t(pole)
        23     9.11876000E+01  # m_Z(pole)
        24     8.04299946E+01  # W+
        15     1.77700000E+00  # m_tau(pole)
        25     1.23773449E+02  # h0
        35     3.45383239E+03  # H0
        36     3.45560314E+03  # A0
        37     3.45551827E+03  # H+
   1000001     1.01125475E+04  # ~d_L
   2000001     1.00874594E+04  # ~d_R
   1000002     1.01121799E+04  # ~u_L
   2000002     1.00900776E+04  # ~u_R
   1000003     1.01125526E+04  # ~s_L
   2000003     1.00874686E+04  # ~s_R
   1000004     1.01121850E+04  # ~c_L
   2000004     1.00900784E+04  # ~c_R
   1000005     3.83166226E+03  # ~b_1
   2000005     4.97893748E+03  # ~b_2
   1000006     3.47654950E+03  # ~t_1
   2000006     3.83864041E+03  # ~t_2
   1000011     1.00211312E+04  # ~e_L-
   2000011     1.00088631E+04  # ~e_R-
   1000012     1.00203590E+04  # ~nu_eL
   1000013     1.00211560E+04  # ~mu_L-
   2000013     1.00089106E+04  # ~mu_R-
   1000014     1.00203835E+04  # ~nu_muL
   1000015     1.00222614E+04  # ~tau_1-
   2000015     1.00282116E+04  # ~tau_2-
   1000016     1.00273073E+04  # ~nu_tauL
   1000021     2.99470475E+03  # ~g
   1000022     2.18408129E+02  # ~chi_10
   1000023     2.36374753E+02  # ~chi_20
   1000025     4.87113298E+02  # ~chi_30
   1000035     1.64607322E+03  # ~chi_40
   1000024     2.23688324E+02  # ~chi_1+
   1000037     4.86986996E+02  # ~chi_2+
# Higgs mixing
Block alpha # Effective Higgs mixing angle
          -2.09245128E-02   # alpha
Block Hmix Q=  3.65311147E+03  # Higgs mixing parameters
   1    2.13522719E+02  # mu
   2    4.69909338E+01  # tan[beta](Q)
   3    2.43032680E+02  # v(Q)
   4    1.19411931E+07  # m^2_A(Q)
Block stopmix # stop mixing matrix
   1  1    -1.18616855E-01   # Re[R_st(1,1)]
   1  2     9.92940100E-01   # Re[R_st(1,2)]
   2  1    -9.92940100E-01   # Re[R_st(2,1)]
   2  2    -1.18616855E-01   # Re[R_st(2,2)]
Block sbotmix # sbottom mixing matrix
   1  1     9.99998076E-01   # Re[R_sb(1,1)]
   1  2     1.96167901E-03   # Re[R_sb(1,2)]
   2  1    -1.96167901E-03   # Re[R_sb(2,1)]
   2  2     9.99998076E-01   # Re[R_sb(2,2)]
Block staumix # stau mixing matrix
   1  1     1.52223516E-01   # Re[R_sta(1,1)]
   1  2     9.88346094E-01   # Re[R_sta(1,2)]
   2  1    -9.88346094E-01   # Re[R_sta(2,1)]
   2  2     1.52223516E-01   # Re[R_sta(2,2)]
Block Nmix # neutralino mixing matrix
   1  1    -2.05405320E-02   # Re[N(1,1)]
   1  2     2.10419014E-01   # Re[N(1,2)]
   1  3    -7.11108333E-01   # Re[N(1,3)]
   1  4    -6.70542216E-01   # Re[N(1,4)]
   2  1    -1.72380805E-02   # Re[N(2,1)]
   2  2     8.34294488E-02   # Re[N(2,2)]
   2  3     6.96771647E-01   # Re[N(2,3)]
   2  4    -7.12216012E-01   # Re[N(2,4)]
   3  1    -7.83903476E-03   # Re[N(3,1)]
   3  2    -9.74043041E-01   # Re[N(3,2)]
   3  3    -9.39313594E-02   # Re[N(3,3)]
   3  4    -2.05804769E-01   # Re[N(3,4)]
   4  1     9.99609666E-01   # Re[N(4,1)]
   4  2    -1.87600747E-03   # Re[N(4,2)]
   4  3    -3.33316999E-03   # Re[N(4,3)]
   4  4    -2.76746439E-02   # Re[N(4,4)]
Block Umix # chargino mixing matrix
   1  1    -1.35894816E-01   # Re[U(1,1)]
   1  2     9.90723271E-01   # Re[U(1,2)]
   2  1    -9.90723271E-01   # Re[U(2,1)]
   2  2    -1.35894816E-01   # Re[U(2,2)]
Block Vmix # chargino mixing matrix
   1  1     2.97279415E-01   # Re[V(1,1)]
   1  2     9.54790527E-01   # Re[V(1,2)]
   2  1     9.54790527E-01   # Re[V(2,1)]
   2  2    -2.97279415E-01   # Re[V(2,2)]
DECAY        23     2.49520000E+00   # Z
DECAY        24     2.08500000E+00   # W
DECAY   2000011     4.76092276E+01   # ~e^-_R
#    BR                NDA      ID1      ID2
     4.45294302E-04    2     1000022        11   # BR(~e^-_R -> chi^0_1 e^-)
     3.13577563E-04    2     1000023        11   # BR(~e^-_R -> chi^0_2 e^-)
     9.99176443E-01    2     1000035        11   # BR(~e^-_R -> chi^0_4 e^-)
DECAY   1000011     1.43636734E+02   # ~e^-_L
#    BR                NDA      ID1      ID2
     1.22037170E-02    2     1000022        11   # BR(~e^-_L -> chi^0_1 e^-)
     1.68974887E-03    2     1000023        11   # BR(~e^-_L -> chi^0_2 e^-)
     2.92470681E-01    2     1000025        11   # BR(~e^-_L -> chi^0_3 e^-)
     8.23269692E-02    2     1000035        11   # BR(~e^-_L -> chi^0_4 e^-)
     1.13307139E-02    2    -1000024        12   # BR(~e^-_L -> chi^-_1 nu_e)
     5.99978169E-01    2    -1000037        12   # BR(~e^-_L -> chi^-_2 nu_e)
#    BR                NDA      ID1      ID2       ID3
DECAY   2000013     4.79342629E+01   # ~mu^-_R
#    BR                NDA      ID1      ID2
     2.15560235E-03    2     1000022        13   # BR(~mu^-_R -> chi^0_1 mu^-)
     1.95612273E-03    2     1000023        13   # BR(~mu^-_R -> chi^0_2 mu^-)
     9.92406443E-01    2     1000035        13   # BR(~mu^-_R -> chi^0_4 mu^-)
     3.32554756E-03    2    -1000024        14   # BR(~mu^-_R -> chi^-_1 nu_mu)
DECAY   1000013     1.43799688E+02   # ~mu^-_L
#    BR                NDA      ID1      ID2
     1.27617367E-02    2     1000022        13   # BR(~mu^-_L -> chi^0_1 mu^-)
     2.23674635E-03    2     1000023        13   # BR(~mu^-_L -> chi^0_2 mu^-)
     2.92149927E-01    2     1000025        13   # BR(~mu^-_L -> chi^0_3 mu^-)
     8.22339143E-02    2     1000035        13   # BR(~mu^-_L -> chi^0_4 mu^-)
     1.13179020E-02    2    -1000024        14   # BR(~mu^-_L -> chi^-_1 nu_mu)
     5.99299773E-01    2    -1000037        14   # BR(~mu^-_L -> chi^-_2 nu_mu)
#    BR                NDA      ID1      ID2       ID3
DECAY   1000015     1.40846554E+02   # ~tau^-_1
#    BR                NDA      ID1      ID2
     1.80736047E-01    2     1000022        15   # BR(~tau^-_1 -> chi^0_1 tau^-)
     1.52474184E-01    2     1000023        15   # BR(~tau^-_1 -> chi^0_2 tau^-)
     1.07435612E-03    2     1000025        15   # BR(~tau^-_1 -> chi^0_3 tau^-)
     3.32197565E-01    2     1000035        15   # BR(~tau^-_1 -> chi^0_4 tau^-)
     3.31714548E-01    2    -1000024        16   # BR(~tau^-_1 -> chi^-_1 nu_tau)
     1.80330084E-03    2    -1000037        16   # BR(~tau^-_1 -> chi^-_2 nu_tau)
DECAY   2000015     1.88589027E+02   # ~tau^-_2
#    BR                NDA      ID1      ID2
     1.21191302E-01    2     1000022        15   # BR(~tau^-_2 -> chi^0_1 tau^-)
     1.24373753E-01    2     1000023        15   # BR(~tau^-_2 -> chi^0_2 tau^-)
     2.26420807E-01    2     1000025        15   # BR(~tau^-_2 -> chi^0_3 tau^-)
     6.72779732E-02    2     1000035        15   # BR(~tau^-_2 -> chi^0_4 tau^-)
     3.00779129E-04    2    -1000024        16   # BR(~tau^-_2 -> chi^-_1 nu_tau)
     4.60435386E-01    2    -1000037        16   # BR(~tau^-_2 -> chi^-_2 nu_tau)
#    BR                NDA      ID1      ID2       ID3
DECAY   1000012     1.43641871E+02   # ~nu_e
#    BR                NDA      ID1      ID2
     1.50354777E-02    2     1000022        12   # BR(~nu_e -> chi^0_1 nu_e)
     2.63210911E-03    2     1000023        12   # BR(~nu_e -> chi^0_2 nu_e)
     2.87451249E-01    2     1000025        12   # BR(~nu_e -> chi^0_3 nu_e)
     8.34818803E-02    2     1000035        12   # BR(~nu_e -> chi^0_4 nu_e)
     5.42166041E-02    2     1000024        11   # BR(~nu_e -> chi^+_1 e^-)
     5.57182680E-01    2     1000037        11   # BR(~nu_e -> chi^+_2 e^-)
#    BR                NDA      ID1      ID2       ID3
DECAY   1000014     1.43804807E+02   # ~nu_mu
#    BR                NDA      ID1      ID2
     1.50184788E-02    2     1000022        14   # BR(~nu_mu -> chi^0_1 nu_mu)
     2.62913329E-03    2     1000023        14   # BR(~nu_mu -> chi^0_2 nu_mu)
     2.87126265E-01    2     1000025        14   # BR(~nu_mu -> chi^0_3 nu_mu)
     8.33875189E-02    2     1000035        14   # BR(~nu_mu -> chi^0_4 nu_mu)
     5.52650623E-02    2     1000024        13   # BR(~nu_mu -> chi^+_1 mu^-)
     5.56573542E-01    2     1000037        13   # BR(~nu_mu -> chi^+_2 mu^-)
#    BR                NDA      ID1      ID2       ID3
DECAY   1000016     1.89762590E+02   # ~nu_tau
#    BR                NDA      ID1      ID2
     1.13890972E-02    2     1000022        16   # BR(~nu_tau -> chi^0_1 nu_tau)
     1.99377459E-03    2     1000023        16   # BR(~nu_tau -> chi^0_2 nu_tau)
     2.17740165E-01    2     1000025        16   # BR(~nu_tau -> chi^0_3 nu_tau)
     6.32407617E-02    2     1000035        16   # BR(~nu_tau -> chi^0_4 nu_tau)
     2.79117724E-01    2     1000024        15   # BR(~nu_tau -> chi^+_1 tau^-)
     4.26518478E-01    2     1000037        15   # BR(~nu_tau -> chi^+_2 tau^-)
#    BR                NDA      ID1      ID2       ID3
DECAY   2000001     6.67406604E+02   # ~d_R
#    BR                NDA      ID1      ID2
     7.98862599E-03    2     1000035         1   # BR(~d_R -> chi^0_4 d)
     9.92004420E-01    2     1000021         1   # BR(~d_R -> ~g d)
DECAY   1000001     7.98617157E+02   # ~d_L
#    BR                NDA      ID1      ID2
     2.55195130E-03    2     1000022         1   # BR(~d_L -> chi^0_1 d)
     4.16632749E-04    2     1000023         1   # BR(~d_L -> chi^0_2 d)
     5.24829228E-02    2     1000025         1   # BR(~d_L -> chi^0_3 d)
     1.70909714E-03    2     1000035         1   # BR(~d_L -> chi^0_4 d)
     2.05653347E-03    2    -1000024         2   # BR(~d_L -> chi^-_1 u)
     1.08903833E-01    2    -1000037         2   # BR(~d_L -> chi^-_2 u)
     8.31879030E-01    2     1000021         1   # BR(~d_L -> ~g d)
DECAY   2000003     6.67497960E+02   # ~s_R
#    BR                NDA      ID1      ID2
     7.98754147E-03    2     1000035         3   # BR(~s_R -> chi^0_4 s)
     9.91869904E-01    2     1000021         3   # BR(~s_R -> ~g s)
DECAY   1000003     7.98666706E+02   # ~s_L
#    BR                NDA      ID1      ID2
     2.58052274E-03    2     1000022         3   # BR(~s_L -> chi^0_1 s)
     4.44185192E-04    2     1000023         3   # BR(~s_L -> chi^0_2 s)
     5.24801936E-02    2     1000025         3   # BR(~s_L -> chi^0_3 s)
     1.70899268E-03    2     1000035         3   # BR(~s_L -> chi^0_4 s)
     2.06056941E-03    2    -1000024         4   # BR(~s_L -> chi^-_1 c)
     1.08897536E-01    2    -1000037         4   # BR(~s_L -> chi^-_2 c)
     8.31828001E-01    2     1000021         3   # BR(~s_L -> ~g s)
DECAY   1000005     2.21934100E+02   # ~b_1
#    BR                NDA      ID1      ID2
     1.09950174E-01    2     1000022         5   # BR(~b_1 -> chi^0_1 b)
     1.02589979E-01    2     1000023         5   # BR(~b_1 -> chi^0_2 b)
     7.13575969E-02    2     1000025         5   # BR(~b_1 -> chi^0_3 b)
     1.63610897E-03    2     1000035         5   # BR(~b_1 -> chi^0_4 b)
     3.20442298E-01    2    -1000024         6   # BR(~b_1 -> chi^-_1 t)
     1.75264020E-01    2    -1000037         6   # BR(~b_1 -> chi^-_2 t)
     2.06376982E-01    2     1000021         5   # BR(~b_1 -> ~g b)
     1.23828408E-02    2     1000006       -24   # BR(~b_1 -> ~t_1 W^-)
DECAY   2000005     2.83841813E+02   # ~b_2
#    BR                NDA      ID1      ID2
     1.08333319E-01    2     1000022         5   # BR(~b_2 -> chi^0_1 b)
     1.04048164E-01    2     1000023         5   # BR(~b_2 -> chi^0_2 b)
     1.90870523E-03    2     1000025         5   # BR(~b_2 -> chi^0_3 b)
     7.76601672E-03    2     1000035         5   # BR(~b_2 -> chi^0_4 b)
     2.09781601E-01    2    -1000024         6   # BR(~b_2 -> chi^-_1 t)
     3.98429162E-03    2    -1000037         6   # BR(~b_2 -> chi^-_2 t)
     5.63986060E-01    2     1000021         5   # BR(~b_2 -> ~g b)
DECAY   2000002     6.83658922E+02   # ~u_R
#    BR                NDA      ID1      ID2
     3.12038463E-02    2     1000035         2   # BR(~u_R -> chi^0_4 u)
     9.68770462E-01    2     1000021         2   # BR(~u_R -> ~g u)
DECAY   1000002     7.98603700E+02   # ~u_L
#    BR                NDA      ID1      ID2
     2.38039924E-03    2     1000022         2   # BR(~u_L -> chi^0_1 u)
     3.59517168E-04    2     1000023         2   # BR(~u_L -> chi^0_2 u)
     5.27835966E-02    2     1000025         2   # BR(~u_L -> chi^0_3 u)
     1.63850413E-03    2     1000035         2   # BR(~u_L -> chi^0_4 u)
     9.84142557E-03    2     1000024         1   # BR(~u_L -> chi^+_1 d)
     1.01145377E-01    2     1000037         1   # BR(~u_L -> chi^+_2 d)
     8.31851180E-01    2     1000021         2   # BR(~u_L -> ~g u)
DECAY   2000004     6.83666241E+02   # ~c_R
#    BR                NDA      ID1      ID2
     3.12035165E-02    2     1000035         4   # BR(~c_R -> chi^0_4 c)
     9.68760151E-01    2     1000021         4   # BR(~c_R -> ~g c)
DECAY   1000004     7.98653213E+02   # ~c_L
#    BR                NDA      ID1      ID2
     2.38230727E-03    2     1000022         4   # BR(~c_L -> chi^0_1 c)
     3.61811906E-04    2     1000023         4   # BR(~c_L -> chi^0_2 c)
     5.27805391E-02    2     1000025         4   # BR(~c_L -> chi^0_3 c)
     1.63840694E-03    2     1000035         4   # BR(~c_L -> chi^0_4 c)
     9.89658222E-03    2     1000024         3   # BR(~c_L -> chi^+_1 s)
     1.01140202E-01    2     1000037         3   # BR(~c_L -> chi^+_2 s)
     8.31800151E-01    2     1000021         4   # BR(~c_L -> ~g c)
DECAY   1000006     1.60891013E+02   # ~t_1
#    BR                NDA      ID1      ID2
     2.03314701E-01    2     1000022         6   # BR(~t_1 -> chi^0_1 t)
     2.24186509E-01    2     1000023         6   # BR(~t_1 -> chi^0_2 t)
     9.92930924E-03    2     1000025         6   # BR(~t_1 -> chi^0_3 t)
     2.77877351E-02    2     1000035         6   # BR(~t_1 -> chi^0_4 t)
     4.16396917E-01    2     1000024         5   # BR(~t_1 -> chi^+_1 b)
     2.07465421E-02    2     1000037         5   # BR(~t_1 -> chi^+_2 b)
     6.82617193E-04    2     1000021         4   # BR(~t_1 -> ~g c)
     9.65578068E-02    2     1000021         6   # BR(~t_1 -> ~g t)
#    BR                NDA      ID1      ID2       ID3
     3.69947209E-04    3     1000022        24         5   # BR(~t_1 -> chi^0_1 W^+ b)
DECAY   2000006     2.24291682E+02   # ~t_2
#    BR                NDA      ID1      ID2
     1.53045362E-01    2     1000022         6   # BR(~t_2 -> chi^0_1 t)
     1.73063130E-01    2     1000023         6   # BR(~t_2 -> chi^0_2 t)
     8.89836417E-02    2     1000025         6   # BR(~t_2 -> chi^0_3 t)
     2.54761446E-03    2     1000035         6   # BR(~t_2 -> chi^0_4 t)
     2.04078394E-01    2     1000024         5   # BR(~t_2 -> chi^+_1 b)
     1.50049071E-01    2     1000037         5   # BR(~t_2 -> chi^+_2 b)
     2.09972398E-01    2     1000021         6   # BR(~t_2 -> ~g t)
     6.26433938E-03    2     1000006        23   # BR(~t_2 -> ~t_1 Z)
     1.19960508E-02    2     1000006        25   # BR(~t_2 -> ~t_1 h^0)
DECAY   1000024     1.59858162E-08   # chi^+_1
#    BR                NDA      ID1      ID2       ID3
     3.82135467E-01    3     1000022        -1         2   # BR(chi^+_1 -> chi^0_1 d_bar u)
     2.89154282E-01    3     1000022        -3         4   # BR(chi^+_1 -> chi^0_1 s_bar c)
     1.27378522E-01    3     1000022       -11        12   # BR(chi^+_1 -> chi^0_1 e^+ nu_e)
     1.27124766E-01    3     1000022       -13        14   # BR(chi^+_1 -> chi^0_1 mu^+ nu_mu)
     7.42069627E-02    3     1000022       -15        16   # BR(chi^+_1 -> chi^0_1 tau^+ nu_tau)
DECAY   1000037     3.37487215E+00   # chi^+_2
#    BR                NDA      ID1      ID2
     2.95962866E-01    2     1000022        24   # BR(chi^+_2 -> chi^0_1 W^+)
     2.53975685E-01    2     1000023        24   # BR(chi^+_2 -> chi^0_2 W^+)
     2.47845524E-01    2     1000024        23   # BR(chi^+_2 -> chi^+_1 Z)
     2.01798239E-01    2     1000024        25   # BR(chi^+_2 -> chi^+_1 h^0)
#    BR                NDA      ID1      ID2       ID3
     2.81045543E-04    3     1000022        -5         6   # BR(chi^+_2 -> chi^0_1 b_bar t)
     1.36498906E-04    3     1000023        -5         6   # BR(chi^+_2 -> chi^0_2 b_bar t)
DECAY   1000022     0.00000000E+00   # chi^0_1
DECAY   1000023     6.74388648E-06   # chi^0_2
#    BR                NDA      ID1      ID2
     1.05779744E-01    2     1000022        22   # BR(chi^0_2 -> chi^0_1 photon)
#    BR                NDA      ID1      ID2       ID3
     1.00119211E-01    3     1000022         2        -2   # BR(chi^0_2 -> chi^0_1 u u_bar)
     9.37172384E-02    3     1000022         4        -4   # BR(chi^0_2 -> chi^0_1 c c_bar)
     1.28372222E-01    3     1000022         1        -1   # BR(chi^0_2 -> chi^0_1 d d_bar)
     1.28331087E-01    3     1000022         3        -3   # BR(chi^0_2 -> chi^0_1 s s_bar)
     6.74192322E-02    3     1000022         5        -5   # BR(chi^0_2 -> chi^0_1 b b_bar)
     2.89699795E-02    3     1000022        11       -11   # BR(chi^0_2 -> chi^0_1 e^- e^+)
     2.89553320E-02    3     1000022        13       -13   # BR(chi^0_2 -> chi^0_1 mu^- mu^+)
     2.51476690E-02    3     1000022        15       -15   # BR(chi^0_2 -> chi^0_1 tau^- tau^+)
     1.71671425E-01    3     1000022        12       -12   # BR(chi^0_2 -> chi^0_1 nu_e nu_bar_e)
     2.07966326E-02    3     1000024         1        -2   # BR(chi^0_2 -> chi^+_1 d u_bar)
     2.07966326E-02    3    -1000024        -1         2   # BR(chi^0_2 -> chi^-_1 d_bar u)
     1.97998672E-02    3     1000024         3        -4   # BR(chi^0_2 -> chi^+_1 s c_bar)
     1.97998672E-02    3    -1000024        -3         4   # BR(chi^0_2 -> chi^-_1 s_bar c)
     6.93221347E-03    3     1000024        11       -12   # BR(chi^0_2 -> chi^+_1 e^- nu_bar_e)
     6.93221347E-03    3    -1000024       -11        12   # BR(chi^0_2 -> chi^-_1 e^+ nu_e)
     6.92982432E-03    3     1000024        13       -14   # BR(chi^0_2 -> chi^+_1 mu^- nu_bar_mu)
     6.92982432E-03    3    -1000024       -13        14   # BR(chi^0_2 -> chi^-_1 mu^+ nu_mu)
     6.29989214E-03    3     1000024        15       -16   # BR(chi^0_2 -> chi^+_1 tau^- nu_bar_tau)
     6.29989214E-03    3    -1000024       -15        16   # BR(chi^0_2 -> chi^-_1 tau^+ nu_tau)
DECAY   1000025     4.52415099E+00   # chi^0_3
#    BR                NDA      ID1      ID2
     2.49788463E-01    2     1000024       -24   # BR(chi^0_3 -> chi^+_1 W^-)
     2.49788463E-01    2    -1000024        24   # BR(chi^0_3 -> chi^-_1 W^+)
     2.53613879E-02    2     1000022        23   # BR(chi^0_3 -> chi^0_1 Z)
     2.00786821E-01    2     1000023        23   # BR(chi^0_3 -> chi^0_2 Z)
     1.17339566E-01    2     1000022        25   # BR(chi^0_3 -> chi^0_1 h^0)
     1.56361232E-01    2     1000023        25   # BR(chi^0_3 -> chi^0_2 h^0)
#    BR                NDA      ID1      ID2       ID3
     2.60676381E-04    3     1000024         5        -6   # BR(chi^0_3 -> chi^+_1 b t_bar)
     2.60676381E-04    3    -1000024        -5         6   # BR(chi^0_3 -> chi^-_1 b_bar t)
DECAY   1000035     4.75097646E+00   # chi^0_4
#    BR                NDA      ID1      ID2
     2.01162998E-01    2     1000024       -24   # BR(chi^0_4 -> chi^+_1 W^-)
     2.01162998E-01    2    -1000024        24   # BR(chi^0_4 -> chi^-_1 W^+)
     3.04783580E-02    2     1000037       -24   # BR(chi^0_4 -> chi^+_2 W^-)
     3.04783580E-02    2    -1000037        24   # BR(chi^0_4 -> chi^-_2 W^+)
     7.95356361E-02    2     1000022        23   # BR(chi^0_4 -> chi^0_1 Z)
     1.46039874E-01    2     1000023        23   # BR(chi^0_4 -> chi^0_2 Z)
     7.07405188E-03    2     1000025        23   # BR(chi^0_4 -> chi^0_3 Z)
     1.13319031E-01    2     1000022        25   # BR(chi^0_4 -> chi^0_1 h^0)
     1.44643370E-01    2     1000023        25   # BR(chi^0_4 -> chi^0_2 h^0)
     2.13720653E-02    2     1000025        25   # BR(chi^0_4 -> chi^0_3 h^0)
#    BR                NDA      ID1      ID2       ID3
     3.83119157E-03    3     1000022         6        -6   # BR(chi^0_4 -> chi^0_1 t t_bar)
     4.48355488E-03    3     1000023         6        -6   # BR(chi^0_4 -> chi^0_2 t t_bar)
     4.74912680E-04    3     1000025         6        -6   # BR(chi^0_4 -> chi^0_3 t t_bar)
     6.95361523E-03    3     1000024         5        -6   # BR(chi^0_4 -> chi^+_1 b t_bar)
     6.95361523E-03    3    -1000024        -5         6   # BR(chi^0_4 -> chi^-_1 b_bar t)
     9.93725883E-04    3     1000037         5        -6   # BR(chi^0_4 -> chi^+_2 b t_bar)
     9.93725883E-04    3    -1000037        -5         6   # BR(chi^0_4 -> chi^-_2 b_bar t)
DECAY   1000021     3.66418001E-01   # ~g
#    BR                NDA      ID1      ID2
     2.34781849E-03    2     1000022        21   # BR(~g -> chi^0_1 g)
     2.32350143E-03    2     1000023        21   # BR(~g -> chi^0_2 g)
     1.99647807E-04    2     1000025        21   # BR(~g -> chi^0_3 g)
#    BR                NDA      ID1      ID2       ID3
     1.66349956E-01    3     1000022         6        -6   # BR(~g -> chi^0_1 t t_bar)
     4.89965189E-02    3     1000022         5        -5   # BR(~g -> chi^0_1 b b_bar)
     1.80969453E-01    3     1000023         6        -6   # BR(~g -> chi^0_2 t t_bar)
     4.60544151E-02    3     1000023         5        -5   # BR(~g -> chi^0_2 b b_bar)
     2.28486064E-04    3     1000025         2        -2   # BR(~g -> chi^0_3 u u_bar)
     2.28487599E-04    3     1000025         4        -4   # BR(~g -> chi^0_3 c c_bar)
     2.24685169E-02    3     1000025         6        -6   # BR(~g -> chi^0_3 t t_bar)
     2.27140131E-04    3     1000025         1        -1   # BR(~g -> chi^0_3 d d_bar)
     2.27144873E-04    3     1000025         3        -3   # BR(~g -> chi^0_3 s s_bar)
     2.03604728E-02    3     1000025         5        -5   # BR(~g -> chi^0_3 b b_bar)
     3.52205938E-03    3     1000035         6        -6   # BR(~g -> chi^0_4 t t_bar)
     2.63739649E-04    3     1000035         5        -5   # BR(~g -> chi^0_4 b b_bar)
     2.18758241E-01    3     1000024         5        -6   # BR(~g -> chi^+_1 b t_bar)
     2.18758241E-01    3    -1000024        -5         6   # BR(~g -> chi^-_1 b_bar t)
     2.73328304E-04    3     1000037         1        -2   # BR(~g -> chi^+_2 d u_bar)
     2.73328304E-04    3    -1000037        -1         2   # BR(~g -> chi^-_2 d_bar u)
     2.73335289E-04    3     1000037         3        -4   # BR(~g -> chi^+_2 s c_bar)
     2.73335289E-04    3    -1000037        -3         4   # BR(~g -> chi^-_2 s_bar c)
     3.32146890E-02    3     1000037         5        -6   # BR(~g -> chi^+_2 b t_bar)
     3.32146890E-02    3    -1000037        -5         6   # BR(~g -> chi^-_2 b_bar t)
DECAY        25     3.39398211E-03   # Gamma(h0)
     2.56576390E-03   2        22        22   # BR(h0 -> photon photon)
     1.52811859E-03   2        22        23   # BR(h0 -> photon Z)
     2.70717030E-02   2        23        23   # BR(h0 -> Z Z)
     2.29190455E-01   2       -24        24   # BR(h0 -> W W)
     8.06631117E-02   2        21        21   # BR(h0 -> gluon gluon)
     5.07544131E-09   2       -11        11   # BR(h0 -> Electron electron)
     2.25764037E-04   2       -13        13   # BR(h0 -> Muon muon)
     6.50943104E-02   2       -15        15   # BR(h0 -> Tau tau)
     1.44528910E-07   2        -2         2   # BR(h0 -> Up up)
     2.80491691E-02   2        -4         4   # BR(h0 -> Charm charm)
     5.88497026E-07   2        -1         1   # BR(h0 -> Down down)
     2.12845166E-04   2        -3         3   # BR(h0 -> Strange strange)
     5.65398021E-01   2        -5         5   # BR(h0 -> Bottom bottom)
DECAY        35     1.25729871E+02   # Gamma(HH)
     4.14472946E-08   2        22        22   # BR(HH -> photon photon)
     9.11643306E-08   2        22        23   # BR(HH -> photon Z)
     7.32628352E-08   2        23        23   # BR(HH -> Z Z)
     1.84673184E-08   2       -24        24   # BR(HH -> W W)
     5.93349021E-06   2        21        21   # BR(HH -> gluon gluon)
     8.55218166E-09   2       -11        11   # BR(HH -> Electron electron)
     3.80802224E-04   2       -13        13   # BR(HH -> Muon muon)
     1.09982715E-01   2       -15        15   # BR(HH -> Tau tau)
     2.71678034E-14   2        -2         2   # BR(HH -> Up up)
     5.27041756E-09   2        -4         4   # BR(HH -> Charm charm)
     3.72658008E-04   2        -6         6   # BR(HH -> Top top)
     6.13111669E-07   2        -1         1   # BR(HH -> Down down)
     2.21758140E-04   2        -3         3   # BR(HH -> Strange strange)
     5.45837435E-01   2        -5         5   # BR(HH -> Bottom bottom)
     2.29689278E-02   2  -1000024   1000024   # BR(HH -> Chargino1 chargino1)
     9.43565140E-02   2  -1000024   1000037   # BR(HH -> Chargino1 chargino2)
     9.43565140E-02   2  -1000037   1000024   # BR(HH -> Chargino2 chargino1)
     4.47615369E-03   2  -1000037   1000037   # BR(HH -> Chargino2 chargino2)
     6.67039049E-03   2   1000022   1000022   # BR(HH -> neutralino1 neutralino1)
     9.22948430E-04   2   1000022   1000023   # BR(HH -> neutralino1 neutralino2)
     4.82575145E-02   2   1000022   1000025   # BR(HH -> neutralino1 neutralino3)
     9.40925288E-03   2   1000022   1000035   # BR(HH -> neutralino1 neutralino4)
     1.00468397E-03   2   1000023   1000023   # BR(HH -> neutralino2 neutralino2)
     4.87287629E-02   2   1000023   1000025   # BR(HH -> neutralino2 neutralino3)
     9.63025564E-03   2   1000023   1000035   # BR(HH -> neutralino2 neutralino4)
     2.21169264E-03   2   1000025   1000025   # BR(HH -> neutralino3 neutralino3)
     2.03603768E-04   2   1000025   1000035   # BR(HH -> neutralino3 neutralino4)
     2.74934489E-08   2   1000035   1000035   # BR(HH -> neutralino4 neutralino4)
     6.04878915E-07   2        25        25   # BR(HH -> h0 h0)
DECAY        36     1.19250167E+02   # Gamma(A0)
     1.49591063E-09   2        22        22   # BR(A0 -> photon photon)
     2.97558050E-08   2        22        23   # BR(A0 -> photon Z)
     1.02460668E-05   2        21        21   # BR(A0 -> gluon gluon)
     8.30714517E-09   2       -11        11   # BR(A0 -> Electron electron)
     3.69889394E-04   2       -13        13   # BR(A0 -> Muon muon)
     1.06831023E-01   2       -15        15   # BR(A0 -> Tau tau)
     2.51104912E-14   2        -2         2   # BR(A0 -> Up up)
     4.87112134E-09   2        -4         4   # BR(A0 -> Charm charm)
     3.47718951E-04   2        -6         6   # BR(A0 -> Top top)
     5.95504488E-07   2        -1         1   # BR(A0 -> Down down)
     2.15388775E-04   2        -3         3   # BR(A0 -> Strange strange)
     5.30165591E-01   2        -5         5   # BR(A0 -> Bottom bottom)
     2.36817264E-02   2  -1000024   1000024   # BR(A0 -> Chargino1 chargino1)
     1.00080189E-01   2  -1000024   1000037   # BR(A0 -> Chargino1 chargino2)
     1.00080189E-01   2  -1000037   1000024   # BR(A0 -> Chargino2 chargino1)
     4.18888581E-03   2  -1000037   1000037   # BR(A0 -> Chargino2 chargino2)
     6.59649016E-03   2   1000022   1000022   # BR(A0 -> neutralino1 neutralino1)
     1.17989211E-03   2   1000022   1000023   # BR(A0 -> neutralino1 neutralino2)
     4.87285401E-02   2   1000022   1000025   # BR(A0 -> neutralino1 neutralino3)
     1.05976575E-02   2   1000022   1000035   # BR(A0 -> neutralino1 neutralino4)
     1.17374589E-03   2   1000023   1000023   # BR(A0 -> neutralino2 neutralino2)
     5.39520821E-02   2   1000023   1000025   # BR(A0 -> neutralino2 neutralino3)
     9.47259142E-03   2   1000023   1000035   # BR(A0 -> neutralino2 neutralino4)
     2.08619475E-03   2   1000025   1000025   # BR(A0 -> neutralino3 neutralino3)
     2.41049360E-04   2   1000025   1000035   # BR(A0 -> neutralino3 neutralino4)
     1.27911167E-07   2   1000035   1000035   # BR(A0 -> neutralino4 neutralino4)
     1.40955966E-07   2        23        25   # BR(A0 -> Z h0)
     1.60378956E-13   2        23        35   # BR(A0 -> Z HH)
     5.26829493E-40   2        25        25   # BR(A0 -> h0 h0)
DECAY        37     1.38359808E+02   # Gamma(Hp)
     9.46226192E-09   2       -11        12   # BR(Hp -> Electron nu_e)
     4.04541251E-04   2       -13        14   # BR(Hp -> Muon nu_mu)
     1.14427289E-01   2       -15        16   # BR(Hp -> Tau nu_tau)
     5.88408656E-07   2        -1         2   # BR(Hp -> Down up)
     9.94773509E-06   2        -3         2   # BR(Hp -> Strange up)
     6.05776255E-06   2        -5         2   # BR(Hp -> Bottom up)
     2.77755562E-08   2        -1         4   # BR(Hp -> Down charm)
     2.12054229E-04   2        -3         4   # BR(Hp -> Strange charm)
     8.48303576E-04   2        -5         4   # BR(Hp -> Bottom charm)
     2.77031490E-08   2        -1         6   # BR(Hp -> Down top)
     9.19006432E-07   2        -3         6   # BR(Hp -> Strange top)
     5.72376231E-01   2        -5         6   # BR(Hp -> Bottom top)
     4.34253158E-04   2   1000022   1000024   # BR(Hp -> neutralino1 chargino1)
     1.03589095E-01   2   1000022   1000037   # BR(Hp -> neutralino1 chargino2)
     5.22794903E-03   2   1000023   1000024   # BR(Hp -> neutralino2 chargino1)
     9.01762199E-02   2   1000023   1000037   # BR(Hp -> neutralino2 chargino2)
     9.50127347E-02   2   1000024   1000025   # BR(Hp -> chargino1 neutralino3)
     1.40003062E-07   2   1000025   1000037   # BR(Hp -> neutralino3 chargino2)
     1.68666319E-02   2   1000024   1000035   # BR(Hp -> chargino1 neutralino4)
     4.06857874E-04   2   1000035   1000037   # BR(Hp -> neutralino4 chargino2)
     1.21535604E-07   2        24        25   # BR(Hp -> W h0)
     1.33998688E-13   2        24        35   # BR(Hp -> W HH)
DECAY         6     2.43000000E+00   # top
#    BR                NDA      ID1      ID2
     1.00000000E+00    2           5        24   # BR(t -> b W)
Block HiggsBoundsInputHiggsCouplingsFermions
# ScalarNormEffCoupSq PseudoSNormEffCoupSq NP IP1 IP2 IP2
    9.67101618E-01    0.00000000E+00        3  25   5   5  # h0-b-b eff. coupling^2, normalised to SM
    2.20818076E+03    0.00000000E+00        3  35   5   5  # H0-b-b eff. coupling^2, normalised to SM
    0.00000000E+00    2.20814786E+03        3  36   5   5  # A0-b-b eff. coupling^2, normalised to SM
#
    1.00001490E+00    0.00000000E+00        3  25   6   6  # h0-t-t eff. coupling^2, normalised to SM
    4.37969592E-04    0.00000000E+00        3  35   6   6  # H0-t-t eff. coupling^2, normalised to SM
    0.00000000E+00    4.52868224E-04        3  36   6   6  # A0-t-t eff. coupling^2, normalised to SM
#
    9.67101618E-01    0.00000000E+00        3  25  15  15  # h0-tau-tau eff. coupling^2, normalised to SM
    2.20818076E+03    0.00000000E+00        3  35  15  15  # H0-tau-tau eff. coupling^2, normalised to SM
    0.00000000E+00    2.20814786E+03        3  36  15  15  # A0-tau-tau eff. coupling^2, normalised to SM
#
Block HiggsBoundsInputHiggsCouplingsBosons
    9.99999875E-01        3  25  24  24  # h0-W-W eff. coupling^2, normalised to SM
    1.24592311E-07        3  35  24  24  # H0-W-W eff. coupling^2, normalised to SM
    0.00000000E+00        3  36  24  24  # A0-W-W eff. coupling^2, normalised to SM
#
    9.99999875E-01        3  25  23  23  # h0-Z-Z eff. coupling^2, normalised to SM
    1.24592311E-07        3  35  23  23  # H0-Z-Z eff. coupling^2, normalised to SM
    0.00000000E+00        3  36  23  23  # A0-Z-Z eff. coupling^2, normalised to SM
#
    1.26641523E+00        3  25  21  21  # h0-g-g eff. coupling^2, normalised to SM
    1.03404682E-02        3  35  21  21  # H0-g-g eff. coupling^2, normalised to SM
    1.32962072E-01        3  36  21  21  # A0-g-g eff. coupling^2, normalised to SM
#
    0.00000000E+00        3  25  25  23  # h0-h0-Z eff. coupling^2, normalised to SM
    0.00000000E+00        3  35  25  23  # H0-h0-Z eff. coupling^2, normalised to SM
    1.24592311E-07        3  36  25  23  # A0-h0-Z eff. coupling^2, normalised to SM
    0.00000000E+00        3  35  35  23  # H0-H0-Z eff. coupling^2, normalised to SM
    9.99999875E-01        3  36  35  23  # A0-H0-Z eff. coupling^2, normalised to SM
    0.00000000E+00        3  36  36  23  # A0-A0-Z eff. coupling^2, normalised to SM
#
    0.00000000E+00        4  25  21  21  23  # h0-g-g-Z eff. coupling^2, normalised to SM
    0.00000000E+00        4  35  21  21  23  # H0-g-g-Z eff. coupling^2, normalised to SM
    0.00000000E+00        4  36  21  21  23  # A0-g-g-Z eff. coupling^2, normalised to SM
Block SPhenoLowEnergy  # low energy observables
    1    3.30440588E-04   # BR(b -> s gamma)
    2    1.58831581E-06   # BR(b -> s mu+ mu-)
    3    3.52339634E-05   # BR(b -> s nu nu)
    4    2.37760387E-15   # BR(Bd -> e+ e-)
    5    1.01568888E-10   # BR(Bd -> mu+ mu-)
    6    2.12826776E-08   # BR(Bd -> tau+ tau-)
    7    7.93344326E-14   # BR(Bs -> e+ e-)
    8    3.38917693E-09   # BR(Bs -> mu+ mu-)
    9    7.19606880E-07   # BR(Bs -> tau+ tau-)
   10    9.57417678E-05   # BR(B_u -> tau nu)
   11    9.88975807E-01   # BR(B_u -> tau nu)/BR(B_u -> tau nu)_SM
   12    5.42133566E-01   # |Delta(M_Bd)| [ps^-1] 
   13    1.93657667E+01   # |Delta(M_Bs)| [ps^-1] 
   14    0.00000000E+00   # neutron EDM according to the chiral quark model
   15    0.00000000E+00   # neutron EDM according to the relativistic quark-parton model
   16    2.15805949E-03   # epsilon_K
   17    2.28166691E-15   # Delta(M_K)
   18    2.47862166E-11   # BR(K^0 -> pi^0 nu nu)
   19    8.28724641E-11   # BR(K^+ -> pi^+ nu nu)
   20   -4.25373133E-16   # Delta(g-2)_electron/2
   21   -1.81862733E-11   # Delta(g-2)_muon/2
   22   -5.16239453E-09   # Delta(g-2)_tau/2
   23    0.00000000E+00   # electric dipole moment of the electron
   24    0.00000000E+00   # electric dipole moment of the muon
   25    0.00000000E+00   # electric dipole moment of the tau
   26    0.00000000E+00   # Br(mu -> e gamma)
   27    0.00000000E+00   # Br(tau -> e gamma)
   28    0.00000000E+00   # Br(tau -> mu gamma)
   29    0.00000000E+00   # Br(mu -> 3 e)
   30    0.00000000E+00   # Br(tau -> 3 e)
   31    0.00000000E+00   # Br(tau -> 3 mu)
   39    7.57564474E-05   # Delta(rho_parameter)
   40    0.00000000E+00   # BR(Z -> e mu)
   41    0.00000000E+00   # BR(Z -> e tau)
   42    0.00000000E+00   # BR(Z -> mu tau)
Block FWCOEF Q=  1.60000000E+02  # Wilson coefficients at scale Q
#    id        order  M        value         comment
     0305 4422   00   0    -1.88819110E-01   # C7
     0305 4422   00   2    -2.00193028E-01   # C7
     0305 4322   00   2    -1.47317108E-04   # C7'
     0305 6421   00   0    -9.52278348E-02   # C8
     0305 6421   00   2    -1.04996208E-01   # C8
     0305 6321   00   2    -1.60703730E-04   # C8'
 03051111 4133   00   0     1.62420093E+00   # C9 e+e-
 03051111 4133   00   2     1.62455925E+00   # C9 e+e-
 03051111 4233   00   2     4.94302483E-04   # C9' e+e-
 03051111 4137   00   0    -4.44689303E+00   # C10 e+e-
 03051111 4137   00   2    -4.44352127E+00   # C10 e+e-
 03051111 4237   00   2    -3.67035388E-03   # C10' e+e-
 03051313 4133   00   0     1.62420093E+00   # C9 mu+mu-
 03051313 4133   00   2     1.62455906E+00   # C9 mu+mu-
 03051313 4233   00   2     4.94301910E-04   # C9' mu+mu-
 03051313 4137   00   0    -4.44689303E+00   # C10 mu+mu-
 03051313 4137   00   2    -4.44352146E+00   # C10 mu+mu-
 03051313 4237   00   2    -3.67035418E-03   # C10' mu+mu-
 03051212 4137   00   0     1.50535012E+00   # C11 nu_1 nu_1
 03051212 4137   00   2     1.50462219E+00   # C11 nu_1 nu_1
 03051212 4237   00   2     7.94112449E-04   # C11' nu_1 nu_1
 03051414 4137   00   0     1.50535012E+00   # C11 nu_2 nu_2
 03051414 4137   00   2     1.50462219E+00   # C11 nu_2 nu_2
 03051414 4237   00   2     7.94112525E-04   # C11' nu_2 nu_2
 03051616 4137   00   0     1.50535012E+00   # C11 nu_3 nu_3
 03051616 4137   00   2     1.50462220E+00   # C11 nu_3 nu_3
 03051616 4237   00   2     7.94134190E-04   # C11' nu_3 nu_3
Block IMFWCOEF Q=  1.60000000E+02  # Im(Wilson coefficients) at scale Q
#    id        order  M        value         comment
     0305 4422   00   0     3.85812359E-07   # C7
     0305 4422   00   2    -8.68485652E-06   # C7
     0305 4322   00   2    -7.55289180E-07   # C7'
     0305 6421   00   0     3.30473801E-07   # C8
     0305 6421   00   2    -1.06374203E-05   # C8
     0305 6321   00   2    -4.25389832E-07   # C8'
 03051111 4133   00   2     7.55684184E-07   # C9 e+e-
 03051111 4233   00   2     9.64197936E-06   # C9' e+e-
 03051111 4137   00   2    -7.85818627E-09   # C10 e+e-
 03051111 4237   00   2    -7.15993969E-05   # C10' e+e-
 03051313 4133   00   2     7.55678818E-07   # C9 mu+mu-
 03051313 4233   00   2     9.64197550E-06   # C9' mu+mu-
 03051313 4137   00   2    -7.85276127E-09   # C10 mu+mu-
 03051313 4237   00   2    -7.15994085E-05   # C10' mu+mu-
 03051212 4137   00   2     2.99652913E-08   # C11 nu_1 nu_1
 03051212 4237   00   2     1.54911423E-05   # C11' nu_1 nu_1
 03051414 4137   00   2     2.99655459E-08   # C11 nu_2 nu_2
 03051414 4237   00   2     1.54911423E-05   # C11' nu_2 nu_2
 03051616 4137   00   2     3.00360621E-08   # C11 nu_3 nu_3
 03051616 4237   00   2     1.54911423E-05   # C11' nu_3 nu_3
