BLOCK DCINFO
   1   SDECAY/HDECAY
   2   1.3b /3.4

BLOCK SPINFO
   1   SOFTSUSY
   2   3.4.0

BLOCK MODSEL
   1   0

BLOCK SMINPUTS
   1    127.90897
   2    1.1663787e-05
   3    0.1184
   4    91.1876
   5    4.18
   6    173.2
   7    1.777

BLOCK MINPAR
   3    56.38

BLOCK EXTPAR
   0   -1
   1    1657.95
   2   -3978.53
   3    1138.23
   11   -4183.67
   12    2930.66
   13    3289.05
   23    1108.5
   26    2244.92
   31    2693.92
   32    2693.92
   33    3655.38
   34    2335.45
   35    2335.45
   36    3577.82
   41    3634.12
   42    3634.12
   43    1996.82
   44    3004.59
   45    3004.59
   46    3297.75
   47    3087.1
   48    3087.1
   49    3430.22

BLOCK MASS
   24    80.392269
   25    127.78912
   35    2244.9147
   36    2244.9199
   37    2246.5407
   5    4.8187603
   1000001    3687.0533
   2000001    3121.8366
   1000002    3686.3273
   2000002    3038.8117
   1000003    3687.0533
   2000003    3121.8366
   1000004    3686.3273
   2000004    3038.8117
   1000005    2018.5896
   2000005    3433.1923
   1000006    2009.2885
   2000006    3266.5688
   1000011    2712.5269
   2000011    2342.9648
   1000012    2711.0494
   1000013    2712.5269
   2000013    2342.9648
   1000014    2711.0494
   1000015    3566.9862
   2000015    3667.9662
   1000016    3664.8083
   1000021    1354.2057
   1000022    1146.2703
   1000023   -1147.3138
   1000025    1652.2077
   1000035   -3952.4874
   1000024    1147.7508
   1000037    3952.6517

BLOCK NMIX
   1   1   -0.062769607
   1   2   -0.01098457
   1   3   -0.7061305
   1   4    0.70520851
   2   1   -0.010891047
   2   2   -0.019004672
   2   3    0.70710758
   2   4    0.70676664
   3   1    0.9979686
   3   2   -0.00072336494
   3   3   -0.036695948
   3   4    0.052072576
   4   1   -0.00017462454
   4   2    0.99975879
   4   3    0.0056566275
   4   4    0.021221066

BLOCK UMIX
   1   1   -0.0079995835
   1   2    0.999968
   2   1   -0.999968
   2   2   -0.0079995835

BLOCK VMIX
   1   1    0.03000988
   1   2    0.9995496
   2   1    0.9995496
   2   2   -0.03000988

BLOCK STOPMIX
   1   1    0.99584078
   1   2    0.091110641
   2   1   -0.091110641
   2   2    0.99584078

BLOCK SBOTMIX
   1   1    0.99987317
   1   2    0.015926265
   2   1   -0.015926265
   2   2    0.99987317

BLOCK STAUMIX
   1   1    0.1409678
   1   2    0.99001418
   2   1   -0.99001418
   2   2    0.1409678

BLOCK ALPHA
      -0.017921876

BLOCK HMIX Q=  2564.799
   1    1132.5199
   2    55.944545
   3    243.19858
   4    5244582.7

BLOCK GAUGE Q=  2564.799
   1    0.3642491
   2    0.63449857
   3    1.0262383

BLOCK AU Q=  2564.799
   1   1    0
   2   2    0
   3   3   -4183.67

BLOCK AD Q=  2564.799
   1   1    0
   2   2    0
   3   3    2930.66

BLOCK AE Q=  2564.799
   1   1    0
   2   2    0
   3   3    3289.05

BLOCK YU Q=  2564.799
   1   1    0
   2   2    0
   3   3    0.82155601

BLOCK YD Q=  2564.799
   1   1    0
   2   2    0
   3   3    0.68229404

BLOCK YE Q=  2564.799
   1   1    0
   2   2    0
   3   3    0.54235338

BLOCK MSOFT Q=  2564.799
   1    1657.95
   2   -3978.53
   3    1138.23
   21    3947911.2
   22   -1192252.2
   31    2693.92
   32    2693.92
   33    3655.38
   34    2335.45
   35    2335.45
   36    3577.82
   41    3634.12
   42    3634.12
   43    1996.82
   44    3004.59
   45    3004.59
   46    3297.75
   47    3087.1
   48    3087.1
   49    3430.22

BLOCK HIGGSBOUNDSINPUTHIGGSCOUPLINGSFERMIONS
       0, 3129.7921,3,36,15,15

BLOCK HIGGSBOUNDSINPUTHIGGSCOUPLINGSBOSONS
       0,4,36,21,21,23

DECAY 6  1.4177527
    1   2    5    24

DECAY 1000021  7.3085848e-06
    0.28388198   3    1000022    5   -5
    0.2778168   3    1000023    5   -5
    0.22267816   2    1000023    21
    0.20220349   2    1000022    21
    0.0066026649   3    1000024    5   -6
    0.0066026649   3   -1000024    6   -5
    7.6395642e-05   3    1000022    2   -2
    7.6395642e-05   3    1000022    4   -4
    1.5366797e-05   3    1000022    1   -1
    1.5366797e-05   3    1000022    3   -3
    5.7780886e-06   3    1000024    1   -2
    5.7780886e-06   3   -1000024    2   -1
    5.7780886e-06   3    1000024    3   -4
    5.7780886e-06   3   -1000024    4   -3
    2.4915197e-06   3    1000023    2   -2
    2.4915197e-06   3    1000023    4   -4
    1.309394e-06   3    1000023    1   -1
    1.309394e-06   3    1000023    3   -3

DECAY 1000006  53.307304
    0.61926222   2    1000021    6
    0.15806875   2    1000024    5
    0.11336345   2    1000023    6
    0.10882727   2    1000022    6
    0.0004783034   2    1000025    6

DECAY 2000006  279.97371
    0.43912075   2    1000021    6
    0.15021201   2    1000005    24
    0.12048211   2    1000024    5
    0.078169702   2    1000006    23
    0.077481961   2    1000006    25
    0.059614949   2    1000022    6
    0.059381183   2    1000023    6
    0.015537338   2    1000025    6

DECAY 1000005  54.654078
    0.62418167   2    1000021    5
    0.21840416   2   -1000024    6
    0.078443145   2    1000023    5
    0.078341173   2    1000022    5
    0.00062985053   2    1000025    5

DECAY 2000005  191.71743
    0.71338055   2    1000021    5
    0.13017036   2   -1000024    6
    0.06540993   2    1000023    5
    0.06526879   2    1000022    5
    0.0093024053   2    1000006   -24
    0.0063539636   2    1000025    5
    0.0053456456   2    1000005    25
    0.0047681936   2    1000005    23
    1.5718519e-07   2    2000006   -24

DECAY 1000002  190.98146
    0.99809775   2    1000021    2
    0.0017327094   2    1000025    2
    0.00011004211   2    1000024    1
    3.2325563e-05   2    1000022    2
    2.7175236e-05   2    1000023    2

DECAY 2000002  138.30552
    0.97512957   2    1000021    2
    0.024721393   2    1000025    2
    0.0001446822   2    1000022    2
    4.3530568e-06   2    1000023    2

DECAY 1000001  191.02008
    0.99821512   2    1000021    1
    0.0017595013   2    1000025    1
    1.7495914e-05   2    1000023    1
    7.8198778e-06   2   -1000024    2
    6.4465494e-08   2    1000022    1

DECAY 2000001  143.10023
    0.99355368   2    1000021    1
    0.0064086725   2    1000025    1
    3.6546943e-05   2    1000022    1
    1.0996287e-06   2    1000023    1

DECAY 1000004  154.49806
    0.99757532   2    1000021    4
    0.0022084329   2    1000025    4
    0.00014035344   2    1000024    3
    4.1229745e-05   2    1000022    4
    3.466071e-05   2    1000023    4

DECAY 2000004  112.58961
    0.96851861   2    1000021    4
    0.031292318   2    1000025    4
    0.00018355334   2    1000022    4
    5.5225575e-06   2    1000023    4

DECAY 1000003  154.52437
    0.99772497   2    1000021    3
    0.0022426538   2    1000025    3
    2.2315902e-05   2    1000023    3
    9.9741866e-06   2   -1000024    4
    8.2225316e-08   2    1000022    3

DECAY 2000003  115.90797
    0.99179759   2    1000021    3
    0.008154415   2    1000025    3
    4.6593293e-05   2    1000022    3
    1.4019008e-06   2    1000023    3

DECAY 1000011  1.4288327
    0.98473399   2    1000025    11
    0.011340542   2    1000022    11
    0.0032696784   2    1000023    11
    0.00065578908   2   -1000024    12

DECAY 2000011  3.1423035
    0.99075718   2    1000025    11
    0.0089729977   2    1000022    11
    0.00026982365   2    1000023    11

DECAY 1000013  1.4288327
    0.98473399   2    1000025    13
    0.011340542   2    1000022    13
    0.0032696784   2    1000023    13
    0.00065578909   2   -1000024    14

DECAY 2000013  3.1423034
    0.99075718   2    1000025    13
    0.0089729978   2    1000022    13
    0.00026982365   2    1000023    13

DECAY 1000015  44.760052
    0.36828408   2   -1000024    16
    0.25365339   2    1000025    15
    0.18980166   2    1000022    15
    0.18826088   2    1000023    15

DECAY 2000015  21.005146
    0.41444137   2    1000023    15
    0.41280907   2    1000022    15
    0.15814085   2    1000025    15
    0.014422782   2   -1000024    16
    0.00018592938   2    1000015    23

DECAY 1000012  1.4305142
    0.9867477   2    1000025    12
    0.0092088194   2    1000024    11
    0.003211765   2    1000022    12
    0.00083171406   2    1000023    12

DECAY 1000014  1.4305142
    0.9867477   2    1000025    14
    0.0092088193   2    1000024    13
    0.003211765   2    1000022    14
    0.00083171406   2    1000023    14

DECAY 1000016  20.557607
    0.84961888   2    1000024    15
    0.14912542   2    1000025    16
    0.0007966346   2   -1000015   -24
    0.00036460822   2    1000022    16
    9.4456018e-05   2    1000023    16

DECAY 1000024  4.6199879e-12
    0.59865172   3    1000022    2   -1
    0.19955026   3    1000022   -11    12
    0.19955026   3    1000022   -13    14
    0.0004495528   3    1000023   -11    12
    0.0004495528   3    1000023   -13    14

DECAY 1000037  114.72879
    0.22717262   2    1000006   -5
    0.22387442   2   -1000005    6
    0.066941008   2    1000024    25
    0.063723598   2    1000024    23
    0.061729204   2    1000023    24
    0.061534966   2    1000022    24
    0.038657   2    1000012   -11
    0.038657   2    1000014   -13
    0.038614459   2   -1000011    12
    0.038614459   2   -1000013    14
    0.02659309   2    1000024    36
    0.026575353   2    1000024    35
    0.02656924   2    1000023    37
    0.026480388   2    1000022    37
    0.0071406035   2    1000002   -1
    0.0071405962   2    1000004   -3
    0.0071097602   2   -1000001    2
    0.0071096422   2   -1000003    4
    0.0027152868   2    1000016   -15
    0.0026123707   2   -2000015    16
    0.00018960467   2    1000025    24
    0.00011415628   2    2000006   -5
    8.5605824e-05   2   -1000015    16
    3.1555737e-05   2    1000025    37
    1.401697e-05   2   -2000005    6

DECAY 1000022 -1


DECAY 1000023  1.6284548e-12
    0.47322651   2    1000022    22
    0.11423774   3    1000022   -1    1
    0.087946191   3    1000022   -2    2
    0.052587072   3    1000022   -16    16
    0.052587055   3    1000022   -12    12
    0.052587055   3    1000022   -14    14
    0.026295314   3    1000022   -11    11
    0.026295314   3    1000022   -13    13

DECAY 1000025  3.1164287
    0.25661921   2    1000022    25
    0.24335935   2    1000024   -24
    0.24335935   2   -1000024    24
    0.24137834   2    1000023    23
    0.0079011437   2    1000022    23
    0.0073826093   2    1000023    25

DECAY 1000035  114.70336
    0.11300143   2    1000005   -5
    0.11300143   2   -1000005    5
    0.11255263   2    1000006   -6
    0.11255263   2   -1000006    6
    0.061716572   2    1000024   -24
    0.061716572   2   -1000024    24
    0.050505511   2    1000023    25
    0.047546166   2    1000022    23
    0.026538942   2    1000024   -37
    0.026538942   2   -1000024    37
    0.023635933   2    1000023    35
    0.0235704   2    1000022    36
    0.019341095   2    1000012   -12
    0.019341095   2   -1000012    12
    0.019341095   2    1000014   -14
    0.019341095   2   -1000014    14
    0.0192959   2    1000011   -11
    0.0192959   2   -1000011    11
    0.0192959   2    1000013   -13
    0.0192959   2   -1000013    13
    0.016373703   2    1000022    25
    0.016027476   2    1000023    23
    0.0035683122   2    1000002   -2
    0.0035683122   2   -1000002    2
    0.0035682532   2    1000004   -4
    0.0035682532   2   -1000004    4
    0.0035503895   2    1000001   -1
    0.0035503895   2   -1000001    1
    0.0035503895   2    1000003   -3
    0.0035503895   2   -1000003    3
    0.0029690572   2    1000023    36
    0.0029684078   2    1000022    35
    0.0013571863   2    1000016   -16
    0.0013571863   2   -1000016    16
    0.0013044204   2    2000015   -15
    0.0013044204   2   -2000015    15
    0.00016657056   2    1000025    23
    5.3792924e-05   2    2000006   -6
    5.3792924e-05   2   -2000006    6
    4.2754874e-05   2    1000015   -15
    4.2754874e-05   2   -1000015    15
    3.172554e-05   2    1000025    36
    3.1636927e-05   2    1000025    25
    7.5049465e-06   2    2000005   -5
    7.5049465e-06   2   -2000005    5
    2.8183421e-07   2    1000025    35
    1.1668045e-09   2    2000011   -11
    1.1668045e-09   2   -2000011    11
    1.1668045e-09   2    2000013   -13
    1.1668045e-09   2   -2000013    13
    6.0626468e-10   2    2000002   -2
    6.0626468e-10   2   -2000002    2
    6.0626396e-10   2    2000004   -4
    6.0626396e-10   2   -2000004    4
    1.2853564e-10   2    2000001   -1
    1.2853564e-10   2   -2000001    1
    1.2853564e-10   2    2000003   -3
    1.2853564e-10   2   -2000003    3

DECAY 25  0.0048242515
    0.58654876   2    5   -5
    0.23480473   2    24   -24
    0.070461857   2    21    21
    0.055148535   2   -15    15
    0.030536076   2    23    23
    0.018299335   2    4   -4
    0.0021449285   2    22    22
    0.0016485657   2    22    23
    0.00021198993   2    3   -3
    0.00019521223   2   -13    13

DECAY 35  103.66194
    0.84506819   2    5   -5
    0.15378768   2   -15    15
    0.00056031541   2   -13    13
    0.0002891647   2    6   -6
    0.00026931674   2    3   -3
    2.4545293e-05   2    21    21
    6.4845134e-07   2    25    25
    8.3682962e-08   2    24   -24
    4.1706273e-08   2    23    23
    1.2948657e-08   2    23    22
    2.9694135e-09   2    4   -4
    2.7914955e-09   2    22    22

DECAY 36  103.66505
    0.8450596   2    5   -5
    0.15378407   2   -15    15
    0.00056030083   2   -13    13
    0.00029228116   2    6   -6
    0.00026931577   2    3   -3
    3.4305656e-05   2    21    21
    8.4510022e-08   2    23    25
    2.165184e-08   2    22    22
    2.0365957e-08   2    23    22
    2.9803694e-09   2    4   -4

DECAY 37  90.306609
    0.82097952   2    6   -5
    0.17665974   2   -15    16
    0.0013834644   2    4   -5
    0.00064364665   2   -13    14
    0.00030423868   2    4   -3
    1.5456734e-05   2    2   -3
    1.3834616e-05   2    2   -5
    9.7331664e-08   2    24    25
    1.628555e-13   2    24    36

DECAY 5 -1


DECAY 15 -1


DECAY 23  2.4952


DECAY 24  2.085
