BLOCK SPINFO
   1   SPheno
   2   v4.0.5be

BLOCK SPHENOINFO
   1   2
   2   2

BLOCK MODSEL
   1   0

BLOCK MINPAR
   3    42.557797
   4   -1

BLOCK EXTPAR
   0    3469.3145
   1    956.84596
   2   -4980.4681
   3    2710.7979
   11    4073.7623
   12   -4913.924
   13    886.96334
   23   -1906.639
   25    42.523769
   26    3712.6074
   31    2460.2966
   32    2460.2966
   33    3143.4327
   34    2062.4112
   35    2062.4112
   36    1702.1105
   41    2798.4192
   42    2798.4192
   43    3097.044
   44    1608.686
   45    1608.686
   46    3791.8778
   47    4510.1625
   48    4510.1625
   49    3565.8231

BLOCK SMINPUTS
   1    127.90897
   2    1.1663787e-05
   3    0.1184
   4    91.1876
   5    4.18
   6    173.2
   7    1.777
   8    0
   11    0.00051099893
   12    0
   13    0.10565837
   14    0
   21    0.005
   22    0.0025
   23    0.095
   24    1.27

BLOCK GAUGE Q=  3469.3145
   1    0.35536298
   2    0.66519887
   3    1.219778

BLOCK YU Q=  3469.3145
   1   1    8.3866902e-06
   2   2    0.0042604386
   3   3    1.0131795

BLOCK YD Q=  3469.3145
   1   1    0.00071664256
   2   2    0.013616209
   3   3    0.71068486

BLOCK YE Q=  3469.3145
   1   1    0.00012505937
   2   2    0.025858311
   3   3    0.43489425

BLOCK AU Q=  3469.3145
   1   1    0
   2   2    0
   3   3    4073.7623

BLOCK AD Q=  3469.3145
   1   1    0
   2   2    0
   3   3   -4913.924

BLOCK AE Q=  3469.3145
   1   1    0
   2   2    0
   3   3    886.96334

BLOCK MSOFT Q=  3469.3145
   1    956.84596
   2   -4980.4681
   3    2710.7979
   21    10672559
   22   -3399535.4
   31    2460.2966
   32    2460.2966
   33    3143.4327
   34    2062.4112
   35    2062.4112
   36    1702.1105
   41    2798.4192
   42    2798.4192
   43    3097.044
   44    1608.686
   45    1608.686
   46    3791.8778
   47    4510.1625
   48    4510.1625
   49    3565.8231

BLOCK MASS
   6    173.2
   23    91.1876
   24    80.429995
   15    1.777
   25    122.69401
   35    3710.6688
   36    3712.6074
   37    3711.7359
   1000001    2947.0068
   2000001    4581.7525
   1000002    2945.958
   2000002    1777.2009
   1000003    2947
   2000003    4581.7377
   1000004    2945.9514
   2000004    1777.2009
   1000005    3174.1342
   2000005    3599.2747
   1000006    3169.3062
   2000006    3797.7218
   1000011    2488.9839
   2000011    2067.2301
   1000012    2487.3051
   1000013    2488.9597
   2000013    2067.1625
   1000014    2487.2698
   1000015    1692.0434
   2000015    3163.6451
   1000016    3160.5703
   1000021    2947.8833
   1000022    944.24879
   1000023   -1921.983
   1000025    1924.3118
   1000035   -4897.3182
   1000024    1922.2084
   1000037    4897.3616

BLOCK ALPHA
      -0.023533829

BLOCK HMIX Q=  3469.3145
   1   -1906.639
   2    42.523769
   3    243.08818
   4    13783453

BLOCK STOPMIX
   1   1   -0.99296744
   1   2    0.11838779
   2   1   -0.11838779
   2   2   -0.99296744

BLOCK SBOTMIX
   1   1   -0.9969158
   1   2    0.078478621
   2   1   -0.078478621
   2   2   -0.9969158

BLOCK STAUMIX
   1   1   -0.021391281
   1   2    0.99977118
   2   1   -0.99977118
   2   2   -0.021391281

BLOCK NMIX
   1   1    0.99944786
   1   2    0.0001783341
   1   3   -0.030034468
   1   4   -0.014207965
   2   1    0.011197233
   2   2    0.018716749
   2   3    0.70707472
   2   4   -0.70680241
   3   1    0.03128209
   3   2   -0.0078580813
   3   3    0.70645899
   3   4    0.70701865
   4   1   -0.0001420235
   4   2    0.99979393
   4   3   -0.0076789539
   4   4    0.018791259

BLOCK UMIX
   1   1   -0.010950251
   1   2   -0.99994004
   2   1   -0.99994004
   2   2    0.010950251

BLOCK VMIX
   1   1    0.026719216
   1   2    0.99964298
   2   1    0.99964298
   2   2   -0.026719216

BLOCK HIGGSBOUNDSINPUTHIGGSCOUPLINGSFERMIONS
       0, 1808.2709,3,36,15,15

BLOCK HIGGSBOUNDSINPUTHIGGSCOUPLINGSBOSONS
       0,4,36,21,21,23

BLOCK SPHENOLOWENERGY
   1    0.00031640602
   2    1.5914977e-06
   3    3.5266211e-05
   4    2.9532067e-15
   5    1.2615517e-10
   6    2.6266335e-08
   7    1.0168961e-13
   8    4.3440877e-09
   9    9.1617153e-07
   10    9.620682e-05
   11    0.99377962
   12    0.5417784
   13    19.359253
   14    0
   15    0
   16    0.0021566878
   17    2.2816528e-15
   18    2.4807655e-11
   19    8.2925188e-11
   20    9.819534e-16
   21    4.1978935e-11
   22    1.2390188e-08
   23    0
   24    0
   25    0
   26    0
   27    0
   28    0
   29    0
   30    0
   31    0
   39    7.0674636e-05
   40    0
   41    0
   42    0

BLOCK FWCOEF Q=  160
   305   4422   0   0   -0.18881911
   305   4422   0   2   -0.18378009
   305   4322   0   2    9.9990806e-05
   305   6421   0   0   -0.095227835
   305   6421   0   2   -0.095285988
   305   6321   0   2   -3.9179385e-06
   3051111   4133   0   0    1.6221765
   3051111   4133   0   2    1.6226213
   3051111   4233   0   2    0.00031587119
   3051111   4137   0   0   -4.4448686
   3051111   4137   0   2   -4.444634
   3051111   4237   0   2   -0.0023526892
   3051313   4133   0   0    1.6221765
   3051313   4133   0   2    1.6226203
   3051313   4233   0   2    0.00031587043
   3051313   4137   0   0   -4.4448686
   3051313   4137   0   2   -4.4446349
   3051313   4237   0   2   -0.0023526905
   3051212   4137   0   0    1.5053501
   3051212   4137   0   2    1.5052993
   3051212   4237   0   2    0.00050925576
   3051414   4137   0   0    1.5053501
   3051414   4137   0   2    1.5052993
   3051414   4237   0   2    0.0005092558
   3051616   4137   0   0    1.5053501
   3051616   4137   0   2    1.5052993
   3051616   4237   0   2    0.00050926738

BLOCK IMFWCOEF Q=  160
   305   4422   0   0    3.8587113e-07
   305   4422   0   2    6.3084634e-07
   305   4322   0   2    3.4022971e-06
   305   6421   0   0    3.3052415e-07
   305   6421   0   2    2.1269893e-05
   305   6321   0   2    2.0813405e-06
   3051111   4133   0   2    7.0668267e-07
   3051111   4233   0   2    6.2460988e-06
   3051111   4137   0   2   -3.3779995e-06
   3051111   4237   0   2   -4.6524999e-05
   3051313   4133   0   2    7.0667962e-07
   3051313   4233   0   2    6.2460889e-06
   3051313   4137   0   2   -3.3780041e-06
   3051313   4237   0   2   -4.6525026e-05
   3051212   4137   0   2    7.2979742e-07
   3051212   4237   0   2    1.0070657e-05
   3051414   4137   0   2    7.2979724e-07
   3051414   4237   0   2    1.0070657e-05
   3051616   4137   0   2    7.3081162e-07
   3051616   4237   0   2    1.0070658e-05

DECAY 23  2.4952


DECAY 24  2.085


DECAY 2000011  6.4979557
    0.99996844   2    1000022    11

DECAY 1000011  2.292013
    0.99927737   2    1000022    11
    0.00047525076   2    1000023    11
    0.00018669481   2   -1000024    12

DECAY 2000013  6.4985354
    0.99981459   2    1000022    13

DECAY 1000013  2.3002497
    0.99569226   2    1000022    13
    0.0016465368   2    1000023    13
    0.0012523107   2    2000013    25
    0.0012228838   2    1000025    13
    0.00018601378   2   -1000024    14

DECAY 1000015  4.0304038
    1   2    1000022    15

DECAY 2000015  11.384009
    0.29007145   2    1000022    15
    0.2082275   2    1000023    15
    0.20751343   2    1000025    15
    0.15650955   2    1000015    23
    0.1376691   2    1000015    25

DECAY 1000012  2.2886075
    0.99830056   2    1000022    12
    0.0011080784   2    1000024    11
    0.00046541835   2    1000025    12
    0.00012594137   2    1000023    12

DECAY 1000014  2.2939179
    0.99596588   2    1000022    14
    0.0034441882   2    1000024    13
    0.00046429506   2    1000025    14
    0.00012563747   2    1000023    14

DECAY 1000016  11.571312
    0.40864834   2    1000024    15
    0.30690121   2    1000015    24
    0.28408561   2    1000022    16
    0.0002874097   2    1000025    16

DECAY 1000001  0.33317973
    0.9909826   2    1000022    1
    0.0036103602   2    1000023    1
    0.0030821563   2   -1000024    2
    0.0023248829   2    1000025    1

DECAY 2000001  126.55225
    0.98147264   2    1000021    1
    0.018511704   2    1000022    1

DECAY 1000003  0.33710625
    0.97946047   2    1000022    3
    0.0088786412   2    1000023    3
    0.0075771553   2    1000025    3
    0.0040837297   2   -1000024    4

DECAY 2000003  126.57444
    0.98128845   2    1000021    3
    0.0185085   2    1000022    3

DECAY 1000005  43.122339
    0.58436619   2   -1000024    6
    0.14871386   2    1000023    5
    0.14719715   2    1000025    5
    0.1094751   2    1000021    5
    0.0102477   2    1000022    5

DECAY 2000005  73.669389
    0.4183234   2    1000021    5
    0.25369404   2   -1000024    6
    0.12538543   2    1000025    5
    0.12515315   2    1000023    5
    0.028100581   2    1000006   -24
    0.023195869   2    1000022    5
    0.013484817   2    1000005    23
    0.012662713   2    1000005    25

DECAY 2000002  2.042083
    1   2    1000022    2

DECAY 1000002  0.33930174
    0.97650346   2    1000022    2
    0.018023314   2    1000024    1
    0.0054074891   2    1000023    2

DECAY 2000004  2.0420771
    1   2    1000022    4

DECAY 1000004  0.34322356
    0.96534283   2    1000022    4
    0.028222262   2    1000024    3
    0.005860028   2    1000023    4
    0.00057464743   2    1000025    4

DECAY 1000006  44.296532
    0.29596074   2    1000023    6
    0.2950822   2    1000025    6
    0.29369801   2    1000024    5
    0.051125006   2    1000021    6
    0.050955069   2    1000021    4
    0.0090331327   2    1000022    6
    0.0041180975   2    1000022    4

DECAY 2000006  173.30892
    0.2772397   2    1000021    6
    0.24469567   2    1000024    5
    0.12066647   2    1000023    6
    0.12062881   2    1000025    6
    0.079988976   2    1000005    24
    0.073882735   2    1000006    25
    0.042635156   2    1000022    6
    0.040247531   2    1000006    23

DECAY 1000024  1.3700887
    0.84414729   2    1000022    24
    0.1338114   2   -1000015    16
    0.022019469   3    1000022   -5    6

DECAY 1000037  254.09437
    0.1035688   2    1000004   -3
    0.10356827   2    1000002   -1
    0.10354666   2   -1000003    4
    0.10354615   2   -1000001    2
    0.083932652   2   -1000005    6
    0.083889843   2    1000006   -5
    0.046680587   2    1000014   -13
    0.04667966   2    1000012   -11
    0.0466642   2   -1000013    14
    0.046663567   2   -1000011    12
    0.042616709   2    1000024    25
    0.039634927   2    1000024    23
    0.039515027   2    1000025    24
    0.03887331   2    1000023    24
    0.028864782   2    1000016   -15
    0.028796422   2   -2000015    16
    0.0046301723   3    1000024    6   -6
    0.0028859496   3    1000025   -5    6
    0.0027453143   3    1000023   -5    6
    0.0010194116   2    2000006   -5
    0.00054429728   3    1000021   -3    4
    0.00043027096   2   -2000005    6
    0.00040076072   3    1000021   -1    2
    0.00018236812   3    1000024    5   -5

DECAY 1000022 -1


DECAY 1000023  2.2945887
    0.4581301   2    1000022    25
    0.45479386   2    1000022    23
    0.039914308   2    1000015   -15
    0.039914308   2   -1000015    15
    0.0071807142   3    1000022    6   -6

DECAY 1000025  1.2932771
    0.74048419   2    1000022    25
    0.10356367   2    1000022    23
    0.071991779   2    1000015   -15
    0.071991779   2   -1000015    15
    0.011493775   3    1000022    6   -6
    0.0001136355   2    2000004   -4
    0.0001136355   2   -2000004    4
    0.00010547149   2    2000002   -2
    0.00010547149   2   -2000002    2

DECAY 1000035  261.8075
    0.050269963   2    1000004   -4
    0.050269963   2   -1000004    4
    0.050269701   2    1000002   -2
    0.050269701   2   -1000002    2
    0.050234458   2    1000003   -3
    0.050234458   2   -1000003    3
    0.050234188   2    1000001   -1
    0.050234188   2   -1000001    1
    0.04119624   2    1000005   -5
    0.04119624   2   -1000005    5
    0.04105834   2    1000006   -6
    0.04105834   2   -1000006    6
    0.038986831   2    1000024   -24
    0.038986831   2   -1000024    24
    0.035241887   2    1000023    25
    0.03234482   2    1000025    23
    0.032080711   2    1000025    25
    0.022662462   2    1000014   -14
    0.022662462   2   -1000014    14
    0.022662015   2    1000012   -12
    0.022662015   2   -1000012    12
    0.022634183   2    1000013   -13
    0.022634183   2   -1000013    13
    0.022633871   2    1000011   -11
    0.022633871   2   -1000011    11
    0.014012612   2    1000016   -16
    0.014012612   2   -1000016    16
    0.013968255   2    2000015   -15
    0.013968255   2   -2000015    15
    0.0057039404   2    1000023    23
    0.0028193035   3    1000024    5   -6
    0.0028193035   3   -1000024   -5    6
    0.0022142141   3    1000023    6   -6
    0.0020594751   3    1000025    6   -6
    0.00049446556   2    2000006   -6
    0.00049446556   2   -2000006    6
    0.00033580626   3    1000021    1   -1
    0.00033577794   3    1000021    3   -3
    0.00033182895   3    1000021    2   -2
    0.00033180629   3    1000021    4   -4
    0.00021172445   2    2000005   -5
    0.00021172445   2   -2000005    5

DECAY 1000021  70.76301
    0.24981692   2    2000002   -2
    0.24981692   2   -2000002    2
    0.24981684   2    2000004   -4
    0.24981684   2   -2000004    4
    0.00015103181   3    1000024    5   -6
    0.00015103181   3   -1000024   -5    6

DECAY 25  0.003601059
    0.6080795   2   -5    5
    0.1920452   2   -24    24
    0.073961067   2    21    21
    0.069594013   2   -15    15
    0.03001434   2   -4    4
    0.022193837   2    23    23
    0.0023374626   2    22    22
    0.0013042298   2    22    23
    0.00024139239   2   -13    13
    0.00022816909   2   -3    3
    6.308633e-07   2   -1    1
    1.5467858e-07   2   -2    2
    5.4267998e-09   2   -11    11

DECAY 35  188.28643
    0.90760579   2   -5    5
    0.081899532   2   -15    15
    0.0063389552   2    1000022    1000023
    0.0029854763   2    1000022    1000025
    0.00058479461   2   -6    6
    0.00029259079   2   -13    13
    0.00025727283   2   -3    3
    2.6346725e-05   2    1000022    1000022
    6.968277e-06   2    21    21
    1.18449e-06   2   -1000015    1000015
    7.1102971e-07   2   -1    1
    1.5380909e-07   2    25    25
    7.5239558e-08   2    23    23
    5.1161852e-08   2   -1000002    1000002
    5.1153103e-08   2   -1000004    1000004
    1.7369541e-08   2   -24    24
    1.2898143e-08   2   -4    4
    6.7601626e-09   2    22    23
    6.5709696e-09   2   -11    11
    5.7069596e-09   2    22    22
    6.6505217e-14   2   -2    2

DECAY 36  167.36927
    0.90647618   2   -5    5
    0.081787527   2   -15    15
    0.0070748305   2    1000022    1000025
    0.0034050337   2    1000022    1000023
    0.00065415802   2   -6    6
    0.00029219324   2   -13    13
    0.00025693275   2   -3    3
    3.8593172e-05   2    1000022    1000022
    1.3645011e-05   2    21    21
    7.1008878e-07   2   -1    1
    1.653211e-07   2    23    25
    1.3969499e-08   2   -4    4
    7.1683748e-09   2    22    22
    6.5620138e-09   2   -11    11
    4.6728564e-09   2    22    23
    1.7968133e-13   2    23    35
    7.2028204e-14   2   -2    2
    1.8012295e-38   2    25    25

DECAY 37  187.91661
    0.91719702   2   -5    6
    0.071542726   2   -15    16
    0.0093942077   2    1000022    1000024
    0.0013598971   2   -5    4
    0.00025292902   2   -13    14
    0.00023087756   2   -3    4
    1.0839357e-05   2   -3    2
    9.7110678e-06   2   -5    2
    9.4360464e-07   2   -3    6
    6.4035816e-07   2   -1    2
    1.4720003e-07   2    24    25
    3.0227407e-08   2   -1    4
    2.7525857e-08   2   -1    6
    5.916036e-09   2   -11    12
    1.0022896e-14   2    24    35

DECAY 6  2.43
    1   2    5    24

DECAY 15 -1
