BLOCK SPINFO
   1   SPheno
   2   v4.0.5be

BLOCK SPHENOINFO
   1   2
   2   2

BLOCK MODSEL
   1   0

BLOCK MINPAR
   3    48.664034
   4    1

BLOCK EXTPAR
   0    2547.4215
   1   -475.57632
   2   -1473.1149
   3    2949.6948
   11   -6235.3568
   12    513.20005
   13   -3927.0243
   23    637.68703
   25    48.0202
   26    1456.8785
   31    4477.7409
   32    4477.7409
   33    4074.1141
   34    2201.9828
   35    2201.9828
   36    2695.176
   41    2342.785
   42    2342.785
   43    2455.5165
   44    4654.5989
   45    4654.5989
   46    2689.745
   47    700.06966
   48    700.06966
   49    2674.8883

BLOCK SMINPUTS
   1    127.90897
   2    1.1663787e-05
   3    0.1184
   4    91.1876
   5    4.18
   6    173.2
   7    1.777
   8    0
   11    0.00051099893
   12    0
   13    0.10565837
   14    0
   21    0.005
   22    0.0025
   23    0.095
   24    1.27

BLOCK GAUGE Q=  2547.4215
   1    0.35536298
   2    0.66519887
   3    1.219778

BLOCK YU Q=  2547.4215
   1   1    8.3861899e-06
   2   2    0.0042601845
   3   3    1.0131191

BLOCK YD Q=  2547.4215
   1   1    0.00080922429
   2   2    0.015375261
   3   3    0.80249692

BLOCK YE Q=  2547.4215
   1   1    0.00014121556
   2   2    0.029198898
   3   3    0.49107743

BLOCK AU Q=  2547.4215
   1   1    0
   2   2    0
   3   3   -6235.3568

BLOCK AD Q=  2547.4215
   1   1    0
   2   2    0
   3   3    513.20006

BLOCK AE Q=  2547.4215
   1   1    0
   2   2    0
   3   3   -3927.0243

BLOCK MSOFT Q=  2547.4215
   1   -475.57632
   2   -1473.1149
   3    2949.6948
   21    1796940.1
   22   -280090.34
   31    4477.7409
   32    4477.7409
   33    4074.1141
   34    2201.9828
   35    2201.9828
   36    2695.176
   41    2342.785
   42    2342.785
   43    2455.5165
   44    4654.5989
   45    4654.5989
   46    2689.745
   47    700.06966
   48    700.06966
   49    2674.8883

BLOCK MASS
   6    173.2
   23    91.1876
   24    80.429995
   15    1.777
   25    125.82362
   35    1456.5748
   36    1456.8785
   37    1459.5182
   1000001    2465.5437
   2000001    876.0009
   1000002    2464.2634
   2000002    4715.9229
   1000003    2465.541
   2000003    875.99081
   1000004    2464.2607
   2000004    4715.9225
   1000005    2488.843
   2000005    2753.0011
   1000006    2379.4387
   2000006    2727.2635
   1000011    4489.7361
   2000011    2194.652
   1000012    4488.635
   1000013    4489.7187
   2000013    2194.6213
   1000014    4488.6225
   1000015    2679.5002
   2000015    4075.035
   1000016    4074.8333
   1000021    3074.2054
   1000022   -468.76107
   1000023   -649.98193
   1000025    649.9856
   1000035   -1520.1637
   1000024    645.89615
   1000037    1520.2883

BLOCK ALPHA
      -0.020755252

BLOCK HMIX Q=  2547.4215
   1    637.68703
   2    48.0202
   3    243.38997
   4    2122495

BLOCK STOPMIX
   1   1    0.84313958
   1   2    0.53769475
   2   1   -0.53769475
   2   2    0.84313958

BLOCK SBOTMIX
   1   1    0.99893303
   1   2    0.046182377
   2   1   -0.046182377
   2   2    0.99893303

BLOCK STAUMIX
   1   1    0.0064102391
   1   2    0.99997945
   2   1   -0.99997945
   2   2    0.0064102391

BLOCK NMIX
   1   1   -0.9845667
   1   2    0.0073312942
   1   3   -0.14215348
   1   4   -0.10181871
   2   1    0.028471859
   2   2   -0.02649219
   2   3   -0.70545316
   2   4    0.70768875
   3   1   -0.17265647
   3   2   -0.062005617
   3   3    0.69388847
   3   4    0.69632165
   4   1   -0.0027395498
   4   2    0.99769721
   4   3    0.025436728
   4   4    0.062815192

BLOCK UMIX
   1   1   -0.035932302
   1   2    0.99935423
   2   1   -0.99935423
   2   2   -0.035932302

BLOCK VMIX
   1   1    0.088780143
   1   2    0.99605125
   2   1    0.99605125
   2   2   -0.088780143

BLOCK HIGGSBOUNDSINPUTHIGGSCOUPLINGSFERMIONS
       0, 2305.9396,3,36,15,15

BLOCK HIGGSBOUNDSINPUTHIGGSCOUPLINGSBOSONS
       0,4,36,21,21,23

BLOCK SPHENOLOWENERGY
   1    0.00030265417
   2    1.5923071e-06
   3    3.5235516e-05
   4    3.9291028e-15
   5    1.6783271e-10
   6    3.4322249e-08
   7    1.2936052e-13
   8    5.5258423e-09
   9    1.1466927e-06
   10    9.2422332e-05
   11    0.95468731
   12    0.54181726
   13    19.318563
   14    0
   15    0
   16    0.0021570555
   17    2.2816629e-15
   18    2.48075e-11
   19    8.2890747e-11
   20   -1.5552203e-15
   21   -6.6488349e-11
   22   -2.1806741e-08
   23    0
   24    0
   25    0
   26    0
   27    0
   28    0
   29    0
   30    0
   31    0
   39    7.85792e-05
   40    0
   41    0
   42    0

BLOCK FWCOEF Q=  160
   305   4422   0   0   -0.18881911
   305   4422   0   2   -0.16389892
   305   4322   0   2    0.00052873305
   305   6421   0   0   -0.095227835
   305   6421   0   2   -0.096445602
   305   6321   0   2   -2.3959874e-05
   3051111   4133   0   0    1.6114811
   3051111   4133   0   2    1.6116981
   3051111   4233   0   2    0.00058638669
   3051111   4137   0   0   -4.4341732
   3051111   4137   0   2   -4.4309771
   3051111   4237   0   2   -0.0044375313
   3051313   4133   0   0    1.6114811
   3051313   4133   0   2    1.6116972
   3051313   4233   0   2    0.00058637703
   3051313   4137   0   0   -4.4341732
   3051313   4137   0   2   -4.4309781
   3051313   4237   0   2   -0.0044375266
   3051212   4137   0   0    1.5053501
   3051212   4137   0   2    1.504662
   3051212   4237   0   2    0.00096285554
   3051414   4137   0   0    1.5053501
   3051414   4137   0   2    1.504662
   3051414   4237   0   2    0.00096285729
   3051616   4137   0   0    1.5053501
   3051616   4137   0   2    1.504662
   3051616   4237   0   2    0.00096335156

BLOCK IMFWCOEF Q=  160
   305   4422   0   0    3.85883e-07
   305   4422   0   2   -2.4909874e-05
   305   4322   0   2    1.6434072e-05
   305   6421   0   0    3.3053431e-07
   305   6421   0   2   -5.5865557e-05
   305   6321   0   2    8.1708055e-06
   3051111   4133   0   2   -5.6786589e-06
   3051111   4233   0   2    1.3632145e-05
   3051111   4137   0   2    4.9339867e-05
   3051111   4237   0   2   -0.00010317236
   3051313   4133   0   2   -5.678646e-06
   3051313   4233   0   2    1.3632117e-05
   3051313   4137   0   2    4.9339898e-05
   3051313   4237   0   2   -0.00010317242
   3051212   4137   0   2   -1.0607392e-05
   3051212   4237   0   2    2.2386322e-05
   3051414   4137   0   2   -1.0607392e-05
   3051414   4237   0   2    2.2386322e-05
   3051616   4137   0   2   -1.0606893e-05
   3051616   4237   0   2    2.2386323e-05

DECAY 23  2.4952


DECAY 24  2.085


DECAY 2000011  10.017521
    0.97194402   2    1000022    11
    0.02731095   2    1000025    11
    0.00074271833   2    1000023    11

DECAY 1000011  52.015937
    0.59480835   2   -1000037    12
    0.2955623   2    1000035    11
    0.099978556   2    1000022    11
    0.0086635748   2    1000025    11
    0.00094085524   2   -1000024    12

DECAY 2000013  10.079407
    0.96602804   2    1000022    13
    0.028622979   2    1000025    13
    0.003077031   2   -1000024    14
    0.0022677936   2    1000023    13

DECAY 1000013  52.089239
    0.59396782   2   -1000037    14
    0.29514539   2    1000035    13
    0.099866377   2    1000022    13
    0.0093260045   2    1000025    13
    0.00093952729   2   -1000024    14
    0.00074367282   2    1000023    13

DECAY 1000015  35.430704
    0.35332809   2    1000022    15
    0.32166274   2   -1000024    16
    0.16471864   2    1000025    15
    0.16010316   2    1000023    15
    0.0001239172   2   -1000037    16

DECAY 2000015  63.803283
    0.41620856   2   -1000037    16
    0.20696912   2    1000035    15
    0.1465431   2    1000025    15
    0.14497404   2    1000023    15
    0.079396007   2    1000022    15
    0.0026953348   2    1000015    25
    0.0026935993   2    1000015    23
    0.0005202298   2   -1000024    16

DECAY 1000012  52.028751
    0.59051757   2    1000037    11
    0.29711777   2    1000035    12
    0.10565835   2    1000022    12
    0.0057406937   2    1000024    11
    0.00063298022   2    1000023    12
    0.00033263886   2    1000025    12

DECAY 1000014  52.101533
    0.5896916   2    1000037    13
    0.29670146   2    1000035    14
    0.10551044   2    1000022    14
    0.0071322205   2    1000024    13
    0.00063209407   2    1000023    14
    0.00033217318   2    1000025    14

DECAY 1000016  63.837927
    0.41336465   2    1000037    15
    0.29488744   2    1000024    15
    0.20784269   2    1000035    16
    0.077806812   2    1000022    16
    0.0053904863   2    1000015    24
    0.00046405664   2    1000023    16
    0.00024386742   2    1000025    16

DECAY 2000001  0.24448136
    0.98760711   2    1000022    1
    0.012050862   2    1000025    1
    0.00033232004   2    1000023    1

DECAY 1000001  12.860315
    0.6474685   2   -1000037    2
    0.32304216   2    1000035    1
    0.026155129   2    1000022    1
    0.0018902139   2   -1000024    2
    0.00072891612   2    1000023    1
    0.00071500485   2    1000025    1

DECAY 2000003  0.24618282
    0.9809134   2    1000022    3
    0.013597345   2    1000025    3
    0.0034803646   2   -1000024    4
    0.0020088927   2    1000023    3

DECAY 1000003  12.87139
    0.64690889   2   -1000037    4
    0.32276329   2    1000035    3
    0.026149408   2    1000022    3
    0.0019478903   2   -1000024    4
    0.0011154472   2    1000023    3
    0.0010888499   2    1000025    3

DECAY 1000005  85.886727
    0.50335984   2   -1000024    6
    0.16001294   2    1000023    5
    0.15492645   2    1000025    5
    0.1024304   2   -1000037    6
    0.04975172   2    1000035    5
    0.017149524   2    1000006   -24
    0.012369121   2    1000022    5

DECAY 2000005  64.79164
    0.48219966   2   -1000024    6
    0.24236691   2    1000023    5
    0.23491735   2    1000025    5
    0.029899704   2    1000022    5
    0.0050068071   2    1000006   -24
    0.0022615629   2    1000005    25
    0.0014491583   2   -1000037    6
    0.0011749357   2    1000005    23
    0.0007239132   2    1000035    5

DECAY 1000002  12.913506
    0.63939756   2    1000037    1
    0.32050721   2    1000035    2
    0.022020186   2    1000022    2
    0.011486022   2    1000024    1
    0.0062553361   2    1000025    2
    0.00033368528   2    1000023    2

DECAY 2000002  133.41528
    0.92265823   2    1000021    2
    0.075015118   2    1000022    2
    0.0022645918   2    1000025    2

DECAY 1000004  12.924236
    0.6388645   2    1000037    3
    0.32023904   2    1000035    4
    0.022002469   2    1000022    4
    0.012251368   2    1000024    3
    0.0062793017   2    1000025    4
    0.00036332039   2    1000023    4

DECAY 2000004  133.41848
    0.92263531   2    1000021    4
    0.07501344   2    1000022    4
    0.0022704726   2    1000025    4

DECAY 1000006  77.447649
    0.36678873   2    1000024    5
    0.25357441   2    1000025    6
    0.24908275   2    1000023    6
    0.078965896   2    1000037    5
    0.037407744   2    1000035    6
    0.0132522   2    1000022    6
    0.00092684637   3    1000022    24    5

DECAY 2000006  144.1725
    0.32373565   2    1000024    5
    0.1799425   2    1000023    6
    0.16743655   2    1000025    6
    0.12035172   2    1000006    23
    0.10766114   2    1000005    24
    0.040035268   2    1000022    6
    0.039853775   2    1000006    25
    0.014098529   2    1000037    5
    0.006884867   2    1000035    6

DECAY 1000024  0.36904861
    0.99999965   2    1000022    24

DECAY 1000037  12.262508
    0.24804235   2    1000024    25
    0.24561962   2    1000025    24
    0.2425467   2    1000023    24
    0.24203088   2    1000024    23
    0.0066922985   3    1000025   -5    6
    0.0062165082   3    1000024    6   -6
    0.0061197615   3    1000023   -5    6
    0.0021195598   2    1000022    24
    0.00043661217   3    1000024    5   -5

DECAY 1000022 -1


DECAY 1000023  0.61277753
    0.64492554   2    1000022    23
    0.35505753   2    1000022    25

DECAY 1000025  0.19696009
    0.94800705   2    1000022    25
    0.051988254   2    1000022    23

DECAY 1000035  14.751164
    0.20523588   2    1000024   -24
    0.20523588   2   -1000024    24
    0.19221936   2    1000023    25
    0.17448737   2    1000023    23
    0.17350652   2    1000025    25
    0.030503158   2    1000025    23
    0.0060753119   3    1000024    5   -6
    0.0060753119   3   -1000024   -5    6
    0.0022272614   3    1000023    6   -6
    0.0019967485   3    1000025    6   -6
    0.0014898227   2    1000022    25
    0.00046764561   2    1000022    23
    0.00016863247   3    1000025    5   -5
    0.00016464256   3    1000023    5   -5

DECAY 1000021  230.45265
    0.16667055   2    2000003   -3
    0.16667055   2   -2000003    3
    0.16666987   2    2000001   -1
    0.16666987   2   -2000001    1
    0.025225542   2    1000004   -4
    0.025225542   2   -1000004    4
    0.025225383   2    1000002   -2
    0.025225383   2   -1000002    2
    0.025131412   2    1000003   -3
    0.025131412   2   -1000003    3
    0.02513121   2    1000001   -1
    0.02513121   2   -1000001    1
    0.0234224   2    1000005   -5
    0.0234224   2   -1000005    5
    0.023132716   2    1000006   -6
    0.023132716   2   -1000006    6
    0.011592136   2    2000006   -6
    0.011592136   2   -2000006    6
    0.0077532136   2    2000005   -5
    0.0077532136   2   -2000005    5

DECAY 25  0.0040162412
    0.56237963   2   -5    5
    0.24052211   2   -24    24
    0.071176658   2    21    21
    0.064718365   2   -15    15
    0.029590724   2    23    23
    0.027291179   2   -4    4
    0.0023299265   2    22    22
    0.0015561026   2    22    23
    0.00022445465   2   -13    13
    0.00021012514   2   -3    3
    5.8097108e-07   2   -1    1
    1.4063472e-07   2   -2    2
    5.0459796e-09   2   -11    11

DECAY 35  44.21953
    0.83005834   2   -5    5
    0.15103356   2   -15    15
    0.011258749   2    1000022    1000025
    0.0050767616   2    1000022    1000023
    0.00075326091   2    1000022    1000022
    0.00053891472   2   -6    6
    0.00052451815   2   -13    13
    0.00027875852   2   -1000024    1000024
    0.00023030592   2   -3    3
    0.00016639004   2    1000023    1000025
    3.3976629e-05   2    21    21
    2.5048601e-05   2    1000025    1000025
    1.3481659e-05   2    1000023    1000023
    5.915475e-06   2    25    25
    7.2814326e-07   2    23    23
    6.3663655e-07   2   -1    1
    6.0616295e-07   2   -24    24
    1.1783014e-08   2   -11    11
    1.0501145e-08   2   -1000001    1000001
    1.0444967e-08   2   -1000003    1000003
    8.4665829e-09   2   -4    4
    8.1072849e-09   2    22    22
    2.8814541e-09   2    22    23
    4.3654254e-14   2   -2    2

DECAY 36  42.090337
    0.82823876   2   -5    5
    0.15070585   2   -15    15
    0.011568997   2    1000022    1000023
    0.0054643682   2    1000022    1000025
    0.0012814311   2    1000022    1000022
    0.0011884352   2   -1000024    1000024
    0.00052416758   2   -6    6
    0.00052337626   2   -13    13
    0.0002297987   2   -3    3
    0.00012584846   2    1000025    1000025
    5.6932719e-05   2    1000023    1000023
    5.0680705e-05   2    21    21
    3.9476783e-05   2    1000023    1000025
    1.018216e-06   2    23    25
    6.3523392e-07   2   -1    1
    1.0211621e-07   2    22    23
    9.9430084e-08   2    22    22
    1.1757363e-08   2   -11    11
    7.7645519e-09   2   -4    4
    4.0049811e-14   2   -2    2
    1.7542171e-37   2    25    25

DECAY 37  47.369221
    0.83572396   2   -5    6
    0.14592298   2   -15    16
    0.015699719   2    1000022    1000024
    0.0012549325   2   -5    4
    0.00056874534   2    1000023    1000024
    0.00051589101   2   -13    14
    0.00019768607   2   -3    4
    9.5350404e-05   2    1000024    1000025
    9.178149e-06   2   -3    2
    8.961524e-06   2   -5    2
    1.0592188e-06   2   -3    6
    9.1222673e-07   2    24    25
    5.4832261e-07   2   -1    2
    3.5559553e-08   2   -1    6
    2.5715822e-08   2   -1    4
    1.2066744e-08   2   -11    12
    6.3382715e-12   2    24    35
    3.6774021e-12   2    24    36

DECAY 6  2.43
    1   2    5    24

DECAY 15 -1
