BLOCK SPINFO
   1   SPheno
   2   v4.0.5be

BLOCK SPHENOINFO
   1   2
   2   2

BLOCK MODSEL
   1   0

BLOCK MINPAR
   3    36.569745
   4    1

BLOCK EXTPAR
   0    3544.0143
   1   -496.75209
   2    3883.2907
   3    2581.696
   11   -4035.6887
   12   -7883.8221
   13   -429.17907
   23    2694.9949
   25    35.211839
   26    4178.2588
   31    3201.3641
   32    3201.3641
   33    893.72189
   34    2592.9832
   35    2592.9832
   36    4204.5337
   41    4979.1317
   42    4979.1317
   43    3312.269
   44    3184.1485
   45    3184.1485
   46    3680.439
   47    1076.0475
   48    1076.0475
   49    563.236

BLOCK SMINPUTS
   1    127.90897
   2    1.1663787e-05
   3    0.1184
   4    91.1876
   5    4.18
   6    173.2
   7    1.777
   8    0
   11    0.00051099893
   12    0
   13    0.10565837
   14    0
   21    0.005
   22    0.0025
   23    0.095
   24    1.27

BLOCK GAUGE Q=  3544.0143
   1    0.35536298
   2    0.66519887
   3    1.219778

BLOCK YU Q=  3544.0143
   1   1    8.3877526e-06
   2   2    0.0042609783
   3   3    1.0133079

BLOCK YD Q=  3544.0143
   1   1    0.00059349159
   2   2    0.01127634
   3   3    0.58855768

BLOCK YE Q=  3544.0143
   1   1    0.00010356862
   2   2    0.021414706
   3   3    0.36016013

BLOCK AU Q=  3544.0143
   1   1    0
   2   2    0
   3   3   -4035.6887

BLOCK AD Q=  3544.0143
   1   1    0
   2   2    0
   3   3   -7883.8259

BLOCK AE Q=  3544.0143
   1   1    0
   2   2    0
   3   3   -429.17907

BLOCK MSOFT Q=  3544.0143
   1   -496.75209
   2    3883.2907
   3    2581.696
   21    10391574
   22   -7048505.9
   31    3201.3641
   32    3201.3641
   33    893.72189
   34    2592.9832
   35    2592.9832
   36    4204.5337
   41    4979.1317
   42    4979.1317
   43    3312.269
   44    3184.1485
   45    3184.1485
   46    3680.439
   47    1076.0475
   48    1076.0475
   49    563.236

BLOCK MASS
   6    173.2
   23    91.1876
   24    80.429995
   15    1.777
   25    122.58519
   35    4178.2165
   36    4178.2588
   37    4177.635
   1000001    5069.0452
   2000001    1287.6209
   1000002    5068.3874
   2000002    3277.7907
   1000003    5069.0431
   2000003    1287.6204
   1000004    5068.3854
   2000004    3277.7906
   1000005    864.87058
   2000005    3404.3957
   1000006    3382.7681
   2000006    3712.9466
   1000011    3229.6928
   2000011    2602.6953
   1000012    3228.2926
   1000013    3229.6771
   2000013    2602.6613
   1000014    3228.2719
   1000015    940.73121
   2000015    4203.429
   1000016    942.35086
   1000021    2853.6702
   1000022   -491.99785
   1000023    2705.5276
   1000025   -2709.0459
   1000035    3907.3407
   1000024    2706.1013
   1000037    3907.5639

BLOCK ALPHA
      -0.027369077

BLOCK HMIX Q=  3544.0143
   1    2694.9949
   2    35.211839
   3    243.06887
   4    17457847

BLOCK STOPMIX
   1   1    0.96723199
   1   2    0.25389423
   2   1   -0.25389423
   2   2    0.96723199

BLOCK SBOTMIX
   1   1    0.015373928
   1   2    0.99988181
   2   1   -0.99988181
   2   2    0.015373928

BLOCK STAUMIX
   1   1    0.99994296
   1   2    0.010680581
   2   1   -0.010680581
   2   2    0.99994296

BLOCK NMIX
   1   1    0.99985365
   1   2    3.4709773e-05
   1   3    0.01691395
   1   4    0.0025683016
   2   1    0.010137778
   2   2    0.047101598
   2   3   -0.70658348
   2   4    0.70598757
   3   1   -0.013774752
   3   2    0.0081091229
   3   3    0.70688971
   3   4    0.70714316
   4   1    0.0004009673
   4   2   -0.99885719
   4   3   -0.027579887
   4   4    0.03903215

BLOCK UMIX
   1   1   -0.039165376
   1   2    0.99923274
   2   1    0.99923274
   2   2    0.039165376

BLOCK VMIX
   1   1   -0.055434446
   1   2    0.99846233
   2   1    0.99846233
   2   2    0.055434446

BLOCK HIGGSBOUNDSINPUTHIGGSCOUPLINGSFERMIONS
       0, 1239.8736,3,36,15,15

BLOCK HIGGSBOUNDSINPUTHIGGSCOUPLINGSBOSONS
       0,4,36,21,21,23

BLOCK SPHENOLOWENERGY
   1    0.00031458391
   2    1.5919186e-06
   3    3.527068e-05
   4    2.0993348e-15
   5    8.9681131e-11
   6    1.877133e-08
   7    7.0487697e-14
   8    3.0112302e-09
   9    6.3864249e-07
   10    9.6463754e-05
   11    0.99643364
   12    0.54175775
   13    19.355537
   14    0
   15    0
   16    0.0021565643
   17    2.281651e-15
   18    2.4809256e-11
   19    8.2928492e-11
   20    7.9030404e-16
   21    3.3786672e-11
   22    8.2079681e-09
   23    0
   24    0
   25    0
   26    0
   27    0
   28    0
   29    0
   30    0
   31    0
   39    6.625822e-05
   40    0
   41    0
   42    0

BLOCK FWCOEF Q=  160
   305   4422   0   0   -0.18881911
   305   4422   0   2   -0.1806185
   305   4322   0   2    8.6819446e-05
   305   6421   0   0   -0.095227835
   305   6421   0   2   -0.097258751
   305   6321   0   2   -7.0120963e-05
   3051111   4133   0   0    1.6226292
   3051111   4133   0   2    1.6229737
   3051111   4233   0   2    0.00021906333
   3051111   4137   0   0   -4.4453213
   3051111   4137   0   2   -4.4454957
   3051111   4237   0   2   -0.0016286135
   3051313   4133   0   0    1.6226292
   3051313   4133   0   2    1.6229731
   3051313   4233   0   2    0.00021906311
   3051313   4137   0   0   -4.4453213
   3051313   4137   0   2   -4.4454963
   3051313   4237   0   2   -0.0016286139
   3051212   4137   0   0    1.5053501
   3051212   4137   0   2    1.5053885
   3051212   4237   0   2    0.00035248772
   3051414   4137   0   0    1.5053501
   3051414   4137   0   2    1.5053885
   3051414   4237   0   2    0.00035248774
   3051616   4137   0   0    1.5053501
   3051616   4137   0   2    1.5053882
   3051616   4237   0   2    0.00035249119

BLOCK IMFWCOEF Q=  160
   305   4422   0   0    3.8587043e-07
   305   4422   0   2    3.200885e-05
   305   4322   0   2    2.8935476e-06
   305   6421   0   0    3.3052354e-07
   305   6421   0   2   -5.1340116e-05
   305   6321   0   2    5.3839944e-07
   3051111   4133   0   2    7.9531435e-07
   3051111   4233   0   2    4.2625716e-06
   3051111   4137   0   2   -4.6015202e-06
   3051111   4237   0   2   -3.1694576e-05
   3051313   4133   0   2    7.9531203e-07
   3051313   4233   0   2    4.2625688e-06
   3051313   4137   0   2   -4.6015217e-06
   3051313   4237   0   2   -3.1694583e-05
   3051212   4137   0   2    1.0075828e-06
   3051212   4237   0   2    6.8597937e-06
   3051414   4137   0   2    1.0075827e-06
   3051414   4237   0   2    6.8597937e-06
   3051616   4137   0   2    1.0022258e-06
   3051616   4237   0   2    6.859789e-06

DECAY 23  2.4952


DECAY 24  2.085


DECAY 2000011  12.156108
    1   2    1000022    11

DECAY 1000011  3.8776263
    0.99810188   2    1000022    11
    0.00099846088   2   -1000024    12
    0.00089944362   2    1000023    11

DECAY 2000013  12.155931
    1   2    1000022    13

DECAY 1000013  3.8837384
    0.99652788   2    1000022    13
    0.0012346995   2    1000023    13
    0.00099683897   2   -1000024    14
    0.00090729851   2    2000013    25
    0.00033328569   2    1000025    13

DECAY 1000015  0.62461437
    1   2    1000022    15

DECAY 2000015  37.487934
    0.54786865   2    1000022    15
    0.13156364   2    1000016   -24
    0.098892063   2   -1000024    16
    0.065786215   2    1000015    23
    0.056868605   2    1000015    25
    0.049501784   2    1000023    15
    0.049491319   2    1000025    15

DECAY 1000012  3.8776296
    0.99736792   2    1000022    12
    0.0019912377   2    1000024    11
    0.00056412576   2    1000023    12

DECAY 1000014  3.8801998
    0.99670024   2    1000022    14
    0.0026593789   2    1000024    13
    0.0005637143   2    1000023    14

DECAY 1000016  0.62609274
    1   2    1000022    16

DECAY 2000001  0.52413048
    1   2    1000022    1

DECAY 1000001  198.44739
    0.94076068   2    1000021    1
    0.036965077   2   -1000037    2
    0.018477469   2    1000035    1
    0.003495948   2    1000022    1
    0.00017633474   2   -1000024    2
    0.00011801671   2    1000023    1

DECAY 2000003  0.52413066
    1   2    1000022    3

DECAY 1000003  198.45629
    0.9407174   2    1000021    3
    0.036963316   2   -1000037    4
    0.018476602   2    1000035    3
    0.0034958077   2    1000022    3
    0.00018100477   2   -1000024    4
    0.00013445726   2    1000023    3

DECAY 1000005  0.22191296
    1   2    1000022    5

DECAY 2000005  46.932198
    0.50618434   2    1000021    5
    0.19108937   2   -1000024    6
    0.17026911   2    1000005    25
    0.055181389   2    1000005    23
    0.033902777   2    1000023    5
    0.033636758   2    1000025    5
    0.009736262   2    1000022    5

DECAY 2000002  22.149262
    0.68432735   2    1000021    2
    0.3156629   2    1000022    2

DECAY 1000002  198.39457
    0.94066244   2    1000021    2
    0.036885077   2    1000037    1
    0.018460668   2    1000035    2
    0.0034991352   2    1000022    2
    0.00035332452   2    1000024    1
    0.00013751788   2    1000023    2

DECAY 2000004  22.149402
    0.68431868   2    1000021    4
    0.31566078   2    1000022    4

DECAY 1000004  198.40172
    0.94062715   2    1000021    4
    0.03688367   2    1000037    3
    0.018459951   2    1000035    4
    0.0034990071   2    1000022    4
    0.00038618579   2    1000024    3
    0.00013984928   2    1000023    4

DECAY 1000006  51.14756
    0.46659609   2    1000021    6
    0.19823068   2    1000021    4
    0.09277151   2    1000005    24
    0.074492877   2    1000023    6
    0.074162681   2    1000025    6
    0.06946716   2    1000024    5
    0.017163664   2    1000022    6
    0.0040395135   2    1000022    4
    0.0028293937   3    1000022    24    5
    0.00015106132   3   -1000015    16    5

DECAY 2000006  102.81802
    0.42478163   2    1000021    6
    0.15201391   2    1000024    5
    0.084208498   2    1000025    6
    0.083947239   2    1000023    6
    0.079388106   2    2000005    24
    0.07290198   2    1000022    6
    0.053904216   2    1000006    25
    0.04449603   2    1000006    23
    0.004358392   2    1000005    24

DECAY 1000024  27.319175
    0.83098667   2   -1000005    6
    0.099605635   2    1000016   -15
    0.065203476   2    1000022    24
    0.0032897911   3    1000022   -5    6
    0.0006806158   2   -1000015    16
    0.00022459175   2   -2000003    4

DECAY 1000037  70.236275
    0.21685752   2   -1000015    16
    0.21664309   2    1000016   -15
    0.097652534   2    1000024    25
    0.093784397   2    1000025    24
    0.092843099   2    1000024    23
    0.091655468   2    1000023    24
    0.041154413   2    1000006   -5
    0.038133555   2   -2000005    6
    0.02460311   2    1000014   -13
    0.024601724   2    1000012   -11
    0.024548889   2   -1000013    14
    0.02454786   2   -1000011    12
    0.0047723268   3    1000024    6   -6
    0.0036113148   3    1000023   -5    6
    0.0033774578   3    1000025   -5    6
    0.00077810102   2    2000006   -5
    0.00025130776   2   -1000005    6
    0.00014186097   2    1000022    24

DECAY 1000022 -1


DECAY 1000023  27.70897
    0.40681713   2    1000005   -5
    0.40681713   2   -1000005    5
    0.04916369   2    1000015   -15
    0.04916369   2   -1000015    15
    0.043341819   2    1000022    25
    0.041700412   2    1000022    23
    0.0021556649   3    1000022    6   -6
    0.00028830046   2    1000016   -16
    0.00028830046   2   -1000016    16
    0.0001156949   2    2000003   -3
    0.0001156949   2   -2000003    3

DECAY 1000025  27.043393
    0.41715228   2    1000005   -5
    0.41715228   2   -1000005    5
    0.049921076   2    1000015   -15
    0.049921076   2   -1000015    15
    0.039981656   2    1000022    25
    0.023285486   2    1000022    23
    0.0022142235   3    1000022    6   -6
    0.00012334572   2    2000003   -3
    0.00012334572   2   -2000003    3

DECAY 1000035  76.159091
    0.099971285   2    1000016   -16
    0.099971285   2   -1000016    16
    0.099911994   2    1000015   -15
    0.099911994   2   -1000015    15
    0.08743172   2    1000023    25
    0.086500549   2    1000024   -24
    0.086500549   2   -1000024    24
    0.083470398   2    1000025    23
    0.078727898   2    1000025    25
    0.019637075   2    2000005   -5
    0.019637075   2   -2000005    5
    0.017082575   2    1000006   -6
    0.017082575   2   -1000006    6
    0.01135248   2    1000014   -14
    0.01135248   2   -1000014    14
    0.011351853   2    1000012   -12
    0.011351853   2   -1000012    12
    0.011300314   2    1000013   -13
    0.011300314   2   -1000013    13
    0.011299827   2    1000011   -11
    0.011299827   2   -1000011    11
    0.003326939   3    1000024    5   -6
    0.003326939   3   -1000024   -5    6
    0.0024674905   2    1000023    23
    0.0019549863   3    1000023    6   -6
    0.0017476756   3    1000025    6   -6
    0.00014719124   2    2000006   -6
    0.00014719124   2   -2000006    6
    0.00011238452   2    1000005   -5
    0.00011238452   2   -1000005    5

DECAY 1000021  176.82719
    0.19696326   2    1000005   -5
    0.19696326   2   -1000005    5
    0.15148997   2    2000003   -3
    0.15148997   2   -2000003    3
    0.15148992   2    2000001   -1
    0.15148992   2   -2000001    1

DECAY 25  0.0035853507
    0.60961602   2   -5    5
    0.19058411   2   -24    24
    0.073712943   2    21    21
    0.069842486   2   -15    15
    0.030160197   2   -4    4
    0.021976427   2    23    23
    0.0023398001   2    22    22
    0.001296355   2    22    23
    0.00024223275   2   -13    13
    0.00022863898   2   -3    3
    6.3216325e-07   2   -1    1
    1.5543043e-07   2   -2    2
    5.4456936e-09   2   -11    11

DECAY 35  45.987308
    0.67515333   2   -5    5
    0.2851058   2   -15    15
    0.020093769   2    1000022    1000023
    0.012808871   2    1000022    1000025
    0.0042282993   2   -6    6
    0.0013792004   2   -1000005    1000005
    0.00088427498   2   -13    13
    0.00028947954   2   -3    3
    5.3246138e-05   2    1000022    1000022
    1.0274906e-06   2    25    25
    8.0032194e-07   2   -1    1
    7.7493035e-07   2    21    21
    3.757726e-07   2   -1000015    1000015
    2.2334211e-07   2    23    23
    6.3495042e-08   2    22    23
    4.4868109e-08   2   -24    24
    4.3548033e-08   2   -4    4
    1.9858138e-08   2   -11    11
    1.934275e-08   2   -1000001    1000001
    1.9277168e-08   2   -1000003    1000003
    3.4963522e-09   2    22    22
    2.2438883e-13   2   -2    2

DECAY 36  47.889189
    0.67742287   2   -5    5
    0.28593468   2   -15    15
    0.019150617   2    1000022    1000025
    0.012411614   2    1000022    1000023
    0.0038370891   2   -6    6
    0.00088684855   2   -13    13
    0.00029033613   2   -3    3
    5.3267654e-05   2    1000022    1000022
    1.1329966e-05   2    21    21
    8.0268942e-07   2   -1    1
    4.7474371e-07   2    23    25
    3.8612784e-08   2   -4    4
    1.9915931e-08   2   -11    11
    1.0985604e-08   2    22    22
    2.2022316e-09   2    22    23
    1.9896085e-13   2   -2    2
    5.6249e-39   2    25    25

DECAY 37  50.305914
    0.7455504   2   -5    6
    0.22210108   2   -15    16
    0.030160003   2    1000022    1000024
    0.0011028088   2   -5    4
    0.00078520633   2   -13    14
    0.00027392941   2   -3    4
    1.2876025e-05   2   -3    2
    7.8751915e-06   2   -5    2
    3.7819183e-06   2   -3    6
    7.5977506e-07   2   -1    2
    6.2336348e-07   2   -1000015    1000016
    4.5187817e-07   2    24    25
    1.5472706e-07   2   -1    6
    3.7022031e-08   2   -1    4
    1.8366058e-08   2   -11    12
    9.4531282e-12   2   -1000005    1000004
    3.5407199e-19   2   -1000005    1000002

DECAY 6  2.43
    1   2    5    24

DECAY 15 -1
