#
#                              ======================
#                              | THE SUSYHIT OUTPUT |
#                              ======================
#
#
#              ------------------------------------------------------
#              |     This is the output of the SUSY-HIT package     |
#              |  created by A.Djouadi, M.Muehlleitner and M.Spira. |
#              |  In case of problems with SUSY-HIT email to        |
#              |           margarete.muehlleitner@cern.ch           |
#              |           michael.spira@psi.ch                     |
#              |           abdelhak.djouadi@cern.ch                 |
#              ------------------------------------------------------
#
#              ------------------------------------------------------
#              |  SUSY Les Houches Accord - MSSM Spectrum + Decays  |
#              |              based on the decay programs           |
#              |                                                    |
#              |                     SDECAY 1.3b                    |
#              |                                                    |
#              |  Authors: M.Muhlleitner, A.Djouadi and Y.Mambrini  |
#              |  Ref.:    Comput.Phys.Commun.168(2005)46           |
#              |           [hep-ph/0311167]                         |
#              |                                                    |
#              |                     HDECAY 3.4                     |
#              |                                                    |
#              |  By: A.Djouadi,J.Kalinowski,M.Muhlleitner,M.Spira  |
#              |  Ref.:    Comput.Phys.Commun.108(1998)56           |
#              |           [hep-ph/9704448]                         |
#              |                                                    |
#              |                                                    |
#              |  If not stated otherwise all DRbar couplings and   |
#              |  soft SUSY breaking masses are given at the scale  |
#              |  Q=  0.34225160E+04
#              |                                                    |
#              ------------------------------------------------------
#
#
BLOCK DCINFO  # Decay Program information
     1   SDECAY/HDECAY # decay calculator
     2   1.3b  /3.4    # version number
#
BLOCK SPINFO  # Spectrum calculator information
     1     SOFTSUSY    # spectrum calculator               
     2     3.4.0       # version number                    
#
BLOCK MODSEL  # Model selection
     1     0   #  nonUniversal                                     
#
BLOCK SMINPUTS  # Standard Model inputs
         1     1.27908970E+02   # alpha_em^-1(M_Z)^MSbar
         2     1.16637870E-05   # G_F [GeV^-2]
         3     1.18400000E-01   # alpha_S(M_Z)^MSbar
         4     9.11876000E+01   # M_Z pole mass
         5     4.18000000E+00   # mb(mb)^MSbar
         6     1.73200000E+02   # mt pole mass
         7     1.77700000E+00   # mtau pole mass
#
BLOCK MINPAR  # Input parameters - minimal models
         3     3.06700000E+01   # tanb                
#
BLOCK EXTPAR  # Input parameters - non-minimal models
         0    -1.00000000E+00   # Set                 
         1    -1.92080000E+02   # M_1(MX)             
         2     7.49580000E+02   # M_2(MX)             
         3     3.78269000E+03   # M_3(MX)             
        11    -1.66694000E+03   # At(MX)              
        12    -4.67000000E+02   # Ab(MX)              
        13     3.56365000E+03   # Atau(MX)            
        23     1.81380000E+02   # mu(MX)              
        26     3.89875000E+03   # mA(pole)            
        31     3.94492000E+03   # meL(MX)             
        32     3.94492000E+03   # mmuL(MX)            
        33     3.54706000E+03   # mtauL(MX)           
        34     3.83618000E+03   # meR(MX)             
        35     3.83618000E+03   # mmuR(MX)            
        36     2.77500000E+03   # mtauR(MX)           
        41     3.10340000E+03   # mqL1(MX)            
        42     3.10340000E+03   # mqL2(MX)            
        43     3.00717000E+03   # mqL3(MX)            
        44     2.41657000E+03   # muR(MX)             
        45     2.41657000E+03   # mcR(MX)             
        46     3.89005000E+03   # mtR(MX)             
        47     1.36698000E+03   # mdR(MX)             
        48     1.36698000E+03   # msR(MX)             
        49     8.62060000E+02   # mbR(MX)             
#
BLOCK MASS  # Mass Spectrum
# PDG code           mass       particle
        24     8.03768420E+01   # W+
        25     1.24701753E+02   # h
        35     3.89875569E+03   # H
        36     3.89875003E+03   # A
        37     3.89982580E+03   # H+
         5     4.81876030E+00   # b-quark pole mass calculated from mb(mb)_Msbar
   1000001     3.23960089E+03   # ~d_L
   2000001     1.55227327E+03   # ~d_R
   1000002     3.23873569E+03   # ~u_L
   2000002     2.55742455E+03   # ~u_R
   1000003     3.23960089E+03   # ~s_L
   2000003     1.55227327E+03   # ~s_R
   1000004     3.23873569E+03   # ~c_L
   2000004     2.55742455E+03   # ~c_R
   1000005     1.07720749E+03   # ~b_1
   2000005     3.11628092E+03   # ~b_2
   1000006     3.11703361E+03   # ~t_1
   2000006     3.95722180E+03   # ~t_2
   1000011     3.95201244E+03   # ~e_L
   2000011     3.84240927E+03   # ~e_R
   1000012     3.95087398E+03   # ~nu_eL
   1000013     3.95201244E+03   # ~mu_L
   2000013     3.84240927E+03   # ~mu_R
   1000014     3.95087398E+03   # ~nu_muL
   1000015     2.77298776E+03   # ~tau_1
   2000015     3.54927726E+03   # ~tau_2
   1000016     3.54804882E+03   # ~nu_tauL
   1000021     3.84259994E+03   # ~g
   1000022    -1.63257235E+02   # ~chi_10
   1000023     1.87548226E+02   # ~chi_20
   1000025    -2.23010083E+02   # ~chi_30
   1000035     7.97558940E+02   # ~chi_40
   1000024     1.88184730E+02   # ~chi_1+
   1000037     7.97750309E+02   # ~chi_2+
#
BLOCK NMIX  # Neutralino Mixing Matrix
  1  1     7.07501457E-01   # N_11
  1  2     3.69413301E-02   # N_12
  1  3     5.38129806E-01   # N_13
  1  4     4.56610708E-01   # N_14
  2  1     8.29254302E-02   # N_21
  2  2     9.53109284E-02   # N_22
  2  3    -7.06460898E-01   # N_23
  2  4     6.96385094E-01   # N_24
  3  1     7.01813330E-01   # N_31
  3  2    -4.16944575E-02   # N_32
  3  3    -4.58821501E-01   # N_33
  3  4    -5.43325364E-01   # N_34
  4  1    -4.80740283E-03   # N_41
  4  2     9.93887688E-01   # N_42
  4  3     2.84980889E-02   # N_43
  4  4    -1.06545814E-01   # N_44
#
BLOCK UMIX  # Chargino Mixing Matrix U
  1  1    -4.03710675E-02   # U_11
  1  2     9.99184756E-01   # U_12
  2  1    -9.99184756E-01   # U_21
  2  2    -4.03710675E-02   # U_22
#
BLOCK VMIX  # Chargino Mixing Matrix V
  1  1    -1.51068667E-01   # V_11
  1  2     9.88523271E-01   # V_12
  2  1    -9.88523271E-01   # V_21
  2  2    -1.51068667E-01   # V_22
#
BLOCK STOPMIX  # Stop Mixing Matrix
  1  1     9.99086102E-01   # cos(theta_t)
  1  2     4.27429619E-02   # sin(theta_t)
  2  1    -4.27429619E-02   # -sin(theta_t)
  2  2     9.99086102E-01   # cos(theta_t)
#
BLOCK SBOTMIX  # Sbottom Mixing Matrix
  1  1     1.66191180E-03   # cos(theta_b)
  1  2     9.99998619E-01   # sin(theta_b)
  2  1    -9.99998619E-01   # -sin(theta_b)
  2  2     1.66191180E-03   # cos(theta_b)
#
BLOCK STAUMIX  # Stau Mixing Matrix
  1  1     7.09495197E-04   # cos(theta_tau)
  1  2     9.99999748E-01   # sin(theta_tau)
  2  1    -9.99999748E-01   # -sin(theta_tau)
  2  2     7.09495197E-04   # cos(theta_tau)
#
BLOCK ALPHA  # Higgs mixing
          -3.38402510E-02   # Mixing angle in the neutral Higgs boson sector
#
BLOCK HMIX Q=  3.42251600E+03  # DRbar Higgs Parameters
         1     1.84874065E+02   # mu(Q)MSSM           
         2     2.95857332E+01   # tan                 
         3     2.41397132E+02   # higgs               
         4     1.53215086E+07   # mA^2(Q)MSSM         
#
BLOCK GAUGE Q=  3.42251600E+03  # The gauge couplings
     1     3.65495085E-01   # gprime(Q) DRbar
     2     6.40153775E-01   # g(Q) DRbar
     3     1.00412113E+00   # g3(Q) DRbar
#
BLOCK AU Q=  3.42251600E+03  # The trilinear couplings
  1  1     0.00000000E+00   # A_u(Q) DRbar
  2  2     0.00000000E+00   # A_c(Q) DRbar
  3  3    -1.66693997E+03   # A_t(Q) DRbar
#
BLOCK AD Q=  3.42251600E+03  # The trilinear couplings
  1  1     0.00000000E+00   # A_d(Q) DRbar
  2  2     0.00000000E+00   # A_s(Q) DRbar
  3  3    -4.66999989E+02   # A_b(Q) DRbar
#
BLOCK AE Q=  3.42251600E+03  # The trilinear couplings
  1  1     0.00000000E+00   # A_e(Q) DRbar
  2  2     0.00000000E+00   # A_mu(Q) DRbar
  3  3     3.56365000E+03   # A_tau(Q) DRbar
#
BLOCK Yu Q=  3.42251600E+03  # The Yukawa couplings
  1  1     0.00000000E+00   # y_u(Q) DRbar
  2  2     0.00000000E+00   # y_c(Q) DRbar
  3  3     8.17862643E-01   # y_t(Q) DRbar
#
BLOCK Yd Q=  3.42251600E+03  # The Yukawa couplings
  1  1     0.00000000E+00   # y_d(Q) DRbar
  2  2     0.00000000E+00   # y_s(Q) DRbar
  3  3     3.88888215E-01   # y_b(Q) DRbar
#
BLOCK Ye Q=  3.42251600E+03  # The Yukawa couplings
  1  1     0.00000000E+00   # y_e(Q) DRbar
  2  2     0.00000000E+00   # y_mu(Q) DRbar
  3  3     3.04333135E-01   # y_tau(Q) DRbar
#
BLOCK MSOFT Q=  3.42251600E+03  # The soft SUSY breaking masses at the scale Q
         1    -1.92080000E+02   # M_1(Q)              
         2     7.49580000E+02   # M_2(Q)              
         3     3.78269000E+03   # M_3(Q)              
        21     1.52616517E+07   # mH1^2(Q)            
        22     2.48046210E+05   # mH2^2(Q)            
        31     3.94492000E+03   # meL(Q)              
        32     3.94492000E+03   # mmuL(Q)             
        33     3.54706000E+03   # mtauL(Q)            
        34     3.83618000E+03   # meR(Q)              
        35     3.83618000E+03   # mmuR(Q)             
        36     2.77500000E+03   # mtauR(Q)            
        41     3.10339998E+03   # mqL1(Q)             
        42     3.10339998E+03   # mqL2(Q)             
        43     3.00716997E+03   # mqL3(Q)             
        44     2.41656998E+03   # muR(Q)              
        45     2.41656998E+03   # mcR(Q)              
        46     3.89004997E+03   # mtR(Q)              
        47     1.36697996E+03   # mdR(Q)              
        48     1.36697996E+03   # msR(Q)              
        49     8.62059933E+02   # mbR(Q)              
#
Block HiggsBoundsInputHiggsCouplingsFermions
# ScalarNormEffCoupSq PseudoSNormEffCoupSq NP   IP1 IP2 IP2
    1.00314084E+00    0.00000000E+00        3  25   5   5  # h0-b-b eff. coupling^2, normalised to SM
    8.75312468E+02    0.00000000E+00        3  35   5   5  # H0-b-b eff. coupling^2, normalised to SM
    0.00000000E+00    8.75315609E+02        3  36   5   5  # A0-b-b eff. coupling^2, normalised to SM
#
    9.99996412E-01    0.00000000E+00        3  25   6   6  # h0-t-t eff. coupling^2, normalised to SM
    1.14603331E-03    0.00000000E+00        3  35   6   6  # H0-t-t eff. coupling^2, normalised to SM
    0.00000000E+00    1.14244507E-03        3  36   6   6  # A0-t-t eff. coupling^2, normalised to SM
#
    1.00314084E+00    0.00000000E+00        3  25  15  15  # h0-tau-tau eff. coupling^2, normalised to SM
    8.75312468E+02    0.00000000E+00        3  35  15  15  # H0-tau-tau eff. coupling^2, normalised to SM
    0.00000000E+00    8.75315609E+02        3  36  15  15  # A0-tau-tau eff. coupling^2, normalised to SM
#
Block HiggsBoundsInputHiggsCouplingsBosons
    9.99999997E-01        3  25  24  24  # h0-W-W eff. coupling^2, normalised to SM
    2.81311402E-09        3  35  24  24  # H0-W-W eff. coupling^2, normalised to SM
    0.00000000E+00        3  36  24  24  # A0-W-W eff. coupling^2, normalised to SM
#
    9.99999997E-01        3  25  23  23  # h0-Z-Z eff. coupling^2, normalised to SM
    2.81311402E-09        3  35  23  23  # H0-Z-Z eff. coupling^2, normalised to SM
    0.00000000E+00        3  36  23  23  # A0-Z-Z eff. coupling^2, normalised to SM
#
    8.92133013E-01        3  25  21  21  # h0-g-g eff. coupling^2, normalised to SM
    1.29789824E-14        3  35  21  21  # H0-g-g eff. coupling^2, normalised to SM
    1.89588960E-13        3  36  21  21  # A0-g-g eff. coupling^2, normalised to SM
#
    0.00000000E+00        3  25  25  23  # h0-h0-Z eff. coupling^2, normalised to SM
    0.00000000E+00        3  35  25  23  # H0-h0-Z eff. coupling^2, normalised to SM
    2.81311402E-09        3  36  25  23  # A0-h0-Z eff. coupling^2, normalised to SM
    0.00000000E+00        3  35  35  23  # H0-H0-Z eff. coupling^2, normalised to SM
    9.99999997E-01        3  36  35  23  # A0-H0-Z eff. coupling^2, normalised to SM
    0.00000000E+00        3  36  36  23  # A0-A0-Z eff. coupling^2, normalised to SM
#
    0.00000000E+00        4  25  21  21  23  # h0-g-g-Z eff. coupling^2, normalised to SM
    0.00000000E+00        4  35  21  21  23  # H0-g-g-Z eff. coupling^2, normalised to SM
    0.00000000E+00        4  36  21  21  23  # A0-g-g-Z eff. coupling^2, normalised to SM
#
#
#
#                             =================
#                             |The decay table|
#                             =================
#
# - The QCD corrections to the decays gluino -> squark  + quark
#                                     squark -> gaugino + quark_prime
#                                     squark -> squark_prime + Higgs
#                                     squark -> gluino  + quark
#   are included.
#
# - The multi-body decays for the inos, stops and sbottoms are included.
#
# - The loop induced decays for the gluino, neutralinos and stops
#   are included.
#
# - The SUSY decays of the top quark are included.
#
#
#         PDG            Width
DECAY         6     1.44382925E+00   # top decays
#          BR         NDA      ID1       ID2
     1.00000000E+00    2           5        24   # BR(t ->  b    W+)
#
#         PDG            Width
DECAY   1000021     2.54031769E+02   # gluino decays
#          BR         NDA      ID1       ID2
     1.21949693E-02    2     1000001        -1   # BR(~g -> ~d_L  db)
     1.21949693E-02    2    -1000001         1   # BR(~g -> ~d_L* d )
     1.02086502E-01    2     2000001        -1   # BR(~g -> ~d_R  db)
     1.02086502E-01    2    -2000001         1   # BR(~g -> ~d_R* d )
     1.22270018E-02    2     1000002        -2   # BR(~g -> ~u_L  ub)
     1.22270018E-02    2    -1000002         2   # BR(~g -> ~u_L* u )
     4.52375475E-02    2     2000002        -2   # BR(~g -> ~u_R  ub)
     4.52375475E-02    2    -2000002         2   # BR(~g -> ~u_R* u )
     1.21949693E-02    2     1000003        -3   # BR(~g -> ~s_L  sb)
     1.21949693E-02    2    -1000003         3   # BR(~g -> ~s_L* s )
     1.02086502E-01    2     2000003        -3   # BR(~g -> ~s_R  sb)
     1.02086502E-01    2    -2000003         3   # BR(~g -> ~s_R* s )
     1.22269644E-02    2     1000004        -4   # BR(~g -> ~c_L  cb)
     1.22269644E-02    2    -1000004         4   # BR(~g -> ~c_L* c )
     4.52375242E-02    2     2000004        -4   # BR(~g -> ~c_R  cb)
     4.52375242E-02    2    -2000004         4   # BR(~g -> ~c_R* c )
     1.22869845E-01    2     1000005        -5   # BR(~g -> ~b_1  bb)
     1.22869845E-01    2    -1000005         5   # BR(~g -> ~b_1* b )
     1.72125331E-02    2     2000005        -5   # BR(~g -> ~b_2  bb)
     1.72125331E-02    2    -2000005         5   # BR(~g -> ~b_2* b )
     1.64256410E-02    2     1000006        -6   # BR(~g -> ~t_1  tb)
     1.64256410E-02    2    -1000006         6   # BR(~g -> ~t_1* t )
#
#         PDG            Width
DECAY   1000006     8.41337939E+01   # stop1 decays
#          BR         NDA      ID1       ID2
     1.02489206E-01    2     1000022         6   # BR(~t_1 -> ~chi_10 t )
     2.38077548E-01    2     1000023         6   # BR(~t_1 -> ~chi_20 t )
     1.49876159E-01    2     1000025         6   # BR(~t_1 -> ~chi_30 t )
     1.33112360E-01    2     1000035         6   # BR(~t_1 -> ~chi_40 t )
     1.22850550E-01    2     1000024         5   # BR(~t_1 -> ~chi_1+ b )
     2.53167871E-01    2     1000037         5   # BR(~t_1 -> ~chi_2+ b )
     4.26306378E-04    2     1000005        24   # BR(~t_1 -> ~b_1    W+)
#
#         PDG            Width
DECAY   2000006     1.21320151E+02   # stop2 decays
#          BR         NDA      ID1       ID2
     1.31038080E-01    2     1000022         6   # BR(~t_2 -> ~chi_10 t )
     2.08755995E-01    2     1000023         6   # BR(~t_2 -> ~chi_20 t )
     1.60082579E-01    2     1000025         6   # BR(~t_2 -> ~chi_30 t )
     6.74708894E-03    2     1000035         6   # BR(~t_2 -> ~chi_40 t )
     4.17341300E-01    2     1000024         5   # BR(~t_2 -> ~chi_1+ b )
     1.35259246E-02    2     1000037         5   # BR(~t_2 -> ~chi_2+ b )
     1.44242643E-02    2     1000006        25   # BR(~t_2 -> ~t_1    h )
     1.62585046E-02    2     1000006        23   # BR(~t_2 -> ~t_1    Z )
     1.28886951E-06    2     1000005        24   # BR(~t_2 -> ~b_1    W+)
     3.18249752E-02    2     2000005        24   # BR(~t_2 -> ~b_2    W+)
#
#         PDG            Width
DECAY   1000005     6.51415315E+00   # sbottom1 decays
#          BR         NDA      ID1       ID2
     1.84777846E-01    2     1000022         5   # BR(~b_1 -> ~chi_10 b )
     2.34206506E-01    2     1000023         5   # BR(~b_1 -> ~chi_20 b )
     1.39405590E-01    2     1000025         5   # BR(~b_1 -> ~chi_30 b )
     7.23121340E-05    2     1000035         5   # BR(~b_1 -> ~chi_40 b )
     4.41433519E-01    2    -1000024         6   # BR(~b_1 -> ~chi_1- t )
     1.04226775E-04    2    -1000037         6   # BR(~b_1 -> ~chi_2- t )
#
#         PDG            Width
DECAY   2000005     8.39806386E+01   # sbottom2 decays
#          BR         NDA      ID1       ID2
     3.35065454E-02    2     1000022         5   # BR(~b_2 -> ~chi_10 b )
     5.62496874E-02    2     1000023         5   # BR(~b_2 -> ~chi_20 b )
     2.79437156E-02    2     1000025         5   # BR(~b_2 -> ~chi_30 b )
     1.30818800E-01    2     1000035         5   # BR(~b_2 -> ~chi_40 b )
     4.76298818E-01    2    -1000024         6   # BR(~b_2 -> ~chi_1- t )
     2.74759558E-01    2    -1000037         6   # BR(~b_2 -> ~chi_2- t )
     2.02865666E-04    2     1000005        25   # BR(~b_2 -> ~b_1    h )
     2.20010559E-04    2     1000005        23   # BR(~b_2 -> ~b_1    Z )
#
#         PDG            Width
DECAY   1000002     3.49619325E+01   # sup_L decays
#          BR         NDA      ID1       ID2
     1.08617441E-02    2     1000022         2   # BR(~u_L -> ~chi_10 u)
     4.54607267E-03    2     1000023         2   # BR(~u_L -> ~chi_20 u)
     3.10099321E-03    2     1000025         2   # BR(~u_L -> ~chi_30 u)
     3.23501239E-01    2     1000035         2   # BR(~u_L -> ~chi_40 u)
     1.68121583E-02    2     1000024         1   # BR(~u_L -> ~chi_1+ d)
     6.41177792E-01    2     1000037         1   # BR(~u_L -> ~chi_2+ d)
#
#         PDG            Width
DECAY   2000002     5.95718064E+00   # sup_R decays
#          BR         NDA      ID1       ID2
     5.02234632E-01    2     1000022         2   # BR(~u_R -> ~chi_10 u)
     6.88259394E-03    2     1000023         2   # BR(~u_R -> ~chi_20 u)
     4.90863667E-01    2     1000025         2   # BR(~u_R -> ~chi_30 u)
     1.91075611E-05    2     1000035         2   # BR(~u_R -> ~chi_40 u)
#
#         PDG            Width
DECAY   1000001     3.49069673E+01   # sdown_L decays
#          BR         NDA      ID1       ID2
     3.52827719E-03    2     1000022         1   # BR(~d_L -> ~chi_10 d)
     2.33401833E-03    2     1000023         1   # BR(~d_L -> ~chi_20 d)
     1.13056780E-02    2     1000025         1   # BR(~d_L -> ~chi_30 d)
     3.25308253E-01    2     1000035         1   # BR(~d_L -> ~chi_40 d)
     1.20283691E-03    2    -1000024         2   # BR(~d_L -> ~chi_1- u)
     6.56320936E-01    2    -1000037         2   # BR(~d_L -> ~chi_2- u)
#
#         PDG            Width
DECAY   2000001     9.09251250E-01   # sdown_R decays
#          BR         NDA      ID1       ID2
     5.05294297E-01    2     1000022         1   # BR(~d_R -> ~chi_10 d)
     6.89322060E-03    2     1000023         1   # BR(~d_R -> ~chi_20 d)
     4.87799510E-01    2     1000025         1   # BR(~d_R -> ~chi_30 d)
     1.29722498E-05    2     1000035         1   # BR(~d_R -> ~chi_40 d)
#
#         PDG            Width
DECAY   1000004     3.55096314E+01   # scharm_L decays
#          BR         NDA      ID1       ID2
     1.08911557E-02    2     1000022         4   # BR(~c_L -> ~chi_10 c)
     4.55778310E-03    2     1000023         4   # BR(~c_L -> ~chi_20 c)
     3.10839876E-03    2     1000025         4   # BR(~c_L -> ~chi_30 c)
     3.23470504E-01    2     1000035         4   # BR(~c_L -> ~chi_40 c)
     1.68554157E-02    2     1000024         3   # BR(~c_L -> ~chi_1+ s)
     6.41116743E-01    2     1000037         3   # BR(~c_L -> ~chi_2+ s)
#
#         PDG            Width
DECAY   2000004     5.97132956E+00   # scharm_R decays
#          BR         NDA      ID1       ID2
     5.02319655E-01    2     1000022         4   # BR(~c_R -> ~chi_10 c)
     6.88278043E-03    2     1000023         4   # BR(~c_R -> ~chi_20 c)
     4.90778509E-01    2     1000025         4   # BR(~c_R -> ~chi_30 c)
     1.90555619E-05    2     1000035         4   # BR(~c_R -> ~chi_40 c)
#
#         PDG            Width
DECAY   1000003     3.54528719E+01   # sstrange_L decays
#          BR         NDA      ID1       ID2
     3.53800153E-03    2     1000022         3   # BR(~s_L -> ~chi_10 s)
     2.34014338E-03    2     1000023         3   # BR(~s_L -> ~chi_20 s)
     1.13332235E-02    2     1000025         3   # BR(~s_L -> ~chi_30 s)
     3.25293049E-01    2     1000035         3   # BR(~s_L -> ~chi_40 s)
     1.20598905E-03    2    -1000024         4   # BR(~s_L -> ~chi_1- c)
     6.56289593E-01    2    -1000037         4   # BR(~s_L -> ~chi_2- c)
#
#         PDG            Width
DECAY   2000003     8.88010511E-01   # sstrange_R decays
#          BR         NDA      ID1       ID2
     5.05387103E-01    2     1000022         3   # BR(~s_R -> ~chi_10 s)
     6.89339625E-03    2     1000023         3   # BR(~s_R -> ~chi_20 s)
     4.87706576E-01    2     1000025         3   # BR(~s_R -> ~chi_30 s)
     1.29246263E-05    2     1000035         3   # BR(~s_R -> ~chi_40 s)
#
#         PDG            Width
DECAY   1000011     4.97241076E+01   # selectron_L decays
#          BR         NDA      ID1       ID2
     6.27616129E-02    2     1000022        11   # BR(~e_L -> ~chi_10 e-)
     6.56369752E-03    2     1000023        11   # BR(~e_L -> ~chi_20 e-)
     4.14907244E-02    2     1000025        11   # BR(~e_L -> ~chi_30 e-)
     2.92871098E-01    2     1000035        11   # BR(~e_L -> ~chi_40 e-)
     1.05128107E-03    2    -1000024        12   # BR(~e_L -> ~chi_1- nu_e)
     5.95261586E-01    2    -1000037        12   # BR(~e_L -> ~chi_2- nu_e)
#
#         PDG            Width
DECAY   2000011     2.03181018E+01   # selectron_R decays
#          BR         NDA      ID1       ID2
     5.01336069E-01    2     1000022        11   # BR(~e_R -> ~chi_10 e-)
     6.87934936E-03    2     1000023        11   # BR(~e_R -> ~chi_20 e-)
     4.91763309E-01    2     1000025        11   # BR(~e_R -> ~chi_30 e-)
     2.12721882E-05    2     1000035        11   # BR(~e_R -> ~chi_40 e-)
#
#         PDG            Width
DECAY   1000013     4.97241076E+01   # smuon_L decays
#          BR         NDA      ID1       ID2
     6.27616129E-02    2     1000022        13   # BR(~mu_L -> ~chi_10 mu-)
     6.56369752E-03    2     1000023        13   # BR(~mu_L -> ~chi_20 mu-)
     4.14907244E-02    2     1000025        13   # BR(~mu_L -> ~chi_30 mu-)
     2.92871098E-01    2     1000035        13   # BR(~mu_L -> ~chi_40 mu-)
     1.05128107E-03    2    -1000024        14   # BR(~mu_L -> ~chi_1- nu_mu)
     5.95261586E-01    2    -1000037        14   # BR(~mu_L -> ~chi_2- nu_mu)
#
#         PDG            Width
DECAY   2000013     2.03181017E+01   # smuon_R decays
#          BR         NDA      ID1       ID2
     5.01336069E-01    2     1000022        13   # BR(~mu_R -> ~chi_10 mu-)
     6.87934936E-03    2     1000023        13   # BR(~mu_R -> ~chi_20 mu-)
     4.91763309E-01    2     1000025        13   # BR(~mu_R -> ~chi_30 mu-)
     2.12721882E-05    2     1000035        13   # BR(~mu_R -> ~chi_40 mu-)
#
#         PDG            Width
DECAY   1000015     2.47163356E+01   # stau_1 decays
#          BR         NDA      ID1       ID2
     3.55987640E-01    2     1000022        15   # BR(~tau_1 -> ~chi_10  tau-)
     1.06313306E-01    2     1000023        15   # BR(~tau_1 -> ~chi_20  tau-)
     3.32777743E-01    2     1000025        15   # BR(~tau_1 -> ~chi_30  tau-)
     1.42652476E-04    2     1000035        15   # BR(~tau_1 -> ~chi_40  tau-)
     2.04515749E-01    2    -1000024        16   # BR(~tau_1 -> ~chi_1-  nu_tau)
     2.62908753E-04    2    -1000037        16   # BR(~tau_1 -> ~chi_2-  nu_tau)
#
#         PDG            Width
DECAY   2000015     5.03505811E+01   # stau_2 decays
#          BR         NDA      ID1       ID2
     9.30147830E-02    2     1000022        15   # BR(~tau_2 -> ~chi_10  tau-)
     7.02670152E-02    2     1000023        15   # BR(~tau_2 -> ~chi_20  tau-)
     6.39296751E-02    2     1000025        15   # BR(~tau_2 -> ~chi_30  tau-)
     2.54594675E-01    2     1000035        15   # BR(~tau_2 -> ~chi_40  tau-)
     9.15899263E-04    2    -1000024        16   # BR(~tau_2 -> ~chi_1-  nu_tau)
     5.17261373E-01    2    -1000037        16   # BR(~tau_2 -> ~chi_2-  nu_tau)
     8.16781399E-06    2     1000015        25   # BR(~tau_2 -> ~tau_1   h)
     8.41166206E-06    2     1000015        23   # BR(~tau_2 -> ~tau_1   Z)
#
#         PDG            Width
DECAY   1000012     4.97427487E+01   # snu_eL decays
#          BR         NDA      ID1       ID2
     4.34604021E-02    2     1000022        12   # BR(~nu_eL -> ~chi_10 nu_e)
     7.41509945E-04    2     1000023        12   # BR(~nu_eL -> ~chi_20 nu_e)
     6.29620367E-02    2     1000025        12   # BR(~nu_eL -> ~chi_30 nu_e)
     2.95913556E-01    2     1000035        12   # BR(~nu_eL -> ~chi_40 nu_e)
     1.47108622E-02    2     1000024        11   # BR(~nu_eL -> ~chi_1+ e-)
     5.82211633E-01    2     1000037        11   # BR(~nu_eL -> ~chi_2+ e-)
#
#         PDG            Width
DECAY   1000014     4.97427487E+01   # snu_muL decays
#          BR         NDA      ID1       ID2
     4.34604021E-02    2     1000022        14   # BR(~nu_muL -> ~chi_10 nu_mu)
     7.41509946E-04    2     1000023        14   # BR(~nu_muL -> ~chi_20 nu_mu)
     6.29620367E-02    2     1000025        14   # BR(~nu_muL -> ~chi_30 nu_mu)
     2.95913557E-01    2     1000035        14   # BR(~nu_muL -> ~chi_40 nu_mu)
     1.47108622E-02    2     1000024        13   # BR(~nu_muL -> ~chi_1+ mu-)
     5.82211632E-01    2     1000037        13   # BR(~nu_muL -> ~chi_2+ mu-)
#
#         PDG            Width
DECAY   1000016     5.03691499E+01   # snu_tauL decays
#          BR         NDA      ID1       ID2
     3.85122367E-02    2     1000022        16   # BR(~nu_tauL -> ~chi_10 nu_tau)
     6.56912753E-04    2     1000023        16   # BR(~nu_tauL -> ~chi_20 nu_tau)
     5.57537251E-02    2     1000025        16   # BR(~nu_tauL -> ~chi_30 nu_tau)
     2.57114520E-01    2     1000035        16   # BR(~nu_tauL -> ~chi_40 nu_tau)
     1.41882114E-01    2     1000024        15   # BR(~nu_tauL -> ~chi_1+ tau-)
     5.06064161E-01    2     1000037        15   # BR(~nu_tauL -> ~chi_2+ tau-)
     1.63303647E-05    2    -1000015       -24   # BR(~nu_tauL -> ~tau_1+ W-)
#
#         PDG            Width
DECAY   1000024     5.08334202E-06   # chargino1+ decays
#           BR         NDA      ID1       ID2       ID3
     3.34253125E-01    3     1000022         2        -1   # BR(~chi_1+ -> ~chi_10 u    db)
     8.36156413E-09    3     1000023         2        -1   # BR(~chi_1+ -> ~chi_20 u    db)
     3.34253125E-01    3     1000022         4        -3   # BR(~chi_1+ -> ~chi_10 c    sb)
     1.11411360E-01    3     1000022       -11        12   # BR(~chi_1+ -> ~chi_10 e+   nu_e)
     2.78716884E-09    3     1000023       -11        12   # BR(~chi_1+ -> ~chi_20 e+   nu_e)
     1.11411360E-01    3     1000022       -13        14   # BR(~chi_1+ -> ~chi_10 mu+  nu_mu)
     2.78716884E-09    3     1000023       -13        14   # BR(~chi_1+ -> ~chi_20 mu+  nu_mu)
     1.08671017E-01    3     1000022       -15        16   # BR(~chi_1+ -> ~chi_10 tau+ nu_tau)
#
#         PDG            Width
DECAY   1000037     6.41701291E+00   # chargino2+ decays
#          BR         NDA      ID1       ID2
     2.56263445E-01    2     1000024        23   # BR(~chi_2+ -> ~chi_1+  Z )
     1.25771132E-01    2     1000022        24   # BR(~chi_2+ -> ~chi_10  W+)
     2.51648302E-01    2     1000023        24   # BR(~chi_2+ -> ~chi_20  W+)
     1.26850397E-01    2     1000025        24   # BR(~chi_2+ -> ~chi_30  W+)
     2.39466724E-01    2     1000024        25   # BR(~chi_2+ -> ~chi_1+  h )
#
#         PDG            Width
DECAY   1000022     0.00000000E+00   # neutralino1 decays
#
#         PDG            Width
DECAY   1000023     3.48767102E-06   # neutralino2 decays
#          BR         NDA      ID1       ID2
     4.73125861E-03    2     1000022        22   # BR(~chi_20 -> ~chi_10 gam)
#           BR         NDA      ID1       ID2       ID3
     1.21591575E-01    3     1000022        -2         2   # BR(~chi_20 -> ~chi_10 ub      u)
     1.57799545E-01    3     1000022        -1         1   # BR(~chi_20 -> ~chi_10 db      d)
     1.21591575E-01    3     1000022        -4         4   # BR(~chi_20 -> ~chi_10 cb      c)
     1.57799545E-01    3     1000022        -3         3   # BR(~chi_20 -> ~chi_10 sb      s)
     1.11515901E-01    3     1000022        -5         5   # BR(~chi_20 -> ~chi_10 bb      b)
     3.62332396E-02    3     1000022       -11        11   # BR(~chi_20 -> ~chi_10 e+      e-)
     3.62332396E-02    3     1000022       -13        13   # BR(~chi_20 -> ~chi_10 mu+     mu-)
     3.51342633E-02    3     1000022       -15        15   # BR(~chi_20 -> ~chi_10 tau+    tau-)
     7.24567349E-02    3     1000022       -12        12   # BR(~chi_20 -> ~chi_10 nu_eb   nu_e)
     7.24567349E-02    3     1000022       -14        14   # BR(~chi_20 -> ~chi_10 nu_mub  nu_mu)
     7.24563885E-02    3     1000022       -16        16   # BR(~chi_20 -> ~chi_10 nu_taub nu_tau)
#
#         PDG            Width
DECAY   1000025     8.23954816E-05   # neutralino3 decays
#          BR         NDA      ID1       ID2
     1.33089743E-02    2     1000022        22   # BR(~chi_30 -> ~chi_10 gam)
     9.17924966E-03    2     1000023        22   # BR(~chi_30 -> ~chi_20 gam)
#           BR         NDA      ID1       ID2       ID3
     4.17373462E-06    3     1000022        -2         2   # BR(~chi_30 -> ~chi_10 ub      u)
     7.09266319E-06    3     1000022        -1         1   # BR(~chi_30 -> ~chi_10 db      d)
     4.17373462E-06    3     1000022        -4         4   # BR(~chi_30 -> ~chi_10 cb      c)
     7.09266319E-06    3     1000022        -3         3   # BR(~chi_30 -> ~chi_10 sb      s)
     4.55920176E-06    3     1000022        -5         5   # BR(~chi_30 -> ~chi_10 bb      b)
     2.24008924E-06    3     1000022       -11        11   # BR(~chi_30 -> ~chi_10 e+      e-)
     2.24008924E-06    3     1000022       -13        13   # BR(~chi_30 -> ~chi_10 mu+     mu-)
     2.88175550E-06    3     1000022       -15        15   # BR(~chi_30 -> ~chi_10 tau+    tau-)
     2.73604395E-06    3     1000022       -12        12   # BR(~chi_30 -> ~chi_10 nu_eb   nu_e)
     2.73604395E-06    3     1000022       -14        14   # BR(~chi_30 -> ~chi_10 nu_mub  nu_mu)
     2.67836865E-06    3     1000022       -16        16   # BR(~chi_30 -> ~chi_10 nu_taub nu_tau)
     3.46798441E-02    3     1000023        -2         2   # BR(~chi_30 -> ~chi_20 ub      u)
     4.50137231E-02    3     1000023        -1         1   # BR(~chi_30 -> ~chi_20 db      d)
     3.46798441E-02    3     1000023        -4         4   # BR(~chi_30 -> ~chi_20 cb      c)
     4.50137231E-02    3     1000023        -3         3   # BR(~chi_30 -> ~chi_20 sb      s)
     3.84078392E-02    3     1000023        -5         5   # BR(~chi_30 -> ~chi_20 bb      b)
     1.03391469E-02    3     1000023       -11        11   # BR(~chi_30 -> ~chi_20 e+      e-)
     1.03391469E-02    3     1000023       -13        13   # BR(~chi_30 -> ~chi_20 mu+     mu-)
     1.01794196E-02    3     1000023       -15        15   # BR(~chi_30 -> ~chi_20 tau+    tau-)
     2.06700941E-02    3     1000023       -12        12   # BR(~chi_30 -> ~chi_20 nu_eb   nu_e)
     2.06700941E-02    3     1000023       -14        14   # BR(~chi_30 -> ~chi_20 nu_mub  nu_mu)
     2.06702097E-02    3     1000023       -16        16   # BR(~chi_30 -> ~chi_20 nu_taub nu_tau)
     1.14627021E-01    3     1000024        -2         1   # BR(~chi_30 -> ~chi_1+ ub      d)
     1.14627021E-01    3    -1000024        -1         2   # BR(~chi_30 -> ~chi_1- db      u)
     1.14627021E-01    3     1000024        -4         3   # BR(~chi_30 -> ~chi_1+ cb      s)
     1.14627021E-01    3    -1000024        -3         4   # BR(~chi_30 -> ~chi_1- sb      c)
     3.82116782E-02    3     1000024       -12        11   # BR(~chi_30 -> ~chi_1+ nu_eb   e-)
     3.82116782E-02    3    -1000024        12       -11   # BR(~chi_30 -> ~chi_1- nu_e    e+)
     3.82116782E-02    3     1000024       -14        13   # BR(~chi_30 -> ~chi_1+ nu_mub  mu-)
     3.82116782E-02    3    -1000024        14       -13   # BR(~chi_30 -> ~chi_1- nu_mu   mu+)
     3.77256443E-02    3     1000024       -16        15   # BR(~chi_30 -> ~chi_1+ nu_taub tau-)
     3.77256443E-02    3    -1000024        16       -15   # BR(~chi_30 -> ~chi_1- nu_tau  tau+)
#
#         PDG            Width
DECAY   1000035     6.41481670E+00   # neutralino4 decays
#          BR         NDA      ID1       ID2
     9.09055884E-02    2     1000022        23   # BR(~chi_40 -> ~chi_10   Z )
     6.45934587E-02    2     1000023        23   # BR(~chi_40 -> ~chi_20   Z )
     9.87513575E-02    2     1000025        23   # BR(~chi_40 -> ~chi_30   Z )
     2.55287412E-01    2     1000024       -24   # BR(~chi_40 -> ~chi_1+   W-)
     2.55287412E-01    2    -1000024        24   # BR(~chi_40 -> ~chi_1-   W+)
     3.25331339E-02    2     1000022        25   # BR(~chi_40 -> ~chi_10   h )
     1.77051616E-01    2     1000023        25   # BR(~chi_40 -> ~chi_20   h )
     2.55900209E-02    2     1000025        25   # BR(~chi_40 -> ~chi_30   h )
#
#         PDG            Width
DECAY        25     4.05656579E-03   # h decays
#          BR         NDA      ID1       ID2
     6.06487424E-01    2           5        -5   # BR(h -> b       bb     )
     6.38310921E-02    2         -15        15   # BR(h -> tau+    tau-   )
     2.25940175E-04    2         -13        13   # BR(h -> mu+     mu-    )
     2.46738778E-04    2           3        -3   # BR(h -> s       sb     )
     2.13390304E-02    2           4        -4   # BR(h -> c       cb     )
     7.82467979E-02    2          21        21   # BR(h -> g       g      )
     2.30431886E-03    2          22        22   # BR(h -> gam     gam    )
     1.49839220E-03    2          22        23   # BR(h -> Z       gam    )
     2.00908930E-01    2          24       -24   # BR(h -> W+      W-     )
     2.49113356E-02    2          23        23   # BR(h -> Z       Z      )
#
#         PDG            Width
DECAY        35     9.36534604E+01   # H decays
#          BR         NDA      ID1       ID2
     3.87470480E-01    2           5        -5   # BR(H -> b       bb     )
     7.50866608E-02    2         -15        15   # BR(H -> tau+    tau-   )
     2.65691061E-04    2         -13        13   # BR(H -> mu+     mu-    )
     1.55089859E-04    2           3        -3   # BR(H -> s       sb     )
     1.89178872E-08    2           4        -4   # BR(H -> c       cb     )
     1.86732955E-03    2           6        -6   # BR(H -> t       tb     )
     3.08967768E-06    2          21        21   # BR(H -> g       g      )
     1.84242738E-08    2          22        22   # BR(H -> gam     gam    )
     1.83433465E-09    2          23        22   # BR(H -> Z       gam    )
     5.73020678E-07    2          24       -24   # BR(H -> W+      W-     )
     2.86027729E-07    2          23        23   # BR(H -> Z       Z      )
     2.02998519E-06    2          25        25   # BR(H -> h       h      )
     7.78114096E-03    2     1000024  -1000024   # BR(H -> ~chi_1+ ~chi_1-)
     3.24348704E-04    2     1000037  -1000037   # BR(H -> ~chi_2+ ~chi_2-)
     1.57682406E-01    2     1000024  -1000037   # BR(H -> ~chi_1+ ~chi_2-)
     1.57682406E-01    2     1000037  -1000024   # BR(H -> ~chi_2+ ~chi_1-)
     1.25175445E-02    2     1000022   1000022   # BR(H -> ~chi_10 ~chi_10)
     4.19779431E-04    2     1000023   1000023   # BR(H -> ~chi_20 ~chi_20)
     1.37389875E-02    2     1000025   1000025   # BR(H -> ~chi_30 ~chi_30)
     1.64811000E-04    2     1000035   1000035   # BR(H -> ~chi_40 ~chi_40)
     1.20356455E-02    2     1000022   1000023   # BR(H -> ~chi_10 ~chi_20)
     8.02610075E-04    2     1000022   1000025   # BR(H -> ~chi_10 ~chi_30)
     4.84151617E-02    2     1000022   1000035   # BR(H -> ~chi_10 ~chi_40)
     1.19408110E-02    2     1000023   1000025   # BR(H -> ~chi_20 ~chi_30)
     7.27651513E-02    2     1000023   1000035   # BR(H -> ~chi_20 ~chi_40)
     3.88778952E-02    2     1000025   1000035   # BR(H -> ~chi_30 ~chi_40)
     1.13872101E-08    2     2000001  -2000001   # BR(H -> ~d_R    ~d_R*  )
     1.13872101E-08    2     2000003  -2000003   # BR(H -> ~s_R    ~s_R*  )
     1.01829778E-08    2     1000005  -1000005   # BR(H -> ~b_1    ~b_1*  )
#
#         PDG            Width
DECAY        36     9.36557203E+01   # A decays
#          BR         NDA      ID1       ID2
     3.87475702E-01    2           5        -5   # BR(A -> b       bb     )
     7.50850725E-02    2         -15        15   # BR(A -> tau+    tau-   )
     2.65685220E-04    2         -13        13   # BR(A -> mu+     mu-    )
     1.55098905E-04    2           3        -3   # BR(A -> s       sb     )
     1.90335317E-08    2           4        -4   # BR(A -> c       cb     )
     1.87071506E-03    2           6        -6   # BR(A -> t       tb     )
     1.18082746E-05    2          21        21   # BR(A -> g       g      )
     4.13209511E-08    2          22        22   # BR(A -> gam     gam    )
     1.01316231E-08    2          23        22   # BR(A -> Z       gam    )
     5.81386860E-07    2          23        25   # BR(A -> Z       h      )
     8.14022687E-03    2     1000024  -1000024   # BR(A -> ~chi_1+ ~chi_1-)
     6.51798778E-04    2     1000037  -1000037   # BR(A -> ~chi_2+ ~chi_2-)
     1.57335199E-01    2     1000024  -1000037   # BR(A -> ~chi_1+ ~chi_2-)
     1.57335199E-01    2     1000037  -1000024   # BR(A -> ~chi_2+ ~chi_1-)
     1.12380944E-02    2     1000022   1000022   # BR(A -> ~chi_10 ~chi_10)
     4.84170152E-04    2     1000023   1000023   # BR(A -> ~chi_20 ~chi_20)
     1.18589405E-02    2     1000025   1000025   # BR(A -> ~chi_30 ~chi_30)
     3.29182895E-04    2     1000035   1000035   # BR(A -> ~chi_40 ~chi_40)
     1.33019871E-02    2     1000022   1000023   # BR(A -> ~chi_10 ~chi_20)
     8.02561313E-04    2     1000022   1000025   # BR(A -> ~chi_10 ~chi_30)
     4.11661739E-02    2     1000022   1000035   # BR(A -> ~chi_10 ~chi_40)
     1.38399083E-02    2     1000023   1000025   # BR(A -> ~chi_20 ~chi_30)
     8.65794055E-02    2     1000023   1000035   # BR(A -> ~chi_20 ~chi_40)
     3.20724193E-02    2     1000025   1000035   # BR(A -> ~chi_30 ~chi_40)
#
#         PDG            Width
DECAY        37     9.21340850E+01   # H+ decays
#          BR         NDA      ID1       ID2
     6.34158999E-04    2           4        -5   # BR(H+ -> c       bb     )
     7.63461960E-02    2         -15        16   # BR(H+ -> tau+    nu_tau )
     2.70147650E-04    2         -13        14   # BR(H+ -> mu+     nu_mu  )
     6.34158520E-06    2           2        -5   # BR(H+ -> u       bb     )
     7.89181981E-06    2           2        -3   # BR(H+ -> u       sb     )
     1.55353547E-04    2           4        -3   # BR(H+ -> c       sb     )
     3.78842519E-01    2           6        -5   # BR(H+ -> t       bb     )
     5.91696818E-07    2          24        25   # BR(H+ -> W+      h      )
     2.05776138E-14    2          24        36   # BR(H+ -> W+      A      )
     3.54473087E-02    2     1000024   1000022   # BR(H+ -> ~chi_1+ ~chi_10)
     1.75108257E-03    2     1000024   1000023   # BR(H+ -> ~chi_1+ ~chi_20)
     1.68337395E-02    2     1000024   1000025   # BR(H+ -> ~chi_1+ ~chi_30)
     1.61601423E-01    2     1000024   1000035   # BR(H+ -> ~chi_1+ ~chi_40)
     9.08550415E-02    2     1000037   1000022   # BR(H+ -> ~chi_2+ ~chi_10)
     1.65448619E-01    2     1000037   1000023   # BR(H+ -> ~chi_2+ ~chi_20)
     7.17995767E-02    2     1000037   1000025   # BR(H+ -> ~chi_2+ ~chi_30)
     9.23490198E-09    2     1000037   1000035   # BR(H+ -> ~chi_2+ ~chi_40)

DECAY         5   0.000000e+00 # b decays
DECAY        15   0.000000e+00 # tau decays
DECAY        23     2.49520000E+00   # Z
DECAY        24     2.08500000E+00   # W
