BLOCK SPINFO
   1   SPheno
   2   v4.0.5be

BLOCK SPHENOINFO
   1   2
   2   2

BLOCK MODSEL
   1   0

BLOCK MINPAR
   3    9.151199
   4   -1

BLOCK EXTPAR
   0    4247.8391
   1    392.56704
   2    366.96648
   3    2676.0676
   11   -1878.3635
   12    575.01863
   13    1807.6782
   23   -871.88144
   25    8.6885706
   26    2210.763
   31    4098.3005
   32    4098.3005
   33    902.02634
   34    1691.2932
   35    1691.2932
   36    4194.0675
   41    2437.9082
   42    2437.9082
   43    4937.7193
   44    4372.7237
   45    4372.7237
   46    3569.4133
   47    2896.0199
   48    2896.0199
   49    1138.3327

BLOCK SMINPUTS
   1    127.90897
   2    1.1663787e-05
   3    0.1184
   4    91.1876
   5    4.18
   6    173.2
   7    1.777
   8    0
   11    0.00051099893
   12    0
   13    0.10565837
   14    0
   21    0.005
   22    0.0025
   23    0.095
   24    1.27

BLOCK GAUGE Q=  4247.8391
   1    0.35536298
   2    0.66519887
   3    1.219778

BLOCK YU Q=  4247.8391
   1   1    8.4397215e-06
   2   2    0.0042873785
   3   3    1.0195862

BLOCK YD Q=  4247.8391
   1   1    0.00014735222
   2   2    0.0027996923
   3   3    0.14612723

BLOCK YE Q=  4247.8391
   1   1    2.5714041e-05
   2   2    0.0053168481
   3   3    0.089420638

BLOCK AU Q=  4247.8391
   1   1    0
   2   2    0
   3   3   -1878.3637

BLOCK AD Q=  4247.8391
   1   1    0
   2   2    0
   3   3    575.01862

BLOCK AE Q=  4247.8391
   1   1    0
   2   2    0
   3   3    1807.6782

BLOCK MSOFT Q=  4247.8391
   1    392.56704
   2    366.96648
   3    2676.0676
   21    4058856.2
   22   -302324.62
   31    4098.3005
   32    4098.3005
   33    902.02634
   34    1691.2932
   35    1691.2932
   36    4194.0675
   41    2437.9082
   42    2437.9082
   43    4937.7193
   44    4372.7237
   45    4372.7237
   46    3569.4133
   47    2896.0199
   48    2896.0199
   49    1138.3327

BLOCK MASS
   6    173.2
   23    91.1876
   24    80.429995
   15    1.777
   25    120.94755
   35    2210.6871
   36    2210.763
   37    2212.3432
   1000001    2597.5843
   2000001    3024.9655
   1000002    2596.3844
   2000002    4454.7318
   1000003    2597.5835
   2000003    3024.965
   1000004    2596.3837
   2000004    4454.731
   1000005    1378.1027
   2000005    4996.3595
   1000006    3609.8301
   2000006    4998.6111
   1000011    4104.7517
   2000011    1704.7945
   1000012    4103.5978
   1000013    4104.7505
   2000013    1704.7906
   1000014    4103.5966
   1000015    895.86454
   2000015    4201.6878
   1000016    892.52728
   1000021    2940.472
   1000022    386.77238
   1000023    391.57004
   1000025   -885.17293
   1000035    887.59519
   1000024    391.52605
   1000037    889.0219

BLOCK ALPHA
      -0.10932374

BLOCK HMIX Q=  4247.8391
   1   -871.88144
   2    8.6885706
   3    242.88698
   4    4887473.1

BLOCK STOPMIX
   1   1    0.023631507
   1   2    0.99972074
   2   1   -0.99972074
   2   2    0.023631507

BLOCK SBOTMIX
   1   1   -0.00077024119
   1   2    0.9999997
   2   1   -0.9999997
   2   2   -0.00077024119

BLOCK STAUMIX
   1   1   -0.99999951
   1   2    0.00099080091
   2   1   -0.00099080091
   2   2   -0.99999951

BLOCK NMIX
   1   1    0.97128768
   1   2   -0.22209187
   1   3   -0.080666752
   1   4   -0.027718431
   2   1    0.22967776
   2   2    0.96883547
   2   3    0.087871054
   2   4    0.029742899
   3   1    0.027221878
   3   2   -0.048662095
   3   3    0.70476853
   3   4   -0.70724273
   4   1   -0.055743438
   4   2    0.098310922
   4   3   -0.69933745
   4   4   -0.7058008

BLOCK UMIX
   1   1   -0.98921118
   1   2   -0.14649655
   2   1    0.14649655
   2   2   -0.98921118

BLOCK VMIX
   1   1   -0.99876713
   1   2    0.049640846
   2   1    0.049640846
   2   2    0.99876713

BLOCK HIGGSBOUNDSINPUTHIGGSCOUPLINGSFERMIONS
       0, 75.491258,3,36,15,15

BLOCK HIGGSBOUNDSINPUTHIGGSCOUPLINGSBOSONS
       0,4,36,21,21,23

BLOCK SPHENOLOWENERGY
   1    0.0003323386
   2    1.5888749e-06
   3    3.5252397e-05
   4    2.5201845e-15
   5    1.0765943e-10
   6    2.2537749e-08
   7    8.5048831e-14
   8    3.6332835e-09
   9    7.7065526e-07
   10    9.6701195e-05
   11    0.99888632
   12    0.54230814
   13    19.376528
   14    0
   15    0
   16    0.0021586026
   17    2.2816716e-15
   18    2.4798615e-11
   19    8.2902034e-11
   20   -3.0232158e-16
   21   -1.2925211e-11
   22   -2.7922178e-08
   23    0
   24    0
   25    0
   26    0
   27    0
   28    0
   29    0
   30    0
   31    0
   39   -5.1130052e-05
   40    0
   41    0
   42    0

BLOCK FWCOEF Q=  160
   305   4422   0   0   -0.18881911
   305   4422   0   2   -0.20132843
   305   4322   0   2   -0.00026971516
   305   6421   0   0   -0.095227835
   305   6421   0   2   -0.10968339
   305   6321   0   2   -0.00029870738
   3051111   4133   0   0    1.6283044
   3051111   4133   0   2    1.6285778
   3051111   4233   0   2    6.2010736e-06
   3051111   4137   0   0   -4.4509965
   3051111   4137   0   2   -4.449286
   3051111   4237   0   2   -4.4718363e-05
   3051313   4133   0   0    1.6283044
   3051313   4133   0   2    1.6285778
   3051313   4233   0   2    6.2010701e-06
   3051313   4137   0   0   -4.4509965
   3051313   4137   0   2   -4.449286
   3051313   4237   0   2   -4.4718363e-05
   3051212   4137   0   0    1.5053501
   3051212   4137   0   2    1.504984
   3051212   4237   0   2    9.6622037e-06
   3051414   4137   0   0    1.5053501
   3051414   4137   0   2    1.504984
   3051414   4237   0   2    9.6622042e-06
   3051616   4137   0   0    1.5053501
   3051616   4137   0   2    1.5049858
   3051616   4237   0   2    9.6612579e-06

BLOCK IMFWCOEF Q=  160
   305   4422   0   0    3.858203e-07
   305   4422   0   2   -2.8113024e-06
   305   4322   0   2   -9.6808085e-07
   305   6421   0   0    3.3048061e-07
   305   6421   0   2    3.9876703e-06
   305   6321   0   2   -4.1392635e-07
   3051111   4133   0   2    8.4739758e-07
   3051111   4233   0   2    1.7414827e-07
   3051111   4137   0   2   -1.5046783e-06
   3051111   4237   0   2   -1.267012e-06
   3051313   4133   0   2    8.4739719e-07
   3051313   4233   0   2    1.7414825e-07
   3051313   4137   0   2   -1.5046781e-06
   3051313   4237   0   2   -1.267012e-06
   3051212   4137   0   2    3.9091489e-07
   3051212   4237   0   2    2.7380344e-07
   3051414   4137   0   2    3.9091491e-07
   3051414   4237   0   2    2.7380344e-07
   3051616   4137   0   2    4.2326126e-07
   3051616   4237   0   2    2.7378381e-07

DECAY 23  2.4952


DECAY 24  2.085


DECAY 2000011  7.6936269
    0.94502208   2    1000022    11
    0.052699524   2    1000023    11
    0.0018382371   2    1000035    11
    0.00044015898   2    1000025    11

DECAY 1000011  58.218417
    0.59634703   2   -1000024    12
    0.36304782   2    1000023    11
    0.026852346   2    1000022    11
    0.012099953   2   -1000037    12
    0.001324397   2    1000035    11
    0.00032845565   2    1000025    11

DECAY 2000013  7.6946361
    0.94489624   2    1000022    13
    0.052693313   2    1000023    13
    0.0018703204   2    1000035    13
    0.00047309392   2    1000025    13

DECAY 1000013  58.220543
    0.59632508   2   -1000024    14
    0.36303476   2    1000023    13
    0.02685161   2    1000022    13
    0.012099507   2   -1000037    14
    0.0013419651   2    1000035    13
    0.0003463466   2    1000025    13

DECAY 1000015  8.3569206
    0.60439305   2   -1000024    16
    0.36800829   2    1000023    15
    0.027586502   2    1000022    15

DECAY 2000015  22.195675
    0.88236961   2    1000022    15
    0.049514375   2    1000023    15
    0.026946545   2   -1000037    16
    0.016163668   2    1000035    15
    0.014314439   2    1000025    15
    0.003138536   2    1000016   -37
    0.0019410563   2    1000016   -24
    0.001579463   2    1000015    35
    0.0015690119   2    1000015    36
    0.00096914637   2    1000015    23
    0.000920696   2    1000015    25
    0.000573454   2   -1000024    16

DECAY 1000012  58.236329
    0.60756022   2    1000024    11
    0.21802701   2    1000023    12
    0.16727426   2    1000022    12
    0.004623685   2    1000035    12
    0.001388442   2    1000037    11
    0.0011263823   2    1000025    12

DECAY 1000014  58.238412
    0.60753915   2    1000024    13
    0.21801914   2    1000023    14
    0.16726823   2    1000022    14
    0.004623518   2    1000035    14
    0.0014236081   2    1000037    13
    0.0011263416   2    1000025    14

DECAY 1000016  8.3707481
    0.61090986   2    1000024    15
    0.21910527   2    1000023    16
    0.16998276   2    1000022    16

DECAY 1000001  32.991968
    0.64775661   2   -1000024    2
    0.28499371   2    1000023    1
    0.051713113   2    1000022    1
    0.011594133   2   -1000037    2
    0.0031672256   2    1000035    1
    0.00077520952   2    1000025    1

DECAY 2000001  2.3576062
    0.6538674   2    1000022    1
    0.30729695   2    1000021    1
    0.036531828   2    1000023    1
    0.0018593076   2    1000035    1
    0.00044403558   2    1000025    1

DECAY 1000003  32.993012
    0.6477355   2   -1000024    4
    0.28498469   2    1000023    3
    0.051711539   2    1000022    3
    0.011616567   2   -1000037    4
    0.0031717785   2    1000035    3
    0.00077992725   2    1000025    3

DECAY 2000003  2.3583885
    0.65365168   2    1000022    3
    0.30719073   2    1000021    3
    0.036521183   2    1000023    3
    0.0019401278   2    1000035    3
    0.00052670014   2    1000025    3
    0.00016336921   2   -1000037    4

DECAY 1000005  1.0439735
    0.59343869   2    1000022    5
    0.16896933   2   -1000037    6
    0.096199023   2    1000025    5
    0.094489371   2    1000035    5
    0.036644677   2    1000023    5
    0.010258908   2   -1000024    6

DECAY 2000005  338.24885
    0.49814482   2    1000021    5
    0.28832517   2   -1000037    6
    0.12600718   2   -1000024    6
    0.055343356   2    1000023    5
    0.015223679   2    1000006   -24
    0.01006424   2    1000022    5
    0.0035943218   2    1000035    5
    0.0030996739   2    1000025    5
    0.00010019371   2    1000005    25

DECAY 1000002  33.059318
    0.65865399   2    1000024    1
    0.33659614   2    1000023    2
    0.0021061177   2    1000035    2
    0.0013276305   2    1000037    1
    0.0007978139   2    1000022    2
    0.00051831584   2    1000025    2

DECAY 2000002  121.76492
    0.91954856   2    1000021    2
    0.075917994   2    1000022    2
    0.0042434797   2    1000023    2
    0.00023411168   2    1000035    2

DECAY 1000004  33.060359
    0.6586333   2    1000024    3
    0.33658522   2    1000023    4
    0.0021173358   2    1000035    4
    0.0013368855   2    1000037    3
    0.00079780777   2    1000022    4
    0.00052945489   2    1000025    4

DECAY 2000004  121.76776
    0.91952579   2    1000021    4
    0.075916196   2    1000022    4
    0.0042433913   2    1000023    4
    0.00024026188   2    1000035    4

DECAY 1000006  170.53611
    0.38452607   2    1000037    5
    0.19247544   2    1000025    6
    0.19089567   2    1000035    6
    0.18339554   2    1000021    6
    0.043785158   2    1000022    6
    0.0031112454   2    1000023    6
    0.0018078613   2    1000024    5

DECAY 2000006  337.64742
    0.49545701   2    1000021    6
    0.14402369   2    1000035    6
    0.14314187   2    1000025    6
    0.12801167   2    1000024    5
    0.065480901   2    1000023    6
    0.0091534836   2    1000006    25
    0.0076428095   2    1000006    23
    0.0066658651   2    1000037    5
    0.00026742354   2    1000022    6
    0.00011760905   2    1000005    24

DECAY 1000024  5.8378852e-10
    0.39266207   3    1000022   -1    2
    0.27846848   3    1000022   -3    4
    0.13080509   3    1000022   -11    12
    0.13048308   3    1000022   -13    14
    0.067581281   3    1000022   -15    16

DECAY 1000037  4.8301834
    0.36601074   2    1000023    24
    0.30013818   2    1000024    25
    0.29593567   2    1000024    23
    0.03324967   2    1000022    24
    0.003289907   3    1000023   -5    6
    0.0010989803   3    1000024    6   -6
    0.00024733402   3    1000022   -5    6

DECAY 1000022 -1


DECAY 1000023  2.4733997e-12
    0.90528575   2    1000022    22
    0.023799671   3    1000022    1   -1
    0.023692805   3    1000022    3   -3
    0.017292993   3    1000022    12   -12
    0.016166468   3    1000022    2   -2
    0.0059078372   3    1000022    4   -4
    0.003825637   3    1000022    11   -11
    0.0037989132   3    1000022    13   -13
    0.00022985143   3    1000022    15   -15

DECAY 1000025  7.1097134
    0.21169932   2    1000024   -24
    0.21169932   2   -1000024    24
    0.19170942   2    1000023    25
    0.1468939   2    1000022    25
    0.12383102   2    1000023    23
    0.10694176   2    1000022    23
    0.0033607716   3    1000024    5   -6
    0.0033607716   3   -1000024   -5    6
    0.00023993199   3    1000023    6   -6
    0.00019627003   3    1000022    6   -6

DECAY 1000035  4.8740789
    0.29999678   2    1000024   -24
    0.29999678   2   -1000024    24
    0.17782198   2    1000023    25
    0.13611578   2    1000022    25
    0.043465115   2    1000023    23
    0.036662095   2    1000022    23
    0.0027282742   3    1000024    5   -6
    0.0027282742   3   -1000024   -5    6
    0.00024382695   3    1000023    6   -6
    0.00019786515   3    1000022    6   -6

DECAY 1000021  69.953654
    0.37883512   2    1000005   -5
    0.37883512   2   -1000005    5
    0.030204007   2    1000002   -2
    0.030204007   2   -1000002    2
    0.030203947   2    1000004   -4
    0.030203947   2   -1000004    4
    0.030006863   2    1000003   -3
    0.030006863   2   -1000003    3
    0.030006731   2    1000001   -1
    0.030006731   2   -1000001    1
    0.0002717442   3    1000037    5   -6
    0.0002717442   3   -1000037   -5    6
    0.00026873388   3    1000035    6   -6
    0.0002617211   3    1000025    6   -6

DECAY 25  0.0034312228
    0.63377861   2   -5    5
    0.16560754   2   -24    24
    0.074540671   2    21    21
    0.072473945   2   -15    15
    0.031177958   2   -4    4
    0.018475109   2    23    23
    0.0023045681   2    22    22
    0.0011512813   2    22    23
    0.00025139839   2   -13    13
    0.00023808311   2   -3    3
    6.5827638e-07   2   -1    1
    1.6068073e-07   2   -2    2
    5.6517713e-09   2   -11    11

DECAY 35  22.540188
    0.24708393   2   -1000024    1000037
    0.24708393   2   -1000037    1000024
    0.12996861   2    1000022    1000035
    0.11901897   2    1000022    1000025
    0.099908098   2   -5    5
    0.046470888   2   -6    6
    0.029776938   2    1000023    1000035
    0.028006003   2    1000023    1000025
    0.016824977   2   -15    15
    0.015673311   2   -1000024    1000024
    0.0084464482   2    1000022    1000022
    0.0041073526   2    1000025    1000035
    0.0040621598   2    1000022    1000023
    0.0017555163   2    1000035    1000035
    0.00071250279   2   -1000037    1000037
    0.00048790013   2    1000023    1000023
    0.00029521576   2    1000025    1000025
    0.00015430402   2    25    25
    5.9114437e-05   2   -13    13
    3.8567604e-05   2   -3    3
    2.5798035e-05   2    23    23
    1.1853368e-05   2   -24    24
    1.1041235e-05   2    21    21
    3.6434539e-06   2   -1000015    1000015
    6.4120382e-07   2   -4    4
    2.2977097e-07   2    22    23
    1.0662905e-07   2   -1    1
    2.8088922e-09   2    22    22
    1.327806e-09   2   -11    11
    3.3057001e-12   2   -2    2

DECAY 36  22.434444
    0.24871241   2   -1000024    1000037
    0.24871241   2   -1000037    1000024
    0.13535142   2    1000022    1000025
    0.11526776   2    1000022    1000035
    0.09762811   2   -5    5
    0.044925506   2   -6    6
    0.031038058   2    1000023    1000025
    0.027114072   2    1000023    1000035
    0.016441304   2   -15    15
    0.015364446   2   -1000024    1000024
    0.0082647165   2    1000022    1000022
    0.0039811521   2    1000022    1000023
    0.003071228   2    1000035    1000035
    0.0017679933   2    1000025    1000035
    0.001240209   2    1000025    1000025
    0.00047938803   2    1000023    1000023
    0.00047058044   2   -1000037    1000037
    5.7765813e-05   2   -13    13
    3.7687147e-05   2   -3    3
    3.6929711e-05   2    21    21
    3.5949938e-05   2    23    25
    6.0363556e-07   2   -4    4
    1.8533182e-07   2    22    23
    1.0419521e-07   2   -1    1
    7.4123457e-09   2    22    22
    1.2975081e-09   2   -11    11
    3.1122037e-12   2   -2    2
    2.2383861e-37   2    25    25

DECAY 37  22.403969
    0.25173656   2    1000024    1000025
    0.24979727   2    1000024    1000035
    0.24804531   2    1000022    1000037
    0.14281388   2   -5    6
    0.078620204   2    1000023    1000037
    0.016537828   2   -15    16
    0.0090824341   2    1000023    1000024
    0.0019400774   2    1000025    1000037
    0.0010561329   2    1000035    1000037
    0.0001408203   2   -5    4
    6.8065311e-05   2   -3    6
    5.8467161e-05   2   -13    14
    3.6118259e-05   2    24    25
    3.4698008e-05   2   -3    4
    1.4419539e-05   2   -1000015    1000016
    1.1861877e-05   2    1000022    1000024
    3.1194951e-06   2   -1    6
    1.5906877e-06   2   -3    2
    1.0055958e-06   2   -5    2
    9.4576638e-08   2   -1    2
    3.3075224e-08   2   -1    4
    1.367553e-09   2   -11    12
    7.5663321e-13   2    24    35
    5.9839024e-13   2    24    36

DECAY 6  2.43
    1   2    5    24

DECAY 15 -1
