# SUSY Les Houches Accord 2 - MSSM spectrum + Decays
# SPheno v4.0.5be
# W. Porod, Comput. Phys. Commun. 153 (2003) 275-315, hep-ph/0301101;
# W. Porod, F.~Staub, Comput. Phys. Commun. 183 (2012) 2458
#                     arXiv:1104.1573 [hep-ph] 
# in case of problems send email to porod@physik.uni-wuerzburg.de
# Created: 22.11.2021,  15:42
Block SPINFO         # Program information
     1   SPheno      # spectrum calculator
     2   v4.0.5be    # version number
#
Block SPhenoINFO     # SPheno specific information
    1      2         # using 2-loop RGEs
    2      2         # using pole masses for boundary conditions at mZ
Block MODSEL  # Model selection
    1    0    # general MSSM
Block MINPAR  # Input parameters
    3    2.39893703E+01  # tanb at m_Z    
    4    1.00000000E+00  # Sign(mu)
Block EXTPAR  # non-universal input parameters
    0    3.75887099E+03  # scale for input parameters
    1   -6.81310812E+01  # M_1
    2   -1.56571084E+03  # M_2
    3    1.00532397E+03  # M_3
   11   -2.55573150E+03  # A_t
   12    1.90023605E+03  # A_b
   13   -7.26197510E+02  # A_tau
   23    5.10192250E+02  # mu
   25    2.29813351E+01  # tan(beta)
   26    2.36104457E+03  # m_A, pole mass
   31    9.20353328E+02  # M_L11
   32    9.20353328E+02  # M_L22
   33    1.43038378E+03  # M_L33
   34    3.68329676E+02  # M_E11
   35    3.68329676E+02  # M_E22
   36    1.89758253E+03  # M_E33
   41    1.00000000E+04  # M_Q11
   42    1.00000000E+04  # M_Q22
   43    4.36449059E+03  # M_Q33
   44    1.00000000E+04  # M_U11
   45    1.00000000E+04  # M_U22
   46    3.24259869E+03  # M_U33
   47    1.00000000E+04  # M_D11
   48    1.00000000E+04  # M_D22
   49    2.49872468E+03  # M_D33
Block SMINPUTS  # SM parameters
         1     1.27908970E+02  # alpha_em^-1(MZ)^MSbar
         2     1.16637870E-05  # G_mu [GeV^-2]
         3     1.18400000E-01  # alpha_s(MZ)^MSbar
         4     9.11876000E+01  # m_Z(pole)
         5     4.18000000E+00  # m_b(m_b), MSbar
         6     1.73200000E+02  # m_t(pole)
         7     1.77700000E+00  # m_tau(pole)
         8     0.00000000E+00  # m_nu_3
        11     5.10998930E-04  # m_e(pole)
        12     0.00000000E+00  # m_nu_1
        13     1.05658372E-01  # m_muon(pole)
        14     0.00000000E+00  # m_nu_2
        21     5.00000000E-03  # m_d(2 GeV), MSbar
        22     2.50000000E-03  # m_u(2 GeV), MSbar
        23     9.50000000E-02  # m_s(2 GeV), MSbar
        24     1.27000000E+00  # m_c(m_c), MSbar
Block gauge Q=  3.75887099E+03  # (SUSY scale)
   1    3.55362975E-01  # g'(Q)^DRbar
   2    6.65198874E-01  # g(Q)^DRbar
   3    1.21977796E+00  # g3(Q)^DRbar
Block Yu Q=  3.75887099E+03  # (SUSY scale)
  1  1     8.39230600E-06   # Y_u(Q)^DRbar
  2  2     4.26329145E-03   # Y_c(Q)^DRbar
  3  3     1.01385797E+00   # Y_t(Q)^DRbar
Block Yd Q=  3.75887099E+03  # (SUSY scale)
  1  1     3.87558096E-04   # Y_d(Q)^DRbar
  2  2     7.36360382E-03   # Y_s(Q)^DRbar
  3  3     3.84336188E-01   # Y_b(Q)^DRbar
Block Ye Q=  3.75887099E+03  # (SUSY scale)
  1  1     6.76317218E-05   # Y_e(Q)^DRbar
  2  2     1.39840951E-02   # Y_mu(Q)^DRbar
  3  3     2.35189474E-01   # Y_tau(Q)^DRbar
Block Au Q=  3.75887099E+03  # (SUSY scale)
  1  1     0.00000000E+00   # A_u(Q)^DRbar
  2  2     0.00000000E+00   # A_c(Q)^DRbar
  3  3    -2.55573208E+03   # A_t(Q)^DRbar
Block Ad Q=  3.75887099E+03  # (SUSY scale)
  1  1     0.00000000E+00   # A_d(Q)^DRbar
  2  2     0.00000000E+00   # A_s(Q)^DRbar
  3  3     1.90023567E+03   # A_b(Q)^DRbar
Block Ae Q=  3.75887099E+03  # (SUSY scale)
  1  1     0.00000000E+00   # A_e(Q)^DRbar
  2  2     0.00000000E+00   # A_mu(Q)^DRbar
  3  3    -7.26197454E+02   # A_tau(Q)^DRbar
Block MSOFT Q=  3.75887099E+03  # soft SUSY breaking masses at Q
   1   -6.81310812E+01  # M_1
   2   -1.56571084E+03  # M_2
   3    1.00532397E+03  # M_3
  21    5.32590498E+06  # M^2_(H,d)
  22    3.07298931E+04  # M^2_(H,u)
  31    9.20353328E+02  # M_(L,11)
  32    9.20353328E+02  # M_(L,22)
  33    1.43038378E+03  # M_(L,33)
  34    3.68329676E+02  # M_(E,11)
  35    3.68329676E+02  # M_(E,22)
  36    1.89758253E+03  # M_(E,33)
  41    1.00000000E+04  # M_(Q,11)
  42    1.00000000E+04  # M_(Q,22)
  43    4.36449059E+03  # M_(Q,33)
  44    1.00000000E+04  # M_(U,11)
  45    1.00000000E+04  # M_(U,22)
  46    3.24259869E+03  # M_(U,33)
  47    1.00000000E+04  # M_(D,11)
  48    1.00000000E+04  # M_(D,22)
  49    2.49872468E+03  # M_(D,33)
Block MASS  # Mass spectrum
#   PDG code      mass          particle
         6     1.73200000E+02  # m_t(pole)
        23     9.11876000E+01  # m_Z(pole)
        24     8.04299946E+01  # W+
        15     1.77700000E+00  # m_tau(pole)
        25     1.22259196E+02  # h0
        35     2.36090482E+03  # H0
        36     2.36104457E+03  # A0
        37     2.36312281E+03  # H+
   1000001     1.01234341E+04  # ~d_L
   2000001     1.00991629E+04  # ~d_R
   1000002     1.01230782E+04  # ~u_L
   2000002     1.01020751E+04  # ~u_R
   1000003     1.01234355E+04  # ~s_L
   2000003     1.00991648E+04  # ~s_R
   1000004     1.01230796E+04  # ~c_L
   2000004     1.01020758E+04  # ~c_R
   1000005     2.53050608E+03  # ~b_1
   2000005     4.38641545E+03  # ~b_2
   1000006     3.21850641E+03  # ~t_1
   2000006     4.38995899E+03  # ~t_2
   1000011     9.51936365E+02  # ~e_L-
   2000011     3.88668262E+02  # ~e_R-
   1000012     9.48179013E+02  # ~nu_eL
   1000013     9.51927292E+02  # ~mu_L-
   2000013     3.88620229E+02  # ~mu_R-
   1000014     9.48168067E+02  # ~nu_muL
   1000015     1.44979741E+03  # ~tau_1-
   2000015     1.89782320E+03  # ~tau_2-
   1000016     1.44752551E+03  # ~nu_tauL
   1000021     1.29749108E+03  # ~g
   1000022     6.69979655E+01  # ~chi_10
   1000023     5.06151771E+02  # ~chi_20
   1000025     5.09888715E+02  # ~chi_30
   1000035     1.63675289E+03  # ~chi_40
   1000024     5.05631436E+02  # ~chi_1+
   1000037     1.63649448E+03  # ~chi_2+
# Higgs mixing
Block alpha # Effective Higgs mixing angle
          -4.18139924E-02   # alpha
Block Hmix Q=  3.75887099E+03  # Higgs mixing parameters
   1    5.10192250E+02  # mu
   2    2.29813351E+01  # tan[beta](Q)
   3    2.42995596E+02  # v(Q)
   4    5.57453146E+06  # m^2_A(Q)
Block stopmix # stop mixing matrix
   1  1     4.14852228E-02   # Re[R_st(1,1)]
   1  2     9.99139118E-01   # Re[R_st(1,2)]
   2  1    -9.99139118E-01   # Re[R_st(2,1)]
   2  2     4.14852228E-02   # Re[R_st(2,2)]
Block sbotmix # sbottom mixing matrix
   1  1     1.72653631E-03   # Re[R_sb(1,1)]
   1  2     9.99998510E-01   # Re[R_sb(1,2)]
   2  1    -9.99998510E-01   # Re[R_sb(2,1)]
   2  2     1.72653631E-03   # Re[R_sb(2,2)]
Block staumix # stau mixing matrix
   1  1     9.99895843E-01   # Re[R_sta(1,1)]
   1  2     1.44327329E-02   # Re[R_sta(1,2)]
   2  1    -1.44327329E-02   # Re[R_sta(2,1)]
   2  2     9.99895843E-01   # Re[R_sta(2,2)]
Block Nmix # neutralino mixing matrix
   1  1    -9.96075978E-01   # Re[N(1,1)]
   1  2     1.58495875E-04   # Re[N(1,2)]
   1  3    -8.81361057E-02   # Re[N(1,3)]
   1  4    -8.04041000E-03   # Re[N(1,4)]
   2  1    -6.80708112E-02   # Re[N(2,1)]
   2  2    -4.75678141E-02   # Re[N(2,2)]
   2  3     7.04963988E-01   # Re[N(2,3)]
   2  4     7.04364567E-01   # Re[N(2,4)]
   3  1     5.65388064E-02   # Re[N(3,1)]
   3  2    -2.72642576E-02   # Re[N(3,2)]
   3  3    -7.03598495E-01   # Re[N(3,3)]
   3  4     7.07820020E-01   # Re[N(3,4)]
   4  1     1.54093499E-03   # Re[N(4,1)]
   4  2    -9.98495838E-01   # Re[N(4,2)]
   4  3    -1.43861136E-02   # Re[N(4,3)]
   4  4    -5.28840908E-02   # Re[N(4,4)]
Block Umix # chargino mixing matrix
   1  1    -2.03258554E-02   # Re[U(1,1)]
   1  2     9.99793408E-01   # Re[U(1,2)]
   2  1    -9.99793408E-01   # Re[U(2,1)]
   2  2    -2.03258554E-02   # Re[U(2,2)]
Block Vmix # chargino mixing matrix
   1  1     7.47372724E-02   # Re[V(1,1)]
   1  2     9.97203259E-01   # Re[V(1,2)]
   2  1     9.97203259E-01   # Re[V(2,1)]
   2  2    -7.47372724E-02   # Re[V(2,2)]
DECAY        23     2.49520000E+00   # Z
DECAY        24     2.08500000E+00   # W
DECAY   2000011     1.82418044E+00   # ~e^-_R
#    BR                NDA      ID1      ID2
     1.00000000E+00    2     1000022        11   # BR(~e^-_R -> chi^0_1 e^-)
#    BR                NDA      ID1      ID2       ID3
DECAY   1000011     1.19098187E+00   # ~e^-_L
#    BR                NDA      ID1      ID2
     9.85735174E-01    2     1000022        11   # BR(~e^-_L -> chi^0_1 e^-)
     1.27512980E-02    2     1000023        11   # BR(~e^-_L -> chi^0_2 e^-)
     1.49803795E-03    2    -1000024        12   # BR(~e^-_L -> chi^-_1 nu_e)
#    BR                NDA      ID1      ID2       ID3
DECAY   2000013     1.82393729E+00   # ~mu^-_R
#    BR                NDA      ID1      ID2
     1.00000000E+00    2     1000022        13   # BR(~mu^-_R -> chi^0_1 mu^-)
DECAY   1000013     1.19330666E+00   # ~mu^-_L
#    BR                NDA      ID1      ID2
     9.83829206E-01    2     1000022        13   # BR(~mu^-_L -> chi^0_1 mu^-)
     1.35186095E-02    2     1000023        13   # BR(~mu^-_L -> chi^0_2 mu^-)
     7.96647201E-04    2     1000025        13   # BR(~mu^-_L -> chi^0_3 mu^-)
     1.49508283E-03    2    -1000024        14   # BR(~mu^-_L -> chi^-_1 nu_mu)
     3.60453917E-04    2     2000013        25   # BR(~mu^-_L -> ~mu^-_R h^0)
#    BR                NDA      ID1      ID2       ID3
DECAY   1000015     3.07226943E+00   # ~tau^-_1
#    BR                NDA      ID1      ID2
     5.91073462E-01    2     1000022        15   # BR(~tau^-_1 -> chi^0_1 tau^-)
     2.10365574E-01    2     1000023        15   # BR(~tau^-_1 -> chi^0_2 tau^-)
     1.96489040E-01    2     1000025        15   # BR(~tau^-_1 -> chi^0_3 tau^-)
     2.07192321E-03    2    -1000024        16   # BR(~tau^-_1 -> chi^-_1 nu_tau)
#    BR                NDA      ID1      ID2       ID3
DECAY   2000015     1.32334798E+01   # ~tau^-_2
#    BR                NDA      ID1      ID2
     7.13840872E-01    2     1000022        15   # BR(~tau^-_2 -> chi^0_1 tau^-)
     7.05041357E-02    2     1000023        15   # BR(~tau^-_2 -> chi^0_2 tau^-)
     6.95675220E-02    2     1000025        15   # BR(~tau^-_2 -> chi^0_3 tau^-)
     1.35894985E-01    2    -1000024        16   # BR(~tau^-_2 -> chi^-_1 nu_tau)
     5.09738754E-03    2     1000016       -24   # BR(~tau^-_2 -> ~nu_tau W^-)
     2.47728286E-03    2     1000015        23   # BR(~tau^-_2 -> ~tau^-_1 Z)
     2.55956399E-03    2     1000015        25   # BR(~tau^-_2 -> ~tau^-_1 h^0)
DECAY   1000012     1.20176898E+00   # ~nu_e
#    BR                NDA      ID1      ID2
     9.74114311E-01    2     1000022        12   # BR(~nu_e -> chi^0_1 nu_e)
     2.22844964E-04    2     1000023        12   # BR(~nu_e -> chi^0_2 nu_e)
     5.79494497E-03    2     1000025        12   # BR(~nu_e -> chi^0_3 nu_e)
     1.98678993E-02    2     1000024        11   # BR(~nu_e -> chi^+_1 e^-)
DECAY   1000014     1.20364474E+00   # ~nu_mu
#    BR                NDA      ID1      ID2
     9.72584793E-01    2     1000022        14   # BR(~nu_mu -> chi^0_1 nu_mu)
     2.22491018E-04    2     1000023        14   # BR(~nu_mu -> chi^0_2 nu_mu)
     5.78573861E-03    2     1000025        14   # BR(~nu_mu -> chi^0_3 nu_mu)
     2.14069773E-02    2     1000024        13   # BR(~nu_mu -> chi^+_1 mu^-)
DECAY   1000016     3.09695739E+00   # ~nu_tau
#    BR                NDA      ID1      ID2
     5.80385259E-01    2     1000022        16   # BR(~nu_tau -> chi^0_1 nu_tau)
     1.98923579E-04    2     1000023        16   # BR(~nu_tau -> chi^0_2 nu_tau)
     5.21294408E-03    2     1000025        16   # BR(~nu_tau -> chi^0_3 nu_tau)
     4.14202873E-01    2     1000024        15   # BR(~nu_tau -> chi^+_1 tau^-)
DECAY   2000001     7.76699773E+02   # ~d_R
#    BR                NDA      ID1      ID2
     7.20179755E-03    2     1000022         1   # BR(~d_R -> chi^0_1 d)
     9.92741554E-01    2     1000021         1   # BR(~d_R -> ~g d)
DECAY   1000001     9.01238894E+02   # ~d_L
#    BR                NDA      ID1      ID2
     1.55816227E-03    2     1000022         1   # BR(~d_L -> chi^0_1 d)
     4.67751373E-02    2     1000035         1   # BR(~d_L -> chi^0_4 d)
     9.37436330E-02    2    -1000037         2   # BR(~d_L -> chi^-_2 u)
     8.57752018E-01    2     1000021         1   # BR(~d_L -> ~g d)
DECAY   2000003     7.76721547E+02   # ~s_R
#    BR                NDA      ID1      ID2
     7.20170563E-03    2     1000022         3   # BR(~s_R -> chi^0_1 s)
     9.92713922E-01    2     1000021         3   # BR(~s_R -> ~g s)
DECAY   1000003     9.01253504E+02   # ~s_L
#    BR                NDA      ID1      ID2
     1.55823107E-03    2     1000022         3   # BR(~s_L -> chi^0_1 s)
     4.67743887E-02    2     1000035         3   # BR(~s_L -> chi^0_4 s)
     9.37421496E-02    2    -1000037         4   # BR(~s_L -> chi^-_2 c)
     8.57738239E-01    2     1000021         3   # BR(~s_L -> ~g s)
DECAY   1000005     1.23566878E+02   # ~b_1
#    BR                NDA      ID1      ID2
     1.18059669E-02    2     1000022         5   # BR(~b_1 -> chi^0_1 b)
     2.76151224E-02    2     1000023         5   # BR(~b_1 -> chi^0_2 b)
     2.74477699E-02    2     1000025         5   # BR(~b_1 -> chi^0_3 b)
     5.48784252E-02    2    -1000024         6   # BR(~b_1 -> chi^-_1 t)
     8.78243718E-01    2     1000021         5   # BR(~b_1 -> ~g b)
DECAY   2000005     4.41122523E+02   # ~b_2
#    BR                NDA      ID1      ID2
     1.59990108E-03    2     1000022         5   # BR(~b_2 -> chi^0_1 b)
     1.41903692E-02    2     1000023         5   # BR(~b_2 -> chi^0_2 b)
     1.41424783E-02    2     1000025         5   # BR(~b_2 -> chi^0_3 b)
     3.23548012E-02    2     1000035         5   # BR(~b_2 -> chi^0_4 b)
     1.96225688E-01    2    -1000024         6   # BR(~b_2 -> chi^-_1 t)
     6.59086211E-02    2    -1000037         6   # BR(~b_2 -> chi^-_2 t)
     6.53549309E-01    2     1000021         5   # BR(~b_2 -> ~g b)
     2.18779030E-02    2     1000006       -24   # BR(~b_2 -> ~t_1 W^-)
DECAY   2000002     7.93856205E+02   # ~u_R
#    BR                NDA      ID1      ID2
     2.81927508E-02    2     1000022         2   # BR(~u_R -> chi^0_1 u)
     1.31017519E-04    2     1000023         2   # BR(~u_R -> chi^0_2 u)
     9.71585788E-01    2     1000021         2   # BR(~u_R -> ~g u)
DECAY   1000002     9.01228652E+02   # ~u_L
#    BR                NDA      ID1      ID2
     1.55256572E-03    2     1000022         2   # BR(~u_L -> chi^0_1 u)
     1.75267503E-04    2     1000023         2   # BR(~u_L -> chi^0_2 u)
     4.67224598E-02    2     1000035         2   # BR(~u_L -> chi^0_4 u)
     5.49593941E-04    2     1000024         1   # BR(~u_L -> chi^+_1 d)
     9.32559712E-02    2     1000037         1   # BR(~u_L -> chi^+_2 d)
     8.57729596E-01    2     1000021         2   # BR(~u_L -> ~g u)
DECAY   2000004     7.93863500E+02   # ~c_R
#    BR                NDA      ID1      ID2
     2.81924930E-02    2     1000022         4   # BR(~c_R -> chi^0_1 c)
     1.33287243E-04    2     1000023         4   # BR(~c_R -> chi^0_2 c)
     9.71576894E-01    2     1000021         4   # BR(~c_R -> ~g c)
DECAY   1000004     9.01243228E+02   # ~c_L
#    BR                NDA      ID1      ID2
     1.55254103E-03    2     1000022         4   # BR(~c_L -> chi^0_1 c)
     1.77270189E-04    2     1000023         4   # BR(~c_L -> chi^0_2 c)
     4.67217181E-02    2     1000035         4   # BR(~c_L -> chi^0_4 c)
     5.61603371E-04    2     1000024         3   # BR(~c_L -> chi^+_1 s)
     9.32544815E-02    2     1000037         3   # BR(~c_L -> chi^+_2 s)
     8.57715816E-01    2     1000021         4   # BR(~c_L -> ~g c)
DECAY   1000006     3.08873617E+02   # ~t_1
#    BR                NDA      ID1      ID2
     2.28793596E-02    2     1000022         6   # BR(~t_1 -> chi^0_1 t)
     9.97279804E-02    2     1000023         6   # BR(~t_1 -> chi^0_2 t)
     1.00550523E-01    2     1000025         6   # BR(~t_1 -> chi^0_3 t)
     5.99113382E-04    2     1000035         6   # BR(~t_1 -> chi^0_4 t)
     2.00445620E-01    2     1000024         5   # BR(~t_1 -> chi^+_1 b)
     1.21440372E-03    2     1000037         5   # BR(~t_1 -> chi^+_2 b)
     5.74582670E-01    2     1000021         6   # BR(~t_1 -> ~g t)
#    BR                NDA      ID1      ID2       ID3
DECAY   2000006     4.42274316E+02   # ~t_2
#    BR                NDA      ID1      ID2
     1.44802570E-03    2     1000022         6   # BR(~t_2 -> chi^0_1 t)
     9.80872605E-02    2     1000023         6   # BR(~t_2 -> chi^0_2 t)
     9.90702467E-02    2     1000025         6   # BR(~t_2 -> chi^0_3 t)
     3.19455512E-02    2     1000035         6   # BR(~t_2 -> chi^0_4 t)
     2.99563885E-02    2     1000024         5   # BR(~t_2 -> chi^+_1 b)
     6.37064476E-02    2     1000037         5   # BR(~t_2 -> chi^+_2 b)
     6.48756831E-01    2     1000021         6   # BR(~t_2 -> ~g t)
     1.14961061E-04    2     1000005        24   # BR(~t_2 -> ~b_1 W^+)
     1.09575949E-02    2     1000006        23   # BR(~t_2 -> ~t_1 Z)
     1.59566931E-02    2     1000006        25   # BR(~t_2 -> ~t_1 h^0)
DECAY   1000024     3.28566919E-01   # chi^+_1
#    BR                NDA      ID1      ID2
     5.01230880E-04    2    -2000013        14   # BR(chi^+_1 -> ~mu^+_R nu_mu)
     9.95445869E-01    2     1000022        24   # BR(chi^+_1 -> chi^0_1 W^+)
#    BR                NDA      ID1      ID2       ID3
     4.05102645E-03    3     1000022        -5         6   # BR(chi^+_1 -> chi^0_1 b_bar t)
DECAY   1000037     2.68597715E+01   # chi^+_2
#    BR                NDA      ID1      ID2
     1.17346875E-01    2    -1000011        12   # BR(chi^+_2 -> ~e^+_L nu_e)
     1.17349163E-01    2    -1000013        14   # BR(chi^+_2 -> ~mu^+_L nu_mu)
     1.24035543E-02    2    -1000015        16   # BR(chi^+_2 -> ~tau^+_1 nu_tau)
     1.17682267E-01    2     1000012       -11   # BR(chi^+_2 -> ~nu_e e^+)
     1.17685053E-01    2     1000014       -13   # BR(chi^+_2 -> ~nu_mu mu^+)
     1.26301365E-02    2     1000016       -15   # BR(chi^+_2 -> ~nu_tau tau^+)
     1.43584230E-04    2     1000022        24   # BR(chi^+_2 -> chi^0_1 W^+)
     1.23913887E-01    2     1000023        24   # BR(chi^+_2 -> chi^0_2 W^+)
     1.22323735E-01    2     1000025        24   # BR(chi^+_2 -> chi^0_3 W^+)
     1.22137037E-01    2     1000024        23   # BR(chi^+_2 -> chi^+_1 Z)
     1.24043774E-01    2     1000024        25   # BR(chi^+_2 -> chi^+_1 h^0)
#    BR                NDA      ID1      ID2       ID3
     4.47021056E-03    3     1000024         6        -6   # BR(chi^+_2 -> chi^+_1 t t_bar)
     4.19314498E-03    3     1000023        -5         6   # BR(chi^+_2 -> chi^0_2 b_bar t)
     3.65773187E-03    3     1000025        -5         6   # BR(chi^+_2 -> chi^0_3 b_bar t)
DECAY   1000022     0.00000000E+00   # chi^0_1
DECAY   1000023     3.02561796E-01   # chi^0_2
#    BR                NDA      ID1      ID2
     3.27918587E-03    2     2000011       -11   # BR(chi^0_2 -> ~e^-_R e^+)
     3.27918587E-03    2    -2000011        11   # BR(chi^0_2 -> ~e^+_R e^-)
     3.55209298E-03    2     2000013       -13   # BR(chi^0_2 -> ~mu^-_R mu^+)
     3.55209298E-03    2    -2000013        13   # BR(chi^0_2 -> ~mu^+_R mu^-)
     4.50828770E-01    2     1000022        23   # BR(chi^0_2 -> chi^0_1 Z)
     5.35261632E-01    2     1000022        25   # BR(chi^0_2 -> chi^0_1 h^0)
#    BR                NDA      ID1      ID2       ID3
     2.19917422E-04    3     1000022         6        -6   # BR(chi^0_2 -> chi^0_1 t t_bar)
DECAY   1000025     3.98564676E-01   # chi^0_3
#    BR                NDA      ID1      ID2
     1.80337906E-03    2     2000011       -11   # BR(chi^0_3 -> ~e^-_R e^+)
     1.80337906E-03    2    -2000011        11   # BR(chi^0_3 -> ~e^+_R e^-)
     2.01976268E-03    2     2000013       -13   # BR(chi^0_3 -> ~mu^-_R mu^+)
     2.01976268E-03    2    -2000013        13   # BR(chi^0_3 -> ~mu^+_R mu^-)
     5.03095294E-01    2     1000022        23   # BR(chi^0_3 -> chi^0_1 Z)
     4.89086426E-01    2     1000022        25   # BR(chi^0_3 -> chi^0_1 h^0)
#    BR                NDA      ID1      ID2       ID3
     1.63693066E-04    3     1000022         6        -6   # BR(chi^0_3 -> chi^0_1 t t_bar)
DECAY   1000035     2.91023620E+01   # chi^0_4
#    BR                NDA      ID1      ID2
     5.39485785E-02    2     1000011       -11   # BR(chi^0_4 -> ~e^-_L e^+)
     5.39485785E-02    2    -1000011        11   # BR(chi^0_4 -> ~e^+_L e^-)
     5.39496304E-02    2     1000013       -13   # BR(chi^0_4 -> ~mu^-_L mu^+)
     5.39496304E-02    2    -1000013        13   # BR(chi^0_4 -> ~mu^+_L mu^-)
     5.71289355E-03    2     1000015       -15   # BR(chi^0_4 -> ~tau^-_1 tau^+)
     5.71289355E-03    2    -1000015        15   # BR(chi^0_4 -> ~tau^+_1 tau^-)
     5.45636227E-02    2     1000012       -12   # BR(chi^0_4 -> ~nu_e nu_bar_e)
     5.45636227E-02    2    -1000012        12   # BR(chi^0_4 -> ~nu^*_e nu_e)
     5.45648954E-02    2     1000014       -14   # BR(chi^0_4 -> ~nu_mu nu_bar_mu)
     5.45648954E-02    2    -1000014        14   # BR(chi^0_4 -> ~nu^*_mu nu_mu)
     5.86649894E-03    2     1000016       -16   # BR(chi^0_4 -> ~nu_tau nu_bar_tau)
     5.86649894E-03    2    -1000016        16   # BR(chi^0_4 -> ~nu^*_tau nu_tau)
     1.13851588E-01    2     1000024       -24   # BR(chi^0_4 -> chi^+_1 W^-)
     1.13851588E-01    2    -1000024        24   # BR(chi^0_4 -> chi^-_1 W^+)
     2.80547743E-02    2     1000023        23   # BR(chi^0_4 -> chi^0_2 Z)
     8.59375802E-02    2     1000025        23   # BR(chi^0_4 -> chi^0_3 Z)
     8.60339353E-02    2     1000023        25   # BR(chi^0_4 -> chi^0_2 h^0)
     1.02210533E-01    2     1000025        25   # BR(chi^0_4 -> chi^0_3 h^0)
#    BR                NDA      ID1      ID2       ID3
     1.90639628E-03    3     1000023         6        -6   # BR(chi^0_4 -> chi^0_2 t t_bar)
     2.13156308E-03    3     1000025         6        -6   # BR(chi^0_4 -> chi^0_3 t t_bar)
     4.33268497E-03    3     1000024         5        -6   # BR(chi^0_4 -> chi^+_1 b t_bar)
     4.33268497E-03    3    -1000024        -5         6   # BR(chi^0_4 -> chi^-_1 b_bar t)
DECAY   1000021     9.44802908E-04   # ~g
#    BR                NDA      ID1      ID2
     2.57022310E-02    2     1000023        21   # BR(~g -> chi^0_2 g)
     2.25526675E-02    2     1000025        21   # BR(~g -> chi^0_3 g)
#    BR                NDA      ID1      ID2       ID3
     7.51892323E-04    3     1000022         2        -2   # BR(~g -> chi^0_1 u u_bar)
     7.51879676E-04    3     1000022         4        -4   # BR(~g -> chi^0_1 c c_bar)
     5.81589247E-02    3     1000022         6        -6   # BR(~g -> chi^0_1 t t_bar)
     2.21185603E-04    3     1000022         1        -1   # BR(~g -> chi^0_1 d d_bar)
     2.21192718E-04    3     1000022         3        -3   # BR(~g -> chi^0_1 s s_bar)
     5.97303345E-02    3     1000022         5        -5   # BR(~g -> chi^0_1 b b_bar)
     1.31928322E-01    3     1000023         6        -6   # BR(~g -> chi^0_2 t t_bar)
     6.85424694E-02    3     1000023         5        -5   # BR(~g -> chi^0_2 b b_bar)
     1.36070052E-01    3     1000025         6        -6   # BR(~g -> chi^0_3 t t_bar)
     6.72548117E-02    3     1000025         5        -5   # BR(~g -> chi^0_3 b b_bar)
     2.14045151E-01    3     1000024         5        -6   # BR(~g -> chi^+_1 b t_bar)
     2.14045151E-01    3    -1000024        -5         6   # BR(~g -> chi^-_1 b_bar t)
DECAY        25     3.29152304E-03   # Gamma(h0)
     2.50956447E-03   2        22        22   # BR(h0 -> photon photon)
     1.36905454E-03   2        22        23   # BR(h0 -> photon Z)
     2.29362324E-02   2        23        23   # BR(h0 -> Z Z)
     2.00226825E-01   2       -24        24   # BR(h0 -> W W)
     8.02055791E-02   2        21        21   # BR(h0 -> gluon gluon)
     5.31788706E-09   2       -11        11   # BR(h0 -> Electron electron)
     2.36547593E-04   2       -13        13   # BR(h0 -> Muon muon)
     6.82329500E-02   2       -15        15   # BR(h0 -> Tau tau)
     1.51285977E-07   2        -2         2   # BR(h0 -> Up up)
     2.93589643E-02   2        -4         4   # BR(h0 -> Charm charm)
     6.18493891E-07   2        -1         1   # BR(h0 -> Down down)
     2.23694496E-04   2        -3         3   # BR(h0 -> Strange strange)
     5.94699813E-01   2        -5         5   # BR(h0 -> Bottom bottom)
DECAY        35     2.44472128E+01   # Gamma(HH)
     1.92926407E-08   2        22        22   # BR(HH -> photon photon)
     5.69952652E-08   2        22        23   # BR(HH -> photon Z)
     2.87347455E-06   2        23        23   # BR(HH -> Z Z)
     1.20311529E-06   2       -24        24   # BR(HH -> W W)
     5.78045284E-06   2        21        21   # BR(HH -> gluon gluon)
     7.27974169E-09   2       -11        11   # BR(HH -> Electron electron)
     3.24104226E-04   2       -13        13   # BR(HH -> Muon muon)
     9.61954787E-02   2       -15        15   # BR(HH -> Tau tau)
     4.41995437E-13   2        -2         2   # BR(HH -> Up up)
     8.57346921E-08   2        -4         4   # BR(HH -> Charm charm)
     6.00583951E-03   2        -6         6   # BR(HH -> Top top)
     5.92627051E-07   2        -1         1   # BR(HH -> Down down)
     2.14357831E-04   2        -3         3   # BR(HH -> Strange strange)
     5.46940435E-01   2        -5         5   # BR(HH -> Bottom bottom)
     3.77356919E-03   2  -1000024   1000024   # BR(HH -> Chargino1 chargino1)
     8.10587336E-02   2  -1000024   1000037   # BR(HH -> Chargino1 chargino2)
     8.10587336E-02   2  -1000037   1000024   # BR(HH -> Chargino2 chargino1)
     1.63206649E-03   2   1000022   1000022   # BR(HH -> neutralino1 neutralino1)
     5.47409792E-02   2   1000022   1000023   # BR(HH -> neutralino1 neutralino2)
     4.56002277E-02   2   1000022   1000025   # BR(HH -> neutralino1 neutralino3)
     6.46703402E-04   2   1000022   1000035   # BR(HH -> neutralino1 neutralino4)
     8.06923537E-05   2   1000023   1000023   # BR(HH -> neutralino2 neutralino2)
     3.53908123E-04   2   1000023   1000025   # BR(HH -> neutralino2 neutralino3)
     2.01439861E-02   2   1000023   1000035   # BR(HH -> neutralino2 neutralino4)
     8.70175464E-04   2   1000025   1000025   # BR(HH -> neutralino3 neutralino3)
     6.03312698E-02   2   1000025   1000035   # BR(HH -> neutralino3 neutralino4)
     1.27760521E-05   2        25        25   # BR(HH -> h0 h0)
     4.97550966E-07   2  -1000011   1000011   # BR(HH -> Selectron1 selectron1)
     3.04140676E-13   2  -2000011   1000011   # BR(HH -> Selectron2 selectron1)
     3.04140676E-13   2  -1000011   2000011   # BR(HH -> Selectron1 selectron2)
     5.06140503E-07   2  -2000011   2000011   # BR(HH -> Selectron2 selectron2)
     4.95197657E-07   2  -1000013   1000013   # BR(HH -> Smuon1 smuon1)
     1.30027942E-08   2  -2000013   1000013   # BR(HH -> Smuon2 smuon1)
     1.30027942E-08   2  -1000013   2000013   # BR(HH -> Smuon1 smuon2)
     5.05245954E-07   2  -2000013   2000013   # BR(HH -> Smuon2 smuon2)
DECAY        36     2.40129939E+01   # Gamma(A0)
     2.83243214E-08   2        22        22   # BR(A0 -> photon photon)
     1.43738962E-07   2        22        23   # BR(A0 -> photon Z)
     2.74554231E-05   2        21        21   # BR(A0 -> gluon gluon)
     7.20500914E-09   2       -11        11   # BR(A0 -> Electron electron)
     3.20777185E-04   2       -13        13   # BR(A0 -> Muon muon)
     9.52093505E-02   2       -15        15   # BR(A0 -> Tau tau)
     4.20290192E-13   2        -2         2   # BR(A0 -> Up up)
     8.15156032E-08   2        -4         4   # BR(A0 -> Charm charm)
     5.84425156E-03   2        -6         6   # BR(A0 -> Top top)
     5.86551430E-07   2        -1         1   # BR(A0 -> Down down)
     2.12159730E-04   2        -3         3   # BR(A0 -> Strange strange)
     5.41333252E-01   2        -5         5   # BR(A0 -> Bottom bottom)
     4.49946185E-03   2  -1000024   1000024   # BR(A0 -> Chargino1 chargino1)
     8.22696553E-02   2  -1000024   1000037   # BR(A0 -> Chargino1 chargino2)
     8.22696553E-02   2  -1000037   1000024   # BR(A0 -> Chargino2 chargino1)
     1.64179477E-03   2   1000022   1000022   # BR(A0 -> neutralino1 neutralino1)
     4.84443746E-02   2   1000022   1000023   # BR(A0 -> neutralino1 neutralino2)
     5.36364198E-02   2   1000022   1000025   # BR(A0 -> neutralino1 neutralino3)
     7.93524282E-04   2   1000022   1000035   # BR(A0 -> neutralino1 neutralino4)
     8.54402867E-05   2   1000023   1000023   # BR(A0 -> neutralino2 neutralino2)
     2.17696916E-04   2   1000023   1000025   # BR(A0 -> neutralino2 neutralino3)
     6.18224745E-02   2   1000023   1000035   # BR(A0 -> neutralino2 neutralino4)
     1.29304908E-03   2   1000025   1000025   # BR(A0 -> neutralino3 neutralino3)
     2.00741766E-02   2   1000025   1000035   # BR(A0 -> neutralino3 neutralino4)
     4.15697578E-06   2        23        25   # BR(A0 -> Z h0)
     1.56976020E-38   2        25        25   # BR(A0 -> h0 h0)
     3.08928060E-13   2  -2000011   1000011   # BR(A0 -> Selectron2 selectron1)
     3.08928060E-13   2  -1000011   2000011   # BR(A0 -> Selectron1 selectron2)
     1.32076415E-08   2  -2000013   1000013   # BR(A0 -> Smuon2 smuon1)
     1.32076415E-08   2  -1000013   2000013   # BR(A0 -> Smuon1 smuon2)
DECAY        37     2.61249512E+01   # Gamma(Hp)
     8.60853335E-09   2       -11        12   # BR(Hp -> Electron nu_e)
     3.68041687E-04   2       -13        14   # BR(Hp -> Muon nu_mu)
     1.04103073E-01   2       -15        16   # BR(Hp -> Tau nu_tau)
     5.60700712E-07   2        -1         2   # BR(Hp -> Down up)
     9.43845062E-06   2        -3         2   # BR(Hp -> Strange up)
     5.94724679E-06   2        -5         2   # BR(Hp -> Bottom up)
     2.99068501E-08   2        -1         4   # BR(Hp -> Down charm)
     2.02155004E-04   2        -3         4   # BR(Hp -> Strange charm)
     8.32827274E-04   2        -5         4   # BR(Hp -> Bottom charm)
     4.13434654E-07   2        -1         6   # BR(Hp -> Down top)
     9.31137757E-06   2        -3         6   # BR(Hp -> Strange top)
     5.67089971E-01   2        -5         6   # BR(Hp -> Bottom top)
     9.64230137E-02   2   1000022   1000024   # BR(Hp -> neutralino1 chargino1)
     1.34144637E-03   2   1000022   1000037   # BR(Hp -> neutralino1 chargino2)
     1.22384416E-03   2   1000023   1000024   # BR(Hp -> neutralino2 chargino1)
     7.65780959E-02   2   1000023   1000037   # BR(Hp -> neutralino2 chargino2)
     1.45967023E-04   2   1000024   1000025   # BR(Hp -> chargino1 neutralino3)
     7.52819704E-02   2   1000025   1000037   # BR(Hp -> neutralino3 chargino2)
     7.63763033E-02   2   1000024   1000035   # BR(Hp -> chargino1 neutralino4)
     3.83495942E-06   2        24        25   # BR(Hp -> W h0)
     2.79577039E-12   2        24        35   # BR(Hp -> W HH)
     2.01930085E-12   2        24        36   # BR(Hp -> W A0)
     5.48092044E-13   2  -1000011   1000012   # BR(Hp -> Selectron1 snu_e1)
     1.86210210E-06   2  -2000011   1000012   # BR(Hp -> Selectron2 snu_e1)
     2.34330197E-08   2  -1000013   1000014   # BR(Hp -> Smuon1 snu_mu1)
     1.86091774E-06   2  -2000013   1000014   # BR(Hp -> Smuon2 snu_mu1)
DECAY         6     2.43000000E+00   # top
#    BR                NDA      ID1      ID2
     1.00000000E+00    2           5        24   # BR(t -> b W)
Block HiggsBoundsInputHiggsCouplingsFermions
# ScalarNormEffCoupSq PseudoSNormEffCoupSq NP IP1 IP2 IP2
    9.24617670E-01    0.00000000E+00        3  25   5   5  # h0-b-b eff. coupling^2, normalised to SM
    5.28217145E+02    0.00000000E+00        3  35   5   5  # H0-b-b eff. coupling^2, normalised to SM
    0.00000000E+00    5.28141763E+02        3  36   5   5  # A0-b-b eff. coupling^2, normalised to SM
#
    1.00014273E+00    0.00000000E+00        3  25   6   6  # h0-t-t eff. coupling^2, normalised to SM
    1.75069978E-03    0.00000000E+00        3  35   6   6  # H0-t-t eff. coupling^2, normalised to SM
    0.00000000E+00    1.89343103E-03        3  36   6   6  # A0-t-t eff. coupling^2, normalised to SM
#
    9.24617670E-01    0.00000000E+00        3  25  15  15  # h0-tau-tau eff. coupling^2, normalised to SM
    5.28217145E+02    0.00000000E+00        3  35  15  15  # H0-tau-tau eff. coupling^2, normalised to SM
    0.00000000E+00    5.28141763E+02        3  36  15  15  # A0-tau-tau eff. coupling^2, normalised to SM
#
Block HiggsBoundsInputHiggsCouplingsBosons
    9.99997204E-01        3  25  24  24  # h0-W-W eff. coupling^2, normalised to SM
    2.79607744E-06        3  35  24  24  # H0-W-W eff. coupling^2, normalised to SM
    0.00000000E+00        3  36  24  24  # A0-W-W eff. coupling^2, normalised to SM
#
    9.99997204E-01        3  25  23  23  # h0-Z-Z eff. coupling^2, normalised to SM
    2.79607744E-06        3  35  23  23  # H0-Z-Z eff. coupling^2, normalised to SM
    0.00000000E+00        3  36  23  23  # A0-Z-Z eff. coupling^2, normalised to SM
#
    1.26964406E+00        3  25  21  21  # h0-g-g eff. coupling^2, normalised to SM
    1.77406796E-03        3  35  21  21  # H0-g-g eff. coupling^2, normalised to SM
    1.00400635E-01        3  36  21  21  # A0-g-g eff. coupling^2, normalised to SM
#
    0.00000000E+00        3  25  25  23  # h0-h0-Z eff. coupling^2, normalised to SM
    0.00000000E+00        3  35  25  23  # H0-h0-Z eff. coupling^2, normalised to SM
    2.79607744E-06        3  36  25  23  # A0-h0-Z eff. coupling^2, normalised to SM
    0.00000000E+00        3  35  35  23  # H0-H0-Z eff. coupling^2, normalised to SM
    9.99997204E-01        3  36  35  23  # A0-H0-Z eff. coupling^2, normalised to SM
    0.00000000E+00        3  36  36  23  # A0-A0-Z eff. coupling^2, normalised to SM
#
    0.00000000E+00        4  25  21  21  23  # h0-g-g-Z eff. coupling^2, normalised to SM
    0.00000000E+00        4  35  21  21  23  # H0-g-g-Z eff. coupling^2, normalised to SM
    0.00000000E+00        4  36  21  21  23  # A0-g-g-Z eff. coupling^2, normalised to SM
Block SPhenoLowEnergy  # low energy observables
    1    3.24575333E-04   # BR(b -> s gamma)
    2    1.58909776E-06   # BR(b -> s mu+ mu-)
    3    3.52387846E-05   # BR(b -> s nu nu)
    4    2.65988853E-15   # BR(Bd -> e+ e-)
    5    1.13627368E-10   # BR(Bd -> mu+ mu-)
    6    2.37831139E-08   # BR(Bd -> tau+ tau-)
    7    8.93452987E-14   # BR(Bs -> e+ e-)
    8    3.81682687E-09   # BR(Bs -> mu+ mu-)
    9    8.09473571E-07   # BR(Bs -> tau+ tau-)
   10    9.62061560E-05   # BR(B_u -> tau nu)
   11    9.93772759E-01   # BR(B_u -> tau nu)/BR(B_u -> tau nu)_SM
   12    5.42303197E-01   # |Delta(M_Bd)| [ps^-1] 
   13    1.93736352E+01   # |Delta(M_Bs)| [ps^-1] 
   14    0.00000000E+00   # neutron EDM according to the chiral quark model
   15    0.00000000E+00   # neutron EDM according to the relativistic quark-parton model
   16    2.15858229E-03   # epsilon_K
   17    2.28167165E-15   # Delta(M_K)
   18    2.47916306E-11   # BR(K^0 -> pi^0 nu nu)
   19    8.28842112E-11   # BR(K^+ -> pi^+ nu nu)
   20   -6.81627585E-15   # Delta(g-2)_electron/2
   21   -2.91599366E-10   # Delta(g-2)_muon/2
   22   -2.96504950E-08   # Delta(g-2)_tau/2
   23    0.00000000E+00   # electric dipole moment of the electron
   24    0.00000000E+00   # electric dipole moment of the muon
   25    0.00000000E+00   # electric dipole moment of the tau
   26    0.00000000E+00   # Br(mu -> e gamma)
   27    0.00000000E+00   # Br(tau -> e gamma)
   28    0.00000000E+00   # Br(tau -> mu gamma)
   29    0.00000000E+00   # Br(mu -> 3 e)
   30    0.00000000E+00   # Br(tau -> 3 e)
   31    0.00000000E+00   # Br(tau -> 3 mu)
   39    6.03759507E-05   # Delta(rho_parameter)
   40    0.00000000E+00   # BR(Z -> e mu)
   41    0.00000000E+00   # BR(Z -> e tau)
   42    0.00000000E+00   # BR(Z -> mu tau)
Block FWCOEF Q=  1.60000000E+02  # Wilson coefficients at scale Q
#    id        order  M        value         comment
     0305 4422   00   0    -1.88819110E-01   # C7
     0305 4422   00   2    -1.91831530E-01   # C7
     0305 4322   00   2    -1.59017663E-04   # C7'
     0305 6421   00   0    -9.52278348E-02   # C8
     0305 6421   00   2    -1.05974698E-01   # C8
     0305 6321   00   2    -2.59725240E-04   # C8'
 03051111 4133   00   0     1.62429775E+00   # C9 e+e-
 03051111 4133   00   2     1.62467637E+00   # C9 e+e-
 03051111 4233   00   2     1.13557290E-04   # C9' e+e-
 03051111 4137   00   0    -4.44698985E+00   # C10 e+e-
 03051111 4137   00   2    -4.44396422E+00   # C10 e+e-
 03051111 4237   00   2    -8.41713928E-04   # C10' e+e-
 03051313 4133   00   0     1.62429775E+00   # C9 mu+mu-
 03051313 4133   00   2     1.62467534E+00   # C9 mu+mu-
 03051313 4233   00   2     1.13557080E-04   # C9' mu+mu-
 03051313 4137   00   0    -4.44698985E+00   # C10 mu+mu-
 03051313 4137   00   2    -4.44396525E+00   # C10 mu+mu-
 03051313 4237   00   2    -8.41714091E-04   # C10' mu+mu-
 03051212 4137   00   0     1.50535012E+00   # C11 nu_1 nu_1
 03051212 4137   00   2     1.50470082E+00   # C11 nu_1 nu_1
 03051212 4237   00   2     1.82070943E-04   # C11' nu_1 nu_1
 03051414 4137   00   0     1.50535012E+00   # C11 nu_2 nu_2
 03051414 4137   00   2     1.50470083E+00   # C11 nu_2 nu_2
 03051414 4237   00   2     1.82070962E-04   # C11' nu_2 nu_2
 03051616 4137   00   0     1.50535012E+00   # C11 nu_3 nu_3
 03051616 4137   00   2     1.50470089E+00   # C11 nu_3 nu_3
 03051616 4237   00   2     1.82077755E-04   # C11' nu_3 nu_3
Block IMFWCOEF Q=  1.60000000E+02  # Im(Wilson coefficients) at scale Q
#    id        order  M        value         comment
     0305 4422   00   0     3.85827734E-07   # C7
     0305 4422   00   2    -9.89719164E-07   # C7
     0305 4322   00   2     6.56094097E-07   # C7'
     0305 6421   00   0     3.30486970E-07   # C8
     0305 6421   00   2    -2.52669845E-05   # C8
     0305 6321   00   2    -1.95494318E-07   # C8'
 03051111 4133   00   2    -2.90634447E-07   # C9 e+e-
 03051111 4233   00   2     2.41349600E-06   # C9' e+e-
 03051111 4137   00   2     2.22263299E-06   # C10 e+e-
 03051111 4237   00   2    -1.78963266E-05   # C10' e+e-
 03051313 4133   00   2    -2.90631234E-07   # C9 mu+mu-
 03051313 4233   00   2     2.41349391E-06   # C9' mu+mu-
 03051313 4137   00   2     2.22263755E-06   # C10 mu+mu-
 03051313 4237   00   2    -1.78963312E-05   # C10' mu+mu-
 03051212 4137   00   2    -3.86426885E-07   # C11 nu_1 nu_1
 03051212 4237   00   2     3.87127716E-06   # C11' nu_1 nu_1
 03051414 4137   00   2    -3.86426985E-07   # C11 nu_2 nu_2
 03051414 4237   00   2     3.87127716E-06   # C11' nu_2 nu_2
 03051616 4137   00   2    -3.85231109E-07   # C11 nu_3 nu_3
 03051616 4237   00   2     3.87129816E-06   # C11' nu_3 nu_3
