# SUSY Les Houches Accord 2 - MSSM spectrum + Decays
# SPheno v4.0.5be
# W. Porod, Comput. Phys. Commun. 153 (2003) 275-315, hep-ph/0301101;
# W. Porod, F.~Staub, Comput. Phys. Commun. 183 (2012) 2458
#                     arXiv:1104.1573 [hep-ph] 
# in case of problems send email to porod@physik.uni-wuerzburg.de
# Created: 20.12.2022,  13:25
Block SPINFO         # Program information
     1   SPheno      # spectrum calculator
     2   v4.0.5be    # version number
#
Block SPhenoINFO     # SPheno specific information
    1      2         # using 2-loop RGEs
    2      2         # using pole masses for boundary conditions at mZ
Block MODSEL  # Model selection
    1    0    # general MSSM
Block MINPAR  # Input parameters
    3    2.61689199E+01  # tanb at m_Z    
    4    1.00000000E+00  # Sign(mu)
Block EXTPAR  # non-universal input parameters
    0    2.81696572E+03  # scale for input parameters
    1   -5.89583017E+01  # M_1
    2   -3.49649924E+02  # M_2
    3    3.02356845E+03  # M_3
   11   -3.40050660E+03  # A_t
   12   -5.56850415E+02  # A_b
   13   -8.05072318E+02  # A_tau
   23    1.32811198E+03  # mu
   25    2.51926412E+01  # tan(beta)
   26    1.23113331E+03  # m_A, pole mass
   31    1.00000000E+04  # M_L11
   32    1.00000000E+04  # M_L22
   33    1.00000000E+04  # M_L33
   34    1.00000000E+04  # M_E11
   35    1.00000000E+04  # M_E22
   36    1.00000000E+04  # M_E33
   41    1.00000000E+04  # M_Q11
   42    1.00000000E+04  # M_Q22
   43    2.83170390E+03  # M_Q33
   44    1.00000000E+04  # M_U11
   45    1.00000000E+04  # M_U22
   46    2.68476250E+03  # M_U33
   47    1.00000000E+04  # M_D11
   48    1.00000000E+04  # M_D22
   49    4.30041817E+03  # M_D33
Block SMINPUTS  # SM parameters
         1     1.27908970E+02  # alpha_em^-1(MZ)^MSbar
         2     1.16637870E-05  # G_mu [GeV^-2]
         3     1.18400000E-01  # alpha_s(MZ)^MSbar
         4     9.11876000E+01  # m_Z(pole)
         5     4.18000000E+00  # m_b(m_b), MSbar
         6     1.73200000E+02  # m_t(pole)
         7     1.77700000E+00  # m_tau(pole)
         8     0.00000000E+00  # m_nu_3
        11     5.10998930E-04  # m_e(pole)
        12     0.00000000E+00  # m_nu_1
        13     1.05658372E-01  # m_muon(pole)
        14     0.00000000E+00  # m_nu_2
        21     5.00000000E-03  # m_d(2 GeV), MSbar
        22     2.50000000E-03  # m_u(2 GeV), MSbar
        23     9.50000000E-02  # m_s(2 GeV), MSbar
        24     1.27000000E+00  # m_c(m_c), MSbar
Block gauge Q=  2.81696572E+03  # (SUSY scale)
   1    3.55362975E-01  # g'(Q)^DRbar
   2    6.65198874E-01  # g(Q)^DRbar
   3    1.21977796E+00  # g3(Q)^DRbar
Block Yu Q=  2.81696572E+03  # (SUSY scale)
  1  1     8.39097484E-06   # Y_u(Q)^DRbar
  2  2     4.26261522E-03   # Y_c(Q)^DRbar
  3  3     1.01369716E+00   # Y_t(Q)^DRbar
Block Yd Q=  2.81696572E+03  # (SUSY scale)
  1  1     4.24782257E-04   # Y_d(Q)^DRbar
  2  2     8.07086288E-03   # Y_s(Q)^DRbar
  3  3     4.21250891E-01   # Y_b(Q)^DRbar
Block Ye Q=  2.81696572E+03  # (SUSY scale)
  1  1     7.41276101E-05   # Y_e(Q)^DRbar
  2  2     1.53272387E-02   # Y_mu(Q)^DRbar
  3  3     2.57778941E-01   # Y_tau(Q)^DRbar
Block Au Q=  2.81696572E+03  # (SUSY scale)
  1  1     0.00000000E+00   # A_u(Q)^DRbar
  2  2     0.00000000E+00   # A_c(Q)^DRbar
  3  3    -3.40050980E+03   # A_t(Q)^DRbar
Block Ad Q=  2.81696572E+03  # (SUSY scale)
  1  1     0.00000000E+00   # A_d(Q)^DRbar
  2  2     0.00000000E+00   # A_s(Q)^DRbar
  3  3    -5.56849830E+02   # A_b(Q)^DRbar
Block Ae Q=  2.81696572E+03  # (SUSY scale)
  1  1     0.00000000E+00   # A_e(Q)^DRbar
  2  2     0.00000000E+00   # A_mu(Q)^DRbar
  3  3    -8.05072040E+02   # A_tau(Q)^DRbar
Block MSOFT Q=  2.81696572E+03  # soft SUSY breaking masses at Q
   1   -5.89583017E+01  # M_1
   2   -3.49649924E+02  # M_2
   3    3.02356845E+03  # M_3
  21   -3.96627493E+05  # M^2_(H,d)
  22   -1.61702222E+06  # M^2_(H,u)
  31    1.00000000E+04  # M_(L,11)
  32    1.00000000E+04  # M_(L,22)
  33    1.00000000E+04  # M_(L,33)
  34    1.00000000E+04  # M_(E,11)
  35    1.00000000E+04  # M_(E,22)
  36    1.00000000E+04  # M_(E,33)
  41    1.00000000E+04  # M_(Q,11)
  42    1.00000000E+04  # M_(Q,22)
  43    2.83170390E+03  # M_(Q,33)
  44    1.00000000E+04  # M_(U,11)
  45    1.00000000E+04  # M_(U,22)
  46    2.68476250E+03  # M_(U,33)
  47    1.00000000E+04  # M_(D,11)
  48    1.00000000E+04  # M_(D,22)
  49    4.30041817E+03  # M_(D,33)
Block MASS  # Mass spectrum
#   PDG code      mass          particle
         6     1.73200000E+02  # m_t(pole)
        23     9.11876000E+01  # m_Z(pole)
        24     8.04299946E+01  # W+
        15     1.77700000E+00  # m_tau(pole)
        25     1.23405615E+02  # h0
        35     1.23115776E+03  # H0
        36     1.23113331E+03  # A0
        37     1.23529262E+03  # H+
   1000001     1.00997016E+04  # ~d_L
   2000001     1.00748702E+04  # ~d_R
   1000002     1.00993344E+04  # ~u_L
   2000002     1.00779313E+04  # ~u_R
   1000003     1.00997056E+04  # ~s_L
   2000003     1.00748760E+04  # ~s_R
   1000004     1.00993383E+04  # ~c_L
   2000004     1.00779330E+04  # ~c_R
   1000005     2.90572307E+03  # ~b_1
   2000005     4.36073423E+03  # ~b_2
   1000006     2.69586295E+03  # ~t_1
   2000006     2.94350864E+03  # ~t_2
   1000011     1.00213074E+04  # ~e_L-
   2000011     1.00089015E+04  # ~e_R-
   1000012     1.00205422E+04  # ~nu_eL
   1000013     1.00213255E+04  # ~mu_L-
   2000013     1.00089297E+04  # ~mu_R-
   1000014     1.00205579E+04  # ~nu_muL
   1000015     1.00166015E+04  # ~tau_1-
   2000015     1.00267483E+04  # ~tau_2-
   1000016     1.00249989E+04  # ~nu_tauL
   1000021     3.44185669E+03  # ~g
   1000022     5.97545624E+01  # ~chi_10
   1000023     3.84423671E+02  # ~chi_20
   1000025     1.34353338E+03  # ~chi_30
   1000035     1.34477537E+03  # ~chi_40
   1000024     3.84578393E+02  # ~chi_1+
   1000037     1.34627505E+03  # ~chi_2+
# Higgs mixing
Block alpha # Effective Higgs mixing angle
          -3.86636406E-02   # alpha
Block Hmix Q=  2.81696572E+03  # Higgs mixing parameters
   1    1.32811198E+03  # mu
   2    2.51926412E+01  # tan[beta](Q)
   3    2.43320281E+02  # v(Q)
   4    1.51568923E+06  # m^2_A(Q)
Block stopmix # stop mixing matrix
   1  1     3.84439804E-01   # Re[R_st(1,1)]
   1  2     9.23150062E-01   # Re[R_st(1,2)]
   2  1    -9.23150062E-01   # Re[R_st(2,1)]
   2  2     3.84439804E-01   # Re[R_st(2,2)]
Block sbotmix # sbottom mixing matrix
   1  1     9.99977183E-01   # Re[R_sb(1,1)]
   1  2     6.75522853E-03   # Re[R_sb(1,2)]
   2  1    -6.75522853E-03   # Re[R_sb(2,1)]
   2  2     9.99977183E-01   # Re[R_sb(2,2)]
Block staumix # stau mixing matrix
   1  1     3.15156349E-01   # Re[R_sta(1,1)]
   1  2     9.49039765E-01   # Re[R_sta(1,2)]
   2  1    -9.49039765E-01   # Re[R_sta(2,1)]
   2  2     3.15156349E-01   # Re[R_sta(2,2)]
Block Nmix # neutralino mixing matrix
   1  1    -9.99442786E-01   # Re[N(1,1)]
   1  2    -4.08093051E-04   # Re[N(1,2)]
   1  3    -3.33756040E-02   # Re[N(1,3)]
   1  4    -1.44863426E-04   # Re[N(1,4)]
   2  1     1.71406666E-03   # Re[N(2,1)]
   2  2     9.97864828E-01   # Re[N(2,2)]
   2  3    -6.34628535E-02   # Re[N(2,3)]
   2  4    -1.53399243E-02   # Re[N(2,4)]
   3  1     2.34830786E-02   # Re[N(3,1)]
   3  2    -3.40614283E-02   # Re[N(3,2)]
   3  3    -7.05860850E-01   # Re[N(3,3)]
   3  4     7.07141304E-01   # Re[N(3,4)]
   4  1     2.36585177E-02   # Re[N(4,1)]
   4  2    -5.57264537E-02   # Re[N(4,2)]
   4  3    -7.04711994E-01   # Re[N(4,3)]
   4  4    -7.06905822E-01   # Re[N(4,4)]
Block Umix # chargino mixing matrix
   1  1    -9.95973094E-01   # Re[U(1,1)]
   1  2     8.96526448E-02   # Re[U(1,2)]
   2  1    -8.96526448E-02   # Re[U(2,1)]
   2  2    -9.95973094E-01   # Re[U(2,2)]
Block Vmix # chargino mixing matrix
   1  1     9.99762573E-01   # Re[V(1,1)]
   1  2     2.17898669E-02   # Re[V(1,2)]
   2  1     2.17898669E-02   # Re[V(2,1)]
   2  2    -9.99762573E-01   # Re[V(2,2)]
DECAY        23     2.49520000E+00   # Z
DECAY        24     2.08500000E+00   # W
DECAY   2000011     5.02854972E+01   # ~e^-_R
#    BR                NDA      ID1      ID2
     9.98925449E-01    2     1000022        11   # BR(~e^-_R -> chi^0_1 e^-)
     5.31830419E-04    2     1000025        11   # BR(~e^-_R -> chi^0_3 e^-)
     5.39769744E-04    2     1000035        11   # BR(~e^-_R -> chi^0_4 e^-)
DECAY   1000011     1.44498579E+02   # ~e^-_L
#    BR                NDA      ID1      ID2
     8.71473008E-02    2     1000022        11   # BR(~e^-_L -> chi^0_1 e^-)
     3.03616236E-01    2     1000023        11   # BR(~e^-_L -> chi^0_2 e^-)
     1.36287464E-04    2     1000025        11   # BR(~e^-_L -> chi^0_3 e^-)
     5.46496773E-04    2     1000035        11   # BR(~e^-_L -> chi^0_4 e^-)
     6.03822155E-01    2    -1000024        12   # BR(~e^-_L -> chi^-_1 nu_e)
     4.73152427E-03    2    -1000037        12   # BR(~e^-_L -> chi^-_2 nu_e)
#    BR                NDA      ID1      ID2       ID3
DECAY   2000013     5.03758649E+01   # ~mu^-_R
#    BR                NDA      ID1      ID2
     9.97137352E-01    2     1000022        13   # BR(~mu^-_R -> chi^0_1 mu^-)
     9.77006913E-04    2     1000025        13   # BR(~mu^-_R -> chi^0_3 mu^-)
     9.83450811E-04    2     1000035        13   # BR(~mu^-_R -> chi^0_4 mu^-)
     8.88095584E-04    2    -1000037        14   # BR(~mu^-_R -> chi^-_2 nu_mu)
DECAY   1000013     1.44544014E+02   # ~mu^-_L
#    BR                NDA      ID1      ID2
     8.71204252E-02    2     1000022        13   # BR(~mu^-_L -> chi^0_1 mu^-)
     3.03522648E-01    2     1000023        13   # BR(~mu^-_L -> chi^0_2 mu^-)
     2.91934387E-04    2     1000025        13   # BR(~mu^-_L -> chi^0_3 mu^-)
     7.01499493E-04    2     1000035        13   # BR(~mu^-_L -> chi^0_4 mu^-)
     6.03633446E-01    2    -1000024        14   # BR(~mu^-_L -> chi^-_1 nu_mu)
     4.73004613E-03    2    -1000037        14   # BR(~mu^-_L -> chi^-_2 nu_mu)
#    BR                NDA      ID1      ID2       ID3
DECAY   1000015     8.40440569E+01   # ~tau^-_1
#    BR                NDA      ID1      ID2
     5.56843538E-01    2     1000022        15   # BR(~tau^-_1 -> chi^0_1 tau^-)
     6.33067013E-02    2     1000023        15   # BR(~tau^-_1 -> chi^0_2 tau^-)
     7.05544968E-02    2     1000025        15   # BR(~tau^-_1 -> chi^0_3 tau^-)
     6.78439301E-02    2     1000035        15   # BR(~tau^-_1 -> chi^0_4 tau^-)
     1.25855269E-01    2    -1000024        16   # BR(~tau^-_1 -> chi^-_1 nu_tau)
     1.15596065E-01    2    -1000037        16   # BR(~tau^-_1 -> chi^-_2 nu_tau)
DECAY   2000015     1.49177532E+02   # ~tau^-_2
#    BR                NDA      ID1      ID2
     1.07946955E-01    2     1000022        15   # BR(~tau^-_2 -> chi^0_1 tau^-)
     2.59265999E-01    2     1000023        15   # BR(~tau^-_2 -> chi^0_2 tau^-)
     4.59109575E-02    2     1000025        15   # BR(~tau^-_2 -> chi^0_3 tau^-)
     4.75566919E-02    2     1000035        15   # BR(~tau^-_2 -> chi^0_4 tau^-)
     5.14937834E-01    2    -1000024        16   # BR(~tau^-_2 -> chi^-_1 nu_tau)
     2.43815623E-02    2    -1000037        16   # BR(~tau^-_2 -> chi^-_2 nu_tau)
#    BR                NDA      ID1      ID2       ID3
DECAY   1000012     1.44502739E+02   # ~nu_e
#    BR                NDA      ID1      ID2
     8.68721342E-02    2     1000022        12   # BR(~nu_e -> chi^0_1 nu_e)
     3.02471881E-01    2     1000023        12   # BR(~nu_e -> chi^0_2 nu_e)
     6.39375627E-04    2     1000025        12   # BR(~nu_e -> chi^0_3 nu_e)
     1.37563761E-03    2     1000035        12   # BR(~nu_e -> chi^0_4 nu_e)
     6.08361493E-01    2     1000024        11   # BR(~nu_e -> chi^+_1 e^-)
     2.79477710E-04    2     1000037        11   # BR(~nu_e -> chi^+_2 e^-)
#    BR                NDA      ID1      ID2       ID3
DECAY   1000014     1.44548136E+02   # ~nu_mu
#    BR                NDA      ID1      ID2
     8.68449875E-02    2     1000022        14   # BR(~nu_mu -> chi^0_1 nu_mu)
     3.02377365E-01    2     1000023        14   # BR(~nu_mu -> chi^0_2 nu_mu)
     6.39175902E-04    2     1000025        14   # BR(~nu_mu -> chi^0_3 nu_mu)
     1.37520790E-03    2     1000035        14   # BR(~nu_mu -> chi^0_4 nu_mu)
     6.08173990E-01    2     1000024        13   # BR(~nu_mu -> chi^+_1 mu^-)
     5.89273998E-04    2     1000037        13   # BR(~nu_mu -> chi^+_2 mu^-)
#    BR                NDA      ID1      ID2       ID3
DECAY   1000016     1.57350016E+02   # ~nu_tau
#    BR                NDA      ID1      ID2
     7.98147062E-02    2     1000022        16   # BR(~nu_tau -> chi^0_1 nu_tau)
     2.77900000E-01    2     1000023        16   # BR(~nu_tau -> chi^0_2 nu_tau)
     5.87452304E-04    2     1000025        16   # BR(~nu_tau -> chi^0_3 nu_tau)
     1.26392296E-03    2     1000035        16   # BR(~nu_tau -> chi^0_4 nu_tau)
     5.59615557E-01    2     1000024        15   # BR(~nu_tau -> chi^+_1 tau^-)
     8.08183620E-02    2     1000037        15   # BR(~nu_tau -> chi^+_2 tau^-)
#    BR                NDA      ID1      ID2       ID3
DECAY   2000001     6.26074348E+02   # ~d_R
#    BR                NDA      ID1      ID2
     8.97347916E-03    2     1000022         1   # BR(~d_R -> chi^0_1 d)
     9.91016752E-01    2     1000021         1   # BR(~d_R -> ~g d)
DECAY   1000001     7.57142005E+02   # ~d_L
#    BR                NDA      ID1      ID2
     1.85107803E-03    2     1000022         1   # BR(~d_L -> chi^0_1 d)
     5.82576226E-02    2     1000023         1   # BR(~d_L -> chi^0_2 d)
     2.03549946E-04    2     1000035         1   # BR(~d_L -> chi^0_4 d)
     1.16144660E-01    2    -1000024         2   # BR(~d_L -> chi^-_1 u)
     9.10580411E-04    2    -1000037         2   # BR(~d_L -> chi^-_2 u)
     8.22549628E-01    2     1000021         1   # BR(~d_L -> ~g d)
DECAY   2000003     6.26100022E+02   # ~s_R
#    BR                NDA      ID1      ID2
     8.97313951E-03    2     1000022         3   # BR(~s_R -> chi^0_1 s)
     9.90976986E-01    2     1000021         3   # BR(~s_R -> ~g s)
DECAY   1000003     7.57158553E+02   # ~s_L
#    BR                NDA      ID1      ID2
     1.85105751E-03    2     1000022         3   # BR(~s_L -> chi^0_1 s)
     5.82564415E-02    2     1000023         3   # BR(~s_L -> chi^0_2 s)
     2.11805957E-04    2     1000035         3   # BR(~s_L -> chi^0_4 s)
     1.16142165E-01    2    -1000024         4   # BR(~s_L -> chi^-_1 c)
     9.15215482E-04    2    -1000037         4   # BR(~s_L -> chi^-_2 c)
     8.22532148E-01    2     1000021         3   # BR(~s_L -> ~g s)
DECAY   1000005     8.52611879E+01   # ~b_1
#    BR                NDA      ID1      ID2
     4.89234861E-03    2     1000022         5   # BR(~b_1 -> chi^0_1 b)
     1.44658885E-01    2     1000023         5   # BR(~b_1 -> chi^0_2 b)
     3.71589056E-02    2     1000025         5   # BR(~b_1 -> chi^0_3 b)
     3.71857617E-02    2     1000035         5   # BR(~b_1 -> chi^0_4 b)
     2.85366438E-01    2    -1000024         6   # BR(~b_1 -> chi^-_1 t)
     4.29221383E-01    2    -1000037         6   # BR(~b_1 -> chi^-_2 t)
     6.15162782E-02    2     1000006       -24   # BR(~b_1 -> ~t_1 W^-)
DECAY   2000005     7.77508684E+01   # ~b_2
#    BR                NDA      ID1      ID2
     3.14318093E-02    2     1000022         5   # BR(~b_2 -> chi^0_1 b)
     6.10183676E-04    2     1000023         5   # BR(~b_2 -> chi^0_2 b)
     8.09083134E-02    2     1000025         5   # BR(~b_2 -> chi^0_3 b)
     8.06517966E-02    2     1000035         5   # BR(~b_2 -> chi^0_4 b)
     1.21358189E-03    2    -1000024         6   # BR(~b_2 -> chi^-_1 t)
     1.60617877E-01    2    -1000037         6   # BR(~b_2 -> chi^-_2 t)
     6.29272790E-01    2     1000021         5   # BR(~b_2 -> ~g b)
     1.14984934E-03    2     1000006       -24   # BR(~b_2 -> ~t_1 W^-)
     4.52970304E-03    2     2000006       -24   # BR(~b_2 -> ~t_2 W^-)
     7.52668121E-04    2     2000006       -37   # BR(~b_2 -> ~t_2 H^-)
     2.82822592E-03    2     1000005        23   # BR(~b_2 -> ~b_1 Z)
     3.85807097E-04    2     1000005        36   # BR(~b_2 -> ~b_1 A^0)
     5.24836667E-03    2     1000005        25   # BR(~b_2 -> ~b_1 h^0)
     3.87739695E-04    2     1000005        35   # BR(~b_2 -> ~b_1 H^0)
DECAY   2000002     6.43241586E+02   # ~u_R
#    BR                NDA      ID1      ID2
     3.49465731E-02    2     1000022         2   # BR(~u_R -> chi^0_1 u)
     9.65015817E-01    2     1000021         2   # BR(~u_R -> ~g u)
DECAY   1000002     7.57126478E+02   # ~u_L
#    BR                NDA      ID1      ID2
     1.86810449E-03    2     1000022         2   # BR(~u_L -> chi^0_1 u)
     5.83280092E-02    2     1000023         2   # BR(~u_L -> chi^0_2 u)
     1.50324977E-04    2     1000035         2   # BR(~u_L -> chi^0_4 u)
     1.17028276E-01    2     1000024         1   # BR(~u_L -> chi^+_1 d)
     8.22520871E-01    2     1000021         2   # BR(~u_L -> ~g u)
DECAY   2000004     6.43248746E+02   # ~c_R
#    BR                NDA      ID1      ID2
     3.49461886E-02    2     1000022         4   # BR(~c_R -> chi^0_1 c)
     9.65005275E-01    2     1000021         4   # BR(~c_R -> ~g c)
DECAY   1000004     7.57142982E+02   # ~c_L
#    BR                NDA      ID1      ID2
     1.86806442E-03    2     1000022         4   # BR(~c_L -> chi^0_1 c)
     5.83267595E-02    2     1000023         4   # BR(~c_L -> chi^0_2 c)
     1.52645114E-04    2     1000035         4   # BR(~c_L -> chi^0_4 c)
     1.17025909E-01    2     1000024         3   # BR(~c_L -> chi^+_1 s)
     8.22503386E-01    2     1000021         4   # BR(~c_L -> ~g c)
DECAY   1000006     6.58891837E+01   # ~t_1
#    BR                NDA      ID1      ID2
     7.79257438E-02    2     1000022         6   # BR(~t_1 -> chi^0_1 t)
     2.14427908E-02    2     1000023         6   # BR(~t_1 -> chi^0_2 t)
     2.14138704E-01    2     1000025         6   # BR(~t_1 -> chi^0_3 t)
     2.25116031E-01    2     1000035         6   # BR(~t_1 -> chi^0_4 t)
     4.34099106E-02    2     1000024         5   # BR(~t_1 -> chi^+_1 b)
     4.17849220E-01    2     1000037         5   # BR(~t_1 -> chi^+_2 b)
#    BR                NDA      ID1      ID2       ID3
     1.16770020E-04    3     1000022        24         5   # BR(~t_1 -> chi^0_1 W^+ b)
DECAY   2000006     9.03002648E+01   # ~t_2
#    BR                NDA      ID1      ID2
     1.45099246E-02    2     1000022         6   # BR(~t_2 -> chi^0_1 t)
     1.20351720E-01    2     1000023         6   # BR(~t_2 -> chi^0_2 t)
     2.21605040E-01    2     1000025         6   # BR(~t_2 -> chi^0_3 t)
     2.08971941E-01    2     1000035         6   # BR(~t_2 -> chi^0_4 t)
     2.43501601E-01    2     1000024         5   # BR(~t_2 -> chi^+_1 b)
     1.18444776E-01    2     1000037         5   # BR(~t_2 -> chi^+_2 b)
     4.07147103E-02    2     1000006        23   # BR(~t_2 -> ~t_1 Z)
     3.19002864E-02    2     1000006        25   # BR(~t_2 -> ~t_1 h^0)
DECAY   1000024     1.08535140E-04   # chi^+_1
#    BR                NDA      ID1      ID2
     9.97743481E-01    2     1000022        24   # BR(chi^+_1 -> chi^0_1 W^+)
#    BR                NDA      ID1      ID2       ID3
     2.23025278E-03    3     1000022        -5         6   # BR(chi^+_1 -> chi^0_1 b_bar t)
DECAY   1000037     9.28763295E+00   # chi^+_2
#    BR                NDA      ID1      ID2
     9.84839636E-02    2     1000022        24   # BR(chi^+_2 -> chi^0_1 W^+)
     2.94975450E-01    2     1000023        24   # BR(chi^+_2 -> chi^0_2 W^+)
     1.81094138E-03    2          37   1000022   # BR(chi^+_2 -> H^+ chi^0_1)
     2.91159534E-01    2     1000024        23   # BR(chi^+_2 -> chi^+_1 Z)
     2.95151275E-01    2     1000024        25   # BR(chi^+_2 -> chi^+_1 h^0)
#    BR                NDA      ID1      ID2       ID3
     7.66856798E-03    3     1000024         6        -6   # BR(chi^+_2 -> chi^+_1 t t_bar)
     4.22086612E-04    3     1000024         5        -5   # BR(chi^+_2 -> chi^+_1 b b_bar)
     2.50352511E-03    3     1000022        -5         6   # BR(chi^+_2 -> chi^0_1 b_bar t)
     7.75715178E-03    3     1000023        -5         6   # BR(chi^+_2 -> chi^0_2 b_bar t)
DECAY   1000022     0.00000000E+00   # chi^0_1
DECAY   1000023     1.13445242E-04   # chi^0_2
#    BR                NDA      ID1      ID2
     7.38292693E-01    2     1000022        23   # BR(chi^0_2 -> chi^0_1 Z)
     2.61313824E-01    2     1000022        25   # BR(chi^0_2 -> chi^0_1 h^0)
     1.24057822E-04    2     1000022        22   # BR(chi^0_2 -> chi^0_1 photon)
#    BR                NDA      ID1      ID2       ID3
     2.40890572E-04    3     1000022         5        -5   # BR(chi^0_2 -> chi^0_1 b b_bar)
DECAY   1000025     1.09474889E+01   # chi^0_3
#    BR                NDA      ID1      ID2
     2.48466187E-01    2     1000024       -24   # BR(chi^0_3 -> chi^+_1 W^-)
     2.48466187E-01    2    -1000024        24   # BR(chi^0_3 -> chi^-_1 W^+)
     4.19912442E-02    2     1000022        23   # BR(chi^0_3 -> chi^0_1 Z)
     1.82264296E-01    2     1000023        23   # BR(chi^0_3 -> chi^0_2 Z)
     4.08416671E-04    2     1000022        36   # BR(chi^0_3 -> chi^0_1 A^0)
     4.43420311E-02    2     1000022        25   # BR(chi^0_3 -> chi^0_1 h^0)
     2.16447615E-01    2     1000023        25   # BR(chi^0_3 -> chi^0_2 h^0)
     1.19450152E-03    2     1000022        35   # BR(chi^0_3 -> chi^0_1 H^0)
#    BR                NDA      ID1      ID2       ID3
     1.12249559E-03    3     1000022         6        -6   # BR(chi^0_3 -> chi^0_1 t t_bar)
     3.12707545E-03    3     1000023         6        -6   # BR(chi^0_3 -> chi^0_2 t t_bar)
     1.55649545E-04    3     1000023         5        -5   # BR(chi^0_3 -> chi^0_2 b b_bar)
     5.97809741E-03    3     1000024         5        -6   # BR(chi^0_3 -> chi^+_1 b t_bar)
     5.97809741E-03    3    -1000024        -5         6   # BR(chi^0_3 -> chi^-_1 b_bar t)
DECAY   1000035     9.33502390E+00   # chi^0_4
#    BR                NDA      ID1      ID2
     2.92717241E-01    2     1000024       -24   # BR(chi^0_4 -> chi^+_1 W^-)
     2.92717241E-01    2    -1000024        24   # BR(chi^0_4 -> chi^-_1 W^+)
     4.83717191E-02    2     1000022        23   # BR(chi^0_4 -> chi^0_1 Z)
     7.94957620E-02    2     1000023        23   # BR(chi^0_4 -> chi^0_2 Z)
     4.20383139E-04    2     1000022        36   # BR(chi^0_4 -> chi^0_1 A^0)
     4.46012946E-02    2     1000022        25   # BR(chi^0_4 -> chi^0_1 h^0)
     2.16602499E-01    2     1000023        25   # BR(chi^0_4 -> chi^0_2 h^0)
     1.65950367E-03    2     1000022        35   # BR(chi^0_4 -> chi^0_1 H^0)
#    BR                NDA      ID1      ID2       ID3
     1.42927928E-03    3     1000022         6        -6   # BR(chi^0_4 -> chi^0_1 t t_bar)
     3.39498376E-03    3     1000023         6        -6   # BR(chi^0_4 -> chi^0_2 t t_bar)
     2.04293731E-04    3     1000023         5        -5   # BR(chi^0_4 -> chi^0_2 b b_bar)
     9.15857462E-03    3     1000024         5        -6   # BR(chi^0_4 -> chi^+_1 b t_bar)
     9.15857462E-03    3    -1000024        -5         6   # BR(chi^0_4 -> chi^-_1 b_bar t)
DECAY   1000021     2.93764467E+01   # ~g
#    BR                NDA      ID1      ID2
     2.06962096E-01    2     1000006        -6   # BR(~g -> ~t_1 t_bar)
     2.06962096E-01    2    -1000006         6   # BR(~g -> ~t^*_1 t)
     1.49569378E-01    2     2000006        -6   # BR(~g -> ~t_2 t_bar)
     1.49569378E-01    2    -2000006         6   # BR(~g -> ~t^*_2 t)
     1.43082277E-01    2     1000005        -5   # BR(~g -> ~b_1 b_bar)
     1.43082277E-01    2    -1000005         5   # BR(~g -> ~b^*_1 b)
     2.23161163E-04    2     1000025        21   # BR(~g -> chi^0_3 g)
     2.30360143E-04    2     1000035        21   # BR(~g -> chi^0_4 g)
#    BR                NDA      ID1      ID2       ID3
DECAY        25     3.72437008E-03   # Gamma(h0)
     2.31213153E-03   2        22        22   # BR(h0 -> photon photon)
     1.34769749E-03   2        22        23   # BR(h0 -> photon Z)
     2.35326801E-02   2        23        23   # BR(h0 -> Z Z)
     2.00715100E-01   2       -24        24   # BR(h0 -> W W)
     7.27756647E-02   2        21        21   # BR(h0 -> gluon gluon)
     5.37430257E-09   2       -11        11   # BR(h0 -> Electron electron)
     2.39057665E-04   2       -13        13   # BR(h0 -> Muon muon)
     6.89267110E-02   2       -15        15   # BR(h0 -> Tau tau)
     1.49756985E-07   2        -2         2   # BR(h0 -> Up up)
     2.90599233E-02   2        -4         4   # BR(h0 -> Charm charm)
     6.23331498E-07   2        -1         1   # BR(h0 -> Down down)
     2.25445198E-04   2        -3         3   # BR(h0 -> Strange strange)
     6.00862668E-01   2        -5         5   # BR(h0 -> Bottom bottom)
     2.14251957E-06   2   1000022   1000022   # BR(h0 -> neutralino1 neutralino1)
DECAY        35     1.15796574E+01   # Gamma(HH)
     2.28800933E-08   2        22        22   # BR(HH -> photon photon)
     2.73352903E-07   2        22        23   # BR(HH -> photon Z)
     8.09061143E-06   2        23        23   # BR(HH -> Z Z)
     8.44407230E-06   2       -24        24   # BR(HH -> W W)
     3.04076939E-05   2        21        21   # BR(HH -> gluon gluon)
     1.16553990E-08   2       -11        11   # BR(HH -> Electron electron)
     5.18811282E-04   2       -13        13   # BR(HH -> Muon muon)
     1.49817217E-01   2       -15        15   # BR(HH -> Tau tau)
     5.13058254E-13   2        -2         2   # BR(HH -> Up up)
     9.94941607E-08   2        -4         4   # BR(HH -> Charm charm)
     5.36925537E-03   2        -6         6   # BR(HH -> Top top)
     9.31206851E-07   2        -1         1   # BR(HH -> Down down)
     3.36828628E-04   2        -3         3   # BR(HH -> Strange strange)
     8.35968241E-01   2        -5         5   # BR(HH -> Bottom bottom)
     4.05725527E-03   2  -1000024   1000024   # BR(HH -> Chargino1 chargino1)
     2.57078599E-04   2   1000022   1000022   # BR(HH -> neutralino1 neutralino1)
     1.58629628E-03   2   1000022   1000023   # BR(HH -> neutralino1 neutralino2)
     2.02114015E-03   2   1000023   1000023   # BR(HH -> neutralino2 neutralino2)
     1.95953729E-05   2        25        25   # BR(HH -> h0 h0)
DECAY        36     1.13761707E+01   # Gamma(A0)
     8.56833652E-08   2        22        22   # BR(A0 -> photon photon)
     4.75135284E-07   2        22        23   # BR(A0 -> photon Z)
     7.97913130E-05   2        21        21   # BR(A0 -> gluon gluon)
     1.16208573E-08   2       -11        11   # BR(A0 -> Electron electron)
     5.17273676E-04   2       -13        13   # BR(A0 -> Muon muon)
     1.49374514E-01   2       -15        15   # BR(A0 -> Tau tau)
     4.78848418E-13   2        -2         2   # BR(A0 -> Up up)
     9.28402529E-08   2        -4         4   # BR(A0 -> Charm charm)
     5.42210111E-03   2        -6         6   # BR(A0 -> Top top)
     9.28449885E-07   2        -1         1   # BR(A0 -> Down down)
     3.35831686E-04   2        -3         3   # BR(A0 -> Strange strange)
     8.33512963E-01   2        -5         5   # BR(A0 -> Bottom bottom)
     5.87347992E-03   2  -1000024   1000024   # BR(A0 -> Chargino1 chargino1)
     2.63854904E-04   2   1000022   1000022   # BR(A0 -> neutralino1 neutralino1)
     1.68187982E-03   2   1000022   1000023   # BR(A0 -> neutralino1 neutralino2)
     2.92542627E-03   2   1000023   1000023   # BR(A0 -> neutralino2 neutralino2)
     1.12906802E-05   2        23        25   # BR(A0 -> Z h0)
     5.18464712E-36   2        25        25   # BR(A0 -> h0 h0)
DECAY        37     1.10643086E+01   # Gamma(Hp)
     1.26438052E-08   2       -11        12   # BR(Hp -> Electron nu_e)
     5.40562156E-04   2       -13        14   # BR(Hp -> Muon nu_mu)
     1.52901193E-01   2       -15        16   # BR(Hp -> Tau nu_tau)
     8.73948177E-07   2        -1         2   # BR(Hp -> Down up)
     1.45934832E-05   2        -3         2   # BR(Hp -> Strange up)
     9.03848119E-06   2        -5         2   # BR(Hp -> Bottom up)
     4.46103328E-08   2        -1         4   # BR(Hp -> Down charm)
     3.15096435E-04   2        -3         4   # BR(Hp -> Strange charm)
     1.26570866E-03   2        -5         4   # BR(Hp -> Bottom charm)
     4.48918955E-07   2        -1         6   # BR(Hp -> Down top)
     1.02341724E-05   2        -3         6   # BR(Hp -> Strange top)
     8.41528642E-01   2        -5         6   # BR(Hp -> Bottom top)
     3.40176649E-03   2   1000022   1000024   # BR(Hp -> neutralino1 chargino1)
     9.23998205E-09   2   1000023   1000024   # BR(Hp -> neutralino2 chargino1)
     1.17751273E-05   2        24        25   # BR(Hp -> W h0)
     1.48264011E-10   2        24        35   # BR(Hp -> W HH)
     1.52698757E-10   2        24        36   # BR(Hp -> W A0)
DECAY         6     2.43000000E+00   # top
#    BR                NDA      ID1      ID2
     1.00000000E+00    2           5        24   # BR(t -> b W)
Block HiggsBoundsInputHiggsCouplingsFermions
# ScalarNormEffCoupSq PseudoSNormEffCoupSq NP IP1 IP2 IP2
    9.49773883E-01    0.00000000E+00        3  25   5   5  # h0-b-b eff. coupling^2, normalised to SM
    6.34719397E+02    0.00000000E+00        3  35   5   5  # H0-b-b eff. coupling^2, normalised to SM
    0.00000000E+00    6.34669171E+02        3  36   5   5  # A0-b-b eff. coupling^2, normalised to SM
#
    1.00007914E+00    0.00000000E+00        3  25   6   6  # h0-t-t eff. coupling^2, normalised to SM
    1.49648656E-03    0.00000000E+00        3  35   6   6  # H0-t-t eff. coupling^2, normalised to SM
    0.00000000E+00    1.57562404E-03        3  36   6   6  # A0-t-t eff. coupling^2, normalised to SM
#
    9.49773883E-01    0.00000000E+00        3  25  15  15  # h0-tau-tau eff. coupling^2, normalised to SM
    6.34719397E+02    0.00000000E+00        3  35  15  15  # H0-tau-tau eff. coupling^2, normalised to SM
    0.00000000E+00    6.34669171E+02        3  36  15  15  # A0-tau-tau eff. coupling^2, normalised to SM
#
Block HiggsBoundsInputHiggsCouplingsBosons
    9.99998981E-01        3  25  24  24  # h0-W-W eff. coupling^2, normalised to SM
    1.01941784E-06        3  35  24  24  # H0-W-W eff. coupling^2, normalised to SM
    0.00000000E+00        3  36  24  24  # A0-W-W eff. coupling^2, normalised to SM
#
    9.99998981E-01        3  25  23  23  # h0-Z-Z eff. coupling^2, normalised to SM
    1.01941784E-06        3  35  23  23  # H0-Z-Z eff. coupling^2, normalised to SM
    0.00000000E+00        3  36  23  23  # A0-Z-Z eff. coupling^2, normalised to SM
#
    1.26178957E+00        3  25  21  21  # h0-g-g eff. coupling^2, normalised to SM
    5.64374370E-03        3  35  21  21  # H0-g-g eff. coupling^2, normalised to SM
    1.12566206E-01        3  36  21  21  # A0-g-g eff. coupling^2, normalised to SM
#
    0.00000000E+00        3  25  25  23  # h0-h0-Z eff. coupling^2, normalised to SM
    0.00000000E+00        3  35  25  23  # H0-h0-Z eff. coupling^2, normalised to SM
    1.01941784E-06        3  36  25  23  # A0-h0-Z eff. coupling^2, normalised to SM
    0.00000000E+00        3  35  35  23  # H0-H0-Z eff. coupling^2, normalised to SM
    9.99998981E-01        3  36  35  23  # A0-H0-Z eff. coupling^2, normalised to SM
    0.00000000E+00        3  36  36  23  # A0-A0-Z eff. coupling^2, normalised to SM
#
    0.00000000E+00        4  25  21  21  23  # h0-g-g-Z eff. coupling^2, normalised to SM
    0.00000000E+00        4  35  21  21  23  # H0-g-g-Z eff. coupling^2, normalised to SM
    0.00000000E+00        4  36  21  21  23  # A0-g-g-Z eff. coupling^2, normalised to SM
Block SPhenoLowEnergy  # low energy observables
    1    3.34070152E-04   # BR(b -> s gamma)
    2    1.58823217E-06   # BR(b -> s mu+ mu-)
    3    3.52419730E-05   # BR(b -> s nu nu)
    4    2.77255617E-15   # BR(Bd -> e+ e-)
    5    1.18439670E-10   # BR(Bd -> mu+ mu-)
    6    2.47483339E-08   # BR(Bd -> tau+ tau-)
    7    9.30329888E-14   # BR(Bs -> e+ e-)
    8    3.97434173E-09   # BR(Bs -> mu+ mu-)
    9    8.41532851E-07   # BR(Bs -> tau+ tau-)
   10    9.45241461E-05   # BR(B_u -> tau nu)
   11    9.76398241E-01   # BR(B_u -> tau nu)/BR(B_u -> tau nu)_SM
   12    5.42075438E-01   # |Delta(M_Bd)| [ps^-1] 
   13    1.93565500E+01   # |Delta(M_Bs)| [ps^-1] 
   14    0.00000000E+00   # neutron EDM according to the chiral quark model
   15    0.00000000E+00   # neutron EDM according to the relativistic quark-parton model
   16    2.15777825E-03   # epsilon_K
   17    2.28166578E-15   # Delta(M_K)
   18    2.47949720E-11   # BR(K^0 -> pi^0 nu nu)
   19    8.28920459E-11   # BR(K^+ -> pi^+ nu nu)
   20   -2.05296148E-16   # Delta(g-2)_electron/2
   21   -8.77708275E-12   # Delta(g-2)_muon/2
   22   -2.48516519E-09   # Delta(g-2)_tau/2
   23    0.00000000E+00   # electric dipole moment of the electron
   24    0.00000000E+00   # electric dipole moment of the muon
   25    0.00000000E+00   # electric dipole moment of the tau
   26    0.00000000E+00   # Br(mu -> e gamma)
   27    0.00000000E+00   # Br(tau -> e gamma)
   28    0.00000000E+00   # Br(tau -> mu gamma)
   29    0.00000000E+00   # Br(mu -> 3 e)
   30    0.00000000E+00   # Br(tau -> 3 e)
   31    0.00000000E+00   # Br(tau -> 3 mu)
   39    6.41677072E-05   # Delta(rho_parameter)
   40    0.00000000E+00   # BR(Z -> e mu)
   41    0.00000000E+00   # BR(Z -> e tau)
   42    0.00000000E+00   # BR(Z -> mu tau)
Block FWCOEF Q=  1.60000000E+02  # Wilson coefficients at scale Q
#    id        order  M        value         comment
     0305 4422   00   0    -1.88819110E-01   # C7
     0305 4422   00   2    -2.00685197E-01   # C7
     0305 4322   00   2    -4.59869973E-04   # C7'
     0305 6421   00   0    -9.52278348E-02   # C8
     0305 6421   00   2    -1.19329602E-01   # C8
     0305 6321   00   2    -6.00659648E-04   # C8'
 03051111 4133   00   0     1.61424081E+00   # C9 e+e-
 03051111 4133   00   2     1.61457752E+00   # C9 e+e-
 03051111 4233   00   2     1.00202725E-04   # C9' e+e-
 03051111 4137   00   0    -4.43693291E+00   # C10 e+e-
 03051111 4137   00   2    -4.43424096E+00   # C10 e+e-
 03051111 4237   00   2    -7.54459864E-04   # C10' e+e-
 03051313 4133   00   0     1.61424081E+00   # C9 mu+mu-
 03051313 4133   00   2     1.61457744E+00   # C9 mu+mu-
 03051313 4233   00   2     1.00201463E-04   # C9' mu+mu-
 03051313 4137   00   0    -4.43693291E+00   # C10 mu+mu-
 03051313 4137   00   2    -4.43424103E+00   # C10 mu+mu-
 03051313 4237   00   2    -7.54458677E-04   # C10' mu+mu-
 03051212 4137   00   0     1.50535012E+00   # C11 nu_1 nu_1
 03051212 4137   00   2     1.50476818E+00   # C11 nu_1 nu_1
 03051212 4237   00   2     1.63599717E-04   # C11' nu_1 nu_1
 03051414 4137   00   0     1.50535012E+00   # C11 nu_2 nu_2
 03051414 4137   00   2     1.50476818E+00   # C11 nu_2 nu_2
 03051414 4237   00   2     1.63599987E-04   # C11' nu_2 nu_2
 03051616 4137   00   0     1.50535012E+00   # C11 nu_3 nu_3
 03051616 4137   00   2     1.50476818E+00   # C11 nu_3 nu_3
 03051616 4237   00   2     1.63675972E-04   # C11' nu_3 nu_3
Block IMFWCOEF Q=  1.60000000E+02  # Im(Wilson coefficients) at scale Q
#    id        order  M        value         comment
     0305 4422   00   0     3.85853089E-07   # C7
     0305 4422   00   2    -4.73557757E-06   # C7
     0305 4322   00   2     9.88190962E-07   # C7'
     0305 6421   00   0     3.30508689E-07   # C8
     0305 6421   00   2    -6.70920997E-06   # C8
     0305 6321   00   2     3.24083669E-07   # C8'
 03051111 4133   00   2     5.84045407E-07   # C9 e+e-
 03051111 4233   00   2     2.97783683E-06   # C9' e+e-
 03051111 4137   00   2     3.79316262E-06   # C10 e+e-
 03051111 4237   00   2    -2.24339537E-05   # C10' e+e-
 03051313 4133   00   2     5.84043885E-07   # C9 mu+mu-
 03051313 4233   00   2     2.97783649E-06   # C9' mu+mu-
 03051313 4137   00   2     3.79316434E-06   # C10 mu+mu-
 03051313 4237   00   2    -2.24339547E-05   # C10' mu+mu-
 03051212 4137   00   2    -7.90288570E-07   # C11 nu_1 nu_1
 03051212 4237   00   2     4.86466436E-06   # C11' nu_1 nu_1
 03051414 4137   00   2    -7.90288487E-07   # C11 nu_2 nu_2
 03051414 4237   00   2     4.86466436E-06   # C11' nu_2 nu_2
 03051616 4137   00   2    -7.90265152E-07   # C11 nu_3 nu_3
 03051616 4237   00   2     4.86466435E-06   # C11' nu_3 nu_3
