BLOCK SPINFO
   1   SPheno
   2   v4.0.5be

BLOCK SPHENOINFO
   1   2
   2   2

BLOCK MODSEL
   1   0

BLOCK MINPAR
   3    42.714408
   4    1

BLOCK EXTPAR
   0    3634.0598
   1   -1544.7131
   2   -4565.8111
   3    1310.3839
   11    2357.7724
   12    6892.8886
   13    3328.0046
   23    3041.5268
   25    41.352021
   26    4613.7587
   31    3281.4908
   32    3281.4908
   33    2787.7913
   34    4726.0645
   35    4726.0645
   36    4577.3305
   41    2114.5668
   42    2114.5668
   43    4219.1776
   44    1577.8816
   45    1577.8816
   46    3040.5577
   47    4143.9579
   48    4143.9579
   49    3098.5131

BLOCK SMINPUTS
   1    127.90897
   2    1.1663787e-05
   3    0.1184
   4    91.1876
   5    4.18
   6    173.2
   7    1.777
   8    0
   11    0.00051099893
   12    0
   13    0.10565837
   14    0
   21    0.005
   22    0.0025
   23    0.095
   24    1.27

BLOCK GAUGE Q=  3634.0598
   1    0.35536298
   2    0.66519887
   3    1.219778

BLOCK YU Q=  3634.0598
   1   1    8.3868234e-06
   2   2    0.0042605063
   3   3    1.0131956

BLOCK YD Q=  3634.0598
   1   1    0.00069690644
   2   2    0.013241222
   3   3    0.69111281

BLOCK YE Q=  3634.0598
   1   1    0.00012161527
   2   2    0.025146181
   3   3    0.42291739

BLOCK AU Q=  3634.0598
   1   1    0
   2   2    0
   3   3    2357.7725

BLOCK AD Q=  3634.0598
   1   1    0
   2   2    0
   3   3    6892.8898

BLOCK AE Q=  3634.0598
   1   1    0
   2   2    0
   3   3    3328.0045

BLOCK MSOFT Q=  3634.0598
   1   -1544.7131
   2   -4565.8111
   3    1310.3839
   21    12036950
   22   -9022784.9
   31    3281.4908
   32    3281.4908
   33    2787.7913
   34    4726.0645
   35    4726.0645
   36    4577.3305
   41    2114.5668
   42    2114.5668
   43    4219.1776
   44    1577.8816
   45    1577.8816
   46    3040.5577
   47    4143.9579
   48    4143.9579
   49    3098.5131

BLOCK MASS
   6    173.2
   23    91.1876
   24    80.429995
   15    1.777
   25    120.06314
   35    4613.3739
   36    4613.7587
   37    4614.2332
   1000001    2213.4918
   2000001    4193.818
   1000002    2212.0925
   2000002    1659.2248
   1000003    2213.4905
   2000003    4193.8128
   1000004    2212.0916
   2000004    1659.2254
   1000005    3144.3251
   2000005    4274.3988
   1000006    3087.8545
   2000006    4276.8824
   1000011    3314.1492
   2000011    4730.8371
   1000012    3312.7799
   1000013    3314.1349
   2000013    4730.7909
   1000014    3312.7663
   1000015    2819.9056
   2000015    4568.7927
   1000016    2818.7803
   1000021    1551.339
   1000022   -1529.5884
   1000023   -3053.9021
   1000025    3056.0167
   1000035   -4513.2918
   1000024    3053.9961
   1000037    4513.3496

BLOCK ALPHA
      -0.023429934

BLOCK HMIX Q=  3634.0598
   1    3041.5268
   2    41.352021
   3    243.0525
   4    21286770

BLOCK STOPMIX
   1   1   -0.034208845
   1   2    0.99941471
   2   1   -0.99941471
   2   2   -0.034208845

BLOCK SBOTMIX
   1   1    0.02471102
   1   2    0.99969464
   2   1   -0.99969464
   2   2    0.02471102

BLOCK STAUMIX
   1   1    0.99987023
   1   2    0.016109612
   2   1   -0.016109612
   2   2    0.99987023

BLOCK NMIX
   1   1   -0.99976567
   1   2    0.00022933718
   1   3   -0.019466425
   1   4   -0.0094660154
   2   1    0.020455416
   2   2    0.036019629
   2   3   -0.70665949
   2   4   -0.70634024
   3   1    0.0070688087
   3   2   -0.007371542
   3   3   -0.70699572
   3   4    0.70714407
   4   1   -0.00045571316
   4   2    0.99932387
   4   3    0.020260127
   4   4    0.030677769

BLOCK UMIX
   1   1   -0.029258079
   1   2    0.99957189
   2   1   -0.99957189
   2   2   -0.029258079

BLOCK VMIX
   1   1    0.044029848
   1   2    0.99903022
   2   1    0.99903022
   2   2   -0.044029848

BLOCK HIGGSBOUNDSINPUTHIGGSCOUPLINGSFERMIONS
       0, 1709.9896,3,36,15,15

BLOCK HIGGSBOUNDSINPUTHIGGSCOUPLINGSBOSONS
       0,4,36,21,21,23

BLOCK SPHENOLOWENERGY
   1    0.00032690695
   2    1.5899806e-06
   3    3.5263885e-05
   4    2.850986e-15
   5    1.2179115e-10
   6    2.5511711e-08
   7    9.5832964e-14
   8    4.0939905e-09
   9    8.6894196e-07
   10    9.6253015e-05
   11    0.99425679
   12    0.5421067
   13    19.367075
   14    0
   15    0
   16    0.0021579698
   17    2.2816656e-15
   18    2.4806082e-11
   19    8.2921533e-11
   20   -9.3431526e-16
   21   -3.9944926e-11
   22   -1.2569202e-08
   23    0
   24    0
   25    0
   26    0
   27    0
   28    0
   29    0
   30    0
   31    0
   39    6.9961763e-05
   40    0
   41    0
   42    0

BLOCK FWCOEF Q=  160
   305   4422   0   0   -0.18881911
   305   4422   0   2   -0.19585885
   305   4322   0   2   -0.00021563199
   305   6421   0   0   -0.095227835
   305   6421   0   2   -0.10335633
   305   6321   0   2   -0.00022242302
   3051111   4133   0   0    1.6237612
   3051111   4133   0   2    1.6240207
   3051111   4233   0   2    5.3601324e-05
   3051111   4137   0   0   -4.4464533
   3051111   4137   0   2   -4.4459112
   3051111   4237   0   2   -0.00039746389
   3051313   4133   0   0    1.6237612
   3051313   4133   0   2    1.6240198
   3051313   4233   0   2    5.3601196e-05
   3051313   4137   0   0   -4.4464533
   3051313   4137   0   2   -4.4459121
   3051313   4237   0   2   -0.00039746396
   3051212   4137   0   0    1.5053501
   3051212   4137   0   2    1.5052328
   3051212   4237   0   2    8.6002988e-05
   3051414   4137   0   0    1.5053501
   3051414   4137   0   2    1.5052328
   3051414   4237   0   2    8.6003005e-05
   3051616   4137   0   0    1.5053501
   3051616   4137   0   2    1.5052328
   3051616   4237   0   2    8.6007739e-05

BLOCK IMFWCOEF Q=  160
   305   4422   0   0    3.857753e-07
   305   4422   0   2    4.6826489e-06
   305   4322   0   2   -2.8112368e-06
   305   6421   0   0    3.3044205e-07
   305   6421   0   2   -2.6449801e-05
   305   6321   0   2   -2.5169486e-06
   3051111   4133   0   2    6.0291372e-07
   3051111   4233   0   2    1.3604528e-06
   3051111   4137   0   2   -3.7292129e-06
   3051111   4237   0   2   -1.0096314e-05
   3051313   4133   0   2    6.0291006e-07
   3051313   4233   0   2    1.360452e-06
   3051313   4137   0   2   -3.7292162e-06
   3051313   4237   0   2   -1.0096317e-05
   3051212   4137   0   2    8.0728922e-07
   3051212   4237   0   2    2.1846362e-06
   3051414   4137   0   2    8.0728911e-07
   3051414   4237   0   2    2.1846362e-06
   3051616   4137   0   2    8.0686363e-07
   3051616   4237   0   2    2.1846362e-06

DECAY 23  2.4952


DECAY 24  2.085


DECAY 1000011  2.5762949
    0.99949369   2    1000022    11
    0.00028412181   2    1000023    11
    0.00022054473   2   -1000024    12

DECAY 2000011  19.055478
    0.99980119   2    1000022    11
    0.00017759807   2    1000023    11

DECAY 1000013  2.5772224
    0.99912899   2    1000022    13
    0.00046770252   2    1000023    13
    0.00022044311   2   -1000024    14
    0.00018286312   2    1000025    13

DECAY 2000013  19.101898
    0.99735814   2    1000022    13
    0.0010589557   2   -1000024    14
    0.0007064855   2    1000023    13
    0.00054988691   2    1000025    13
    0.00032650063   2    1000013    25

DECAY 1000015  1.7674656
    1   2    1000022    15

DECAY 2000015  36.100972
    0.50099982   2    1000022    15
    0.13744382   2   -1000024    16
    0.11045567   2    1000016   -24
    0.068820932   2    1000023    15
    0.068784057   2    1000025    15
    0.058415317   2    1000015    25
    0.055079219   2    1000015    23

DECAY 1000012  2.578719
    0.99940994   2    1000022    12
    0.00049415866   2    1000024    11

DECAY 1000014  2.579636
    0.99904611   2    1000022    14
    0.00085803686   2    1000024    13

DECAY 1000016  1.7632667
    1   2    1000022    16

DECAY 1000001  45.315293
    0.99813497   2    1000021    1
    0.0018650299   2    1000022    1

DECAY 2000001  248.39655
    0.99291724   2    1000021    1
    0.0070816849   2    1000022    1

DECAY 1000003  45.315161
    0.99813496   2    1000021    3
    0.0018650445   2    1000022    3

DECAY 2000003  248.40523
    0.9928805   2    1000021    3
    0.0070814388   2    1000022    3

DECAY 1000005  143.20742
    0.99212455   2    1000021    5
    0.0072225807   2    1000022    5
    0.00033427065   2    1000023    5
    0.00031860391   2    1000025    5

DECAY 2000005  297.57289
    0.85474956   2    1000021    5
    0.069113809   2   -1000024    6
    0.022665555   2    1000006   -24
    0.016330255   2    1000023    5
    0.016315803   2    1000025    5
    0.014080195   2    1000005    25
    0.0052118115   2    1000005    23
    0.0015330135   2    1000022    5

DECAY 2000002  2.1566787
    0.96128059   2    1000021    2
    0.038719414   2    1000022    2

DECAY 1000002  45.175632
    0.9981443   2    1000021    2
    0.0018557039   2    1000022    2

DECAY 2000004  2.156509
    0.96127956   2    1000021    4
    0.038720439   2    1000022    4

DECAY 1000004  45.175403
    0.99814429   2    1000021    4
    0.0018557018   2    1000022    4

DECAY 1000006  138.11537
    0.97013399   2    1000021    6
    0.028220816   2    1000022    6
    0.0014260868   2    1000021    4
    0.00021654095   2    1000024    5

DECAY 2000006  297.24111
    0.85479028   2    1000021    6
    0.034655504   2    1000023    6
    0.034450053   2    1000025    6
    0.032775063   2    1000024    5
    0.019906005   2    1000006    25
    0.011379409   2    1000006    23
    0.010514366   2    1000005    24
    0.0015293254   2    1000022    6

DECAY 1000024  2.2774533
    0.84090883   2    1000022    24
    0.052480957   2    1000016   -15
    0.041578974   3    1000021   -5    6
    0.040343705   3    1000022   -5    6
    0.0093395723   2    1000004   -3
    0.0077608707   2    1000002   -1
    0.0035814308   2   -1000003    4
    0.0034154522   2   -1000001    2
    0.00036015339   2    2000004   -3
    0.00020007263   2   -1000015    16

DECAY 1000037  198.97802
    0.17261358   2   -1000003    4
    0.17261352   2   -1000001    2
    0.17256472   2    1000004   -3
    0.17256456   2    1000002   -1
    0.037392566   2    1000024    25
    0.037085882   2    1000016   -15
    0.037041734   2   -1000015    16
    0.034760476   2    1000024    23
    0.034729158   2    1000025    24
    0.032852811   2    1000023    24
    0.021200016   2    1000014   -13
    0.021199578   2    1000012   -11
    0.021182027   2   -1000013    14
    0.021181601   2   -1000011    12
    0.0031291119   2    2000006   -5
    0.0022996035   3    1000024    6   -6
    0.0020147335   2   -2000005    6
    0.0018486743   3    1000023   -5    6
    0.0016148046   3    1000025   -5    6

DECAY 1000022 -1


DECAY 1000023  2.0613203
    0.74482376   2    1000022    25
    0.099249115   2    1000022    23
    0.03153792   3    1000021    6   -6
    0.028819949   2    1000015   -15
    0.028819949   2   -1000015    15
    0.02089912   3    1000022    6   -6
    0.015678293   3    1000021    5   -5
    0.0035648677   2    1000004   -4
    0.0035648677   2   -1000004    4
    0.0034763685   2    1000002   -2
    0.0034763685   2   -1000002    2
    0.0031825816   2    1000003   -3
    0.0031825816   2   -1000003    3
    0.0023125276   2    1000001   -1
    0.0023125276   2   -1000001    1
    0.0012315013   2    2000004   -4
    0.0012315013   2   -2000004    4
    0.0010315377   2    2000002   -2
    0.0010315377   2   -2000002    2
    0.00044120534   3    1000022    5   -5

DECAY 1000025  3.6814419
    0.46686282   2    1000022    23
    0.45908106   2    1000022    25
    0.017761781   3    1000021    6   -6
    0.016284446   2    1000015   -15
    0.016284446   2   -1000015    15
    0.012422292   3    1000022    6   -6
    0.0088812272   3    1000021    5   -5
    0.00058280093   2    1000003   -3
    0.00058280093   2   -1000003    3
    0.00024600935   3    1000022    5   -5
    0.00018072163   2    2000004   -4
    0.00018072163   2   -2000004    4

DECAY 1000035  207.52561
    0.082761347   2    1000004   -4
    0.082761347   2   -1000004    4
    0.08276127   2    1000002   -2
    0.08276127   2   -1000002    2
    0.082722   2    1000003   -3
    0.082722   2   -1000003    3
    0.082721916   2    1000001   -1
    0.082721916   2   -1000001    1
    0.037949081   2    1000025    25
    0.034771961   2    1000024   -24
    0.034771961   2   -1000024    24
    0.034451669   2    1000023    25
    0.031220869   2    1000025    23
    0.017790485   2    1000016   -16
    0.017790485   2   -1000016    16
    0.017745029   2    1000015   -15
    0.017745029   2   -1000015    15
    0.010173591   2    1000014   -14
    0.010173591   2   -1000014    14
    0.010173395   2    1000012   -12
    0.010173395   2   -1000012    12
    0.010144077   2    1000013   -13
    0.010144077   2   -1000013    13
    0.010143864   2    1000011   -11
    0.010143864   2   -1000011    11
    0.0018486195   3    1000024    5   -6
    0.0018486195   3   -1000024   -5    6
    0.0015240988   2    2000005   -5
    0.0015240988   2   -2000005    5
    0.0013053903   2    1000023    23
    0.0011391788   2    2000006   -6
    0.0011391788   2   -2000006    6
    0.0011189872   3    1000025    6   -6
    0.0010134956   3    1000023    6   -6

DECAY 1000021  2.2190777e-09
    0.5025972   3    1000022    2   -2
    0.48512809   3    1000022    4   -4
    0.01048049   2    1000022    21
    0.00078757102   3    1000022    1   -1
    0.00078740104   3    1000022    3   -3
    0.00021925042   3    1000022    5   -5

DECAY 25  0.0033275201
    0.64422826   2   -5    5
    0.15409939   2   -24    24
    0.075227896   2    21    21
    0.073685183   2   -15    15
    0.031964387   2   -4    4
    0.016891581   2    23    23
    0.0023163489   2    22    22
    0.0010883742   2    22    23
    0.00025557924   2   -13    13
    0.00024216412   2   -3    3
    6.6956169e-07   2   -1    1
    1.6473749e-07   2   -2    2
    5.7457748e-09   2   -11    11

DECAY 35  63.578297
    0.78277683   2   -5    5
    0.21191675   2   -15    15
    0.0036967171   2    1000022    1000025
    0.00074622891   2   -13    13
    0.00044228101   2   -6    6
    0.00027073526   2   -3    3
    5.9088823e-05   2    1000022    1000023
    2.8789151e-05   2   -2000004    1000004
    2.8789151e-05   2   -1000004    2000004
    2.5360862e-05   2    1000022    1000022
    4.0726791e-06   2    25    25
    2.7863914e-06   2    21    21
    7.4866889e-07   2   -1    1
    1.7726303e-07   2   -1000004    1000004
    1.7690439e-07   2   -1000002    1000002
    1.4187969e-07   2   -1000001    1000001
    1.4175799e-07   2   -1000003    1000003
    1.0627255e-07   2    23    23
    1.9132072e-08   2   -24    24
    1.7353599e-08   2   -2000002    2000002
    1.7225304e-08   2   -2000004    2000004
    1.6757664e-08   2   -11    11
    1.3838892e-08   2   -4    4
    4.4634932e-10   2    22    22
    2.2313034e-10   2    22    23
    1.1155823e-10   2   -2000002    1000002
    1.1155823e-10   2   -1000002    2000002
    7.1529684e-14   2   -2    2

DECAY 36  60.192485
    0.78249081   2   -5    5
    0.21183946   2   -15    15
    0.0040938336   2    1000022    1000023
    0.00074595537   2   -13    13
    0.00038474763   2   -6    6
    0.00027063441   2   -3    3
    5.6849337e-05   2    1000022    1000025
    4.6376391e-05   2    1000022    1000022
    3.0410691e-05   2   -2000004    1000004
    3.0410691e-05   2   -1000004    2000004
    9.4140513e-06   2    21    21
    7.4838427e-07   2   -1    1
    2.8001453e-07   2    23    25
    2.524939e-08   2    22    22
    1.9876773e-08   2    22    23
    1.675151e-08   2   -11    11
    1.2491844e-08   2   -4    4
    1.1784171e-10   2   -2000002    1000002
    1.1784171e-10   2   -1000002    2000002
    6.4582818e-14   2   -2    2
    5.6302999e-39   2    25    25

DECAY 37  67.018326
    0.74274185   2   -5    6
    0.25121764   2   -15    16
    0.0037708716   2    1000022    1000024
    0.001100525   2   -5    4
    0.00088814367   2   -13    14
    0.00024955231   2   -3    4
    1.1743088e-05   2   -3    2
    7.8588829e-06   2   -5    2
    7.4780715e-06   2   -1000003    1000004
    2.4031177e-06   2   -3    6
    6.9247067e-07   2   -1    2
    4.0007244e-07   2   -1000001    1000004
    2.5163857e-07   2    24    25
    2.1324143e-07   2   -1000001    2000002
    2.1280826e-07   2   -1000003    2000004
    9.3126226e-08   2   -1    6
    3.3340061e-08   2   -1    4
    2.0773773e-08   2   -11    12
    1.1397608e-08   2   -1000003    2000002
    1.1390483e-08   2   -1000001    2000004
    3.9289847e-11   2   -1000001    1000002
    2.1010053e-12   2   -1000003    1000002

DECAY 6  2.43
    1   2    5    24

DECAY 15 -1
