BLOCK SPINFO
   1   SPheno
   2   v4.0.5be

BLOCK SPHENOINFO
   1   2
   2   2

BLOCK MODSEL
   1   0

BLOCK MINPAR
   3    46.567186
   4    1

BLOCK EXTPAR
   0    3235.3089
   1   -2236.0205
   2   -4887.748
   3    2908.6672
   11    7283.4189
   12   -2553.2539
   13    33.924045
   23    560.30419
   25    45.36016
   26    1344.5886
   31    3460.2121
   32    3460.2121
   33    1139.1107
   34    1652.1685
   35    1652.1685
   36    4241.2712
   41    3971.3786
   42    3971.3786
   43    3099.733
   44    2606.2706
   45    2606.2706
   46    3448.3886
   47    1604.1631
   48    1604.1631
   49    3387.1014

BLOCK SMINPUTS
   1    127.90897
   2    1.1663787e-05
   3    0.1184
   4    91.1876
   5    4.18
   6    173.2
   7    1.777
   8    0
   11    0.00051099893
   12    0
   13    0.10565837
   14    0
   21    0.005
   22    0.0025
   23    0.095
   24    1.27

BLOCK GAUGE Q=  3235.3089
   1    0.35536298
   2    0.66519887
   3    1.219778

BLOCK YU Q=  3235.3089
   1   1    8.3864094e-06
   2   2    0.004260296
   3   3    1.0131456

BLOCK YD Q=  3235.3089
   1   1    0.00076441797
   2   2    0.014523941
   3   3    0.75806309

BLOCK YE Q=  3235.3089
   1   1    0.00013339652
   2   2    0.027582171
   3   3    0.46388673

BLOCK AU Q=  3235.3089
   1   1    0
   2   2    0
   3   3    7283.4191

BLOCK AD Q=  3235.3089
   1   1    0
   2   2    0
   3   3   -2553.2538

BLOCK AE Q=  3235.3089
   1   1    0
   2   2    0
   3   3    33.924046

BLOCK MSOFT Q=  3235.3089
   1   -2236.0205
   2   -4887.748
   3    2908.6672
   21    1597058.9
   22   -137275.45
   31    3460.2121
   32    3460.2121
   33    1139.1107
   34    1652.1685
   35    1652.1685
   36    4241.2712
   41    3971.3786
   42    3971.3786
   43    3099.733
   44    2606.2706
   45    2606.2706
   46    3448.3886
   47    1604.1631
   48    1604.1631
   49    3387.1014

BLOCK MASS
   6    173.2
   23    91.1876
   24    80.429995
   15    1.777
   25    127.29853
   35    1344.4439
   36    1344.5886
   37    1347.6136
   1000001    4083.6286
   2000001    1773.9938
   1000002    4082.8602
   2000002    2737.7911
   1000003    4083.6248
   2000003    1773.9837
   1000004    4082.8565
   2000004    2737.7904
   1000005    3145.0158
   2000005    3464.8073
   1000006    3069.8667
   2000006    3409.6672
   1000011    3486.2083
   2000011    1669.987
   1000012    3484.8942
   1000013    3486.1847
   2000013    1669.9181
   1000014    3484.8674
   1000015    1157.9824
   2000015    4237.1716
   1000016    1154.9282
   1000021    3133.0857
   1000022   -566.83313
   1000023    569.30424
   1000025   -2203.9057
   1000035   -4835.8675
   1000024    568.06316
   1000037    4835.926

BLOCK ALPHA
      -0.021719439

BLOCK HMIX Q=  3235.3089
   1    560.30419
   2    45.36016
   3    243.1246
   4    1807918.6

BLOCK STOPMIX
   1   1   -0.89392295
   1   2    0.44822065
   2   1   -0.44822065
   2   2   -0.89392295

BLOCK SBOTMIX
   1   1    0.999691
   1   2    0.024857783
   2   1   -0.024857783
   2   2    0.999691

BLOCK STAUMIX
   1   1    0.99999656
   1   2    0.0026217304
   2   1   -0.0026217304
   2   2    0.99999656

BLOCK NMIX
   1   1   -0.018753838
   1   2    0.01270807
   1   3   -0.70782517
   1   4   -0.70602431
   2   1    0.011548609
   2   2   -0.010523868
   2   3   -0.70636738
   2   4    0.70767294
   3   1    0.9997574
   3   2    0.00060540376
   3   3   -0.0051177353
   3   4   -0.021414465
   4   1    0.00024542922
   4   2   -0.99986368
   4   3   -0.0015646864
   4   4   -0.016434868

BLOCK UMIX
   1   1   -0.002212868
   1   2    0.99999755
   2   1   -0.99999755
   2   2   -0.002212868

BLOCK VMIX
   1   1    0.023243437
   1   2    0.99972984
   2   1    0.99972984
   2   2   -0.023243437

BLOCK HIGGSBOUNDSINPUTHIGGSCOUPLINGSFERMIONS
       0, 2057.5441,3,36,15,15

BLOCK HIGGSBOUNDSINPUTHIGGSCOUPLINGSBOSONS
       0,4,36,21,21,23

BLOCK SPHENOLOWENERGY
   1    0.00036367615
   2    1.5885907e-06
   3    3.5277313e-05
   4    2.8666572e-15
   5    1.2246071e-10
   6    2.5661146e-08
   7    9.5956902e-14
   8    4.0992884e-09
   9    8.7036485e-07
   10    8.8963173e-05
   11    0.91895552
   12    0.54216457
   13    19.332658
   14    0
   15    0
   16    0.0021586151
   17    2.2816797e-15
   18    2.4814659e-11
   19    8.2942586e-11
   20   -8.6997769e-16
   21   -3.7191676e-11
   22   -2.1173315e-08
   23    0
   24    0
   25    0
   26    0
   27    0
   28    0
   29    0
   30    0
   31    0
   39    6.8662801e-05
   40    0
   41    0
   42    0

BLOCK FWCOEF Q=  160
   305   4422   0   0   -0.18881911
   305   4422   0   2   -0.23472278
   305   4322   0   2   -0.0008241973
   305   6421   0   0   -0.095227835
   305   6421   0   2   -0.1361606
   305   6321   0   2   -0.00077108602
   3051111   4133   0   0    1.6198377
   3051111   4133   0   2    1.6204975
   3051111   4233   0   2    0.00044639214
   3051111   4137   0   0   -4.4425298
   3051111   4137   0   2   -4.4434282
   3051111   4237   0   2   -0.0033368015
   3051313   4133   0   0    1.6198377
   3051313   4133   0   2    1.6204966
   3051313   4233   0   2    0.00044638218
   3051313   4137   0   0   -4.4425298
   3051313   4137   0   2   -4.4434291
   3051313   4237   0   2   -0.0033367956
   3051212   4137   0   0    1.5053501
   3051212   4137   0   2    1.5055449
   3051212   4237   0   2    0.00072265415
   3051414   4137   0   0    1.5053501
   3051414   4137   0   2    1.5055449
   3051414   4237   0   2    0.00072265603
   3051616   4137   0   0    1.5053501
   3051616   4137   0   2    1.5055442
   3051616   4237   0   2    0.00072318781

BLOCK IMFWCOEF Q=  160
   305   4422   0   0    3.8575902e-07
   305   4422   0   2   -7.5021257e-07
   305   4322   0   2   -6.6429449e-06
   305   6421   0   0    3.3042811e-07
   305   6421   0   2   -3.129816e-05
   305   6321   0   2   -3.9559931e-06
   3051111   4133   0   2    8.0345956e-07
   3051111   4233   0   2    1.1213963e-05
   3051111   4137   0   2   -3.9060755e-06
   3051111   4237   0   2   -8.3835802e-05
   3051313   4133   0   2    8.034527e-07
   3051313   4233   0   2    1.1213941e-05
   3051313   4137   0   2   -3.9060822e-06
   3051313   4237   0   2   -8.383585e-05
   3051212   4137   0   2    8.4918094e-07
   3051212   4237   0   2    1.8156401e-05
   3051414   4137   0   2    8.4918074e-07
   3051414   4237   0   2    1.8156401e-05
   3051616   4137   0   2    8.3678703e-07
   3051616   4237   0   2    1.8156399e-05

DECAY 23  2.4952


DECAY 24  2.085


DECAY 2000011  0.0031854037
    0.72536895   2    1000022    11
    0.27448592   2    1000023    11
    0.00014512963   2   -1000024    12

DECAY 1000011  1.5817023
    0.99966845   2    1000025    11
    0.00017463111   2    1000023    11

DECAY 2000013  0.04271031
    0.46273079   2   -1000024    14
    0.28617892   2    1000022    13
    0.25109029   2    1000023    13

DECAY 1000013  1.6321839
    0.96872611   2    1000025    13
    0.015449903   2    1000023    13
    0.015415851   2    1000022    13
    0.00032068531   2    2000013    25

DECAY 1000015  2.8585932
    0.50245061   2    1000022    15
    0.49751581   2    1000023    15

DECAY 2000015  46.891261
    0.37305422   2   -1000024    16
    0.24148679   2    1000025    15
    0.18706215   2    1000022    15
    0.18619528   2    1000023    15
    0.0060104769   2    1000016   -24
    0.0031166448   2    1000015    25
    0.0030002197   2    1000015    23

DECAY 1000012  1.5991163
    0.98295044   2    1000025    12
    0.009821639   2    1000024    11
    0.0046956798   2    1000022    12
    0.0025322435   2    1000023    12

DECAY 1000014  1.6490493
    0.95315983   2    1000025    14
    0.039830964   2    1000024    13
    0.0045534561   2    1000022    14
    0.0024555464   2    1000023    14

DECAY 1000016  2.8472183
    0.99918346   2    1000024    15
    0.00053141447   2    1000022    16
    0.00028512478   2    1000023    16

DECAY 2000001  0.00042033955
    0.68792449   2    1000022    1
    0.27255952   2    1000023    1
    0.039515983   2   -1000024    2

DECAY 1000001  54.835266
    0.99468199   2    1000021    1
    0.0051830126   2    1000025    1

DECAY 2000003  0.012379296
    0.48437312   2   -1000024    4
    0.26559228   2    1000022    3
    0.2500346   2    1000023    3

DECAY 1000003  54.852908
    0.99435589   2    1000021    3
    0.0051813378   2    1000025    3
    0.00023171834   2    1000022    3
    0.00019975221   2    1000023    3

DECAY 1000005  93.398948
    0.63831062   2   -1000024    6
    0.18075358   2    1000022    5
    0.17958632   2    1000023    5
    0.0012048969   2    1000025    5
    0.0001445786   2    1000021    5

DECAY 2000005  84.918553
    0.44005249   2   -1000024    6
    0.22115453   2    1000022    5
    0.22051453   2    1000023    5
    0.10697223   2    1000021    5
    0.0080872489   2    1000025    5
    0.001534005   2    1000006   -24
    0.0011904823   2    1000005    25
    0.00049448605   2    1000005    23

DECAY 2000002  0.7598256
    0.99642503   2    1000025    2
    0.002592596   2    1000022    2
    0.0009823688   2    1000023    2

DECAY 1000002  54.784087
    0.99435172   2    1000021    2
    0.0052562871   2    1000025    2
    0.00034168463   2    1000024    1

DECAY 2000004  0.76163002
    0.99405689   2    1000025    4
    0.0031797222   2    1000022    4
    0.0015754069   2    1000023    4
    0.0011879765   2    1000024    3

DECAY 1000004  54.801526
    0.99402781   2    1000021    4
    0.0052546115   2    1000025    4
    0.0006414222   2    1000024    3

DECAY 1000006  101.59058
    0.38037776   2    1000024    5
    0.29375451   2    1000023    6
    0.29347652   2    1000022    6
    0.029546669   3    1000022    24    5
    0.0028228043   2    1000025    6

DECAY 2000006  171.22253
    0.34545308   2    1000024    5
    0.18708116   2    1000023    6
    0.18573206   2    1000022    6
    0.090831097   2    1000005    24
    0.076755534   2    1000006    23
    0.057853111   2    1000006    25
    0.043441758   2    1000021    6
    0.012852192   2    1000025    6

DECAY 1000024  6.5699878e-12
    0.60429023   3    1000022   -1    2
    0.20145091   3    1000022   -11    12
    0.19425886   3    1000022   -13    14

DECAY 1000037  200.60425
    0.10477668   2   -1000005    6
    0.094297477   2    1000016   -15
    0.094285691   2   -1000015    16
    0.087429933   2    1000006   -5
    0.052405677   2    1000024    25
    0.050199441   2    1000023    24
    0.050115054   2    1000024    23
    0.049969196   2    1000022    24
    0.045515221   2    1000024    36
    0.045506872   2    1000024    35
    0.045409001   2    37    1000023
    0.044602045   2    37    1000022
    0.0262417   2    1000004   -3
    0.026241462   2    1000002   -1
    0.026206675   2   -1000003    4
    0.02620648   2   -1000001    2
    0.024505709   2    1000014   -13
    0.024504891   2    1000012   -11
    0.024478794   2   -1000013    14
    0.024478078   2   -1000011    12
    0.018527473   2    2000006   -5
    0.0063067949   3    1000024    6   -6
    0.0038242658   3    1000022   -5    6
    0.0037496278   3    1000023   -5    6

DECAY 1000022 -1


DECAY 1000023  3.5552188e-09
    0.93680935   2    1000022    22
    0.018211994   3    1000022    12   -12
    0.013617933   3    1000022    1   -1
    0.01338639   3    1000022    3   -3
    0.010621134   3    1000022    2   -2
    0.0030733247   3    1000022    11   -11
    0.0029914332   3    1000022    13   -13
    0.00038924813   3    1000024    1   -2
    0.00038924813   3   -1000024   -1    2
    0.00012976255   3    1000024    11   -12
    0.00012976255   3   -1000024   -11    12
    0.00012520938   3    1000024    13   -14
    0.00012520938   3   -1000024   -13    14

DECAY 1000025  16.121918
    0.08930703   2    1000024   -24
    0.08930703   2   -1000024    24
    0.06558118   2    1000023    25
    0.064884505   2    1000023    23
    0.062260132   2    2000013   -13
    0.062260132   2   -2000013    13
    0.062246282   2    2000011   -11
    0.062246282   2   -2000011    11
    0.059724294   2    1000022    25
    0.045080863   2    1000015   -15
    0.045080863   2   -1000015    15
    0.045053891   2    1000016   -16
    0.045053891   2   -1000016    16
    0.026643997   2    37   -1000024
    0.026643997   2   -37    1000024
    0.025181308   2    1000022    35
    0.024388325   2    1000022    23
    0.022991058   2    1000023    35
    0.014185069   2    2000003   -3
    0.014185069   2   -2000003    3
    0.014184477   2    2000001   -1
    0.014184477   2   -2000001    1
    0.0038236863   3    1000024    5   -6
    0.0038236863   3   -1000024   -5    6
    0.0036845767   2    1000023    36
    0.0034278965   2    1000022    36
    0.0023334216   3    1000023    6   -6
    0.0022136899   3    1000022    6   -6

DECAY 1000035  203.33831
    0.052234448   2    1000005   -5
    0.052234448   2   -1000005    5
    0.049474003   2    1000024   -24
    0.049474003   2   -1000024    24
    0.046538522   2    1000016   -16
    0.046538522   2   -1000016    16
    0.046483624   2    1000015   -15
    0.046483624   2   -1000015    15
    0.043885783   2    37   -1000024
    0.043885783   2   -37    1000024
    0.043432236   2    1000006   -6
    0.043432236   2   -1000006    6
    0.033623396   2    1000023    25
    0.030646001   2    1000022    25
    0.02943873   2    1000023    23
    0.029038755   2    1000022    35
    0.026540244   2    1000023    35
    0.02000168   2    1000022    23
    0.017330339   2    1000023    36
    0.015954262   2    1000022    36
    0.012945045   2    1000004   -4
    0.012945045   2   -1000004    4
    0.012944936   2    1000002   -2
    0.012944936   2   -1000002    2
    0.012923133   2    1000003   -3
    0.012923133   2   -1000003    3
    0.012923015   2    1000001   -1
    0.012923015   2   -1000001    1
    0.012093734   2    1000014   -14
    0.012093734   2   -1000014    14
    0.012093331   2    1000012   -12
    0.012093331   2   -1000012    12
    0.012067652   2    1000013   -13
    0.012067652   2   -1000013    13
    0.012067299   2    1000011   -11
    0.012067299   2   -1000011    11
    0.0091898739   2    2000006   -6
    0.0091898739   2   -2000006    6
    0.0040872066   3    1000024    5   -6
    0.0040872066   3   -1000024   -5    6
    0.0032432691   3    1000023    6   -6
    0.0031616678   3    1000022    6   -6

DECAY 1000021  97.544615
    0.21942701   2    2000003   -3
    0.21942701   2   -2000003    3
    0.21942466   2    2000001   -1
    0.21942466   2   -2000001    1
    0.026569863   2    2000002   -2
    0.026569863   2   -2000002    2
    0.026569828   2    2000004   -4
    0.026569828   2   -2000004    4
    0.0037781684   3    1000024    5   -6
    0.0037781684   3   -1000024   -5    6
    0.0026891621   3    1000023    6   -6
    0.0026860218   3    1000022    6   -6
    0.0011962858   3    1000022    5   -5
    0.0011892976   3    1000023    5   -5
    0.0003040377   2    1000006   -4
    0.0003040377   2   -1000006    4

DECAY 25  0.0042389566
    0.53859524   2   -5    5
    0.26511085   2   -24    24
    0.069880772   2    21    21
    0.062267647   2   -15    15
    0.033540973   2    23    23
    0.026193328   2   -4    4
    0.0023179964   2    22    22
    0.0016741182   2    22    23
    0.00021603263   2   -13    13
    0.00020234542   2   -3    3
    5.5946401e-07   2   -1    1
    1.3497352e-07   2   -2    2
    4.8566264e-09   2   -11    11

DECAY 35  33.201546
    0.83559749   2   -5    5
    0.16280743   2   -15    15
    0.00058824809   2   -13    13
    0.00057253529   2   -6    6
    0.00033629189   2   -3    3
    3.1011093e-05   2   -1000024    1000024
    3.0059991e-05   2    21    21
    1.4780593e-05   2    1000022    1000022
    1.0792206e-05   2    25    25
    7.2805391e-06   2    1000023    1000023
    1.0666254e-06   2    1000022    1000023
    1.0577429e-06   2    23    23
    9.8258801e-07   2   -24    24
    9.2983691e-07   2   -1    1
    1.5874746e-08   2    22    22
    1.3214981e-08   2   -11    11
    8.169579e-09   2   -4    4
    7.9437024e-09   2    22    23
    4.2124674e-14   2   -2    2

DECAY 36  31.861897
    0.83544205   2   -5    5
    0.16277781   2   -15    15
    0.00062649617   2   -6    6
    0.00058813638   2   -13    13
    0.00033622213   2   -3    3
    0.00010496656   2   -1000024    1000024
    4.8010641e-05   2    21    21
    4.5843292e-05   2    1000022    1000022
    2.7324501e-05   2    1000023    1000023
    1.4823448e-06   2    23    25
    9.2964422e-07   2   -1    1
    6.1814428e-07   2    1000022    1000023
    5.9613306e-08   2    22    22
    3.2593044e-08   2    22    23
    1.3212479e-08   2   -11    11
    8.2891224e-09   2   -4    4
    4.2753769e-14   2   -2    2
    4.7444947e-35   2    25    25

DECAY 37  30.126082
    0.80375094   2   -5    6
    0.19398883   2   -15    16
    0.0012111418   2   -5    4
    0.00068582168   2   -13    14
    0.00033179839   2   -3    4
    1.53887e-05   2   -3    2
    8.648815e-06   2   -5    2
    2.968899e-06   2    1000023    1000024
    1.7084281e-06   2   -3    6
    1.5836499e-06   2    24    25
    9.2087392e-07   2   -1    2
    1.3284918e-07   2    1000022    1000024
    5.6632282e-08   2   -1    6
    4.3117538e-08   2   -1    4
    1.6041441e-08   2   -11    12
    1.4427706e-11   2    24    35
    1.1422415e-11   2    24    36

DECAY 6  2.43
    1   2    5    24

DECAY 15 -1
