BLOCK SPINFO
   1   SPheno
   2   v4.0.5be

BLOCK SPHENOINFO
   1   2
   2   2

BLOCK MODSEL
   1   0

BLOCK MINPAR
   3    53.496083
   4    1

BLOCK EXTPAR
   0    4330.6615
   1   -394.81685
   2    1750.9127
   3    3438.6622
   11   -942.1541
   12    2865.5839
   13    2401.1259
   23    1545.2326
   25    52.455457
   26    822.52113
   31    555.81883
   32    555.81883
   33    1533.5601
   34    2062.3105
   35    2062.3105
   36    4619.8795
   41    4821.2735
   42    4821.2735
   43    4547.9901
   44    3745.742
   45    3745.742
   46    3973.3798
   47    4740.6444
   48    4740.6444
   49    205.92258

BLOCK SMINPUTS
   1    127.90897
   2    1.1663787e-05
   3    0.1184
   4    91.1876
   5    4.18
   6    173.2
   7    1.777
   8    0
   11    0.00051099893
   12    0
   13    0.10565837
   14    0
   21    0.005
   22    0.0025
   23    0.095
   24    1.27

BLOCK GAUGE Q=  4330.6615
   1    0.35536298
   2    0.66519887
   3    1.219778

BLOCK YU Q=  4330.6615
   1   1    8.3858956e-06
   2   2    0.0042600349
   3   3    1.0130835

BLOCK YD Q=  4330.6615
   1   1    0.00088393509
   2   2    0.016794767
   3   3    0.87658662

BLOCK YE Q=  4330.6615
   1   1    0.00015425314
   2   2    0.031894656
   3   3    0.53641565

BLOCK AU Q=  4330.6615
   1   1    0
   2   2    0
   3   3   -942.1541

BLOCK AD Q=  4330.6615
   1   1    0
   2   2    0
   3   3    2865.5839

BLOCK AE Q=  4330.6615
   1   1    0
   2   2    0
   3   3    2401.126

BLOCK MSOFT Q=  4330.6615
   1   -394.81685
   2    1750.9127
   3    3438.6622
   21   -1589406.4
   22   -2016252.4
   31    555.81883
   32    555.81883
   33    1533.5601
   34    2062.3105
   35    2062.3105
   36    4619.8795
   41    4821.2735
   42    4821.2735
   43    4547.9901
   44    3745.742
   45    3745.742
   46    3973.3798
   47    4740.6444
   48    4740.6444
   49    205.92258

BLOCK MASS
   6    173.2
   23    91.1876
   24    80.429995
   15    1.777
   25    121.09271
   35    822.37751
   36    822.52113
   37    827.49517
   1000001    4938.2002
   2000001    4843.7401
   1000002    4937.5402
   2000002    3882.6029
   1000003    4938.1948
   2000003    4843.7271
   1000004    4937.5337
   2000004    3882.6021
   1000005    765.13463
   2000005    4629.7735
   1000006    4048.9928
   2000006    4631.9246
   1000011    622.87047
   2000011    2063.0227
   1000012    617.43593
   1000013    622.81064
   2000013    2062.9711
   1000014    617.45251
   1000015    1548.9853
   2000015    4595.1212
   1000016    1553.9535
   1000021    3783.1953
   1000022   -388.06699
   1000023    1539.6357
   1000025   -1552.9739
   1000035    1803.388
   1000024    1539.7811
   1000037    1803.5421

BLOCK ALPHA
      -0.019355096

BLOCK HMIX Q=  4330.6615
   1    1545.2326
   2    52.455457
   3    242.87528
   4    676541.01

BLOCK STOPMIX
   1   1    0.036199474
   1   2    0.99934458
   2   1   -0.99934458
   2   2    0.036199474

BLOCK SBOTMIX
   1   1    0.0067962651
   1   2    0.99997691
   2   1   -0.99997691
   2   2    0.0067962651

BLOCK STAUMIX
   1   1    0.99996854
   1   2    0.0079323412
   2   1   -0.0079323412
   2   2    0.99996854

BLOCK NMIX
   1   1    0.99950547
   1   2    0.00023818847
   1   3    0.030619236
   1   4    0.0071567381
   2   1    0.016245594
   2   2    0.21742116
   2   3   -0.69268751
   2   4    0.6874941
   3   1   -0.026706173
   3   2    0.01631278
   3   3    0.70635632
   3   4    0.70716435
   4   1    0.0034167565
   4   2   -0.97594153
   4   3   -0.14250341
   4   4    0.16498251

BLOCK UMIX
   1   1   -0.20406121
   1   2    0.97895813
   2   1    0.97895813
   2   2    0.20406121

BLOCK VMIX
   1   1   -0.23579973
   1   2    0.97180167
   2   1    0.97180167
   2   2    0.23579973

BLOCK HIGGSBOUNDSINPUTHIGGSCOUPLINGSFERMIONS
       0, 2751.575,3,36,15,15

BLOCK HIGGSBOUNDSINPUTHIGGSCOUPLINGSBOSONS
       0,4,36,21,21,23

BLOCK SPHENOLOWENERGY
   1    0.00036075498
   2    1.5874362e-06
   3    3.5258085e-05
   4    2.7622276e-15
   5    1.1799802e-10
   6    2.4630867e-08
   7    9.1262062e-14
   8    3.8986828e-09
   9    8.2515916e-07
   10    7.7076525e-05
   11    0.796171
   12    0.54168969
   13    19.254989
   14    0
   15    0
   16    0.002156871
   17    2.281682e-15
   18    2.4801607e-11
   19    8.2909627e-11
   20    1.4885065e-15
   21    6.3612654e-11
   22    3.8831675e-08
   23    0
   24    0
   25    0
   26    0
   27    0
   28    0
   29    0
   30    0
   31    0
   39    7.6302805e-05
   40    0
   41    0
   42    0

BLOCK FWCOEF Q=  160
   305   4422   0   0   -0.18881911
   305   4422   0   2   -0.22809339
   305   4322   0   2   -0.00080986533
   305   6421   0   0   -0.095227835
   305   6421   0   2   -0.14525087
   305   6321   0   2   -0.0010224579
   3051111   4133   0   0    1.6304787
   3051111   4133   0   2    1.630702
   3051111   4233   0   2   -0.00010773958
   3051111   4137   0   0   -4.4531708
   3051111   4137   0   2   -4.451992
   3051111   4237   0   2    0.00079581245
   3051313   4133   0   0    1.6304787
   3051313   4133   0   2    1.6306994
   3051313   4233   0   2   -0.00010781776
   3051313   4137   0   0   -4.4531708
   3051313   4137   0   2   -4.4519946
   3051313   4237   0   2    0.00079588763
   3051212   4137   0   0    1.5053501
   3051212   4137   0   2    1.5050987
   3051212   4237   0   2   -0.00017194796
   3051414   4137   0   0    1.5053501
   3051414   4137   0   2    1.5050987
   3051414   4237   0   2   -0.00017193121
   3051616   4137   0   0    1.5053501
   3051616   4137   0   2    1.5050988
   3051616   4237   0   2   -0.00016720992

BLOCK IMFWCOEF Q=  160
   305   4422   0   0    3.8582834e-07
   305   4422   0   2    1.3407979e-05
   305   4322   0   2    1.913635e-06
   305   6421   0   0    3.3048749e-07
   305   6421   0   2   -1.0947369e-05
   305   6321   0   2    5.2069484e-07
   3051111   4133   0   2    1.9999976e-07
   3051111   4233   0   2    6.5722552e-06
   3051111   4137   0   2   -1.4772268e-06
   3051111   4237   0   2   -4.8359314e-05
   3051313   4133   0   2    1.9999243e-07
   3051313   4233   0   2    6.5722433e-06
   3051313   4137   0   2   -1.4772345e-06
   3051313   4237   0   2   -4.8359356e-05
   3051212   4137   0   2    3.7830134e-07
   3051212   4237   0   2    1.044803e-05
   3051414   4137   0   2    3.7830121e-07
   3051414   4237   0   2    1.044803e-05
   3051616   4137   0   2    3.7985173e-07
   3051616   4237   0   2    1.0448043e-05

DECAY 23  2.4952


DECAY 24  2.085


DECAY 1000011  0.29286445
    0.99999997   2    1000022    11

DECAY 2000011  9.6377349
    0.99979947   2    1000022    11
    0.00014406183   2    1000025    11

DECAY 1000013  0.2927701
    0.99999998   2    1000022    13

DECAY 2000013  9.663934
    0.99706408   2    1000022    13
    0.0010960407   2    1000013    25
    0.00081217282   2   -1000024    14
    0.00054844969   2    1000025    13
    0.00046242748   2    1000023    13

DECAY 1000015  1.7192515
    0.99960778   2    1000022    15
    0.00034296458   2    1000023    15

DECAY 2000015  82.043571
    0.27735696   2    1000022    15
    0.24112931   2   -1000024    16
    0.12574869   2    1000025    15
    0.12078783   2    1000023    15
    0.075720721   2    1000016   -37
    0.037925311   2    1000015    35
    0.037920385   2    1000015    36
    0.035125095   2    1000016   -24
    0.017598414   2    1000015    23
    0.015093236   2    1000015    25
    0.010476644   2   -1000037    16
    0.0051173918   2    1000035    15

DECAY 1000012  0.28332671
    1   2    1000022    12

DECAY 1000014  0.28335418
    1   2    1000022    14

DECAY 1000016  1.715835
    0.99829274   2    1000022    16
    0.0016488148   2    1000024    15

DECAY 2000001  60.811137
    0.95610582   2    1000021    1
    0.043856787   2    1000022    1

DECAY 1000001  116.34402
    0.57167596   2    1000021    1
    0.26892792   2   -1000037    2
    0.13381028   2    1000035    1
    0.012680523   2   -1000024    2
    0.0070079143   2    1000023    1
    0.0058297938   2    1000022    1

DECAY 2000003  60.853654
    0.95541916   2    1000021    3
    0.043826434   2    1000022    3
    0.00034591173   2   -1000024    4
    0.00020490964   2    1000025    3
    0.00018267363   2    1000023    3

DECAY 1000003  116.36738
    0.57155701   2    1000021    3
    0.26887423   2   -1000037    4
    0.13378686   2    1000035    3
    0.012689594   2   -1000024    4
    0.0070993119   2    1000023    3
    0.0058288362   2    1000022    3
    0.00016380043   2    1000025    3

DECAY 1000005  0.24162113
    1   2    1000022    5

DECAY 2000005  247.21937
    0.28747585   2   -1000024    6
    0.16319149   2    1000021    5
    0.13175999   2   -1000037    6
    0.11257151   2    1000025    5
    0.11139902   2    1000023    5
    0.060980564   2    1000035    5
    0.052559737   2    1000005    35
    0.052553279   2    1000005    36
    0.014392442   2    1000005    25
    0.0057973016   2    1000005    23
    0.0045199053   2    1000006   -24
    0.0027989105   2    1000022    5

DECAY 2000002  9.2789433
    0.91494694   2    1000022    2
    0.084400934   2    1000021    2
    0.0004702652   2    1000025    2
    0.00017515232   2    1000023    2

DECAY 1000002  116.31676
    0.57129923   2    1000021    2
    0.2650153   2    1000037    1
    0.13347945   2    1000035    2
    0.01693303   2    1000024    1
    0.0073910664   2    1000023    2
    0.0058616542   2    1000022    2

DECAY 2000004  9.2808229
    0.91476121   2    1000022    4
    0.084373846   2    1000021    4
    0.00052335735   2    1000025    4
    0.00022588329   2    1000023    4
    0.00010130135   2    1000024    3

DECAY 1000004  116.33994
    0.57117986   2    1000021    4
    0.26496948   2    1000037    3
    0.13345296   2    1000035    4
    0.017115   2    1000024    3
    0.0073953985   2    1000023    4
    0.0058604781   2    1000022    4

DECAY 1000006  133.01781
    0.43427243   2    1000024    5
    0.22447186   2    1000025    6
    0.21561231   2    1000023    6
    0.066324117   2    1000022    6
    0.030277055   2    1000021    6
    0.018056482   2    1000037    5
    0.0087372795   2    1000035    6
    0.002192529   2    1000005    37

DECAY 2000006  243.60732
    0.22445293   2    1000024    5
    0.15993228   2    1000021    6
    0.15244343   2    1000025    6
    0.14548695   2    1000023    6
    0.12544361   2    1000037    5
    0.10594114   2    1000005    37
    0.067541655   2    1000035    6
    0.011772268   2    1000005    24
    0.0027258277   2    1000022    6
    0.0022958122   2    1000006    23
    0.0019640922   2    1000006    25

DECAY 1000024  21.447595
    0.89021276   2   -1000005    6
    0.044981869   2    1000022    24
    0.019873348   2    37    1000022
    0.012864828   2    1000014   -13
    0.012373975   2    1000012   -11
    0.0092050947   2   -1000013    14
    0.0092044029   2   -1000011    12
    0.0012519461   3    1000022   -5    6

DECAY 1000037  32.071849
    0.18400884   2   -1000013    14
    0.18399927   2   -1000011    12
    0.18218855   2    1000014   -13
    0.18217317   2    1000012   -11
    0.059618398   2    1000025    24
    0.047525388   2    1000023    24
    0.047479183   2    1000024    23
    0.043555014   2    1000024    25
    0.034312226   2   -1000005    6
    0.016283822   2   -1000015    16
    0.015918737   2    1000016   -15
    0.0024382328   2    1000022    24
    0.00031610999   2    37    1000022

DECAY 1000022 -1


DECAY 1000023  21.995254
    0.43770015   2    1000005   -5
    0.43770015   2   -1000005    5
    0.031842169   2    1000022    23
    0.031045587   2    1000022    25
    0.015942877   2    1000022    35
    0.0057468793   2    1000013   -13
    0.0057468793   2   -1000013    13
    0.0055083611   2    1000011   -11
    0.0055083611   2   -1000011    11
    0.0047270576   2    1000012   -12
    0.0047270576   2   -1000012    12
    0.0047269603   2    1000014   -14
    0.0047269603   2   -1000014    14
    0.0036702955   2    1000022    36
    0.00064709331   3    1000022    6   -6

DECAY 1000025  21.840279
    0.46637053   2    1000005   -5
    0.46637053   2   -1000005    5
    0.031002039   2    1000022    25
    0.017724465   2    1000022    35
    0.013273124   2    1000022    23
    0.0036113838   2    1000022    36
    0.00071957551   3    1000022    6   -6
    0.00025326125   2    1000013   -13
    0.00025326125   2   -1000013    13
    0.0001037283   2    1000012   -12
    0.0001037283   2   -1000012    12
    0.00010372621   2    1000014   -14
    0.00010372621   2   -1000014    14

DECAY 1000035  33.717849
    0.087695449   2    1000012   -12
    0.087695449   2   -1000012    12
    0.087694198   2    1000014   -14
    0.087694198   2   -1000014    14
    0.0866464   2    1000013   -13
    0.0866464   2   -1000013    13
    0.086633595   2    1000011   -11
    0.086633595   2   -1000011    11
    0.056782269   2    1000025    23
    0.048395741   2    1000024   -24
    0.048395741   2   -1000024    24
    0.041669292   2    1000025    25
    0.041102992   2    1000023    25
    0.01591903   2    1000005   -5
    0.01591903   2   -1000005    5
    0.0078544603   2    1000015   -15
    0.0078544603   2   -1000015    15
    0.0074613997   2    1000016   -16
    0.0074613997   2   -1000016    16
    0.0015833978   2    1000022    23
    0.0015128249   2    1000022    25
    0.00029651953   2    1000023    23
    0.00021056771   2    1000022    35

DECAY 1000021  103.47683
    0.49772394   2    1000005   -5
    0.49772394   2   -1000005    5
    0.00076344009   3    1000024    5   -6
    0.00076344009   3   -1000024   -5    6
    0.00051653565   3    1000025    6   -6
    0.00048475132   3    1000023    6   -6
    0.00029720489   3    1000023    5   -5
    0.00029446719   3    1000025    5   -5
    0.00025518573   3    1000022    4   -4
    0.00025518505   3    1000022    2   -2
    0.00015636715   3    1000022    6   -6
    0.00011988862   3    1000037    5   -6
    0.00011988862   3   -1000037   -5    6

DECAY 25  0.0035777061
    0.64060154   2   -5    5
    0.16149203   2   -24    24
    0.074567959   2   -15    15
    0.071476958   2    21    21
    0.02994145   2   -4    4
    0.018068509   2    23    23
    0.0022266308   2    22    22
    0.0011227334   2    22    23
    0.00026002287   2   -13    13
    0.00024133478   2   -3    3
    6.672633e-07   2   -1    1
    1.5430775e-07   2   -2    2
    5.8456745e-09   2   -11    11

DECAY 35  28.451764
    0.78343817   2   -5    5
    0.21508508   2   -15    15
    0.00084986402   2   -13    13
    0.00035236811   2   -3    3
    0.00018837293   2   -6    6
    6.7589055e-05   2    21    21
    1.1822599e-05   2    25    25
    2.6710336e-06   2   -24    24
    1.6365048e-06   2    23    23
    1.3408804e-06   2    1000022    1000022
    9.7416347e-07   2   -1    1
    5.6304617e-08   2    22    22
    2.8549675e-08   2    22    23
    1.9095023e-08   2   -11    11
    3.8886937e-09   2   -4    4
    2.0060463e-14   2   -2    2

DECAY 36  27.495846
    0.78341459   2   -5    5
    0.21507737   2   -15    15
    0.00084982013   2   -13    13
    0.00035234006   2   -3    3
    0.00019504471   2   -6    6
    8.9888851e-05   2    21    21
    1.7210068e-05   2    1000022    1000022
    2.6377987e-06   2    23    25
    9.7408565e-07   2   -1    1
    7.4893408e-08   2    22    22
    2.515049e-08   2    22    23
    1.909403e-08   2   -11    11
    3.3192554e-09   2   -4    4
    1.7118822e-14   2   -2    2
    4.1936633e-39   2    25    25

DECAY 37  24.872655
    0.80724996   2   -5    6
    0.19040519   2   -15    16
    0.0012789074   2   -5    4
    0.00067315606   2   -13    14
    0.00036170502   2   -3    4
    1.6663778e-05   2   -3    2
    9.1327586e-06   2   -5    2
    2.999287e-06   2    24    25
    1.1832015e-06   2   -3    6
    1.0035701e-06   2   -1    2
    4.6417529e-08   2   -1    4
    3.2031741e-08   2   -1    6
    1.5745191e-08   2   -11    12
    1.9089217e-10   2    24    35
    1.6559054e-10   2    24    36

DECAY 6  2.43
    1   2    5    24

DECAY 15 -1
