BLOCK SPINFO
   1   SPheno
   2   v4.0.5be

BLOCK SPHENOINFO
   1   2
   2   2

BLOCK MODSEL
   1   0

BLOCK MINPAR
   3    35.716268
   4   -1

BLOCK EXTPAR
   0    4923.0905
   1    115.17497
   2   -112.96021
   3    4155.5207
   11   -318.87864
   12    4482.5754
   13    372.67093
   23   -2292.6656
   25    34.89866
   26    2686.0254
   31    4278.9781
   32    4278.9781
   33    4538.8866
   34    1924.1956
   35    1924.1956
   36    3993.2258
   41    2713.9746
   42    2713.9746
   43    4918.774
   44    2209.9302
   45    2209.9302
   46    4736.8978
   47    1790.6827
   48    1790.6827
   49    1778.3091

BLOCK SMINPUTS
   1    127.90897
   2    1.1663787e-05
   3    0.1184
   4    91.1876
   5    4.18
   6    173.2
   7    1.777
   8    0
   11    0.00051099893
   12    0
   13    0.10565837
   14    0
   21    0.005
   22    0.0025
   23    0.095
   24    1.27

BLOCK GAUGE Q=  4923.0905
   1    0.35536298
   2    0.66519887
   3    1.219778

BLOCK YU Q=  4923.0905
   1   1    8.3878135e-06
   2   2    0.0042610093
   3   3    1.0133153

BLOCK YD Q=  4923.0905
   1   1    0.00058821726
   2   2    0.011176128
   3   3    0.5833272

BLOCK YE Q=  4923.0905
   1   1    0.00010264821
   2   2    0.021224395
   3   3    0.35695941

BLOCK AU Q=  4923.0905
   1   1    0
   2   2    0
   3   3   -318.87864

BLOCK AD Q=  4923.0905
   1   1    0
   2   2    0
   3   3    4482.5752

BLOCK AE Q=  4923.0905
   1   1    0
   2   2    0
   3   3    372.67093

BLOCK MSOFT Q=  4923.0905
   1    115.17497
   2   -112.96021
   3    4155.5207
   21    2328347.9
   22   -4768484.4
   31    4278.9781
   32    4278.9781
   33    4538.8866
   34    1924.1956
   35    1924.1956
   36    3993.2258
   41    2713.9746
   42    2713.9746
   43    4918.774
   44    2209.9302
   45    2209.9302
   46    4736.8978
   47    1790.6827
   48    1790.6827
   49    1778.3091

BLOCK MASS
   6    173.2
   23    91.1876
   24    80.429995
   15    1.777
   25    122.06246
   35    2685.4593
   36    2686.0254
   37    2686.6629
   1000001    2946.4311
   2000001    2068.7311
   1000002    2945.3107
   2000002    2449.6723
   1000003    2946.4235
   2000003    2068.7135
   1000004    2945.3019
   2000004    2449.6719
   1000005    2016.0436
   2000005    5017.4769
   1000006    4829.0137
   2000006    5019.0001
   1000011    4285.2983
   2000011    1938.3531
   1000012    4284.1463
   1000013    4285.2764
   2000013    1938.3083
   1000014    4284.1235
   1000015    3988.1633
   2000015    4538.9942
   1000016    4537.3367
   1000021    4303.4007
   1000022    113.53298
   1000023   -123.98756
   1000025    2306.1382
   1000035   -2306.4431
   1000024    124.19422
   1000037    2307.0251

BLOCK ALPHA
      -0.028090225

BLOCK HMIX Q=  4923.0905
   1   -2292.6656
   2    34.89866
   3    242.74728
   4    7214732.4

BLOCK STOPMIX
   1   1    0.051306784
   1   2    0.99868294
   2   1   -0.99868294
   2   2    0.051306784

BLOCK SBOTMIX
   1   1   -0.011200804
   1   2    0.99993727
   2   1   -0.99993727
   2   2   -0.011200804

BLOCK STAUMIX
   1   1   -0.030649168
   1   2    0.9995302
   2   1   -0.9995302
   2   2   -0.030649168

BLOCK NMIX
   1   1    0.99981354
   1   2   -2.5923002e-05
   1   3   -0.019306137
   1   4   -0.00040119482
   2   1    0.00068353507
   2   2    0.99941398
   2   3    0.034113462
   2   4   -0.0027401972
   3   1    0.013927474
   3   2   -0.022189504
   3   3    0.70660213
   3   4    0.70712593
   4   1    0.013358398
   4   2   -0.026063949
   4   3    0.70652457
   4   4   -0.70708221

BLOCK UMIX
   1   1   -0.99883581
   1   2   -0.048239223
   2   1   -0.048239223
   2   2    0.99883581

BLOCK VMIX
   1   1    0.99999249
   1   2    0.0038762465
   2   1    0.0038762465
   2   2   -0.99999249

BLOCK HIGGSBOUNDSINPUTHIGGSCOUPLINGSFERMIONS
       0, 1217.9164,3,36,15,15

BLOCK HIGGSBOUNDSINPUTHIGGSCOUPLINGSBOSONS
       0,4,36,21,21,23

BLOCK SPHENOLOWENERGY
   1    0.00032958427
   2    1.589319e-06
   3    3.5256585e-05
   4    2.3285819e-15
   5    9.9474637e-11
   6    2.0839284e-08
   7    7.9312222e-14
   8    3.3882238e-09
   9    7.1915284e-07
   10    9.5749919e-05
   11    0.98906001
   12    0.54181677
   13    19.353169
   14    0
   15    0
   16    0.002156667
   17    2.2816528e-15
   18    2.4801895e-11
   19    8.2909075e-11
   20    4.7540176e-16
   21    2.0324274e-11
   22    5.191451e-09
   23    0
   24    0
   25    0
   26    0
   27    0
   28    0
   29    0
   30    0
   31    0
   39    6.5624014e-05
   40    0
   41    0
   42    0

BLOCK FWCOEF Q=  160
   305   4422   0   0   -0.18881911
   305   4422   0   2   -0.19868379
   305   4322   0   2   -0.0002145242
   305   6421   0   0   -0.095227835
   305   6421   0   2   -0.10608342
   305   6321   0   2   -0.0002286709
   3051111   4133   0   0    1.6341291
   3051111   4133   0   2    1.6342578
   3051111   4233   0   2    0.00010315692
   3051111   4137   0   0   -4.4568212
   3051111   4137   0   2   -4.4555542
   3051111   4237   0   2   -0.00075546845
   3051313   4133   0   0    1.6341291
   3051313   4133   0   2    1.6342575
   3051313   4233   0   2    0.00010315652
   3051313   4137   0   0   -4.4568212
   3051313   4137   0   2   -4.4555545
   3051313   4237   0   2   -0.00075546838
   3051212   4137   0   0    1.5053501
   3051212   4137   0   2    1.5050801
   3051212   4237   0   2    0.00016308784
   3051414   4137   0   0    1.5053501
   3051414   4137   0   2    1.5050801
   3051414   4237   0   2    0.0001630879
   3051616   4137   0   0    1.5053501
   3051616   4137   0   2    1.50508
   3051616   4237   0   2    0.00016310592

BLOCK IMFWCOEF Q=  160
   305   4422   0   0    3.8581802e-07
   305   4422   0   2    1.1390706e-07
   305   4322   0   2   -9.600927e-07
   305   6421   0   0    3.3047865e-07
   305   6421   0   2    6.2957364e-06
   305   6321   0   2   -3.857907e-07
   3051111   4133   0   2    7.7114675e-07
   3051111   4233   0   2    2.5648991e-06
   3051111   4137   0   2    5.9158444e-07
   3051111   4237   0   2   -1.8785982e-05
   3051313   4133   0   2    7.7114355e-07
   3051313   4233   0   2    2.5648974e-06
   3051313   4137   0   2    5.9158906e-07
   3051313   4237   0   2   -1.8785986e-05
   3051212   4137   0   2   -6.4239633e-08
   3051212   4237   0   2    4.055452e-06
   3051414   4137   0   2   -6.423944e-08
   3051414   4237   0   2    4.055452e-06
   3051616   4137   0   2   -6.5080729e-08
   3051616   4237   0   2    4.055452e-06

DECAY 23  2.4952


DECAY 24  2.085


DECAY 2000011  9.6692023
    0.99999953   2    1000022    11

DECAY 1000011  61.817381
    0.60780202   2   -1000024    12
    0.30447688   2    1000023    11
    0.086916242   2    1000022    11
    0.00071619208   2   -1000037    12

DECAY 2000013  9.6690428
    0.99999331   2    1000022    13

DECAY 1000013  61.840832
    0.60756842   2   -1000024    14
    0.30436058   2    1000023    13
    0.086883068   2    1000022    13
    0.00071591087   2   -1000037    14
    0.0002115326   2    1000035    13
    0.00018995464   2    1000025    13

DECAY 1000015  29.060691
    0.68811864   2    1000022    15
    0.15266766   2   -1000037    16
    0.076756862   2    1000025    15
    0.076683662   2    1000035    15
    0.0038473538   2   -1000024    16
    0.0019258242   2    1000023    15

DECAY 2000015  72.418915
    0.54825164   2   -1000024    16
    0.27483047   2    1000023    15
    0.07874535   2    1000022    15
    0.043858015   2    1000035    15
    0.0438369   2    1000025    15
    0.0046851823   2    1000015    23
    0.0045241639   2    1000015    25
    0.0012682839   2   -1000037    16

DECAY 1000012  61.830696
    0.60891506   2    1000024    11
    0.30388476   2    1000023    12
    0.086890966   2    1000022    12
    0.0001695354   2    1000035    12
    0.00013506084   2    1000025    12

DECAY 1000014  61.849765
    0.60872552   2    1000024    13
    0.30378944   2    1000023    14
    0.086863713   2    1000022    14
    0.00031682924   2    1000037    13
    0.00016948076   2    1000035    14
    0.00013501731   2    1000025    14

DECAY 1000016  72.513691
    0.5503603   2    1000024    15
    0.27447876   2    1000023    16
    0.087007324   2    1000037    15
    0.078480486   2    1000022    16
    0.0093731665   2    1000015    24
    0.00016696037   2    1000035    16
    0.00013300524   2    1000025    16

DECAY 2000001  1.1475834
    0.99999949   2    1000022    1

DECAY 1000001  39.111779
    0.6592739   2   -1000024    2
    0.32994191   2    1000023    1
    0.010482494   2    1000022    1
    0.00023103672   2   -1000037    2

DECAY 2000003  1.1475932
    0.99998401   2    1000022    3

DECAY 1000003  39.114041
    0.65923374   2   -1000024    4
    0.32992218   2    1000023    3
    0.01048193   2    1000022    3
    0.00023521048   2   -1000037    4

DECAY 1000005  1.200345
    0.93764898   2    1000022    5
    0.041354082   2   -1000024    6
    0.020996942   2    1000023    5

DECAY 2000005  194.83855
    0.32730995   2   -1000037    6
    0.22511314   2   -1000024    6
    0.14209448   2    1000021    5
    0.11313086   2    1000023    5
    0.054228713   2    1000025    5
    0.054227744   2    1000035    5
    0.023363816   2    1000005    35
    0.023340292   2    1000005    36
    0.016935858   2    1000005    25
    0.016287078   2    1000005    23
    0.0036241602   2    1000022    5
    0.00034390431   2    1000006   -24

DECAY 2000002  5.4450589
    0.9999947   2    1000022    2

DECAY 1000002  39.152687
    0.65985846   2    1000024    1
    0.32963149   2    1000023    2
    0.010461441   2    1000022    2

DECAY 2000004  5.4450772
    0.99999052   2    1000022    4

DECAY 1000004  39.153827
    0.65983769   2    1000024    3
    0.32962076   2    1000023    4
    0.0104611   2    1000022    4

DECAY 1000006  143.49908
    0.40884973   2    1000037    5
    0.20330398   2    1000035    6
    0.20273217   2    1000025    6
    0.10895145   2    1000021    6
    0.074671204   2    1000022    6
    0.00061143115   2    1000024    5
    0.00043381641   2    1000005    37
    0.00030405355   2    1000023    6

DECAY 2000006  193.40896
    0.22810136   2    1000024    5
    0.16553001   2    1000025    6
    0.16442735   2    1000035    6
    0.13553352   2    1000021    6
    0.1134788   2    1000023    6
    0.10950257   2    1000037    5
    0.046698195   2    1000005    37
    0.03278592   2    1000005    24
    0.0037421307   2    1000022    6
    0.00016150804   2    1000006    23

DECAY 1000024  3.3315084e-13
    0.36760731   3    1000022   -1    2
    0.34302675   3    1000022   -3    4
    0.099503413   3    1000022   -11    12
    0.09945847   3    1000022   -13    14
    0.088642033   3    1000022   -15    16
    0.0014476208   3    1000023   -11    12
    0.00031441118   3    1000023   -13    14

DECAY 1000037  18.040028
    0.28087616   2    1000024    25
    0.26877395   2    1000023    24
    0.26816285   2    1000024    23
    0.085502077   2    1000022    24
    0.060870901   2   -1000005    6
    0.018861906   3    1000024    6   -6
    0.012667487   3    1000023   -5    6
    0.0036663741   3    1000022   -5    6
    0.00045256297   3    1000024    5   -5

DECAY 1000022 -1


DECAY 1000023  1.0170573e-12
    0.83995129   2    1000022    22
    0.037913962   3    1000022    1   -1
    0.037880374   3    1000022    3   -3
    0.030417559   3    1000022    2   -2
    0.025193609   3    1000022    4   -4
    0.017748894   3    1000022    12   -12
    0.0030186701   3    1000022    11   -11
    0.0030139191   3    1000022    13   -13
    0.0027339397   3    1000022    5   -5
    0.0021277867   3    1000022    15   -15

DECAY 1000025  18.588327
    0.26072966   2    1000024   -24
    0.26072966   2   -1000024    24
    0.15099304   2    1000023    23
    0.14169302   2    1000023    25
    0.040162301   2    1000022    25
    0.039781036   2    1000022    23
    0.034926606   2    1000005   -5
    0.034926606   2   -1000005    5
    0.012246236   3    1000024    5   -6
    0.012246236   3   -1000024   -5    6
    0.0086231018   3    1000023    6   -6
    0.0024671291   3    1000022    6   -6
    0.00022370601   3    1000023    5   -5

DECAY 1000035  18.341846
    0.26432402   2    1000024   -24
    0.26432402   2   -1000024    24
    0.16056285   2    1000023    25
    0.11088745   2    1000023    23
    0.04553871   2    1000022    25
    0.043821127   2    1000022    23
    0.035449973   2    1000005   -5
    0.035449973   2   -1000005    5
    0.013683925   3    1000024    5   -6
    0.013683925   3   -1000024   -5    6
    0.0091611565   3    1000023    6   -6
    0.002630769   3    1000022    6   -6
    0.00022140339   3    1000023    5   -5

DECAY 1000021  488.79162
    0.07938752   2    1000005   -5
    0.07938752   2   -1000005    5
    0.077037681   2    2000003   -3
    0.077037681   2   -2000003    3
    0.077036892   2    2000001   -1
    0.077036892   2   -2000001    1
    0.059538485   2    2000004   -4
    0.059538485   2   -2000004    4
    0.059538475   2    2000002   -2
    0.059538475   2   -2000002    2
    0.036820169   2    1000004   -4
    0.036820169   2   -1000004    4
    0.036819793   2    1000002   -2
    0.036819793   2   -1000002    2
    0.036770765   2    1000003   -3
    0.036770765   2   -1000003    3
    0.036770428   2    1000001   -1
    0.036770428   2   -1000001    1

DECAY 25  0.0035428858
    0.61803276   2   -5    5
    0.18198299   2   -24    24
    0.074046497   2    21    21
    0.070701598   2   -15    15
    0.030414826   2   -4    4
    0.02076345   2    23    23
    0.0023292279   2    22    22
    0.0012499128   2    22    23
    0.00024522123   2   -13    13
    0.00023271087   2   -3    3
    6.4342282e-07   2   -1    1
    1.567443e-07   2   -2    2
    5.5128852e-09   2   -11    11

DECAY 35  70.252923
    0.86130003   2   -5    5
    0.09892478   2   -15    15
    0.010926907   2   -1000024    1000037
    0.010926907   2   -1000037    1000024
    0.0072163046   2    1000022    1000025
    0.0037197713   2    1000022    1000035
    0.0018535327   2    1000023    1000035
    0.0017023515   2   -6    6
    0.0011864873   2    1000023    1000025
    0.00076050644   2   -1000024    1000024
    0.00049203346   2   -3    3
    0.00037968238   2    1000022    1000022
    0.00034261815   2   -13    13
    0.00021975283   2    1000022    1000023
    3.1341043e-05   2    1000023    1000023
    1.1817174e-05   2    21    21
    2.9880716e-06   2    25    25
    1.3603449e-06   2   -1    1
    5.8115565e-07   2    23    23
    2.0355703e-07   2   -24    24
    3.1340522e-08   2   -4    4
    7.6952473e-09   2   -11    11
    5.4698281e-09   2    22    23
    3.0499853e-09   2    22    22
    1.6160997e-13   2   -2    2

DECAY 36  66.613525
    0.85941416   2   -5    5
    0.09870754   2   -15    15
    0.011550658   2   -1000024    1000037
    0.011550658   2   -1000037    1000024
    0.0076122834   2    1000022    1000035
    0.0039457441   2    1000022    1000025
    0.0019634388   2    1000023    1000025
    0.0016609329   2   -6    6
    0.0012521523   2    1000023    1000035
    0.00081492628   2   -1000024    1000024
    0.00049095675   2   -3    3
    0.00040685421   2    1000022    1000022
    0.00034186522   2   -13    13
    0.00023085146   2    1000022    1000023
    3.3222505e-05   2    1000023    1000023
    2.1325177e-05   2    21    21
    1.3573692e-06   2   -1    1
    9.2837105e-07   2    23    25
    6.7452003e-08   2    22    23
    4.0779748e-08   2    22    22
    3.0214332e-08   2   -4    4
    7.6783233e-09   2   -11    11
    1.5580576e-13   2   -2    2
    4.8421369e-40   2    25    25

DECAY 37  68.323969
    0.85994604   2   -5    6
    0.10031535   2   -15    16
    0.011361915   2    1000024    1000025
    0.011347351   2    1000024    1000035
    0.011346275   2    1000022    1000037
    0.0031190122   2    1000023    1000037
    0.0012741876   2   -5    4
    0.00045090816   2    1000023    1000024
    0.00044948044   2   -3    4
    0.00035465062   2   -13    14
    2.1025256e-05   2   -3    2
    9.0990157e-06   2   -5    2
    2.4124148e-06   2   -3    6
    1.2472137e-06   2   -1    2
    9.064818e-07   2    24    25
    8.0211029e-08   2   -1    6
    5.8905962e-08   2   -1    4
    8.2953149e-09   2   -11    12
    2.2090899e-10   2    1000022    1000024
    5.0331419e-14   2    24    35

DECAY 6  2.43
    1   2    5    24

DECAY 15 -1
