BLOCK SPINFO
   1   SPheno
   2   v4.0.5be

BLOCK SPHENOINFO
   1   2
   2   2

BLOCK MODSEL
   1   0

BLOCK MINPAR
   3    47.746448
   4    1

BLOCK EXTPAR
   0    1553.8788
   1   -595.53651
   2   -2198.8327
   3    3506.2488
   11    4320.8184
   12    1493.5584
   13    3239.4838
   23    2310.524
   25    46.234413
   26    394.7159
   31    3940.2398
   32    3940.2398
   33    2532.4278
   34    895.26527
   35    895.26527
   36    1768.7318
   41    2464.9466
   42    2464.9466
   43    2405.9943
   44    2226.9352
   45    2226.9352
   46    1119.6967
   47    3066.2389
   48    3066.2389
   49    1940.335

BLOCK SMINPUTS
   1    127.90897
   2    1.1663787e-05
   3    0.1184
   4    91.1876
   5    4.18
   6    173.2
   7    1.777
   8    0
   11    0.00051099893
   12    0
   13    0.10565837
   14    0
   21    0.005
   22    0.0025
   23    0.095
   24    1.27

BLOCK GAUGE Q=  1553.8788
   1    0.35536298
   2    0.66519887
   3    1.219778

BLOCK YU Q=  1553.8788
   1   1    8.3863331e-06
   2   2    0.0042602572
   3   3    1.0131364

BLOCK YD Q=  1553.8788
   1   1    0.00077914395
   2   2    0.014803735
   3   3    0.77266665

BLOCK YE Q=  1553.8788
   1   1    0.00013596632
   2   2    0.028113522
   3   3    0.47282319

BLOCK AU Q=  1553.8788
   1   1    0
   2   2    0
   3   3    4320.8185

BLOCK AD Q=  1553.8788
   1   1    0
   2   2    0
   3   3    1493.5584

BLOCK AE Q=  1553.8788
   1   1    0
   2   2    0
   3   3    3239.4838

BLOCK MSOFT Q=  1553.8788
   1   -595.53651
   2   -2198.8327
   3    3506.2488
   21   -5178168.7
   22   -5296489
   31    3940.2398
   32    3940.2398
   33    2532.4278
   34    895.26527
   35    895.26527
   36    1768.7318
   41    2464.9466
   42    2464.9466
   43    2405.9943
   44    2226.9352
   45    2226.9352
   46    1119.6967
   47    3066.2389
   48    3066.2389
   49    1940.335

BLOCK MASS
   6    173.2
   23    91.1876
   24    80.429995
   15    1.777
   25    124.52149
   35    393.57166
   36    394.7159
   37    403.06208
   1000001    2501.6487
   2000001    3100.9502
   1000002    2500.5591
   2000002    2248.2025
   1000003    2501.6479
   2000003    3100.9484
   1000004    2500.5592
   2000004    2248.2025
   1000005    1940.9174
   2000005    2389.1397
   1000006    1002.2662
   2000006    2409.0799
   1000011    3947.6499
   2000011    890.55906
   1000012    3946.4839
   1000013    3947.6434
   2000013    890.6531
   1000014    3946.4764
   1000015    1761.232
   2000015    2536.9969
   1000016    2533.4714
   1000021    3423.3364
   1000022   -593.03012
   1000023   -2199.6275
   1000025    2295.9643
   1000035   -2325.7075
   1000024    2199.9877
   1000037    2326.3073

BLOCK ALPHA
      -0.021509063

BLOCK HMIX Q=  1553.8788
   1    2310.524
   2    46.234413
   3    243.91658
   4    155800.64

BLOCK STOPMIX
   1   1   -0.13983645
   1   2    0.99017462
   2   1   -0.99017462
   2   2   -0.13983645

BLOCK SBOTMIX
   1   1    0.072663044
   1   2    0.99735655
   2   1   -0.99735655
   2   2    0.072663044

BLOCK STAUMIX
   1   1    0.053416606
   1   2    0.99857231
   2   1   -0.99857231
   2   2    0.053416606

BLOCK NMIX
   1   1   -0.99976018
   1   2    0.00027096734
   1   3   -0.02123957
   1   4   -0.0053279898
   2   1   -0.0088609888
   2   2   -0.8918739
   2   3    0.32749422
   2   4    0.31181719
   3   1    0.011243112
   3   2   -0.012381623
   3   3   -0.70678799
   3   4    0.7072277
   4   1   -0.016572734
   4   2    0.45211455
   4   3    0.62669542
   4   4    0.63448453

BLOCK UMIX
   1   1   -0.86673693
   1   2    0.49876558
   2   1   -0.49876558
   2   2   -0.86673693

BLOCK VMIX
   1   1    0.87885361
   1   2    0.47709154
   2   1    0.47709154
   2   2   -0.87885361

BLOCK HIGGSBOUNDSINPUTHIGGSCOUPLINGSFERMIONS
       0, 2137.621,3,36,15,15

BLOCK HIGGSBOUNDSINPUTHIGGSCOUPLINGSBOSONS
       0,4,36,21,21,23

BLOCK SPHENOLOWENERGY
   1    0.00045115049
   2    1.5950971e-06
   3    3.5269111e-05
   4    7.5467274e-15
   5    3.2238516e-10
   6    6.7352453e-08
   7    2.5322715e-13
   8    1.0817788e-08
   9    2.29082e-06
   10    1.0331615e-09
   11    1.0672163e-05
   12    0.54296028
   13    18.797262
   14    0
   15    0
   16    0.0021755473
   17    2.2819324e-15
   18    2.4807245e-11
   19    8.2924747e-11
   20   -1.1115404e-15
   21   -4.7511004e-11
   22   -2.9083205e-08
   23    0
   24    0
   25    0
   26    0
   27    0
   28    0
   29    0
   30    0
   31    0
   39    7.6376136e-05
   40    0
   41    0
   42    0

BLOCK FWCOEF Q=  160
   305   4422   0   0   -0.18881911
   305   4422   0   2   -0.31587949
   305   4322   0   2   -0.0024603046
   305   6421   0   0   -0.095227835
   305   6421   0   2   -0.21754149
   305   6321   0   2   -0.0023531868
   3051111   4133   0   0    1.5937773
   3051111   4133   0   2    1.5942503
   3051111   4233   0   2   -0.00065795282
   3051111   4137   0   0   -4.4164694
   3051111   4137   0   2   -4.4162181
   3051111   4237   0   2    0.0051169321
   3051313   4133   0   0    1.5937773
   3051313   4133   0   2    1.5942489
   3051313   4233   0   2   -0.00065842485
   3051313   4137   0   0   -4.4164694
   3051313   4137   0   2   -4.4162195
   3051313   4237   0   2    0.0051174034
   3051212   4137   0   0    1.5053501
   3051212   4137   0   2    1.5052963
   3051212   4237   0   2   -0.0011147201
   3051414   4137   0   0    1.5053501
   3051414   4137   0   2    1.5052963
   3051414   4237   0   2   -0.0011146173
   3051616   4137   0   0    1.5053501
   3051616   4137   0   2    1.5052963
   3051616   4237   0   2   -0.0010856306

BLOCK IMFWCOEF Q=  160
   305   4422   0   0    3.8540579e-07
   305   4422   0   2   -2.0003245e-06
   305   4322   0   2   -7.8467028e-06
   305   6421   0   0    3.3012554e-07
   305   6421   0   2   -1.2187233e-05
   305   6321   0   2   -5.0616127e-06
   3051111   4133   0   2    6.0742993e-07
   3051111   4233   0   2    3.0479508e-06
   3051111   4137   0   2   -3.7231665e-06
   3051111   4237   0   2   -2.368543e-05
   3051313   4133   0   2    6.0741703e-07
   3051313   4233   0   2    3.0479427e-06
   3051313   4137   0   2   -3.7231784e-06
   3051313   4237   0   2   -2.3685445e-05
   3051212   4137   0   2    8.2803321e-07
   3051212   4237   0   2    5.1598254e-06
   3051414   4137   0   2    8.2803319e-07
   3051414   4237   0   2    5.1598254e-06
   3051616   4137   0   2    8.2636614e-07
   3051616   4237   0   2    5.1598244e-06

DECAY 23  2.4952


DECAY 24  2.085


DECAY 2000011  1.3854592
    1   2    1000022    11

DECAY 1000011  28.919448
    0.42907516   2   -1000024    12
    0.22964751   2    1000023    11
    0.16357537   2    1000022    11
    0.12736582   2   -1000037    12
    0.050325422   2    1000035    11

DECAY 2000013  1.3860727
    1   2    1000022    13

DECAY 1000013  28.956571
    0.42852311   2   -1000024    14
    0.22946092   2    1000023    13
    0.1633663   2    1000022    13
    0.12720188   2   -1000037    14
    0.050619952   2    1000035    13
    0.00047960866   2    1000025    13
    0.00034791399   2    2000013    25

DECAY 1000015  6.9486781
    1   2    1000022    15

DECAY 2000015  17.720615
    0.23758979   2    1000015    36
    0.2350879   2    1000015    35
    0.16142285   2    1000022    15
    0.12538254   2    1000015    25
    0.12137025   2    1000015    23
    0.055564797   2   -1000024    16
    0.034026158   2    1000023    15
    0.010457868   2    1000025    15
    0.010093121   2    1000035    15
    0.0090047316   2   -1000037    16

DECAY 1000012  28.924565
    0.44071258   2    1000024    11
    0.22459759   2    1000023    12
    0.16382579   2    1000022    12
    0.11640863   2    1000037    11
    0.054366552   2    1000035    12

DECAY 1000014  28.951616
    0.44055266   2    1000024    13
    0.22438654   2    1000023    14
    0.16367238   2    1000022    14
    0.1169839   2    1000037    13
    0.054315431   2    1000035    14

DECAY 1000016  17.571325
    0.47278077   2    1000015    37
    0.24371873   2    1000015    24
    0.16189838   2    1000022    16
    0.069179949   2    1000024    15
    0.030270055   2    1000023    16
    0.018809016   2    1000037    15
    0.0033362482   2    1000035    16

DECAY 1000001  1.7530771
    0.48469011   2   -1000024    2
    0.25627032   2    1000023    1
    0.1778706   2    1000022    1
    0.057179636   2   -1000037    2
    0.023956812   2    1000035    1

DECAY 2000001  1.6063371
    0.9998829   2    1000022    1

DECAY 1000003  1.7533458
    0.4845987   2   -1000024    4
    0.25625985   2    1000023    3
    0.17784569   2    1000022    3
    0.057185699   2   -1000037    4
    0.024000382   2    1000035    3
    0.0001096726   2    1000025    3

DECAY 2000003  1.6131296
    0.99567532   2    1000022    3
    0.0012035252   2   -1000037    4
    0.00088236929   2    1000025    3
    0.00079406051   2    1000003    25
    0.00068656227   2    1000035    3
    0.00051431472   2   -1000024    4
    0.00024271728   2    1000023    3

DECAY 1000005  1.247831
    0.73241414   2    1000022    5
    0.16037458   2    1000006   -24
    0.10721128   2    1000006   -37

DECAY 2000005  145.71022
    0.68894223   2    1000006   -24
    0.25910541   2    1000006   -37
    0.028212047   2    1000005    25
    0.0065174963   2    1000005    36
    0.0064408336   2    1000005    35
    0.0061657583   2    1000005    23
    0.0019576645   2    1000022    5
    0.0016558683   2    1000023    5
    0.00057414517   2    1000025    5
    0.00027820884   2    1000035    5
    0.00015034188   2   -1000024    6

DECAY 2000002  4.3441768
    0.99999983   2    1000022    2

DECAY 1000002  1.7585222
    0.49362781   2    1000024    1
    0.2556537   2    1000023    2
    0.17614852   2    1000022    2
    0.051554059   2    1000037    1
    0.022999302   2    1000035    2

DECAY 2000004  4.3441735
    0.99999973   2    1000022    4

DECAY 1000004  1.758834
    0.49362757   2    1000024    3
    0.25561489   2    1000023    4
    0.17611716   2    1000022    4
    0.051623675   2    1000037    3
    0.022993625   2    1000035    4

DECAY 1000006  0.78977908
    0.99990723   2    1000022    6

DECAY 2000006  152.69736
    0.38514028   2    1000006    25
    0.33519307   2    1000006    23
    0.12639789   2    1000006    36
    0.11670171   2    1000006    35
    0.014335888   2    1000005    37
    0.013315275   2    1000005    24
    0.0035883451   2    1000024    5
    0.002453978   2    1000022    6
    0.0020123785   2    1000023    6
    0.00086118   2    1000037    5

DECAY 1000024  14.516561
    0.89919542   2    1000006   -5
    0.034555575   2   -1000005    6
    0.025770338   2    37    1000022
    0.025434822   2    1000022    24
    0.013784297   2   -1000015    16
    0.0010064922   3    1000022   -5    6
    0.00020720367   2   -2000013    14

DECAY 1000037  40.153462
    0.81306269   2    1000006   -5
    0.066572619   2   -1000005    6
    0.040069364   2    1000023    24
    0.030733199   2    1000022    24
    0.023295735   2    37    1000022
    0.016091216   2   -1000015    16
    0.0075701724   2    1000024    23
    0.0012142165   3    1000022   -5    6
    0.0011243687   2    1000024    25
    0.00024921384   2   -2000013    14

DECAY 1000022 -1


DECAY 1000023  12.327125
    0.44519271   2    1000006   -6
    0.44519271   2   -1000006    6
    0.021536737   2    1000022    35
    0.020989932   2    1000005   -5
    0.020989932   2   -1000005    5
    0.016300046   2    1000022    25
    0.0071793471   2    1000015   -15
    0.0071793471   2   -1000015    15
    0.0065863054   2    1000022    23
    0.0063298603   2    1000022    36
    0.00072925262   2    1000006   -4
    0.00072925262   2   -1000006    4
    0.0006454983   3    1000022    6   -6
    0.00012976007   2    2000013   -13
    0.00012976007   2   -2000013    13

DECAY 1000025  52.094456
    0.41891586   2    1000006   -6
    0.41891586   2   -1000006    6
    0.031923398   2    1000005   -5
    0.031923398   2   -1000005    5
    0.022723983   2    1000022    23
    0.02124307   2    1000022    25
    0.018468305   2    1000022    35
    0.0082747554   2    1000015   -15
    0.0082747554   2   -1000015    15
    0.0080592942   2    1000023    23
    0.0067442364   2    1000022    36
    0.0016848354   2    1000024   -24
    0.0016848354   2   -1000024    24
    0.00084754031   3    1000022    6   -6
    0.00013501189   2    2000013   -13
    0.00013501189   2   -2000013    13

DECAY 1000035  40.284932
    0.40639616   2    1000006   -6
    0.40639616   2   -1000006    6
    0.034895333   2    1000005   -5
    0.034895333   2   -1000005    5
    0.021673419   2    1000024   -24
    0.021673419   2   -1000024    24
    0.020207817   2    1000022    25
    0.019568501   2    1000022    35
    0.0085850994   2    1000022    23
    0.0084782666   2    1000015   -15
    0.0084782666   2   -1000015    15
    0.0060887438   2    1000022    36
    0.0013376341   2    1000023    25
    0.00090747045   3    1000022    6   -6
    0.00015880331   2    2000013   -13
    0.00015880331   2   -2000013    13

DECAY 1000021  345.11641
    0.12640048   2    1000006   -6
    0.12640048   2   -1000006    6
    0.067558573   2    1000005   -5
    0.067558573   2   -1000005    5
    0.047481443   2    2000002   -2
    0.047481443   2   -2000002    2
    0.047481426   2    2000004   -4
    0.047481426   2   -2000004    4
    0.038652113   2    2000005   -5
    0.038652113   2   -2000005    5
    0.034981923   2    2000006   -6
    0.034981923   2   -2000006    6
    0.031941547   2    1000002   -2
    0.031941547   2   -1000002    2
    0.031941525   2    1000004   -4
    0.031941525   2   -1000004    4
    0.031877933   2    1000003   -3
    0.031877933   2   -1000003    3
    0.031877886   2    1000001   -1
    0.031877886   2   -1000001    1
    0.0047290176   2    2000003   -3
    0.0047290176   2   -2000003    3
    0.0047289695   2    2000001   -1
    0.0047289695   2   -2000001    1
    0.00015156306   2    1000006   -4
    0.00015156306   2   -1000006    4
    0.00010181759   3    1000025    6   -6

DECAY 25  0.0037976959
    0.57817825   2   -5    5
    0.22188242   2   -24    24
    0.071728542   2    21    21
    0.068399325   2   -15    15
    0.028918255   2   -4    4
    0.026605251   2    23    23
    0.0023661617   2    22    22
    0.0014644541   2    22    23
    0.00023761265   2   -13    13
    0.00021896925   2   -3    3
    6.0543275e-07   2   -1    1
    1.4902462e-07   2   -2    2
    5.3418019e-09   2   -11    11

DECAY 35  5.4604048
    0.70898631   2   -5    5
    0.28898602   2   -15    15
    0.0010433313   2   -13    13
    0.00044249388   2   -3    3
    0.00033459834   2    25    25
    0.00018050555   2    21    21
    2.3858763e-05   2   -6    6
    1.2239753e-06   2   -1    1
    9.4134679e-07   2   -24    24
    4.3240487e-07   2    23    23
    2.1272442e-07   2    22    22
    3.8207584e-08   2    22    23
    2.3447164e-08   2   -11    11
    1.542249e-11   2   -4    4
    7.8409125e-17   2   -2    2

DECAY 36  5.4231946
    0.70922272   2   -5    5
    0.28898008   2   -15    15
    0.0010432215   2   -13    13
    0.00044224176   2   -3    3
    0.00019015296   2    21    21
    0.00011938566   2   -6    6
    1.2232769e-06   2   -1    1
    6.9800484e-07   2    23    25
    2.1857451e-07   2    22    22
    3.5565721e-08   2    22    23
    2.3444667e-08   2   -11    11
    1.2155207e-10   2   -4    4
    3.9586092e-13   2    23    35
    5.96456e-16   2   -2    2
    6.4903166e-34   2    25    25

DECAY 37  4.3399037
    0.57333429   2   -5    6
    0.42340172   2   -15    16
    0.0014969332   2   -13    14
    0.0012344033   2   -5    4
    0.00049619043   2   -3    4
    2.2605513e-05   2   -3    2
    8.8150856e-06   2   -5    2
    2.4287679e-06   2   -3    6
    1.3777235e-06   2   -1    2
    1.0023422e-06   2    24    25
    8.948165e-08   2   -1    6
    6.380548e-08   2   -1    4
    3.5013428e-08   2   -11    12
    2.3504515e-08   2    24    35
    1.2395035e-08   2    24    36

DECAY 6  2.43
    1   2    5    24

DECAY 15 -1
