BLOCK SPINFO
   1   SPheno
   2   v4.0.5be

BLOCK SPHENOINFO
   1   2
   2   2

BLOCK MODSEL
   1   0

BLOCK MINPAR
   3    19.644297
   4   -1

BLOCK EXTPAR
   0    2577.6059
   1    536.32946
   2    678.98969
   3    2495.3095
   11    4578.0982
   12    4097.5526
   13    4536.2008
   23   -1304.631
   25    18.845597
   26    1057.636
   31    1289.4909
   32    1289.4909
   33    3560.8263
   34    773.66219
   35    773.66219
   36    2355.0646
   41    1840.1864
   42    1840.1864
   43    4511.7754
   44    3840.2007
   45    3840.2007
   46    1296.0337
   47    4698.8576
   48    4698.8576
   49    1978.3415

BLOCK SMINPUTS
   1    127.90897
   2    1.1663787e-05
   3    0.1184
   4    91.1876
   5    4.18
   6    173.2
   7    1.777
   8    0
   11    0.00051099893
   12    0
   13    0.10565837
   14    0
   21    0.005
   22    0.0025
   23    0.095
   24    1.27

BLOCK GAUGE Q=  2577.6059
   1    0.35536298
   2    0.66519887
   3    1.219778

BLOCK YU Q=  2577.6059
   1   1    8.3961676e-06
   2   2    0.0042652531
   3   3    1.0143245

BLOCK YD Q=  2577.6059
   1   1    0.0003179591
   2   2    0.0060412228
   3   3    0.31531579

BLOCK YE Q=  2577.6059
   1   1    5.5486187e-05
   2   2    0.011472784
   3   3    0.19295335

BLOCK AU Q=  2577.6059
   1   1    0
   2   2    0
   3   3    4578.0982

BLOCK AD Q=  2577.6059
   1   1    0
   2   2    0
   3   3    4097.5526

BLOCK AE Q=  2577.6059
   1   1    0
   2   2    0
   3   3    4536.2009

BLOCK MSOFT Q=  2577.6059
   1    536.32946
   2    678.98969
   3    2495.3095
   21   -647730.65
   22   -1906945
   31    1289.4909
   32    1289.4909
   33    3560.8263
   34    773.66219
   35    773.66219
   36    2355.0646
   41    1840.1864
   42    1840.1864
   43    4511.7754
   44    3840.2007
   45    3840.2007
   46    1296.0337
   47    4698.8576
   48    4698.8576
   49    1978.3415

BLOCK MASS
   6    173.2
   23    91.1876
   24    80.429995
   15    1.777
   25    124.72803
   35    1057.6893
   36    1057.636
   37    1060.7398
   1000001    1958.988
   2000001    4748.6368
   1000002    1957.3653
   2000002    3895.4098
   1000003    1958.988
   2000003    4748.6358
   1000004    1957.3654
   2000004    3895.4093
   1000005    2086.8377
   2000005    4544.9406
   1000006    1460.4501
   2000006    4549.3179
   1000011    1293.1427
   2000011    788.28047
   1000012    1290.4014
   1000013    1293.1426
   2000013    788.27146
   1000014    1290.399
   1000015    2359.4082
   2000015    3564.74
   1000016    3563.4533
   1000021    2688.0203
   1000022    530.61655
   1000023    709.24797
   1000025   -1314.746
   1000035    1318.3444
   1000024    709.42325
   1000037    1318.5371

BLOCK ALPHA
      -0.051788273

BLOCK HMIX Q=  2577.6059
   1   -1304.631
   2    18.845597
   3    243.45774
   4    1118593.9

BLOCK STOPMIX
   1   1   -0.034962238
   1   2    0.99938863
   2   1   -0.99938863
   2   2   -0.034962238

BLOCK SBOTMIX
   1   1   -0.0042908574
   1   2    0.99999079
   2   1   -0.99999079
   2   2   -0.0042908574

BLOCK STAUMIX
   1   1   -0.0072279295
   1   2    0.99997388
   2   1   -0.99997388
   2   2   -0.0072279295

BLOCK NMIX
   1   1    0.9990421
   1   2   -0.0050686886
   1   3   -0.040893972
   1   4   -0.014726418
   2   1   -0.008841516
   2   2   -0.99611734
   2   3   -0.078649596
   2   4   -0.038552742
   3   1   -0.018337927
   3   2    0.028551433
   3   3   -0.70620469
   3   4    0.70719408
   4   1   -0.038735306
   4   2    0.083122616
   4   3   -0.70243637
   4   4   -0.70581396

BLOCK UMIX
   1   1   -0.99373415
   1   2   -0.11176955
   2   1    0.11176955
   2   2   -0.99373415

BLOCK VMIX
   1   1   -0.9984858
   1   2    0.055010153
   2   1    0.055010153
   2   2    0.9984858

BLOCK HIGGSBOUNDSINPUTHIGGSCOUPLINGSFERMIONS
       0, 355.15654,3,36,15,15

BLOCK HIGGSBOUNDSINPUTHIGGSCOUPLINGSBOSONS
       0,4,36,21,21,23

BLOCK SPHENOLOWENERGY
   1    0.00034484933
   2    1.5856013e-06
   3    3.5207011e-05
   4    2.6328526e-15
   5    1.1247231e-10
   6    2.3533626e-08
   7    8.9082656e-14
   8    3.8056029e-09
   9    8.0681701e-07
   10    9.5031604e-05
   11    0.98164009
   12    0.54261989
   13    19.380157
   14    0
   15    0
   16    0.0021597267
   17    2.2816852e-15
   18    2.4776096e-11
   19    8.2804431e-11
   20   -4.2387718e-15
   21   -1.8122155e-10
   22   -1.1423469e-08
   23    0
   24    0
   25    0
   26    0
   27    0
   28    0
   29    0
   30    0
   31    0
   39    5.3856807e-05
   40    0
   41    0
   42    0

BLOCK FWCOEF Q=  160
   305   4422   0   0   -0.18881911
   305   4422   0   2   -0.21253184
   305   4322   0   2   -0.00021841046
   305   6421   0   0   -0.095227835
   305   6421   0   2   -0.12791196
   305   6321   0   2   -0.00045137776
   3051111   4133   0   0    1.6109762
   3051111   4133   0   2    1.6106965
   3051111   4233   0   2   -1.4786379e-05
   3051111   4137   0   0   -4.4336683
   3051111   4137   0   2   -4.4274776
   3051111   4237   0   2    0.00011294584
   3051313   4133   0   0    1.6109762
   3051313   4133   0   2    1.6106953
   3051313   4233   0   2   -1.4787059e-05
   3051313   4137   0   0   -4.4336683
   3051313   4137   0   2   -4.4274788
   3051313   4237   0   2    0.00011294647
   3051212   4137   0   0    1.5053501
   3051212   4137   0   2    1.5040142
   3051212   4237   0   2   -2.4515617e-05
   3051414   4137   0   0    1.5053501
   3051414   4137   0   2    1.5040142
   3051414   4237   0   2   -2.4515473e-05
   3051616   4137   0   0    1.5053501
   3051616   4137   0   2    1.5040137
   3051616   4237   0   2   -2.4474321e-05

BLOCK IMFWCOEF Q=  160
   305   4422   0   0    3.8585222e-07
   305   4422   0   2   -6.3643202e-06
   305   4322   0   2    7.2301296e-06
   305   6421   0   0    3.3050794e-07
   305   6421   0   2    4.2676823e-06
   305   6321   0   2    5.2197321e-06
   3051111   4133   0   2   -5.2722767e-06
   3051111   4233   0   2    5.6250951e-07
   3051111   4137   0   2    4.0371907e-05
   3051111   4237   0   2   -4.2455081e-06
   3051313   4133   0   2   -5.2722459e-06
   3051313   4233   0   2    5.6250923e-07
   3051313   4137   0   2    4.0371939e-05
   3051313   4237   0   2   -4.2455089e-06
   3051212   4137   0   2   -8.6183818e-06
   3051212   4237   0   2    9.2118653e-07
   3051414   4137   0   2   -8.6183818e-06
   3051414   4237   0   2    9.2118653e-07
   3051616   4137   0   2   -8.6278071e-06
   3051616   4237   0   2    9.2119562e-07

DECAY 23  2.4952


DECAY 24  2.085


DECAY 2000011  1.1823959
    0.9999905   2    1000022    11

DECAY 1000011  9.3803246
    0.58559627   2   -1000024    12
    0.29712727   2    1000023    11
    0.11727646   2    1000022    11

DECAY 2000013  1.1823405
    0.99998933   2    1000022    13

DECAY 1000013  9.3813829
    0.58553012   2   -1000024    14
    0.29709493   2    1000023    13
    0.11726359   2    1000022    13
    0.00011135883   2    2000013    25

DECAY 1000015  12.351398
    0.86381637   2    1000022    15
    0.065704293   2   -1000037    16
    0.033629962   2    1000025    15
    0.033523245   2    1000035    15
    0.0021820368   2   -1000024    16
    0.0011440972   2    1000023    15

DECAY 2000015  50.95654
    0.56062612   2   -1000024    16
    0.28465032   2    1000023    15
    0.082336334   2    1000022    15
    0.020041153   2    1000035    15
    0.019406168   2    1000025    15
    0.010763388   2    1000015    35
    0.010758267   2    1000015    36
    0.0059475364   2   -1000037    16
    0.0027781948   2    1000015    23
    0.0026925084   2    1000015    25

DECAY 1000012  9.3710459
    0.58837992   2    1000024    11
    0.29014997   2    1000023    12
    0.12147011   2    1000022    12

DECAY 1000014  9.3710239
    0.58838081   2    1000024    13
    0.2901492   2    1000023    14
    0.12146999   2    1000022    14

DECAY 1000016  50.966418
    0.56655308   2    1000024    15
    0.27898053   2    1000023    16
    0.085414867   2    1000022    16
    0.039476553   2    1000037    15
    0.021215062   2    1000015    37
    0.0055512019   2    1000015    24
    0.0024709688   2    1000035    16
    0.00033773391   2    1000025    16

DECAY 1000001  19.631099
    0.65487243   2   -1000024    2
    0.32801832   2    1000023    1
    0.012626238   2    1000022    1
    0.00328325   2   -1000037    2
    0.0010654421   2    1000035    1
    0.000134326   2    1000025    1

DECAY 2000001  175.68729
    0.98528777   2    1000021    1
    0.014687393   2    1000022    1

DECAY 1000003  19.631734
    0.65485018   2   -1000024    4
    0.32800811   2    1000023    3
    0.012625938   2    1000022    3
    0.0032945712   2   -1000037    4
    0.0010760177   2    1000035    3
    0.00014518342   2    1000025    3

DECAY 2000003  175.69315
    0.98525426   2    1000021    3
    0.014686931   2    1000022    3

DECAY 1000005  3.9823842
    0.35291938   2   -1000037    6
    0.25727085   2    1000022    5
    0.18789208   2    1000025    5
    0.18443083   2    1000035    5
    0.011607355   2   -1000024    6
    0.0058749872   2    1000023    5

DECAY 2000005  360.81904
    0.4203487   2    1000021    5
    0.2168225   2   -1000037    6
    0.15584671   2    1000006   -24
    0.10438704   2   -1000024    6
    0.052324198   2    1000023    5
    0.01161737   2    1000006   -37
    0.010705673   2    1000035    5
    0.010486594   2    1000025    5
    0.0068691034   2    1000005    35
    0.0068631872   2    1000005    36
    0.0018397852   2    1000022    5
    0.001090019   2    1000005    25
    0.00079912198   2    1000005    23

DECAY 1000002  19.686532
    0.65841248   2    1000024    1
    0.32873198   2    1000023    2
    0.011221928   2    1000022    2
    0.00079030544   2    1000037    1
    0.0007590192   2    1000035    2

DECAY 2000002  92.748771
    0.90968709   2    1000021    2
    0.09017096   2    1000022    2
    0.00011033681   2    1000035    2

DECAY 1000004  19.68717
    0.658392   2    1000024    3
    0.32872082   2    1000023    4
    0.011221566   2    1000022    4
    0.00081141602   2    1000037    3
    0.00076456959   2    1000035    4

DECAY 2000004  92.75105
    0.90966339   2    1000021    4
    0.090168708   2    1000022    4
    0.00011628528   2    1000035    4

DECAY 1000006  3.3788059
    0.69034946   2    1000022    6
    0.3016372   2    1000037    5
    0.0053219575   2    1000024    5
    0.0026913759   2    1000023    6

DECAY 2000006  376.09141
    0.40367396   2    1000021    6
    0.11483483   2    1000006    25
    0.10360066   2    1000025    6
    0.1029813   2    1000035    6
    0.10181966   2    1000024    5
    0.074907477   2    1000006    23
    0.050774724   2    1000023    6
    0.019800464   2    1000037    5
    0.013184981   2    1000005    37
    0.0056093195   2    1000006    35
    0.0055776931   2    1000006    36
    0.0016958263   2    1000022    6
    0.0015391064   2    1000005    24

DECAY 1000024  0.0015300157
    0.9994373   2    1000022    24
    0.00026729199   3    1000022   -13    14
    0.00026722761   3    1000022   -11    12

DECAY 1000037  7.4259719
    0.30913963   2    1000024    25
    0.28878079   2    1000023    24
    0.28214327   2    1000024    23
    0.10984442   2    1000022    24
    0.0045615183   3    1000023   -5    6
    0.0031403839   3    1000024    6   -6
    0.0021780378   3    1000022   -5    6

DECAY 1000022 -1


DECAY 1000023  0.001520985
    0.93743381   2    1000022    25
    0.061989813   2    1000022    23
    0.00027298198   3    1000022    12   -12
    0.00013335094   3    1000022    13   -13
    0.00013328874   3    1000022    11   -11

DECAY 1000025  10.466497
    0.24597336   2    1000023    25
    0.2085596   2    1000024   -24
    0.2085596   2   -1000024    24
    0.18598191   2    1000023    23
    0.071770268   2    1000022    25
    0.068000353   2    1000022    23
    0.0046147136   3    1000024    5   -6
    0.0046147136   3   -1000024   -5    6
    0.0009891111   3    1000023    6   -6
    0.00058840777   3    1000022    6   -6

DECAY 1000035  7.3286487
    0.28580538   2    1000024   -24
    0.28580538   2   -1000024    24
    0.28140043   2    1000023    25
    0.082415555   2    1000022    25
    0.030891495   2    1000023    23
    0.021374465   2    1000022    23
    0.0046025198   3    1000024    5   -6
    0.0046025198   3   -1000024   -5    6
    0.0011155852   3    1000023    6   -6
    0.00063866285   3    1000022    6   -6
    0.00032794026   2    2000013   -13
    0.00032794026   2   -2000013    13
    0.00027990496   2    2000011   -11
    0.00027990496   2   -2000011    11

DECAY 1000021  122.81506
    0.16213195   2    1000006   -6
    0.16213195   2   -1000006    6
    0.071479384   2    1000002   -2
    0.071479384   2   -1000002    2
    0.071479284   2    1000004   -4
    0.071479284   2   -1000004    4
    0.071211957   2    1000001   -1
    0.071211957   2   -1000001    1
    0.071211953   2    1000003   -3
    0.071211953   2   -1000003    3
    0.051129011   2    1000005   -5
    0.051129011   2   -1000005    5
    0.0013154516   3    1000025    6   -6
    0.0012623568   3    1000035    6   -6

DECAY 25  0.003940846
    0.58535292   2   -5    5
    0.21855299   2   -24    24
    0.070940323   2    21    21
    0.066864327   2   -15    15
    0.027802709   2   -4    4
    0.026314226   2    23    23
    0.0022827383   2    22    22
    0.001438511   2    22    23
    0.00023172355   2   -13    13
    0.00021877589   2   -3    3
    6.0488445e-07   2   -1    1
    1.4327483e-07   2   -2    2
    5.2094056e-09   2   -11    11

DECAY 35  7.4606502
    0.86876707   2   -5    5
    0.11172754   2   -15    15
    0.0186154   2   -6    6
    0.00037473238   2   -13    13
    0.00029136821   2   -3    3
    0.00011740153   2    25    25
    3.9099932e-05   2    21    21
    3.6931069e-05   2   -24    24
    2.9332047e-05   2    23    23
    8.0531259e-07   2   -1    1
    2.7675456e-07   2   -4    4
    2.0071605e-08   2    22    22
    1.1947684e-08   2    22    23
    8.4189773e-09   2   -11    11
    1.4271534e-12   2   -2    2

DECAY 36  7.3173241
    0.86776015   2   -5    5
    0.11159774   2   -15    15
    0.019807412   2   -6    6
    0.00037430598   2   -13    13
    0.00029102829   2   -3    3
    0.00012497743   2    21    21
    4.269154e-05   2    23    25
    8.043735e-07   2   -1    1
    3.4065626e-07   2    22    23
    2.8734658e-07   2    22    22
    2.6127494e-07   2   -4    4
    8.4094006e-09   2   -11    11
    1.3478299e-12   2   -2    2
    4.9877377e-37   2    25    25

DECAY 37  7.0096363
    0.88110972   2   -5    6
    0.11678296   2   -15    16
    0.001327162   2   -5    4
    0.00041287147   2   -13    14
    0.00027402576   2   -3    4
    4.5210525e-05   2    24    25
    2.4015394e-05   2   -3    6
    1.2658433e-05   2   -3    2
    9.4773282e-06   2   -5    2
    1.0839602e-06   2   -1    6
    7.5957533e-07   2   -1    2
    4.5402178e-08   2   -1    4
    9.6571067e-09   2   -11    12
    5.5778551e-11   2    24    36
    5.115201e-11   2    24    35

DECAY 6  2.43
    1   2    5    24

DECAY 15 -1
