BLOCK SPINFO
   1   SPheno
   2   v4.0.5be

BLOCK SPHENOINFO
   1   2
   2   2

BLOCK MODSEL
   1   0

BLOCK MINPAR
   3    26.869575
   4   -1

BLOCK EXTPAR
   0    2086.1796
   1   -4942.6319
   2   -285.32041
   3    3109.4772
   11    3566.7249
   12    1942.9497
   13    2127.801
   23   -334.47985
   25    25.957184
   26    4474.0107
   31    2945.088
   32    2945.088
   33    4746.5747
   34    2087.8774
   35    2087.8774
   36    2648.1813
   41    4536.474
   42    4536.474
   43    1082.669
   44    2231.2697
   45    2231.2697
   46    3713.8494
   47    4558.975
   48    4558.975
   49    1811.1876

BLOCK SMINPUTS
   1    127.90897
   2    1.1663787e-05
   3    0.1184
   4    91.1876
   5    4.18
   6    173.2
   7    1.777
   8    0
   11    0.00051099893
   12    0
   13    0.10565837
   14    0
   21    0.005
   22    0.0025
   23    0.095
   24    1.27

BLOCK GAUGE Q=  2086.1796
   1    0.35536298
   2    0.66519887
   3    1.219778

BLOCK YU Q=  2086.1796
   1   1    8.3905918e-06
   2   2    0.0042624206
   3   3    1.0136509

BLOCK YD Q=  2086.1796
   1   1    0.00043765351
   2   2    0.0083154167
   3   3    0.43401514

BLOCK YE Q=  2086.1796
   1   1    7.6373738e-05
   2   2    0.015791667
   3   3    0.26558985

BLOCK AU Q=  2086.1796
   1   1    0
   2   2    0
   3   3    3566.7249

BLOCK AD Q=  2086.1796
   1   1    0
   2   2    0
   3   3    1942.9498

BLOCK AE Q=  2086.1796
   1   1    0
   2   2    0
   3   3    2127.801

BLOCK MSOFT Q=  2086.1796
   1   -4942.6319
   2   -285.32041
   3    3109.4772
   21    19870735
   22   -175511.06
   31    2945.088
   32    2945.088
   33    4746.5747
   34    2087.8774
   35    2087.8774
   36    2648.1813
   41    4536.474
   42    4536.474
   43    1082.669
   44    2231.2697
   45    2231.2697
   46    3713.8494
   47    4558.975
   48    4558.975
   49    1811.1876

BLOCK MASS
   6    173.2
   23    91.1876
   24    80.429995
   15    1.777
   25    124.58228
   35    4472.6081
   36    4474.0107
   37    4473.6789
   1000001    4587.3827
   2000001    4599.4616
   1000002    4586.8282
   2000002    2300.8629
   1000003    4587.3831
   2000003    4599.4629
   1000004    4586.8287
   2000004    2300.8631
   1000005    1167.9628
   2000005    1888.6375
   1000006    1165.3675
   2000006    3734.569
   1000011    2948.5186
   2000011    2083.8489
   1000012    2947.0485
   1000013    2948.5178
   2000013    2083.8502
   1000014    2947.0483
   1000015    2651.6776
   2000015    4755.3601
   1000016    4755.1996
   1000021    3278.2076
   1000022   -266.48007
   1000023    348.52048
   1000025   -388.99573
   1000035   -4923.9614
   1000024    268.58107
   1000037    392.63864

BLOCK ALPHA
      -0.037245918

BLOCK HMIX Q=  2086.1796
   1   -334.47985
   2    25.957184
   3    243.67183
   4    20016772

BLOCK STOPMIX
   1   1   -0.99914567
   1   2    0.041327151
   2   1   -0.041327151
   2   2   -0.99914567

BLOCK SBOTMIX
   1   1   -0.99992286
   1   2    0.012420423
   2   1   -0.012420423
   2   2   -0.99992286

BLOCK STAUMIX
   1   1   -0.0012256435
   1   2    0.99999925
   2   1   -0.99999925
   2   2   -0.0012256435

BLOCK NMIX
   1   1   -0.0037653398
   1   2    0.79044645
   1   3    0.48118773
   1   4   -0.37899683
   2   1   -0.0056905543
   2   2    0.085127684
   2   3   -0.6990622
   2   4   -0.70995277
   3   1   -0.0059682314
   3   2   -0.60658689
   3   3    0.52893234
   3   4   -0.59350425
   4   1    0.99995891
   4   2   -0.00015953429
   4   3    0.00099061522
   4   4   -0.0090096175

BLOCK UMIX
   1   1   -0.7524832
   1   2   -0.65861144
   2   1   -0.65861144
   2   2    0.7524832

BLOCK VMIX
   1   1    0.85264185
   1   2    0.52249581
   2   1    0.52249581
   2   2   -0.85264185

BLOCK HIGGSBOUNDSINPUTHIGGSCOUPLINGSFERMIONS
       0, 673.7754,3,36,15,15

BLOCK HIGGSBOUNDSINPUTHIGGSCOUPLINGSBOSONS
       0,4,36,21,21,23

BLOCK SPHENOLOWENERGY
   1    0.00031292953
   2    1.5908285e-06
   3    3.524119e-05
   4    2.7250141e-15
   5    1.164093e-10
   6    2.4356995e-08
   7    9.2804933e-14
   8    3.9646164e-09
   9    8.4048729e-07
   10    9.6614965e-05
   11    0.9979956
   12    0.54197655
   13    19.364645
   14    0
   15    0
   16    0.0021573859
   17    2.2816592e-15
   18    2.4790182e-11
   19    8.2881004e-11
   20    1.6886846e-15
   21    7.2197064e-11
   22    8.6117538e-09
   23    0
   24    0
   25    0
   26    0
   27    0
   28    0
   29    0
   30    0
   31    0
   39    7.5751906e-05
   40    0
   41    0
   42    0

BLOCK FWCOEF Q=  160
   305   4422   0   0   -0.18881911
   305   4422   0   2   -0.17952044
   305   4322   0   2    3.8747804e-05
   305   6421   0   0   -0.095227835
   305   6421   0   2   -0.093269007
   305   6321   0   2   -3.9936567e-05
   3051111   4133   0   0    1.6036659
   3051111   4133   0   2    1.6042165
   3051111   4233   0   2    0.00018194432
   3051111   4137   0   0   -4.426358
   3051111   4137   0   2   -4.4235556
   3051111   4237   0   2   -0.0013911349
   3051313   4133   0   0    1.6036659
   3051313   4133   0   2    1.6042162
   3051313   4233   0   2    0.00018194412
   3051313   4137   0   0   -4.426358
   3051313   4137   0   2   -4.4235559
   3051313   4237   0   2   -0.0013911353
   3051212   4137   0   0    1.5053501
   3051212   4137   0   2    1.5047574
   3051212   4237   0   2    0.00030238124
   3051414   4137   0   0    1.5053501
   3051414   4137   0   2    1.5047574
   3051414   4237   0   2    0.00030238124
   3051616   4137   0   0    1.5053501
   3051616   4137   0   2    1.5047562
   3051616   4237   0   2    0.00030238206

BLOCK IMFWCOEF Q=  160
   305   4422   0   0    3.8583825e-07
   305   4422   0   2    1.9085483e-05
   305   4322   0   2    1.8647654e-06
   305   6421   0   0    3.3049598e-07
   305   6421   0   2    1.6690568e-05
   305   6321   0   2    8.4239243e-07
   3051111   4133   0   2    2.2837848e-06
   3051111   4233   0   2    3.4135586e-06
   3051111   4137   0   2    1.8981855e-06
   3051111   4237   0   2   -2.6101572e-05
   3051313   4133   0   2    2.283761e-06
   3051313   4233   0   2    3.4135554e-06
   3051313   4137   0   2    1.8982084e-06
   3051313   4237   0   2   -2.610158e-05
   3051212   4137   0   2   -1.1587588e-07
   3051212   4237   0   2    5.6735149e-06
   3051414   4137   0   2   -1.1587501e-07
   3051414   4237   0   2    5.6735149e-06
   3051616   4137   0   2   -1.3762032e-07
   3051616   4237   0   2    5.6735142e-06

DECAY 23  2.4952


DECAY 24  2.085


DECAY 2000011  0.00081187122
    0.42800276   2    1000025    11
    0.3947313   2    1000023    11
    0.1769841   2    1000022    11
    0.00015688938   2   -1000037    12
    0.00012495041   2   -1000024    12

DECAY 1000011  37.99813
    0.38040579   2   -1000024    12
    0.28588581   2   -1000037    12
    0.20885875   2    1000022    11
    0.12261207   2    1000025    11
    0.0022375889   2    1000023    11

DECAY 2000013  0.020378066
    0.26723041   2   -1000037    14
    0.24996825   2    1000023    13
    0.2128286   2   -1000024    14
    0.14926624   2    1000025    13
    0.1207065   2    1000022    13

DECAY 1000013  38.012397
    0.38026289   2   -1000024    14
    0.28577842   2   -1000037    14
    0.208868   2    1000022    13
    0.12266989   2    1000025    13
    0.0024195747   2    1000023    13

DECAY 1000015  7.1955564
    0.2786183   2   -1000037    16
    0.24398765   2    1000023    15
    0.2212947   2   -1000024    16
    0.1378994   2    1000025    15
    0.11819996   2    1000022    15

DECAY 2000015  68.850744
    0.34179023   2   -1000024    16
    0.26044109   2   -1000037    16
    0.20993899   2    1000022    15
    0.13840853   2    1000025    15
    0.048908847   2    1000023    15
    0.00026034919   2    1000015    23
    0.00025195414   2    1000015    25

DECAY 1000012  38.05349
    0.48745068   2    1000024    11
    0.21058015   2    1000022    12
    0.17957058   2    1000037    11
    0.11982238   2    1000025    12
    0.0025762109   2    1000023    12

DECAY 1000014  38.067711
    0.48743227   2    1000024    13
    0.21050146   2    1000022    14
    0.17971342   2    1000037    13
    0.1197776   2    1000025    14
    0.0025752483   2    1000023    14

DECAY 1000016  68.891894
    0.48066962   2    1000024    15
    0.21774046   2    1000037    15
    0.18959384   2    1000022    16
    0.10913906   2    1000025    16
    0.0023363845   2    1000023    16
    0.00052064025   2    1000015    24

DECAY 1000001  146.66945
    0.59113135   2    1000021    1
    0.15483747   2   -1000024    2
    0.11768753   2   -1000037    2
    0.085580347   2    1000022    1
    0.04975348   2    1000025    1
    0.0010098229   2    1000023    1

DECAY 2000001  87.883786
    0.99999723   2    1000021    1

DECAY 1000003  146.67736
    0.59109976   2    1000021    3
    0.15483213   2   -1000024    4
    0.11768938   2   -1000037    4
    0.085585621   2    1000022    3
    0.049762622   2    1000025    3
    0.0010304916   2    1000023    3

DECAY 2000003  87.896394
    0.99985527   2    1000021    3

DECAY 1000005  35.535175
    0.49652548   2   -1000037    6
    0.27642406   2   -1000024    6
    0.1082732   2    1000022    5
    0.068136857   2    1000025    5
    0.050640406   2    1000023    5

DECAY 2000005  13.472009
    0.27727375   2   -1000037    6
    0.24035596   2    1000023    5
    0.20604944   2   -1000024    6
    0.13894312   2    1000025    5
    0.1117228   2    1000022    5
    0.01220034   2    1000006   -24
    0.0074303264   2    1000005    25
    0.0060242704   2    1000005    23

DECAY 2000002  0.00040246291
    0.42913334   2    1000025    2
    0.39467435   2    1000023    2
    0.17618469   2    1000022    2

DECAY 1000002  146.66019
    0.59079892   2    1000021    2
    0.19878795   2    1000024    1
    0.085285371   2    1000022    2
    0.074064709   2    1000037    1
    0.050100292   2    1000025    2
    0.00096275175   2    1000023    2

DECAY 2000004  0.0019863397
    0.28690863   2    1000037    3
    0.28146908   2    1000023    4
    0.22616311   2    1000025    4
    0.11121284   2    1000024    3
    0.09424635   2    1000022    4

DECAY 1000004  146.66804
    0.59076722   2    1000021    4
    0.1987958   2    1000024    3
    0.085282441   2    1000022    4
    0.074084715   2    1000037    3
    0.050101486   2    1000025    4
    0.00096833889   2    1000023    4

DECAY 1000006  36.678864
    0.26403656   2    1000023    6
    0.24226302   2    1000024    5
    0.18547943   2    1000025    6
    0.17228623   2    1000022    6
    0.10138529   2    1000037    5
    0.03100738   2    1000022    4
    0.003217405   3    1000022    24    5
    0.00032468488   2    1000023    4

DECAY 2000006  261.92468
    0.21386565   2    1000037    5
    0.16935449   2    1000005    24
    0.14294351   2    1000023    6
    0.11959533   2    1000006    25
    0.10386671   2    1000025    6
    0.084622689   2    1000006    23
    0.071843403   2    1000024    5
    0.055894561   2    1000021    6
    0.037999007   2    1000022    6

DECAY 1000024  1.2460664e-10
    0.58088448   3    1000022   -1    2
    0.19370396   3    1000022   -11    12
    0.19045647   3    1000022   -13    14
    0.034954192   3    1000022   -3    4

DECAY 1000037  1.1256743
    0.79916897   2    1000022    24
    0.20067907   2    1000024    23

DECAY 1000022 -1


DECAY 1000023  0.028842343
    0.096490428   3    1000022    12   -12
    0.086762882   3    1000024    1   -2
    0.086762882   3   -1000024   -1    2
    0.086755681   3    1000024    3   -4
    0.086755681   3   -1000024   -3    4
    0.072146919   3    1000022    1   -1
    0.072146323   3    1000022    3   -3
    0.070940303   3    1000022    5   -5
    0.056272068   3    1000022    2   -2
    0.056162712   3    1000022    4   -4
    0.028921621   3    1000024    11   -12
    0.028921621   3   -1000024   -11    12
    0.028921529   3    1000024    13   -14
    0.028921529   3   -1000024   -13    14
    0.028883688   3    1000024    15   -16
    0.028883688   3   -1000024   -15    16
    0.016280806   3    1000022    11   -11
    0.016280589   3    1000022    13   -13
    0.016214605   3    1000022    15   -15
    0.0065744453   2    1000022    22

DECAY 1000025  2.0734184
    0.49906656   2    1000024   -24
    0.49906656   2   -1000024    24
    0.0017268378   2    1000022    23

DECAY 1000035  126.93553
    0.079384228   2    2000004   -4
    0.079384228   2   -2000004    4
    0.079384228   2    2000002   -2
    0.079384228   2   -2000002    2
    0.065667043   2    2000011   -11
    0.065667043   2   -2000011    11
    0.065667007   2    2000013   -13
    0.065667007   2   -2000013    13
    0.049121958   2    1000015   -15
    0.049121958   2   -1000015    15
    0.02362846   2    2000005   -5
    0.02362846   2   -2000005    5
    0.023403986   2    2000006   -6
    0.023403986   2   -2000006    6
    0.019348246   2    1000037   -24
    0.019348246   2   -1000037    24
    0.015840763   2    1000023    23
    0.012916762   2    1000023    25
    0.010933106   2    1000025    25
    0.01004031   2    1000014   -14
    0.01004031   2   -1000014    14
    0.010040308   2    1000012   -12
    0.010040308   2   -1000012    12
    0.010017159   2    1000013   -13
    0.010017159   2   -1000013    13
    0.010017153   2    1000011   -11
    0.010017153   2   -1000011    11
    0.0073590206   2    1000006   -6
    0.0073590206   2   -1000006    6
    0.0073062881   2    1000025    23
    0.0072457505   2    1000005   -5
    0.0072457505   2   -1000005    5
    0.006538904   2    1000024   -24
    0.006538904   2   -1000024    24
    0.0039618498   2    1000022    25
    0.0027378644   2    1000022    23
    0.0015192607   3    1000023    6   -6
    0.0014192995   3    1000037    5   -6
    0.0014192995   3   -1000037   -5    6
    0.0011138699   3    1000025    6   -6
    0.0005277225   2    2000001   -1
    0.0005277225   2   -2000001    1
    0.00052771828   2    2000003   -3
    0.00052771828   2   -2000003    3
    0.00047968083   3    1000024    5   -6
    0.00047968083   3   -1000024   -5    6
    0.00045770717   2    1000023    35
    0.00041030559   3    1000022    6   -6
    0.00027035218   2    37   -1000024
    0.00027035218   2   -37    1000024
    0.00023060061   2    37   -1000037
    0.00023060061   2   -37    1000037
    0.00021351906   2    1000022    35
    0.00018853563   2    1000025    35
    0.00014182909   2    1000001   -1
    0.00014182909   2   -1000001    1
    0.00014182877   2    1000003   -3
    0.00014182877   2   -1000003    3
    0.00014177128   2    1000002   -2
    0.00014177128   2   -1000002    2
    0.0001417694   2    1000004   -4
    0.0001417694   2   -1000004    4
    0.00011064574   2    1000016   -16
    0.00011064574   2   -1000016    16
    0.00011029393   2    2000015   -15
    0.00011029393   2   -2000015    15

DECAY 1000021  271.46792
    0.13763413   2    1000006   -6
    0.13763413   2   -1000006    6
    0.13623948   2    1000005   -5
    0.13623948   2   -1000005    5
    0.07976335   2    2000005   -5
    0.07976335   2   -2000005    5
    0.053986859   2    1000006   -4
    0.053986859   2   -1000006    4
    0.046010089   2    2000002   -2
    0.046010089   2   -2000002    2
    0.046010045   2    2000004   -4
    0.046010045   2   -2000004    4
    0.00012320063   3    1000023    6   -6

DECAY 25  0.0038266899
    0.57928304   2   -5    5
    0.22162601   2   -24    24
    0.073099739   2    21    21
    0.066485637   2   -15    15
    0.028630691   2   -4    4
    0.026606789   2    23    23
    0.0023522021   2    22    22
    0.0014673639   2    22    23
    0.00023061009   2   -13    13
    0.00021717207   2   -3    3
    6.0045833e-07   2   -1    1
    1.4754205e-07   2   -2    2
    5.1843761e-09   2   -11    11

DECAY 35  106.37306
    0.38253218   2   -5    5
    0.10009678   2   -1000024    1000037
    0.10009678   2   -1000037    1000024
    0.096291166   2   -1000024    1000024
    0.061216728   2   -15    15
    0.052378337   2    1000022    1000023
    0.044701748   2    1000022    1000022
    0.041257835   2   -1000037    1000037
    0.035439875   2    1000023    1000025
    0.029204912   2    1000025    1000025
    0.023401863   2   -2000005    1000005
    0.023401863   2   -1000005    2000005
    0.0055753691   2    1000022    1000025
    0.0025569636   2   -6    6
    0.0014425352   2    1000023    1000023
    0.00021226297   2   -13    13
    0.0001248222   2   -3    3
    3.416876e-05   2   -1000006    1000006
    1.8863636e-05   2   -1000005    1000005
    1.2111058e-05   2   -2000005    2000005
    1.0146801e-06   2    25    25
    9.5689223e-07   2    21    21
    3.4508475e-07   2   -1    1
    2.4544562e-07   2    23    23
    7.1594551e-08   2    22    23
    4.5699917e-08   2   -24    24
    3.3484584e-08   2   -4    4
    2.5981628e-08   2   -1000002    1000002
    2.596648e-08   2   -1000004    1000004
    2.3707431e-08   2    22    22
    1.8098249e-08   2   -1000011    1000011
    1.8017537e-08   2   -1000013    1000013
    4.7667321e-09   2   -11    11
    1.7257982e-13   2   -2    2

DECAY 36  103.13758
    0.36765598   2   -5    5
    0.11138838   2   -1000024    1000024
    0.091276262   2   -1000024    1000037
    0.091276262   2   -1000037    1000024
    0.058835991   2   -15    15
    0.054511996   2   -1000037    1000037
    0.052315544   2    1000022    1000022
    0.044723123   2    1000022    1000023
    0.036589256   2    1000025    1000025
    0.031741442   2    1000023    1000025
    0.024151934   2   -2000005    1000005
    0.024151934   2   -1000005    2000005
    0.0074143916   2    1000022    1000025
    0.0023270665   2   -6    6
    0.0013093136   2    1000023    1000023
    0.00020400762   2   -13    13
    0.00011996343   2   -3    3
    6.0192716e-06   2    21    21
    6.0791007e-07   2    23    25
    3.3165241e-07   2   -1    1
    1.0151056e-07   2    22    23
    5.4479671e-08   2    22    22
    3.0180029e-08   2   -4    4
    4.5812565e-09   2   -11    11
    1.5555016e-13   2   -2    2
    5.7828667e-14   2    23    35
    1.2706557e-42   2    25    25

DECAY 37  107.03588
    0.38875221   2   -5    6
    0.18176699   2    1000022    1000037
    0.15605506   2    1000024    1000025
    0.11428125   2    1000023    1000024
    0.06034654   2   -15    16
    0.050687923   2    1000023    1000037
    0.046903025   2   -2000005    1000006
    0.00057378702   2   -5    4
    0.00028475473   2    1000025    1000037
    0.00021334648   2   -13    14
    0.00011364243   2   -3    4
    7.3759824e-06   2    1000022    1000024
    5.3449509e-06   2   -3    2
    4.0974305e-06   2   -5    2
    3.2929451e-06   2   -3    6
    5.858022e-07   2    24    25
    3.1521974e-07   2   -1    2
    2.8524012e-07   2   -1000005    1000006
    1.4325157e-07   2   -1    6
    1.6090461e-08   2   -1    4
    4.9901964e-09   2   -11    12
    1.0863386e-10   2   -1000005    1000004
    2.2693264e-12   2   -2000005    1000004
    1.7904892e-14   2    24    35
    4.0689364e-18   2   -1000005    1000002
    8.4998804e-20   2   -2000005    1000002

DECAY 6  2.43
    1   2    5    24

DECAY 15 -1
