BLOCK DCINFO
   1   SDECAY/HDECAY
   2   1.3b /3.4

BLOCK SPINFO
   1   SOFTSUSY
   2   3.4.0

BLOCK MODSEL
   1   0

BLOCK SMINPUTS
   1    127.90897
   2    1.1663787e-05
   3    0.1184
   4    91.1876
   5    4.18
   6    173.2
   7    1.777

BLOCK MINPAR
   3    19.38

BLOCK EXTPAR
   0   -1
   1   -478.26
   2    464.96
   3    2534.21
   11   -2012.21
   12   -3550.69
   13    1520.92
   23    1050.34
   26    1904.03
   31    3961.22
   32    3961.22
   33    2678.56
   34    3412.29
   35    3412.29
   36    3642.64
   41    3546.05
   42    3546.05
   43    3178.04
   44    2908.65
   45    2908.65
   46    3585.86
   47    890.2
   48    890.2
   49    3535.3

BLOCK MASS
   24    80.380428
   25    124.19771
   35    1904.0394
   36    1904.03
   37    1905.8638
   5    4.8187603
   1000001    3626.7147
   2000001    1100.066
   1000002    3625.9803
   2000002    3001.4378
   1000003    3626.7147
   2000003    1100.066
   1000004    3625.9803
   2000004    3001.4378
   1000005    3241.8405
   2000005    3605.0487
   1000006    3238.3368
   2000006    3614.4264
   1000011    3968.3077
   2000011    3418.0589
   1000012    3967.1752
   1000013    3968.3077
   2000013    3418.0589
   1000014    3967.1752
   1000015    2681.2886
   2000015    3645.4666
   1000016    2679.8106
   1000021    2752.7168
   1000022   -473.71407
   1000023    492.58023
   1000025   -1084.8366
   1000035    1088.0953
   1000024    492.24082
   1000037    1089.576

BLOCK NMIX
   1   1    0.99861153
   1   2    0.0013793403
   1   3    0.048987529
   1   4    0.019321981
   2   1    0.0023018778
   2   2    0.9946124
   2   3   -0.092982775
   2   4    0.045771998
   3   1   -0.048297444
   3   2    0.033455988
   3   3    0.70472559
   3   4    0.70704307
   4   1   -0.020906404
   4   2    0.098106906
   4   3    0.70165253
   4   4   -0.70542305

BLOCK UMIX
   1   1    0.99134992
   1   2   -0.1312453
   2   1    0.1312453
   2   2    0.99134992

BLOCK VMIX
   1   1    0.9979095
   1   2   -0.064626888
   2   1    0.064626888
   2   2    0.9979095

BLOCK STOPMIX
   1   1    0.99234591
   1   2    0.12348923
   2   1   -0.12348923
   2   2    0.99234591

BLOCK SBOTMIX
   1   1    0.99978908
   1   2    0.020537661
   2   1   -0.020537661
   2   2    0.99978908

BLOCK STAUMIX
   1   1    0.99998565
   1   2    0.0053572189
   2   1   -0.0053572189
   2   2    0.99998565

BLOCK ALPHA
      -0.05425183

BLOCK HMIX Q=  3377.868
   1    1067.1179
   2    18.527148
   3    241.91607
   4    3802308.9

BLOCK GAUGE Q=  3377.868
   1    0.36514708
   2    0.63943407
   3    1.0100765

BLOCK AU Q=  3377.868
   1   1    0
   2   2    0
   3   3   -2012.21

BLOCK AD Q=  3377.868
   1   1    0
   2   2    0
   3   3   -3550.69

BLOCK AE Q=  3377.868
   1   1    0
   2   2    0
   3   3    1520.92

BLOCK YU Q=  3377.868
   1   1    0
   2   2    0
   3   3    0.81942165

BLOCK YD Q=  3377.868
   1   1    0
   2   2    0
   3   3    0.23866207

BLOCK YE Q=  3377.868
   1   1    0
   2   2    0
   3   3    0.19149263

BLOCK MSOFT Q=  3377.868
   1   -478.26
   2    464.96
   3    2534.21
   21    2499058.5
   22   -874049.7
   31    3961.22
   32    3961.22
   33    2678.56
   34    3412.29
   35    3412.29
   36    3642.64
   41    3546.05
   42    3546.05
   43    3178.04
   44    2908.65
   45    2908.65
   46    3585.86
   47    890.19997
   48    890.19997
   49    3535.3

BLOCK HIGGSBOUNDSINPUTHIGGSCOUPLINGSFERMIONS
       0, 343.25523,3,36,15,15

BLOCK HIGGSBOUNDSINPUTHIGGSCOUPLINGSBOSONS
       0,4,36,21,21,23

DECAY 6  1.4404242
    1   2    5    24

DECAY 1000021  80.958314
    0.25   2    2000001   -1
    0.25   2   -2000001    1
    0.25   2    2000003   -3
    0.25   2   -2000003    3

DECAY 1000006  88.47539
    0.28507044   2    1000024    5
    0.19573941   2    1000025    6
    0.18630838   2    1000035    6
    0.15236437   2    1000021    6
    0.14111554   2    1000023    6
    0.033607161   2    1000037    5
    0.0057946925   2    1000022    6

DECAY 2000006  126.08917
    0.31469551   2    1000037    5
    0.25510303   2    1000021    6
    0.16140096   2    1000035    6
    0.15496035   2    1000025    6
    0.064531409   2    1000022    6
    0.025007777   2    1000005    24
    0.012783212   2    1000006    23
    0.010932669   2    1000006    25
    0.00038660489   2    1000024    5
    0.00019847006   2    1000023    6

DECAY 1000005  88.558911
    0.3867565   2   -1000037    6
    0.27924461   2   -1000024    6
    0.15427249   2    1000021    5
    0.14099944   2    1000023    5
    0.017114099   2    1000035    5
    0.016346288   2    1000025    5
    0.0052665768   2    1000022    5

DECAY 2000005  42.915808
    0.79029095   2    1000021    5
    0.078637781   2   -1000037    6
    0.0476962   2    1000022    5
    0.039454902   2    1000025    5
    0.039208288   2    1000035    5
    0.0019084959   2    1000006   -24
    0.0010447663   2    1000005    25
    0.00094831274   2    1000005    23
    0.00053902718   2   -1000024    6
    0.00027127546   2    1000023    5

DECAY 1000002  92.319728
    0.55373708   2    1000021    2
    0.29296313   2    1000024    1
    0.14563618   2    1000023    2
    0.0054067235   2    1000022    2
    0.0011234843   2    1000035    2
    0.0010586701   2    1000037    1
    7.4733749e-05   2    1000025    2

DECAY 2000002  12.365745
    0.51767935   2    1000022    2
    0.48117106   2    1000021    2
    0.00096614609   2    1000025    2
    0.0001807078   2    1000035    2
    2.7395481e-06   2    1000023    2

DECAY 1000001  92.341332
    0.55432981   2    1000021    1
    0.28912111   2   -1000024    2
    0.14537817   2    1000023    1
    0.0052519781   2    1000022    1
    0.0043664126   2   -1000037    2
    0.0013215813   2    1000035    1
    0.00023093483   2    1000025    1

DECAY 2000001  0.44078393
    0.99999155   2    1000022    1
    5.1196512e-06   2    1000023    1
    2.9808293e-06   2    1000025    1
    3.4959537e-07   2    1000035    1

DECAY 1000004  78.334367
    0.44970988   2    1000021    4
    0.36126047   2    1000024    3
    0.17958736   2    1000023    4
    0.00666786   2    1000022    4
    0.0013811214   2    1000035    4
    0.0013014346   2    1000037    3
    9.1873215e-05   2    1000025    4

DECAY 2000004  10.825022
    0.61986379   2    1000022    4
    0.3787648   2    1000021    4
    0.0011525589   2    1000025    4
    0.00021556976   2    1000035    4
    3.2799192e-06   2    1000023    4

DECAY 1000003  78.331904
    0.45031175   2    1000021    3
    0.35661549   2   -1000024    4
    0.17931593   2    1000023    3
    0.0064787078   2    1000022    3
    0.0053690793   2   -1000037    4
    0.0016250711   2    1000035    3
    0.0002839718   2    1000025    3

DECAY 2000003  0.4290606
    0.99999191   2    1000022    3
    5.1186306e-06   2    1000023    3
    2.6653534e-06   2    1000025    3
    3.0947906e-07   2    1000035    3

DECAY 1000011  51.976792
    0.59170187   2   -1000024    12
    0.29857619   2    1000023    11
    0.098595392   2    1000022    11
    0.0091454233   2   -1000037    12
    0.0019719426   2    1000035    11
    9.1783464e-06   2    1000025    11

DECAY 2000011  17.435628
    0.99766577   2    1000022    11
    0.0019618412   2    1000025    11
    0.00036710358   2    1000035    11
    5.2841296e-06   2    1000023    11

DECAY 1000013  51.976792
    0.59170187   2   -1000024    14
    0.29857619   2    1000023    13
    0.098595392   2    1000022    13
    0.0091454233   2   -1000037    14
    0.0019719426   2    1000035    13
    9.1783464e-06   2    1000025    13

DECAY 2000013  17.435628
    0.99766577   2    1000022    13
    0.0019618412   2    1000025    13
    0.00036710358   2    1000035    13
    5.2841296e-06   2    1000023    13

DECAY 1000015  35.150705
    0.56961113   2   -1000024    16
    0.28785634   2    1000023    15
    0.095314555   2    1000022    15
    0.020654155   2    1000035    15
    0.019293845   2    1000025    15
    0.007269977   2   -1000037    16

DECAY 2000015  23.27746
    0.80095578   2    1000022    15
    0.093555173   2   -1000037    16
    0.048843293   2    1000025    15
    0.047160141   2    1000035    15
    0.0036119875   2    1000016   -24
    0.0018904855   2    1000015    25
    0.001847832   2    1000015    23
    0.0014188346   2   -1000024    16
    0.00071647809   2    1000023    15

DECAY 1000012  51.993759
    0.59918074   2    1000024    11
    0.29681501   2    1000023    12
    0.097584721   2    1000022    12
    0.0032139326   2    1000035    12
    0.002215933   2    1000037    11
    0.00098966628   2    1000025    12

DECAY 1000014  51.993759
    0.59918074   2    1000024    13
    0.29681501   2    1000023    14
    0.097584721   2    1000022    14
    0.0032139326   2    1000035    14
    0.002215933   2    1000037    13
    0.00098966628   2    1000025    14

DECAY 1000016  35.170581
    0.57713925   2    1000024    15
    0.28544427   2    1000023    16
    0.094118524   2    1000022    16
    0.039873415   2    1000037    15
    0.0026174291   2    1000035    16
    0.00080710375   2    1000025    16

DECAY 1000024  8.1355825e-11
    0.35013133   3    1000022    2   -1
    0.35013133   3    1000022    4   -3
    0.10443267   3    1000022   -11    12
    0.10443267   3    1000022   -13    14
    0.090872009   3    1000022   -15    16

DECAY 1000037  7.0359138
    0.30937397   2    1000024    23
    0.30410034   2    1000024    25
    0.30289504   2    1000023    24
    0.083630651   2    1000022    24

DECAY 1000022 -1


DECAY 1000023  6.7567601e-11
    0.16353075   3    1000022   -1    1
    0.16353075   3    1000022   -3    3
    0.12633184   3    1000022   -2    2
    0.12633184   3    1000022   -4    4
    0.094033016   3    1000022   -5    5
    0.066449538   3    1000022   -12    12
    0.066449538   3    1000022   -14    14
    0.059553235   3    1000022   -16    16
    0.037711342   2    1000022    22
    0.033206991   3    1000022   -11    11
    0.033206991   3    1000022   -13    13
    0.029309423   3    1000022   -15    15
    3.5471404e-05   3    1000024   -12    11
    3.5471404e-05   3   -1000024    12   -11
    3.5471404e-05   3    1000024   -14    13
    3.5471404e-05   3   -1000024    14   -13

DECAY 1000025  6.9809993
    0.30293558   2    1000024   -24
    0.30293558   2   -1000024    24
    0.27563715   2    1000023    23
    0.073488677   2    1000022    25
    0.030943127   2    1000023    25
    0.014059882   2    1000022    23

DECAY 1000035  7.0368373
    0.30416402   2    1000024   -24
    0.30416402   2   -1000024    24
    0.27383196   2    1000023    25
    0.070795964   2    1000022    23
    0.03335502   2    1000023    23
    0.013689012   2    1000022    25

DECAY 25  0.0040866261
    0.62256042   2    5   -5
    0.18859979   2    24   -24
    0.076714246   2    21    21
    0.063672549   2   -15    15
    0.0232022   2    23    23
    0.021112639   2    4   -4
    0.0022456004   2    22    22
    0.001421049   2    22    23
    0.00024612558   2    3   -3
    0.00022538798   2   -13    13

DECAY 35  18.296659
    0.41982024   2    5   -5
    0.14699148   2    1000024   -1000037
    0.14699148   2    1000037   -1000024
    0.11360226   2    1000023    1000025
    0.073030757   2   -15    15
    0.030508283   2    1000023    1000035
    0.025915231   2    1000022    1000035
    0.012938774   2    6   -6
    0.012233434   2    1000022    1000025
    0.0089699209   2    1000024   -1000024
    0.004456525   2    1000023    1000023
    0.0036399798   2    1000022    1000023
    0.00040937978   2    1000022    1000022
    0.000259538   2   -13    13
    0.00015182535   2    3   -3
    5.1477479e-05   2    25    25
    1.3058844e-05   2    24   -24
    9.5068712e-06   2    21    21
    6.5024649e-06   2    23    23
    2.0446041e-07   2    22    22
    1.3401554e-07   2    4   -4
    9.7452344e-09   2    23    22

DECAY 36  18.27531
    0.4203619   2    5   -5
    0.14428436   2    1000024   -1000037
    0.14428436   2    1000037   -1000024
    0.11043339   2    1000023    1000035
    0.07311859   2   -15    15
    0.031694553   2    1000023    1000025
    0.026759669   2    1000022    1000025
    0.013627852   2    1000024   -1000024
    0.013096938   2    6   -6
    0.011835021   2    1000022    1000035
    0.0067786687   2    1000023    1000023
    0.0027373432   2    1000022    1000023
    0.00050014355   2    1000022    1000022
    0.00025984922   2   -13    13
    0.00015203918   2    3   -3
    6.151641e-05   2    21    21
    1.3178241e-05   2    23    25
    4.5155094e-07   2    22    22
    1.3376877e-07   2    4   -4
    4.6784754e-08   2    23    22

DECAY 37  17.692786
    0.41538156   2    6   -5
    0.15567957   2    1000037    1000023
    0.1535326   2    1000024    1000035
    0.15289291   2    1000024    1000025
    0.075598715   2   -15    16
    0.039171967   2    1000037    1000022
    0.0066121478   2    1000024    1000022
    0.00067889681   2    4   -5
    0.0002686631   2   -13    14
    0.00015461242   2    4   -3
    1.3673253e-05   2    24    25
    7.8483849e-06   2    2   -3
    6.7889469e-06   2    2   -5
    3.8662889e-08   2    1000024    1000023
    1.5409237e-12   2    24    36

DECAY 5 -1


DECAY 15 -1


DECAY 23  2.4952


DECAY 24  2.085
