BLOCK DCINFO
   1   SDECAY/HDECAY
   2   1.3b /3.4

BLOCK SPINFO
   1   SOFTSUSY
   2   3.4.0

BLOCK MODSEL
   1   0

BLOCK SMINPUTS
   1    127.90897
   2    1.1663787e-05
   3    0.1184
   4    91.1876
   5    4.18
   6    173.2
   7    1.777

BLOCK MINPAR
   3    10.51

BLOCK EXTPAR
   0   -1
   1   -1394.12
   2    469.08
   3    2694.16
   11   -3325.6
   12   -83.25
   13    1211.39
   23    270.98
   26    2858.98
   31    1712.02
   32    1712.02
   33    1031.46
   34    2377.58
   35    2377.58
   36    694.24
   41    2985.78
   42    2985.78
   43    1869.65
   44    3507.66
   45    3507.66
   46    3747.35
   47    957.9
   48    957.9
   49    3803.38

BLOCK MASS
   24    80.376027
   25    126.11684
   35    2859.0491
   36    2858.9799
   37    2860.4074
   5    4.8187603
   1000001    3071.7509
   2000001    1112.7679
   1000002    3070.8873
   2000002    3573.2198
   1000003    3071.7509
   2000003    1112.7679
   1000004    3070.8873
   2000004    3573.2198
   1000005    1964.947
   2000005    3861.5568
   1000006    1963.0737
   2000006    3761.9142
   1000011    1716.9849
   2000011    2383.2353
   1000012    1714.8574
   1000013    1716.9849
   2000013    2383.2353
   1000014    1714.8574
   1000015    710.8853
   2000015    1037.1423
   1000016    1033.8196
   1000021    2846.5823
   1000022    265.81329
   1000023   -284.35921
   1000025    512.48683
   1000035   -1380.1032
   1000024    268.6467
   1000037    512.91662

BLOCK NMIX
   1   1   -0.019076528
   1   2   -0.25757359
   1   3    0.69922324
   1   4   -0.66661743
   2   1    0.024787377
   2   2    0.065973282
   2   3    0.70128647
   2   4    0.70938734
   3   1   -0.0054236657
   3   2    0.96400292
   3   3    0.13882834
   3   4   -0.22670609
   4   1    0.999496
   4   2   -0.0013211509
   4   3   -0.0032930013
   4   4   -0.031546075

BLOCK UMIX
   1   1   -0.19804269
   1   2    0.9801934
   2   1   -0.9801934
   2   2   -0.19804269

BLOCK VMIX
   1   1   -0.3244867
   1   2    0.94589026
   2   1   -0.94589026
   2   2   -0.3244867

BLOCK STOPMIX
   1   1    0.99891436
   1   2    0.046584326
   2   1   -0.046584326
   2   2    0.99891436

BLOCK SBOTMIX
   1   1    0.99999982
   1   2    0.00060663001
   2   1   -0.00060663001
   2   2    0.99999982

BLOCK STAUMIX
   1   1    0.0050670397
   1   2    0.99998716
   2   1   -0.99998716
   2   2    0.0050670397

BLOCK ALPHA
      -0.09959182

BLOCK HMIX Q=  2648.049
   1    274.60849
   2    10.036401
   3    241.51777
   4    8188505.1

BLOCK GAUGE Q=  2648.049
   1    0.36490115
   2    0.64178694
   3    1.0150145

BLOCK AU Q=  2648.049
   1   1    0
   2   2    0
   3   3   -3325.6

BLOCK AD Q=  2648.049
   1   1    0
   2   2    0
   3   3   -83.249997

BLOCK AE Q=  2648.049
   1   1    0
   2   2    0
   3   3    1211.39

BLOCK YU Q=  2648.049
   1   1    0
   2   2    0
   3   3    0.8262496

BLOCK YD Q=  2648.049
   1   1    0
   2   2    0
   3   3    0.13534516

BLOCK YE Q=  2648.049
   1   1    0
   2   2    0
   3   3    0.10361071

BLOCK MSOFT Q=  2648.049
   1   -1394.12
   2    469.08
   3    2694.16
   21    8004028.4
   22    95673.252
   31    1712.02
   32    1712.02
   33    1031.46
   34    2377.58
   35    2377.58
   36    694.24
   41    2985.78
   42    2985.78
   43    1869.65
   44    3507.66
   45    3507.66
   46    3747.35
   47    957.89998
   48    957.89998
   49    3803.38

BLOCK HIGGSBOUNDSINPUTHIGGSCOUPLINGSFERMIONS
       0, 100.72934,3,36,15,15

BLOCK HIGGSBOUNDSINPUTHIGGSCOUPLINGSBOSONS
       0,4,36,21,21,23

DECAY 6  1.4512424
    1   2    5    24

DECAY 1000021  110.31635
    0.18415872   2    2000001   -1
    0.18415872   2   -2000001    1
    0.18415872   2    2000003   -3
    0.18415872   2   -2000003    3
    0.066804086   2    1000005   -5
    0.066804086   2   -1000005    5
    0.064878477   2    1000006   -6
    0.064878477   2   -1000006    6

DECAY 1000006  47.10849
    0.27180252   2    1000023    6
    0.25440285   2    1000037    5
    0.25094057   2    1000022    6
    0.15976904   2    1000025    6
    0.061676848   2    1000024    5
    0.0014081644   2    1000035    6

DECAY 2000006  200.34626
    0.21980831   2    1000024    5
    0.18034313   2    1000021    6
    0.14016445   2    1000005    24
    0.12577707   2    1000023    6
    0.10971646   2    1000022    6
    0.072120212   2    1000006    25
    0.071981031   2    1000006    23
    0.033064047   2    1000035    6
    0.031544949   2    1000037    5
    0.015480343   2    1000025    6

DECAY 1000005  46.99384
    0.49028145   2   -1000024    6
    0.34366073   2   -1000037    6
    0.13883674   2    1000025    5
    0.017826233   2    1000022    5
    0.0077947065   2    1000023    5
    0.0016001434   2    1000035    5

DECAY 2000005  48.52101
    0.90684277   2    1000021    5
    0.035609314   2    1000035    5
    0.027454361   2   -1000024    6
    0.014142557   2    1000023    5
    0.014042917   2    1000022    5
    0.0011247334   2   -1000037    6
    0.00055621494   2    1000025    5
    0.00011236953   2    1000006   -24
    5.7723275e-05   2    1000005    23
    5.7036031e-05   2    1000005    25
    1.6402388e-11   2    2000006   -24

DECAY 1000002  39.093215
    0.51922134   2    1000037    1
    0.26909876   2    1000025    2
    0.11904072   2    1000021    2
    0.063574862   2    1000024    1
    0.020601725   2    1000022    2
    0.0069574261   2    1000035    2
    0.001505168   2    1000023    2

DECAY 2000002  42.328784
    0.8619907   2    1000021    2
    0.13782089   2    1000035    2
    0.00011490372   2    1000023    2
    6.8158199e-05   2    1000022    2
    5.3520846e-06   2    1000025    2

DECAY 1000001  39.070403
    0.55805803   2   -1000037    2
    0.2704885   2    1000025    1
    0.119963   2    1000021    1
    0.02370193   2   -1000024    2
    0.019493613   2    1000022    1
    0.0071624044   2    1000035    1
    0.0011325311   2    1000023    1

DECAY 2000001  0.00066270821
    0.54499953   2    1000023    1
    0.32847777   2    1000022    1
    0.042822768   3    1    24   -1000024
    0.016693621   3    1    25    1000023
    0.0161006   3    1   -24    1000024
    0.015952722   3    1    23    1000022
    0.011029892   3    1    23    1000023
    0.00993484   3    1    25    1000022
    0.0085651573   3    1    15   -1000015
    0.0038258165   3    1   -15    1000015
    0.0010138097   3    1    24   -1000037
    0.00026781017   3    1    23    1000025
    0.00023957754   3    1    25    1000025
    7.1864207e-05   3    1   -24    1000037
    1.4677953e-06   3    1   -16    1000016
    1.1843976e-06   3    1   -15    2000015
    8.6991529e-07   3    1    16   -1000016
    7.0267728e-07   3    1    15   -2000015

DECAY 1000004  39.4271
    0.5396181   2    1000037    3
    0.27967044   2    1000025    4
    0.084332492   2    1000021    4
    0.066176195   2    1000024    3
    0.021445107   2    1000022    4
    0.0071910759   2    1000035    4
    0.0015665861   2    1000023    4

DECAY 2000004  32.162968
    0.8105614   2    1000021    4
    0.18917838   2    1000035    4
    0.00015869908   2    1000023    4
    9.4147814e-05   2    1000022    4
    7.3818252e-06   2    1000025    4

DECAY 1000003  39.389857
    0.58019637   2   -1000037    4
    0.28121968   2    1000025    3
    0.08501891   2    1000021    3
    0.024680947   2   -1000024    4
    0.020299207   2    1000022    3
    0.0074057048   2    1000035    3
    0.0011791838   2    1000023    3

DECAY 2000003  0.00064741897
    0.54311423   2    1000023    3
    0.32738032   2    1000022    3
    0.043949902   3    3    24   -1000024
    0.017087853   3    3    25    1000023
    0.016480827   3    3   -24    1000024
    0.016164185   3    3    23    1000022
    0.011290371   3    3    23    1000023
    0.010169767   3    3    25    1000022
    0.0087674293   3    3    15   -1000015
    0.00395926   3    3   -15    1000015
    0.0010386937   3    3    24   -1000037
    0.00027415014   3    3    23    1000025
    0.00024523533   3    3    25    1000025
    7.3437762e-05   3    3   -24    1000037
    1.5286237e-06   3    3   -16    1000016
    1.1917939e-06   3    3   -15    2000015
    8.9059795e-07   3    3    16   -1000016
    7.2713347e-07   3    3    15   -2000015

DECAY 1000011  17.936352
    0.6251374   2   -1000037    12
    0.30049568   2    1000025    11
    0.029277453   2   -1000024    12
    0.026919841   2    1000022    11
    0.015791355   2    1000035    11
    0.0023782676   2    1000023    11

DECAY 2000011  5.5846607
    0.99778722   2    1000035    11
    0.0013498559   2    1000023    11
    0.00080242865   2    1000022    11
    6.0498337e-05   2    1000025    11

DECAY 1000013  17.936352
    0.62513741   2   -1000037    14
    0.30049568   2    1000025    13
    0.029277453   2   -1000024    14
    0.026919841   2    1000022    13
    0.015791354   2    1000035    13
    0.0023782675   2    1000023    13

DECAY 2000013  5.5846607
    0.99778722   2    1000035    13
    0.0013498559   2    1000023    13
    0.00080242865   2    1000022    13
    6.0498337e-05   2    1000025    13

DECAY 1000015  0.22104764
    0.49103073   2   -1000024    16
    0.25710218   2    1000022    15
    0.24514572   2    1000023    15
    0.0044170742   2   -1000037    16
    0.0023042896   2    1000025    15

DECAY 2000015  7.6728792
    0.60747365   2   -1000037    16
    0.2925856   2    1000025    15
    0.046919557   2    1000022    15
    0.037501607   2   -1000024    16
    0.015207013   2    1000023    15
    0.00015988799   2    1000015    23
    0.00015268426   2    1000015    25

DECAY 1000012  17.989459
    0.57942825   2    1000037    11
    0.30294368   2    1000025    12
    0.078258751   2    1000024    11
    0.022646533   2    1000022    12
    0.015728587   2    1000035    12
    0.00099419712   2    1000023    12

DECAY 1000014  17.989459
    0.57942825   2    1000037    13
    0.30294368   2    1000025    14
    0.07825875   2    1000024    13
    0.022646533   2    1000022    14
    0.015728587   2    1000035    14
    0.00099419712   2    1000023    14

DECAY 1000016  7.7628583
    0.55557334   2    1000037    15
    0.29032065   2    1000025    16
    0.12357488   2    1000024    15
    0.028968842   2    1000022    16
    0.0012547881   2    1000023    16
    0.00030750105   2   -1000015   -24

DECAY 1000024  2.2655223e-10
    0.36907429   3    1000022    2   -1
    0.36907429   3    1000022    4   -3
    0.12304852   3    1000022   -11    12
    0.12304852   3    1000022   -13    14
    0.015754364   3    1000022   -15    16

DECAY 1000037  3.4401756
    0.27382372   2    1000022    24
    0.26789167   2    1000024    23
    0.25707964   2    1000023    24
    0.20120497   2    1000024    25

DECAY 1000022 -1


DECAY 1000023  4.6594671e-06
    0.1655567   2    1000022    22
    0.074456048   3    1000024   -2    1
    0.074456048   3   -1000024   -1    2
    0.074456048   3    1000024   -4    3
    0.074456048   3   -1000024   -3    4
    0.063831366   3    1000022   -1    1
    0.063831366   3    1000022   -3    3
    0.049214636   3    1000022   -2    2
    0.049214636   3    1000022   -4    4
    0.033689112   3    1000022   -5    5
    0.029259737   3    1000022   -16    16
    0.02925656   3    1000022   -12    12
    0.02925656   3    1000022   -14    14
    0.024818641   3    1000024   -12    11
    0.024818641   3   -1000024    12   -11
    0.024818641   3    1000024   -14    13
    0.024818641   3   -1000024    14   -13
    0.023315023   3    1000024   -16    15
    0.023315023   3   -1000024    16   -15
    0.014633585   3    1000022   -11    11
    0.014633585   3    1000022   -13    13
    0.013893356   3    1000022   -15    15

DECAY 1000025  3.4510712
    0.28756475   2    1000024   -24
    0.28756475   2   -1000024    24
    0.22064276   2    1000023    23
    0.1787509   2    1000022    25
    0.016815822   2    1000022    23
    0.0086610143   2    1000023    25

DECAY 1000035  8.3160163
    0.23704483   2    1000015   -15
    0.23704483   2   -1000015    15
    0.083402918   2    1000024   -24
    0.083402918   2   -1000024    24
    0.061773331   2    1000023    25
    0.049808524   2    1000022    23
    0.037712976   2    1000022    25
    0.0366513   2    1000023    23
    0.021245177   2    1000016   -16
    0.021245177   2   -1000016    16
    0.020702312   2    2000015   -15
    0.020702312   2   -2000015    15
    0.018570956   2    2000001   -1
    0.018570956   2   -2000001    1
    0.018570956   2    2000003   -3
    0.018570956   2   -2000003    3
    0.0049708828   2    1000037   -24
    0.0049708828   2   -1000037    24
    0.0037726061   2    1000025    23
    0.0012651926   2    1000025    25

DECAY 25  0.0042131834
    0.58053024   2    5   -5
    0.22553983   2    24   -24
    0.07786507   2    21    21
    0.062312931   2   -15    15
    0.028587101   2    23    23
    0.020731697   2    4   -4
    0.0023368527   2    22    22
    0.0016353871   2    22    23
    0.00024032481   2    3   -3
    0.00022056355   2   -13    13

DECAY 35  40.768406
    0.24528293   2    1000024   -1000037
    0.24528293   2    1000037   -1000024
    0.15867953   2    1000023    1000025
    0.088802121   2    1000022    1000025
    0.079807986   2    5   -5
    0.04999105   2    1000024   -1000024
    0.028387288   2    6   -6
    0.025161156   2    1000023    1000035
    0.021485928   2    1000022    1000035
    0.014475009   2   -15    15
    0.01367618   2    1000022    1000022
    0.011585571   2    1000037   -1000037
    0.0071812013   2    1000022    1000023
    0.0060445451   2    1000025    1000025
    0.0010802951   2    1000015   -2000015
    0.0010802951   2    2000015   -1000015
    0.0009174559   2    1000023    1000023
    0.00089849358   2    1000025    1000035
    5.4766063e-05   2    25    25
    5.1457635e-05   2   -13    13
    3.1860993e-05   2    3   -3
    1.4669971e-05   2    24   -24
    1.0711067e-05   2    21    21
    7.3177829e-06   2    23    23
    5.2490412e-06   2    1000016   -1000016
    2.2204754e-06   2    2000015   -2000015
    4.8528968e-07   2    1000015   -1000015
    3.1654183e-07   2    2000001   -2000001
    3.1654183e-07   2    2000003   -2000003
    2.8918242e-07   2    4   -4
    2.2928056e-07   2    22    22
    1.2487658e-07   2    1000035    1000035
    1.8538102e-08   2    23    22

DECAY 36  40.772409
    0.23009001   2    1000024   -1000037
    0.23009001   2    1000037   -1000024
    0.13740509   2    1000022    1000025
    0.099351391   2    1000023    1000025
    0.079825681   2    5   -5
    0.065568248   2    1000024   -1000024
    0.028497292   2    6   -6
    0.026362194   2    1000037   -1000037
    0.025038091   2    1000022    1000035
    0.021619558   2    1000023    1000035
    0.02074884   2    1000022    1000022
    0.01447408   2   -15    15
    0.013388963   2    1000025    1000025
    0.003719938   2    1000022    1000023
    0.0010803218   2    1000015   -2000015
    0.0010803218   2   -1000015    2000015
    0.00089002995   2    1000025    1000035
    0.00063705744   2    1000023    1000023
    5.1454245e-05   2   -13    13
    3.4144226e-05   2    21    21
    3.1881256e-05   2    3   -3
    1.4853608e-05   2    23    25
    2.9017706e-07   2    4   -4
    2.246386e-07   2    22    22
    3.9097002e-08   2    23    22
    9.9286179e-10   2    1000035    1000035

DECAY 37  40.643494
    0.28841159   2    1000037    1000022
    0.26601765   2    1000024    1000025
    0.25229457   2    1000037    1000023
    0.10616783   2    6   -5
    0.04546536   2    1000024    1000035
    0.02162353   2    1000024    1000023
    0.014527239   2   -15    16
    0.0021685233   2   -1000015    1000016
    0.0018111205   2    1000037    1000035
    0.0012714675   2    1000024    1000022
    0.00013146071   2    4   -5
    5.1643222e-05   2   -13    14
    3.1756851e-05   2    4   -3
    1.4933406e-05   2    24    25
    7.1493599e-06   2   -2000015    1000016
    1.5992292e-06   2    2   -3
    1.3146007e-06   2    2   -5
    1.2703927e-06   2    1000037    1000025
    1.9185039e-13   2    24    36

DECAY 5 -1


DECAY 15 -1


DECAY 23  2.4952


DECAY 24  2.085
