# SUSY Les Houches Accord 2 - MSSM spectrum + Decays
# SPheno v4.0.5be
# W. Porod, Comput. Phys. Commun. 153 (2003) 275-315, hep-ph/0301101;
# W. Porod, F.~Staub, Comput. Phys. Commun. 183 (2012) 2458
#                     arXiv:1104.1573 [hep-ph] 
# in case of problems send email to porod@physik.uni-wuerzburg.de
# Created: 20.12.2022,  18:31
Block SPINFO         # Program information
     1   SPheno      # spectrum calculator
     2   v4.0.5be    # version number
#
Block SPhenoINFO     # SPheno specific information
    1      2         # using 2-loop RGEs
    2      2         # using pole masses for boundary conditions at mZ
Block MODSEL  # Model selection
    1    0    # general MSSM
Block MINPAR  # Input parameters
    3    3.41829201E+01  # tanb at m_Z    
    4    1.00000000E+00  # Sign(mu)
Block EXTPAR  # non-universal input parameters
    0    3.32958801E+03  # scale for input parameters
    1   -3.86726426E+02  # M_1
    2   -4.70567415E+02  # M_2
    3    4.39557147E+03  # M_3
   11    2.04039689E+03  # A_t
   12    4.88495828E+02  # A_b
   13    1.27365427E+03  # A_tau
   23    1.42593702E+02  # mu
   25    3.30536705E+01  # tan(beta)
   26    2.57620487E+03  # m_A, pole mass
   31    1.00000000E+04  # M_L11
   32    1.00000000E+04  # M_L22
   33    1.00000000E+04  # M_L33
   34    1.00000000E+04  # M_E11
   35    1.00000000E+04  # M_E22
   36    1.00000000E+04  # M_E33
   41    1.00000000E+04  # M_Q11
   42    1.00000000E+04  # M_Q22
   43    3.87541756E+03  # M_Q33
   44    1.00000000E+04  # M_U11
   45    1.00000000E+04  # M_U22
   46    2.70328361E+03  # M_U33
   47    1.00000000E+04  # M_D11
   48    1.00000000E+04  # M_D22
   49    4.12581694E+03  # M_D33
Block SMINPUTS  # SM parameters
         1     1.27908970E+02  # alpha_em^-1(MZ)^MSbar
         2     1.16637870E-05  # G_mu [GeV^-2]
         3     1.18400000E-01  # alpha_s(MZ)^MSbar
         4     9.11876000E+01  # m_Z(pole)
         5     4.18000000E+00  # m_b(m_b), MSbar
         6     1.73200000E+02  # m_t(pole)
         7     1.77700000E+00  # m_tau(pole)
         8     0.00000000E+00  # m_nu_3
        11     5.10998930E-04  # m_e(pole)
        12     0.00000000E+00  # m_nu_1
        13     1.05658372E-01  # m_muon(pole)
        14     0.00000000E+00  # m_nu_2
        21     5.00000000E-03  # m_d(2 GeV), MSbar
        22     2.50000000E-03  # m_u(2 GeV), MSbar
        23     9.50000000E-02  # m_s(2 GeV), MSbar
        24     1.27000000E+00  # m_c(m_c), MSbar
Block gauge Q=  3.32958801E+03  # (SUSY scale)
   1    3.55362975E-01  # g'(Q)^DRbar
   2    6.65198874E-01  # g(Q)^DRbar
   3    1.21977796E+00  # g3(Q)^DRbar
Block Yu Q=  3.32958801E+03  # (SUSY scale)
  1  1     8.38820834E-06   # Y_u(Q)^DRbar
  2  2     4.26120984E-03   # Y_c(Q)^DRbar
  3  3     1.01336294E+00   # Y_t(Q)^DRbar
Block Yd Q=  3.32958801E+03  # (SUSY scale)
  1  1     5.57146170E-04   # Y_d(Q)^DRbar
  2  2     1.05857772E-02   # Y_s(Q)^DRbar
  3  3     5.52514416E-01   # Y_b(Q)^DRbar
Block Ye Q=  3.32958801E+03  # (SUSY scale)
  1  1     9.72260809E-05   # Y_e(Q)^DRbar
  2  2     2.01032699E-02   # Y_mu(Q)^DRbar
  3  3     3.38103928E-01   # Y_tau(Q)^DRbar
Block Au Q=  3.32958801E+03  # (SUSY scale)
  1  1     0.00000000E+00   # A_u(Q)^DRbar
  2  2     0.00000000E+00   # A_c(Q)^DRbar
  3  3     2.04039681E+03   # A_t(Q)^DRbar
Block Ad Q=  3.32958801E+03  # (SUSY scale)
  1  1     0.00000000E+00   # A_d(Q)^DRbar
  2  2     0.00000000E+00   # A_s(Q)^DRbar
  3  3     4.88495848E+02   # A_b(Q)^DRbar
Block Ae Q=  3.32958801E+03  # (SUSY scale)
  1  1     0.00000000E+00   # A_e(Q)^DRbar
  2  2     0.00000000E+00   # A_mu(Q)^DRbar
  3  3     1.27365426E+03   # A_tau(Q)^DRbar
Block MSOFT Q=  3.32958801E+03  # soft SUSY breaking masses at Q
   1   -3.86726426E+02  # M_1
   2   -4.70567415E+02  # M_2
   3    4.39557147E+03  # M_3
  21    6.55093103E+06  # M^2_(H,d)
  22    2.11805968E+05  # M^2_(H,u)
  31    1.00000000E+04  # M_(L,11)
  32    1.00000000E+04  # M_(L,22)
  33    1.00000000E+04  # M_(L,33)
  34    1.00000000E+04  # M_(E,11)
  35    1.00000000E+04  # M_(E,22)
  36    1.00000000E+04  # M_(E,33)
  41    1.00000000E+04  # M_(Q,11)
  42    1.00000000E+04  # M_(Q,22)
  43    3.87541756E+03  # M_(Q,33)
  44    1.00000000E+04  # M_(U,11)
  45    1.00000000E+04  # M_(U,22)
  46    2.70328361E+03  # M_(U,33)
  47    1.00000000E+04  # M_(D,11)
  48    1.00000000E+04  # M_(D,22)
  49    4.12581694E+03  # M_(D,33)
Block MASS  # Mass spectrum
#   PDG code      mass          particle
         6     1.73200000E+02  # m_t(pole)
        23     9.11876000E+01  # m_Z(pole)
        24     8.04299946E+01  # W+
        15     1.77700000E+00  # m_tau(pole)
        25     1.22497320E+02  # h0
        35     2.57546978E+03  # H0
        36     2.57620487E+03  # A0
        37     2.57806177E+03  # H+
   1000001     1.00869902E+04  # ~d_L
   2000001     1.00625825E+04  # ~d_R
   1000002     1.00866794E+04  # ~u_L
   2000002     1.00654616E+04  # ~u_R
   1000003     1.00869945E+04  # ~s_L
   2000003     1.00625895E+04  # ~s_R
   1000004     1.00866837E+04  # ~c_L
   2000004     1.00654628E+04  # ~c_R
   1000005     3.97542441E+03  # ~b_1
   2000005     4.22994216E+03  # ~b_2
   1000006     2.78659305E+03  # ~t_1
   2000006     3.97839087E+03  # ~t_2
   1000011     1.00213240E+04  # ~e_L-
   2000011     1.00090219E+04  # ~e_R-
   1000012     1.00205522E+04  # ~nu_eL
   1000013     1.00213424E+04  # ~mu_L-
   2000013     1.00090576E+04  # ~mu_R-
   1000014     1.00205705E+04  # ~nu_muL
   1000015     1.00192516E+04  # ~tau_1-
   2000015     1.00265891E+04  # ~tau_2-
   1000016     1.00258026E+04  # ~nu_tauL
   1000021     4.83415695E+03  # ~g
   1000022     1.47534291E+02  # ~chi_10
   1000023     1.66193450E+02  # ~chi_20
   1000025     3.95159448E+02  # ~chi_30
   1000035     5.28728320E+02  # ~chi_40
   1000024     1.56115920E+02  # ~chi_1+
   1000037     5.28701115E+02  # ~chi_2+
# Higgs mixing
Block alpha # Effective Higgs mixing angle
          -2.93383495E-02   # alpha
Block Hmix Q=  3.32958801E+03  # Higgs mixing parameters
   1    1.42593702E+02  # mu
   2    3.30536705E+01  # tan[beta](Q)
   3    2.43150829E+02  # v(Q)
   4    6.63683153E+06  # m^2_A(Q)
Block stopmix # stop mixing matrix
   1  1    -3.45687597E-02   # Re[R_st(1,1)]
   1  2     9.99402322E-01   # Re[R_st(1,2)]
   2  1    -9.99402322E-01   # Re[R_st(2,1)]
   2  2    -3.45687597E-02   # Re[R_st(2,2)]
Block sbotmix # sbottom mixing matrix
   1  1     9.99994269E-01   # Re[R_sb(1,1)]
   1  2     3.38554830E-03   # Re[R_sb(1,2)]
   2  1    -3.38554830E-03   # Re[R_sb(2,1)]
   2  2     9.99994269E-01   # Re[R_sb(2,2)]
Block staumix # stau mixing matrix
   1  1     3.94934916E-02   # Re[R_sta(1,1)]
   1  2     9.99219828E-01   # Re[R_sta(1,2)]
   2  1    -9.99219828E-01   # Re[R_sta(2,1)]
   2  2     3.94934916E-02   # Re[R_sta(2,2)]
Block Nmix # neutralino mixing matrix
   1  1    -1.19121535E-01   # Re[N(1,1)]
   1  2     1.40341483E-01   # Re[N(1,2)]
   1  3    -7.22342996E-01   # Re[N(1,3)]
   1  4    -6.66584522E-01   # Re[N(1,4)]
   2  1     5.93385724E-02   # Re[N(2,1)]
   2  2    -8.76047441E-02   # Re[N(2,2)]
   2  3    -6.88711758E-01   # Re[N(2,3)]
   2  4     7.17272930E-01   # Re[N(2,4)]
   3  1    -9.89521774E-01   # Re[N(3,1)]
   3  2    -7.77842871E-02   # Re[N(3,2)]
   3  3     4.31025930E-02   # Re[N(3,3)]
   3  4     1.13747217E-01   # Re[N(3,4)]
   4  1    -5.59968923E-02   # Re[N(4,1)]
   4  2     9.83147640E-01   # Re[N(4,2)]
   4  3     4.51539246E-02   # Re[N(4,3)]
   4  4     1.68066027E-01   # Re[N(4,4)]
Block Umix # chargino mixing matrix
   1  1    -6.31096403E-02   # Re[U(1,1)]
   1  2     9.98006600E-01   # Re[U(1,2)]
   2  1    -9.98006600E-01   # Re[U(2,1)]
   2  2    -6.31096403E-02   # Re[U(2,2)]
Block Vmix # chargino mixing matrix
   1  1     2.34019508E-01   # Re[V(1,1)]
   1  2     9.72231901E-01   # Re[V(1,2)]
   2  1     9.72231901E-01   # Re[V(2,1)]
   2  2    -2.34019508E-01   # Re[V(2,2)]
DECAY        23     2.49520000E+00   # Z
DECAY        24     2.08500000E+00   # W
DECAY   2000011     5.01370052E+01   # ~e^-_R
#    BR                NDA      ID1      ID2
     1.42275515E-02    2     1000022        11   # BR(~e^-_R -> chi^0_1 e^-)
     3.52999927E-03    2     1000023        11   # BR(~e^-_R -> chi^0_2 e^-)
     9.79114616E-01    2     1000025        11   # BR(~e^-_R -> chi^0_3 e^-)
     3.12779602E-03    2     1000035        11   # BR(~e^-_R -> chi^0_4 e^-)
DECAY   1000011     1.44153658E+02   # ~e^-_L
#    BR                NDA      ID1      ID2
     1.79951460E-03    2     1000022        11   # BR(~e^-_L -> chi^0_1 e^-)
     9.55796678E-04    2     1000023        11   # BR(~e^-_L -> chi^0_2 e^-)
     1.12170789E-01    2     1000025        11   # BR(~e^-_L -> chi^0_3 e^-)
     2.76490020E-01    2     1000035        11   # BR(~e^-_L -> chi^0_4 e^-)
     2.43620136E-03    2    -1000024        12   # BR(~e^-_L -> chi^-_1 nu_e)
     6.06147678E-01    2    -1000037        12   # BR(~e^-_L -> chi^-_2 nu_e)
#    BR                NDA      ID1      ID2       ID3
DECAY   2000013     5.02980484E+01   # ~mu^-_R
#    BR                NDA      ID1      ID2
     1.50164837E-02    2     1000022        13   # BR(~mu^-_R -> chi^0_1 mu^-)
     4.27716765E-03    2     1000023        13   # BR(~mu^-_R -> chi^0_2 mu^-)
     9.75986176E-01    2     1000025        13   # BR(~mu^-_R -> chi^0_3 mu^-)
     3.12103681E-03    2     1000035        13   # BR(~mu^-_R -> chi^0_4 mu^-)
     1.59279945E-03    2    -1000024        14   # BR(~mu^-_R -> chi^-_1 nu_mu)
DECAY   1000013     1.44234456E+02   # ~mu^-_L
#    BR                NDA      ID1      ID2
     2.08985531E-03    2     1000022        13   # BR(~mu^-_L -> chi^0_1 mu^-)
     1.22008066E-03    2     1000023        13   # BR(~mu^-_L -> chi^0_2 mu^-)
     1.12109193E-01    2     1000025        13   # BR(~mu^-_L -> chi^0_3 mu^-)
     2.76336782E-01    2     1000035        13   # BR(~mu^-_L -> chi^0_4 mu^-)
     2.43484111E-03    2    -1000024        14   # BR(~mu^-_L -> chi^-_1 nu_mu)
     6.05809248E-01    2    -1000037        14   # BR(~mu^-_L -> chi^-_2 nu_mu)
#    BR                NDA      ID1      ID2       ID3
DECAY   1000015     9.58502159E+01   # ~tau^-_1
#    BR                NDA      ID1      ID2
     1.35271835E-01    2     1000022        15   # BR(~tau^-_1 -> chi^0_1 tau^-)
     1.12400332E-01    2     1000023        15   # BR(~tau^-_1 -> chi^0_2 tau^-)
     5.12077427E-01    2     1000025        15   # BR(~tau^-_1 -> chi^0_3 tau^-)
     1.57827823E-03    2     1000035        15   # BR(~tau^-_1 -> chi^0_4 tau^-)
     2.38622522E-01    2    -1000024        16   # BR(~tau^-_1 -> chi^-_1 nu_tau)
DECAY   2000015     1.66908336E+02   # ~tau^-_2
#    BR                NDA      ID1      ID2
     7.06031367E-02    2     1000022        15   # BR(~tau^-_2 -> chi^0_1 tau^-)
     6.68235292E-02    2     1000023        15   # BR(~tau^-_2 -> chi^0_2 tau^-)
     9.77813672E-02    2     1000025        15   # BR(~tau^-_2 -> chi^0_3 tau^-)
     2.39511386E-01    2     1000035        15   # BR(~tau^-_2 -> chi^0_4 tau^-)
     9.78536822E-04    2    -1000024        16   # BR(~tau^-_2 -> chi^-_1 nu_tau)
     5.24302044E-01    2    -1000037        16   # BR(~tau^-_2 -> chi^-_2 nu_tau)
#    BR                NDA      ID1      ID2       ID3
DECAY   1000012     1.44157911E+02   # ~nu_e
#    BR                NDA      ID1      ID2
     1.27244062E-02    2     1000022        12   # BR(~nu_e -> chi^0_1 nu_e)
     4.35243214E-03    2     1000023        12   # BR(~nu_e -> chi^0_2 nu_e)
     6.19936013E-02    2     1000025        12   # BR(~nu_e -> chi^0_3 nu_e)
     3.12253329E-01    2     1000035        12   # BR(~nu_e -> chi^0_4 nu_e)
     3.34949836E-02    2     1000024        11   # BR(~nu_e -> chi^+_1 e^-)
     5.75181247E-01    2     1000037        11   # BR(~nu_e -> chi^+_2 e^-)
#    BR                NDA      ID1      ID2       ID3
DECAY   1000014     1.44238702E+02   # ~nu_mu
#    BR                NDA      ID1      ID2
     1.27173024E-02    2     1000022        14   # BR(~nu_mu -> chi^0_1 nu_mu)
     4.35000223E-03    2     1000023        14   # BR(~nu_mu -> chi^0_2 nu_mu)
     6.19589917E-02    2     1000025        14   # BR(~nu_mu -> chi^0_3 nu_mu)
     3.12079008E-01    2     1000035        14   # BR(~nu_mu -> chi^0_4 nu_mu)
     3.40323445E-02    2     1000024        13   # BR(~nu_mu -> chi^+_1 mu^-)
     5.74862351E-01    2     1000037        13   # BR(~nu_mu -> chi^+_2 mu^-)
#    BR                NDA      ID1      ID2       ID3
DECAY   1000016     1.67023495E+02   # ~nu_tau
#    BR                NDA      ID1      ID2
     1.09881893E-02    2     1000022        16   # BR(~nu_tau -> chi^0_1 nu_tau)
     3.75855290E-03    2     1000023        16   # BR(~nu_tau -> chi^0_2 nu_tau)
     5.35348624E-02    2     1000025        16   # BR(~nu_tau -> chi^0_3 nu_tau)
     2.69648510E-01    2     1000035        16   # BR(~nu_tau -> chi^0_4 nu_tau)
     1.64828124E-01    2     1000024        15   # BR(~nu_tau -> chi^+_1 tau^-)
     4.97241761E-01    2     1000037        15   # BR(~nu_tau -> chi^+_2 tau^-)
#    BR                NDA      ID1      ID2       ID3
DECAY   2000001     4.75556011E+02   # ~d_R
#    BR                NDA      ID1      ID2
     1.67625540E-04    2     1000022         1   # BR(~d_R -> chi^0_1 d)
     1.15313448E-02    2     1000025         1   # BR(~d_R -> chi^0_3 d)
     9.88222426E-01    2     1000021         1   # BR(~d_R -> ~g d)
DECAY   1000001     6.06337015E+02   # ~d_L
#    BR                NDA      ID1      ID2
     1.91034496E-03    2     1000022         1   # BR(~d_L -> chi^0_1 d)
     7.05366113E-04    2     1000023         1   # BR(~d_L -> chi^0_2 d)
     7.07152692E-04    2     1000025         1   # BR(~d_L -> chi^0_3 d)
     7.18230235E-02    2     1000035         1   # BR(~d_L -> chi^0_4 d)
     5.82993907E-04    2    -1000024         2   # BR(~d_L -> chi^-_1 u)
     1.45063446E-01    2    -1000037         2   # BR(~d_L -> chi^-_2 u)
     7.79207673E-01    2     1000021         1   # BR(~d_L -> ~g d)
DECAY   2000003     4.75601453E+02   # ~s_R
#    BR                NDA      ID1      ID2
     1.92141825E-04    2     1000022         3   # BR(~s_R -> chi^0_1 s)
     1.15303383E-02    2     1000025         3   # BR(~s_R -> chi^0_3 s)
     9.88129517E-01    2     1000021         3   # BR(~s_R -> ~g s)
DECAY   1000003     6.06363569E+02   # ~s_L
#    BR                NDA      ID1      ID2
     1.92955046E-03    2     1000022         3   # BR(~s_L -> chi^0_1 s)
     7.22867986E-04    2     1000023         3   # BR(~s_L -> chi^0_2 s)
     7.07190549E-04    2     1000025         3   # BR(~s_L -> chi^0_3 s)
     7.18199845E-02    2     1000035         3   # BR(~s_L -> chi^0_4 s)
     5.88645571E-04    2    -1000024         4   # BR(~s_L -> chi^-_1 c)
     1.45057484E-01    2    -1000037         4   # BR(~s_L -> chi^-_2 c)
     7.79174277E-01    2     1000021         3   # BR(~s_L -> ~g s)
DECAY   1000005     1.62599516E+02   # ~b_1
#    BR                NDA      ID1      ID2
     8.01870543E-02    2     1000022         5   # BR(~b_1 -> chi^0_1 b)
     7.11486271E-02    2     1000023         5   # BR(~b_1 -> chi^0_2 b)
     1.27646137E-03    2     1000025         5   # BR(~b_1 -> chi^0_3 b)
     1.02672269E-01    2     1000035         5   # BR(~b_1 -> chi^0_4 b)
     4.69664082E-01    2    -1000024         6   # BR(~b_1 -> chi^-_1 t)
     2.33996247E-01    2    -1000037         6   # BR(~b_1 -> chi^-_2 t)
     4.10552600E-02    2     1000006       -24   # BR(~b_1 -> ~t_1 W^-)
DECAY   2000005     5.34720882E+01   # ~b_2
#    BR                NDA      ID1      ID2
     2.50281824E-01    2     1000022         5   # BR(~b_2 -> chi^0_1 b)
     2.27556070E-01    2     1000023         5   # BR(~b_2 -> chi^0_2 b)
     4.34236604E-02    2     1000025         5   # BR(~b_2 -> chi^0_3 b)
     1.21010593E-03    2     1000035         5   # BR(~b_2 -> chi^0_4 b)
     4.75386281E-01    2    -1000024         6   # BR(~b_2 -> chi^-_1 t)
     2.09548115E-03    2    -1000037         6   # BR(~b_2 -> chi^-_2 t)
DECAY   2000002     4.92660483E+02   # ~u_R
#    BR                NDA      ID1      ID2
     6.47145427E-04    2     1000022         2   # BR(~u_R -> chi^0_1 u)
     1.60562952E-04    2     1000023         2   # BR(~u_R -> chi^0_2 u)
     4.45367884E-02    2     1000025         2   # BR(~u_R -> chi^0_3 u)
     1.42277359E-04    2     1000035         2   # BR(~u_R -> chi^0_4 u)
     9.54513226E-01    2     1000021         2   # BR(~u_R -> ~g u)
DECAY   1000002     6.06325913E+02   # ~u_L
#    BR                NDA      ID1      ID2
     1.03871175E-03    2     1000022         2   # BR(~u_L -> chi^0_1 u)
     4.34330881E-04    2     1000023         2   # BR(~u_L -> chi^0_2 u)
     4.70924194E-03    2     1000025         2   # BR(~u_L -> chi^0_3 u)
     6.89665007E-02    2     1000035         2   # BR(~u_L -> chi^0_4 u)
     8.01635264E-03    2     1000024         1   # BR(~u_L -> chi^+_1 d)
     1.37665565E-01    2     1000037         1   # BR(~u_L -> chi^+_2 d)
     7.79169297E-01    2     1000021         2   # BR(~u_L -> ~g u)
DECAY   2000004     4.92667844E+02   # ~c_R
#    BR                NDA      ID1      ID2
     6.50414103E-04    2     1000022         4   # BR(~c_R -> chi^0_1 c)
     1.64355742E-04    2     1000023         4   # BR(~c_R -> chi^0_2 c)
     4.45362204E-02    2     1000025         4   # BR(~c_R -> chi^0_3 c)
     1.42482401E-04    2     1000035         4   # BR(~c_R -> chi^0_4 c)
     9.54499153E-01    2     1000021         4   # BR(~c_R -> ~g c)
DECAY   1000004     6.06352433E+02   # ~c_L
#    BR                NDA      ID1      ID2
     1.04133611E-03    2     1000022         4   # BR(~c_L -> chi^0_1 c)
     4.37402335E-04    2     1000023         4   # BR(~c_L -> chi^0_2 c)
     4.70911574E-03    2     1000025         4   # BR(~c_L -> chi^0_3 c)
     6.89636770E-02    2     1000035         4   # BR(~c_L -> chi^0_4 c)
     8.05282359E-03    2     1000024         3   # BR(~c_L -> chi^+_1 s)
     1.37659749E-01    2     1000037         3   # BR(~c_L -> chi^+_2 s)
     7.79135896E-01    2     1000021         4   # BR(~c_L -> ~g c)
DECAY   1000006     1.18325013E+02   # ~t_1
#    BR                NDA      ID1      ID2
     2.14002026E-01    2     1000022         6   # BR(~t_1 -> chi^0_1 t)
     2.45569073E-01    2     1000023         6   # BR(~t_1 -> chi^0_2 t)
     5.35417571E-02    2     1000025         6   # BR(~t_1 -> chi^0_3 t)
     1.03206277E-02    2     1000035         6   # BR(~t_1 -> chi^0_4 t)
     4.56502370E-01    2     1000024         5   # BR(~t_1 -> chi^+_1 b)
     2.00610229E-02    2     1000037         5   # BR(~t_1 -> chi^+_2 b)
#    BR                NDA      ID1      ID2       ID3
DECAY   2000006     1.64540067E+02   # ~t_2
#    BR                NDA      ID1      ID2
     2.17477732E-01    2     1000022         6   # BR(~t_2 -> chi^0_1 t)
     2.51593783E-01    2     1000023         6   # BR(~t_2 -> chi^0_2 t)
     1.39135300E-02    2     1000025         6   # BR(~t_2 -> chi^0_3 t)
     1.11903234E-01    2     1000035         6   # BR(~t_2 -> chi^0_4 t)
     1.52720200E-01    2     1000024         5   # BR(~t_2 -> chi^+_1 b)
     1.99422731E-01    2     1000037         5   # BR(~t_2 -> chi^+_2 b)
     2.03543012E-02    2     1000006        23   # BR(~t_2 -> ~t_1 Z)
     3.26144884E-02    2     1000006        25   # BR(~t_2 -> ~t_1 h^0)
DECAY   1000024     1.77012151E-07   # chi^+_1
#    BR                NDA      ID1      ID2       ID3
     3.52516204E-01    3     1000022        -1         2   # BR(chi^+_1 -> chi^0_1 d_bar u)
     3.16873124E-01    3     1000022        -3         4   # BR(chi^+_1 -> chi^0_1 s_bar c)
     1.17505512E-01    3     1000022       -11        12   # BR(chi^+_1 -> chi^0_1 e^+ nu_e)
     1.17417120E-01    3     1000022       -13        14   # BR(chi^+_1 -> chi^0_1 mu^+ nu_mu)
     9.56880397E-02    3     1000022       -15        16   # BR(chi^+_1 -> chi^0_1 tau^+ nu_tau)
DECAY   1000037     4.11820140E+00   # chi^+_2
#    BR                NDA      ID1      ID2
     2.39934567E-01    2     1000022        24   # BR(chi^+_2 -> chi^0_1 W^+)
     2.61576749E-01    2     1000023        24   # BR(chi^+_2 -> chi^0_2 W^+)
     2.52923730E-02    2     1000025        24   # BR(chi^+_2 -> chi^0_3 W^+)
     2.49682224E-01    2     1000024        23   # BR(chi^+_2 -> chi^+_1 Z)
     2.21769834E-01    2     1000024        25   # BR(chi^+_2 -> chi^+_1 h^0)
#    BR                NDA      ID1      ID2       ID3
     9.26167703E-04    3     1000022        -5         6   # BR(chi^+_2 -> chi^0_1 b_bar t)
     7.95966574E-04    3     1000023        -5         6   # BR(chi^+_2 -> chi^0_2 b_bar t)
DECAY   1000022     0.00000000E+00   # chi^0_1
DECAY   1000023     6.80529975E-06   # chi^0_2
#    BR                NDA      ID1      ID2
     7.75649280E-02    2     1000022        22   # BR(chi^0_2 -> chi^0_1 photon)
#    BR                NDA      ID1      ID2       ID3
     1.13994676E-01    3     1000022         2        -2   # BR(chi^0_2 -> chi^0_1 u u_bar)
     1.07224048E-01    3     1000022         4        -4   # BR(chi^0_2 -> chi^0_1 c c_bar)
     1.46163444E-01    3     1000022         1        -1   # BR(chi^0_2 -> chi^0_1 d d_bar)
     1.46120053E-01    3     1000022         3        -3   # BR(chi^0_2 -> chi^0_1 s s_bar)
     8.07446475E-02    3     1000022         5        -5   # BR(chi^0_2 -> chi^0_1 b b_bar)
     3.29849639E-02    3     1000022        11       -11   # BR(chi^0_2 -> chi^0_1 e^- e^+)
     3.29695051E-02    3     1000022        13       -13   # BR(chi^0_2 -> chi^0_1 mu^- mu^+)
     2.89303620E-02    3     1000022        15       -15   # BR(chi^0_2 -> chi^0_1 tau^- tau^+)
     1.95463546E-01    3     1000022        12       -12   # BR(chi^0_2 -> chi^0_1 nu_e nu_bar_e)
     6.57290190E-03    3     1000024         1        -2   # BR(chi^0_2 -> chi^+_1 d u_bar)
     6.57290190E-03    3    -1000024        -1         2   # BR(chi^0_2 -> chi^-_1 d_bar u)
     6.08158364E-03    3     1000024         3        -4   # BR(chi^0_2 -> chi^+_1 s c_bar)
     6.08158364E-03    3    -1000024        -3         4   # BR(chi^0_2 -> chi^-_1 s_bar c)
     2.19096918E-03    3     1000024        11       -12   # BR(chi^0_2 -> chi^+_1 e^- nu_bar_e)
     2.19096918E-03    3    -1000024       -11        12   # BR(chi^0_2 -> chi^-_1 e^+ nu_e)
     2.18976508E-03    3     1000024        13       -14   # BR(chi^0_2 -> chi^+_1 mu^- nu_bar_mu)
     2.18976508E-03    3    -1000024       -13        14   # BR(chi^0_2 -> chi^-_1 mu^+ nu_mu)
     1.88469326E-03    3     1000024        15       -16   # BR(chi^0_2 -> chi^+_1 tau^- nu_bar_tau)
     1.88469326E-03    3    -1000024       -15        16   # BR(chi^0_2 -> chi^-_1 tau^+ nu_tau)
DECAY   1000025     9.66268666E-01   # chi^0_3
#    BR                NDA      ID1      ID2
     2.95314764E-01    2     1000024       -24   # BR(chi^0_3 -> chi^+_1 W^-)
     2.95314764E-01    2    -1000024        24   # BR(chi^0_3 -> chi^-_1 W^+)
     3.13080410E-02    2     1000022        23   # BR(chi^0_3 -> chi^0_1 Z)
     1.74124165E-01    2     1000023        23   # BR(chi^0_3 -> chi^0_2 Z)
     8.42499852E-02    2     1000022        25   # BR(chi^0_3 -> chi^0_1 h^0)
     1.19404985E-01    2     1000023        25   # BR(chi^0_3 -> chi^0_2 h^0)
#    BR                NDA      ID1      ID2       ID3
     1.28957211E-04    3     1000024         5        -6   # BR(chi^0_3 -> chi^+_1 b t_bar)
     1.28957211E-04    3    -1000024        -5         6   # BR(chi^0_3 -> chi^-_1 b_bar t)
DECAY   1000035     4.85290324E+00   # chi^0_4
#    BR                NDA      ID1      ID2
     2.25819996E-01    2     1000024       -24   # BR(chi^0_4 -> chi^+_1 W^-)
     2.25819996E-01    2    -1000024        24   # BR(chi^0_4 -> chi^-_1 W^+)
     5.39414313E-02    2     1000022        23   # BR(chi^0_4 -> chi^0_1 Z)
     1.85268279E-01    2     1000023        23   # BR(chi^0_4 -> chi^0_2 Z)
     3.65591227E-04    2     1000025        23   # BR(chi^0_4 -> chi^0_3 Z)
     1.25054824E-01    2     1000022        25   # BR(chi^0_4 -> chi^0_1 h^0)
     1.77054305E-01    2     1000023        25   # BR(chi^0_4 -> chi^0_2 h^0)
     4.48312613E-03    2     1000025        25   # BR(chi^0_4 -> chi^0_3 h^0)
#    BR                NDA      ID1      ID2       ID3
     1.06569716E-03    3     1000024         5        -6   # BR(chi^0_4 -> chi^+_1 b t_bar)
     1.06569716E-03    3    -1000024        -5         6   # BR(chi^0_4 -> chi^-_1 b_bar t)
DECAY   1000021     1.01465590E+02   # ~g
#    BR                NDA      ID1      ID2
     3.16093806E-01    2     1000006        -6   # BR(~g -> ~t_1 t_bar)
     3.16093806E-01    2    -1000006         6   # BR(~g -> ~t^*_1 t)
     7.10826836E-02    2     2000006        -6   # BR(~g -> ~t_2 t_bar)
     7.10826836E-02    2    -2000006         6   # BR(~g -> ~t^*_2 t)
     7.38902561E-02    2     1000005        -5   # BR(~g -> ~b_1 b_bar)
     7.38902561E-02    2    -1000005         5   # BR(~g -> ~b^*_1 b)
     3.87280233E-02    2     2000005        -5   # BR(~g -> ~b_2 b_bar)
     3.87280233E-02    2    -2000005         5   # BR(~g -> ~b^*_2 b)
#    BR                NDA      ID1      ID2       ID3
DECAY        25     3.56770415E-03   # Gamma(h0)
     2.33411629E-03   2        22        22   # BR(h0 -> photon photon)
     1.28773868E-03   2        22        23   # BR(h0 -> photon Z)
     2.18326196E-02   2        23        23   # BR(h0 -> Z Z)
     1.89674669E-01   2       -24        24   # BR(h0 -> W W)
     7.44710411E-02   2        21        21   # BR(h0 -> gluon gluon)
     5.45444406E-09   2       -11        11   # BR(h0 -> Electron electron)
     2.42621944E-04   2       -13        13   # BR(h0 -> Muon muon)
     6.99531416E-02   2       -15        15   # BR(h0 -> Tau tau)
     1.55102913E-07   2        -2         2   # BR(h0 -> Up up)
     3.00967721E-02   2        -4         4   # BR(h0 -> Charm charm)
     6.33679533E-07   2        -1         1   # BR(h0 -> Down down)
     2.29187174E-04   2        -3         3   # BR(h0 -> Strange strange)
     6.09877298E-01   2        -5         5   # BR(h0 -> Bottom bottom)
DECAY        35     7.10403677E+01   # Gamma(HH)
     5.16730317E-08   2        22        22   # BR(HH -> photon photon)
     1.22128918E-07   2        22        23   # BR(HH -> photon Z)
     4.49785957E-07   2        23        23   # BR(HH -> Z Z)
     1.66839397E-07   2       -24        24   # BR(HH -> W W)
     5.53610213E-06   2        21        21   # BR(HH -> gluon gluon)
     6.69904019E-09   2       -11        11   # BR(HH -> Electron electron)
     2.98258251E-04   2       -13        13   # BR(HH -> Muon muon)
     8.61385711E-02   2       -15        15   # BR(HH -> Tau tau)
     8.39259741E-14   2        -2         2   # BR(HH -> Up up)
     1.62799686E-08   2        -4         4   # BR(HH -> Charm charm)
     1.16942694E-03   2        -6         6   # BR(HH -> Top top)
     4.99594416E-07   2        -1         1   # BR(HH -> Down down)
     1.80705121E-04   2        -3         3   # BR(HH -> Strange strange)
     4.59654666E-01   2        -5         5   # BR(HH -> Bottom bottom)
     1.89421613E-02   2  -1000024   1000024   # BR(HH -> Chargino1 chargino1)
     1.27450127E-01   2  -1000024   1000037   # BR(HH -> Chargino1 chargino2)
     1.27450127E-01   2  -1000037   1000024   # BR(HH -> Chargino2 chargino1)
     1.26049350E-03   2  -1000037   1000037   # BR(HH -> Chargino2 chargino2)
     7.10491347E-03   2   1000022   1000022   # BR(HH -> neutralino1 neutralino1)
     2.86620891E-04   2   1000022   1000023   # BR(HH -> neutralino1 neutralino2)
     1.34811434E-02   2   1000022   1000025   # BR(HH -> neutralino1 neutralino3)
     7.54898120E-02   2   1000022   1000035   # BR(HH -> neutralino1 neutralino4)
     2.08277877E-03   2   1000023   1000023   # BR(HH -> neutralino2 neutralino2)
     1.20118695E-02   2   1000023   1000025   # BR(HH -> neutralino2 neutralino3)
     6.57397362E-02   2   1000023   1000035   # BR(HH -> neutralino2 neutralino4)
     6.48500766E-05   2   1000025   1000025   # BR(HH -> neutralino3 neutralino3)
     4.60310508E-04   2   1000025   1000035   # BR(HH -> neutralino3 neutralino4)
     7.23794771E-04   2   1000035   1000035   # BR(HH -> neutralino4 neutralino4)
     2.78409759E-06   2        25        25   # BR(HH -> h0 h0)
DECAY        36     6.89773142E+01   # Gamma(A0)
     3.32073390E-09   2        22        22   # BR(A0 -> photon photon)
     5.09968140E-08   2        22        23   # BR(A0 -> photon Z)
     1.31433125E-05   2        21        21   # BR(A0 -> gluon gluon)
     6.53187492E-09   2       -11        11   # BR(A0 -> Electron electron)
     2.90816301E-04   2       -13        13   # BR(A0 -> Muon muon)
     8.39894747E-02   2       -15        15   # BR(A0 -> Tau tau)
     7.81139413E-14   2        -2         2   # BR(A0 -> Up up)
     1.51517170E-08   2        -4         4   # BR(A0 -> Charm charm)
     1.10907229E-03   2        -6         6   # BR(A0 -> Top top)
     4.87113548E-07   2        -1         1   # BR(A0 -> Down down)
     1.76189908E-04   2        -3         3   # BR(A0 -> Strange strange)
     4.48175548E-01   2        -5         5   # BR(A0 -> Bottom bottom)
     1.91530050E-02   2  -1000024   1000024   # BR(A0 -> Chargino1 chargino1)
     1.31657673E-01   2  -1000024   1000037   # BR(A0 -> Chargino1 chargino2)
     1.31657673E-01   2  -1000037   1000024   # BR(A0 -> Chargino2 chargino1)
     9.61872166E-04   2  -1000037   1000037   # BR(A0 -> Chargino2 chargino2)
     6.64543975E-03   2   1000022   1000022   # BR(A0 -> neutralino1 neutralino1)
     5.02500520E-04   2   1000022   1000023   # BR(A0 -> neutralino1 neutralino2)
     1.29533269E-02   2   1000022   1000025   # BR(A0 -> neutralino1 neutralino3)
     7.30603183E-02   2   1000022   1000035   # BR(A0 -> neutralino1 neutralino4)
     2.46010342E-03   2   1000023   1000023   # BR(A0 -> neutralino2 neutralino2)
     1.34040582E-02   2   1000023   1000025   # BR(A0 -> neutralino2 neutralino3)
     7.28117145E-02   2   1000023   1000035   # BR(A0 -> neutralino2 neutralino4)
     5.20431140E-05   2   1000025   1000025   # BR(A0 -> neutralino3 neutralino3)
     3.65556155E-04   2   1000025   1000035   # BR(A0 -> neutralino3 neutralino4)
     5.59221730E-04   2   1000035   1000035   # BR(A0 -> neutralino4 neutralino4)
     6.85909431E-07   2        23        25   # BR(A0 -> Z h0)
     4.61651093E-39   2        25        25   # BR(A0 -> h0 h0)
DECAY        37     7.01619641E+01   # Gamma(Hp)
     7.10019925E-09   2       -11        12   # BR(Hp -> Electron nu_e)
     3.03555693E-04   2       -13        14   # BR(Hp -> Muon nu_mu)
     8.58627903E-02   2       -15        16   # BR(Hp -> Tau nu_tau)
     4.58968838E-07   2        -1         2   # BR(Hp -> Down up)
     7.73363460E-06   2        -3         2   # BR(Hp -> Strange up)
     4.80959496E-06   2        -5         2   # BR(Hp -> Bottom up)
     2.21486565E-08   2        -1         4   # BR(Hp -> Down charm)
     1.65420443E-04   2        -3         4   # BR(Hp -> Strange charm)
     6.73515312E-04   2        -5         4   # BR(Hp -> Bottom charm)
     8.20858974E-08   2        -1         6   # BR(Hp -> Down top)
     2.03363687E-06   2        -3         6   # BR(Hp -> Strange top)
     4.55054147E-01   2        -5         6   # BR(Hp -> Bottom top)
     8.81863440E-05   2   1000022   1000024   # BR(Hp -> neutralino1 chargino1)
     1.47519544E-01   2   1000022   1000037   # BR(Hp -> neutralino1 chargino2)
     2.49837414E-03   2   1000023   1000024   # BR(Hp -> neutralino2 chargino1)
     1.28566511E-01   2   1000023   1000037   # BR(Hp -> neutralino2 chargino2)
     5.57980794E-02   2   1000024   1000025   # BR(Hp -> chargino1 neutralino3)
     1.09712542E-03   2   1000025   1000037   # BR(Hp -> neutralino3 chargino2)
     1.22353166E-01   2   1000024   1000035   # BR(Hp -> chargino1 neutralino4)
     3.76149602E-06   2   1000035   1000037   # BR(Hp -> neutralino4 chargino2)
     6.76367809E-07   2        24        25   # BR(Hp -> W h0)
     2.26909340E-12   2        24        35   # BR(Hp -> W HH)
     4.28243095E-13   2        24        36   # BR(Hp -> W A0)
DECAY         6     2.43000000E+00   # top
#    BR                NDA      ID1      ID2
     1.00000000E+00    2           5        24   # BR(t -> b W)
Block HiggsBoundsInputHiggsCouplingsFermions
# ScalarNormEffCoupSq PseudoSNormEffCoupSq NP IP1 IP2 IP2
    9.40986645E-01    0.00000000E+00        3  25   5   5  # h0-b-b eff. coupling^2, normalised to SM
    1.09260415E+03    0.00000000E+00        3  35   5   5  # H0-b-b eff. coupling^2, normalised to SM
    0.00000000E+00    1.09254513E+03        3  36   5   5  # A0-b-b eff. coupling^2, normalised to SM
#
    1.00005401E+00    0.00000000E+00        3  25   6   6  # h0-t-t eff. coupling^2, normalised to SM
    8.61279426E-04    0.00000000E+00        3  35   6   6  # H0-t-t eff. coupling^2, normalised to SM
    0.00000000E+00    9.15293995E-04        3  36   6   6  # A0-t-t eff. coupling^2, normalised to SM
#
    9.40986645E-01    0.00000000E+00        3  25  15  15  # h0-tau-tau eff. coupling^2, normalised to SM
    1.09260415E+03    0.00000000E+00        3  35  15  15  # H0-tau-tau eff. coupling^2, normalised to SM
    0.00000000E+00    1.09254513E+03        3  36  15  15  # A0-tau-tau eff. coupling^2, normalised to SM
#
Block HiggsBoundsInputHiggsCouplingsBosons
    9.99999179E-01        3  25  24  24  # h0-W-W eff. coupling^2, normalised to SM
    8.21291205E-07        3  35  24  24  # H0-W-W eff. coupling^2, normalised to SM
    0.00000000E+00        3  36  24  24  # A0-W-W eff. coupling^2, normalised to SM
#
    9.99999179E-01        3  25  23  23  # h0-Z-Z eff. coupling^2, normalised to SM
    8.21291205E-07        3  35  23  23  # H0-Z-Z eff. coupling^2, normalised to SM
    0.00000000E+00        3  36  23  23  # A0-Z-Z eff. coupling^2, normalised to SM
#
    1.26765402E+00        3  25  21  21  # h0-g-g eff. coupling^2, normalised to SM
    4.87203908E-03        3  35  21  21  # H0-g-g eff. coupling^2, normalised to SM
    1.12939503E-01        3  36  21  21  # A0-g-g eff. coupling^2, normalised to SM
#
    0.00000000E+00        3  25  25  23  # h0-h0-Z eff. coupling^2, normalised to SM
    0.00000000E+00        3  35  25  23  # H0-h0-Z eff. coupling^2, normalised to SM
    8.21291205E-07        3  36  25  23  # A0-h0-Z eff. coupling^2, normalised to SM
    0.00000000E+00        3  35  35  23  # H0-H0-Z eff. coupling^2, normalised to SM
    9.99999179E-01        3  36  35  23  # A0-H0-Z eff. coupling^2, normalised to SM
    0.00000000E+00        3  36  36  23  # A0-A0-Z eff. coupling^2, normalised to SM
#
    0.00000000E+00        4  25  21  21  23  # h0-g-g-Z eff. coupling^2, normalised to SM
    0.00000000E+00        4  35  21  21  23  # H0-g-g-Z eff. coupling^2, normalised to SM
    0.00000000E+00        4  36  21  21  23  # A0-g-g-Z eff. coupling^2, normalised to SM
Block SPhenoLowEnergy  # low energy observables
    1    3.29069190E-04   # BR(b -> s gamma)
    2    1.58846908E-06   # BR(b -> s mu+ mu-)
    3    3.52356150E-05   # BR(b -> s nu nu)
    4    2.52177252E-15   # BR(Bd -> e+ e-)
    5    1.07727304E-10   # BR(Bd -> mu+ mu-)
    6    2.25542547E-08   # BR(Bd -> tau+ tau-)
    7    8.45248212E-14   # BR(Bs -> e+ e-)
    8    3.61089957E-09   # BR(Bs -> mu+ mu-)
    9    7.66015636E-07   # BR(Bs -> tau+ tau-)
   10    9.57855429E-05   # BR(B_u -> tau nu)
   11    9.89427987E-01   # BR(B_u -> tau nu)/BR(B_u -> tau nu)_SM
   12    5.42121479E-01   # |Delta(M_Bd)| [ps^-1] 
   13    1.93651955E+01   # |Delta(M_Bs)| [ps^-1] 
   14    0.00000000E+00   # neutron EDM according to the chiral quark model
   15    0.00000000E+00   # neutron EDM according to the relativistic quark-parton model
   16    2.15795319E-03   # epsilon_K
   17    2.28166570E-15   # Delta(M_K)
   18    2.47872016E-11   # BR(K^0 -> pi^0 nu nu)
   19    8.28746829E-11   # BR(K^+ -> pi^+ nu nu)
   20   -3.17321025E-16   # Delta(g-2)_electron/2
   21   -1.35665533E-11   # Delta(g-2)_muon/2
   22   -3.84444184E-09   # Delta(g-2)_tau/2
   23    0.00000000E+00   # electric dipole moment of the electron
   24    0.00000000E+00   # electric dipole moment of the muon
   25    0.00000000E+00   # electric dipole moment of the tau
   26    0.00000000E+00   # Br(mu -> e gamma)
   27    0.00000000E+00   # Br(tau -> e gamma)
   28    0.00000000E+00   # Br(tau -> mu gamma)
   29    0.00000000E+00   # Br(mu -> 3 e)
   30    0.00000000E+00   # Br(tau -> 3 e)
   31    0.00000000E+00   # Br(tau -> 3 mu)
   39    6.87860871E-05   # Delta(rho_parameter)
   40    0.00000000E+00   # BR(Z -> e mu)
   41    0.00000000E+00   # BR(Z -> e tau)
   42    0.00000000E+00   # BR(Z -> mu tau)
Block FWCOEF Q=  1.60000000E+02  # Wilson coefficients at scale Q
#    id        order  M        value         comment
     0305 4422   00   0    -1.88819110E-01   # C7
     0305 4422   00   2    -1.97898285E-01   # C7
     0305 4322   00   2    -1.77712552E-04   # C7'
     0305 6421   00   0    -9.52278348E-02   # C8
     0305 6421   00   2    -1.06342329E-01   # C8
     0305 6321   00   2    -2.20811384E-04   # C8'
 03051111 4133   00   0     1.62035810E+00   # C9 e+e-
 03051111 4133   00   2     1.62067656E+00   # C9 e+e-
 03051111 4233   00   2     1.93437527E-04   # C9' e+e-
 03051111 4137   00   0    -4.44305020E+00   # C10 e+e-
 03051111 4137   00   2    -4.43975773E+00   # C10 e+e-
 03051111 4237   00   2    -1.44420241E-03   # C10' e+e-
 03051313 4133   00   0     1.62035810E+00   # C9 mu+mu-
 03051313 4133   00   2     1.62067646E+00   # C9 mu+mu-
 03051313 4233   00   2     1.93437207E-04   # C9' mu+mu-
 03051313 4137   00   0    -4.44305020E+00   # C10 mu+mu-
 03051313 4137   00   2    -4.43975782E+00   # C10 mu+mu-
 03051313 4237   00   2    -1.44420228E-03   # C10' mu+mu-
 03051212 4137   00   0     1.50535012E+00   # C11 nu_1 nu_1
 03051212 4137   00   2     1.50463838E+00   # C11 nu_1 nu_1
 03051212 4237   00   2     3.12735350E-04   # C11' nu_1 nu_1
 03051414 4137   00   0     1.50535012E+00   # C11 nu_2 nu_2
 03051414 4137   00   2     1.50463838E+00   # C11 nu_2 nu_2
 03051414 4237   00   2     3.12735409E-04   # C11' nu_2 nu_2
 03051616 4137   00   0     1.50535012E+00   # C11 nu_3 nu_3
 03051616 4137   00   2     1.50463838E+00   # C11 nu_3 nu_3
 03051616 4237   00   2     3.12752023E-04   # C11' nu_3 nu_3
Block IMFWCOEF Q=  1.60000000E+02  # Im(Wilson coefficients) at scale Q
#    id        order  M        value         comment
     0305 4422   00   0     3.85817657E-07   # C7
     0305 4422   00   2    -4.29738068E-06   # C7
     0305 4322   00   2    -1.60915827E-07   # C7'
     0305 6421   00   0     3.30478339E-07   # C8
     0305 6421   00   2    -2.89650888E-06   # C8
     0305 6321   00   2    -9.50604597E-08   # C8'
 03051111 4133   00   2     4.37930155E-07   # C9 e+e-
 03051111 4233   00   2     4.12553374E-06   # C9' e+e-
 03051111 4137   00   2     1.22769627E-07   # C10 e+e-
 03051111 4237   00   2    -3.08057127E-05   # C10' e+e-
 03051313 4133   00   2     4.37928250E-07   # C9 mu+mu-
 03051313 4233   00   2     4.12553290E-06   # C9' mu+mu-
 03051313 4137   00   2     1.22771610E-07   # C10 mu+mu-
 03051313 4237   00   2    -3.08057153E-05   # C10' mu+mu-
 03051212 4137   00   2    -4.61478468E-09   # C11 nu_1 nu_1
 03051212 4237   00   2     6.67083653E-06   # C11' nu_1 nu_1
 03051414 4137   00   2    -4.61468725E-09   # C11 nu_2 nu_2
 03051414 4237   00   2     6.67083653E-06   # C11' nu_2 nu_2
 03051616 4137   00   2    -4.58725233E-09   # C11 nu_3 nu_3
 03051616 4237   00   2     6.67083652E-06   # C11' nu_3 nu_3
