BLOCK SPINFO
   1   SPheno
   2   v4.0.5be

BLOCK SPHENOINFO
   1   2
   2   2

BLOCK MODSEL
   1   0

BLOCK MINPAR
   3    55.229518
   4   -1

BLOCK EXTPAR
   0    3010.7513
   1   -739.95966
   2    3999.0281
   3    3075.4659
   11    3535.6325
   12   -1150.5191
   13   -2728.2944
   23   -582.72428
   25    55.274466
   26    4604.9008
   31    576.49013
   32    576.49013
   33    1775.4264
   34    1565.9735
   35    1565.9735
   36    3872.4542
   41    4150.6099
   42    4150.6099
   43    4824.9465
   44    1267.0428
   45    1267.0428
   46    1732.5906
   47    3684.6319
   48    3684.6319
   49    3997.739

BLOCK SMINPUTS
   1    127.90897
   2    1.1663787e-05
   3    0.1184
   4    91.1876
   5    4.18
   6    173.2
   7    1.777
   8    0
   11    0.00051099893
   12    0
   13    0.10565837
   14    0
   21    0.005
   22    0.0025
   23    0.095
   24    1.27

BLOCK GAUGE Q=  3010.7513
   1    0.35536298
   2    0.66519887
   3    1.219778

BLOCK YU Q=  3010.7513
   1   1    8.3857441e-06
   2   2    0.004259958
   3   3    1.0130652

BLOCK YD Q=  3010.7513
   1   1    0.00093142183
   2   2    0.017697015
   3   3    0.92367859

BLOCK YE Q=  3010.7513
   1   1    0.00016253992
   2   2    0.0336081
   3   3    0.56523296

BLOCK AU Q=  3010.7513
   1   1    0
   2   2    0
   3   3    3535.6325

BLOCK AD Q=  3010.7513
   1   1    0
   2   2    0
   3   3   -1150.5191

BLOCK AE Q=  3010.7513
   1   1    0
   2   2    0
   3   3   -2728.2944

BLOCK MSOFT Q=  3010.7513
   1   -739.95966
   2    3999.0281
   3    3075.4659
   21    21119127
   22   -360982.16
   31    576.49013
   32    576.49013
   33    1775.4264
   34    1565.9735
   35    1565.9735
   36    3872.4542
   41    4150.6099
   42    4150.6099
   43    4824.9465
   44    1267.0428
   45    1267.0428
   46    1732.5906
   47    3684.6319
   48    3684.6319
   49    3997.739

BLOCK MASS
   6    173.2
   23    91.1876
   24    80.429995
   15    1.777
   25    121.52492
   35    4600.6799
   36    4604.9008
   37    4588.9913
   1000001    4248.2907
   2000001    3770.2495
   1000002    4247.5354
   2000002    1433.1092
   1000003    4248.2851
   2000003    3770.2389
   1000004    4247.5298
   2000004    1433.1088
   1000005    4053.5964
   2000005    4871.4029
   1000006    1859.7279
   2000006    4874.1665
   1000011    626.17425
   2000011    1567.4976
   1000012    620.83122
   1000013    626.13894
   2000013    1567.4593
   1000014    620.82059
   1000015    1798.0063
   2000015    3861.1131
   1000016    1795.9723
   1000021    3320.8172
   1000022   -591.85956
   1000023    599.13095
   1000025   -735.96191
   1000035    4028.0858
   1000024    599.24427
   1000037    4028.2956

BLOCK ALPHA
      -0.018122011

BLOCK HMIX Q=  3010.7513
   1   -582.72428
   2    55.274466
   3    243.2726
   4    21205111

BLOCK STOPMIX
   1   1   -0.023532233
   1   2    0.99972308
   2   1   -0.99972308
   2   2   -0.023532233

BLOCK SBOTMIX
   1   1   -0.010082497
   1   2    0.99994917
   2   1   -0.99994917
   2   2   -0.010082497

BLOCK STAUMIX
   1   1   -0.99999079
   1   2    0.0042920524
   2   1   -0.0042920524
   2   2   -0.99999079

BLOCK NMIX
   1   1    0.23093534
   1   2    0.011685666
   1   3   -0.69192469
   1   4    0.68393899
   2   1   -0.023636264
   2   2   -0.015589544
   2   3   -0.70682048
   2   4   -0.70682608
   3   1   -0.97268194
   3   2    0.002957536
   3   3   -0.14710132
   3   4    0.1795614
   4   1    0.00019040691
   4   2   -0.99980581
   4   3    0.0024988357
   4   4    0.019546234

BLOCK UMIX
   1   1   -0.0035342235
   1   2   -0.99999375
   2   1    0.99999375
   2   2   -0.0035342235

BLOCK VMIX
   1   1   -0.027641777
   1   2    0.99961789
   2   1    0.99961789
   2   2    0.027641777

BLOCK HIGGSBOUNDSINPUTHIGGSCOUPLINGSFERMIONS
       0, 3055.2666,3,36,15,15

BLOCK HIGGSBOUNDSINPUTHIGGSCOUPLINGSBOSONS
       0,4,36,21,21,23

BLOCK SPHENOLOWENERGY
   1    0.00031441282
   2    1.5910462e-06
   3    3.5249258e-05
   4    2.8247347e-15
   5    1.2066772e-10
   6    2.5154714e-08
   7    9.5704751e-14
   8    4.088444e-09
   9    8.6350368e-07
   10    9.6137823e-05
   11    0.99306691
   12    0.54228086
   13    19.372644
   14    0
   15    0
   16    0.0021585214
   17    2.2816717e-15
   18    2.4798268e-11
   19    8.2898479e-11
   20   -9.4053583e-16
   21   -4.0130403e-11
   22   -2.3912818e-08
   23    0
   24    0
   25    0
   26    0
   27    0
   28    0
   29    0
   30    0
   31    0
   39    7.1444224e-05
   40    0
   41    0
   42    0

BLOCK FWCOEF Q=  160
   305   4422   0   0   -0.18881911
   305   4422   0   2   -0.18136113
   305   4322   0   2    0.0001726239
   305   6421   0   0   -0.095227835
   305   6421   0   2   -0.094066067
   305   6321   0   2    3.3504418e-05
   3051111   4133   0   0    1.6177555
   3051111   4133   0   2    1.6183917
   3051111   4233   0   2    0.00023810827
   3051111   4137   0   0   -4.4404476
   3051111   4137   0   2   -4.4385193
   3051111   4237   0   2   -0.001784746
   3051313   4133   0   0    1.6177555
   3051313   4133   0   2    1.6183853
   3051313   4233   0   2    0.00023810708
   3051313   4137   0   0   -4.4404476
   3051313   4137   0   2   -4.4385257
   3051313   4237   0   2   -0.0017847487
   3051212   4137   0   0    1.5053501
   3051212   4137   0   2    1.5049326
   3051212   4237   0   2    0.00038670607
   3051414   4137   0   0    1.5053501
   3051414   4137   0   2    1.5049326
   3051414   4237   0   2    0.00038670612
   3051616   4137   0   0    1.5053501
   3051616   4137   0   2    1.5049326
   3051616   4237   0   2    0.00038671993

BLOCK IMFWCOEF Q=  160
   305   4422   0   0    3.8584749e-07
   305   4422   0   2   -5.0676614e-06
   305   4322   0   2    4.1647335e-06
   305   6421   0   0    3.3050389e-07
   305   6421   0   2    3.4870371e-06
   305   6321   0   2    2.0889976e-06
   3051111   4133   0   2   -4.3257552e-07
   3051111   4233   0   2    4.9340127e-06
   3051111   4137   0   2    3.6818393e-06
   3051111   4237   0   2   -3.6986185e-05
   3051313   4133   0   2   -4.3254896e-07
   3051313   4233   0   2    4.9339962e-06
   3051313   4137   0   2    3.6818595e-06
   3051313   4237   0   2   -3.6986237e-05
   3051212   4137   0   2   -7.9502045e-07
   3051212   4237   0   2    8.0139025e-06
   3051414   4137   0   2   -7.95021e-07
   3051414   4237   0   2    8.0139025e-06
   3051616   4137   0   2   -7.940314e-07
   3051616   4237   0   2    8.0139024e-06

DECAY 23  2.4952


DECAY 24  2.085


DECAY 1000011  0.00058741821
    0.97247556   2    1000022    11
    0.026681965   2    1000023    11
    0.00083028882   2   -1000024    12

DECAY 2000011  4.8404584
    0.93553928   2    1000025    11
    0.063797693   2    1000022    11
    0.00066289419   2    1000023    11

DECAY 1000013  0.00071170216
    0.90667287   2    1000022    13
    0.092633733   2    1000023    13
    0.00068357651   2   -1000024    14

DECAY 2000013  4.8936016
    0.92542448   2    1000025    13
    0.06563709   2    1000022    13
    0.0052473239   2   -1000024    14
    0.0032773586   2    1000023    13
    0.00041374392   2    1000013    25

DECAY 1000015  10.618634
    0.42541221   2    1000023    15
    0.42083001   2    1000022    15
    0.15369704   2    1000025    15

DECAY 2000015  65.489295
    0.35687867   2   -1000024    16
    0.26798345   2    1000025    15
    0.18595933   2    1000022    15
    0.1784605   2    1000023    15
    0.0052880542   2    1000016   -24
    0.0027929342   2    1000015    25
    0.0026370594   2    1000015    23

DECAY 1000012  0.00030282883
    0.93523355   2    1000022    12
    0.064392822   2    1000024    11
    0.0003736317   2    1000023    12

DECAY 1000014  0.00036803001
    0.76900639   2    1000022    14
    0.23068646   2    1000024    13
    0.00030714736   2    1000023    14

DECAY 1000016  10.597923
    0.85156878   2    1000024    15
    0.14103318   2    1000025    16
    0.0073928705   2    1000022    16

DECAY 2000001  16.909602
    0.88464372   2    1000021    1
    0.10896748   2    1000025    1
    0.0063172373   2    1000022    1

DECAY 1000001  51.870977
    0.97810555   2    1000021    1
    0.01052626   2    1000025    1
    0.0073381902   2   -1000037    2
    0.0036747781   2    1000035    1
    0.0003010369   2    1000022    1

DECAY 2000003  16.953488
    0.882317   2    1000021    3
    0.10871264   2    1000025    3
    0.0069302747   2    1000022    3
    0.0013164674   2   -1000024    4
    0.00072361789   2    1000023    3

DECAY 1000003  51.897333
    0.97759942   2    1000021    3
    0.010531241   2    1000025    3
    0.0073339685   2   -1000037    4
    0.0036727326   2    1000035    3
    0.00053503795   2    1000022    3
    0.00028960647   2    1000023    3

DECAY 1000005  168.11884
    0.38998086   2   -1000024    6
    0.20581081   2    1000021    5
    0.19564281   2    1000023    5
    0.18867727   2    1000022    5
    0.019880796   2    1000025    5

DECAY 2000005  320.98588
    0.34326104   2    1000021    5
    0.29956566   2   -1000024    6
    0.12483279   2    1000023    5
    0.11957099   2    1000022    5
    0.084475687   2    1000006   -24
    0.013244258   2   -1000037    6
    0.0074949532   2    1000025    5
    0.0066789847   2    1000035    5
    0.0005200462   2    1000005    25
    0.00035558153   2    1000005    23

DECAY 2000002  1.7600705
    0.93259355   2    1000025    2
    0.06671466   2    1000022    2
    0.00069178559   2    1000023    2

DECAY 1000002  51.831375
    0.97758561   2    1000021    2
    0.0098367747   2    1000025    2
    0.0072905357   2    1000037    1
    0.0036531885   2    1000035    2
    0.00096724199   2    1000022    2
    0.00053083585   2    1000024    1
    0.00013581821   2    1000023    2

DECAY 2000004  1.7607659
    0.93222049   2    1000025    4
    0.066787578   2    1000022    4
    0.00079200725   2    1000023    4
    0.00019992128   2    1000024    3

DECAY 1000004  51.857604
    0.97708032   2    1000021    4
    0.0098327019   2    1000025    4
    0.0072864891   2    1000037    3
    0.0036510926   2    1000035    4
    0.0010194389   2    1000024    3
    0.00098003027   2    1000022    4
    0.00014993253   2    1000023    4

DECAY 1000006  63.189553
    0.48173991   2    1000024    5
    0.23704957   2    1000023    6
    0.2297305   2    1000022    6
    0.051480664   2    1000025    6

DECAY 2000006  329.87653
    0.33330847   2    1000021    6
    0.24364674   2    1000024    5
    0.14576498   2    1000023    6
    0.13617946   2    1000022    6
    0.067999224   2    1000006    25
    0.041159745   2    1000006    23
    0.01302444   2    1000037    5
    0.011752274   2    1000025    6
    0.0064634561   2    1000035    6
    0.00070120242   2    1000005    24

DECAY 1000024  8.1058609e-08
    0.35906055   3    1000022   -1    2
    0.31105776   3    1000022   -3    4
    0.11959699   3    1000022   -11    12
    0.11948162   3    1000022   -13    14
    0.090803086   3    1000022   -15    16

DECAY 1000037  125.69764
    0.1343341   2    1000014   -13
    0.13433387   2    1000012   -11
    0.1343226   2   -1000013    14
    0.13432185   2   -1000011    12
    0.090486486   2    1000016   -15
    0.090447342   2   -1000015    16
    0.069562737   2    1000024    25
    0.064250289   2    1000023    24
    0.06417758   2    1000024    23
    0.06058835   2    1000022    24
    0.0074588203   3    1000024    6   -6
    0.0049324812   3    1000023   -5    6
    0.004748654   3    1000022   -5    6
    0.0036317539   2    1000025    24
    0.0011278353   2    1000006   -5
    0.00053834866   3    1000024    5   -5
    0.00028916072   3    1000025   -5    6
    0.000177658   3    1000025   -13    14
    0.00017763986   3    1000025   -11    12

DECAY 1000022 -1


DECAY 1000023  1.2809963e-07
    0.59447311   2    1000022    22
    0.1048555   3    1000022    12   -12
    0.078416638   3    1000022    1   -1
    0.078261059   3    1000022    3   -3
    0.061158581   3    1000022    2   -2
    0.040480713   3    1000022    4   -4
    0.017669551   3    1000022    11   -11
    0.017628872   3    1000022    13   -13
    0.0070559754   3    1000022    15   -15

DECAY 1000025  1.6518574
    0.23475186   2    1000023    23
    0.22913152   2    1000024   -24
    0.22913152   2   -1000024    24
    0.070624391   2    1000022    25
    0.065146387   2    1000023    25
    0.022275641   2    1000014   -14
    0.022275641   2   -1000014    14
    0.022271876   2    1000012   -12
    0.022271876   2   -1000012    12
    0.019972198   2    1000013   -13
    0.019972198   2   -1000013    13
    0.019952986   2    1000011   -11
    0.019952986   2   -1000011    11
    0.0022154663   2    1000022    23

DECAY 1000035  128.09928
    0.065942208   2    1000014   -14
    0.065942208   2   -1000014    14
    0.065942098   2    1000012   -12
    0.065942098   2   -1000012    12
    0.065860199   2    1000013   -13
    0.065860199   2   -1000013    13
    0.065859828   2    1000011   -11
    0.065859828   2   -1000011    11
    0.063008343   2    1000024   -24
    0.063008343   2   -1000024    24
    0.044415439   2    1000016   -16
    0.044415439   2   -1000016    16
    0.044346177   2    1000015   -15
    0.044346177   2   -1000015    15
    0.043381617   2    1000022    25
    0.042911382   2    1000023    25
    0.037073272   2    1000022    23
    0.023577003   2    1000023    23
    0.0043144525   3    1000024    5   -6
    0.0043144525   3   -1000024   -5    6
    0.0032054455   3    1000023    6   -6
    0.0030851519   3    1000022    6   -6
    0.0027633033   2    1000025    25
    0.0023581822   2    1000025    23
    0.00055074242   2    1000006   -6
    0.00055074242   2   -1000006    6
    0.0002648541   3    1000023    5   -5
    0.00025016692   3    1000022    5   -5
    0.00018913443   3    1000025    6   -6
    0.00017547303   3    1000025    12   -12

DECAY 1000021  176.83511
    0.18404877   2    2000004   -4
    0.18404877   2   -2000004    4
    0.18404874   2    2000002   -2
    0.18404874   2   -2000002    2
    0.13138534   2    1000006   -6
    0.13138534   2   -1000006    6
    0.00022342301   3    1000024    5   -6
    0.00022342301   3   -1000024   -5    6
    0.00018833875   3    1000023    5   -5
    0.00018200117   3    1000022    5   -5

DECAY 25  0.003471074
    0.6242479   2   -5    5
    0.17484701   2   -24    24
    0.074797237   2    21    21
    0.071436617   2   -15    15
    0.030919589   2   -4    4
    0.019733648   2    23    23
    0.0023270079   2    22    22
    0.001207972   2    22    23
    0.00024775118   2   -13    13
    0.00023444684   2   -3    3
    6.4822155e-07   2   -1    1
    1.5934754e-07   2   -2    2
    5.569767e-09   2   -11    11

DECAY 35  192.06495
    0.84319442   2   -5    5
    0.12580356   2   -15    15
    0.013518756   2    1000023    1000025
    0.010665812   2    1000022    1000025
    0.0013519381   2    1000022    1000035
    0.0012547432   2   -1000024    1000037
    0.0012547432   2   -1000037    1000024
    0.00064025555   2    1000022    1000022
    0.00059849634   2    1000025    1000025
    0.00042155454   2   -6    6
    0.00041250537   2    1000022    1000023
    0.00038924574   2   -13    13
    0.00030493877   2   -3    3
    0.00014940252   2   -1000024    1000024
    2.2520146e-05   2    1000023    1000035
    7.1366368e-06   2   -1000006    1000006
    5.7046424e-06   2    21    21
    1.642813e-06   2    1000023    1000023
    1.4899759e-06   2   -1000015    1000015
    8.4294718e-07   2   -1    1
    4.6262774e-08   2    25    25
    4.0204899e-08   2   -1000002    1000002
    4.0183164e-08   2   -1000004    1000004
    2.0976662e-08   2    23    23
    9.6622214e-09   2   -1000011    1000011
    9.4972621e-09   2   -1000013    1000013
    8.741127e-09   2   -11    11
    6.891068e-09   2    22    22
    6.1093716e-09   2   -4    4
    5.3157367e-09   2    22    23
    4.7300074e-09   2   -2000011    2000011
    4.6573369e-09   2   -2000013    2000013
    3.7876248e-09   2   -24    24
    1.1780339e-09   2   -2000013    1000013
    1.1780339e-09   2   -1000013    2000013
    3.1492583e-14   2   -2    2
    2.7554618e-14   2   -2000011    1000011
    2.7554618e-14   2   -1000011    2000011

DECAY 36  172.29361
    0.83987909   2   -5    5
    0.1253038   2   -15    15
    0.013916444   2    1000022    1000025
    0.012875965   2    1000023    1000025
    0.0015702784   2   -1000024    1000037
    0.0015702784   2   -1000037    1000024
    0.0015383012   2    1000023    1000035
    0.0008192956   2    1000022    1000022
    0.00081843262   2    1000025    1000025
    0.0004035982   2    1000022    1000023
    0.00038767531   2   -13    13
    0.00037885101   2   -6    6
    0.00030372105   2   -3    3
    0.00017649193   2   -1000024    1000024
    4.5734177e-05   2    1000022    1000035
    9.2933987e-06   2    21    21
    1.8218532e-06   2    1000023    1000023
    8.3958064e-07   2   -1    1
    5.8272663e-08   2    23    25
    9.8463232e-09   2    22    23
    8.7057956e-09   2   -11    11
    6.2739033e-09   2    22    22
    5.4765576e-09   2   -4    4
    1.3076293e-09   2   -2000013    1000013
    1.3076293e-09   2   -1000013    2000013
    8.5460399e-12   2    23    35
    3.0585584e-14   2   -2000011    1000011
    3.0585584e-14   2   -1000011    2000011
    2.8231841e-14   2   -2    2
    1.1442615e-39   2    25    25

DECAY 37  205.10327
    0.83513474   2   -5    6
    0.13648425   2   -15    16
    0.022960554   2    1000024    1000025
    0.0012393516   2   -5    4
    0.0011546748   2    1000022    1000024
    0.00087745469   2    1000022    1000037
    0.00066454668   2    1000023    1000037
    0.00066109173   2    1000024    1000035
    0.00048252035   2   -13    14
    0.00026490508   2   -3    4
    5.2345501e-05   2    1000023    1000024
    1.2465548e-05   2   -3    2
    8.8502476e-06   2   -5    2
    7.9135966e-07   2   -3    6
    7.3490984e-07   2   -1    2
    5.4286407e-07   2   -1000015    1000016
    4.8457097e-08   2    24    25
    3.5640596e-08   2   -1000011    1000012
    3.5422869e-08   2   -1000013    1000014
    3.4646738e-08   2   -1    4
    1.8152564e-08   2   -1    6
    1.1286201e-08   2   -11    12
    2.2298874e-09   2   -2000013    1000014
    5.2159116e-14   2   -2000011    1000012

DECAY 6  2.43
    1   2    5    24

DECAY 15 -1
