BLOCK DCINFO
   1   SDECAY/HDECAY
   2   1.3b /3.4

BLOCK SPINFO
   1   SOFTSUSY
   2   3.4.0

BLOCK MODSEL
   1   0

BLOCK SMINPUTS
   1    127.90897
   2    1.1663787e-05
   3    0.1184
   4    91.1876
   5    4.18
   6    173.2
   7    1.777

BLOCK MINPAR
   3    17.52

BLOCK EXTPAR
   0   -1
   1    380.6
   2    831.76
   3    3551.35
   11   -3936.72
   12    362.13
   13   -1223.22
   23    358.79
   26    2823.35
   31    3227.8
   32    3227.8
   33    1514.51
   34    2747.11
   35    2747.11
   36    3766.76
   41    3727.51
   42    3727.51
   43    3319.3
   44    220.32
   45    220.32
   46    3359.05
   47    3969.61
   48    3969.61
   49    3557.64

BLOCK MASS
   24    80.378099
   25    126.56288
   35    2823.3754
   36    2823.35
   37    2824.7095
   5    4.8187603
   1000001    3840.0122
   2000001    4066.564
   1000002    3839.3388
   2000002    671.52055
   1000003    3840.0122
   2000003    4066.564
   1000004    3839.3388
   2000004    671.52055
   1000005    3402.9386
   2000005    3664.3811
   1000006    3320.6928
   2000006    3486.7145
   1000011    3237.566
   2000011    2744.5571
   1000012    3236.2706
   1000013    3237.566
   2000013    2744.5571
   1000014    3236.2706
   1000015    1525.9886
   2000015    3764.0925
   1000016    1523.6297
   1000021    3730.913
   1000022    337.46107
   1000023   -377.10798
   1000025    402.46961
   1000035    881.31416
   1000024    369.37138
   1000037    881.47588

BLOCK NMIX
   1   1    0.6710633
   1   2   -0.078172035
   1   3    0.54419427
   1   4   -0.49740907
   2   1   -0.038778162
   2   2    0.042483104
   2   3    0.70239097
   2   4    0.70946343
   3   1    0.74031677
   3   2    0.086580451
   3   3   -0.45578063
   3   4    0.48651714
   4   1   -0.010069052
   4   2    0.99226415
   4   3    0.052569386
   4   4   -0.11201308

BLOCK UMIX
   1   1   -0.07425881
   1   2    0.997239
   2   1   -0.997239
   2   2   -0.07425881

BLOCK VMIX
   1   1   -0.15833501
   1   2    0.98738545
   2   1   -0.98738545
   2   2   -0.15833501

BLOCK STOPMIX
   1   1    0.70326062
   1   2    0.71093214
   2   1   -0.71093214
   2   2    0.70326062

BLOCK SBOTMIX
   1   1    0.99997478
   1   2    0.007101786
   2   1   -0.007101786
   2   2    0.99997478

BLOCK STAUMIX
   1   1    0.99999938
   1   2    0.0011144504
   2   1   -0.0011144504
   2   2    0.99999938

BLOCK ALPHA
      -0.059820439

BLOCK HMIX Q=  3339.685
   1    364.2934
   2    16.746435
   3    241.43988
   4    8084411.5

BLOCK GAUGE Q=  3339.685
   1    0.36547556
   2    0.63928189
   3    1.0041663

BLOCK AU Q=  3339.685
   1   1    0
   2   2    0
   3   3   -3936.72

BLOCK AD Q=  3339.685
   1   1    0
   2   2    0
   3   3    362.13001

BLOCK AE Q=  3339.685
   1   1    0
   2   2    0
   3   3   -1223.22

BLOCK YU Q=  3339.685
   1   1    0
   2   2    0
   3   3    0.81634214

BLOCK YD Q=  3339.685
   1   1    0
   2   2    0
   3   3    0.22342755

BLOCK YE Q=  3339.685
   1   1    0
   2   2    0
   3   3    0.17338415

BLOCK MSOFT Q=  3339.685
   1    380.6
   2    831.76
   3    3551.35
   21    7812148.6
   22    171276.23
   31    3227.8
   32    3227.8
   33    1514.51
   34    2747.11
   35    2747.11
   36    3766.76
   41    3727.51
   42    3727.51
   43    3319.3
   44    220.31981
   45    220.31981
   46    3359.05
   47    3969.61
   48    3969.61
   49    3557.64

BLOCK HIGGSBOUNDSINPUTHIGGSCOUPLINGSFERMIONS
       0, 280.44309,3,36,15,15

BLOCK HIGGSBOUNDSINPUTHIGGSCOUPLINGSBOSONS
       0,4,36,21,21,23

DECAY 6  1.4398427
    1   2    5    24

DECAY 1000021  133.41351
    0.24053321   2    2000002   -2
    0.24053321   2   -2000002    2
    0.2405332   2    2000004   -4
    0.2405332   2   -2000004    4
    0.0073937225   2    1000005   -5
    0.0073937225   2   -1000005    5
    0.005979123   2    1000006   -6
    0.005979123   2   -1000006    6
    0.0052119623   2    2000006   -6
    0.0052119623   2   -2000006    6
    0.00034877975   2    2000005   -5
    0.00034877975   2   -2000005    5

DECAY 1000006  88.282131
    0.32080773   2    1000024    5
    0.25871728   2    1000023    6
    0.19991642   2    1000022    6
    0.097191756   2    1000025    6
    0.080213753   2    1000037    5
    0.04315306   2    1000035    6

DECAY 2000006  92.740357
    0.2291466   2    1000023    6
    0.19748631   2    1000024    5
    0.19096757   2    1000037    5
    0.18686484   2    1000025    6
    0.099262116   2    1000035    6
    0.078551572   2    1000022    6
    0.01736916   2    1000006    23
    0.00034842029   2    1000005    24
    3.4025266e-06   2    1000006    25

DECAY 1000005  83.731808
    0.51144958   2   -1000024    6
    0.29912105   2   -1000037    6
    0.14216885   2    1000035    5
    0.019774132   2    1000023    5
    0.018877143   2    1000022    5
    0.0084575314   2    1000025    5
    0.00015170339   2    1000006   -24

DECAY 2000005  9.242737
    0.38116618   2   -1000024    6
    0.21543201   2    1000022    5
    0.20681353   2    1000025    5
    0.19099939   2    1000023    5
    0.0031190735   2   -1000037    6
    0.001585422   2    1000035    5
    0.00043878694   2    1000006   -24
    0.00020757767   2    1000005    25
    0.00018672239   2    1000005    23
    5.129429e-05   2    2000006   -24

DECAY 1000002  41.764137
    0.62713236   2    1000037    1
    0.31546162   2    1000035    2
    0.02037268   2    1000021    2
    0.018131826   2    1000025    2
    0.017599647   2    1000024    1
    0.0008699041   2    1000022    2
    0.00043195851   2    1000023    2

DECAY 2000002  0.80679311
    0.52667982   2    1000022    2
    0.47184348   2    1000025    2
    0.001476701   2    1000023    2

DECAY 1000001  41.729103
    0.64037312   2   -1000037    2
    0.31823992   2    1000035    1
    0.020636641   2    1000021    1
    0.014961861   2    1000022    1
    0.0038750789   2   -1000024    2
    0.0010400991   2    1000025    1
    0.0008732869   2    1000023    1

DECAY 2000001  9.5306915
    0.76385627   2    1000021    1
    0.12910091   2    1000025    1
    0.10666562   2    1000022    1
    0.0003550266   2    1000023    1
    2.2171462e-05   2    1000035    1

DECAY 1000004  43.299347
    0.63070708   2    1000037    3
    0.31725988   2    1000035    4
    0.018273994   2    1000025    4
    0.017740548   2    1000024    3
    0.014706085   2    1000021    4
    0.00087700878   2    1000022    4
    0.00043539983   2    1000023    4

DECAY 2000004  0.75714528
    0.52707539   2    1000022    4
    0.47144802   2    1000025    4
    0.0014765928   2    1000023    4

DECAY 1000003  43.259312
    0.64409147   2   -1000037    4
    0.32008807   2    1000035    3
    0.015085668   2    1000022    3
    0.014899574   2    1000021    3
    0.0039065174   2   -1000024    4
    0.0010483662   2    1000025    3
    0.00088033815   2    1000023    3

DECAY 2000003  7.8097348
    0.69771037   2    1000021    3
    0.16523837   2    1000025    3
    0.13656848   2    1000022    3
    0.00045446276   2    1000023    3
    2.8315051e-05   2    1000035    3

DECAY 1000011  38.085522
    0.58921508   2   -1000037    12
    0.28831804   2    1000035    11
    0.087065337   2    1000025    11
    0.031550083   2    1000022    11
    0.0037126973   2   -1000024    12
    0.00013875815   2    1000023    11

DECAY 2000011  14.048084
    0.54486031   2    1000025    11
    0.45355204   2    1000022    11
    0.0015029734   2    1000023    11
    8.4680576e-05   2    1000035    11

DECAY 1000013  38.085522
    0.58921508   2   -1000037    14
    0.28831804   2    1000035    13
    0.087065337   2    1000025    13
    0.031550083   2    1000022    13
    0.0037126973   2   -1000024    14
    0.00013875815   2    1000023    13

DECAY 2000013  14.048084
    0.54486031   2    1000025    13
    0.45355204   2    1000022    13
    0.0015029734   2    1000023    13
    8.4680576e-05   2    1000035    13

DECAY 1000015  10.949129
    0.50031408   2   -1000037    16
    0.24501283   2    1000035    15
    0.14235417   2    1000025    15
    0.070299664   2    1000022    15
    0.036436381   2    1000023    15
    0.0055828792   2   -1000024    16

DECAY 2000015  24.07386
    0.4641647   2    1000025    15
    0.39531884   2    1000022    15
    0.091157207   2   -1000024    16
    0.046459918   2    1000023    15
    0.0010097967   2    1000016   -24
    0.00052508614   2    1000015    25
    0.00051921507   2    1000015    23
    0.00051288948   2   -1000037    16
    0.00033235168   2    1000035    15

DECAY 1000012  38.106876
    0.57700008   2    1000037    11
    0.29476572   2    1000035    12
    0.072039397   2    1000022    12
    0.037928161   2    1000025    12
    0.016862466   2    1000024    11
    0.0014041772   2    1000023    12

DECAY 1000014  38.106876
    0.57700008   2    1000037    13
    0.29476572   2    1000035    14
    0.072039397   2    1000022    14
    0.037928162   2    1000025    14
    0.016862466   2    1000024    13
    0.0014041773   2    1000023    14

DECAY 1000016  10.982158
    0.48699308   2    1000037    15
    0.24873951   2    1000035    16
    0.1087744   2    1000022    16
    0.098102752   2    1000024    15
    0.05531278   2    1000025    16
    0.002077486   2    1000023    16

DECAY 1000024  2.1759106e-05
    0.33389251   3    1000022    2   -1
    0.33389251   3    1000022    4   -3
    0.11130026   3    1000022   -11    12
    0.11130026   3    1000022   -13    14
    0.10961446   3    1000022   -15    16

DECAY 1000037  7.0367079
    0.25650822   2    1000024    23
    0.25028426   2    1000023    24
    0.24168925   2    1000024    25
    0.1432282   2    1000025    24
    0.10829007   2    1000022    24

DECAY 1000022 -1


DECAY 1000023  5.1179025e-05
    0.15392228   3    1000022   -1    1
    0.15392228   3    1000022   -3    3
    0.13492656   3    1000022   -5    5
    0.11862361   3    1000022   -2    2
    0.11862361   3    1000022   -4    4
    0.070736734   3    1000022   -16    16
    0.070724545   3    1000022   -12    12
    0.070724545   3    1000022   -14    14
    0.035366034   3    1000022   -11    11
    0.035366034   3    1000022   -13    13
    0.034908099   3    1000022   -15    15
    0.0009240828   2    1000022    22
    0.00021050065   3    1000024   -2    1
    0.00021050065   3   -1000024   -1    2
    0.00021050065   3    1000024   -4    3
    0.00021050065   3   -1000024   -3    4
    7.0167216e-05   3    1000024   -12    11
    7.0167216e-05   3   -1000024    12   -11
    7.0167216e-05   3    1000024   -14    13
    7.0167216e-05   3   -1000024    14   -13
    5.4459803e-05   3    1000024   -16    15
    5.4459803e-05   3   -1000024    16   -15

DECAY 1000025  4.9685312e-05
    0.14712931   3    1000024   -2    1
    0.14712931   3   -1000024   -1    2
    0.14712931   3    1000024   -4    3
    0.14712931   3   -1000024   -3    4
    0.049040891   3    1000024   -12    11
    0.049040891   3   -1000024    12   -11
    0.049040891   3    1000024   -14    13
    0.049040891   3   -1000024    14   -13
    0.048340316   3    1000024   -16    15
    0.048340316   3   -1000024    16   -15
    0.021269089   2    1000022    22
    0.013824382   3    1000023   -1    1
    0.013824382   3    1000023   -3    3
    0.010642878   3    1000023   -2    2
    0.010642878   3    1000023   -4    4
    0.010019908   3    1000023   -5    5
    0.0063513961   3    1000023   -12    12
    0.0063513961   3    1000023   -14    14
    0.0063504694   3    1000023   -16    16
    0.0045708086   2    1000023    22
    0.0031767399   3    1000023   -11    11
    0.0031767399   3    1000023   -13    13
    0.0030876811   3    1000023   -15    15
    0.0012025315   3    1000022   -2    2
    0.0012025315   3    1000022   -4    4
    0.00058761188   3    1000022   -1    1
    0.00058761188   3    1000022   -3    3
    0.00056608551   3    1000022   -5    5
    0.00029987884   3    1000022   -16    16
    0.0002767594   3    1000022   -12    12
    0.0002767594   3    1000022   -14    14
    0.00011743643   3    1000022   -15    15
    0.00011630035   3    1000022   -11    11
    0.00011630035   3    1000022   -13    13

DECAY 1000035  7.0339269
    0.25341852   2    1000024   -24
    0.25341852   2   -1000024    24
    0.22351243   2    1000023    23
    0.1232223   2    1000025    25
    0.089701893   2    1000022    25
    0.026560669   2    1000023    25
    0.015247284   2    1000025    23
    0.014884733   2    1000022    23
    8.4107676e-06   2    2000002   -2
    8.4107676e-06   2   -2000002    2
    8.4105954e-06   2    2000004   -4
    8.4105954e-06   2   -2000004    4

DECAY 25  0.0042915452
    0.57499322   2    5   -5
    0.23219611   2    24   -24
    0.07691722   2    21    21
    0.061407014   2   -15    15
    0.029632404   2    23    23
    0.020411665   2    4   -4
    0.002319424   2    22    22
    0.0016689188   2    22    23
    0.00023666729   2    3   -3
    0.00021735824   2   -13    13

DECAY 35  42.61012
    0.21609047   2    1000024   -1000037
    0.21609047   2    1000037   -1000024
    0.20980978   2    5   -5
    0.13286423   2    1000023    1000035
    0.049029641   2    1000022    1000035
    0.037851661   2   -15    15
    0.037714028   2    1000025    1000035
    0.025987727   2    1000022    1000022
    0.023324195   2    1000022    1000023
    0.017901192   2    1000023    1000025
    0.011862471   2    1000024   -1000024
    0.0096494016   2    6   -6
    0.008628126   2    1000025    1000025
    0.0011125434   2    1000023    1000023
    0.0010883316   2    1000037   -1000037
    0.00055876627   2    1000035    1000035
    0.00018677514   2    1000022    1000025
    0.00013518376   2   -13    13
    8.3946996e-05   2    3   -3
    1.9367067e-05   2    25    25
    5.3177365e-06   2    24   -24
    2.6525355e-06   2    23    23
    2.255354e-06   2    21    21
    6.2513333e-07   2    2000002   -2000002
    6.2513333e-07   2    2000004   -2000004
    1.0977953e-07   2    22    22
    9.8329931e-08   2    4   -4
    4.2043388e-09   2    23    22

DECAY 36  42.60939
    0.21393677   2    1000024   -1000037
    0.21393677   2    1000037   -1000024
    0.20983808   2    5   -5
    0.086656842   2    1000023    1000035
    0.071294441   2    1000022    1000035
    0.060162369   2    1000025    1000035
    0.037852837   2   -15    15
    0.034307965   2    1000022    1000022
    0.016172814   2    1000022    1000023
    0.014231265   2    1000024   -1000024
    0.013763722   2    1000023    1000025
    0.012128363   2    1000025    1000025
    0.0096880338   2    6   -6
    0.0029948795   2    1000037   -1000037
    0.0015287841   2    1000035    1000035
    0.0009406518   2    1000023    1000023
    0.00031710786   2    1000022    1000025
    0.00013518773   2   -13    13
    8.397063e-05   2    3   -3
    2.3490795e-05   2    21    21
    5.3843926e-06   2    23    25
    1.5160209e-07   2    22    22
    9.8654642e-08   2    4   -4
    2.2123966e-08   2    23    22

DECAY 37  42.318653
    0.21887828   2    1000024    1000035
    0.21819102   2    1000037    1000023
    0.21441229   2    6   -5
    0.12503004   2    1000037    1000022
    0.10240429   2    1000037    1000025
    0.049509098   2    1000024    1000025
    0.038131246   2   -15    16
    0.030443986   2    1000024    1000022
    0.0024221125   2    1000024    1000023
    0.0003448887   2    4   -5
    0.00013618204   2   -13    14
    8.3326688e-05   2    4   -3
    5.4330816e-06   2    24    25
    4.2285873e-06   2    2   -3
    3.4488809e-06   2    2   -5
    1.3052306e-07   2    1000037    1000035
    1.4438929e-13   2    24    36

DECAY 5 -1


DECAY 15 -1


DECAY 23  2.4952


DECAY 24  2.085
