BLOCK SPINFO
   1   SPheno
   2   v4.0.5be

BLOCK SPHENOINFO
   1   2
   2   2

BLOCK MODSEL
   1   0

BLOCK MINPAR
   3    6.9137022
   4    1

BLOCK EXTPAR
   0    4204.3289
   1    539.15712
   2   -4385.1192
   3    4194.262
   11   -6339.6603
   12   -3069.8139
   13   -236.62359
   23    1261.1484
   25    6.5660107
   26    1071.8617
   31    3602.3317
   32    3602.3317
   33    1712.1327
   34    2131.1457
   35    2131.1457
   36    4330.9021
   41    2084.1052
   42    2084.1052
   43    3534.3068
   44    2489.4881
   45    2489.4881
   46    4802.6752
   47    4379.8633
   48    4379.8633
   49    3682.6209

BLOCK SMINPUTS
   1    127.90897
   2    1.1663787e-05
   3    0.1184
   4    91.1876
   5    4.18
   6    173.2
   7    1.777
   8    0
   11    0.00051099893
   12    0
   13    0.10565837
   14    0
   21    0.005
   22    0.0025
   23    0.095
   24    1.27

BLOCK GAUGE Q=  4204.3289
   1    0.35536298
   2    0.66519887
   3    1.219778

BLOCK YU Q=  4204.3289
   1   1    8.481053e-06
   2   2    0.0043083749
   3   3    1.0245793

BLOCK YD Q=  4204.3289
   1   1    0.00011190039
   2   2    0.0021261075
   3   3    0.11097013

BLOCK YE Q=  4204.3289
   1   1    1.9527437e-05
   2   2    0.0040376546
   3   3    0.067906708

BLOCK AU Q=  4204.3289
   1   1    0
   2   2    0
   3   3   -6339.6602

BLOCK AD Q=  4204.3289
   1   1    0
   2   2    0
   3   3   -3069.8139

BLOCK AE Q=  4204.3289
   1   1    0
   2   2    0
   3   3   -236.62359

BLOCK MSOFT Q=  4204.3289
   1    539.15712
   2   -4385.1192
   3    4194.262
   21   -624693.43
   22   -1324353.3
   31    3602.3317
   32    3602.3317
   33    1712.1327
   34    2131.1457
   35    2131.1457
   36    4330.9021
   41    2084.1052
   42    2084.1052
   43    3534.3068
   44    2489.4881
   45    2489.4881
   46    4802.6752
   47    4379.8633
   48    4379.8633
   49    3682.6209

BLOCK MASS
   6    173.2
   23    91.1876
   24    80.429995
   15    1.777
   25    122.88626
   35    1072.1782
   36    1071.8617
   37    1074.9315
   1000001    2346.8353
   2000001    4521.1581
   1000002    2345.5512
   2000002    2687.3976
   1000003    2346.8348
   2000003    4521.1579
   1000004    2345.5507
   2000004    2687.3969
   1000005    3691.8296
   2000005    3846.0419
   1000006    3682.2059
   2000006    4800.4869
   1000011    3639.7077
   2000011    2133.9836
   1000012    3638.4699
   1000013    3639.7071
   2000013    2133.9821
   1000014    3638.4692
   1000015    1765.2963
   2000015    4334.5887
   1000016    1763.2517
   1000021    4326.5595
   1000022    530.70929
   1000023   -1284.7557
   1000025    1287.2304
   1000035   -4315.9445
   1000024    1284.862
   1000037    4315.9943

BLOCK ALPHA
      -0.14635605

BLOCK HMIX Q=  4204.3289
   1    1261.1484
   2    6.5660107
   3    242.90106
   4    1148887.4

BLOCK STOPMIX
   1   1    0.99558886
   1   2    0.093823348
   2   1   -0.093823348
   2   2    0.99558886

BLOCK SBOTMIX
   1   1    0.99977627
   1   2    0.021151826
   2   1   -0.021151826
   2   2    0.99977627

BLOCK STAUMIX
   1   1    0.99999955
   1   2    0.0009449622
   2   1   -0.0009449622
   2   2    0.99999955

BLOCK NMIX
   1   1   -0.99877242
   1   2   -0.00047853658
   1   3   -0.043688785
   1   4    0.023339004
   2   1    0.014403041
   2   2    0.014911132
   2   3   -0.70704611
   2   4   -0.7068635
   3   1    0.047393807
   3   2   -0.011116403
   3   3   -0.70581153
   3   4    0.70672508
   4   1    0.00016589485
   4   2   -0.99982691
   4   3   -0.0026763293
   4   4   -0.018410731

BLOCK UMIX
   1   1   -0.0038356992
   1   2    0.99999264
   2   1   -0.99999264
   2   2   -0.0038356992

BLOCK VMIX
   1   1    0.026130391
   1   2    0.99965854
   2   1    0.99965854
   2   2   -0.026130391

BLOCK HIGGSBOUNDSINPUTHIGGSCOUPLINGSFERMIONS
       0, 43.112496,3,36,15,15

BLOCK HIGGSBOUNDSINPUTHIGGSCOUPLINGSBOSONS
       0,4,36,21,21,23

BLOCK SPHENOLOWENERGY
   1    0.00035199486
   2    1.5893446e-06
   3    3.5291574e-05
   4    2.5711878e-15
   5    1.0983822e-10
   6    2.2993379e-08
   7    8.6478461e-14
   8    3.694357e-09
   9    7.8359999e-07
   10    9.6558456e-05
   11    0.99741188
   12    0.54296527
   13    19.399377
   14    0
   15    0
   16    0.0021612477
   17    2.2816996e-15
   18    2.4829648e-11
   19    8.2968566e-11
   20   -1.3842945e-16
   21   -5.918302e-12
   22   -1.7450243e-09
   23    0
   24    0
   25    0
   26    0
   27    0
   28    0
   29    0
   30    0
   31    0
   39   -0.00016075944
   40    0
   41    0
   42    0

BLOCK FWCOEF Q=  160
   305   4422   0   0   -0.18881911
   305   4422   0   2   -0.22019811
   305   4322   0   2   -0.00060538214
   305   6421   0   0   -0.095227835
   305   6421   0   2   -0.1337504
   305   6321   0   2   -0.00074864465
   3051111   4133   0   0    1.6279394
   3051111   4133   0   2    1.6282743
   3051111   4233   0   2    9.6459109e-06
   3051111   4137   0   0   -4.4506315
   3051111   4137   0   2   -4.4528067
   3051111   4237   0   2   -7.1190225e-05
   3051313   4133   0   0    1.6279394
   3051313   4133   0   2    1.6282743
   3051313   4233   0   2    9.6459003e-06
   3051313   4137   0   0   -4.4506315
   3051313   4137   0   2   -4.4528067
   3051313   4237   0   2   -7.1190216e-05
   3051212   4137   0   0    1.5053501
   3051212   4137   0   2    1.5058209
   3051212   4237   0   2    1.5389141e-05
   3051414   4137   0   0    1.5053501
   3051414   4137   0   2    1.5058209
   3051414   4237   0   2    1.5389143e-05
   3051616   4137   0   0    1.5053501
   3051616   4137   0   2    1.5058206
   3051616   4237   0   2    1.5389715e-05

BLOCK IMFWCOEF Q=  160
   305   4422   0   0    3.8583073e-07
   305   4422   0   2   -7.6970158e-08
   305   4322   0   2    7.8058847e-07
   305   6421   0   0    3.3048954e-07
   305   6421   0   2   -2.6204052e-06
   305   6321   0   2    3.6911792e-07
   3051111   4133   0   2   -1.1774708e-06
   3051111   4233   0   2    2.774664e-07
   3051111   4137   0   2    1.0518364e-05
   3051111   4237   0   2   -2.0489583e-06
   3051313   4133   0   2   -1.1774706e-06
   3051313   4233   0   2    2.774664e-07
   3051313   4137   0   2    1.0518364e-05
   3051313   4237   0   2   -2.0489583e-06
   3051212   4137   0   2   -2.2628285e-06
   3051212   4237   0   2    4.4292779e-07
   3051414   4137   0   2   -2.2628285e-06
   3051414   4237   0   2    4.4292779e-07
   3051616   4137   0   2   -2.2683e-06
   3051616   4237   0   2    4.4292696e-07

DECAY 23  2.4952


DECAY 24  2.085


DECAY 2000011  9.4246537
    0.99886992   2    1000022    11
    0.0010341496   2    1000025    11

DECAY 1000011  4.3859083
    0.99792325   2    1000022    11
    0.0014303962   2    1000023    11
    0.00056398986   2    1000025    11

DECAY 2000013  9.4252083
    0.99881039   2    1000022    13
    0.0010489132   2    1000025    13
    0.00011085233   2    1000023    13

DECAY 1000013  4.3868587
    0.99770737   2    1000022    13
    0.0015331546   2    1000023    13
    0.00066647047   2    1000025    13

DECAY 1000015  1.870706
    0.98031447   2    1000022    15
    0.01003086   2    1000023    15
    0.0096262675   2    1000025    15

DECAY 2000015  21.843443
    0.96506579   2    1000022    15
    0.01514477   2   -1000024    16
    0.0094090711   2    1000025    15
    0.0077436765   2    1000023    15
    0.0013142722   2    1000016   -24
    0.00066351606   2    1000015    25
    0.00065590308   2    1000015    23

DECAY 1000012  4.39318
    0.99233685   2    1000022    12
    0.0038139643   2    1000024    11
    0.0037037249   2    1000025    12
    0.00014546405   2    1000023    12

DECAY 1000014  4.3940847
    0.99213231   2    1000022    14
    0.0040189663   2    1000024    13
    0.0037029611   2    1000025    14
    0.00014543406   2    1000023    14

DECAY 1000016  1.8643329
    0.97838015   2    1000022    16
    0.020366639   2    1000024    15
    0.0012055012   2    1000025    16

DECAY 1000001  0.29545853
    0.99034525   2    1000022    1
    0.0065361869   2    1000025    1
    0.0026140997   2    1000023    1
    0.00050446254   2   -1000024    2

DECAY 2000001  4.9861939
    0.50778932   2    1000021    1
    0.49116135   2    1000022    1
    0.00096028909   2    1000025    1

DECAY 1000003  0.29598586
    0.98858167   2    1000022    3
    0.0066980134   2    1000025    3
    0.0027835694   2    1000023    3
    0.001936747   2   -1000024    4

DECAY 2000003  4.9868853
    0.50771774   2    1000021    3
    0.49109338   2    1000022    3
    0.00099437042   2    1000025    3
    0.00012317266   2    1000023    3

DECAY 1000005  60.326096
    0.98015262   2   -1000024    6
    0.0082260809   2    1000022    5
    0.0058308688   2    1000023    5
    0.0057904338   2    1000025    5

DECAY 2000005  3.5972038
    0.57221647   2    1000022    5
    0.21593669   2   -1000024    6
    0.10492174   2    1000025    5
    0.10326902   2    1000023    5
    0.0018289997   2    1000006   -24
    0.0012147851   2    1000005    25
    0.00061229433   2    1000005    23

DECAY 1000002  0.30406352
    0.9720843   2    1000022    2
    0.022716053   2    1000024    1
    0.0050808358   2    1000023    2
    0.00011881349   2    1000025    2

DECAY 2000002  5.5375975
    0.99842076   2    1000022    2
    0.0014454426   2    1000025    2
    0.00013380103   2    1000023    2

DECAY 1000004  0.3045917
    0.9703997   2    1000022    4
    0.023015808   2    1000024    3
    0.0057717323   2    1000023    4
    0.00081275976   2    1000025    4

DECAY 2000004  5.5387737
    0.99820778   2    1000022    4
    0.0014986322   2    1000025    4
    0.00018694238   2    1000023    4
    0.0001065501   2    1000024    3

DECAY 1000006  60.290832
    0.48538356   2    1000023    6
    0.48253424   2    1000025    6
    0.017241545   2    1000024    5
    0.011337854   2    1000022    6
    0.0034339687   3    1000022    24    5

DECAY 2000006  297.66737
    0.28847662   2    1000024    5
    0.15051575   2    1000005    24
    0.14586296   2    1000025    6
    0.14526009   2    1000023    6
    0.12018229   2    1000006    25
    0.076166618   2    1000006    23
    0.038740917   2    1000021    6
    0.034447011   2    1000022    6
    0.00012232261   2    1000005    37

DECAY 1000024  1.0174485
    0.98116627   2    1000022    24
    0.018831407   3    1000022   -5    6

DECAY 1000037  220.77087
    0.12809181   2    1000004   -3
    0.12809176   2    1000002   -1
    0.12805975   2   -1000003    4
    0.12805975   2   -1000001    2
    0.059680991   2    1000016   -15
    0.059665228   2   -1000015    16
    0.043327034   2    1000024    36
    0.043169143   2    37    1000025
    0.043114631   2    1000024    35
    0.035852498   2    1000024    25
    0.032676867   2    1000024    23
    0.032516627   2    1000025    24
    0.032313633   2    1000023    24
    0.030561184   2    37    1000023
    0.019079285   2    1000006   -5
    0.017548982   2   -1000005    6
    0.0071977169   2    1000014   -13
    0.0071977029   2    1000012   -11
    0.0071784669   2   -1000013    14
    0.0071784551   2   -1000011    12
    0.0037178066   3    1000024    6   -6
    0.0032441485   3    1000023   -5    6
    0.0022388636   3    1000025   -5    6
    0.00014170697   2    37    1000022

DECAY 1000022 -1


DECAY 1000023  1.4078357
    0.66816555   2    1000022    23
    0.32875698   2    1000022    25
    0.0030392815   3    1000022    6   -6

DECAY 1000025  0.93014575
    0.89886138   2    1000022    25
    0.093378314   2    1000022    23
    0.0077411816   3    1000022    6   -6

DECAY 1000035  222.6604
    0.063518091   2    1000004   -4
    0.063518091   2   -1000004    4
    0.063518056   2    1000002   -2
    0.063518056   2   -1000002    2
    0.063467276   2    1000003   -3
    0.063467276   2   -1000003    3
    0.063467252   2    1000001   -1
    0.063467252   2   -1000001    1
    0.042002326   2    1000025    25
    0.037286245   2    1000023    35
    0.032681359   2    1000024   -24
    0.032681359   2   -1000024    24
    0.030283676   2    37   -1000024
    0.030283676   2   -37    1000024
    0.029601839   2    1000016   -16
    0.029601839   2   -1000016    16
    0.029563769   2    1000015   -15
    0.029563769   2   -1000015    15
    0.023221357   2    1000023    25
    0.020641994   2    1000025    23
    0.02053172   2    1000025    35
    0.011512826   2    1000023    23
    0.0099372422   2    1000025    36
    0.0093805572   2    1000006   -6
    0.0093805572   2   -1000006    6
    0.0092052151   2    1000005   -5
    0.0092052151   2   -1000005    5
    0.0054082064   2    1000023    36
    0.0035697067   2    1000014   -14
    0.0035697067   2   -1000014    14
    0.0035696998   2    1000012   -12
    0.0035696998   2   -1000012    12
    0.003556519   2    1000013   -13
    0.003556519   2   -1000013    13
    0.0035565132   2    1000011   -11
    0.0035565132   2   -1000011    11
    0.003410121   3    1000024    5   -6
    0.003410121   3   -1000024   -5    6
    0.002613685   3    1000025    6   -6
    0.0018906344   3    1000023    6   -6

DECAY 1000021  376.12056
    0.08488008   2    1000004   -4
    0.08488008   2   -1000004    4
    0.08488006   2    1000002   -2
    0.08488006   2   -1000002    2
    0.084802719   2    1000003   -3
    0.084802719   2   -1000003    3
    0.084802687   2    1000001   -1
    0.084802687   2   -1000001    1
    0.064220953   2    2000004   -4
    0.064220953   2   -2000004    4
    0.064220919   2    2000002   -2
    0.064220919   2   -2000002    2
    0.01258115   2    1000005   -5
    0.01258115   2   -1000005    5
    0.011855899   2    1000006   -6
    0.011855899   2   -1000006    6
    0.0074954986   2    2000005   -5
    0.0074954986   2   -2000005    5
    0.00011253306   3    1000025    6   -6
    0.00011113781   3    1000023    6   -6
    0.00010690074   3    1000024    5   -6
    0.00010690074   3   -1000024   -5    6

DECAY 25  0.0037022353
    0.61165475   2   -5    5
    0.19078721   2   -24    24
    0.072112512   2    21    21
    0.070064446   2   -15    15
    0.029193106   2   -4    4
    0.022134583   2    23    23
    0.0022885178   2    22    22
    0.0012917714   2    22    23
    0.00024306308   2   -13    13
    0.00022924832   2   -3    3
    6.3384627e-07   2   -1    1
    1.5044551e-07   2   -2    2
    5.4643561e-09   2   -11    11

DECAY 35  1.6081651
    0.51007012   2   -6    6
    0.41101032   2   -5    5
    0.06639604   2   -15    15
    0.0089800301   2    25    25
    0.0015126742   2   -24    24
    0.0012207945   2    23    23
    0.00041703414   2    21    21
    0.00023286421   2   -13    13
    0.00015013917   2   -3    3
    7.2988407e-06   2   -4    4
    1.8097732e-06   2    22    22
    4.5561599e-07   2    22    23
    4.1507413e-07   2   -1    1
    5.2316548e-09   2   -11    11
    3.7633338e-11   2   -2    2

DECAY 36  1.6244024
    0.53248005   2   -6    6
    0.39998134   2   -5    5
    0.064605563   2   -15    15
    0.0017190033   2    23    25
    0.00083054674   2    21    21
    0.00022658048   2   -13    13
    0.00014609749   2   -3    3
    6.7805973e-06   2   -4    4
    2.7976504e-06   2    22    22
    8.3087292e-07   2    22    23
    4.0390083e-07   2   -1    1
    5.0904786e-09   2   -11    11
    3.4967164e-11   2   -2    2
    9.1820617e-36   2    25    25

DECAY 37  1.6628847
    0.93474791   2   -5    6
    0.061792124   2   -15    16
    0.0017028675   2    24    25
    0.00081506478   2   -3    6
    0.0005430144   2   -5    4
    0.00021845826   2   -13    14
    0.00013280325   2   -3    4
    3.7374634e-05   2   -1    6
    5.7827999e-06   2   -3    2
    3.8776083e-06   2   -5    2
    3.7367655e-07   2   -1    4
    3.4703329e-07   2   -1    2
    5.1097614e-09   2   -11    12
    2.2252244e-10   2    24    36
    1.291728e-10   2    24    35

DECAY 6  2.43
    1   2    5    24

DECAY 15 -1
