BLOCK DCINFO
   1   SDECAY/HDECAY
   2   1.3b /3.4

BLOCK SPINFO
   1   SOFTSUSY
   2   3.4.0

BLOCK MODSEL
   1   0

BLOCK SMINPUTS
   1    127.90897
   2    1.1663787e-05
   3    0.1184
   4    91.1876
   5    4.18
   6    173.2
   7    1.777

BLOCK MINPAR
   3    13.91

BLOCK EXTPAR
   0   -1
   1   -41.71
   2    2352.34
   3    1996.68
   11   -3495.23
   12    3039.53
   13   -21.02
   23    151.71
   26    1122.58
   31    2130.18
   32    2130.18
   33    2392.98
   34    1143.28
   35    1143.28
   36    745.66
   41    3694.31
   42    3694.31
   43    2462.55
   44    3015.41
   45    3015.41
   46    1319.05
   47    3818.17
   48    3818.17
   49    3451.77

BLOCK MASS
   24    80.392429
   25    126.84257
   35    1122.6798
   36    1122.58
   37    1125.6824
   5    4.8187603
   1000001    3733.3316
   2000001    3851.1664
   1000002    3732.6385
   2000002    3049.7496
   1000003    3733.3316
   2000003    3851.1664
   1000004    3732.6385
   2000004    3049.7496
   1000005    2492.2872
   2000005    3484.8845
   1000006    1332.8805
   2000006    2507.4161
   1000011    2140.9371
   2000011    1158.3867
   1000012    2139.1733
   1000013    2140.9371
   2000013    1158.3867
   1000014    2139.1733
   1000015    766.79637
   2000015    2402.6492
   1000016    2401.0426
   1000021    2199.2985
   1000022   -40.029124
   1000023    161.93037
   1000025   -166.39642
   1000035    2388.0433
   1000024    157.73962
   1000037    2388.2123

BLOCK NMIX
   1   1    0.95764259
   1   2    0.0010382499
   1   3    0.28323585
   1   4    0.051933117
   2   1    0.16579151
   2   2    0.02667622
   2   3   -0.68978464
   2   4    0.70427176
   3   1   -0.23544306
   3   2    0.020286652
   3   3    0.66629837
   3   4    0.70724925
   4   1   -0.00064097196
   4   2    0.99943772
   4   3    0.0045923956
   4   4   -0.033207619

BLOCK UMIX
   1   1   -0.0064927608
   1   2    0.99997892
   2   1   -0.99997892
   2   2   -0.0064927608

BLOCK VMIX
   1   1   -0.046971486
   1   2    0.99889623
   2   1   -0.99889623
   2   2   -0.046971486

BLOCK STOPMIX
   1   1    0.11444591
   1   2    0.99342948
   2   1   -0.99342948
   2   2    0.11444591

BLOCK SBOTMIX
   1   1    0.99999994
   1   2   -0.00034641016
   2   1    0.00034641016
   2   2    0.99999994

BLOCK STAUMIX
   1   1    0.00071626718
   1   2    0.99999974
   2   1   -0.99999974
   2   2    0.00071626718

BLOCK ALPHA
      -0.076110145

BLOCK HMIX Q=  1797.852
   1    153.56718
   2    13.365178
   3    242.81872
   4    1263605

BLOCK GAUGE Q=  1797.852
   1    0.36397046
   2    0.6375495
   3    1.0256182

BLOCK AU Q=  1797.852
   1   1    0
   2   2    0
   3   3   -3495.23

BLOCK AD Q=  1797.852
   1   1    0
   2   2    0
   3   3    3039.53

BLOCK AE Q=  1797.852
   1   1    0
   2   2    0
   3   3   -21.02

BLOCK YU Q=  1797.852
   1   1    0
   2   2    0
   3   3    0.8326643

BLOCK YD Q=  1797.852
   1   1    0
   2   2    0
   3   3    0.18669872

BLOCK YE Q=  1797.852
   1   1    0
   2   2    0
   3   3    0.13737129

BLOCK MSOFT Q=  1797.852
   1   -41.71
   2    2352.34
   3    1996.68
   21    1209046.8
   22   -14542.931
   31    2130.18
   32    2130.18
   33    2392.98
   34    1143.28
   35    1143.28
   36    745.66
   41    3694.31
   42    3694.31
   43    2462.55
   44    3015.41
   45    3015.41
   46    1319.05
   47    3818.17
   48    3818.17
   49    3451.77

BLOCK HIGGSBOUNDSINPUTHIGGSCOUPLINGSFERMIONS
       0, 178.62799,3,36,15,15

BLOCK HIGGSBOUNDSINPUTHIGGSCOUPLINGSBOSONS
       0,4,36,21,21,23

DECAY 6  1.4314126
    1   2    5    24

DECAY 1000021  17.1223
    0.5   2    1000006   -6
    0.5   2   -1000006    6

DECAY 1000006  38.118152
    0.46584919   2    1000024    5
    0.23974848   2    1000025    6
    0.22336714   2    1000023    6
    0.071035193   2    1000022    6

DECAY 2000006  88.389633
    0.27172103   2    1000006    23
    0.25753527   2    1000006    25
    0.19352115   2    1000023    6
    0.18661635   2    1000025    6
    0.059858669   2    1000021    6
    0.021660543   2    1000024    5
    0.0069658171   2    1000022    6
    0.0019724555   2    1000037    5
    7.5938516e-05   2    1000006    35
    7.2771431e-05   2    1000006    36

DECAY 1000005  88.476882
    0.5177326   2    1000006   -24
    0.38082571   2   -1000024    6
    0.076969083   2    1000021    5
    0.0092200262   2    1000023    5
    0.0090753129   2    1000025    5
    0.0052989111   2    1000022    5
    0.00076262882   2    1000035    5
    0.00011573338   2    1000006   -37

DECAY 2000005  77.286623
    0.91103584   2    1000021    5
    0.030984302   2   -1000024    6
    0.026727945   2    1000022    5
    0.015534196   2    1000023    5
    0.015268813   2    1000025    5
    0.00043745651   2    1000006   -37
    4.5043647e-06   2    2000006   -24
    3.7988954e-06   2    1000005    25
    2.4377397e-06   2    1000005    23
    3.3418338e-07   2    1000006   -24
    2.4279536e-07   2   -1000037    6
    1.2729828e-07   2    1000035    5

DECAY 1000002  125.04588
    0.87264031   2    1000021    2
    0.081640101   2    1000037    1
    0.040862269   2    1000035    2
    0.0038874028   2    1000022    2
    0.00050931849   2    1000024    1
    0.00039124388   2    1000023    2
    6.9355849e-05   2    1000025    2

DECAY 2000002  54.994343
    0.87625734   2    1000021    2
    0.11352417   2    1000022    2
    0.0068305744   2    1000025    2
    0.0033879136   2    1000023    2
    7.8356952e-09   2    1000035    2

DECAY 1000001  125.07511
    0.87294289   2    1000021    1
    0.081855032   2   -1000037    2
    0.040901133   2    1000035    1
    0.00379965   2    1000022    1
    0.00048882681   2    1000025    1
    9.7310885e-06   2   -1000024    2
    2.7406389e-06   2    1000023    1

DECAY 2000001  122.12342
    0.98227873   2    1000021    1
    0.016255581   2    1000022    1
    0.00097977571   2    1000025    1
    0.00048590986   2    1000023    1
    2.7915548e-09   2    1000035    1

DECAY 1000004  105.17332
    0.84408576   2    1000021    4
    0.099894793   2    1000037    3
    0.049999116   2    1000035    4
    0.0048188306   2    1000022    4
    0.00063093459   2    1000024    3
    0.00048465478   2    1000023    4
    8.5912748e-05   2    1000025    4

DECAY 2000004  46.343392
    0.8459583   2    1000021    4
    0.14133294   2    1000022    4
    0.0084950982   2    1000025    4
    0.0042136506   2    1000023    4
    9.4794284e-09   2    1000035    4

DECAY 1000003  105.18899
    0.84445079   2    1000021    3
    0.10016659   2   -1000037    4
    0.05005116   2    1000035    3
    0.0047104294   2    1000022    3
    0.00060557011   2    1000025    3
    1.205566e-05   2   -1000024    4
    3.3952491e-06   2    1000023    3

DECAY 2000003  99.848017
    0.97742205   2    1000021    3
    0.020711702   2    1000022    3
    0.0012475315   2    1000025    3
    0.00061871457   2    1000023    3
    3.515868e-09   2    1000035    3

DECAY 1000011  2.8333729
    0.91597531   2    1000022    11
    0.044457471   2    1000023    11
    0.039312427   2    1000025    11
    0.00025479389   2   -1000024    12

DECAY 2000011  6.0721617
    0.91996595   2    1000022    11
    0.053464391   2    1000025    11
    0.026569661   2    1000023    11

DECAY 1000013  2.8333729
    0.91597531   2    1000022    13
    0.044457471   2    1000023    13
    0.039312427   2    1000025    13
    0.00025479389   2   -1000024    14

DECAY 2000013  6.0721616
    0.91996595   2    1000022    13
    0.053464391   2    1000025    13
    0.026569661   2    1000023    13

DECAY 1000015  4.5194016
    0.82084576   2    1000022    15
    0.070593466   2    1000025    15
    0.058420379   2   -1000024    16
    0.050140392   2    1000023    15

DECAY 2000015  4.0824791
    0.73107999   2    1000022    15
    0.13891934   2    1000023    15
    0.12796487   2    1000025    15
    0.00068316239   2   -1000037    16
    0.00040986566   2    1000015    25
    0.00040468086   2    1000015    23
    0.000346476   2    1000035    15
    0.00018955526   2   -1000024    16
    1.0559193e-06   2    1000015    36
    1.0074316e-06   2    1000015    35

DECAY 1000012  2.8552826
    0.90132392   2    1000022    12
    0.071618731   2    1000025    12
    0.01383564   2    1000023    12
    0.013221712   2    1000024    11

DECAY 1000014  2.8552826
    0.90132392   2    1000022    14
    0.071618731   2    1000025    14
    0.01383564   2    1000023    14
    0.013221712   2    1000024    13

DECAY 1000016  4.1061018
    0.70358558   2    1000022    16
    0.22796242   2    1000024    15
    0.05603891   2    1000025    16
    0.010824412   2    1000023    16
    0.00077994182   2   -1000015   -24
    0.00053103314   2    1000037    15
    0.00027559665   2    1000035    16
    2.10414e-06   2   -1000015   -37

DECAY 1000024  0.055710913
    1   2    1000022    24

DECAY 1000037  32.086829
    0.15223695   2    1000024    25
    0.1514897   2    1000024    23
    0.14751577   2    1000023    24
    0.14534647   2    1000025    24
    0.088543373   2    1000024    36
    0.088488964   2    1000024    35
    0.084205351   2    1000023    37
    0.078457021   2    1000025    37
    0.014246654   2    1000022    37
    0.011734178   2    1000012   -11
    0.011734178   2    1000014   -13
    0.011602683   2   -1000011    12
    0.011602683   2   -1000013    14
    0.0015766339   2    1000022    24
    0.0012192713   2    1000006   -5
    1.1284102e-07   2   -1000015    16

DECAY 1000022 -1


DECAY 1000023  0.022375748
    1   2    1000022    23

DECAY 1000025  0.029278349
    1   2    1000022    23

DECAY 1000035  32.07582
    0.14738128   2    1000024   -24
    0.14738128   2   -1000024    24
    0.097319385   2    1000023    25
    0.094989838   2    1000025    23
    0.088312122   2    1000024   -37
    0.088312122   2   -1000024    37
    0.055218007   2    1000023    23
    0.054306717   2    1000025    25
    0.04295116   2    1000023    35
    0.04130253   2    1000023    36
    0.040231209   2    1000025    36
    0.038606665   2    1000025    35
    0.0071857737   2    1000022    36
    0.0071070945   2    1000022    35
    0.0058726027   2    1000012   -12
    0.0058726027   2   -1000012    12
    0.0058726027   2    1000014   -14
    0.0058726027   2   -1000014    14
    0.0057856902   2    1000011   -11
    0.0057856902   2   -1000011    11
    0.0057856902   2    1000013   -13
    0.0057856902   2   -1000013    13
    0.0012514027   2    1000022    23
    0.00058480704   2    1000006   -6
    0.00058480704   2   -1000006    6
    0.00034019331   2    1000022    25
    1.2107664e-07   2    1000015   -15
    1.2107664e-07   2   -1000015    15
    4.7139674e-08   2    2000011   -11
    4.7139674e-08   2   -2000011    11
    4.7139674e-08   2    2000013   -13
    4.7139674e-08   2   -2000013    13

DECAY 25  0.0044976897
    0.55818502   2    5   -5
    0.2277974   2    24   -24
    0.073590152   2    21    21
    0.060621904   2   -15    15
    0.029247332   2    23    23
    0.026736853   2    1000022    1000022
    0.019506901   2    4   -4
    0.0022344654   2    22    22
    0.0016319741   2    22    23
    0.00023343053   2    3   -3
    0.00021456979   2   -13    13

DECAY 35  4.6141599
    0.56225862   2    5   -5
    0.10320352   2    1000022    1000025
    0.093824486   2    1000022    1000023
    0.089564455   2   -15    15
    0.060349916   2    6   -6
    0.043971191   2    1000022    1000022
    0.019857059   2    1000025    1000025
    0.018629115   2    1000023    1000025
    0.0039182393   2    1000024   -1000024
    0.0028088979   2    1000023    1000023
    0.0007049046   2    25    25
    0.00031649402   2   -13    13
    0.00022777294   2    3   -3
    0.00019550152   2    24   -24
    9.6768954e-05   2    23    23
    7.1925813e-05   2    21    21
    6.6709557e-07   2    4   -4
    3.9540794e-07   2    22    22
    7.5398628e-08   2    23    22

DECAY 36  4.6256546
    0.56103377   2    5   -5
    0.12730627   2    1000022    1000023
    0.089354165   2   -15    15
    0.073543434   2    1000022    1000025
    0.06242649   2    6   -6
    0.041715478   2    1000022    1000022
    0.01927149   2    1000023    1000025
    0.015752343   2    1000025    1000025
    0.00442494   2    1000024   -1000024
    0.0041647278   2    1000023    1000023
    0.00031574778   2   -13    13
    0.00026937697   2    21    21
    0.00022733001   2    3   -3
    0.00019289132   2    23    25
    7.0826862e-07   2    22    22
    6.4656088e-07   2    4   -4
    1.9040672e-07   2    23    22

DECAY 37  4.5373954
    0.61738317   2    6   -5
    0.26845549   2    1000024    1000022
    0.091343987   2   -15    16
    0.011531107   2    1000024    1000023
    0.0095665208   2    1000024    1000025
    0.00094813947   2    4   -5
    0.00032277914   2   -13    14
    0.00022849385   2    4   -3
    0.00019925553   2    24    25
    1.1576588e-05   2    2   -3
    9.4813119e-06   2    2   -5
    8.3102282e-11   2    24    36

DECAY 5 -1


DECAY 15 -1


DECAY 23  2.4952


DECAY 24  2.085
