# SUSY Les Houches Accord 2 - MSSM spectrum + Decays
# SPheno v4.0.5be
# W. Porod, Comput. Phys. Commun. 153 (2003) 275-315, hep-ph/0301101;
# W. Porod, F.~Staub, Comput. Phys. Commun. 183 (2012) 2458
#                     arXiv:1104.1573 [hep-ph] 
# in case of problems send email to porod@physik.uni-wuerzburg.de
# Created: 20.12.2022,  12:07
Block SPINFO         # Program information
     1   SPheno      # spectrum calculator
     2   v4.0.5be    # version number
#
Block SPhenoINFO     # SPheno specific information
    1      2         # using 2-loop RGEs
    2      2         # using pole masses for boundary conditions at mZ
Block MODSEL  # Model selection
    1    0    # general MSSM
Block MINPAR  # Input parameters
    3    4.81289018E+01  # tanb at m_Z    
    4    1.00000000E+00  # Sign(mu)
Block EXTPAR  # non-universal input parameters
    0    4.44697276E+03  # scale for input parameters
    1   -2.41670988E+01  # M_1
    2    1.51125806E+03  # M_2
    3    4.17193955E+03  # M_3
   11    5.20298126E+03  # A_t
   12   -9.16240329E+01  # A_b
   13    1.33104390E+02  # A_tau
   23    4.77422479E+02  # mu
   25    4.71203341E+01  # tan(beta)
   26    7.81731662E+02  # m_A, pole mass
   31    1.00000000E+04  # M_L11
   32    1.00000000E+04  # M_L22
   33    1.00000000E+04  # M_L33
   34    1.00000000E+04  # M_E11
   35    1.00000000E+04  # M_E22
   36    1.00000000E+04  # M_E33
   41    1.00000000E+04  # M_Q11
   42    1.00000000E+04  # M_Q22
   43    4.15436481E+03  # M_Q33
   44    1.00000000E+04  # M_U11
   45    1.00000000E+04  # M_U22
   46    4.62413362E+03  # M_U33
   47    1.00000000E+04  # M_D11
   48    1.00000000E+04  # M_D22
   49    2.87768381E+03  # M_D33
Block SMINPUTS  # SM parameters
         1     1.27908970E+02  # alpha_em^-1(MZ)^MSbar
         2     1.16637870E-05  # G_mu [GeV^-2]
         3     1.18400000E-01  # alpha_s(MZ)^MSbar
         4     9.11876000E+01  # m_Z(pole)
         5     4.18000000E+00  # m_b(m_b), MSbar
         6     1.73200000E+02  # m_t(pole)
         7     1.77700000E+00  # m_tau(pole)
         8     0.00000000E+00  # m_nu_3
        11     5.10998930E-04  # m_e(pole)
        12     0.00000000E+00  # m_nu_1
        13     1.05658372E-01  # m_muon(pole)
        14     0.00000000E+00  # m_nu_2
        21     5.00000000E-03  # m_d(2 GeV), MSbar
        22     2.50000000E-03  # m_u(2 GeV), MSbar
        23     9.50000000E-02  # m_s(2 GeV), MSbar
        24     1.27000000E+00  # m_c(m_c), MSbar
Block gauge Q=  4.44697276E+03  # (SUSY scale)
   1    3.55362975E-01  # g'(Q)^DRbar
   2    6.65198874E-01  # g(Q)^DRbar
   3    1.21977796E+00  # g3(Q)^DRbar
Block Yu Q=  4.44697276E+03  # (SUSY scale)
  1  1     8.38626002E-06   # Y_u(Q)^DRbar
  2  2     4.26022009E-03   # Y_c(Q)^DRbar
  3  3     1.01312757E+00   # Y_t(Q)^DRbar
Block Yd Q=  4.44697276E+03  # (SUSY scale)
  1  1     7.94066606E-04   # Y_d(Q)^DRbar
  2  2     1.50872655E-02   # Y_s(Q)^DRbar
  3  3     7.87465248E-01   # Y_b(Q)^DRbar
Block Ye Q=  4.44697276E+03  # (SUSY scale)
  1  1     1.38570429E-04   # Y_e(Q)^DRbar
  2  2     2.86519699E-02   # Y_mu(Q)^DRbar
  3  3     4.81878999E-01   # Y_tau(Q)^DRbar
Block Au Q=  4.44697276E+03  # (SUSY scale)
  1  1     0.00000000E+00   # A_u(Q)^DRbar
  2  2     0.00000000E+00   # A_c(Q)^DRbar
  3  3     5.20298126E+03   # A_t(Q)^DRbar
Block Ad Q=  4.44697276E+03  # (SUSY scale)
  1  1     0.00000000E+00   # A_d(Q)^DRbar
  2  2     0.00000000E+00   # A_s(Q)^DRbar
  3  3    -9.16240332E+01   # A_b(Q)^DRbar
Block Ae Q=  4.44697276E+03  # (SUSY scale)
  1  1     0.00000000E+00   # A_e(Q)^DRbar
  2  2     0.00000000E+00   # A_mu(Q)^DRbar
  3  3     1.33104390E+02   # A_tau(Q)^DRbar
Block MSOFT Q=  4.44697276E+03  # soft SUSY breaking masses at Q
   1   -2.41670988E+01  # M_1
   2    1.51125806E+03  # M_2
   3    4.17193955E+03  # M_3
  21    3.76085301E+05  # M^2_(H,d)
  22    1.72677608E+05  # M^2_(H,u)
  31    1.00000000E+04  # M_(L,11)
  32    1.00000000E+04  # M_(L,22)
  33    1.00000000E+04  # M_(L,33)
  34    1.00000000E+04  # M_(E,11)
  35    1.00000000E+04  # M_(E,22)
  36    1.00000000E+04  # M_(E,33)
  41    1.00000000E+04  # M_(Q,11)
  42    1.00000000E+04  # M_(Q,22)
  43    4.15436481E+03  # M_(Q,33)
  44    1.00000000E+04  # M_(U,11)
  45    1.00000000E+04  # M_(U,22)
  46    4.62413362E+03  # M_(U,33)
  47    1.00000000E+04  # M_(D,11)
  48    1.00000000E+04  # M_(D,22)
  49    2.87768381E+03  # M_(D,33)
Block MASS  # Mass spectrum
#   PDG code      mass          particle
         6     1.73200000E+02  # m_t(pole)
        23     9.11876000E+01  # m_Z(pole)
        24     8.04299946E+01  # W+
        15     1.77700000E+00  # m_tau(pole)
        25     1.25240350E+02  # h0
        35     7.81752317E+02  # H0
        36     7.81731662E+02  # A0
        37     7.92180490E+02  # H+
   1000001     1.01079257E+04  # ~d_L
   2000001     1.00838054E+04  # ~d_R
   1000002     1.01075655E+04  # ~u_L
   2000002     1.00869924E+04  # ~u_R
   1000003     1.01079272E+04  # ~s_L
   2000003     1.00838078E+04  # ~s_R
   1000004     1.01075670E+04  # ~c_L
   2000004     1.00869927E+04  # ~c_R
   1000005     3.03742032E+03  # ~b_1
   2000005     4.25816037E+03  # ~b_2
   1000006     4.24611696E+03  # ~t_1
   2000006     4.65732972E+03  # ~t_2
   1000011     1.00208109E+04  # ~e_L-
   2000011     1.00089243E+04  # ~e_R-
   1000012     1.00200473E+04  # ~nu_eL
   1000013     1.00208191E+04  # ~mu_L-
   2000013     1.00089368E+04  # ~mu_R-
   1000014     1.00200543E+04  # ~nu_muL
   1000015     1.00124536E+04  # ~tau_1-
   2000015     1.00232137E+04  # ~tau_2-
   1000016     1.00220527E+04  # ~nu_tauL
   1000021     4.67368544E+03  # ~g
   1000022     2.42443697E+01  # ~chi_10
   1000023     4.86886007E+02  # ~chi_20
   1000025     4.91307770E+02  # ~chi_30
   1000035     1.60800723E+03  # ~chi_40
   1000024     4.86428264E+02  # ~chi_1+
   1000037     1.60797142E+03  # ~chi_2+
# Higgs mixing
Block alpha # Effective Higgs mixing angle
          -2.16855420E-02   # alpha
Block Hmix Q=  4.44697276E+03  # Higgs mixing parameters
   1    4.77422479E+02  # mu
   2    4.71203341E+01  # tan[beta](Q)
   3    2.42831566E+02  # v(Q)
   4    6.11104391E+05  # m^2_A(Q)
Block stopmix # stop mixing matrix
   1  1    -9.83869504E-01   # Re[R_st(1,1)]
   1  2     1.78887671E-01   # Re[R_st(1,2)]
   2  1    -1.78887671E-01   # Re[R_st(2,1)]
   2  2    -9.83869504E-01   # Re[R_st(2,2)]
Block sbotmix # sbottom mixing matrix
   1  1     5.33653551E-03   # Re[R_sb(1,1)]
   1  2     9.99985761E-01   # Re[R_sb(1,2)]
   2  1    -9.99985761E-01   # Re[R_sb(2,1)]
   2  2     5.33653551E-03   # Re[R_sb(2,2)]
Block staumix # stau mixing matrix
   1  1     1.91816623E-01   # Re[R_sta(1,1)]
   1  2     9.81430784E-01   # Re[R_sta(1,2)]
   2  1    -9.81430784E-01   # Re[R_sta(2,1)]
   2  2     1.91816623E-01   # Re[R_sta(2,2)]
Block Nmix # neutralino mixing matrix
   1  1     9.95852306E-01   # Re[N(1,1)]
   1  2     7.92743538E-05   # Re[N(1,2)]
   1  3     9.09477025E-02   # Re[N(1,3)]
   1  4     2.58715311E-03   # Re[N(1,4)]
   2  1    -6.25862227E-02   # Re[N(2,1)]
   2  2    -5.14567398E-02   # Re[N(2,2)]
   2  3     7.05378432E-01   # Re[N(2,3)]
   2  4    -7.04184945E-01   # Re[N(2,4)]
   3  1    -6.60208355E-02   # Re[N(3,1)]
   3  2     2.65583344E-02   # Re[N(3,2)]
   3  3     7.02750371E-01   # Re[N(3,3)]
   3  4     7.07868505E-01   # Re[N(3,4)]
   4  1     1.54862366E-03   # Re[N(4,1)]
   4  2    -9.98322018E-01   # Re[N(4,2)]
   4  3    -1.76550099E-02   # Re[N(4,3)]
   4  4     5.51275781E-02   # Re[N(4,4)]
Block Umix # chargino mixing matrix
   1  1    -2.49928036E-02   # Re[U(1,1)]
   1  2     9.99687631E-01   # Re[U(1,2)]
   2  1     9.99687631E-01   # Re[U(2,1)]
   2  2     2.49928036E-02   # Re[U(2,2)]
Block Vmix # chargino mixing matrix
   1  1    -7.80442808E-02   # Re[V(1,1)]
   1  2     9.96949894E-01   # Re[V(1,2)]
   2  1     9.96949894E-01   # Re[V(2,1)]
   2  2     7.80442808E-02   # Re[V(2,2)]
DECAY        23     2.49520000E+00   # Z
DECAY        24     2.08500000E+00   # W
DECAY   2000011     5.02886184E+01   # ~e^-_R
#    BR                NDA      ID1      ID2
     9.91760862E-01    2     1000022        11   # BR(~e^-_R -> chi^0_1 e^-)
     3.89875591E-03    2     1000023        11   # BR(~e^-_R -> chi^0_2 e^-)
     4.33803000E-03    2     1000025        11   # BR(~e^-_R -> chi^0_3 e^-)
DECAY   1000011     1.38193911E+02   # ~e^-_L
#    BR                NDA      ID1      ID2
     9.03592599E-02    2     1000022        11   # BR(~e^-_L -> chi^0_1 e^-)
     2.28926538E-03    2     1000023        11   # BR(~e^-_L -> chi^0_2 e^-)
     3.01425173E-01    2     1000035        11   # BR(~e^-_L -> chi^0_4 e^-)
     3.96851467E-04    2    -1000024        12   # BR(~e^-_L -> chi^-_1 nu_e)
     6.05505332E-01    2    -1000037        12   # BR(~e^-_L -> chi^-_2 nu_e)
#    BR                NDA      ID1      ID2       ID3
DECAY   2000013     5.06140542E+01   # ~mu^-_R
#    BR                NDA      ID1      ID2
     9.85412030E-01    2     1000022        13   # BR(~mu^-_R -> chi^0_1 mu^-)
     5.47300664E-03    2     1000023        13   # BR(~mu^-_R -> chi^0_2 mu^-)
     5.89742473E-03    2     1000025        13   # BR(~mu^-_R -> chi^0_3 mu^-)
     3.21240748E-03    2    -1000024        14   # BR(~mu^-_R -> chi^-_1 nu_mu)
DECAY   1000013     1.38356916E+02   # ~mu^-_L
#    BR                NDA      ID1      ID2
     9.02626609E-02    2     1000022        13   # BR(~mu^-_L -> chi^0_1 mu^-)
     2.87233186E-03    2     1000023        13   # BR(~mu^-_L -> chi^0_2 mu^-)
     6.05446669E-04    2     1000025        13   # BR(~mu^-_L -> chi^0_3 mu^-)
     3.01070674E-01    2     1000035        13   # BR(~mu^-_L -> chi^0_4 mu^-)
     3.96384243E-04    2    -1000024        14   # BR(~mu^-_L -> chi^-_1 nu_mu)
     6.04792503E-01    2    -1000037        14   # BR(~mu^-_L -> chi^-_2 nu_mu)
#    BR                NDA      ID1      ID2       ID3
DECAY   1000015     1.43955713E+02   # ~tau^-_1
#    BR                NDA      ID1      ID2
     3.45385140E-01    2     1000022        15   # BR(~tau^-_1 -> chi^0_1 tau^-)
     1.61999584E-01    2     1000023        15   # BR(~tau^-_1 -> chi^0_2 tau^-)
     1.54270391E-01    2     1000025        15   # BR(~tau^-_1 -> chi^0_3 tau^-)
     8.75569568E-03    2     1000035        15   # BR(~tau^-_1 -> chi^0_4 tau^-)
     3.11998367E-01    2    -1000024        16   # BR(~tau^-_1 -> chi^-_1 nu_tau)
     1.75908224E-02    2    -1000037        16   # BR(~tau^-_1 -> chi^-_2 nu_tau)
DECAY   2000015     1.82731903E+02   # ~tau^-_2
#    BR                NDA      ID1      ID2
     7.34845078E-02    2     1000022        15   # BR(~tau^-_2 -> chi^0_1 tau^-)
     1.26014386E-01    2     1000023        15   # BR(~tau^-_2 -> chi^0_2 tau^-)
     1.28629971E-01    2     1000025        15   # BR(~tau^-_2 -> chi^0_3 tau^-)
     2.21263149E-01    2     1000035        15   # BR(~tau^-_2 -> chi^0_4 tau^-)
     6.28776472E-03    2    -1000024        16   # BR(~tau^-_2 -> chi^-_1 nu_tau)
     4.44320221E-01    2    -1000037        16   # BR(~tau^-_2 -> chi^-_2 nu_tau)
#    BR                NDA      ID1      ID2       ID3
DECAY   1000012     1.38197845E+02   # ~nu_e
#    BR                NDA      ID1      ID2
     9.02959661E-02    2     1000022        12   # BR(~nu_e -> chi^0_1 nu_e)
     1.03161808E-04    2     1000023        12   # BR(~nu_e -> chi^0_2 nu_e)
     1.21409226E-03    2     1000025        12   # BR(~nu_e -> chi^0_3 nu_e)
     3.02391904E-01    2     1000035        12   # BR(~nu_e -> chi^0_4 nu_e)
     3.86934564E-03    2     1000024        11   # BR(~nu_e -> chi^+_1 e^-)
     6.02125531E-01    2     1000037        11   # BR(~nu_e -> chi^+_2 e^-)
#    BR                NDA      ID1      ID2       ID3
DECAY   1000014     1.38360819E+02   # ~nu_mu
#    BR                NDA      ID1      ID2
     9.01896701E-02    2     1000022        14   # BR(~nu_mu -> chi^0_1 nu_mu)
     1.03040367E-04    2     1000023        14   # BR(~nu_mu -> chi^0_2 nu_mu)
     1.21266305E-03    2     1000025        14   # BR(~nu_mu -> chi^0_3 nu_mu)
     3.02035952E-01    2     1000035        14   # BR(~nu_mu -> chi^0_4 nu_mu)
     5.04121379E-03    2     1000024        13   # BR(~nu_mu -> chi^+_1 mu^-)
     6.01417461E-01    2     1000037        13   # BR(~nu_mu -> chi^+_2 mu^-)
#    BR                NDA      ID1      ID2       ID3
DECAY   1000016     1.84306999E+02   # ~nu_tau
#    BR                NDA      ID1      ID2
     6.77196499E-02    2     1000022        16   # BR(~nu_tau -> chi^0_1 nu_tau)
     9.10539691E-04    2     1000025        16   # BR(~nu_tau -> chi^0_3 nu_tau)
     2.26790939E-01    2     1000035        16   # BR(~nu_tau -> chi^0_4 nu_tau)
     2.52763442E-01    2     1000024        15   # BR(~nu_tau -> chi^+_1 tau^-)
     4.51738061E-01    2     1000037        15   # BR(~nu_tau -> chi^+_2 tau^-)
#    BR                NDA      ID1      ID2       ID3
DECAY   2000001     4.96340814E+02   # ~d_R
#    BR                NDA      ID1      ID2
     1.12484163E-02    2     1000022         1   # BR(~d_R -> chi^0_1 d)
     9.88657626E-01    2     1000021         1   # BR(~d_R -> ~g d)
DECAY   1000001     6.21388621E+02   # ~d_L
#    BR                NDA      ID1      ID2
     2.24955989E-03    2     1000022         1   # BR(~d_L -> chi^0_1 d)
     1.15911667E-04    2     1000023         1   # BR(~d_L -> chi^0_2 d)
     1.04712607E-04    2     1000025         1   # BR(~d_L -> chi^0_3 d)
     6.78294372E-02    2     1000035         1   # BR(~d_L -> chi^0_4 d)
     1.35955460E-01    2    -1000037         2   # BR(~d_L -> chi^-_2 u)
     7.93655887E-01    2     1000021         1   # BR(~d_L -> ~g d)
DECAY   2000003     4.96431709E+02   # ~s_R
#    BR                NDA      ID1      ID2
     1.12471181E-02    2     1000022         3   # BR(~s_R -> chi^0_1 s)
     9.88477098E-01    2     1000021         3   # BR(~s_R -> ~g s)
DECAY   1000003     6.21437861E+02   # ~s_L
#    BR                NDA      ID1      ID2
     2.24998954E-03    2     1000022         3   # BR(~s_L -> chi^0_1 s)
     1.52280115E-04    2     1000023         3   # BR(~s_L -> chi^0_2 s)
     1.40808864E-04    2     1000025         3   # BR(~s_L -> chi^0_3 s)
     6.78240961E-02    2     1000035         3   # BR(~s_L -> chi^0_4 s)
     1.35944744E-01    2    -1000037         4   # BR(~s_L -> chi^-_2 c)
     7.93593246E-01    2     1000021         3   # BR(~s_L -> ~g s)
DECAY   1000005     7.25773941E+01   # ~b_1
#    BR                NDA      ID1      ID2
     2.75967291E-02    2     1000022         5   # BR(~b_1 -> chi^0_1 b)
     2.43983213E-01    2     1000023         5   # BR(~b_1 -> chi^0_2 b)
     2.41771261E-01    2     1000025         5   # BR(~b_1 -> chi^0_3 b)
     4.86482345E-01    2    -1000024         6   # BR(~b_1 -> chi^-_1 t)
     1.10422661E-04    2    -1000037         6   # BR(~b_1 -> chi^-_2 t)
DECAY   2000005     1.77733464E+02   # ~b_2
#    BR                NDA      ID1      ID2
     5.66667190E-03    2     1000022         5   # BR(~b_2 -> chi^0_1 b)
     1.43379658E-01    2     1000023         5   # BR(~b_2 -> chi^0_2 b)
     1.42336920E-01    2     1000025         5   # BR(~b_2 -> chi^0_3 b)
     7.73974781E-02    2     1000035         5   # BR(~b_2 -> chi^0_4 b)
     4.71978444E-01    2    -1000024         6   # BR(~b_2 -> chi^-_1 t)
     1.57792247E-01    2    -1000037         6   # BR(~b_2 -> chi^-_2 t)
     4.94436501E-04    2     1000005        23   # BR(~b_2 -> ~b_1 Z)
     9.13668889E-04    2     1000005        25   # BR(~b_2 -> ~b_1 h^0)
DECAY   2000002     5.13560775E+02   # ~u_R
#    BR                NDA      ID1      ID2
     4.34987396E-02    2     1000022         2   # BR(~u_R -> chi^0_1 u)
     1.71010700E-04    2     1000023         2   # BR(~u_R -> chi^0_2 u)
     1.90278982E-04    2     1000025         2   # BR(~u_R -> chi^0_3 u)
     9.56139871E-01    2     1000021         2   # BR(~u_R -> ~g u)
DECAY   1000002     6.21371187E+02   # ~u_L
#    BR                NDA      ID1      ID2
     2.25356722E-03    2     1000022         2   # BR(~u_L -> chi^0_1 u)
     2.79288430E-04    2     1000023         2   # BR(~u_L -> chi^0_2 u)
     6.77537675E-02    2     1000035         2   # BR(~u_L -> chi^0_4 u)
     8.68356926E-04    2     1000024         1   # BR(~u_L -> chi^+_1 d)
     1.35210301E-01    2     1000037         1   # BR(~u_L -> chi^+_2 d)
     7.93619107E-01    2     1000021         2   # BR(~u_L -> ~g u)
DECAY   2000004     5.13568023E+02   # ~c_R
#    BR                NDA      ID1      ID2
     4.34981254E-02    2     1000022         4   # BR(~c_R -> chi^0_1 c)
     1.74509233E-04    2     1000023         4   # BR(~c_R -> chi^0_2 c)
     1.93812287E-04    2     1000025         4   # BR(~c_R -> chi^0_3 c)
     9.56126376E-01    2     1000021         4   # BR(~c_R -> ~g c)
DECAY   1000004     6.21420394E+02   # ~c_L
#    BR                NDA      ID1      ID2
     2.25338906E-03    2     1000022         4   # BR(~c_L -> chi^0_1 c)
     2.82164320E-04    2     1000023         4   # BR(~c_L -> chi^0_2 c)
     6.77484308E-02    2     1000035         4   # BR(~c_L -> chi^0_4 c)
     9.41354366E-04    2     1000024         3   # BR(~c_L -> chi^+_1 s)
     1.35199661E-01    2     1000037         3   # BR(~c_L -> chi^+_2 s)
     7.93556460E-01    2     1000021         4   # BR(~c_L -> ~g c)
DECAY   1000006     1.77434141E+02   # ~t_1
#    BR                NDA      ID1      ID2
     4.99918299E-03    2     1000022         6   # BR(~t_1 -> chi^0_1 t)
     2.35203309E-01    2     1000023         6   # BR(~t_1 -> chi^0_2 t)
     2.34925427E-01    2     1000025         6   # BR(~t_1 -> chi^0_3 t)
     7.91332266E-02    2     1000035         6   # BR(~t_1 -> chi^0_4 t)
     2.85958545E-01    2     1000024         5   # BR(~t_1 -> chi^+_1 b)
     1.55372378E-01    2     1000037         5   # BR(~t_1 -> chi^+_2 b)
     9.35742677E-04    2     1000005        24   # BR(~t_1 -> ~b_1 W^+)
#    BR                NDA      ID1      ID2       ID3
     3.36069592E-03    3     1000022        24         5   # BR(~t_1 -> chi^0_1 W^+ b)
DECAY   2000006     2.18511512E+02   # ~t_2
#    BR                NDA      ID1      ID2
     4.55654095E-02    2     1000022         6   # BR(~t_2 -> chi^0_1 t)
     2.11107160E-01    2     1000023         6   # BR(~t_2 -> chi^0_2 t)
     2.15189067E-01    2     1000025         6   # BR(~t_2 -> chi^0_3 t)
     3.10934204E-04    2     1000035         6   # BR(~t_2 -> chi^0_4 t)
     4.25547957E-01    2     1000024         5   # BR(~t_2 -> chi^+_1 b)
     5.52810085E-04    2     1000037         5   # BR(~t_2 -> chi^+_2 b)
     4.17719073E-02    2     2000005        24   # BR(~t_2 -> ~b_2 W^+)
     1.54424612E-04    2     1000005        37   # BR(~t_2 -> ~b_1 H^+)
     2.17192525E-02    2     1000006        23   # BR(~t_2 -> ~t_1 Z)
     3.80268858E-02    2     1000006        25   # BR(~t_2 -> ~t_1 h^0)
DECAY   1000024     3.22142354E-01   # chi^+_1
#    BR                NDA      ID1      ID2
     9.96260982E-01    2     1000022        24   # BR(chi^+_1 -> chi^0_1 W^+)
#    BR                NDA      ID1      ID2       ID3
     3.71589561E-03    3     1000022        -5         6   # BR(chi^+_1 -> chi^0_1 b_bar t)
DECAY   1000037     2.15570423E+01   # chi^+_2
#    BR                NDA      ID1      ID2
     3.73528786E-04    2     1000022        24   # BR(chi^+_2 -> chi^0_1 W^+)
     1.64066645E-01    2     1000023        24   # BR(chi^+_2 -> chi^0_2 W^+)
     1.64537278E-01    2     1000025        24   # BR(chi^+_2 -> chi^0_3 W^+)
     1.25123273E-03    2          37   1000022   # BR(chi^+_2 -> H^+ chi^0_1)
     8.03098179E-02    2          37   1000023   # BR(chi^+_2 -> H^+ chi^0_2)
     8.40980655E-02    2          37   1000025   # BR(chi^+_2 -> H^+ chi^0_3)
     1.63589593E-01    2     1000024        23   # BR(chi^+_2 -> chi^+_1 Z)
     8.19616606E-02    2     1000024        36   # BR(chi^+_2 -> chi^+_1 A^0)
     1.62980789E-01    2     1000024        25   # BR(chi^+_2 -> chi^+_1 h^0)
     8.14640247E-02    2     1000024        35   # BR(chi^+_2 -> chi^+_1 H^0)
#    BR                NDA      ID1      ID2       ID3
     5.87457131E-03    3     1000024         6        -6   # BR(chi^+_2 -> chi^+_1 t t_bar)
     4.84599306E-03    3     1000023        -5         6   # BR(chi^+_2 -> chi^0_2 b_bar t)
     4.63195343E-03    3     1000025        -5         6   # BR(chi^+_2 -> chi^0_3 b_bar t)
DECAY   1000022     0.00000000E+00   # chi^0_1
DECAY   1000023     3.22175221E-01   # chi^0_2
#    BR                NDA      ID1      ID2
     5.29986491E-01    2     1000022        23   # BR(chi^0_2 -> chi^0_1 Z)
     4.69561746E-01    2     1000022        25   # BR(chi^0_2 -> chi^0_1 h^0)
#    BR                NDA      ID1      ID2       ID3
     2.19527877E-04    3     1000022         6        -6   # BR(chi^0_2 -> chi^0_1 t t_bar)
     2.02732123E-04    3     1000022         5        -5   # BR(chi^0_2 -> chi^0_1 b b_bar)
DECAY   1000025     2.97206087E-01   # chi^0_3
#    BR                NDA      ID1      ID2
     5.22708937E-01    2     1000022        23   # BR(chi^0_3 -> chi^0_1 Z)
     4.76680474E-01    2     1000022        25   # BR(chi^0_3 -> chi^0_1 h^0)
#    BR                NDA      ID1      ID2       ID3
     3.27185153E-04    3     1000022         6        -6   # BR(chi^0_3 -> chi^0_1 t t_bar)
     2.25377229E-04    3     1000022         5        -5   # BR(chi^0_3 -> chi^0_1 b b_bar)
DECAY   1000035     2.34157611E+01   # chi^0_4
#    BR                NDA      ID1      ID2
     1.51751279E-01    2     1000024       -24   # BR(chi^0_4 -> chi^+_1 W^-)
     1.51751279E-01    2    -1000024        24   # BR(chi^0_4 -> chi^-_1 W^+)
     7.37317537E-02    2          37  -1000024   # BR(chi^0_4 -> H^+ chi^-_1)
     7.37317537E-02    2         -37   1000024   # BR(chi^0_4 -> H^- chi^+_1)
     1.84562746E-04    2     1000022        23   # BR(chi^0_4 -> chi^0_1 Z)
     3.16917678E-02    2     1000023        23   # BR(chi^0_4 -> chi^0_2 Z)
     1.19925748E-01    2     1000025        23   # BR(chi^0_4 -> chi^0_3 Z)
     5.52368424E-04    2     1000022        36   # BR(chi^0_4 -> chi^0_1 A^0)
     1.17941650E-02    2     1000023        36   # BR(chi^0_4 -> chi^0_2 A^0)
     1.05762170E-02    2     1000025        36   # BR(chi^0_4 -> chi^0_3 A^0)
     1.39691456E-04    2     1000022        25   # BR(chi^0_4 -> chi^0_1 h^0)
     1.18622995E-01    2     1000023        25   # BR(chi^0_4 -> chi^0_2 h^0)
     1.09404507E-01    2     1000025        25   # BR(chi^0_4 -> chi^0_3 h^0)
     6.18169009E-04    2     1000022        35   # BR(chi^0_4 -> chi^0_1 H^0)
     6.33216291E-02    2     1000023        35   # BR(chi^0_4 -> chi^0_2 H^0)
     6.87919028E-02    2     1000025        35   # BR(chi^0_4 -> chi^0_3 H^0)
#    BR                NDA      ID1      ID2       ID3
     2.39306840E-03    3     1000023         6        -6   # BR(chi^0_4 -> chi^0_2 t t_bar)
     2.24482269E-03    3     1000025         6        -6   # BR(chi^0_4 -> chi^0_3 t t_bar)
     4.37898636E-03    3     1000024         5        -6   # BR(chi^0_4 -> chi^+_1 b t_bar)
     4.37898636E-03    3    -1000024        -5         6   # BR(chi^0_4 -> chi^-_1 b_bar t)
DECAY   1000021     5.53676738E+01   # ~g
#    BR                NDA      ID1      ID2
     3.73002988E-04    2     1000006        -4   # BR(~g -> ~t_1 c_bar)
     3.73002988E-04    2    -1000006         4   # BR(~g -> ~t^*_1 c)
     4.02892390E-02    2     1000006        -6   # BR(~g -> ~t_1 t_bar)
     4.02892390E-02    2    -1000006         6   # BR(~g -> ~t^*_1 t)
     4.16823727E-01    2     1000005        -5   # BR(~g -> ~b_1 b_bar)
     4.16823727E-01    2    -1000005         5   # BR(~g -> ~b^*_1 b)
     3.60688848E-02    2     2000005        -5   # BR(~g -> ~b_2 b_bar)
     3.60688848E-02    2    -2000005         5   # BR(~g -> ~b^*_2 b)
     1.01101544E-04    2     1000023        21   # BR(~g -> chi^0_2 g)
     1.19740504E-04    2     1000025        21   # BR(~g -> chi^0_3 g)
#    BR                NDA      ID1      ID2       ID3
     6.50846661E-04    3     1000022         6        -6   # BR(~g -> chi^0_1 t t_bar)
     2.93686756E-03    3     1000023         6        -6   # BR(~g -> chi^0_2 t t_bar)
     2.99810578E-03    3     1000025         6        -6   # BR(~g -> chi^0_3 t t_bar)
     2.96090575E-03    3     1000024         5        -6   # BR(~g -> chi^+_1 b t_bar)
     2.96090575E-03    3    -1000024        -5         6   # BR(~g -> chi^-_1 b_bar t)
DECAY        25     4.09155543E-03   # Gamma(h0)
     2.24164270E-03   2        22        22   # BR(h0 -> photon photon)
     1.45057729E-03   2        22        23   # BR(h0 -> photon Z)
     2.70221497E-02   2        23        23   # BR(h0 -> Z Z)
     2.22165745E-01   2       -24        24   # BR(h0 -> W W)
     6.89265932E-02   2        21        21   # BR(h0 -> gluon gluon)
     5.26019189E-09   2       -11        11   # BR(h0 -> Electron electron)
     2.33982875E-04   2       -13        13   # BR(h0 -> Muon muon)
     6.74651225E-02   2       -15        15   # BR(h0 -> Tau tau)
     1.37623787E-07   2        -2         2   # BR(h0 -> Up up)
     2.67065796E-02   2        -4         4   # BR(h0 -> Charm charm)
     6.08100385E-07   2        -1         1   # BR(h0 -> Down down)
     2.19936459E-04   2        -3         3   # BR(h0 -> Strange strange)
     5.83537147E-01   2        -5         5   # BR(h0 -> Bottom bottom)
     2.97732654E-05   2   1000022   1000022   # BR(h0 -> neutralino1 neutralino1)
DECAY        35     2.54384505E+01   # Gamma(HH)
     7.32080163E-08   2        22        22   # BR(HH -> photon photon)
     4.36294703E-08   2        22        23   # BR(HH -> photon Z)
     2.87336571E-06   2        23        23   # BR(HH -> Z Z)
     4.89452531E-06   2       -24        24   # BR(HH -> W W)
     7.60078226E-05   2        21        21   # BR(HH -> gluon gluon)
     1.15234361E-08   2       -11        11   # BR(HH -> Electron electron)
     5.12866276E-04   2       -13        13   # BR(HH -> Muon muon)
     1.48087688E-01   2       -15        15   # BR(HH -> Tau tau)
     3.80559384E-14   2        -2         2   # BR(HH -> Up up)
     7.37966919E-09   2        -4         4   # BR(HH -> Charm charm)
     4.03488132E-04   2        -6         6   # BR(HH -> Top top)
     9.82831632E-07   2        -1         1   # BR(HH -> Down down)
     3.55481383E-04   2        -3         3   # BR(HH -> Strange strange)
     8.36298796E-01   2        -5         5   # BR(HH -> Bottom bottom)
     5.75666627E-04   2   1000022   1000022   # BR(HH -> neutralino1 neutralino1)
     7.19221081E-03   2   1000022   1000023   # BR(HH -> neutralino1 neutralino2)
     6.45635022E-03   2   1000022   1000025   # BR(HH -> neutralino1 neutralino3)
     3.25580705E-05   2        25        25   # BR(HH -> h0 h0)
DECAY        36     2.47609605E+01   # Gamma(A0)
     5.75028311E-08   2        22        22   # BR(A0 -> photon photon)
     1.44812495E-08   2        22        23   # BR(A0 -> photon Z)
     1.00555362E-04   2        21        21   # BR(A0 -> gluon gluon)
     1.15179602E-08   2       -11        11   # BR(A0 -> Electron electron)
     5.12622490E-04   2       -13        13   # BR(A0 -> Muon muon)
     1.48020471E-01   2       -15        15   # BR(A0 -> Tau tau)
     3.49633480E-14   2        -2         2   # BR(A0 -> Up up)
     6.77981679E-09   2        -4         4   # BR(A0 -> Charm charm)
     4.65969817E-04   2        -6         6   # BR(A0 -> Top top)
     9.82368643E-07   2        -1         1   # BR(A0 -> Down down)
     3.55313837E-04   2        -3         3   # BR(A0 -> Strange strange)
     8.35942836E-01   2        -5         5   # BR(A0 -> Bottom bottom)
     5.92186953E-04   2   1000022   1000022   # BR(A0 -> neutralino1 neutralino1)
     7.13037220E-03   2   1000022   1000023   # BR(A0 -> neutralino1 neutralino2)
     6.87395152E-03   2   1000022   1000025   # BR(A0 -> neutralino1 neutralino3)
     4.64873159E-06   2        23        25   # BR(A0 -> Z h0)
     2.89315719E-36   2        25        25   # BR(A0 -> h0 h0)
DECAY        37     2.27391421E+01   # Gamma(Hp)
     1.33451238E-08   2       -11        12   # BR(Hp -> Electron nu_e)
     5.70545702E-04   2       -13        14   # BR(Hp -> Muon nu_mu)
     1.61381263E-01   2       -15        16   # BR(Hp -> Tau nu_tau)
     9.98518993E-07   2        -1         2   # BR(Hp -> Down up)
     1.65674363E-05   2        -3         2   # BR(Hp -> Strange up)
     9.34398640E-06   2        -5         2   # BR(Hp -> Bottom up)
     4.62520029E-08   2        -1         4   # BR(Hp -> Down charm)
     3.59843032E-04   2        -3         4   # BR(Hp -> Strange charm)
     1.30848616E-03   2        -5         4   # BR(Hp -> Bottom charm)
     4.12998348E-08   2        -1         6   # BR(Hp -> Down top)
     1.37844184E-06   2        -3         6   # BR(Hp -> Strange top)
     8.19670069E-01   2        -5         6   # BR(Hp -> Bottom top)
     1.66760521E-02   2   1000022   1000024   # BR(Hp -> neutralino1 chargino1)
     5.33682319E-06   2        24        25   # BR(Hp -> W h0)
     7.31204964E-09   2        24        35   # BR(Hp -> W HH)
     7.38475146E-09   2        24        36   # BR(Hp -> W A0)
DECAY         6     2.43000000E+00   # top
#    BR                NDA      ID1      ID2
     1.00000000E+00    2           5        24   # BR(t -> b W)
Block HiggsBoundsInputHiggsCouplingsFermions
# ScalarNormEffCoupSq PseudoSNormEffCoupSq NP IP1 IP2 IP2
    1.04444304E+00    0.00000000E+00        3  25   5   5  # h0-b-b eff. coupling^2, normalised to SM
    2.22028144E+03    0.00000000E+00        3  35   5   5  # H0-b-b eff. coupling^2, normalised to SM
    0.00000000E+00    2.22032589E+03        3  36   5   5  # A0-b-b eff. coupling^2, normalised to SM
#
    9.99979984E-01    0.00000000E+00        3  25   6   6  # h0-t-t eff. coupling^2, normalised to SM
    4.70400787E-04    0.00000000E+00        3  35   6   6  # H0-t-t eff. coupling^2, normalised to SM
    0.00000000E+00    4.50384336E-04        3  36   6   6  # A0-t-t eff. coupling^2, normalised to SM
#
    1.04444304E+00    0.00000000E+00        3  25  15  15  # h0-tau-tau eff. coupling^2, normalised to SM
    2.22028144E+03    0.00000000E+00        3  35  15  15  # H0-tau-tau eff. coupling^2, normalised to SM
    0.00000000E+00    2.22032589E+03        3  36  15  15  # A0-tau-tau eff. coupling^2, normalised to SM
#
Block HiggsBoundsInputHiggsCouplingsBosons
    9.99999782E-01        3  25  24  24  # h0-W-W eff. coupling^2, normalised to SM
    2.17591265E-07        3  35  24  24  # H0-W-W eff. coupling^2, normalised to SM
    0.00000000E+00        3  36  24  24  # A0-W-W eff. coupling^2, normalised to SM
#
    9.99999782E-01        3  25  23  23  # h0-Z-Z eff. coupling^2, normalised to SM
    2.17591265E-07        3  35  23  23  # H0-Z-Z eff. coupling^2, normalised to SM
    0.00000000E+00        3  36  23  23  # A0-Z-Z eff. coupling^2, normalised to SM
#
    1.26369298E+00        3  25  21  21  # h0-g-g eff. coupling^2, normalised to SM
    4.00250474E-02        3  35  21  21  # H0-g-g eff. coupling^2, normalised to SM
    1.89785484E-01        3  36  21  21  # A0-g-g eff. coupling^2, normalised to SM
#
    0.00000000E+00        3  25  25  23  # h0-h0-Z eff. coupling^2, normalised to SM
    0.00000000E+00        3  35  25  23  # H0-h0-Z eff. coupling^2, normalised to SM
    2.17591265E-07        3  36  25  23  # A0-h0-Z eff. coupling^2, normalised to SM
    0.00000000E+00        3  35  35  23  # H0-H0-Z eff. coupling^2, normalised to SM
    9.99999782E-01        3  36  35  23  # A0-H0-Z eff. coupling^2, normalised to SM
    0.00000000E+00        3  36  36  23  # A0-A0-Z eff. coupling^2, normalised to SM
#
    0.00000000E+00        4  25  21  21  23  # h0-g-g-Z eff. coupling^2, normalised to SM
    0.00000000E+00        4  35  21  21  23  # H0-g-g-Z eff. coupling^2, normalised to SM
    0.00000000E+00        4  36  21  21  23  # A0-g-g-Z eff. coupling^2, normalised to SM
Block SPhenoLowEnergy  # low energy observables
    1    3.73135196E-04   # BR(b -> s gamma)
    2    1.58728091E-06   # BR(b -> s mu+ mu-)
    3    3.52548087E-05   # BR(b -> s nu nu)
    4    2.21222324E-15   # BR(Bd -> e+ e-)
    5    9.45033859E-11   # BR(Bd -> mu+ mu-)
    6    1.97677432E-08   # BR(Bd -> tau+ tau-)
    7    7.29103950E-14   # BR(Bs -> e+ e-)
    8    3.11471458E-09   # BR(Bs -> mu+ mu-)
    9    6.59791594E-07   # BR(Bs -> tau+ tau-)
   10    7.63452473E-05   # BR(B_u -> tau nu)
   11    7.88617177E-01   # BR(B_u -> tau nu)/BR(B_u -> tau nu)_SM
   12    5.41742606E-01   # |Delta(M_Bd)| [ps^-1] 
   13    1.92584121E+01   # |Delta(M_Bs)| [ps^-1] 
   14    0.00000000E+00   # neutron EDM according to the chiral quark model
   15    0.00000000E+00   # neutron EDM according to the relativistic quark-parton model
   16    2.15703158E-03   # epsilon_K
   17    2.28168079E-15   # Delta(M_K)
   18    2.48013635E-11   # BR(K^0 -> pi^0 nu nu)
   19    8.29080082E-11   # BR(K^+ -> pi^+ nu nu)
   20    4.42708008E-16   # Delta(g-2)_electron/2
   21    1.89272194E-11   # Delta(g-2)_muon/2
   22    5.35793075E-09   # Delta(g-2)_tau/2
   23    0.00000000E+00   # electric dipole moment of the electron
   24    0.00000000E+00   # electric dipole moment of the muon
   25    0.00000000E+00   # electric dipole moment of the tau
   26    0.00000000E+00   # Br(mu -> e gamma)
   27    0.00000000E+00   # Br(tau -> e gamma)
   28    0.00000000E+00   # Br(tau -> mu gamma)
   29    0.00000000E+00   # Br(mu -> 3 e)
   30    0.00000000E+00   # Br(tau -> 3 e)
   31    0.00000000E+00   # Br(tau -> 3 mu)
   39    7.16404861E-05   # Delta(rho_parameter)
   40    0.00000000E+00   # BR(Z -> e mu)
   41    0.00000000E+00   # BR(Z -> e tau)
   42    0.00000000E+00   # BR(Z -> mu tau)
Block FWCOEF Q=  1.60000000E+02  # Wilson coefficients at scale Q
#    id        order  M        value         comment
     0305 4422   00   0    -1.88819110E-01   # C7
     0305 4422   00   2    -2.41622519E-01   # C7
     0305 4322   00   2    -1.00507883E-03   # C7'
     0305 6421   00   0    -9.52278348E-02   # C8
     0305 6421   00   2    -1.53052403E-01   # C8
     0305 6321   00   2    -1.13693188E-03   # C8'
 03051111 4133   00   0     1.63113340E+00   # C9 e+e-
 03051111 4133   00   2     1.63131701E+00   # C9 e+e-
 03051111 4233   00   2     1.47664037E-04   # C9' e+e-
 03051111 4137   00   0    -4.45382550E+00   # C10 e+e-
 03051111 4137   00   2    -4.45240792E+00   # C10 e+e-
 03051111 4237   00   2    -1.08437663E-03   # C10' e+e-
 03051313 4133   00   0     1.63113340E+00   # C9 mu+mu-
 03051313 4133   00   2     1.63131685E+00   # C9 mu+mu-
 03051313 4233   00   2     1.47602836E-04   # C9' mu+mu-
 03051313 4137   00   0    -4.45382550E+00   # C10 mu+mu-
 03051313 4137   00   2    -4.45240809E+00   # C10 mu+mu-
 03051313 4237   00   2    -1.08431615E-03   # C10' mu+mu-
 03051212 4137   00   0     1.50535012E+00   # C11 nu_1 nu_1
 03051212 4137   00   2     1.50504505E+00   # C11 nu_1 nu_1
 03051212 4237   00   2     2.34248159E-04   # C11' nu_1 nu_1
 03051414 4137   00   0     1.50535012E+00   # C11 nu_2 nu_2
 03051414 4137   00   2     1.50504505E+00   # C11 nu_2 nu_2
 03051414 4237   00   2     2.34261344E-04   # C11' nu_2 nu_2
 03051616 4137   00   0     1.50535012E+00   # C11 nu_3 nu_3
 03051616 4137   00   2     1.50504505E+00   # C11 nu_3 nu_3
 03051616 4237   00   2     2.37977024E-04   # C11' nu_3 nu_3
Block IMFWCOEF Q=  1.60000000E+02  # Im(Wilson coefficients) at scale Q
#    id        order  M        value         comment
     0305 4422   00   0     3.85798668E-07   # C7
     0305 4422   00   2     1.17824538E-05   # C7
     0305 4322   00   2    -4.65544799E-07   # C7'
     0305 6421   00   0     3.30462074E-07   # C8
     0305 6421   00   2    -6.03095615E-06   # C8
     0305 6321   00   2    -3.81815871E-07   # C8'
 03051111 4133   00   2     1.49356667E-07   # C9 e+e-
 03051111 4233   00   2     1.00650656E-05   # C9' e+e-
 03051111 4137   00   2     6.57603006E-07   # C10 e+e-
 03051111 4237   00   2    -7.40180826E-05   # C10' e+e-
 03051313 4133   00   2     1.49353263E-07   # C9 mu+mu-
 03051313 4233   00   2     1.00650622E-05   # C9' mu+mu-
 03051313 4137   00   2     6.57606893E-07   # C10 mu+mu-
 03051313 4237   00   2    -7.40180926E-05   # C10' mu+mu-
 03051212 4137   00   2    -1.21347107E-07   # C11 nu_1 nu_1
 03051212 4237   00   2     1.59895081E-05   # C11' nu_1 nu_1
 03051414 4137   00   2    -1.21346951E-07   # C11 nu_2 nu_2
 03051414 4237   00   2     1.59895081E-05   # C11' nu_2 nu_2
 03051616 4137   00   2    -1.21303963E-07   # C11 nu_3 nu_3
 03051616 4237   00   2     1.59895081E-05   # C11' nu_3 nu_3
