# SUSY Les Houches Accord 2 - MSSM spectrum + Decays
# SPheno v4.0.5be
# W. Porod, Comput. Phys. Commun. 153 (2003) 275-315, hep-ph/0301101;
# W. Porod, F.~Staub, Comput. Phys. Commun. 183 (2012) 2458
#                     arXiv:1104.1573 [hep-ph] 
# in case of problems send email to porod@physik.uni-wuerzburg.de
# Created: 07.09.2021,  17:37
Block SPINFO         # Program information
     1   SPheno      # spectrum calculator
     2   v4.0.5be    # version number
#
Block SPhenoINFO     # SPheno specific information
    1      2         # using 2-loop RGEs
    2      2         # using pole masses for boundary conditions at mZ
Block MODSEL  # Model selection
    1    0    # general MSSM
Block MINPAR  # Input parameters
    3    9.17882628E+00  # tanb at m_Z    
    4   -1.00000000E+00  # Sign(mu)
Block EXTPAR  # non-universal input parameters
    0    3.38192231E+03  # scale for input parameters
    1    2.10419329E+02  # M_1
    2    8.09824907E+02  # M_2
    3    2.04836829E+03  # M_3
   11   -6.07448364E+03  # A_t
   12    1.07698616E+03  # A_b
   13   -8.33621519E+02  # A_tau
   23   -2.07386639E+02  # mu
   25    8.74270366E+00  # tan(beta)
   26    4.42476877E+03  # m_A, pole mass
   31    1.00000000E+04  # M_L11
   32    1.00000000E+04  # M_L22
   33    1.00000000E+04  # M_L33
   34    1.00000000E+04  # M_E11
   35    1.00000000E+04  # M_E22
   36    1.00000000E+04  # M_E33
   41    1.00000000E+04  # M_Q11
   42    1.00000000E+04  # M_Q22
   43    4.30965088E+03  # M_Q33
   44    1.00000000E+04  # M_U11
   45    1.00000000E+04  # M_U22
   46    2.66196927E+03  # M_U33
   47    1.00000000E+04  # M_D11
   48    1.00000000E+04  # M_D22
   49    3.73313283E+03  # M_D33
Block SMINPUTS  # SM parameters
         1     1.27908970E+02  # alpha_em^-1(MZ)^MSbar
         2     1.16637870E-05  # G_mu [GeV^-2]
         3     1.18400000E-01  # alpha_s(MZ)^MSbar
         4     9.11876000E+01  # m_Z(pole)
         5     4.18000000E+00  # m_b(m_b), MSbar
         6     1.73200000E+02  # m_t(pole)
         7     1.77700000E+00  # m_tau(pole)
         8     0.00000000E+00  # m_nu_3
        11     5.10998930E-04  # m_e(pole)
        12     0.00000000E+00  # m_nu_1
        13     1.05658372E-01  # m_muon(pole)
        14     0.00000000E+00  # m_nu_2
        21     5.00000000E-03  # m_d(2 GeV), MSbar
        22     2.50000000E-03  # m_u(2 GeV), MSbar
        23     9.50000000E-02  # m_s(2 GeV), MSbar
        24     1.27000000E+00  # m_c(m_c), MSbar
Block gauge Q=  3.38192231E+03  # (SUSY scale)
   1    3.55362975E-01  # g'(Q)^DRbar
   2    6.65198874E-01  # g(Q)^DRbar
   3    1.21977796E+00  # g3(Q)^DRbar
Block Yu Q=  3.38192231E+03  # (SUSY scale)
  1  1     8.43904042E-06   # Y_u(Q)^DRbar
  2  2     4.28703253E-03   # Y_c(Q)^DRbar
  3  3     1.01950387E+00   # Y_t(Q)^DRbar
Block Yd Q=  3.38192231E+03  # (SUSY scale)
  1  1     1.48258319E-04   # Y_d(Q)^DRbar
  2  2     2.81690807E-03   # Y_s(Q)^DRbar
  3  3     1.47025795E-01   # Y_b(Q)^DRbar
Block Ye Q=  3.38192231E+03  # (SUSY scale)
  1  1     2.58721609E-05   # Y_e(Q)^DRbar
  2  2     5.34954231E-03   # Y_mu(Q)^DRbar
  3  3     8.99705012E-02   # Y_tau(Q)^DRbar
Block Au Q=  3.38192231E+03  # (SUSY scale)
  1  1     0.00000000E+00   # A_u(Q)^DRbar
  2  2     0.00000000E+00   # A_c(Q)^DRbar
  3  3    -6.07448913E+03   # A_t(Q)^DRbar
Block Ad Q=  3.38192231E+03  # (SUSY scale)
  1  1     0.00000000E+00   # A_d(Q)^DRbar
  2  2     0.00000000E+00   # A_s(Q)^DRbar
  3  3     1.07698577E+03   # A_b(Q)^DRbar
Block Ae Q=  3.38192231E+03  # (SUSY scale)
  1  1     0.00000000E+00   # A_e(Q)^DRbar
  2  2     0.00000000E+00   # A_mu(Q)^DRbar
  3  3    -8.33621195E+02   # A_tau(Q)^DRbar
Block MSOFT Q=  3.38192231E+03  # soft SUSY breaking masses at Q
   1    2.10419329E+02  # M_1
   2    8.09824907E+02  # M_2
   3    2.04836829E+03  # M_3
  21    1.92331585E+07  # M^2_(H,d)
  22    3.91216285E+05  # M^2_(H,u)
  31    1.00000000E+04  # M_(L,11)
  32    1.00000000E+04  # M_(L,22)
  33    1.00000000E+04  # M_(L,33)
  34    1.00000000E+04  # M_(E,11)
  35    1.00000000E+04  # M_(E,22)
  36    1.00000000E+04  # M_(E,33)
  41    1.00000000E+04  # M_(Q,11)
  42    1.00000000E+04  # M_(Q,22)
  43    4.30965088E+03  # M_(Q,33)
  44    1.00000000E+04  # M_(U,11)
  45    1.00000000E+04  # M_(U,22)
  46    2.66196927E+03  # M_(U,33)
  47    1.00000000E+04  # M_(D,11)
  48    1.00000000E+04  # M_(D,22)
  49    3.73313283E+03  # M_(D,33)
Block MASS  # Mass spectrum
#   PDG code      mass          particle
         6     1.73200000E+02  # m_t(pole)
        23     9.11876000E+01  # m_Z(pole)
        24     8.04299946E+01  # W+
        15     1.77700000E+00  # m_tau(pole)
        25     1.26660388E+02  # h0
        35     4.42436314E+03  # H0
        36     4.42476877E+03  # A0
        37     4.42495398E+03  # H+
   1000001     1.01155403E+04  # ~d_L
   2000001     1.00907358E+04  # ~d_R
   1000002     1.01151878E+04  # ~u_L
   2000002     1.00939066E+04  # ~u_R
   1000003     1.01155411E+04  # ~s_L
   2000003     1.00907362E+04  # ~s_R
   1000004     1.01151886E+04  # ~c_L
   2000004     1.00939077E+04  # ~c_R
   1000005     3.79361927E+03  # ~b_1
   2000005     4.31207938E+03  # ~b_2
   1000006     2.64682876E+03  # ~t_1
   2000006     4.32117056E+03  # ~t_2
   1000011     1.00210839E+04  # ~e_L-
   2000011     1.00089358E+04  # ~e_R-
   1000012     1.00203275E+04  # ~nu_eL
   1000013     1.00210851E+04  # ~mu_L-
   2000013     1.00089380E+04  # ~mu_R-
   1000014     1.00203287E+04  # ~nu_muL
   1000015     1.00095708E+04  # ~tau_1-
   2000015     1.00214104E+04  # ~tau_2-
   1000016     1.00206528E+04  # ~nu_tauL
   1000021     2.46346277E+03  # ~g
   1000022     1.89173167E+02  # ~chi_10
   1000023     2.28538010E+02  # ~chi_20
   1000025     2.44330756E+02  # ~chi_30
   1000035     8.86306575E+02  # ~chi_40
   1000024     2.22062430E+02  # ~chi_1+
   1000037     8.86047840E+02  # ~chi_2+
# Higgs mixing
Block alpha # Effective Higgs mixing angle
          -1.08644177E-01   # alpha
Block Hmix Q=  3.38192231E+03  # Higgs mixing parameters
   1   -2.07386639E+02  # mu
   2    8.74270366E+00  # tan[beta](Q)
   3    2.43091484E+02  # v(Q)
   4    1.95785787E+07  # m^2_A(Q)
Block stopmix # stop mixing matrix
   1  1     7.39587147E-02   # Re[R_st(1,1)]
   1  2     9.97261304E-01   # Re[R_st(1,2)]
   2  1    -9.97261304E-01   # Re[R_st(2,1)]
   2  2     7.39587147E-02   # Re[R_st(2,2)]
Block sbotmix # sbottom mixing matrix
   1  1    -1.33815859E-03   # Re[R_sb(1,1)]
   1  2     9.99999105E-01   # Re[R_sb(1,2)]
   2  1    -9.99999105E-01   # Re[R_sb(2,1)]
   2  2    -1.33815859E-03   # Re[R_sb(2,2)]
Block staumix # stau mixing matrix
   1  1    -7.11499805E-03   # Re[R_sta(1,1)]
   1  2     9.99974688E-01   # Re[R_sta(1,2)]
   2  1    -9.99974688E-01   # Re[R_sta(2,1)]
   2  2    -7.11499805E-03   # Re[R_sta(2,2)]
Block Nmix # neutralino mixing matrix
   1  1    -7.23199322E-01   # Re[N(1,1)]
   1  2     4.33099733E-02   # Re[N(1,2)]
   1  3     5.33239896E-01   # Re[N(1,3)]
   1  4     4.36763323E-01   # Re[N(1,4)]
   2  1     7.96874259E-02   # Re[N(2,1)]
   2  2    -5.73754040E-02   # Re[N(2,2)]
   2  3     6.95633326E-01   # Re[N(2,3)]
   2  4    -7.11654588E-01   # Re[N(2,4)]
   3  1    -6.85998638E-01   # Re[N(3,1)]
   3  2    -6.13307512E-02   # Re[N(3,2)]
   3  3    -4.81234690E-01   # Re[N(3,3)]
   3  4    -5.42270763E-01   # Re[N(3,4)]
   4  1     6.20674280E-03   # Re[N(4,1)]
   4  2    -9.95525413E-01   # Re[N(4,2)]
   4  3     1.27539161E-02   # Re[N(4,3)]
   4  4     9.34235826E-02   # Re[N(4,4)]
Block Umix # chargino mixing matrix
   1  1    -1.82090857E-02   # Re[U(1,1)]
   1  2    -9.99834201E-01   # Re[U(1,2)]
   2  1     9.99834201E-01   # Re[U(2,1)]
   2  2    -1.82090857E-02   # Re[U(2,2)]
Block Vmix # chargino mixing matrix
   1  1    -1.32283589E-01   # Re[V(1,1)]
   1  2     9.91211911E-01   # Re[V(1,2)]
   2  1     9.91211911E-01   # Re[V(2,1)]
   2  2     1.32283589E-01   # Re[V(2,2)]
DECAY        23     2.49520000E+00   # Z
DECAY        24     2.08500000E+00   # W
DECAY   2000011     5.02438963E+01   # ~e^-_R
#    BR                NDA      ID1      ID2
     5.23136197E-01    2     1000022        11   # BR(~e^-_R -> chi^0_1 e^-)
     6.34944555E-03    2     1000023        11   # BR(~e^-_R -> chi^0_2 e^-)
     4.70476397E-01    2     1000025        11   # BR(~e^-_R -> chi^0_3 e^-)
DECAY   1000011     1.42848731E+02   # ~e^-_L
#    BR                NDA      ID1      ID2
     3.63091808E-02    2     1000022        11   # BR(~e^-_L -> chi^0_1 e^-)
     5.64439601E-02    2     1000025        11   # BR(~e^-_L -> chi^0_3 e^-)
     2.99245217E-01    2     1000035        11   # BR(~e^-_L -> chi^0_4 e^-)
     2.04560194E-04    2    -1000024        12   # BR(~e^-_L -> chi^-_1 nu_e)
     6.07729475E-01    2    -1000037        12   # BR(~e^-_L -> chi^-_2 nu_e)
#    BR                NDA      ID1      ID2       ID3
DECAY   2000013     5.02552926E+01   # ~mu^-_R
#    BR                NDA      ID1      ID2
     5.23049903E-01    2     1000022        13   # BR(~mu^-_R -> chi^0_1 mu^-)
     6.40281747E-03    2     1000023        13   # BR(~mu^-_R -> chi^0_2 mu^-)
     4.70396036E-01    2     1000025        13   # BR(~mu^-_R -> chi^0_3 mu^-)
     1.13239492E-04    2    -1000024        14   # BR(~mu^-_R -> chi^-_1 nu_mu)
DECAY   1000013     1.42854448E+02   # ~mu^-_L
#    BR                NDA      ID1      ID2
     3.63190792E-02    2     1000022        13   # BR(~mu^-_L -> chi^0_1 mu^-)
     5.64509466E-02    2     1000025        13   # BR(~mu^-_L -> chi^0_3 mu^-)
     2.99233284E-01    2     1000035        13   # BR(~mu^-_L -> chi^0_4 mu^-)
     2.04552031E-04    2    -1000024        14   # BR(~mu^-_L -> chi^-_1 nu_mu)
     6.07705228E-01    2    -1000037        14   # BR(~mu^-_L -> chi^-_2 nu_mu)
#    BR                NDA      ID1      ID2       ID3
DECAY   1000015     5.34724221E+01   # ~tau^-_1
#    BR                NDA      ID1      ID2
     5.00641558E-01    2     1000022        15   # BR(~tau^-_1 -> chi^0_1 tau^-)
     2.03824209E-02    2     1000023        15   # BR(~tau^-_1 -> chi^0_2 tau^-)
     4.48726550E-01    2     1000025        15   # BR(~tau^-_1 -> chi^0_3 tau^-)
     3.01615866E-02    2    -1000024        16   # BR(~tau^-_1 -> chi^-_1 nu_tau)
DECAY   2000015     1.44461085E+02   # ~tau^-_2
#    BR                NDA      ID1      ID2
     3.88963658E-02    2     1000022        15   # BR(~tau^-_2 -> chi^0_1 tau^-)
     5.52496609E-03    2     1000023        15   # BR(~tau^-_2 -> chi^0_2 tau^-)
     5.85274597E-02    2     1000025        15   # BR(~tau^-_2 -> chi^0_3 tau^-)
     2.95912402E-01    2     1000035        15   # BR(~tau^-_2 -> chi^0_4 tau^-)
     1.81461398E-04    2    -1000024        16   # BR(~tau^-_2 -> chi^-_1 nu_tau)
     6.00957345E-01    2    -1000037        16   # BR(~tau^-_2 -> chi^-_2 nu_tau)
#    BR                NDA      ID1      ID2       ID3
DECAY   1000012     1.42852825E+02   # ~nu_e
#    BR                NDA      ID1      ID2
     5.69550694E-02    2     1000022        12   # BR(~nu_e -> chi^0_1 nu_e)
     3.08088699E-03    2     1000023        12   # BR(~nu_e -> chi^0_2 nu_e)
     2.87136904E-02    2     1000025        12   # BR(~nu_e -> chi^0_3 nu_e)
     3.03226357E-01    2     1000035        12   # BR(~nu_e -> chi^0_4 nu_e)
     1.07947237E-02    2     1000024        11   # BR(~nu_e -> chi^+_1 e^-)
     5.97229272E-01    2     1000037        11   # BR(~nu_e -> chi^+_2 e^-)
#    BR                NDA      ID1      ID2       ID3
DECAY   1000014     1.42858542E+02   # ~nu_mu
#    BR                NDA      ID1      ID2
     5.69527971E-02    2     1000022        14   # BR(~nu_mu -> chi^0_1 nu_mu)
     3.08076407E-03    2     1000023        14   # BR(~nu_mu -> chi^0_2 nu_mu)
     2.87125449E-02    2     1000025        14   # BR(~nu_mu -> chi^0_3 nu_mu)
     3.03214261E-01    2     1000035        14   # BR(~nu_mu -> chi^0_4 nu_mu)
     1.08341739E-02    2     1000024        13   # BR(~nu_mu -> chi^+_1 mu^-)
     5.97205460E-01    2     1000037        13   # BR(~nu_mu -> chi^+_2 mu^-)
#    BR                NDA      ID1      ID2       ID3
DECAY   1000016     1.44469722E+02   # ~nu_tau
#    BR                NDA      ID1      ID2
     5.63194625E-02    2     1000022        16   # BR(~nu_tau -> chi^0_1 nu_tau)
     3.04650498E-03    2     1000023        16   # BR(~nu_tau -> chi^0_2 nu_tau)
     2.83932524E-02    2     1000025        16   # BR(~nu_tau -> chi^0_3 nu_tau)
     2.99842706E-01    2     1000035        16   # BR(~nu_tau -> chi^0_4 nu_tau)
     2.18296664E-02    2     1000024        15   # BR(~nu_tau -> chi^+_1 tau^-)
     5.90568408E-01    2     1000037        15   # BR(~nu_tau -> chi^+_2 tau^-)
#    BR                NDA      ID1      ID2       ID3
DECAY   2000001     7.10010797E+02   # ~d_R
#    BR                NDA      ID1      ID2
     4.14696860E-03    2     1000022         1   # BR(~d_R -> chi^0_1 d)
     3.72955614E-03    2     1000025         1   # BR(~d_R -> chi^0_3 d)
     9.92072832E-01    2     1000021         1   # BR(~d_R -> ~g d)
DECAY   1000001     8.39497115E+02   # ~d_L
#    BR                NDA      ID1      ID2
     1.56961896E-03    2     1000022         1   # BR(~d_L -> chi^0_1 d)
     2.71357982E-04    2     1000023         1   # BR(~d_L -> chi^0_2 d)
     1.96005486E-04    2     1000025         1   # BR(~d_L -> chi^0_3 d)
     5.18737535E-02    2     1000035         1   # BR(~d_L -> chi^0_4 d)
     1.04416486E-01    2    -1000037         2   # BR(~d_L -> chi^-_2 u)
     8.41637641E-01    2     1000021         1   # BR(~d_L -> ~g d)
DECAY   2000003     7.10014006E+02   # ~s_R
#    BR                NDA      ID1      ID2
     4.14758583E-03    2     1000022         3   # BR(~s_R -> chi^0_1 s)
     3.73005686E-03    2     1000025         3   # BR(~s_R -> chi^0_3 s)
     9.92068397E-01    2     1000021         3   # BR(~s_R -> ~g s)
DECAY   1000003     8.39502481E+02   # ~s_L
#    BR                NDA      ID1      ID2
     1.57014809E-03    2     1000022         3   # BR(~s_L -> chi^0_1 s)
     2.72273207E-04    2     1000023         3   # BR(~s_L -> chi^0_2 s)
     1.96443006E-04    2     1000025         3   # BR(~s_L -> chi^0_3 s)
     5.18734265E-02    2     1000035         3   # BR(~s_L -> chi^0_4 s)
     1.04415904E-01    2    -1000037         4   # BR(~s_L -> chi^-_2 c)
     8.41632345E-01    2     1000021         3   # BR(~s_L -> ~g s)
DECAY   1000005     1.05485827E+02   # ~b_1
#    BR                NDA      ID1      ID2
     1.48565122E-02    2     1000022         5   # BR(~b_1 -> chi^0_1 b)
     7.54699333E-03    2     1000023         5   # BR(~b_1 -> chi^0_2 b)
     1.29014175E-02    2     1000025         5   # BR(~b_1 -> chi^0_3 b)
     1.52936954E-02    2    -1000024         6   # BR(~b_1 -> chi^-_1 t)
     9.49397191E-01    2     1000021         5   # BR(~b_1 -> ~g b)
DECAY   2000005     3.69499440E+02   # ~b_2
#    BR                NDA      ID1      ID2
     2.92739845E-03    2     1000022         5   # BR(~b_2 -> chi^0_1 b)
     2.67934492E-03    2     1000023         5   # BR(~b_2 -> chi^0_2 b)
     1.34981086E-03    2     1000025         5   # BR(~b_2 -> chi^0_3 b)
     4.68015430E-02    2     1000035         5   # BR(~b_2 -> chi^0_4 b)
     2.35078072E-01    2    -1000024         6   # BR(~b_2 -> chi^-_1 t)
     9.83958530E-02    2    -1000037         6   # BR(~b_2 -> chi^-_2 t)
     4.17992294E-01    2     1000021         5   # BR(~b_2 -> ~g b)
     1.94771149E-01    2     1000006       -24   # BR(~b_2 -> ~t_1 W^-)
DECAY   2000002     7.27180415E+02   # ~u_R
#    BR                NDA      ID1      ID2
     1.62013040E-02    2     1000022         2   # BR(~u_R -> chi^0_1 u)
     1.96640663E-04    2     1000023         2   # BR(~u_R -> chi^0_2 u)
     1.45705693E-02    2     1000025         2   # BR(~u_R -> chi^0_3 u)
     9.69030310E-01    2     1000021         2   # BR(~u_R -> ~g u)
DECAY   1000002     8.39485689E+02   # ~u_L
#    BR                NDA      ID1      ID2
     3.87181667E-04    2     1000022         2   # BR(~u_L -> chi^0_1 u)
     1.78351506E-03    2     1000025         2   # BR(~u_L -> chi^0_3 u)
     5.16427457E-02    2     1000035         2   # BR(~u_L -> chi^0_4 u)
     1.85433529E-03    2     1000024         1   # BR(~u_L -> chi^+_1 d)
     1.02621044E-01    2     1000037         1   # BR(~u_L -> chi^+_2 d)
     8.41612370E-01    2     1000021         2   # BR(~u_L -> ~g u)
DECAY   2000004     7.27187855E+02   # ~c_R
#    BR                NDA      ID1      ID2
     1.62021056E-02    2     1000022         4   # BR(~c_R -> chi^0_1 c)
     1.99206102E-04    2     1000023         4   # BR(~c_R -> chi^0_2 c)
     1.45719139E-02    2     1000025         4   # BR(~c_R -> chi^0_3 c)
     9.69020486E-01    2     1000021         4   # BR(~c_R -> ~g c)
DECAY   1000004     8.39491024E+02   # ~c_L
#    BR                NDA      ID1      ID2
     3.88019235E-04    2     1000022         4   # BR(~c_L -> chi^0_1 c)
     1.01035596E-04    2     1000023         4   # BR(~c_L -> chi^0_2 c)
     1.78479712E-03    2     1000025         4   # BR(~c_L -> chi^0_3 c)
     5.16424597E-02    2     1000035         4   # BR(~c_L -> chi^0_4 c)
     1.85621814E-03    2     1000024         3   # BR(~c_L -> chi^+_1 s)
     1.02620401E-01    2     1000037         3   # BR(~c_L -> chi^+_2 s)
     8.41607069E-01    2     1000021         4   # BR(~c_L -> ~g c)
DECAY   1000006     1.14254853E+02   # ~t_1
#    BR                NDA      ID1      ID2
     1.21043808E-01    2     1000022         6   # BR(~t_1 -> chi^0_1 t)
     2.38908355E-01    2     1000023         6   # BR(~t_1 -> chi^0_2 t)
     1.56776281E-01    2     1000025         6   # BR(~t_1 -> chi^0_3 t)
     1.30882294E-03    2     1000035         6   # BR(~t_1 -> chi^0_4 t)
     4.67536841E-01    2     1000024         5   # BR(~t_1 -> chi^+_1 b)
     2.67058691E-03    2     1000037         5   # BR(~t_1 -> chi^+_2 b)
     1.17548687E-02    2     1000021         6   # BR(~t_1 -> ~g t)
#    BR                NDA      ID1      ID2       ID3
DECAY   2000006     3.85382895E+02   # ~t_2
#    BR                NDA      ID1      ID2
     4.14530877E-02    2     1000022         6   # BR(~t_2 -> chi^0_1 t)
     1.15414565E-01    2     1000023         6   # BR(~t_2 -> chi^0_2 t)
     7.17590542E-02    2     1000025         6   # BR(~t_2 -> chi^0_3 t)
     4.78957924E-02    2     1000035         6   # BR(~t_2 -> chi^0_4 t)
     4.80640147E-03    2     1000024         5   # BR(~t_2 -> chi^+_1 b)
     9.12146869E-02    2     1000037         5   # BR(~t_2 -> chi^+_2 b)
     3.96388342E-01    2     1000021         6   # BR(~t_2 -> ~g t)
     9.40691134E-02    2     1000006        23   # BR(~t_2 -> ~t_1 Z)
     1.36996006E-01    2     1000006        25   # BR(~t_2 -> ~t_1 h^0)
DECAY   1000024     2.34100018E-05   # chi^+_1
#    BR                NDA      ID1      ID2       ID3
     3.34637171E-01    3     1000022        -1         2   # BR(chi^+_1 -> chi^0_1 d_bar u)
     3.32318699E-01    3     1000022        -3         4   # BR(chi^+_1 -> chi^0_1 s_bar c)
     1.11546068E-01    3     1000022       -11        12   # BR(chi^+_1 -> chi^0_1 e^+ nu_e)
     1.11545353E-01    3     1000022       -13        14   # BR(chi^+_1 -> chi^0_1 mu^+ nu_mu)
     1.09952709E-01    3     1000022       -15        16   # BR(chi^+_1 -> chi^0_1 tau^+ nu_tau)
DECAY   1000037     6.84679654E+00   # chi^+_2
#    BR                NDA      ID1      ID2
     7.99249335E-02    2     1000022        24   # BR(chi^+_2 -> chi^0_1 W^+)
     2.53597843E-01    2     1000023        24   # BR(chi^+_2 -> chi^0_2 W^+)
     1.70213566E-01    2     1000025        24   # BR(chi^+_2 -> chi^0_3 W^+)
     2.47969151E-01    2     1000024        23   # BR(chi^+_2 -> chi^+_1 Z)
     2.38520637E-01    2     1000024        25   # BR(chi^+_2 -> chi^+_1 h^0)
#    BR                NDA      ID1      ID2       ID3
     2.26169136E-03    3     1000024         6        -6   # BR(chi^+_2 -> chi^+_1 t t_bar)
     1.07521628E-03    3     1000022        -5         6   # BR(chi^+_2 -> chi^0_1 b_bar t)
     4.32674200E-03    3     1000023        -5         6   # BR(chi^+_2 -> chi^0_2 b_bar t)
     2.11001411E-03    3     1000025        -5         6   # BR(chi^+_2 -> chi^0_3 b_bar t)
DECAY   1000022     0.00000000E+00   # chi^0_1
DECAY   1000023     1.41052808E-04   # chi^0_2
#    BR                NDA      ID1      ID2
     2.13618908E-02    2     1000022        22   # BR(chi^0_2 -> chi^0_1 photon)
#    BR                NDA      ID1      ID2       ID3
     1.18343379E-01    3     1000022         2        -2   # BR(chi^0_2 -> chi^0_1 u u_bar)
     1.16828615E-01    3     1000022         4        -4   # BR(chi^0_2 -> chi^0_1 c c_bar)
     1.51739272E-01    3     1000022         1        -1   # BR(chi^0_2 -> chi^0_1 d d_bar)
     1.51729913E-01    3     1000022         3        -3   # BR(chi^0_2 -> chi^0_1 s s_bar)
     1.34686700E-01    3     1000022         5        -5   # BR(chi^0_2 -> chi^0_1 b b_bar)
     3.42430262E-02    3     1000022        11       -11   # BR(chi^0_2 -> chi^0_1 e^- e^+)
     3.42396632E-02    3     1000022        13       -13   # BR(chi^0_2 -> chi^0_1 mu^- mu^+)
     3.33090970E-02    3     1000022        15       -15   # BR(chi^0_2 -> chi^0_1 tau^- tau^+)
     2.02920980E-01    3     1000022        12       -12   # BR(chi^0_2 -> chi^0_1 nu_e nu_bar_e)
     1.09459372E-04    3     1000024         1        -2   # BR(chi^0_2 -> chi^+_1 d u_bar)
     1.09459372E-04    3    -1000024        -1         2   # BR(chi^0_2 -> chi^-_1 d_bar u)
DECAY   1000025     1.01416079E-05   # chi^0_3
#    BR                NDA      ID1      ID2
     9.02856696E-03    2     1000022        22   # BR(chi^0_3 -> chi^0_1 photon)
     3.01220695E-02    2     1000023        22   # BR(chi^0_3 -> chi^0_2 photon)
#    BR                NDA      ID1      ID2       ID3
     8.56081612E-03    3     1000022         2        -2   # BR(chi^0_3 -> chi^0_1 u u_bar)
     8.51032999E-03    3     1000022         4        -4   # BR(chi^0_3 -> chi^0_1 c c_bar)
     1.09669930E-02    3     1000022         1        -1   # BR(chi^0_3 -> chi^0_1 d d_bar)
     1.09666876E-02    3     1000022         3        -3   # BR(chi^0_3 -> chi^0_1 s s_bar)
     1.04066622E-02    3     1000022         5        -5   # BR(chi^0_3 -> chi^0_1 b b_bar)
     2.46671485E-03    3     1000022        11       -11   # BR(chi^0_3 -> chi^0_1 e^- e^+)
     2.46660862E-03    3     1000022        13       -13   # BR(chi^0_3 -> chi^0_1 mu^- mu^+)
     2.43693650E-03    3     1000022        15       -15   # BR(chi^0_3 -> chi^0_1 tau^- tau^+)
     1.46779371E-02    3     1000022        12       -12   # BR(chi^0_3 -> chi^0_1 nu_e nu_bar_e)
     1.93432612E-02    3     1000023         2        -2   # BR(chi^0_3 -> chi^0_2 u u_bar)
     1.77533885E-02    3     1000023         4        -4   # BR(chi^0_3 -> chi^0_2 c c_bar)
     2.48019850E-02    3     1000023         1        -1   # BR(chi^0_3 -> chi^0_2 d d_bar)
     2.47916533E-02    3     1000023         3        -3   # BR(chi^0_3 -> chi^0_2 s s_bar)
     1.05017246E-02    3     1000023         5        -5   # BR(chi^0_3 -> chi^0_2 b b_bar)
     5.59714465E-03    3     1000023        11       -11   # BR(chi^0_3 -> chi^0_2 e^- e^+)
     5.59346615E-03    3     1000023        13       -13   # BR(chi^0_3 -> chi^0_2 mu^- mu^+)
     4.65662550E-03    3     1000023        15       -15   # BR(chi^0_3 -> chi^0_2 tau^- tau^+)
     3.31671579E-02    3     1000023        12       -12   # BR(chi^0_3 -> chi^0_2 nu_e nu_bar_e)
     1.24943373E-01    3     1000024         1        -2   # BR(chi^0_3 -> chi^+_1 d u_bar)
     1.24943373E-01    3    -1000024        -1         2   # BR(chi^0_3 -> chi^-_1 d_bar u)
     1.22992832E-01    3     1000024         3        -4   # BR(chi^0_3 -> chi^+_1 s c_bar)
     1.22992832E-01    3    -1000024        -3         4   # BR(chi^0_3 -> chi^-_1 s_bar c)
     4.16475438E-02    3     1000024        11       -12   # BR(chi^0_3 -> chi^+_1 e^- nu_bar_e)
     4.16475438E-02    3    -1000024       -11        12   # BR(chi^0_3 -> chi^-_1 e^+ nu_e)
     4.16471447E-02    3     1000024        13       -14   # BR(chi^0_3 -> chi^+_1 mu^- nu_bar_mu)
     4.16471447E-02    3    -1000024       -13        14   # BR(chi^0_3 -> chi^-_1 mu^+ nu_mu)
     4.03607417E-02    3     1000024        15       -16   # BR(chi^0_3 -> chi^+_1 tau^- nu_bar_tau)
     4.03607417E-02    3    -1000024       -15        16   # BR(chi^0_3 -> chi^-_1 tau^+ nu_tau)
DECAY   1000035     7.96312279E+00   # chi^0_4
#    BR                NDA      ID1      ID2
     2.17886251E-01    2     1000024       -24   # BR(chi^0_4 -> chi^+_1 W^-)
     2.17886251E-01    2    -1000024        24   # BR(chi^0_4 -> chi^-_1 W^+)
     3.03290032E-02    2     1000022        23   # BR(chi^0_4 -> chi^0_1 Z)
     1.39897208E-01    2     1000023        23   # BR(chi^0_4 -> chi^0_2 Z)
     4.74356141E-02    2     1000025        23   # BR(chi^0_4 -> chi^0_3 Z)
     3.75630326E-02    2     1000022        25   # BR(chi^0_4 -> chi^0_1 h^0)
     2.07950340E-01    2     1000023        25   # BR(chi^0_4 -> chi^0_2 h^0)
     9.36957850E-02    2     1000025        25   # BR(chi^0_4 -> chi^0_3 h^0)
#    BR                NDA      ID1      ID2       ID3
     3.06409106E-04    3     1000022         6        -6   # BR(chi^0_4 -> chi^0_1 t t_bar)
     9.95528670E-04    3     1000023         6        -6   # BR(chi^0_4 -> chi^0_2 t t_bar)
     5.03962941E-04    3     1000025         6        -6   # BR(chi^0_4 -> chi^0_3 t t_bar)
     2.77021458E-03    3     1000024         5        -6   # BR(chi^0_4 -> chi^+_1 b t_bar)
     2.77021458E-03    3    -1000024        -5         6   # BR(chi^0_4 -> chi^-_1 b_bar t)
DECAY   1000021     2.09976620E-01   # ~g
#    BR                NDA      ID1      ID2
     7.23953677E-04    2     1000022        21   # BR(~g -> chi^0_1 g)
     2.98925710E-03    2     1000023        21   # BR(~g -> chi^0_2 g)
     2.47977579E-03    2     1000025        21   # BR(~g -> chi^0_3 g)
#    BR                NDA      ID1      ID2       ID3
     1.00958573E-01    3     1000022         6        -6   # BR(~g -> chi^0_1 t t_bar)
     1.62228067E-03    3     1000022         5        -5   # BR(~g -> chi^0_1 b b_bar)
     2.28855578E-01    3     1000023         6        -6   # BR(~g -> chi^0_2 t t_bar)
     1.12526626E-03    3     1000023         5        -5   # BR(~g -> chi^0_2 b b_bar)
     1.63823256E-01    3     1000025         6        -6   # BR(~g -> chi^0_3 t t_bar)
     1.22283201E-03    3     1000025         5        -5   # BR(~g -> chi^0_3 b b_bar)
     5.31236944E-03    3     1000035         6        -6   # BR(~g -> chi^0_4 t t_bar)
     3.38585087E-03    3     1000035         5        -5   # BR(~g -> chi^0_4 b b_bar)
     2.34302440E-01    3     1000024         5        -6   # BR(~g -> chi^+_1 b t_bar)
     2.34302440E-01    3    -1000024        -5         6   # BR(~g -> chi^-_1 b_bar t)
     1.65074728E-04    3     1000037         1        -2   # BR(~g -> chi^+_2 d u_bar)
     1.65074728E-04    3    -1000037        -1         2   # BR(~g -> chi^-_2 d_bar u)
     1.65074806E-04    3     1000037         3        -4   # BR(~g -> chi^+_2 s c_bar)
     1.65074806E-04    3    -1000037        -3         4   # BR(~g -> chi^-_2 s_bar c)
     8.81725705E-03    3     1000037         5        -6   # BR(~g -> chi^+_2 b t_bar)
     8.81725705E-03    3    -1000037        -5         6   # BR(~g -> chi^-_2 b_bar t)
DECAY        25     3.81937933E-03   # Gamma(h0)
     2.50155610E-03   2        22        22   # BR(h0 -> photon photon)
     1.75283414E-03   2        22        23   # BR(h0 -> photon Z)
     3.44673216E-02   2        23        23   # BR(h0 -> Z Z)
     2.75700407E-01   2       -24        24   # BR(h0 -> W W)
     7.65508587E-02   2        21        21   # BR(h0 -> gluon gluon)
     4.70420551E-09   2       -11        11   # BR(h0 -> Electron electron)
     2.09252317E-04   2       -13        13   # BR(h0 -> Muon muon)
     6.03370241E-02   2       -15        15   # BR(h0 -> Tau tau)
     1.33573686E-07   2        -2         2   # BR(h0 -> Up up)
     2.59242335E-02   2        -4         4   # BR(h0 -> Charm charm)
     5.43226166E-07   2        -1         1   # BR(h0 -> Down down)
     1.96472225E-04   2        -3         3   # BR(h0 -> Strange strange)
     5.22359359E-01   2        -5         5   # BR(h0 -> Bottom bottom)
DECAY        35     6.12699405E+01   # Gamma(HH)
     2.01531384E-09   2        22        22   # BR(HH -> photon photon)
     2.52562201E-08   2        22        23   # BR(HH -> photon Z)
     3.08831552E-06   2        23        23   # BR(HH -> Z Z)
     5.81913094E-07   2       -24        24   # BR(HH -> W W)
     3.24965532E-06   2        21        21   # BR(HH -> gluon gluon)
     8.55433012E-10   2       -11        11   # BR(HH -> Electron electron)
     3.80928957E-05   2       -13        13   # BR(HH -> Muon muon)
     1.10023639E-02   2       -15        15   # BR(HH -> Tau tau)
     1.91083441E-12   2        -2         2   # BR(HH -> Up up)
     3.70718554E-07   2        -4         4   # BR(HH -> Charm charm)
     2.80541538E-02   2        -6         6   # BR(HH -> Top top)
     6.01996605E-08   2        -1         1   # BR(HH -> Down down)
     2.17742119E-05   2        -3         3   # BR(HH -> Strange strange)
     5.62016299E-02   2        -5         5   # BR(HH -> Bottom bottom)
     1.22694366E-02   2  -1000024   1000024   # BR(HH -> Chargino1 chargino1)
     2.67216829E-01   2  -1000024   1000037   # BR(HH -> Chargino1 chargino2)
     2.67216829E-01   2  -1000037   1000024   # BR(HH -> Chargino2 chargino1)
     6.39799993E-04   2  -1000037   1000037   # BR(HH -> Chargino2 chargino2)
     3.73052720E-02   2   1000022   1000022   # BR(HH -> neutralino1 neutralino1)
     9.18743042E-03   2   1000022   1000023   # BR(HH -> neutralino1 neutralino2)
     4.24483453E-04   2   1000022   1000025   # BR(HH -> neutralino1 neutralino3)
     1.05966858E-01   2   1000022   1000035   # BR(HH -> neutralino1 neutralino4)
     2.37416531E-03   2   1000023   1000023   # BR(HH -> neutralino2 neutralino2)
     2.02994379E-02   2   1000023   1000025   # BR(HH -> neutralino2 neutralino3)
     1.05705561E-01   2   1000023   1000035   # BR(HH -> neutralino2 neutralino4)
     1.53880423E-02   2   1000025   1000025   # BR(HH -> neutralino3 neutralino3)
     6.03367249E-02   2   1000025   1000035   # BR(HH -> neutralino3 neutralino4)
     3.19136273E-04   2   1000035   1000035   # BR(HH -> neutralino4 neutralino4)
     2.46009055E-05   2        25        25   # BR(HH -> h0 h0)
DECAY        36     6.09645409E+01   # Gamma(A0)
     9.03314629E-10   2        22        22   # BR(A0 -> photon photon)
     3.98746252E-08   2        22        23   # BR(A0 -> photon Z)
     1.03538522E-05   2        21        21   # BR(A0 -> gluon gluon)
     8.22311690E-10   2       -11        11   # BR(A0 -> Electron electron)
     3.66180126E-05   2       -13        13   # BR(A0 -> Muon muon)
     1.05763814E-02   2       -15        15   # BR(A0 -> Tau tau)
     1.76112324E-12   2        -2         2   # BR(A0 -> Up up)
     3.41665806E-07   2        -4         4   # BR(A0 -> Charm charm)
     2.60060752E-02   2        -6         6   # BR(A0 -> Top top)
     5.78679061E-08   2        -1         1   # BR(A0 -> Down down)
     2.09307902E-05   2        -3         3   # BR(A0 -> Strange strange)
     5.40237832E-02   2        -5         5   # BR(A0 -> Bottom bottom)
     1.16621921E-02   2  -1000024   1000024   # BR(A0 -> Chargino1 chargino1)
     2.69251253E-01   2  -1000024   1000037   # BR(A0 -> Chargino1 chargino2)
     2.69251253E-01   2  -1000037   1000024   # BR(A0 -> Chargino2 chargino1)
     1.74247137E-05   2  -1000037   1000037   # BR(A0 -> Chargino2 chargino2)
     2.60761317E-02   2   1000022   1000022   # BR(A0 -> neutralino1 neutralino1)
     1.82024007E-02   2   1000022   1000023   # BR(A0 -> neutralino1 neutralino2)
     5.27519804E-04   2   1000022   1000025   # BR(A0 -> neutralino1 neutralino3)
     7.79695444E-02   2   1000022   1000035   # BR(A0 -> neutralino1 neutralino4)
     3.77403453E-03   2   1000023   1000023   # BR(A0 -> neutralino2 neutralino2)
     2.73414024E-02   2   1000023   1000025   # BR(A0 -> neutralino2 neutralino3)
     1.59164852E-01   2   1000023   1000035   # BR(A0 -> neutralino2 neutralino4)
     9.37297157E-03   2   1000025   1000025   # BR(A0 -> neutralino3 neutralino3)
     3.66982334E-02   2   1000025   1000035   # BR(A0 -> neutralino3 neutralino4)
     8.85281478E-06   2   1000035   1000035   # BR(A0 -> neutralino4 neutralino4)
     7.35008108E-06   2        23        25   # BR(A0 -> Z h0)
     2.41387237E-37   2        25        25   # BR(A0 -> h0 h0)
DECAY        37     6.19862045E+01   # Gamma(Hp)
     9.94600514E-10   2       -11        12   # BR(Hp -> Electron nu_e)
     4.25222784E-05   2       -13        14   # BR(Hp -> Muon nu_mu)
     1.20277229E-02   2       -15        16   # BR(Hp -> Tau nu_tau)
     6.07233280E-08   2        -1         2   # BR(Hp -> Down up)
     1.02934973E-06   2        -3         2   # BR(Hp -> Strange up)
     6.55268225E-07   2        -5         2   # BR(Hp -> Bottom up)
     2.19609703E-08   2        -1         4   # BR(Hp -> Down charm)
     2.22896930E-05   2        -3         4   # BR(Hp -> Strange charm)
     9.17616474E-05   2        -5         4   # BR(Hp -> Bottom charm)
     2.09860085E-06   2        -1         6   # BR(Hp -> Down top)
     4.57891079E-05   2        -3         6   # BR(Hp -> Strange top)
     9.39282236E-02   2        -5         6   # BR(Hp -> Bottom top)
     2.69413234E-02   2   1000022   1000024   # BR(Hp -> neutralino1 chargino1)
     1.82946467E-01   2   1000022   1000037   # BR(Hp -> neutralino1 chargino2)
     5.11970105E-04   2   1000023   1000024   # BR(Hp -> neutralino2 chargino1)
     2.60416358E-01   2   1000023   1000037   # BR(Hp -> neutralino2 chargino2)
     6.06409563E-02   2   1000024   1000025   # BR(Hp -> chargino1 neutralino3)
     9.68770655E-02   2   1000025   1000037   # BR(Hp -> neutralino3 chargino2)
     2.65496451E-01   2   1000024   1000035   # BR(Hp -> chargino1 neutralino4)
     5.01114948E-10   2   1000035   1000037   # BR(Hp -> neutralino4 chargino2)
     7.23190548E-06   2        24        25   # BR(Hp -> W h0)
DECAY         6     2.43000000E+00   # top
#    BR                NDA      ID1      ID2
     1.00000000E+00    2           5        24   # BR(t -> b W)
Block HiggsBoundsInputHiggsCouplingsFermions
# ScalarNormEffCoupSq PseudoSNormEffCoupSq NP IP1 IP2 IP2
    9.10416362E-01    0.00000000E+00        3  25   5   5  # h0-b-b eff. coupling^2, normalised to SM
    7.65244509E+01    0.00000000E+00        3  35   5   5  # H0-b-b eff. coupling^2, normalised to SM
    0.00000000E+00    7.64348673E+01        3  36   5   5  # A0-b-b eff. coupling^2, normalised to SM
#
    1.00117203E+00    0.00000000E+00        3  25   6   6  # h0-t-t eff. coupling^2, normalised to SM
    1.19110086E-02    0.00000000E+00        3  35   6   6  # H0-t-t eff. coupling^2, normalised to SM
    0.00000000E+00    1.30830344E-02        3  36   6   6  # A0-t-t eff. coupling^2, normalised to SM
#
    9.10416362E-01    0.00000000E+00        3  25  15  15  # h0-tau-tau eff. coupling^2, normalised to SM
    7.65244509E+01    0.00000000E+00        3  35  15  15  # H0-tau-tau eff. coupling^2, normalised to SM
    0.00000000E+00    7.64348673E+01        3  36  15  15  # A0-tau-tau eff. coupling^2, normalised to SM
#
Block HiggsBoundsInputHiggsCouplingsBosons
    9.99972522E-01        3  25  24  24  # h0-W-W eff. coupling^2, normalised to SM
    2.74780827E-05        3  35  24  24  # H0-W-W eff. coupling^2, normalised to SM
    0.00000000E+00        3  36  24  24  # A0-W-W eff. coupling^2, normalised to SM
#
    9.99972522E-01        3  25  23  23  # h0-Z-Z eff. coupling^2, normalised to SM
    2.74780827E-05        3  35  23  23  # H0-Z-Z eff. coupling^2, normalised to SM
    0.00000000E+00        3  36  23  23  # A0-Z-Z eff. coupling^2, normalised to SM
#
    1.26637400E+00        3  25  21  21  # h0-g-g eff. coupling^2, normalised to SM
    8.57273764E-03        3  35  21  21  # H0-g-g eff. coupling^2, normalised to SM
    1.32377326E-01        3  36  21  21  # A0-g-g eff. coupling^2, normalised to SM
#
    0.00000000E+00        3  25  25  23  # h0-h0-Z eff. coupling^2, normalised to SM
    0.00000000E+00        3  35  25  23  # H0-h0-Z eff. coupling^2, normalised to SM
    2.74780827E-05        3  36  25  23  # A0-h0-Z eff. coupling^2, normalised to SM
    0.00000000E+00        3  35  35  23  # H0-H0-Z eff. coupling^2, normalised to SM
    9.99972522E-01        3  36  35  23  # A0-H0-Z eff. coupling^2, normalised to SM
    0.00000000E+00        3  36  36  23  # A0-A0-Z eff. coupling^2, normalised to SM
#
    0.00000000E+00        4  25  21  21  23  # h0-g-g-Z eff. coupling^2, normalised to SM
    0.00000000E+00        4  35  21  21  23  # H0-g-g-Z eff. coupling^2, normalised to SM
    0.00000000E+00        4  36  21  21  23  # A0-g-g-Z eff. coupling^2, normalised to SM
Block SPhenoLowEnergy  # low energy observables
    1    3.28887936E-04   # BR(b -> s gamma)
    2    1.58968956E-06   # BR(b -> s mu+ mu-)
    3    3.52611978E-05   # BR(b -> s nu nu)
    4    2.35650004E-15   # BR(Bd -> e+ e-)
    5    1.00667023E-10   # BR(Bd -> mu+ mu-)
    6    2.10746205E-08   # BR(Bd -> tau+ tau-)
    7    7.94467989E-14   # BR(Bs -> e+ e-)
    8    3.39396527E-09   # BR(Bs -> mu+ mu-)
    9    7.19922479E-07   # BR(Bs -> tau+ tau-)
   10    9.67822148E-05   # BR(B_u -> tau nu)
   11    9.99723226E-01   # BR(B_u -> tau nu)/BR(B_u -> tau nu)_SM
   12    5.42487187E-01   # |Delta(M_Bd)| [ps^-1] 
   13    1.93834149E+01   # |Delta(M_Bs)| [ps^-1] 
   14    0.00000000E+00   # neutron EDM according to the chiral quark model
   15    0.00000000E+00   # neutron EDM according to the relativistic quark-parton model
   16    2.15934445E-03   # epsilon_K
   17    2.28167873E-15   # Delta(M_K)
   18    2.48021489E-11   # BR(K^0 -> pi^0 nu nu)
   19    8.29111638E-11   # BR(K^+ -> pi^+ nu nu)
   20   -9.45412590E-17   # Delta(g-2)_electron/2
   21   -4.04193674E-12   # Delta(g-2)_muon/2
   22   -1.14346680E-09   # Delta(g-2)_tau/2
   23    0.00000000E+00   # electric dipole moment of the electron
   24    0.00000000E+00   # electric dipole moment of the muon
   25    0.00000000E+00   # electric dipole moment of the tau
   26    0.00000000E+00   # Br(mu -> e gamma)
   27    0.00000000E+00   # Br(tau -> e gamma)
   28    0.00000000E+00   # Br(tau -> mu gamma)
   29    0.00000000E+00   # Br(mu -> 3 e)
   30    0.00000000E+00   # Br(tau -> 3 e)
   31    0.00000000E+00   # Br(tau -> 3 mu)
   39   -7.72762502E-05   # Delta(rho_parameter)
   40    0.00000000E+00   # BR(Z -> e mu)
   41    0.00000000E+00   # BR(Z -> e tau)
   42    0.00000000E+00   # BR(Z -> mu tau)
Block FWCOEF Q=  1.60000000E+02  # Wilson coefficients at scale Q
#    id        order  M        value         comment
     0305 4422   00   0    -1.88819110E-01   # C7
     0305 4422   00   2    -1.98620392E-01   # C7
     0305 4322   00   2    -1.12056048E-04   # C7'
     0305 6421   00   0    -9.52278348E-02   # C8
     0305 6421   00   2    -1.03211757E-01   # C8
     0305 6321   00   2    -1.07425086E-04   # C8'
 03051111 4133   00   0     1.62035864E+00   # C9 e+e-
 03051111 4133   00   2     1.62078177E+00   # C9 e+e-
 03051111 4233   00   2     2.08380978E-05   # C9' e+e-
 03051111 4137   00   0    -4.44305074E+00   # C10 e+e-
 03051111 4137   00   2    -4.44222737E+00   # C10 e+e-
 03051111 4237   00   2    -1.54864744E-04   # C10' e+e-
 03051313 4133   00   0     1.62035864E+00   # C9 mu+mu-
 03051313 4133   00   2     1.62078176E+00   # C9 mu+mu-
 03051313 4233   00   2     2.08380973E-05   # C9' mu+mu-
 03051313 4137   00   0    -4.44305074E+00   # C10 mu+mu-
 03051313 4137   00   2    -4.44222738E+00   # C10 mu+mu-
 03051313 4237   00   2    -1.54864745E-04   # C10' mu+mu-
 03051212 4137   00   0     1.50535012E+00   # C11 nu_1 nu_1
 03051212 4137   00   2     1.50517336E+00   # C11 nu_1 nu_1
 03051212 4237   00   2     3.35344725E-05   # C11' nu_1 nu_1
 03051414 4137   00   0     1.50535012E+00   # C11 nu_2 nu_2
 03051414 4137   00   2     1.50517336E+00   # C11 nu_2 nu_2
 03051414 4237   00   2     3.35344726E-05   # C11' nu_2 nu_2
 03051616 4137   00   0     1.50535012E+00   # C11 nu_3 nu_3
 03051616 4137   00   2     1.50517336E+00   # C11 nu_3 nu_3
 03051616 4237   00   2     3.35344852E-05   # C11' nu_3 nu_3
Block IMFWCOEF Q=  1.60000000E+02  # Im(Wilson coefficients) at scale Q
#    id        order  M        value         comment
     0305 4422   00   0     3.85819626E-07   # C7
     0305 4422   00   2    -2.81012305E-06   # C7
     0305 4322   00   2    -7.69216452E-07   # C7'
     0305 6421   00   0     3.30480025E-07   # C8
     0305 6421   00   2     5.22180079E-06   # C8
     0305 6321   00   2    -2.79031997E-07   # C8'
 03051111 4133   00   2     1.05205485E-07   # C9 e+e-
 03051111 4233   00   2     3.92561081E-07   # C9' e+e-
 03051111 4137   00   2     3.02351704E-06   # C10 e+e-
 03051111 4237   00   2    -2.91828267E-06   # C10' e+e-
 03051313 4133   00   2     1.05205267E-07   # C9 mu+mu-
 03051313 4233   00   2     3.92561076E-07   # C9' mu+mu-
 03051313 4137   00   2     3.02351720E-06   # C10 mu+mu-
 03051313 4237   00   2    -2.91828269E-06   # C10' mu+mu-
 03051212 4137   00   2    -6.27337673E-07   # C11 nu_1 nu_1
 03051212 4237   00   2     6.31926903E-07   # C11' nu_1 nu_1
 03051414 4137   00   2    -6.27337664E-07   # C11 nu_2 nu_2
 03051414 4237   00   2     6.31926903E-07   # C11' nu_2 nu_2
 03051616 4137   00   2    -6.27335117E-07   # C11 nu_3 nu_3
 03051616 4237   00   2     6.31926901E-07   # C11' nu_3 nu_3
