BLOCK SPINFO
   1   SPheno
   2   v4.0.5be

BLOCK SPHENOINFO
   1   2
   2   2

BLOCK MODSEL
   1   0

BLOCK MINPAR
   3    31.085111
   4    1

BLOCK EXTPAR
   0    3647.2787
   1   -2842.7454
   2    1990.1364
   3    2728.1081
   11    7323.2662
   12   -5302.104
   13    5864.4489
   23    1232.7661
   25    29.796926
   26    1602.7367
   31    4225.8714
   32    4225.8714
   33    1540.3974
   34    4400.821
   35    4400.821
   36    1606.1743
   41    1850.885
   42    1850.885
   43    3040.6077
   44    2586.2872
   45    2586.2872
   46    4404.1141
   47    3147.0997
   48    3147.0997
   49    1150.9267

BLOCK SMINPUTS
   1    127.90897
   2    1.1663787e-05
   3    0.1184
   4    91.1876
   5    4.18
   6    173.2
   7    1.777
   8    0
   11    0.00051099893
   12    0
   13    0.10565837
   14    0
   21    0.005
   22    0.0025
   23    0.095
   24    1.27

BLOCK GAUGE Q=  3647.2787
   1    0.35536298
   2    0.66519887
   3    1.219778

BLOCK YU Q=  3647.2787
   1   1    8.3890925e-06
   2   2    0.004261659
   3   3    1.0134698

BLOCK YD Q=  3647.2787
   1   1    0.00050230407
   2   2    0.0095437772
   3   3    0.49812823

BLOCK YE Q=  3647.2787
   1   1    8.7655733e-05
   2   2    0.018124425
   3   3    0.30482302

BLOCK AU Q=  3647.2787
   1   1    0
   2   2    0
   3   3    7323.2662

BLOCK AD Q=  3647.2787
   1   1    0
   2   2    0
   3   3   -5302.1052

BLOCK AE Q=  3647.2787
   1   1    0
   2   2    0
   3   3    5864.4489

BLOCK MSOFT Q=  3647.2787
   1   -2842.7454
   2    1990.1364
   3    2728.1081
   21    1095221.8
   22   -1381439.7
   31    4225.8714
   32    4225.8714
   33    1540.3974
   34    4400.821
   35    4400.821
   36    1606.1743
   41    1850.885
   42    1850.885
   43    3040.6077
   44    2586.2872
   45    2586.2872
   46    4404.1141
   47    3147.0997
   48    3147.0997
   49    1150.9267

BLOCK MASS
   6    173.2
   23    91.1876
   24    80.429995
   15    1.777
   25    127.48058
   35    1602.7107
   36    1602.7367
   37    1604.8824
   1000001    2045.7645
   2000001    3257.9219
   1000002    2044.2367
   2000002    2724.2117
   1000003    2045.762
   2000003    3257.9184
   1000004    2044.2344
   2000004    2724.2111
   1000005    1348.6415
   2000005    3100.3005
   1000006    3086.1008
   2000006    4310.5013
   1000011    4238.6212
   2000011    4409.9155
   1000012    4237.4789
   1000013    4238.6071
   2000013    4409.8913
   1000014    4237.466
   1000015    1548.4805
   2000015    1602.305
   1000016    1553.5158
   1000021    2911.127
   1000022    1245.2373
   1000023   -1249.5963
   1000025    2008.5807
   1000035   -2802.4842
   1000024    1246.0155
   1000037    2008.808

BLOCK ALPHA
      -0.032474371

BLOCK HMIX Q=  3647.2787
   1    1232.7661
   2    29.796926
   3    243.00503
   4    2568764.9

BLOCK STOPMIX
   1   1   -0.99455562
   1   2    0.10420712
   2   1   -0.10420712
   2   2   -0.99455562

BLOCK SBOTMIX
   1   1    0.0095705587
   1   2    0.9999542
   2   1   -0.9999542
   2   2    0.0095705587

BLOCK STAUMIX
   1   1    0.93106155
   1   2    0.36486216
   2   1   -0.36486216
   2   2    0.93106155

BLOCK NMIX
   1   1    0.0078598614
   1   2    0.073863771
   1   3   -0.70616421
   1   4    0.70414095
   2   1    0.019226972
   2   2    0.016514272
   2   3    0.70683759
   2   4    0.70692165
   3   1    0.0005970519
   3   2   -0.99713155
   3   3   -0.040601078
   3   4    0.063873826
   4   1    0.99978407
   4   2   -0.00030280454
   4   3   -0.0080174839
   4   4   -0.019168688

BLOCK UMIX
   1   1   -0.057488805
   1   2    0.99834615
   2   1    0.99834615
   2   2    0.057488805

BLOCK VMIX
   1   1   -0.090416807
   1   2    0.99590401
   2   1    0.99590401
   2   2    0.090416807

BLOCK HIGGSBOUNDSINPUTHIGGSCOUPLINGSFERMIONS
       0, 887.8568,3,36,15,15

BLOCK HIGGSBOUNDSINPUTHIGGSCOUPLINGSBOSONS
       0,4,36,21,21,23

BLOCK SPHENOLOWENERGY
   1    0.00034539389
   2    1.5877822e-06
   3    3.5250769e-05
   4    2.9347852e-15
   5    1.2537086e-10
   6    2.6255927e-08
   7    9.8146502e-14
   8    4.1928213e-09
   9    8.8971637e-07
   10    9.4121204e-05
   11    0.972236
   12    0.54206688
   13    19.355028
   14    0
   15    0
   16    0.002157797
   17    2.2816658e-15
   18    2.4802526e-11
   19    8.2900015e-11
   20    8.7262069e-16
   21    3.7306916e-11
   22    1.7948129e-08
   23    0
   24    0
   25    0
   26    0
   27    0
   28    0
   29    0
   30    0
   31    0
   39    6.5097711e-05
   40    0
   41    0
   42    0

BLOCK FWCOEF Q=  160
   305   4422   0   0   -0.18881911
   305   4422   0   2   -0.21369335
   305   4322   0   2   -0.00057885947
   305   6421   0   0   -0.095227835
   305   6421   0   2   -0.12655205
   305   6321   0   2   -0.00063677291
   3051111   4133   0   0    1.6234466
   3051111   4133   0   2    1.6236051
   3051111   4233   0   2    0.00033673257
   3051111   4137   0   0   -4.4461387
   3051111   4137   0   2   -4.4443667
   3051111   4237   0   2   -0.0025025676
   3051313   4133   0   0    1.6234466
   3051313   4133   0   2    1.6236048
   3051313   4233   0   2    0.00033673143
   3051313   4137   0   0   -4.4461387
   3051313   4137   0   2   -4.444367
   3051313   4237   0   2   -0.0025025671
   3051212   4137   0   0    1.5053501
   3051212   4137   0   2    1.5049713
   3051212   4237   0   2    0.00054154448
   3051414   4137   0   0    1.5053501
   3051414   4137   0   2    1.5049713
   3051414   4237   0   2    0.00054154469
   3051616   4137   0   0    1.5053501
   3051616   4137   0   2    1.5049704
   3051616   4237   0   2    0.00054160491

BLOCK IMFWCOEF Q=  160
   305   4422   0   0    3.857614e-07
   305   4422   0   2    6.2864302e-05
   305   4322   0   2   -4.0474983e-06
   305   6421   0   0    3.3043015e-07
   305   6421   0   2   -6.4633253e-05
   305   6321   0   2   -3.5903576e-06
   3051111   4133   0   2   -9.5226779e-07
   3051111   4233   0   2    7.1565861e-06
   3051111   4137   0   2    1.3994864e-05
   3051111   4237   0   2   -5.3195672e-05
   3051313   4133   0   2   -9.5226931e-07
   3051313   4233   0   2    7.1565834e-06
   3051313   4137   0   2    1.3994873e-05
   3051313   4237   0   2   -5.319568e-05
   3051212   4137   0   2   -2.9443812e-06
   3051212   4237   0   2    1.1511304e-05
   3051414   4137   0   2   -2.9443812e-06
   3051414   4237   0   2    1.1511304e-05
   3051616   4137   0   2   -2.9607411e-06
   3051616   4237   0   2    1.1511309e-05

DECAY 23  2.4952


DECAY 24  2.085


DECAY 1000011  35.39941
    0.63163365   2   -1000037    12
    0.3148886   2    1000025    11
    0.047573812   2    1000035    11
    0.0029075327   2   -1000024    12
    0.002681135   2    1000022    11
    0.00031526233   2    1000023    11

DECAY 2000011  7.8794682
    0.99897276   2    1000035    11
    0.00087937935   2    1000023    11
    0.0001471638   2    1000022    11

DECAY 1000013  35.422244
    0.63122197   2   -1000037    14
    0.31468417   2    1000025    13
    0.04754251   2    1000035    13
    0.0030049053   2    1000022    13
    0.0029056451   2   -1000024    14
    0.00064079784   2    1000023    13

DECAY 2000013  7.9281255
    0.99282165   2    1000035    13
    0.0030676804   2   -1000024    14
    0.002410125   2    1000023    13
    0.0016813964   2    1000022    13

DECAY 1000015  0.454897
    0.44012029   2    1000022    15
    0.37892914   2    1000023    15
    0.18095057   2   -1000024    16

DECAY 2000015  0.80127301
    0.45107659   2   -1000024    16
    0.28751224   2    1000023    15
    0.26124318   2    1000022    15

DECAY 1000012  35.408617
    0.62801825   2    1000037    11
    0.31502643   2    1000025    12
    0.047616669   2    1000035    12
    0.0071875851   2    1000024    11
    0.0021339492   2    1000022    12

DECAY 1000014  35.431462
    0.62761078   2    1000037    13
    0.31482123   2    1000025    14
    0.047585368   2    1000035    14
    0.0078329499   2    1000024    13
    0.0021325643   2    1000022    14

DECAY 1000016  0.38191991
    0.98880782   2    1000024    15
    0.011105221   2    1000022    16

DECAY 1000001  0.07752595
    0.3037769   2   -1000024    2
    0.29679111   2   -1000037    2
    0.24170723   2    1000022    1
    0.14987668   2    1000025    1
    0.007848071   2    1000023    1

DECAY 2000001  10.571233
    0.98831341   2    1000021    1
    0.011630228   2    1000035    1

DECAY 1000003  0.07924339
    0.30076384   2   -1000024    4
    0.29011994   2   -1000037    4
    0.24566601   2    1000022    3
    0.14660877   2    1000025    3
    0.016841446   2    1000023    3

DECAY 2000003  10.57986
    0.98748929   2    1000021    3
    0.011620595   2    1000035    3
    0.00040535014   2   -1000024    4
    0.00024900933   2    1000023    3
    0.00021064155   2    1000022    3

DECAY 1000005  0.13863212
    0.52097068   2    1000022    5
    0.47902932   2    1000023    5

DECAY 2000005  87.134384
    0.5011806   2   -1000024    6
    0.10874317   2   -1000037    6
    0.077104188   2    1000005    35
    0.07708027   2    1000005    36
    0.062060458   2    1000022    5
    0.061590526   2    1000023    5
    0.052590781   2    1000025    5
    0.039285385   2    1000021    5
    0.014544249   2    1000005    25
    0.005652601   2    1000005    23
    0.00016777481   2    1000035    5

DECAY 1000002  0.11144695
    0.52143946   2    1000024    1
    0.1890938   2    1000037    1
    0.18090684   2    1000022    2
    0.095969107   2    1000025    2
    0.012590791   2    1000023    2

DECAY 2000002  0.001637786
    0.85612221   2    1000023    2
    0.14360055   2    1000022    2
    0.00027579297   2    1000025    2

DECAY 1000004  0.11316866
    0.52631962   2    1000024    3
    0.18619242   2    1000037    3
    0.17939319   2    1000022    4
    0.094426794   2    1000025    4
    0.013667968   2    1000023    4

DECAY 2000004  0.0028640323
    0.59692252   2    1000023    4
    0.21316541   2    1000024    3
    0.18886081   2    1000022    4
    0.00058487603   2    1000037    3
    0.00045046856   2    1000025    4

DECAY 1000006  83.106757
    0.26508781   2    1000023    6
    0.26101796   2    1000022    6
    0.15328164   2    1000005    37
    0.12769804   2    1000024    5
    0.10984936   2    1000037    5
    0.056776126   2    1000025    6
    0.011501922   2    1000005    24
    0.010938912   3    1000022    24    5
    0.0037436456   2    1000021    6
    0.00010455264   2    1000035    6

DECAY 2000006  409.90534
    0.24790206   2    1000021    6
    0.17972863   2    1000024    5
    0.16123624   2    2000005    24
    0.14205251   2    1000006    25
    0.089552802   2    1000022    6
    0.089395495   2    1000023    6
    0.081972492   2    1000006    23
    0.0077197234   2    1000035    6
    0.0002444484   2    1000005    37

DECAY 1000024  4.2976445e-13
    0.79829638   2    1000022    211
    0.1053807   3    1000022   -11    12
    0.096322916   3    1000022   -13    14

DECAY 1000037  17.820709
    0.21514613   2    1000024    25
    0.20767477   2    1000023    24
    0.20248419   2    1000022    24
    0.20171179   2    1000024    23
    0.079532605   2    1000016   -15
    0.069139356   2   -1000015    16
    0.0099241862   2   -2000015    16
    0.0047720728   3    1000022   -5    6
    0.0046314848   3    1000024    6   -6
    0.0044182502   3    1000023   -5    6
    0.00050479961   2   -1000005    6

DECAY 1000022 -1


DECAY 1000023  3.1554406e-08
    0.75372683   2    1000022    22
    0.03495254   3    1000022    12   -12
    0.026190641   3    1000024    1   -2
    0.026190641   3   -1000024   -1    2
    0.026136355   3    1000022    1   -1
    0.025992464   3    1000022    3   -3
    0.020384547   3    1000022    2   -2
    0.014281999   3    1000024    3   -4
    0.014281999   3   -1000024   -3    4
    0.0087302443   3    1000024    11   -12
    0.0087302443   3   -1000024   -11    12
    0.00869248   3    1000024    13   -14
    0.00869248   3   -1000024   -13    14
    0.0058983309   3    1000022    11   -11
    0.0058622362   3    1000022    4   -4
    0.0058472075   3    1000022    13   -13
    0.0026115389   3    1000024    15   -16
    0.0026115389   3   -1000024   -15    16
    0.00018567764   3    1000022    15   -15

DECAY 1000025  20.910335
    0.1743151   2    1000022    25
    0.17320827   2    1000024   -24
    0.17320827   2   -1000024    24
    0.16894666   2    1000023    23
    0.1557242   2    1000023    25
    0.033953535   2    1000016   -16
    0.033953535   2   -1000016    16
    0.029361931   2    1000015   -15
    0.029361931   2   -1000015    15
    0.0083423   2    1000022    23
    0.0042140821   2    2000015   -15
    0.0042140821   2   -2000015    15
    0.0039558942   3    1000024    5   -6
    0.0039558942   3   -1000024   -5    6
    0.0014960003   3    1000022    6   -6
    0.0012933062   3    1000023    6   -6
    0.00021404675   2    1000005   -5
    0.00021404675   2   -1000005    5

DECAY 1000035  22.005699
    0.1307596   2    2000015   -15
    0.1307596   2   -2000015    15
    0.075679291   2    1000024   -24
    0.075679291   2   -1000024    24
    0.070906279   2    1000022    25
    0.064851393   2    1000022    23
    0.062924856   2    1000005   -5
    0.062924856   2   -1000005    5
    0.062387634   2    1000023    25
    0.053612065   2    1000015   -15
    0.053612065   2   -1000015    15
    0.038409016   2    1000016   -16
    0.038409016   2   -1000016    16
    0.010924259   2    1000023    23
    0.0058352508   2    1000003   -3
    0.0058352508   2   -1000003    3
    0.005835215   2    1000001   -1
    0.005835215   2   -1000001    1
    0.0058154183   2    1000004   -4
    0.0058154183   2   -1000004    4
    0.0058154104   2    1000002   -2
    0.0058154104   2   -1000002    2
    0.0046026423   3    1000024    5   -6
    0.0046026423   3   -1000024   -5    6
    0.0024490585   3    1000022    6   -6
    0.0020564941   3    1000023    6   -6
    0.0012936304   2    2000002   -2
    0.0012936304   2   -2000002    2
    0.0012934949   2    2000004   -4
    0.0012934949   2   -2000004    4
    0.0009376289   3    1000023    5   -5
    0.00088928058   3    1000022    5   -5
    0.00011265031   3    1000023    15   -15
    0.00010677285   3    1000022    15   -15
    0.00010102748   2    1000025    25
    0.00010102225   3    1000024    15   -16
    0.00010102225   3   -1000024   -15    16

DECAY 1000021  144.45409
    0.18395914   2    1000005   -5
    0.18395914   2   -1000005    5
    0.076635385   2    1000004   -4
    0.076635385   2   -1000004    4
    0.076635101   2    1000002   -2
    0.076635101   2   -1000002    2
    0.076412679   2    1000003   -3
    0.076412679   2   -1000003    3
    0.076412315   2    1000001   -1
    0.076412315   2   -1000001    1
    0.0046076352   2    2000002   -2
    0.0046076352   2   -2000002    2
    0.0046075643   2    2000004   -4
    0.0046075643   2   -2000004    4
    0.00042305609   3    1000024    5   -6
    0.00042305609   3   -1000024   -5    6
    0.00022209362   3    1000023    6   -6
    0.0002163661   3    1000022    6   -6

DECAY 25  0.0042633115
    0.53499634   2   -5    5
    0.26850717   2   -24    24
    0.069786653   2    21    21
    0.062057189   2   -15    15
    0.034084463   2    23    23
    0.026140567   2   -4    4
    0.0023199887   2    22    22
    0.0016906463   2    22    23
    0.0002150306   2   -13    13
    0.00020125706   2   -3    3
    5.5645629e-07   2   -1    1
    1.3470156e-07   2   -2    2
    4.8340977e-09   2   -11    11

DECAY 35  17.444454
    0.78525486   2   -5    5
    0.21067354   2   -15    15
    0.0029635909   2   -6    6
    0.00067308954   2   -13    13
    0.00035001883   2   -3    3
    5.5878798e-05   2    25    25
    1.8160745e-05   2    21    21
    5.6766068e-06   2    23    23
    4.1323349e-06   2   -24    24
    9.6791551e-07   2   -1    1
    3.2488605e-08   2   -4    4
    2.2413068e-08   2    22    23
    2.0344327e-08   2    22    22
    1.5120119e-08   2   -11    11
    1.6745881e-13   2   -2    2

DECAY 36  16.946739
    0.78510244   2   -5    5
    0.21063508   2   -15    15
    0.0031857045   2   -6    6
    0.00067296095   2   -13    13
    0.00034995247   2   -3    3
    4.5066255e-05   2    21    21
    7.7199276e-06   2    23    25
    9.6773284e-07   2   -1    1
    4.5438034e-08   2    22    22
    3.3215423e-08   2   -4    4
    1.5117261e-08   2   -11    11
    9.8506943e-09   2    22    23
    1.7122179e-13   2   -2    2
    1.2146497e-36   2    25    25

DECAY 37  15.168781
    0.79324624   2   -5    6
    0.20445221   2   -15    16
    0.0011806869   2   -5    4
    0.00072281283   2   -13    14
    0.000356048   2   -3    4
    1.6548562e-05   2   -3    2
    8.6792875e-06   2    24    25
    8.4313302e-06   2   -5    2
    6.9942785e-06   2   -3    6
    9.8808785e-07   2   -1    2
    2.9719702e-07   2   -1    6
    4.8560083e-08   2   -1    4
    1.6906667e-08   2   -11    12
    4.3301139e-12   2    24    35
    4.0777011e-12   2    24    36

DECAY 6  2.43
    1   2    5    24

DECAY 15 -1
