BLOCK SPINFO
   1   SPheno
   2   v4.0.5be

BLOCK SPHENOINFO
   1   2
   2   2

BLOCK MODSEL
   1   0

BLOCK MINPAR
   3    14.502021
   4    1

BLOCK EXTPAR
   0    2282.7494
   1    3623.1755
   2   -1826.225
   3    1803.6841
   11   -4529.8024
   12    59.899658
   13   -1739.9104
   23    702.74145
   25    13.90287
   26    483.38894
   31    4835.1531
   32    4835.1531
   33    4696.6277
   34    2463.6547
   35    2463.6547
   36    2227.3538
   41    3179.3851
   42    3179.3851
   43    2708.5962
   44    4196.4064
   45    4196.4064
   46    1907.8767
   47    3838.3728
   48    3838.3728
   49    3486.7868

BLOCK SMINPUTS
   1    127.90897
   2    1.1663787e-05
   3    0.1184
   4    91.1876
   5    4.18
   6    173.2
   7    1.777
   8    0
   11    0.00051099893
   12    0
   13    0.10565837
   14    0
   21    0.005
   22    0.0025
   23    0.095
   24    1.27

BLOCK GAUGE Q=  2282.7494
   1    0.35536298
   2    0.66519887
   3    1.219778

BLOCK YU Q=  2282.7494
   1   1    8.4060328e-06
   2   2    0.0042702646
   3   3    1.0155163

BLOCK YD Q=  2282.7494
   1   1    0.00023484201
   2   2    0.0044619982
   3   3    0.23288969

BLOCK YE Q=  2282.7494
   1   1    4.0981648e-05
   2   2    0.0084737051
   3   3    0.14251378

BLOCK AU Q=  2282.7494
   1   1    0
   2   2    0
   3   3   -4529.8023

BLOCK AD Q=  2282.7494
   1   1    0
   2   2    0
   3   3    59.899657

BLOCK AE Q=  2282.7494
   1   1    0
   2   2    0
   3   3   -1739.9104

BLOCK MSOFT Q=  2282.7494
   1    3623.1755
   2   -1826.225
   3    1803.6841
   21   -327251.7
   22   -401679.86
   31    4835.1531
   32    4835.1531
   33    4696.6277
   34    2463.6547
   35    2463.6547
   36    2227.3538
   41    3179.3851
   42    3179.3851
   43    2708.5962
   44    4196.4064
   45    4196.4064
   46    1907.8767
   47    3838.3728
   48    3838.3728
   49    3486.7868

BLOCK MASS
   6    173.2
   23    91.1876
   24    80.429995
   15    1.777
   25    124.37129
   35    483.58729
   36    483.38894
   37    490.1007
   1000001    3235.5119
   2000001    3880.0749
   1000002    3234.6837
   2000002    4247.5622
   1000003    3235.5116
   2000003    3880.0745
   1000004    3234.6834
   2000004    4247.5619
   1000005    2714.7774
   2000005    3527.9974
   1000006    1903.3127
   2000006    2737.8291
   1000011    4847.5428
   2000011    2459.5988
   1000012    4846.4917
   1000013    4847.542
   2000013    2459.599
   1000014    4846.4917
   1000015    2222.0947
   2000015    4708.7576
   1000016    4707.8898
   1000021    2060.6195
   1000022   -713.34762
   1000023    716.00459
   1000025   -1881.8212
   1000035    3606.7311
   1000024    714.40454
   1000037    1881.8535

BLOCK ALPHA
      -0.075630765

BLOCK HMIX Q=  2282.7494
   1    702.74145
   2    13.90287
   3    243.53321
   4    233664.86

BLOCK STOPMIX
   1   1    0.16786383
   1   2    0.98581019
   2   1   -0.98581019
   2   2    0.16786383

BLOCK SBOTMIX
   1   1    0.99999068
   1   2    0.0043170289
   2   1   -0.0043170289
   2   2    0.99999068

BLOCK STAUMIX
   1   1    0.001172323
   1   2    0.99999931
   2   1   -0.99999931
   2   2    0.001172323

BLOCK NMIX
   1   1   -0.0067520243
   1   2   -0.043860032
   1   3    0.70746641
   1   4    0.70535238
   2   1    0.011691021
   2   2    0.023061285
   2   3    0.70658442
   2   4   -0.70715624
   3   1   -0.00035860422
   3   2    0.99877146
   3   3    0.014752156
   3   4    0.047305536
   4   1    0.9999088
   4   2   -0.00020760924
   4   3   -0.0034788898
   4   4    0.013048089

BLOCK UMIX
   1   1   -0.020907168
   1   2    0.99978142
   2   1   -0.99978142
   2   2   -0.020907168

BLOCK VMIX
   1   1    0.066952622
   1   2    0.99775616
   2   1    0.99775616
   2   2   -0.066952622

BLOCK HIGGSBOUNDSINPUTHIGGSCOUPLINGSFERMIONS
       0, 193.2898,3,36,15,15

BLOCK HIGGSBOUNDSINPUTHIGGSCOUPLINGSBOSONS
       0,4,36,21,21,23

BLOCK SPHENOLOWENERGY
   1    0.00039231022
   2    1.5876664e-06
   3    3.5250222e-05
   4    2.7188951e-15
   5    1.1614799e-10
   6    2.4307272e-08
   7    9.1482951e-14
   8    3.9081449e-09
   9    8.2872328e-07
   10    9.2104233e-05
   11    0.95140147
   12    0.54325262
   13    19.393723
   14    0
   15    0
   16    0.0021624874
   17    2.2817175e-15
   18    2.4817034e-11
   19    8.2918984e-11
   20   -5.28428e-16
   21   -2.2592013e-11
   22   -6.6890259e-09
   23    0
   24    0
   25    0
   26    0
   27    0
   28    0
   29    0
   30    0
   31    0
   39    4.2654735e-05
   40    0
   41    0
   42    0

BLOCK FWCOEF Q=  160
   305   4422   0   0   -0.18881911
   305   4422   0   2   -0.25764359
   305   4322   0   2   -0.0014109904
   305   6421   0   0   -0.095227835
   305   6421   0   2   -0.17904259
   305   6321   0   2   -0.0016789211
   3051111   4133   0   0    1.6066227
   3051111   4133   0   2    1.6073428
   3051111   4233   0   2   -2.2410933e-05
   3051111   4137   0   0   -4.4293148
   3051111   4137   0   2   -4.4274005
   3051111   4237   0   2    0.00017135565
   3051313   4133   0   0    1.6066227
   3051313   4133   0   2    1.6073427
   3051313   4233   0   2   -2.2413405e-05
   3051313   4137   0   0   -4.4293148
   3051313   4137   0   2   -4.4274006
   3051313   4237   0   2    0.0001713581
   3051212   4137   0   0    1.5053501
   3051212   4137   0   2    1.5049363
   3051212   4237   0   2   -3.7221322e-05
   3051414   4137   0   0    1.5053501
   3051414   4137   0   2    1.5049363
   3051414   4237   0   2   -3.7220787e-05
   3051616   4137   0   0    1.5053501
   3051616   4137   0   2    1.5049363
   3051616   4237   0   2   -3.7069959e-05

BLOCK IMFWCOEF Q=  160
   305   4422   0   0    3.8584336e-07
   305   4422   0   2   -4.7121538e-06
   305   4322   0   2    5.6825435e-06
   305   6421   0   0    3.3050036e-07
   305   6421   0   2   -1.0709771e-05
   305   6321   0   2    2.8845062e-06
   3051111   4133   0   2   -5.3913178e-06
   3051111   4233   0   2    7.9234016e-07
   3051111   4137   0   2    4.4534683e-05
   3051111   4237   0   2   -6.0341569e-06
   3051313   4133   0   2   -5.3913161e-06
   3051313   4233   0   2    7.9233999e-07
   3051313   4137   0   2    4.4534685e-05
   3051313   4237   0   2   -6.0341572e-06
   3051212   4137   0   2   -9.6370045e-06
   3051212   4237   0   2    1.3107247e-06
   3051414   4137   0   2   -9.6370045e-06
   3051414   4237   0   2    1.3107247e-06
   3051616   4137   0   2   -9.6369589e-06
   3051616   4237   0   2    1.3107247e-06

DECAY 23  2.4952


DECAY 24  2.085


DECAY 2000011  0.0018880492
    0.74947493   2    1000023    11
    0.25034387   2    1000022    11
    0.00014471682   2    1000025    11

DECAY 1000011  47.407129
    0.64899025   2   -1000037    12
    0.32371958   2    1000025    11
    0.025573102   2    1000035    11
    0.00097062475   2    1000022    11
    0.00037655512   2   -1000024    12
    0.00036988138   2    1000023    11

DECAY 2000013  0.0077772687
    0.37859022   2   -1000024    14
    0.37087377   2    1000023    13
    0.25045003   2    1000022    13

DECAY 1000013  47.413795
    0.64889882   2   -1000037    14
    0.323674   2    1000025    13
    0.02556948   2    1000035    13
    0.0010404494   2    1000022    13
    0.00043959876   2    1000023    13
    0.00037650211   2   -1000024    14

DECAY 1000015  1.4449754
    0.49944607   2   -1000024    16
    0.25060251   2    1000022    15
    0.2499336   2    1000023    15

DECAY 2000015  46.982108
    0.62268623   2   -1000037    16
    0.31060637   2    1000025    15
    0.021484996   2    1000035    15
    0.020288503   2    1000022    15
    0.019659947   2    1000023    15
    0.0019721852   2    1000015    36
    0.0019647351   2    1000015    35
    0.00049085899   2    1000015    25
    0.00048685639   2    1000015    23
    0.00035931401   2   -1000024    16

DECAY 1000012  47.418129
    0.64597407   2    1000037    11
    0.32377282   2    1000025    12
    0.02557386   2    1000035    12
    0.0038598497   2    1000024    11
    0.00069768209   2    1000022    12
    0.00012171617   2    1000023    12

DECAY 1000014  47.424754
    0.64588387   2    1000037    13
    0.32372759   2    1000025    14
    0.025570286   2    1000035    14
    0.0039989627   2    1000024    13
    0.00069758463   2    1000022    14
    0.00012169917   2    1000023    14

DECAY 1000016  46.997064
    0.61977212   2    1000037    15
    0.31063511   2    1000025    16
    0.042392501   2    1000024    15
    0.021485128   2    1000035    16
    0.0039411254   2    1000015    37
    0.00097304907   2    1000015    24
    0.00068199332   2    1000022    16
    0.00011897673   2    1000023    16

DECAY 1000001  108.95654
    0.82811731   2    1000021    1
    0.11441211   2   -1000037    2
    0.057099842   2    1000025    1
    0.00021529551   2    1000022    1
    0.00010339509   2   -1000024    2

DECAY 2000001  157.90958
    0.99974418   2    1000021    1
    0.00025343438   2    1000035    1

DECAY 1000003  108.95871
    0.82810048   2    1000021    3
    0.1144098   2   -1000037    4
    0.05709869   2    1000025    3
    0.00022060266   2    1000022    3
    0.00011308423   2   -1000024    4

DECAY 2000003  157.91241
    0.99972602   2    1000021    3
    0.00025342914   2    1000035    3

DECAY 1000005  148.44028
    0.33456906   2    1000006   -24
    0.32027628   2   -1000024    6
    0.25935778   2    1000021    5
    0.044030291   2   -1000037    6
    0.021675069   2    1000025    5
    0.008693612   2    1000022    5
    0.0085573181   2    1000023    5
    0.0028405953   2    1000006   -37

DECAY 2000005  127.96274
    0.94465589   2    1000021    5
    0.027220489   2   -1000024    6
    0.013684314   2    1000022    5
    0.013661769   2    1000023    5
    0.00026197331   2    2000006   -24
    0.00023384022   2    1000005    25
    0.00014481245   2    1000005    23

DECAY 1000002  108.91324
    0.82765561   2    1000021    2
    0.1139055   2    1000037    1
    0.057063424   2    1000025    2
    0.0010604625   2    1000024    1
    0.00024025816   2    1000022    2

DECAY 2000002  196.77059
    0.99624055   2    1000021    2
    0.0037511524   2    1000035    2

DECAY 1000004  108.91532
    0.82763867   2    1000021    4
    0.11390329   2    1000037    3
    0.057062243   2    1000025    4
    0.0010710587   2    1000024    3
    0.00024511888   2    1000022    4

DECAY 2000004  196.77342
    0.99622569   2    1000021    4
    0.0037510875   2    1000035    4

DECAY 1000006  54.671007
    0.50311702   2    1000024    5
    0.24934422   2    1000023    6
    0.24752551   2    1000022    6

DECAY 2000006  161.03514
    0.2236719   2    1000021    6
    0.22133158   2    1000006    25
    0.16076853   2    1000006    23
    0.15288567   2    1000022    6
    0.15251825   2    1000023    6
    0.038902772   2    1000037    5
    0.028952468   2    1000024    5
    0.018479313   2    1000025    6
    0.0013776248   2    1000006    36
    0.0011119019   2    1000006    35

DECAY 1000024  3.0834105e-12
    0.60577132   3    1000022   -1    2
    0.2019517   3    1000022   -11    12
    0.19227698   3    1000022   -13    14

DECAY 1000037  28.743406
    0.13057609   2    1000024    35
    0.13052948   2    1000024    36
    0.12981742   2    37    1000023
    0.12476322   2    1000024    25
    0.12147999   2    1000022    24
    0.12118155   2    1000023    24
    0.1206425   2    1000024    23
    0.10670319   2    37    1000022
    0.0051526111   3    1000022   -5    6
    0.0050519124   3    1000024    6   -6
    0.004041125   3    1000023   -5    6

DECAY 1000022 -1


DECAY 1000023  4.8511973e-09
    0.93139264   2    1000022    22
    0.019164064   3    1000022    12   -12
    0.014329936   3    1000022    1   -1
    0.014118852   3    1000022    3   -3
    0.011176547   3    1000022    2   -2
    0.0032339943   3    1000022    11   -11
    0.003159255   3    1000022    13   -13
    0.001015133   3    1000024    1   -2
    0.001015133   3   -1000024   -1    2
    0.00033839809   3    1000024    11   -12
    0.00033839809   3   -1000024   -11    12
    0.00033117391   3    1000024    13   -14
    0.00033117391   3   -1000024   -13    14

DECAY 1000025  30.520698
    0.12556601   2    1000023    25
    0.11504212   2    1000024   -24
    0.11504212   2   -1000024    24
    0.10939085   2    1000022    35
    0.099899749   2    37   -1000024
    0.099899749   2   -37    1000024
    0.091763436   2    1000022    25
    0.090100962   2    1000023    23
    0.080830744   2    1000023    35
    0.024700836   2    1000022    23
    0.018792395   2    1000023    36
    0.014201951   2    1000022    36
    0.0052149764   3    1000024    5   -6
    0.0052149764   3   -1000024   -5    6
    0.0024100655   3    1000023    6   -6
    0.0019095878   3    1000022    6   -6

DECAY 1000035  50.087007
    0.11826162   2    1000006   -6
    0.11826162   2   -1000006    6
    0.06962411   2    1000015   -15
    0.06962411   2   -1000015    15
    0.051761635   2    2000011   -11
    0.051761635   2   -2000011    11
    0.05176162   2    2000013   -13
    0.05176162   2   -2000013    13
    0.051436768   2    1000024   -24
    0.051436768   2   -1000024    24
    0.040945813   2    37   -1000024
    0.040945813   2   -37    1000024
    0.038500508   2    1000022    23
    0.035889195   2    1000023    25
    0.034728982   2    1000022    35
    0.026372324   2    1000022    25
    0.025619158   2    1000023    35
    0.015184571   2    1000023    36
    0.012952759   2    1000023    23
    0.011424422   2    1000022    36
    0.0052255529   2    2000006   -6
    0.0052255529   2   -2000006    6
    0.002849196   3    1000024    5   -6
    0.002849196   3   -1000024   -5    6
    0.0028381392   2    1000005   -5
    0.0028381392   2   -1000005    5
    0.0022544245   3    1000023    6   -6
    0.0019715819   3    1000022    6   -6
    0.00057599438   2    1000003   -3
    0.00057599438   2   -1000003    3
    0.0005759935   2    1000001   -1
    0.0005759935   2   -1000001    1
    0.00057573586   2    1000004   -4
    0.00057573586   2   -1000004    4
    0.00057573514   2    1000002   -2
    0.00057573514   2   -1000002    2
    0.00032610574   3    1000021    6   -6
    0.0001121991   2    2000005   -5
    0.0001121991   2   -2000005    5

DECAY 1000021  0.60156505
    0.25591348   3    1000024    5   -6
    0.25591348   3   -1000024   -5    6
    0.24120368   3    1000023    6   -6
    0.24049962   3    1000022    6   -6
    0.0024969309   2    1000022    21
    0.0024438062   2    1000023    21
    0.00074716077   3    1000022    5   -5
    0.00073635546   3    1000023    5   -5

DECAY 25  0.00431354
    0.62132867   2   -5    5
    0.19224499   2   -24    24
    0.07094535   2   -15    15
    0.063447153   2    21    21
    0.025235917   2   -4    4
    0.022982353   2    23    23
    0.0020657912   2    22    22
    0.0012720247   2    22    23
    0.00024605971   2   -13    13
    0.00023091481   2   -3    3
    6.3844537e-07   2   -1    1
    1.3004795e-07   2   -2    2
    5.5317038e-09   2   -11    11

DECAY 35  1.7995557
    0.8461412   2   -5    5
    0.11969955   2   -15    15
    0.027341372   2   -6    6
    0.0045878559   2    25    25
    0.00084830197   2   -24    24
    0.00041469449   2   -13    13
    0.00039754579   2    23    23
    0.00030201667   2   -3    3
    0.00026526807   2    21    21
    9.5089639e-07   2   -4    4
    8.3493654e-07   2   -1    1
    3.252056e-07   2    22    22
    7.7315168e-08   2    22    23
    9.3190025e-09   2   -11    11
    4.9046314e-12   2   -2    2

DECAY 36  1.8067301
    0.8347306   2   -5    5
    0.11806734   2   -15    15
    0.045453811   2   -6    6
    0.00067222512   2    23    25
    0.0004090172   2   -13    13
    0.00036674699   2    21    21
    0.0002979063   2   -3    3
    8.2357321e-07   2   -1    1
    7.6252966e-07   2   -4    4
    6.0269854e-07   2    22    22
    1.6134358e-07   2    22    23
    9.191421e-09   2   -11    11
    3.9349086e-12   2   -2    2
    4.2949242e-35   2    25    25

DECAY 37  1.4077629
    0.85018873   2   -5    6
    0.14641883   2   -15    16
    0.0014814819   2   -5    4
    0.00093568193   2    24    25
    0.00051765605   2   -13    14
    0.00033725325   2   -3    4
    8.9282639e-05   2   -3    6
    1.5366125e-05   2   -3    2
    1.0579438e-05   2   -5    2
    4.0778184e-06   2   -1    6
    9.3277165e-07   2   -1    2
    9.085346e-08   2   -1    4
    1.2960157e-08   2    24    36
    1.210803e-08   2   -11    12
    1.1158664e-08   2    24    35

DECAY 6  2.43
    1   2    5    24

DECAY 15 -1
