# SUSY Les Houches Accord 2 - MSSM spectrum + Decays
# SPheno v4.0.5be
# W. Porod, Comput. Phys. Commun. 153 (2003) 275-315, hep-ph/0301101;
# W. Porod, F.~Staub, Comput. Phys. Commun. 183 (2012) 2458
#                     arXiv:1104.1573 [hep-ph] 
# in case of problems send email to porod@physik.uni-wuerzburg.de
# Created: 07.09.2021,  18:27
Block SPINFO         # Program information
     1   SPheno      # spectrum calculator
     2   v4.0.5be    # version number
#
Block SPhenoINFO     # SPheno specific information
    1      2         # using 2-loop RGEs
    2      2         # using pole masses for boundary conditions at mZ
Block MODSEL  # Model selection
    1    0    # general MSSM
Block MINPAR  # Input parameters
    3    2.19964071E+01  # tanb at m_Z    
    4    1.00000000E+00  # Sign(mu)
Block EXTPAR  # non-universal input parameters
    0    2.54795158E+03  # scale for input parameters
    1    2.68252713E+02  # M_1
    2   -5.93158900E+02  # M_2
    3    1.70382783E+03  # M_3
   11   -7.08548416E+03  # A_t
   12    1.72917829E+03  # A_b
   13    1.24789775E+03  # A_tau
   23    2.92943672E+02  # mu
   25    2.11476250E+01  # tan(beta)
   26    4.39931414E+03  # m_A, pole mass
   31    1.00000000E+04  # M_L11
   32    1.00000000E+04  # M_L22
   33    1.00000000E+04  # M_L33
   34    1.00000000E+04  # M_E11
   35    1.00000000E+04  # M_E22
   36    1.00000000E+04  # M_E33
   41    1.00000000E+04  # M_Q11
   42    1.00000000E+04  # M_Q22
   43    2.55406112E+03  # M_Q33
   44    1.00000000E+04  # M_U11
   45    1.00000000E+04  # M_U22
   46    2.74531693E+03  # M_U33
   47    1.00000000E+04  # M_D11
   48    1.00000000E+04  # M_D22
   49    3.33084465E+03  # M_D33
Block SMINPUTS  # SM parameters
         1     1.27908970E+02  # alpha_em^-1(MZ)^MSbar
         2     1.16637870E-05  # G_mu [GeV^-2]
         3     1.18400000E-01  # alpha_s(MZ)^MSbar
         4     9.11876000E+01  # m_Z(pole)
         5     4.18000000E+00  # m_b(m_b), MSbar
         6     1.73200000E+02  # m_t(pole)
         7     1.77700000E+00  # m_tau(pole)
         8     0.00000000E+00  # m_nu_3
        11     5.10998930E-04  # m_e(pole)
        12     0.00000000E+00  # m_nu_1
        13     1.05658372E-01  # m_muon(pole)
        14     0.00000000E+00  # m_nu_2
        21     5.00000000E-03  # m_d(2 GeV), MSbar
        22     2.50000000E-03  # m_u(2 GeV), MSbar
        23     9.50000000E-02  # m_s(2 GeV), MSbar
        24     1.27000000E+00  # m_c(m_c), MSbar
Block gauge Q=  2.54795158E+03  # (SUSY scale)
   1    3.55362975E-01  # g'(Q)^DRbar
   2    6.65198874E-01  # g(Q)^DRbar
   3    1.21977796E+00  # g3(Q)^DRbar
Block Yu Q=  2.54795158E+03  # (SUSY scale)
  1  1     8.39374074E-06   # Y_u(Q)^DRbar
  2  2     4.26402029E-03   # Y_c(Q)^DRbar
  3  3     1.01403130E+00   # Y_t(Q)^DRbar
Block Yd Q=  2.54795158E+03  # (SUSY scale)
  1  1     3.56695310E-04   # Y_d(Q)^DRbar
  2  2     6.77721089E-03   # Y_s(Q)^DRbar
  3  3     3.53729975E-01   # Y_b(Q)^DRbar
Block Ye Q=  2.54795158E+03  # (SUSY scale)
  1  1     6.22459399E-05   # Y_e(Q)^DRbar
  2  2     1.28704862E-02   # Y_mu(Q)^DRbar
  3  3     2.16460405E-01   # Y_tau(Q)^DRbar
Block Au Q=  2.54795158E+03  # (SUSY scale)
  1  1     0.00000000E+00   # A_u(Q)^DRbar
  2  2     0.00000000E+00   # A_c(Q)^DRbar
  3  3    -7.08548402E+03   # A_t(Q)^DRbar
Block Ad Q=  2.54795158E+03  # (SUSY scale)
  1  1     0.00000000E+00   # A_d(Q)^DRbar
  2  2     0.00000000E+00   # A_s(Q)^DRbar
  3  3     1.72917832E+03   # A_b(Q)^DRbar
Block Ae Q=  2.54795158E+03  # (SUSY scale)
  1  1     0.00000000E+00   # A_e(Q)^DRbar
  2  2     0.00000000E+00   # A_mu(Q)^DRbar
  3  3     1.24789776E+03   # A_tau(Q)^DRbar
Block MSOFT Q=  2.54795158E+03  # soft SUSY breaking masses at Q
   1    2.68252713E+02  # M_1
   2   -5.93158900E+02  # M_2
   3    1.70382783E+03  # M_3
  21    1.91134119E+07  # M^2_(H,d)
  22    9.06262093E+04  # M^2_(H,u)
  31    1.00000000E+04  # M_(L,11)
  32    1.00000000E+04  # M_(L,22)
  33    1.00000000E+04  # M_(L,33)
  34    1.00000000E+04  # M_(E,11)
  35    1.00000000E+04  # M_(E,22)
  36    1.00000000E+04  # M_(E,33)
  41    1.00000000E+04  # M_(Q,11)
  42    1.00000000E+04  # M_(Q,22)
  43    2.55406112E+03  # M_(Q,33)
  44    1.00000000E+04  # M_(U,11)
  45    1.00000000E+04  # M_(U,22)
  46    2.74531693E+03  # M_(U,33)
  47    1.00000000E+04  # M_(D,11)
  48    1.00000000E+04  # M_(D,22)
  49    3.33084465E+03  # M_(D,33)
Block MASS  # Mass spectrum
#   PDG code      mass          particle
         6     1.73200000E+02  # m_t(pole)
        23     9.11876000E+01  # m_Z(pole)
        24     8.04299946E+01  # W+
        15     1.77700000E+00  # m_tau(pole)
        25     1.26769985E+02  # h0
        35     4.39861382E+03  # H0
        36     4.39931414E+03  # A0
        37     4.39926574E+03  # H+
   1000001     1.01172033E+04  # ~d_L
   2000001     1.00921407E+04  # ~d_R
   1000002     1.01168514E+04  # ~u_L
   2000002     1.00956836E+04  # ~u_R
   1000003     1.01172067E+04  # ~s_L
   2000003     1.00921454E+04  # ~s_R
   1000004     1.01168548E+04  # ~c_L
   2000004     1.00956855E+04  # ~c_R
   1000005     2.52270281E+03  # ~b_1
   2000005     3.37527469E+03  # ~b_2
   1000006     2.37343621E+03  # ~t_1
   2000006     2.73529881E+03  # ~t_2
   1000011     1.00213313E+04  # ~e_L-
   2000011     1.00085370E+04  # ~e_R-
   1000012     1.00205755E+04  # ~nu_eL
   1000013     1.00213438E+04  # ~mu_L-
   2000013     1.00085611E+04  # ~mu_R-
   1000014     1.00205879E+04  # ~nu_muL
   1000015     1.00154193E+04  # ~tau_1-
   2000015     1.00248901E+04  # ~tau_2-
   1000016     1.00241125E+04  # ~nu_tauL
   1000021     2.06199509E+03  # ~g
   1000022     2.51675268E+02  # ~chi_10
   1000023     2.93265290E+02  # ~chi_20
   1000025     3.24268318E+02  # ~chi_30
   1000035     6.57527109E+02  # ~chi_40
   1000024     2.95400220E+02  # ~chi_1+
   1000037     6.57617862E+02  # ~chi_2+
# Higgs mixing
Block alpha # Effective Higgs mixing angle
          -4.54837428E-02   # alpha
Block Hmix Q=  2.54795158E+03  # Higgs mixing parameters
   1    2.92943672E+02  # mu
   2    2.11476250E+01  # tan[beta](Q)
   3    2.43355758E+02  # v(Q)
   4    1.93539649E+07  # m^2_A(Q)
Block stopmix # stop mixing matrix
   1  1     7.88660652E-01   # Re[R_st(1,1)]
   1  2     6.14828737E-01   # Re[R_st(1,2)]
   2  1    -6.14828737E-01   # Re[R_st(2,1)]
   2  2     7.88660652E-01   # Re[R_st(2,2)]
Block sbotmix # sbottom mixing matrix
   1  1     9.99998049E-01   # Re[R_sb(1,1)]
   1  2     1.97510227E-03   # Re[R_sb(1,2)]
   2  1    -1.97510227E-03   # Re[R_sb(2,1)]
   2  2     9.99998049E-01   # Re[R_sb(2,2)]
Block staumix # stau mixing matrix
   1  1     4.66082297E-02   # Re[R_sta(1,1)]
   1  2     9.98913246E-01   # Re[R_sta(1,2)]
   2  1    -9.98913246E-01   # Re[R_sta(2,1)]
   2  2     4.66082297E-02   # Re[R_sta(2,2)]
Block Nmix # neutralino mixing matrix
   1  1    -8.39188517E-01   # Re[N(1,1)]
   1  2    -3.38198509E-02   # Re[N(1,2)]
   1  3    -4.12643972E-01   # Re[N(1,3)]
   1  4     3.52624167E-01   # Re[N(1,4)]
   2  1     5.15270346E-02   # Re[N(2,1)]
   2  2     1.50688350E-01   # Re[N(2,2)]
   2  3    -7.06448842E-01   # Re[N(2,3)]
   2  4    -6.89614399E-01   # Re[N(2,4)]
   3  1     5.41346466E-01   # Re[N(3,1)]
   3  2    -5.36790640E-02   # Re[N(3,2)]
   3  3    -5.71602083E-01   # Re[N(3,3)]
   3  4     6.14274874E-01   # Re[N(3,4)]
   4  1     7.18344783E-03   # Re[N(4,1)]
   4  2    -9.86543358E-01   # Re[N(4,2)]
   4  3    -6.26581566E-02   # Re[N(4,3)]
   4  4    -1.50846136E-01   # Re[N(4,4)]
Block Umix # chargino mixing matrix
   1  1    -8.91547683E-02   # Re[U(1,1)]
   1  2     9.96017785E-01   # Re[U(1,2)]
   2  1    -9.96017785E-01   # Re[U(2,1)]
   2  2    -8.91547683E-02   # Re[U(2,2)]
Block Vmix # chargino mixing matrix
   1  1     2.14319184E-01   # Re[V(1,1)]
   1  2     9.76763681E-01   # Re[V(1,2)]
   2  1     9.76763681E-01   # Re[V(2,1)]
   2  2    -2.14319184E-01   # Re[V(2,2)]
DECAY        23     2.49520000E+00   # Z
DECAY        24     2.08500000E+00   # W
DECAY   2000011     5.02132945E+01   # ~e^-_R
#    BR                NDA      ID1      ID2
     7.04410857E-01    2     1000022        11   # BR(~e^-_R -> chi^0_1 e^-)
     2.65449466E-03    2     1000023        11   # BR(~e^-_R -> chi^0_2 e^-)
     2.92883398E-01    2     1000025        11   # BR(~e^-_R -> chi^0_3 e^-)
DECAY   1000011     1.43776050E+02   # ~e^-_L
#    BR                NDA      ID1      ID2
     7.12238404E-02    2     1000022        11   # BR(~e^-_L -> chi^0_1 e^-)
     9.72718678E-03    2     1000023        11   # BR(~e^-_L -> chi^0_2 e^-)
     1.69818706E-02    2     1000025        11   # BR(~e^-_L -> chi^0_3 e^-)
     2.93725537E-01    2     1000035        11   # BR(~e^-_L -> chi^0_4 e^-)
     4.86862286E-03    2    -1000024        12   # BR(~e^-_L -> chi^-_1 nu_e)
     6.03472942E-01    2    -1000037        12   # BR(~e^-_L -> chi^-_2 nu_e)
#    BR                NDA      ID1      ID2       ID3
DECAY   2000013     5.02792622E+01   # ~mu^-_R
#    BR                NDA      ID1      ID2
     7.03599896E-01    2     1000022        13   # BR(~mu^-_R -> chi^0_1 mu^-)
     2.97783899E-03    2     1000023        13   # BR(~mu^-_R -> chi^0_2 mu^-)
     2.92713724E-01    2     1000025        13   # BR(~mu^-_R -> chi^0_3 mu^-)
     6.49650849E-04    2    -1000024        14   # BR(~mu^-_R -> chi^-_1 nu_mu)
DECAY   1000013     1.43809197E+02   # ~mu^-_L
#    BR                NDA      ID1      ID2
     7.12465671E-02    2     1000022        13   # BR(~mu^-_L -> chi^0_1 mu^-)
     9.83936620E-03    2     1000023        13   # BR(~mu^-_L -> chi^0_2 mu^-)
     1.70528493E-02    2     1000025        13   # BR(~mu^-_L -> chi^0_3 mu^-)
     2.93659102E-01    2     1000035        13   # BR(~mu^-_L -> chi^0_4 mu^-)
     4.86750674E-03    2    -1000024        14   # BR(~mu^-_L -> chi^-_1 nu_mu)
     6.03334609E-01    2    -1000037        14   # BR(~mu^-_L -> chi^-_2 nu_mu)
#    BR                NDA      ID1      ID2       ID3
DECAY   1000015     6.90717926E+01   # ~tau^-_1
#    BR                NDA      ID1      ID2
     5.39304705E-01    2     1000022        15   # BR(~tau^-_1 -> chi^0_1 tau^-)
     7.16862569E-02    2     1000023        15   # BR(~tau^-_1 -> chi^0_2 tau^-)
     2.51401447E-01    2     1000025        15   # BR(~tau^-_1 -> chi^0_3 tau^-)
     2.08120197E-04    2     1000035        15   # BR(~tau^-_1 -> chi^0_4 tau^-)
     1.37014463E-01    2    -1000024        16   # BR(~tau^-_1 -> chi^-_1 nu_tau)
     3.85007648E-04    2    -1000037        16   # BR(~tau^-_1 -> chi^-_2 nu_tau)
DECAY   2000015     1.52970316E+02   # ~tau^-_2
#    BR                NDA      ID1      ID2
     7.56020718E-02    2     1000022        15   # BR(~tau^-_2 -> chi^0_1 tau^-)
     3.84891607E-02    2     1000023        15   # BR(~tau^-_2 -> chi^0_2 tau^-)
     3.84760557E-02    2     1000025        15   # BR(~tau^-_2 -> chi^0_3 tau^-)
     2.76569625E-01    2     1000035        15   # BR(~tau^-_2 -> chi^0_4 tau^-)
     3.14953612E-03    2    -1000024        16   # BR(~tau^-_2 -> chi^-_1 nu_tau)
     5.67713551E-01    2    -1000037        16   # BR(~tau^-_2 -> chi^-_2 nu_tau)
#    BR                NDA      ID1      ID2       ID3
DECAY   1000012     1.43781167E+02   # ~nu_e
#    BR                NDA      ID1      ID2
     5.26354099E-02    2     1000022        12   # BR(~nu_e -> chi^0_1 nu_e)
     4.64515050E-03    2     1000023        12   # BR(~nu_e -> chi^0_2 nu_e)
     3.59883394E-02    2     1000025        12   # BR(~nu_e -> chi^0_3 nu_e)
     2.98298035E-01    2     1000035        12   # BR(~nu_e -> chi^0_4 nu_e)
     2.81313666E-02    2     1000024        11   # BR(~nu_e -> chi^+_1 e^-)
     5.80301698E-01    2     1000037        11   # BR(~nu_e -> chi^+_2 e^-)
#    BR                NDA      ID1      ID2       ID3
DECAY   1000014     1.43814311E+02   # ~nu_mu
#    BR                NDA      ID1      ID2
     5.26233447E-02    2     1000022        14   # BR(~nu_mu -> chi^0_1 nu_mu)
     4.64408575E-03    2     1000023        14   # BR(~nu_mu -> chi^0_2 nu_mu)
     3.59800902E-02    2     1000025        14   # BR(~nu_mu -> chi^0_3 nu_mu)
     2.98229665E-01    2     1000035        14   # BR(~nu_mu -> chi^0_4 nu_mu)
     2.83523161E-02    2     1000024        13   # BR(~nu_mu -> chi^+_1 mu^-)
     5.80170498E-01    2     1000037        13   # BR(~nu_mu -> chi^+_2 mu^-)
#    BR                NDA      ID1      ID2       ID3
DECAY   1000016     1.53159988E+02   # ~nu_tau
#    BR                NDA      ID1      ID2
     4.94297422E-02    2     1000022        16   # BR(~nu_tau -> chi^0_1 nu_tau)
     4.36224712E-03    2     1000023        16   # BR(~nu_tau -> chi^0_2 nu_tau)
     3.37965523E-02    2     1000025        16   # BR(~nu_tau -> chi^0_3 nu_tau)
     2.80132175E-01    2     1000035        16   # BR(~nu_tau -> chi^0_4 nu_tau)
     8.68370342E-02    2     1000024        15   # BR(~nu_tau -> chi^+_1 tau^-)
     5.45442250E-01    2     1000037        15   # BR(~nu_tau -> chi^+_2 tau^-)
#    BR                NDA      ID1      ID2       ID3
DECAY   2000001     7.37111282E+02   # ~d_R
#    BR                NDA      ID1      ID2
     5.37639821E-03    2     1000022         1   # BR(~d_R -> chi^0_1 d)
     2.23546487E-03    2     1000025         1   # BR(~d_R -> chi^0_3 d)
     9.92367433E-01    2     1000021         1   # BR(~d_R -> ~g d)
DECAY   1000001     8.67506636E+02   # ~d_L
#    BR                NDA      ID1      ID2
     6.85335067E-04    2     1000022         1   # BR(~d_L -> chi^0_1 d)
     1.02626155E-03    2     1000023         1   # BR(~d_L -> chi^0_2 d)
     1.15382242E-03    2     1000025         1   # BR(~d_L -> chi^0_3 d)
     4.96674832E-02    2     1000035         1   # BR(~d_L -> chi^0_4 d)
     8.14646485E-04    2    -1000024         2   # BR(~d_L -> chi^-_1 u)
     1.00989787E-01    2    -1000037         2   # BR(~d_L -> chi^-_2 u)
     8.45662665E-01    2     1000021         1   # BR(~d_L -> ~g d)
DECAY   2000003     7.37130045E+02   # ~s_R
#    BR                NDA      ID1      ID2
     5.37838530E-03    2     1000022         3   # BR(~s_R -> chi^0_1 s)
     2.23947707E-03    2     1000025         3   # BR(~s_R -> chi^0_3 s)
     9.92342717E-01    2     1000021         3   # BR(~s_R -> ~g s)
DECAY   1000003     8.67519826E+02   # ~s_L
#    BR                NDA      ID1      ID2
     6.87132064E-04    2     1000022         3   # BR(~s_L -> chi^0_1 s)
     1.03154078E-03    2     1000023         3   # BR(~s_L -> chi^0_2 s)
     1.15727045E-03    2     1000025         3   # BR(~s_L -> chi^0_3 s)
     4.96667867E-02    2     1000035         3   # BR(~s_L -> chi^0_4 s)
     8.18651193E-04    2    -1000024         4   # BR(~s_L -> chi^-_1 c)
     1.00988479E-01    2    -1000037         4   # BR(~s_L -> chi^-_2 c)
     8.45650140E-01    2     1000021         3   # BR(~s_L -> ~g s)
DECAY   1000005     1.13158740E+02   # ~b_1
#    BR                NDA      ID1      ID2
     1.05943446E-02    2     1000022         5   # BR(~b_1 -> chi^0_1 b)
     2.88832023E-02    2     1000023         5   # BR(~b_1 -> chi^0_2 b)
     1.96253006E-02    2     1000025         5   # BR(~b_1 -> chi^0_3 b)
     8.33626244E-02    2     1000035         5   # BR(~b_1 -> chi^0_4 b)
     4.19855884E-01    2    -1000024         6   # BR(~b_1 -> chi^-_1 t)
     1.89502860E-01    2    -1000037         6   # BR(~b_1 -> chi^-_2 t)
     1.93837519E-01    2     1000021         5   # BR(~b_1 -> ~g b)
     5.43382649E-02    2     1000006       -24   # BR(~b_1 -> ~t_1 W^-)
DECAY   2000005     1.23042308E+02   # ~b_2
#    BR                NDA      ID1      ID2
     2.20991582E-02    2     1000022         5   # BR(~b_2 -> chi^0_1 b)
     3.35764002E-02    2     1000023         5   # BR(~b_2 -> chi^0_2 b)
     2.63803983E-02    2     1000025         5   # BR(~b_2 -> chi^0_3 b)
     2.69901885E-04    2     1000035         5   # BR(~b_2 -> chi^0_4 b)
     6.63164529E-02    2    -1000024         6   # BR(~b_2 -> chi^-_1 t)
     5.42185611E-04    2    -1000037         6   # BR(~b_2 -> chi^-_2 t)
     8.50642078E-01    2     1000021         5   # BR(~b_2 -> ~g b)
DECAY   2000002     7.54298687E+02   # ~u_R
#    BR                NDA      ID1      ID2
     2.10229407E-02    2     1000022         2   # BR(~u_R -> chi^0_1 u)
     8.74114683E-03    2     1000025         2   # BR(~u_R -> chi^0_3 u)
     9.70155160E-01    2     1000021         2   # BR(~u_R -> ~g u)
DECAY   1000002     8.67496982E+02   # ~u_L
#    BR                NDA      ID1      ID2
     1.72172830E-03    2     1000022         2   # BR(~u_L -> chi^0_1 u)
     1.30963862E-03    2     1000023         2   # BR(~u_L -> chi^0_2 u)
     4.94093505E-02    2     1000035         2   # BR(~u_L -> chi^0_4 u)
     4.70754518E-03    2     1000024         1   # BR(~u_L -> chi^+_1 d)
     9.71206869E-02    2     1000037         1   # BR(~u_L -> chi^+_2 d)
     8.45637562E-01    2     1000021         2   # BR(~u_L -> ~g u)
DECAY   2000004     7.54306111E+02   # ~c_R
#    BR                NDA      ID1      ID2
     2.10233366E-02    2     1000022         4   # BR(~c_R -> chi^0_1 c)
     8.74288737E-03    2     1000025         4   # BR(~c_R -> chi^0_3 c)
     9.70145786E-01    2     1000021         4   # BR(~c_R -> ~g c)
DECAY   1000004     8.67510138E+02   # ~c_L
#    BR                NDA      ID1      ID2
     1.72222699E-03    2     1000022         4   # BR(~c_L -> chi^0_1 c)
     1.31162270E-03    2     1000023         4   # BR(~c_L -> chi^0_2 c)
     4.94087088E-02    2     1000035         4   # BR(~c_L -> chi^0_4 c)
     4.71800022E-03    2     1000024         3   # BR(~c_L -> chi^+_1 s)
     9.71193304E-02    2     1000037         3   # BR(~c_L -> chi^+_2 s)
     8.45625035E-01    2     1000021         4   # BR(~c_L -> ~g c)
DECAY   1000006     9.85432078E+01   # ~t_1
#    BR                NDA      ID1      ID2
     1.05547184E-01    2     1000022         6   # BR(~t_1 -> chi^0_1 t)
     2.04805360E-01    2     1000023         6   # BR(~t_1 -> chi^0_2 t)
     1.35563657E-01    2     1000025         6   # BR(~t_1 -> chi^0_3 t)
     8.91937029E-02    2     1000035         6   # BR(~t_1 -> chi^0_4 t)
     1.50300675E-01    2     1000024         5   # BR(~t_1 -> chi^+_1 b)
     1.70698218E-01    2     1000037         5   # BR(~t_1 -> chi^+_2 b)
     2.51759893E-03    2     1000021         4   # BR(~t_1 -> ~g c)
     1.40469046E-01    2     1000021         6   # BR(~t_1 -> ~g t)
#    BR                NDA      ID1      ID2       ID3
     7.70049131E-04    3     1000022        24         5   # BR(~t_1 -> chi^0_1 W^+ b)
DECAY   2000006     1.77063003E+02   # ~t_2
#    BR                NDA      ID1      ID2
     3.36288778E-02    2     1000022         6   # BR(~t_2 -> chi^0_1 t)
     1.60086578E-01    2     1000023         6   # BR(~t_2 -> chi^0_2 t)
     1.52217084E-01    2     1000025         6   # BR(~t_2 -> chi^0_3 t)
     9.32840977E-03    2     1000035         6   # BR(~t_2 -> chi^0_4 t)
     2.40721020E-01    2     1000024         5   # BR(~t_2 -> chi^+_1 b)
     1.42937149E-02    2     1000037         5   # BR(~t_2 -> chi^+_2 b)
     1.70317553E-01    2     1000021         6   # BR(~t_2 -> ~g t)
     7.86104200E-02    2     1000005        24   # BR(~t_2 -> ~b_1 W^+)
     1.26330394E-01    2     1000006        23   # BR(~t_2 -> ~t_1 Z)
     1.44659475E-02    2     1000006        25   # BR(~t_2 -> ~t_1 h^0)
DECAY   1000024     6.41078146E-05   # chi^+_1
#    BR                NDA      ID1      ID2       ID3
     3.34039785E-01    3     1000022        -1         2   # BR(chi^+_1 -> chi^0_1 d_bar u)
     3.32816189E-01    3     1000022        -3         4   # BR(chi^+_1 -> chi^0_1 s_bar c)
     1.11344641E-01    3     1000022       -11        12   # BR(chi^+_1 -> chi^0_1 e^+ nu_e)
     1.11344086E-01    3     1000022       -13        14   # BR(chi^+_1 -> chi^0_1 mu^+ nu_mu)
     1.10453461E-01    3     1000022       -15        16   # BR(chi^+_1 -> chi^0_1 tau^+ nu_tau)
DECAY   1000037     4.84547772E+00   # chi^+_2
#    BR                NDA      ID1      ID2
     9.59288482E-02    2     1000022        24   # BR(chi^+_2 -> chi^0_1 W^+)
     2.76929273E-01    2     1000023        24   # BR(chi^+_2 -> chi^0_2 W^+)
     1.57533748E-01    2     1000025        24   # BR(chi^+_2 -> chi^0_3 W^+)
     2.47022216E-01    2     1000024        23   # BR(chi^+_2 -> chi^+_1 Z)
     2.20461087E-01    2     1000024        25   # BR(chi^+_2 -> chi^+_1 h^0)
#    BR                NDA      ID1      ID2       ID3
     4.56266132E-04    3     1000022        -5         6   # BR(chi^+_2 -> chi^0_1 b_bar t)
     1.22567187E-03    3     1000023        -5         6   # BR(chi^+_2 -> chi^0_2 b_bar t)
     4.31078283E-04    3     1000025        -5         6   # BR(chi^+_2 -> chi^0_3 b_bar t)
DECAY   1000022     0.00000000E+00   # chi^0_1
DECAY   1000023     1.23302864E-04   # chi^0_2
#    BR                NDA      ID1      ID2
     1.93270744E-02    2     1000022        22   # BR(chi^0_2 -> chi^0_1 photon)
#    BR                NDA      ID1      ID2       ID3
     1.18397165E-01    3     1000022         2        -2   # BR(chi^0_2 -> chi^0_1 u u_bar)
     1.17053203E-01    3     1000022         4        -4   # BR(chi^0_2 -> chi^0_1 c c_bar)
     1.51807967E-01    3     1000022         1        -1   # BR(chi^0_2 -> chi^0_1 d d_bar)
     1.51799685E-01    3     1000022         3        -3   # BR(chi^0_2 -> chi^0_1 s s_bar)
     1.36666947E-01    3     1000022         5        -5   # BR(chi^0_2 -> chi^0_1 b b_bar)
     3.42576011E-02    3     1000022        11       -11   # BR(chi^0_2 -> chi^0_1 e^- e^+)
     3.42546194E-02    3     1000022        13       -13   # BR(chi^0_2 -> chi^0_1 mu^- mu^+)
     3.34279034E-02    3     1000022        15       -15   # BR(chi^0_2 -> chi^0_1 tau^- tau^+)
     2.03007835E-01    3     1000022        12       -12   # BR(chi^0_2 -> chi^0_1 nu_e nu_bar_e)
DECAY   1000025     1.09193116E-04   # chi^0_3
#    BR                NDA      ID1      ID2
     8.71939322E-04    2     1000022        22   # BR(chi^0_3 -> chi^0_1 photon)
     3.18966667E-02    2     1000023        22   # BR(chi^0_3 -> chi^0_2 photon)
#    BR                NDA      ID1      ID2       ID3
     4.85729190E-03    3     1000022         2        -2   # BR(chi^0_3 -> chi^0_1 u u_bar)
     4.84520181E-03    3     1000022         4        -4   # BR(chi^0_3 -> chi^0_1 c c_bar)
     6.22405021E-03    3     1000022         1        -1   # BR(chi^0_3 -> chi^0_1 d d_bar)
     6.22398744E-03    3     1000022         3        -3   # BR(chi^0_3 -> chi^0_1 s s_bar)
     6.12983415E-03    3     1000022         5        -5   # BR(chi^0_3 -> chi^0_1 b b_bar)
     1.40141974E-03    3     1000022        11       -11   # BR(chi^0_3 -> chi^0_1 e^- e^+)
     1.40140400E-03    3     1000022        13       -13   # BR(chi^0_3 -> chi^0_1 mu^- mu^+)
     1.39638448E-03    3     1000022        15       -15   # BR(chi^0_3 -> chi^0_1 tau^- tau^+)
     8.32925065E-03    3     1000022        12       -12   # BR(chi^0_3 -> chi^0_1 nu_e nu_bar_e)
     7.17178272E-02    3     1000023         2        -2   # BR(chi^0_3 -> chi^0_2 u u_bar)
     7.01909850E-02    3     1000023         4        -4   # BR(chi^0_3 -> chi^0_2 c c_bar)
     9.19565239E-02    3     1000023         1        -1   # BR(chi^0_3 -> chi^0_2 d d_bar)
     9.19470049E-02    3     1000023         3        -3   # BR(chi^0_3 -> chi^0_2 s s_bar)
     7.52701516E-02    3     1000023         5        -5   # BR(chi^0_3 -> chi^0_2 b b_bar)
     2.07522717E-02    3     1000023        11       -11   # BR(chi^0_3 -> chi^0_2 e^- e^+)
     2.07488590E-02    3     1000023        13       -13   # BR(chi^0_3 -> chi^0_2 mu^- mu^+)
     1.98153683E-02    3     1000023        15       -15   # BR(chi^0_3 -> chi^0_2 tau^- tau^+)
     1.22973445E-01    3     1000023        12       -12   # BR(chi^0_3 -> chi^0_2 nu_e nu_bar_e)
     5.71340646E-02    3     1000024         1        -2   # BR(chi^0_3 -> chi^+_1 d u_bar)
     5.71340646E-02    3    -1000024        -1         2   # BR(chi^0_3 -> chi^-_1 d_bar u)
     5.66112263E-02    3     1000024         3        -4   # BR(chi^0_3 -> chi^+_1 s c_bar)
     5.66112263E-02    3    -1000024        -3         4   # BR(chi^0_3 -> chi^-_1 s_bar c)
     1.90448618E-02    3     1000024        11       -12   # BR(chi^0_3 -> chi^+_1 e^- nu_bar_e)
     1.90448618E-02    3    -1000024       -11        12   # BR(chi^0_3 -> chi^-_1 e^+ nu_e)
     1.90447342E-02    3     1000024        13       -14   # BR(chi^0_3 -> chi^+_1 mu^- nu_bar_mu)
     1.90447342E-02    3    -1000024       -13        14   # BR(chi^0_3 -> chi^-_1 mu^+ nu_mu)
     1.86901795E-02    3     1000024        15       -16   # BR(chi^0_3 -> chi^+_1 tau^- nu_bar_tau)
     1.86901795E-02    3    -1000024       -15        16   # BR(chi^0_3 -> chi^-_1 tau^+ nu_tau)
DECAY   1000035     6.13988452E+00   # chi^0_4
#    BR                NDA      ID1      ID2
     2.23913937E-01    2     1000024       -24   # BR(chi^0_4 -> chi^+_1 W^-)
     2.23913937E-01    2    -1000024        24   # BR(chi^0_4 -> chi^-_1 W^+)
     6.46599275E-02    2     1000022        23   # BR(chi^0_4 -> chi^0_1 Z)
     3.10725595E-02    2     1000023        23   # BR(chi^0_4 -> chi^0_2 Z)
     1.23012261E-01    2     1000025        23   # BR(chi^0_4 -> chi^0_3 Z)
     6.52095081E-02    2     1000022        25   # BR(chi^0_4 -> chi^0_1 h^0)
     1.44014743E-01    2     1000023        25   # BR(chi^0_4 -> chi^0_2 h^0)
     1.21798020E-01    2     1000025        25   # BR(chi^0_4 -> chi^0_3 h^0)
#    BR                NDA      ID1      ID2       ID3
     1.17141460E-03    3     1000024         5        -6   # BR(chi^0_4 -> chi^+_1 b t_bar)
     1.17141460E-03    3    -1000024        -5         6   # BR(chi^0_4 -> chi^-_1 b_bar t)
DECAY   1000021     1.58591895E-01   # ~g
#    BR                NDA      ID1      ID2
     9.09065711E-04    2     1000022        21   # BR(~g -> chi^0_1 g)
     3.71658481E-03    2     1000023        21   # BR(~g -> chi^0_2 g)
     2.71341674E-03    2     1000025        21   # BR(~g -> chi^0_3 g)
     2.49343832E-04    2     1000035        21   # BR(~g -> chi^0_4 g)
#    BR                NDA      ID1      ID2       ID3
     6.02757905E-02    3     1000022         6        -6   # BR(~g -> chi^0_1 t t_bar)
     7.49590486E-03    3     1000022         5        -5   # BR(~g -> chi^0_1 b b_bar)
     1.84177756E-01    3     1000023         6        -6   # BR(~g -> chi^0_2 t t_bar)
     1.81748775E-02    3     1000023         5        -5   # BR(~g -> chi^0_2 b b_bar)
     1.46959174E-01    3     1000025         6        -6   # BR(~g -> chi^0_3 t t_bar)
     1.24308605E-02    3     1000025         5        -5   # BR(~g -> chi^0_3 b b_bar)
     2.60072522E-02    3     1000035         6        -6   # BR(~g -> chi^0_4 t t_bar)
     3.00997541E-02    3     1000035         5        -5   # BR(~g -> chi^0_4 b b_bar)
     2.18111174E-01    3     1000024         5        -6   # BR(~g -> chi^+_1 b t_bar)
     2.18111174E-01    3    -1000024        -5         6   # BR(~g -> chi^-_1 b_bar t)
     3.50158465E-02    3     1000037         5        -6   # BR(~g -> chi^+_2 b t_bar)
     3.50158465E-02    3    -1000037        -5         6   # BR(~g -> chi^-_2 b_bar t)
DECAY        25     3.63643282E-03   # Gamma(h0)
     2.65155313E-03   2        22        22   # BR(h0 -> photon photon)
     1.86238652E-03   2        22        23   # BR(h0 -> photon Z)
     3.66854649E-02   2        23        23   # BR(h0 -> Z Z)
     2.92836690E-01   2       -24        24   # BR(h0 -> W W)
     8.02138212E-02   2        21        21   # BR(h0 -> gluon gluon)
     4.52834501E-09   2       -11        11   # BR(h0 -> Electron electron)
     2.01429750E-04   2       -13        13   # BR(h0 -> Muon muon)
     5.80815027E-02   2       -15        15   # BR(h0 -> Tau tau)
     1.28579303E-07   2        -2         2   # BR(h0 -> Up up)
     2.49569083E-02   2        -4         4   # BR(h0 -> Charm charm)
     5.22802575E-07   2        -1         1   # BR(h0 -> Down down)
     1.89085322E-04   2        -3         3   # BR(h0 -> Strange strange)
     5.02320502E-01   2        -5         5   # BR(h0 -> Bottom bottom)
DECAY        35     7.82638424E+01   # Gamma(HH)
     2.14125638E-08   2        22        22   # BR(HH -> photon photon)
     7.70462658E-08   2        22        23   # BR(HH -> photon Z)
     4.25650486E-07   2        23        23   # BR(HH -> Z Z)
     8.07213214E-08   2       -24        24   # BR(HH -> W W)
     7.53812589E-07   2        21        21   # BR(HH -> gluon gluon)
     3.48905804E-09   2       -11        11   # BR(HH -> Electron electron)
     1.55367299E-04   2       -13        13   # BR(HH -> Muon muon)
     4.48746402E-02   2       -15        15   # BR(HH -> Tau tau)
     2.43878421E-13   2        -2         2   # BR(HH -> Up up)
     4.73142358E-08   2        -4         4   # BR(HH -> Charm charm)
     3.37328980E-03   2        -6         6   # BR(HH -> Top top)
     2.44245233E-07   2        -1         1   # BR(HH -> Down down)
     8.83488221E-05   2        -3         3   # BR(HH -> Strange strange)
     2.28884777E-01   2        -5         5   # BR(HH -> Bottom bottom)
     2.59636927E-02   2  -1000024   1000024   # BR(HH -> Chargino1 chargino1)
     2.03668726E-01   2  -1000024   1000037   # BR(HH -> Chargino1 chargino2)
     2.03668726E-01   2  -1000037   1000024   # BR(HH -> Chargino2 chargino1)
     5.31294208E-03   2  -1000037   1000037   # BR(HH -> Chargino2 chargino2)
     1.22178915E-02   2   1000022   1000022   # BR(HH -> neutralino1 neutralino1)
     2.95025031E-02   2   1000022   1000023   # BR(HH -> neutralino1 neutralino2)
     1.43307275E-03   2   1000022   1000025   # BR(HH -> neutralino1 neutralino3)
     2.93565108E-02   2   1000022   1000035   # BR(HH -> neutralino1 neutralino4)
     4.98106118E-03   2   1000023   1000023   # BR(HH -> neutralino2 neutralino2)
     7.50182952E-03   2   1000023   1000025   # BR(HH -> neutralino2 neutralino3)
     1.10299259E-01   2   1000023   1000035   # BR(HH -> neutralino2 neutralino4)
     1.58959359E-02   2   1000025   1000025   # BR(HH -> neutralino3 neutralino3)
     7.01303953E-02   2   1000025   1000035   # BR(HH -> neutralino3 neutralino4)
     2.68591614E-03   2   1000035   1000035   # BR(HH -> neutralino4 neutralino4)
     3.46099269E-06   2        25        25   # BR(HH -> h0 h0)
DECAY        36     7.71602601E+01   # Gamma(A0)
     3.23712021E-09   2        22        22   # BR(A0 -> photon photon)
     4.81464407E-08   2        22        23   # BR(A0 -> photon Z)
     6.10854259E-06   2        21        21   # BR(A0 -> gluon gluon)
     3.35882747E-09   2       -11        11   # BR(A0 -> Electron electron)
     1.49568342E-04   2       -13        13   # BR(A0 -> Muon muon)
     4.31997642E-02   2       -15        15   # BR(A0 -> Tau tau)
     2.25730054E-13   2        -2         2   # BR(A0 -> Up up)
     4.37920884E-08   2        -4         4   # BR(A0 -> Charm charm)
     3.13395321E-03   2        -6         6   # BR(A0 -> Top top)
     2.35122603E-07   2        -1         1   # BR(A0 -> Down down)
     8.50494051E-05   2        -3         3   # BR(A0 -> Strange strange)
     2.20335814E-01   2        -5         5   # BR(A0 -> Bottom bottom)
     2.47450978E-02   2  -1000024   1000024   # BR(A0 -> Chargino1 chargino1)
     2.08191223E-01   2  -1000024   1000037   # BR(A0 -> Chargino1 chargino2)
     2.08191223E-01   2  -1000037   1000024   # BR(A0 -> Chargino2 chargino1)
     3.84410291E-03   2  -1000037   1000037   # BR(A0 -> Chargino2 chargino2)
     1.46862809E-02   2   1000022   1000022   # BR(A0 -> neutralino1 neutralino1)
     2.61670023E-02   2   1000022   1000023   # BR(A0 -> neutralino1 neutralino2)
     1.92443142E-03   2   1000022   1000025   # BR(A0 -> neutralino1 neutralino3)
     3.53035116E-02   2   1000022   1000035   # BR(A0 -> neutralino1 neutralino4)
     4.30700865E-03   2   1000023   1000023   # BR(A0 -> neutralino2 neutralino2)
     5.21670199E-03   2   1000023   1000025   # BR(A0 -> neutralino2 neutralino3)
     9.76162174E-02   2   1000023   1000035   # BR(A0 -> neutralino2 neutralino4)
     2.00416538E-02   2   1000025   1000025   # BR(A0 -> neutralino3 neutralino3)
     8.08930729E-02   2   1000025   1000035   # BR(A0 -> neutralino3 neutralino4)
     1.96086674E-03   2   1000035   1000035   # BR(A0 -> neutralino4 neutralino4)
     1.01540928E-06   2        23        25   # BR(A0 -> Z h0)
     2.06728389E-40   2        25        25   # BR(A0 -> h0 h0)
DECAY        37     8.36662160E+01   # Gamma(Hp)
     4.20721041E-09   2       -11        12   # BR(Hp -> Electron nu_e)
     1.79871385E-04   2       -13        14   # BR(Hp -> Muon nu_mu)
     5.08778751E-02   2       -15        16   # BR(Hp -> Tau nu_tau)
     2.55609837E-07   2        -1         2   # BR(Hp -> Down up)
     4.33323500E-06   2        -3         2   # BR(Hp -> Strange up)
     2.84737909E-06   2        -5         2   # BR(Hp -> Bottom up)
     1.44407021E-08   2        -1         4   # BR(Hp -> Down charm)
     9.21778770E-05   2        -3         4   # BR(Hp -> Strange charm)
     3.98735104E-04   2        -5         4   # BR(Hp -> Bottom charm)
     2.69335700E-07   2        -1         6   # BR(Hp -> Down top)
     6.00988181E-06   2        -3         6   # BR(Hp -> Strange top)
     2.72767889E-01   2        -5         6   # BR(Hp -> Bottom top)
     6.23631122E-02   2   1000022   1000024   # BR(Hp -> neutralino1 chargino1)
     5.91421050E-02   2   1000022   1000037   # BR(Hp -> neutralino1 chargino2)
     1.71229397E-03   2   1000023   1000024   # BR(Hp -> neutralino2 chargino1)
     2.10704314E-01   2   1000023   1000037   # BR(Hp -> neutralino2 chargino2)
     4.96754822E-03   2   1000024   1000025   # BR(Hp -> chargino1 neutralino3)
     1.38168318E-01   2   1000025   1000037   # BR(Hp -> neutralino3 chargino2)
     1.98610982E-01   2   1000024   1000035   # BR(Hp -> chargino1 neutralino4)
     1.07035618E-07   2   1000035   1000037   # BR(Hp -> neutralino4 chargino2)
     9.36689057E-07   2        24        25   # BR(Hp -> W h0)
DECAY         6     2.43000000E+00   # top
#    BR                NDA      ID1      ID2
     1.00000000E+00    2           5        24   # BR(t -> b W)
Block HiggsBoundsInputHiggsCouplingsFermions
# ScalarNormEffCoupSq PseudoSNormEffCoupSq NP IP1 IP2 IP2
    9.26629442E-01    0.00000000E+00        3  25   5   5  # h0-b-b eff. coupling^2, normalised to SM
    4.47295414E+02    0.00000000E+00        3  35   5   5  # H0-b-b eff. coupling^2, normalised to SM
    0.00000000E+00    4.47222043E+02        3  36   5   5  # A0-b-b eff. coupling^2, normalised to SM
#
    1.00016406E+00    0.00000000E+00        3  25   6   6  # h0-t-t eff. coupling^2, normalised to SM
    2.07196728E-03    0.00000000E+00        3  35   6   6  # H0-t-t eff. coupling^2, normalised to SM
    0.00000000E+00    2.23602574E-03        3  36   6   6  # A0-t-t eff. coupling^2, normalised to SM
#
    9.26629442E-01    0.00000000E+00        3  25  15  15  # h0-tau-tau eff. coupling^2, normalised to SM
    4.47295414E+02    0.00000000E+00        3  35  15  15  # H0-tau-tau eff. coupling^2, normalised to SM
    0.00000000E+00    4.47222043E+02        3  36  15  15  # A0-tau-tau eff. coupling^2, normalised to SM
#
Block HiggsBoundsInputHiggsCouplingsBosons
    9.99996875E-01        3  25  24  24  # h0-W-W eff. coupling^2, normalised to SM
    3.12473720E-06        3  35  24  24  # H0-W-W eff. coupling^2, normalised to SM
    0.00000000E+00        3  36  24  24  # A0-W-W eff. coupling^2, normalised to SM
#
    9.99996875E-01        3  25  23  23  # h0-Z-Z eff. coupling^2, normalised to SM
    3.12473720E-06        3  35  23  23  # H0-Z-Z eff. coupling^2, normalised to SM
    0.00000000E+00        3  36  23  23  # A0-Z-Z eff. coupling^2, normalised to SM
#
    1.25037578E+00        3  25  21  21  # h0-g-g eff. coupling^2, normalised to SM
    6.40674740E-04        3  35  21  21  # H0-g-g eff. coupling^2, normalised to SM
    9.31271997E-02        3  36  21  21  # A0-g-g eff. coupling^2, normalised to SM
#
    0.00000000E+00        3  25  25  23  # h0-h0-Z eff. coupling^2, normalised to SM
    0.00000000E+00        3  35  25  23  # H0-h0-Z eff. coupling^2, normalised to SM
    3.12473720E-06        3  36  25  23  # A0-h0-Z eff. coupling^2, normalised to SM
    0.00000000E+00        3  35  35  23  # H0-H0-Z eff. coupling^2, normalised to SM
    9.99996875E-01        3  36  35  23  # A0-H0-Z eff. coupling^2, normalised to SM
    0.00000000E+00        3  36  36  23  # A0-A0-Z eff. coupling^2, normalised to SM
#
    0.00000000E+00        4  25  21  21  23  # h0-g-g-Z eff. coupling^2, normalised to SM
    0.00000000E+00        4  35  21  21  23  # H0-g-g-Z eff. coupling^2, normalised to SM
    0.00000000E+00        4  36  21  21  23  # A0-g-g-Z eff. coupling^2, normalised to SM
Block SPhenoLowEnergy  # low energy observables
    1    2.91887279E-04   # BR(b -> s gamma)
    2    1.59729936E-06   # BR(b -> s mu+ mu-)
    3    3.52919050E-05   # BR(b -> s nu nu)
    4    3.36097486E-15   # BR(Bd -> e+ e-)
    5    1.43576582E-10   # BR(Bd -> mu+ mu-)
    6    3.00300072E-08   # BR(Bd -> tau+ tau-)
    7    1.13032557E-13   # BR(Bs -> e+ e-)
    8    4.82873235E-09   # BR(Bs -> mu+ mu-)
    9    1.02333119E-06   # BR(Bs -> tau+ tau-)
   10    9.66720798E-05   # BR(B_u -> tau nu)
   11    9.98585574E-01   # BR(B_u -> tau nu)/BR(B_u -> tau nu)_SM
   12    5.42277824E-01   # |Delta(M_Bd)| [ps^-1] 
   13    1.93749645E+01   # |Delta(M_Bs)| [ps^-1] 
   14    0.00000000E+00   # neutron EDM according to the chiral quark model
   15    0.00000000E+00   # neutron EDM according to the relativistic quark-parton model
   16    2.15849398E-03   # epsilon_K
   17    2.28167013E-15   # Delta(M_K)
   18    2.48477025E-11   # BR(K^0 -> pi^0 nu nu)
   19    8.30136445E-11   # BR(K^+ -> pi^+ nu nu)
   20   -1.98533580E-16   # Delta(g-2)_electron/2
   21   -8.48796063E-12   # Delta(g-2)_muon/2
   22   -2.40338856E-09   # Delta(g-2)_tau/2
   23    0.00000000E+00   # electric dipole moment of the electron
   24    0.00000000E+00   # electric dipole moment of the muon
   25    0.00000000E+00   # electric dipole moment of the tau
   26    0.00000000E+00   # Br(mu -> e gamma)
   27    0.00000000E+00   # Br(tau -> e gamma)
   28    0.00000000E+00   # Br(tau -> mu gamma)
   29    0.00000000E+00   # Br(mu -> 3 e)
   30    0.00000000E+00   # Br(tau -> 3 e)
   31    0.00000000E+00   # Br(tau -> 3 mu)
   39    2.70952414E-04   # Delta(rho_parameter)
   40    0.00000000E+00   # BR(Z -> e mu)
   41    0.00000000E+00   # BR(Z -> e tau)
   42    0.00000000E+00   # BR(Z -> mu tau)
Block FWCOEF Q=  1.60000000E+02  # Wilson coefficients at scale Q
#    id        order  M        value         comment
     0305 4422   00   0    -1.88819110E-01   # C7
     0305 4422   00   2    -1.54504617E-01   # C7
     0305 4322   00   2     4.77888090E-05   # C7'
     0305 6421   00   0    -9.52278348E-02   # C8
     0305 6421   00   2    -7.63249641E-02   # C8
     0305 6321   00   2    -5.11599687E-05   # C8'
 03051111 4133   00   0     1.61061493E+00   # C9 e+e-
 03051111 4133   00   2     1.61158247E+00   # C9 e+e-
 03051111 4233   00   2     1.54917072E-04   # C9' e+e-
 03051111 4137   00   0    -4.43330703E+00   # C10 e+e-
 03051111 4137   00   2    -4.43554082E+00   # C10 e+e-
 03051111 4237   00   2    -1.17283399E-03   # C10' e+e-
 03051313 4133   00   0     1.61061493E+00   # C9 mu+mu-
 03051313 4133   00   2     1.61158240E+00   # C9 mu+mu-
 03051313 4233   00   2     1.54917053E-04   # C9' mu+mu-
 03051313 4137   00   0    -4.43330703E+00   # C10 mu+mu-
 03051313 4137   00   2    -4.43554089E+00   # C10 mu+mu-
 03051313 4237   00   2    -1.17283402E-03   # C10' mu+mu-
 03051212 4137   00   0     1.50535012E+00   # C11 nu_1 nu_1
 03051212 4137   00   2     1.50583743E+00   # C11 nu_1 nu_1
 03051212 4237   00   2     2.54529543E-04   # C11' nu_1 nu_1
 03051414 4137   00   0     1.50535012E+00   # C11 nu_2 nu_2
 03051414 4137   00   2     1.50583743E+00   # C11 nu_2 nu_2
 03051414 4237   00   2     2.54529544E-04   # C11' nu_2 nu_2
 03051616 4137   00   0     1.50535012E+00   # C11 nu_3 nu_3
 03051616 4137   00   2     1.50583743E+00   # C11 nu_3 nu_3
 03051616 4237   00   2     2.54529962E-04   # C11' nu_3 nu_3
Block IMFWCOEF Q=  1.60000000E+02  # Im(Wilson coefficients) at scale Q
#    id        order  M        value         comment
     0305 4422   00   0     3.85839854E-07   # C7
     0305 4422   00   2    -6.41147442E-06   # C7
     0305 4322   00   2     2.07370277E-06   # C7'
     0305 6421   00   0     3.30497352E-07   # C8
     0305 6421   00   2    -2.90755990E-05   # C8
     0305 6321   00   2     7.08413446E-07   # C8'
 03051111 4133   00   2    -1.47022005E-06   # C9 e+e-
 03051111 4233   00   2     2.88155919E-06   # C9' e+e-
 03051111 4137   00   2     2.38422671E-05   # C10 e+e-
 03051111 4237   00   2    -2.18165960E-05   # C10' e+e-
 03051313 4133   00   2    -1.47022159E-06   # C9 mu+mu-
 03051313 4233   00   2     2.88155897E-06   # C9' mu+mu-
 03051313 4137   00   2     2.38422692E-05   # C10 mu+mu-
 03051313 4237   00   2    -2.18165967E-05   # C10' mu+mu-
 03051212 4137   00   2    -5.12866859E-06   # C11 nu_1 nu_1
 03051212 4237   00   2     4.73465898E-06   # C11' nu_1 nu_1
 03051414 4137   00   2    -5.12866850E-06   # C11 nu_2 nu_2
 03051414 4237   00   2     4.73465898E-06   # C11' nu_2 nu_2
 03051616 4137   00   2    -5.12864425E-06   # C11 nu_3 nu_3
 03051616 4237   00   2     4.73465897E-06   # C11' nu_3 nu_3
