BLOCK SPINFO
   1   SPheno
   2   v4.0.5be

BLOCK SPHENOINFO
   1   2
   2   2

BLOCK MODSEL
   1   0

BLOCK MINPAR
   3    41.821353
   4   -1

BLOCK EXTPAR
   0    2398.13
   1    791.11431
   2   -1902.6671
   3    3605.0352
   11   -2409.4271
   12    2855.8435
   13   -1056.5334
   23   -699.83569
   25    41.103178
   26    2324.9847
   31    3737.25
   32    3737.25
   33    1262.2251
   34    3965.4974
   35    3965.4974
   36    4531.9996
   41    685.78845
   42    685.78845
   43    2943.3948
   44    2463.4137
   45    2463.4137
   46    1863.7554
   47    1308.7711
   48    1308.7711
   49    2280.8295

BLOCK SMINPUTS
   1    127.90897
   2    1.1663787e-05
   3    0.1184
   4    91.1876
   5    4.18
   6    173.2
   7    1.777
   8    0
   11    0.00051099893
   12    0
   13    0.10565837
   14    0
   21    0.005
   22    0.0025
   23    0.095
   24    1.27

BLOCK GAUGE Q=  2398.13
   1    0.35536298
   2    0.66519887
   3    1.219778

BLOCK YU Q=  2398.13
   1   1    8.3868531e-06
   2   2    0.0042605214
   3   3    1.0131992

BLOCK YD Q=  2398.13
   1   1    0.00069271516
   2   2    0.013161588
   3   3    0.68695637

BLOCK YE Q=  2398.13
   1   1    0.00012088386
   2   2    0.024994948
   3   3    0.42037391

BLOCK AU Q=  2398.13
   1   1    0
   2   2    0
   3   3   -2409.4289

BLOCK AD Q=  2398.13
   1   1    0
   2   2    0
   3   3    2855.8468

BLOCK AE Q=  2398.13
   1   1    0
   2   2    0
   3   3   -1056.5332

BLOCK MSOFT Q=  2398.13
   1    791.11431
   2   -1902.6671
   3    3605.0352
   21    5005934
   22   -436536.52
   31    3737.25
   32    3737.25
   33    1262.2251
   34    3965.4974
   35    3965.4974
   36    4531.9996
   41    685.78845
   42    685.78845
   43    2943.3948
   44    2463.4137
   45    2463.4137
   46    1863.7554
   47    1308.7711
   48    1308.7711
   49    2280.8295

BLOCK MASS
   6    173.2
   23    91.1876
   24    80.429995
   15    1.777
   25    120.05408
   35    2324.6103
   36    2324.9847
   37    2326.1277
   1000001    815.02187
   2000001    1397.1729
   1000002    810.93772
   2000002    2550.0432
   1000003    815.00994
   2000003    1397.1596
   1000004    810.92803
   2000004    2550.0429
   1000005    2351.1087
   2000005    3009.9587
   1000006    1906.5919
   2000006    3016.3914
   1000011    3744.9637
   2000011    3972.2802
   1000012    3743.7357
   1000013    3744.9519
   2000013    3972.2582
   1000014    3743.7238
   1000015    1281.3599
   2000015    4531.8618
   1000016    1273.7773
   1000021    3565.4228
   1000022    701.49775
   1000023   -710.02471
   1000025    798.54943
   1000035   -1907.7981
   1000024    710.6411
   1000037    1907.9926

BLOCK ALPHA
      -0.024031779

BLOCK HMIX Q=  2398.13
   1   -699.83569
   2    41.103178
   3    243.51149
   4    5405554

BLOCK STOPMIX
   1   1    0.063207165
   1   2    0.99800043
   2   1   -0.99800043
   2   2    0.063207165

BLOCK SBOTMIX
   1   1   -0.022797232
   1   2    0.99974011
   2   1   -0.99974011
   2   2   -0.022797232

BLOCK STAUMIX
   1   1   -0.99999633
   1   2    0.0027086427
   2   1   -0.0027086427
   2   2   -0.99999633

BLOCK NMIX
   1   1   -0.33763419
   1   2   -0.019346946
   1   3    0.67041862
   1   4    0.66042995
   2   1    0.021579157
   2   2    0.047088616
   2   3    0.70701612
   2   4   -0.70529796
   3   1    0.94102965
   3   2   -0.007137164
   3   3    0.22431155
   3   4    0.25317304
   4   1    0.00083314166
   4   2   -0.99867783
   4   3    0.018745694
   4   4   -0.047859022

BLOCK UMIX
   1   1   -0.02653123
   1   2   -0.99964798
   2   1   -0.99964798
   2   2    0.02653123

BLOCK VMIX
   1   1    0.067719545
   1   2    0.9977044
   2   1    0.9977044
   2   2   -0.067719545

BLOCK HIGGSBOUNDSINPUTHIGGSCOUPLINGSFERMIONS
       0, 1689.4713,3,36,15,15

BLOCK HIGGSBOUNDSINPUTHIGGSCOUPLINGSBOSONS
       0,4,36,21,21,23

BLOCK SPHENOLOWENERGY
   1    0.00034518515
   2    1.5868941e-06
   3    3.522846e-05
   4    1.8175428e-15
   5    7.7641986e-11
   6    1.6178559e-08
   7    6.1467091e-14
   8    2.6258282e-09
   9    5.5454678e-07
   10    9.4750553e-05
   11    0.97873694
   12    0.54247465
   13    19.370657
   14    0
   15    0
   16    0.0021599049
   17    2.2816869e-15
   18    2.4787893e-11
   19    8.2860101e-11
   20    1.7906131e-15
   21    7.6553829e-11
   22    4.360245e-08
   23    0
   24    0
   25    0
   26    0
   27    0
   28    0
   29    0
   30    0
   31    0
   39    7.1686648e-05
   40    0
   41    0
   42    0

BLOCK FWCOEF Q=  160
   305   4422   0   0   -0.18881911
   305   4422   0   2   -0.21688489
   305   4322   0   2   -0.00083333353
   305   6421   0   0   -0.095227835
   305   6421   0   2   -0.11535365
   305   6321   0   2   -0.0005615151
   3051111   4133   0   0    1.6090621
   3051111   4133   0   2    1.6095225
   3051111   4233   0   2    0.00010566814
   3051111   4137   0   0   -4.4317542
   3051111   4137   0   2   -4.4277422
   3051111   4237   0   2   -0.00080188324
   3051313   4133   0   0    1.6090621
   3051313   4133   0   2    1.6095217
   3051313   4233   0   2    0.00010566704
   3051313   4137   0   0   -4.4317542
   3051313   4137   0   2   -4.427743
   3051313   4237   0   2   -0.00080188301
   3051212   4137   0   0    1.5053501
   3051212   4137   0   2    1.5044802
   3051212   4237   0   2    0.00017408751
   3051414   4137   0   0    1.5053501
   3051414   4137   0   2    1.5044802
   3051414   4237   0   2    0.0001740877
   3051616   4137   0   0    1.5053501
   3051616   4137   0   2    1.50448
   3051616   4237   0   2    0.00017414156

BLOCK IMFWCOEF Q=  160
   305   4422   0   0    3.857838e-07
   305   4422   0   2    8.153212e-06
   305   4322   0   2   -1.1562716e-05
   305   6421   0   0    3.3044934e-07
   305   6421   0   2    9.9962898e-06
   305   6321   0   2   -5.7223075e-06
   3051111   4133   0   2   -2.7811219e-06
   3051111   4233   0   2    3.0480959e-06
   3051111   4137   0   2    2.2102402e-05
   3051111   4237   0   2   -2.3140578e-05
   3051313   4133   0   2   -2.7811089e-06
   3051313   4233   0   2    3.0480923e-06
   3051313   4137   0   2    2.2102419e-05
   3051313   4237   0   2   -2.314059e-05
   3051212   4137   0   2   -4.7786501e-06
   3051212   4237   0   2    5.0237754e-06
   3051414   4137   0   2   -4.7786501e-06
   3051414   4237   0   2    5.0237754e-06
   3051616   4137   0   2   -4.7818448e-06
   3051616   4237   0   2    5.0237764e-06

DECAY 23  2.4952


DECAY 24  2.085


DECAY 1000011  31.44209
    0.57441926   2   -1000037    12
    0.28643792   2    1000035    11
    0.11731355   2    1000025    11
    0.019469287   2    1000022    11
    0.0016741259   2    1000023    11
    0.00068585216   2   -1000024    12

DECAY 2000011  18.419249
    0.88358339   2    1000025    11
    0.11594322   2    1000022    11
    0.00047289442   2    1000023    11

DECAY 1000013  31.485113
    0.57363001   2   -1000037    14
    0.28604461   2    1000035    13
    0.11722065   2    1000025    13
    0.02006117   2    1000022    13
    0.0023586501   2    1000023    13
    0.00068491249   2   -1000024    14

DECAY 2000013  18.511702
    0.87928814   2    1000025    13
    0.11648875   2    1000022    13
    0.0024972708   2   -1000024    14
    0.0017198232   2    1000023    13

DECAY 1000015  2.8018813
    0.39375354   2    1000022    15
    0.38951197   2    1000023    15
    0.21519493   2    1000025    15
    0.0015395453   2   -1000024    16

DECAY 2000015  53.48441
    0.36821186   2    1000025    15
    0.28315111   2   -1000024    16
    0.1736184   2    1000022    15
    0.14182862   2    1000023    15
    0.0098712628   2    1000016   -37
    0.0067784176   2    1000016   -24
    0.004922783   2    1000015    36
    0.0049218268   2    1000015    35
    0.0033776054   2    1000015    23
    0.0030308292   2    1000015    25
    0.00019148163   2   -1000037    16

DECAY 1000012  31.451974
    0.5715574   2    1000037    11
    0.2866329   2    1000035    12
    0.12408143   2    1000025    12
    0.012647293   2    1000022    12
    0.0044652597   2    1000024    11
    0.00061571483   2    1000023    12

DECAY 1000014  31.494973
    0.57077329   2    1000037    13
    0.28623937   2    1000035    14
    0.12391155   2    1000025    14
    0.012629979   2    1000022    14
    0.0058309403   2    1000024    13
    0.00061487195   2    1000023    14

DECAY 1000016  2.7570293
    0.77842685   2    1000024    15
    0.19475755   2    1000025    16
    0.025593828   2    1000022    16
    0.0012217795   2    1000023    16

DECAY 1000001  0.0012566128
    0.31905892   2    1000022    1
    0.31044448   2    1000023    1
    0.23099149   2   -1000024    2
    0.13950511   2    1000025    1

DECAY 2000001  0.36312579
    0.86242953   2    1000025    1
    0.13698691   2    1000022    1
    0.00056042526   2    1000023    1

DECAY 1000003  0.0014385382
    0.33790829   2    1000022    3
    0.3281759   2    1000023    3
    0.21219698   2   -1000024    4
    0.12171883   2    1000025    3

DECAY 2000003  0.3687778
    0.84947601   2    1000025    3
    0.13816706   2    1000022    3
    0.0071696845   2   -1000024    4
    0.004132057   2    1000023    3
    0.0010551899   2    1000003    25

DECAY 1000005  37.209405
    0.48225686   2   -1000024    6
    0.24531309   2    1000023    5
    0.22633604   2    1000022    5
    0.046073364   2    1000025    5

DECAY 2000005  110.4552
    0.48996909   2   -1000024    6
    0.14279148   2    1000006   -24
    0.11407266   2    1000023    5
    0.10224678   2    1000022    5
    0.087275742   2   -1000037    6
    0.042884922   2    1000035    5
    0.015071284   2    1000025    5
    0.0031777027   2    1000005    25
    0.0025103415   2    1000005    23

DECAY 1000002  0.0037802895
    0.46646519   2    1000024    1
    0.37777626   2    1000022    2
    0.13341851   2    1000023    2
    0.022340041   2    1000025    2

DECAY 2000002  4.6592007
    0.88047371   2    1000025    2
    0.1190418   2    1000022    2
    0.0004843227   2    1000023    2

DECAY 1000004  0.0039465717
    0.48417829   2    1000024    3
    0.36447011   2    1000022    4
    0.13018975   2    1000023    4
    0.021161845   2    1000025    4

DECAY 2000004  4.6607595
    0.88019103   2    1000025    4
    0.11907357   2    1000022    4
    0.00056766274   2    1000023    4
    0.00016731347   2    1000024    3

DECAY 1000006  59.184989
    0.4818722   2    1000024    5
    0.23397575   2    1000023    6
    0.21120852   2    1000022    6
    0.072958639   2    1000025    6

DECAY 2000006  114.78618
    0.23871847   2    1000023    6
    0.22452459   2    1000024    5
    0.20699005   2    1000022    6
    0.099197361   2    1000006    25
    0.081533272   2    1000037    5
    0.069336296   2    1000006    23
    0.03947808   2    1000035    6
    0.035244081   2    1000025    6
    0.0049777946   2    1000005    24

DECAY 1000024  7.5226663e-08
    0.35035189   3    1000022   -1    2
    0.31890392   3    1000022   -3    4
    0.11675114   3    1000022   -11    12
    0.11667363   3    1000022   -13    14
    0.097316688   3    1000022   -15    16

DECAY 1000037  88.979731
    0.18921891   2    1000004   -3
    0.18921689   2    1000002   -1
    0.18911216   2   -1000003    4
    0.18910997   2   -1000001    2
    0.046921427   2    1000024    25
    0.044903845   2    1000023    24
    0.044484007   2    1000024    23
    0.040072575   2    1000022    24
    0.028871492   2    1000016   -15
    0.02842266   2   -1000015    16
    0.004558503   2    1000025    24
    0.0019821985   3    1000024    6   -6
    0.0015051403   3    1000023   -5    6
    0.001414112   3    1000022   -5    6
    0.00015620111   3    1000025   -5    6

DECAY 1000022 -1


DECAY 1000023  2.3171912e-07
    0.52613237   2    1000022    22
    0.12035502   3    1000022    12   -12
    0.090016605   3    1000022    1   -1
    0.089887727   3    1000022    3   -3
    0.070223048   3    1000022    2   -2
    0.052137485   3    1000022    4   -4
    0.02031046   3    1000022    11   -11
    0.020264396   3    1000022    13   -13
    0.010604136   3    1000022    15   -15

DECAY 1000025  0.044362801
    0.28066673   2    1000024   -24
    0.28066673   2   -1000024    24
    0.086559909   3    1000023    12   -12
    0.064666859   3    1000023    1   -1
    0.064666657   3    1000023    3   -3
    0.064020521   3    1000023    5   -5
    0.050422739   3    1000023    2   -2
    0.050354122   3    1000023    4   -4
    0.014606873   3    1000023    11   -11
    0.014606729   3    1000023    13   -13
    0.014581482   3    1000023    15   -15
    0.012377753   2    1000022    23
    0.0017881156   2    1000023    22

DECAY 1000035  91.557916
    0.092079926   2    1000004   -4
    0.092079926   2   -1000004    4
    0.092078831   2    1000002   -2
    0.092078831   2   -1000002    2
    0.091724919   2    1000003   -3
    0.091724919   2   -1000003    3
    0.091723683   2    1000001   -1
    0.091723683   2   -1000001    1
    0.043749267   2    1000024   -24
    0.043749267   2   -1000024    24
    0.038216764   2    1000023    25
    0.03278144   2    1000022    23
    0.031216242   2    1000022    25
    0.014060777   2    1000016   -16
    0.014060777   2   -1000016    16
    0.013771466   2    1000015   -15
    0.013771466   2   -1000015    15
    0.0069808183   2    1000023    23
    0.0038888317   2    1000025    23
    0.003747283   2    1000025    25
    0.0015998057   3    1000024    5   -6
    0.0015998057   3   -1000024   -5    6
    0.00079547353   3    1000023    6   -6
    0.00067843613   3    1000022    6   -6

DECAY 1000021  684.7349
    0.069296977   2    1000004   -4
    0.069296977   2   -1000004    4
    0.069296798   2    1000002   -2
    0.069296798   2   -1000002    2
    0.069220694   2    1000003   -3
    0.069220694   2   -1000003    3
    0.06922047   2    1000001   -1
    0.06922047   2   -1000001    1
    0.05521354   2    2000003   -3
    0.05521354   2   -2000003    3
    0.055213158   2    2000001   -1
    0.055213158   2   -2000001    1
    0.038516342   2    1000006   -6
    0.038516342   2   -1000006    6
    0.024619715   2    1000005   -5
    0.024619715   2   -1000005    5
    0.018387474   2    2000004   -4
    0.018387474   2   -2000004    4
    0.018387474   2    2000002   -2
    0.018387474   2   -2000002    2
    0.0063589885   2    2000005   -5
    0.0063589885   2   -2000005    5
    0.006210912   2    2000006   -6
    0.006210912   2   -2000006    6

DECAY 25  0.0033489896
    0.64587002   2   -5    5
    0.15294867   2   -24    24
    0.074955393   2    21    21
    0.073848554   2   -15    15
    0.031730535   2   -4    4
    0.016762454   2    23    23
    0.0023024914   2    22    22
    0.0010807898   2    22    23
    0.00025598566   2   -13    13
    0.00024425621   2   -3    3
    6.7535071e-07   2   -1    1
    1.63532e-07   2   -2    2
    5.7549123e-09   2   -11    11

DECAY 35  67.163201
    0.8316143   2   -5    5
    0.14108985   2   -15    15
    0.013322466   2    1000023    1000025
    0.0072203924   2    1000022    1000025
    0.0015639774   2    1000022    1000023
    0.0012582392   2    1000022    1000022
    0.0010844941   2    1000025    1000025
    0.00096615433   2   -6    6
    0.00068466885   2   -1000024    1000024
    0.0006346068   2   -3    3
    0.00044261821   2   -13    13
    9.4333976e-05   2    1000023    1000023
    1.3463728e-05   2    21    21
    5.7254416e-06   2    25    25
    1.7553498e-06   2   -1    1
    6.7159685e-07   2    23    23
    5.6426302e-07   2   -1000001    1000001
    5.6252117e-07   2   -1000003    1000003
    3.8590133e-07   2   -1000002    1000002
    3.8566873e-07   2   -1000004    1000004
    2.8739431e-07   2   -24    24
    3.3055325e-08   2    22    23
    2.305877e-08   2    22    22
    1.8065702e-08   2   -4    4
    9.9417244e-09   2   -11    11
    6.8113543e-09   2   -2000003    1000003
    6.8113543e-09   2   -1000003    2000003
    1.8876993e-11   2   -2000001    1000001
    1.8876993e-11   2   -1000001    2000001
    9.3179877e-14   2   -2    2

DECAY 36  63.680794
    0.82994636   2   -5    5
    0.14080673   2   -15    15
    0.011778826   2    1000022    1000025
    0.0090965077   2    1000023    1000025
    0.0019495434   2    1000025    1000025
    0.001870719   2    1000022    1000022
    0.0011727939   2   -1000024    1000024
    0.0011206645   2    1000022    1000023
    0.00098514449   2   -6    6
    0.00063333372   2   -3    3
    0.00044173027   2   -13    13
    0.00017118562   2    1000023    1000023
    2.3572574e-05   2    21    21
    1.7518284e-06   2   -1    1
    1.0008809e-06   2    23    25
    5.8962223e-08   2    22    22
    3.144484e-08   2    22    23
    1.8001998e-08   2   -4    4
    9.9218115e-09   2   -11    11
    6.9795543e-09   2   -2000003    1000003
    6.9795543e-09   2   -1000003    2000003
    1.9342949e-11   2   -2000001    1000001
    1.9342949e-11   2   -1000001    2000001
    9.2840008e-14   2   -2    2
    8.4369236e-39   2    25    25

DECAY 37  62.367802
    0.84039001   2   -5    6
    0.13045607   2   -15    16
    0.022721445   2    1000024    1000025
    0.0039687637   2    1000022    1000024
    0.0012470811   2   -5    4
    0.00060657308   2   -3    4
    0.000461209   2   -13    14
    0.0001046098   2    1000023    1000024
    2.8325961e-05   2   -3    2
    8.9054483e-06   2   -5    2
    2.1185212e-06   2   -3    6
    1.6838716e-06   2   -1    2
    1.0245348e-06   2    24    25
    9.5750416e-07   2   -1000001    1000002
    9.5422213e-07   2   -1000003    1000004
    7.8921499e-08   2   -1    4
    5.6278437e-08   2   -1    6
    5.1137006e-08   2   -1000001    1000004
    5.1115275e-08   2   -1000003    1000002
    1.3883685e-08   2   -2000003    1000004
    1.0787726e-08   2   -11    12
    7.4368358e-10   2   -2000003    1000002
    3.8543333e-11   2   -2000001    1000002
    2.0585511e-12   2   -2000001    1000004
    1.7556055e-13   2    24    35
    4.2578318e-14   2    24    36

DECAY 6  2.43
    1   2    5    24

DECAY 15 -1
