BLOCK SPINFO
   1   SPheno
   2   v4.0.5be

BLOCK SPHENOINFO
   1   2
   2   2

BLOCK MODSEL
   1   0

BLOCK MINPAR
   3    18.581769
   4   -1

BLOCK EXTPAR
   0    4398.5654
   1    4186.9101
   2    2025.1955
   3    4873.4452
   11   -1617.9879
   12    6712.4585
   13    7283.4159
   23   -554.40663
   25    17.726875
   26    4554.5731
   31    579.6102
   32    579.6102
   33    1121.1573
   34    1305.2457
   35    1305.2457
   36    4760.586
   41    1892.9993
   42    1892.9993
   43    3769.9007
   44    1091.4224
   45    1091.4224
   46    4808.9373
   47    3127.8511
   48    3127.8511
   49    4759.8281

BLOCK SMINPUTS
   1    127.90897
   2    1.1663787e-05
   3    0.1184
   4    91.1876
   5    4.18
   6    173.2
   7    1.777
   8    0
   11    0.00051099893
   12    0
   13    0.10565837
   14    0
   21    0.005
   22    0.0025
   23    0.095
   24    1.27

BLOCK GAUGE Q=  4398.5654
   1    0.35536298
   2    0.66519887
   3    1.219778

BLOCK YU Q=  4398.5654
   1   1    8.3977022e-06
   2   2    0.0042660327
   3   3    1.0145099

BLOCK YD Q=  4398.5654
   1   1    0.0002991389
   2   2    0.0056836391
   3   3    0.29665205

BLOCK YE Q=  4398.5654
   1   1    5.2201926e-05
   2   2    0.010793703
   3   3    0.18153232

BLOCK AU Q=  4398.5654
   1   1    0
   2   2    0
   3   3   -1617.988

BLOCK AD Q=  4398.5654
   1   1    0
   2   2    0
   3   3    6712.4635

BLOCK AE Q=  4398.5654
   1   1    0
   2   2    0
   3   3    7283.4158

BLOCK MSOFT Q=  4398.5654
   1    4186.9101
   2    2025.1955
   3    4873.4452
   21    20328713
   22    122074.63
   31    579.6102
   32    579.6102
   33    1121.1573
   34    1305.2457
   35    1305.2457
   36    4760.586
   41    1892.9993
   42    1892.9993
   43    3769.9007
   44    1091.4224
   45    1091.4224
   46    4808.9373
   47    3127.8511
   48    3127.8511
   49    4759.8281

BLOCK MASS
   6    173.2
   23    91.1876
   24    80.429995
   15    1.777
   25    120.78913
   35    4554.1286
   36    4554.5731
   37    4555.0397
   1000001    2154.2531
   2000001    3319.4183
   1000002    2152.7546
   2000002    1415.4805
   1000003    2154.2511
   2000003    3319.4159
   1000004    2152.7528
   2000004    1415.4797
   1000005    3933.5347
   2000005    4909.4062
   1000006    3934.4391
   2000006    4917.4424
   1000011    677.14732
   2000011    1323.1972
   1000012    672.70393
   1000013    677.1326
   2000013    1323.1824
   1000014    672.68927
   1000015    1176.6461
   2000015    4764.0617
   1000016    1173.5503
   1000021    4942.3795
   1000022    555.32255
   1000023   -559.52455
   1000025    2033.9062
   1000035    4114.8625
   1000024    557.42355
   1000037    2034.1245

BLOCK ALPHA
      -0.053819928

BLOCK HMIX Q=  4398.5654
   1   -554.40663
   2    17.726875
   3    242.8739
   4    20744136

BLOCK STOPMIX
   1   1    0.99959717
   1   2    0.028381241
   2   1   -0.028381241
   2   2    0.99959717

BLOCK SBOTMIX
   1   1   -0.99999052
   1   2    0.0043553824
   2   1   -0.0043553824
   2   2   -0.99999052

BLOCK STAUMIX
   1   1   -0.99999902
   1   2    0.001397828
   2   1   -0.001397828
   2   2   -0.99999902

BLOCK NMIX
   1   1   -0.0083143851
   1   2    0.035418636
   1   3    0.70810307
   1   4    0.70517121
   2   1   -0.0070707827
   2   2    0.02265466
   2   3   -0.70604997
   2   4    0.70776423
   3   1   -0.00080410785
   3   2   -0.99911569
   3   3    0.0090924485
   3   4    0.041042853
   4   1    0.99994011
   4   2   -0.0003487473
   4   3    0.00090248107
   4   4    0.010901168

BLOCK UMIX
   1   1   -0.012881954
   1   2   -0.99991702
   2   1    0.99991702
   2   2   -0.012881954

BLOCK VMIX
   1   1   -0.058122693
   1   2    0.99830945
   2   1    0.99830945
   2   2    0.058122693

BLOCK HIGGSBOUNDSINPUTHIGGSCOUPLINGSFERMIONS
       0, 314.24209,3,36,15,15

BLOCK HIGGSBOUNDSINPUTHIGGSCOUPLINGSBOSONS
       0,4,36,21,21,23

BLOCK SPHENOLOWENERGY
   1    0.00032535386
   2    1.5900047e-06
   3    3.5260894e-05
   4    2.4526537e-15
   5    1.0477463e-10
   6    2.1936475e-08
   7    8.2739516e-14
   8    3.5346312e-09
   9    7.4982577e-07
   10    9.6705324e-05
   11    0.99892898
   12    0.54187211
   13    19.36096
   14    0
   15    0
   16    0.0021567993
   17    2.281653e-15
   18    2.4804058e-11
   19    8.2916251e-11
   20   -1.5263369e-15
   21   -6.5256558e-11
   22   -1.6247047e-08
   23    0
   24    0
   25    0
   26    0
   27    0
   28    0
   29    0
   30    0
   31    0
   39    4.0017502e-05
   40    0
   41    0
   42    0

BLOCK FWCOEF Q=  160
   305   4422   0   0   -0.18881911
   305   4422   0   2   -0.19455748
   305   4322   0   2   -0.00012866726
   305   6421   0   0   -0.095227835
   305   6421   0   2   -0.10064609
   305   6321   0   2   -0.00011537805
   3051111   4133   0   0    1.629653
   3051111   4133   0   2    1.6298788
   3051111   4233   0   2    5.8461464e-05
   3051111   4137   0   0   -4.4523451
   3051111   4137   0   2   -4.4514927
   3051111   4237   0   2   -0.00043100786
   3051313   4133   0   0    1.629653
   3051313   4133   0   2    1.6298786
   3051313   4233   0   2    5.8461442e-05
   3051313   4137   0   0   -4.4523451
   3051313   4137   0   2   -4.4514929
   3051313   4237   0   2   -0.00043100792
   3051212   4137   0   0    1.5053501
   3051212   4137   0   2    1.5051692
   3051212   4237   0   2    9.313765e-05
   3051414   4137   0   0    1.5053501
   3051414   4137   0   2    1.5051692
   3051414   4237   0   2    9.3137651e-05
   3051616   4137   0   0    1.5053501
   3051616   4137   0   2    1.5051694
   3051616   4237   0   2    9.3137858e-05

BLOCK IMFWCOEF Q=  160
   305   4422   0   0    3.8581938e-07
   305   4422   0   2   -4.3763507e-06
   305   4322   0   2   -1.1167211e-06
   305   6421   0   0    3.3047981e-07
   305   6421   0   2    1.8277192e-07
   305   6321   0   2   -4.7122561e-07
   3051111   4133   0   2    2.8988339e-07
   3051111   4233   0   2    1.1254963e-06
   3051111   4137   0   2   -2.3520469e-06
   3051111   4237   0   2   -8.2977299e-06
   3051313   4133   0   2    2.8987901e-07
   3051313   4233   0   2    1.1254959e-06
   3051313   4137   0   2   -2.3520468e-06
   3051313   4237   0   2   -8.297731e-06
   3051212   4137   0   2    5.6711609e-07
   3051212   4237   0   2    1.7930795e-06
   3051414   4137   0   2    5.6711515e-07
   3051414   4237   0   2    1.7930795e-06
   3051616   4137   0   2    5.7160402e-07
   3051616   4237   0   2    1.7930797e-06

DECAY 23  2.4952


DECAY 24  2.085


DECAY 1000011  0.00051829566
    0.59166948   2    1000022    11
    0.20826429   2    1000023    11
    0.20006099   2   -1000024    12

DECAY 2000011  0.00053644492
    0.58158353   2    1000022    11
    0.41831746   2    1000023    11

DECAY 1000013  0.00068214881
    0.57349722   2    1000022    13
    0.27452366   2    1000023    13
    0.15197515   2   -1000024    14

DECAY 2000013  0.0048827591
    0.42525065   2   -1000024    14
    0.27766928   2    1000022    13
    0.25729139   2    1000023    13
    0.039788679   2    1000013    25

DECAY 1000015  0.46955875
    0.50444693   2    1000022    15
    0.49321604   2    1000023    15
    0.0023370309   2   -1000024    16

DECAY 2000015  7.8594218
    0.38649713   2   -1000024    16
    0.1964287   2    1000035    15
    0.19400772   2    1000022    15
    0.19288921   2    1000023    15
    0.015142922   2    1000016   -24
    0.0075614677   2    1000015    23
    0.0073424694   2    1000015    25

DECAY 1000012  0.002658389
    0.74577258   2    1000024    11
    0.17955971   2    1000022    12
    0.074667715   2    1000023    12

DECAY 1000014  0.0028131936
    0.75981279   2    1000024    13
    0.16964355   2    1000022    14
    0.070543656   2    1000023    14

DECAY 1000016  0.49027515
    0.98551703   2    1000024    15
    0.01008239   2    1000022    16
    0.0044005818   2    1000023    16

DECAY 1000001  0.35320244
    0.63100231   2   -1000037    2
    0.31601844   2    1000025    1
    0.031860325   2    1000022    1
    0.013359917   2    1000023    1
    0.0077590058   2   -1000024    2

DECAY 2000001  0.00022019051
    0.56242071   2    1000022    1
    0.40989516   2    1000023    1
    0.025343917   2   -1000024    2
    0.0021236554   2    1000025    1
    0.00021481957   2    1000001    25

DECAY 1000003  0.3550559
    0.62764924   2   -1000037    4
    0.31435862   2    1000025    3
    0.033394032   2    1000022    3
    0.014975875   2    1000023    3
    0.0096222284   2   -1000024    4

DECAY 2000003  0.0042554336
    0.47340758   2   -1000024    4
    0.26593324   2    1000022    3
    0.25648803   2    1000023    3
    0.0040126958   2    1000003    25
    0.00012601779   2    1000025    3

DECAY 1000005  111.47395
    0.68859859   2   -1000024    6
    0.16859403   2   -1000037    6
    0.083190972   2    1000025    5
    0.02998151   2    1000022    5
    0.0296349   2    1000023    5

DECAY 2000005  17.131788
    0.48764496   2   -1000024    6
    0.24498532   2    1000022    5
    0.24379676   2    1000023    5
    0.014156639   2    1000035    5
    0.0040361849   2    1000006   -24
    0.0030966658   2    1000005    25
    0.0020187272   2    1000005    23
    0.000176651   2   -1000037    6

DECAY 2000002  0.00026903382
    0.58144459   2    1000022    2
    0.41855015   2    1000023    2

DECAY 1000002  0.39503918
    0.5491741   2    1000037    1
    0.27609464   2    1000025    2
    0.14110897   2    1000024    1
    0.024072458   2    1000022    2
    0.009549828   2    1000023    2

DECAY 2000004  0.00099869534
    0.36537625   2    1000024    3
    0.33898759   2    1000022    4
    0.29563616   2    1000023    4

DECAY 1000004  0.39689922
    0.54658339   2    1000037    3
    0.27477481   2    1000025    4
    0.14347594   2    1000024    3
    0.024807206   2    1000022    4
    0.010358551   2    1000023    4

DECAY 1000006  113.3275
    0.34052152   2    1000023    6
    0.33841226   2    1000022    6
    0.16256707   2    1000037    5
    0.08239601   2    1000025    6
    0.061335011   2    1000024    5
    0.014768086   3    1000022    24    5

DECAY 2000006  203.07471
    0.48015637   2    1000024    5
    0.24124434   2    1000023    6
    0.23943693   2    1000022    6
    0.014837579   2    1000005    24
    0.0091704602   2    1000006    25
    0.0073730756   2    1000006    23
    0.0047806667   2    1000035    6
    0.0020028489   2    1000037    5
    0.00099773226   2    1000025    6

DECAY 1000024  6.3474015e-12
    0.60036265   3    1000022   -1    2
    0.20015799   3    1000022   -11    12
    0.19542671   3    1000022   -13    14
    0.0040526504   3    1000022   -3    4

DECAY 1000037  52.962105
    0.13364308   2    1000014   -13
    0.13364163   2    1000012   -11
    0.13363776   2   -1000013    14
    0.13363631   2   -1000011    12
    0.078495047   2    1000024    25
    0.075948789   2    1000023    24
    0.075471623   2    1000024    23
    0.075299711   2    1000022    24
    0.074990443   2    1000016   -15
    0.074832995   2   -1000015    16
    0.0040516712   3    1000024    6   -6
    0.0034050236   3    1000023   -5    6
    0.0029406452   3    1000022   -5    6

DECAY 1000022 -1


DECAY 1000023  1.1606405e-08
    0.8639353   2    1000022    22
    0.034629049   3    1000022    12   -12
    0.025892562   3    1000022    1   -1
    0.025679551   3    1000022    3   -3
    0.020194429   3    1000022    2   -2
    0.0058430369   3    1000022    11   -11
    0.0057675468   3    1000022    13   -13
    0.0043178257   3    1000024    1   -2
    0.0043178257   3   -1000024   -1    2
    0.0025793811   3    1000022    4   -4
    0.001439413   3    1000024    11   -12
    0.001439413   3   -1000024   -11    12
    0.0014204402   3    1000024    13   -14
    0.0014204402   3   -1000024   -13    14
    0.00055548275   3    1000024    3   -4
    0.00055548275   3   -1000024   -3    4

DECAY 1000025  55.420659
    0.072534995   2    1000024   -24
    0.072534995   2   -1000024    24
    0.066485524   2    1000023    25
    0.063895183   2    1000014   -14
    0.063895183   2   -1000014    14
    0.063894499   2    1000012   -12
    0.063894499   2   -1000012    12
    0.063796949   2    1000013   -13
    0.063796949   2   -1000013    13
    0.063796252   2    1000011   -11
    0.063796252   2   -1000011    11
    0.052986485   2    1000022    25
    0.051537347   2    1000023    23
    0.035846318   2    1000016   -16
    0.035846318   2   -1000016    16
    0.035719562   2    1000015   -15
    0.035719562   2   -1000015    15
    0.020810873   2    1000022    23
    0.0027244696   3    1000024    5   -6
    0.0027244696   3   -1000024   -5    6
    0.0019897967   3    1000023    6   -6
    0.0017666092   3    1000022    6   -6

DECAY 1000035  121.58337
    0.088115826   2    2000004   -4
    0.088115826   2   -2000004    4
    0.088115818   2    2000002   -2
    0.088115818   2   -2000002    2
    0.068343809   2    2000013   -13
    0.068343809   2   -2000013    13
    0.068343457   2    2000011   -11
    0.068343457   2   -2000011    11
    0.021875624   2    1000024   -24
    0.021875624   2   -1000024    24
    0.020159586   2    1000014   -14
    0.020159586   2   -1000014    14
    0.020159538   2    1000012   -12
    0.020159538   2   -1000012    12
    0.020092376   2    1000013   -13
    0.020092376   2   -1000013    13
    0.020092328   2    1000011   -11
    0.020092328   2   -1000011    11
    0.017960653   2    1000016   -16
    0.017960653   2   -1000016    16
    0.01789721   2    1000015   -15
    0.01789721   2   -1000015    15
    0.014901143   2    1000023    25
    0.012867628   2    1000023    23
    0.0118924   2    1000022    25
    0.0091687167   2    1000022    23
    0.0037479682   2    1000003   -3
    0.0037479682   2   -1000003    3
    0.0037479631   2    1000001   -1
    0.0037479631   2   -1000001    1
    0.0037226306   2    1000004   -4
    0.0037226306   2   -1000004    4
    0.0037226215   2    1000002   -2
    0.0037226215   2   -1000002    2
    0.0034566923   2    2000003   -3
    0.0034566923   2   -2000003    3
    0.0034566743   2    2000001   -1
    0.0034566743   2   -2000001    1
    0.001208213   3    1000024    5   -6
    0.001208213   3   -1000024   -5    6
    0.0010610119   3    1000023    6   -6
    0.00098711983   3    1000022    6   -6
    0.00013218912   2    1000025    25
    0.00012788219   2    1000037   -24
    0.00012788219   2   -1000037    24

DECAY 1000021  758.48255
    0.081267315   2    2000004   -4
    0.081267315   2   -2000004    4
    0.081267299   2    2000002   -2
    0.081267299   2   -2000002    2
    0.063317101   2    1000004   -4
    0.063317101   2   -1000004    4
    0.063317053   2    1000002   -2
    0.063317053   2   -1000002    2
    0.063275822   2    1000003   -3
    0.063275822   2   -1000003    3
    0.063275768   2    1000001   -1
    0.063275768   2   -1000001    1
    0.029058573   2    2000003   -3
    0.029058573   2   -2000003    3
    0.029058506   2    2000001   -1
    0.029058506   2   -2000001    1
    0.01295977   2    1000005   -5
    0.01295977   2   -1000005    5
    0.012648234   2    1000006   -6
    0.012648234   2   -1000006    6
    0.00026560603   3    1000023    6   -6
    0.00026391542   3    1000024    5   -6
    0.00026391542   3   -1000024   -5    6
    0.00026368637   3    1000022    6   -6

DECAY 25  0.0033976657
    0.63456843   2   -5    5
    0.16422205   2   -24    24
    0.074935628   2    21    21
    0.072601055   2   -15    15
    0.031452925   2   -4    4
    0.018262557   2    23    23
    0.0023198173   2    22    22
    0.0011463767   2    22    23
    0.00025182944   2   -13    13
    0.00023849772   2   -3    3
    6.5942339e-07   2   -1    1
    1.6209854e-07   2   -2    2
    5.6614638e-09   2   -11    11

DECAY 35  53.765565
    0.30540753   2   -5    5
    0.2086296   2   -1000024    1000037
    0.2086296   2   -1000037    1000024
    0.10735931   2    1000023    1000025
    0.10141172   2    1000022    1000025
    0.055633954   2   -15    15
    0.0094820189   2   -6    6
    0.0022932541   2   -1000024    1000024
    0.00057839141   2    1000022    1000022
    0.00020213969   2    1000023    1000023
    0.0001881164   2   -13    13
    0.00012029132   2   -3    3
    1.7567618e-05   2   -1000037    1000037
    1.6843473e-05   2    1000022    1000023
    8.7569242e-06   2    1000025    1000025
    5.5788933e-06   2    25    25
    1.4306071e-06   2   -2000004    1000004
    1.4306071e-06   2   -1000004    2000004
    1.3409745e-06   2   -1000002    1000002
    1.340327e-06   2   -1000004    1000004
    1.304702e-06   2   -1000015    1000015
    1.2446763e-06   2   -1000001    1000001
    1.2444431e-06   2   -1000003    1000003
    7.2397612e-07   2    23    23
    4.7388351e-07   2    21    21
    3.3256878e-07   2   -1    1
    3.0615314e-07   2   -1000011    1000011
    3.0552452e-07   2   -1000013    1000013
    1.6784125e-07   2   -2000011    2000011
    1.6757024e-07   2   -2000013    2000013
    1.5196567e-07   2   -2000002    2000002
    1.5174106e-07   2   -2000004    2000004
    1.3466812e-07   2   -4    4
    1.3216977e-07   2   -24    24
    3.3428575e-08   2    22    23
    4.9725885e-09   2    22    22
    4.2243586e-09   2   -11    11
    4.0058085e-09   2   -2000013    1000013
    4.0058085e-09   2   -1000013    2000013
    5.5436151e-12   2   -2000002    1000002
    5.5436151e-12   2   -1000002    2000002
    6.941463e-13   2   -2    2
    9.3696515e-14   2   -2000011    1000011
    9.3696515e-14   2   -1000011    2000011

DECAY 36  52.979494
    0.2980112   2   -5    5
    0.21175258   2   -1000024    1000037
    0.21175258   2   -1000037    1000024
    0.10952765   2    1000022    1000025
    0.10237057   2    1000023    1000025
    0.054287153   2   -15    15
    0.0087557255   2   -6    6
    0.0023581365   2   -1000024    1000024
    0.00050324178   2    1000022    1000022
    0.00027081169   2    1000023    1000023
    0.00018356209   2   -13    13
    0.00011737727   2   -3    3
    4.7773508e-05   2    1000022    1000023
    3.2193713e-05   2   -1000037    1000037
    1.6068835e-05   2    1000025    1000025
    8.1860923e-06   2    21    21
    1.8033167e-06   2    23    25
    1.451835e-06   2   -2000004    1000004
    1.451835e-06   2   -1000004    2000004
    3.2451609e-07   2   -1    1
    1.2415948e-07   2   -4    4
    2.1033474e-08   2    22    23
    4.1221539e-09   2   -11    11
    4.0459224e-09   2   -2000013    1000013
    4.0459224e-09   2   -1000013    2000013
    2.3809947e-09   2    22    22
    5.6258736e-12   2   -2000002    1000002
    5.6258736e-12   2   -1000002    2000002
    6.3998065e-13   2   -2    2
    9.4634544e-14   2   -2000011    1000011
    9.4634544e-14   2   -1000011    2000011
    1.3269544e-38   2    25    25

DECAY 37  53.880888
    0.31345058   2   -5    6
    0.20989009   2    1000022    1000037
    0.20887599   2    1000024    1000025
    0.20814089   2    1000023    1000037
    0.058375006   2   -15    16
    0.00045158175   2   -5    4
    0.00034995488   2    1000023    1000024
    0.0002063764   2   -13    14
    0.00011627684   2    1000022    1000024
    0.00010969649   2   -3    4
    1.334824e-05   2   -3    6
    5.1560987e-06   2   -3    2
    3.2247578e-06   2   -5    2
    2.1771021e-06   2   -1000015    1000016
    1.9647657e-06   2   -1000001    2000002
    1.9611738e-06   2   -1000003    2000004
    1.7741712e-06   2    24    25
    1.2002427e-06   2   -1000011    1000012
    1.1993627e-06   2   -1000013    1000014
    6.0470765e-07   2   -1    6
    3.9143211e-07   2   -1000003    1000004
    3.0405819e-07   2   -1    2
    1.0505399e-07   2   -1000003    2000002
    1.0493253e-07   2   -1000001    2000004
    2.0941404e-08   2   -1000001    1000004
    1.9771486e-08   2   -1    4
    8.1097815e-09   2   -2000013    1000014
    4.8271655e-09   2   -11    12
    1.6728623e-11   2    1000025    1000037
    2.0565888e-12   2   -1000001    1000002
    3.3224924e-13   2   -2000003    1000004
    1.8968982e-13   2   -2000011    1000012
    1.09975e-13   2   -1000003    1000002
    4.9238446e-17   2   -2000001    1000004
    9.334732e-20   2   -2000003    1000002
    4.8355553e-21   2   -2000001    1000002

DECAY 6  2.43
    1   2    5    24

DECAY 15 -1
