# SUSY Les Houches Accord 2 - MSSM spectrum + Decays
# SPheno v4.0.5be
# W. Porod, Comput. Phys. Commun. 153 (2003) 275-315, hep-ph/0301101;
# W. Porod, F.~Staub, Comput. Phys. Commun. 183 (2012) 2458
#                     arXiv:1104.1573 [hep-ph] 
# in case of problems send email to porod@physik.uni-wuerzburg.de
# Created: 07.09.2021,  15:08
Block SPINFO         # Program information
     1   SPheno      # spectrum calculator
     2   v4.0.5be    # version number
#
Block SPhenoINFO     # SPheno specific information
    1      2         # using 2-loop RGEs
    2      2         # using pole masses for boundary conditions at mZ
Block MODSEL  # Model selection
    1    0    # general MSSM
Block MINPAR  # Input parameters
    3    9.79901375E+00  # tanb at m_Z    
    4   -1.00000000E+00  # Sign(mu)
Block EXTPAR  # non-universal input parameters
    0    4.17272874E+03  # scale for input parameters
    1   -2.98900611E+02  # M_1
    2    2.88175873E+02  # M_2
    3    1.54177656E+03  # M_3
   11    5.16463829E+03  # A_t
   12    1.04324556E+03  # A_b
   13   -1.81604398E+03  # A_tau
   23   -1.60042306E+03  # mu
   25    9.29917951E+00  # tan(beta)
   26    4.93693562E+03  # m_A, pole mass
   31    1.00000000E+04  # M_L11
   32    1.00000000E+04  # M_L22
   33    1.00000000E+04  # M_L33
   34    1.00000000E+04  # M_E11
   35    1.00000000E+04  # M_E22
   36    1.00000000E+04  # M_E33
   41    1.00000000E+04  # M_Q11
   42    1.00000000E+04  # M_Q22
   43    4.29037658E+03  # M_Q33
   44    1.00000000E+04  # M_U11
   45    1.00000000E+04  # M_U22
   46    4.11362990E+03  # M_U33
   47    1.00000000E+04  # M_D11
   48    1.00000000E+04  # M_D22
   49    2.94172282E+03  # M_D33
Block SMINPUTS  # SM parameters
         1     1.27908970E+02  # alpha_em^-1(MZ)^MSbar
         2     1.16637870E-05  # G_mu [GeV^-2]
         3     1.18400000E-01  # alpha_s(MZ)^MSbar
         4     9.11876000E+01  # m_Z(pole)
         5     4.18000000E+00  # m_b(m_b), MSbar
         6     1.73200000E+02  # m_t(pole)
         7     1.77700000E+00  # m_tau(pole)
         8     0.00000000E+00  # m_nu_3
        11     5.10998930E-04  # m_e(pole)
        12     0.00000000E+00  # m_nu_1
        13     1.05658372E-01  # m_muon(pole)
        14     0.00000000E+00  # m_nu_2
        21     5.00000000E-03  # m_d(2 GeV), MSbar
        22     2.50000000E-03  # m_u(2 GeV), MSbar
        23     9.50000000E-02  # m_s(2 GeV), MSbar
        24     1.27000000E+00  # m_c(m_c), MSbar
Block gauge Q=  4.17272874E+03  # (SUSY scale)
   1    3.55362975E-01  # g'(Q)^DRbar
   2    6.65198874E-01  # g(Q)^DRbar
   3    1.21977796E+00  # g3(Q)^DRbar
Block Yu Q=  4.17272874E+03  # (SUSY scale)
  1  1     8.43271152E-06   # Y_u(Q)^DRbar
  2  2     4.28381745E-03   # Y_c(Q)^DRbar
  3  3     1.01873928E+00   # Y_t(Q)^DRbar
Block Yd Q=  4.17272874E+03  # (SUSY scale)
  1  1     1.57576744E-04   # Y_d(Q)^DRbar
  2  2     2.99395814E-03   # Y_s(Q)^DRbar
  3  3     1.56266753E-01   # Y_b(Q)^DRbar
Block Ye Q=  4.17272874E+03  # (SUSY scale)
  1  1     2.74982941E-05   # Y_e(Q)^DRbar
  2  2     5.68577509E-03   # Y_mu(Q)^DRbar
  3  3     9.56253835E-02   # Y_tau(Q)^DRbar
Block Au Q=  4.17272874E+03  # (SUSY scale)
  1  1     0.00000000E+00   # A_u(Q)^DRbar
  2  2     0.00000000E+00   # A_c(Q)^DRbar
  3  3     5.16463831E+03   # A_t(Q)^DRbar
Block Ad Q=  4.17272874E+03  # (SUSY scale)
  1  1     0.00000000E+00   # A_d(Q)^DRbar
  2  2     0.00000000E+00   # A_s(Q)^DRbar
  3  3     1.04324555E+03   # A_b(Q)^DRbar
Block Ae Q=  4.17272874E+03  # (SUSY scale)
  1  1     0.00000000E+00   # A_e(Q)^DRbar
  2  2     0.00000000E+00   # A_mu(Q)^DRbar
  3  3    -1.81604397E+03   # A_tau(Q)^DRbar
Block MSOFT Q=  4.17272874E+03  # soft SUSY breaking masses at Q
   1   -2.98900611E+02  # M_1
   2    2.88175873E+02  # M_2
   3    1.54177656E+03  # M_3
  21    2.14452485E+07  # M^2_(H,d)
  22   -1.92751330E+06  # M^2_(H,u)
  31    1.00000000E+04  # M_(L,11)
  32    1.00000000E+04  # M_(L,22)
  33    1.00000000E+04  # M_(L,33)
  34    1.00000000E+04  # M_(E,11)
  35    1.00000000E+04  # M_(E,22)
  36    1.00000000E+04  # M_(E,33)
  41    1.00000000E+04  # M_(Q,11)
  42    1.00000000E+04  # M_(Q,22)
  43    4.29037658E+03  # M_(Q,33)
  44    1.00000000E+04  # M_(U,11)
  45    1.00000000E+04  # M_(U,22)
  46    4.11362990E+03  # M_(U,33)
  47    1.00000000E+04  # M_(D,11)
  48    1.00000000E+04  # M_(D,22)
  49    2.94172282E+03  # M_(D,33)
Block MASS  # Mass spectrum
#   PDG code      mass          particle
         6     1.73200000E+02  # m_t(pole)
        23     9.11876000E+01  # m_Z(pole)
        24     8.04299946E+01  # W+
        15     1.77700000E+00  # m_tau(pole)
        25     1.25118501E+02  # h0
        35     4.93657459E+03  # H0
        36     4.93693562E+03  # A0
        37     4.93707774E+03  # H+
   1000001     1.01213207E+04  # ~d_L
   2000001     1.00961740E+04  # ~d_R
   1000002     1.01209659E+04  # ~u_L
   2000002     1.00988786E+04  # ~u_R
   1000003     1.01213210E+04  # ~s_L
   2000003     1.00961740E+04  # ~s_R
   1000004     1.01209662E+04  # ~c_L
   2000004     1.00988790E+04  # ~c_R
   1000005     3.00020393E+03  # ~b_1
   2000005     4.29061237E+03  # ~b_2
   1000006     4.03212287E+03  # ~t_1
   2000006     4.31823774E+03  # ~t_2
   1000011     1.00211635E+04  # ~e_L-
   2000011     1.00093868E+04  # ~e_R-
   1000012     1.00204030E+04  # ~nu_eL
   1000013     1.00211643E+04  # ~mu_L-
   2000013     1.00093869E+04  # ~mu_R-
   1000014     1.00204032E+04  # ~nu_muL
   1000015     1.00094483E+04  # ~tau_1-
   2000015     1.00213659E+04  # ~tau_2-
   1000016     1.00204922E+04  # ~nu_tauL
   1000021     1.91913671E+03  # ~g
   1000022     2.99475345E+02  # ~chi_10
   1000023     3.22476101E+02  # ~chi_20
   1000025     1.62720972E+03  # ~chi_30
   1000035     1.62766885E+03  # ~chi_40
   1000024     3.22633972E+02  # ~chi_1+
   1000037     1.62861245E+03  # ~chi_2+
# Higgs mixing
Block alpha # Effective Higgs mixing angle
          -1.01792359E-01   # alpha
Block Hmix Q=  4.17272874E+03  # Higgs mixing parameters
   1   -1.60042306E+03  # mu
   2    9.29917951E+00  # tan[beta](Q)
   3    2.42875606E+02  # v(Q)
   4    2.43733333E+07  # m^2_A(Q)
Block stopmix # stop mixing matrix
   1  1    -3.15148506E-01   # Re[R_st(1,1)]
   1  2     9.49042370E-01   # Re[R_st(1,2)]
   2  1    -9.49042370E-01   # Re[R_st(2,1)]
   2  2    -3.15148506E-01   # Re[R_st(2,2)]
Block sbotmix # sbottom mixing matrix
   1  1    -3.73427326E-03   # Re[R_sb(1,1)]
   1  2     9.99993028E-01   # Re[R_sb(1,2)]
   2  1    -9.99993028E-01   # Re[R_sb(2,1)]
   2  2    -3.73427326E-03   # Re[R_sb(2,2)]
Block staumix # stau mixing matrix
   1  1    -9.83539788E-02   # Re[R_sta(1,1)]
   1  2     9.95151493E-01   # Re[R_sta(1,2)]
   2  1    -9.95151493E-01   # Re[R_sta(2,1)]
   2  2    -9.83539788E-02   # Re[R_sta(2,2)]
Block Nmix # neutralino mixing matrix
   1  1    -9.99547793E-01   # Re[N(1,1)]
   1  2    -1.48025252E-03   # Re[N(1,2)]
   1  3     2.88633048E-02   # Re[N(1,3)]
   1  4    -8.30226124E-03   # Re[N(1,4)]
   2  1    -8.73836136E-05   # Re[N(2,1)]
   2  2     9.98768148E-01   # Re[N(2,2)]
   2  3     4.94334037E-02   # Re[N(2,3)]
   2  4     4.30321715E-03   # Re[N(2,4)]
   3  1    -1.45658271E-02   # Re[N(3,1)]
   3  2     3.79826808E-02   # Re[N(3,2)]
   3  3    -7.05880895E-01   # Re[N(3,3)]
   3  4    -7.07161449E-01   # Re[N(3,4)]
   4  1     2.63066171E-02   # Re[N(4,1)]
   4  2    -3.18953215E-02   # Re[N(4,2)]
   4  3     7.06013747E-01   # Re[N(4,3)]
   4  4    -7.06990268E-01   # Re[N(4,4)]
Block Umix # chargino mixing matrix
   1  1    -9.97560160E-01   # Re[U(1,1)]
   1  2    -6.98120862E-02   # Re[U(1,2)]
   2  1     6.98120862E-02   # Re[U(2,1)]
   2  2    -9.97560160E-01   # Re[U(2,2)]
Block Vmix # chargino mixing matrix
   1  1    -9.99981597E-01   # Re[V(1,1)]
   1  2     6.06668616E-03   # Re[V(1,2)]
   2  1     6.06668616E-03   # Re[V(2,1)]
   2  2     9.99981597E-01   # Re[V(2,2)]
DECAY        23     2.49520000E+00   # Z
DECAY        24     2.08500000E+00   # W
DECAY   2000011     5.02012186E+01   # ~e^-_R
#    BR                NDA      ID1      ID2
     9.99141392E-01    2     1000022        11   # BR(~e^-_R -> chi^0_1 e^-)
     2.01468331E-04    2     1000025        11   # BR(~e^-_R -> chi^0_3 e^-)
     6.57129659E-04    2     1000035        11   # BR(~e^-_R -> chi^0_4 e^-)
DECAY   1000011     1.44592595E+02   # ~e^-_L
#    BR                NDA      ID1      ID2
     8.73076243E-02    2     1000022        11   # BR(~e^-_L -> chi^0_1 e^-)
     3.03643591E-01    2     1000023        11   # BR(~e^-_L -> chi^0_2 e^-)
     2.63766046E-04    2     1000025        11   # BR(~e^-_L -> chi^0_3 e^-)
     6.05874474E-01    2    -1000024        12   # BR(~e^-_L -> chi^-_1 nu_e)
     2.81849341E-03    2    -1000037        12   # BR(~e^-_L -> chi^-_2 nu_e)
#    BR                NDA      ID1      ID2       ID3
DECAY   2000013     5.02134241E+01   # ~mu^-_R
#    BR                NDA      ID1      ID2
     9.98898644E-01    2     1000022        13   # BR(~mu^-_R -> chi^0_1 mu^-)
     2.61964597E-04    2     1000025        13   # BR(~mu^-_R -> chi^0_3 mu^-)
     7.17535480E-04    2     1000035        13   # BR(~mu^-_R -> chi^0_4 mu^-)
     1.20912273E-04    2    -1000037        14   # BR(~mu^-_R -> chi^-_2 nu_mu)
DECAY   1000013     1.44598717E+02   # ~mu^-_L
#    BR                NDA      ID1      ID2
     8.73039719E-02    2     1000022        13   # BR(~mu^-_L -> chi^0_1 mu^-)
     3.03630868E-01    2     1000023        13   # BR(~mu^-_L -> chi^0_2 mu^-)
     2.84807041E-04    2     1000025        13   # BR(~mu^-_L -> chi^0_3 mu^-)
     1.13107473E-04    2     1000035        13   # BR(~mu^-_L -> chi^0_4 mu^-)
     6.05848871E-01    2    -1000024        14   # BR(~mu^-_L -> chi^-_1 nu_mu)
     2.81837433E-03    2    -1000037        14   # BR(~mu^-_L -> chi^-_2 nu_mu)
#    BR                NDA      ID1      ID2       ID3
DECAY   1000015     5.45629896E+01   # ~tau^-_1
#    BR                NDA      ID1      ID2
     9.13138318E-01    2     1000022        15   # BR(~tau^-_1 -> chi^0_1 tau^-)
     9.43944008E-03    2     1000023        15   # BR(~tau^-_1 -> chi^0_2 tau^-)
     1.49675264E-02    2     1000025        15   # BR(~tau^-_1 -> chi^0_3 tau^-)
     1.53794744E-02    2     1000035        15   # BR(~tau^-_1 -> chi^0_4 tau^-)
     1.88322816E-02    2    -1000024        16   # BR(~tau^-_1 -> chi^-_1 nu_tau)
     2.82429599E-02    2    -1000037        16   # BR(~tau^-_1 -> chi^-_2 nu_tau)
DECAY   2000015     1.45413846E+02   # ~tau^-_2
#    BR                NDA      ID1      ID2
     8.91427561E-02    2     1000022        15   # BR(~tau^-_2 -> chi^0_1 tau^-)
     2.98449876E-01    2     1000023        15   # BR(~tau^-_2 -> chi^0_2 tau^-)
     6.55166044E-03    2     1000025        15   # BR(~tau^-_2 -> chi^0_3 tau^-)
     6.38774612E-03    2     1000035        15   # BR(~tau^-_2 -> chi^0_4 tau^-)
     5.95451079E-01    2    -1000024        16   # BR(~tau^-_2 -> chi^-_1 nu_tau)
     4.01688251E-03    2    -1000037        16   # BR(~tau^-_2 -> chi^-_2 nu_tau)
#    BR                NDA      ID1      ID2       ID3
DECAY   1000012     1.44596333E+02   # ~nu_e
#    BR                NDA      ID1      ID2
     8.63360536E-02    2     1000022        12   # BR(~nu_e -> chi^0_1 nu_e)
     3.03669371E-01    2     1000023        12   # BR(~nu_e -> chi^0_2 nu_e)
     6.05574312E-04    2     1000025        12   # BR(~nu_e -> chi^0_3 nu_e)
     6.10456618E-04    2     1000035        12   # BR(~nu_e -> chi^0_4 nu_e)
     6.08757262E-01    2     1000024        11   # BR(~nu_e -> chi^+_1 e^-)
#    BR                NDA      ID1      ID2       ID3
DECAY   1000014     1.44602446E+02   # ~nu_mu
#    BR                NDA      ID1      ID2
     8.63324056E-02    2     1000022        14   # BR(~nu_mu -> chi^0_1 nu_mu)
     3.03656540E-01    2     1000023        14   # BR(~nu_mu -> chi^0_2 nu_mu)
     6.05548726E-04    2     1000025        14   # BR(~nu_mu -> chi^0_3 nu_mu)
     6.10430825E-04    2     1000035        14   # BR(~nu_mu -> chi^0_4 nu_mu)
     6.08731756E-01    2     1000024        13   # BR(~nu_mu -> chi^+_1 mu^-)
#    BR                NDA      ID1      ID2       ID3
DECAY   1000016     1.46325953E+02   # ~nu_tau
#    BR                NDA      ID1      ID2
     8.53162954E-02    2     1000022        16   # BR(~nu_tau -> chi^0_1 nu_tau)
     3.00082582E-01    2     1000023        16   # BR(~nu_tau -> chi^0_2 nu_tau)
     5.98422130E-04    2     1000025        16   # BR(~nu_tau -> chi^0_3 nu_tau)
     6.03246773E-04    2     1000035        16   # BR(~nu_tau -> chi^0_4 nu_tau)
     6.01627619E-01    2     1000024        15   # BR(~nu_tau -> chi^+_1 tau^-)
     1.17718346E-02    2     1000037        15   # BR(~nu_tau -> chi^+_2 tau^-)
#    BR                NDA      ID1      ID2       ID3
DECAY   2000001     7.46001780E+02   # ~d_R
#    BR                NDA      ID1      ID2
     7.53566379E-03    2     1000022         1   # BR(~d_R -> chi^0_1 d)
     9.92457842E-01    2     1000021         1   # BR(~d_R -> ~g d)
DECAY   1000001     8.77254294E+02   # ~d_L
#    BR                NDA      ID1      ID2
     1.57945168E-03    2     1000022         1   # BR(~d_L -> chi^0_1 d)
     5.05563331E-02    2     1000023         1   # BR(~d_L -> chi^0_2 d)
     1.00864883E-01    2    -1000024         2   # BR(~d_L -> chi^-_1 u)
     4.69699983E-04    2    -1000037         2   # BR(~d_L -> chi^-_2 u)
     8.46385800E-01    2     1000021         1   # BR(~d_L -> ~g d)
DECAY   2000003     7.46005187E+02   # ~s_R
#    BR                NDA      ID1      ID2
     7.53563138E-03    2     1000022         3   # BR(~s_R -> chi^0_1 s)
     9.92453309E-01    2     1000021         3   # BR(~s_R -> ~g s)
DECAY   1000003     8.77259537E+02   # ~s_L
#    BR                NDA      ID1      ID2
     1.57944400E-03    2     1000022         3   # BR(~s_L -> chi^0_1 s)
     5.05560374E-02    2     1000023         3   # BR(~s_L -> chi^0_2 s)
     1.00864280E-01    2    -1000024         4   # BR(~s_L -> chi^-_1 c)
     4.73697826E-04    2    -1000037         4   # BR(~s_L -> chi^-_2 c)
     8.46380769E-01    2     1000021         3   # BR(~s_L -> ~g s)
DECAY   1000005     8.57515980E+01   # ~b_1
#    BR                NDA      ID1      ID2
     1.91481287E-02    2     1000022         5   # BR(~b_1 -> chi^0_1 b)
     4.21488997E-03    2     1000025         5   # BR(~b_1 -> chi^0_3 b)
     4.21880321E-03    2     1000035         5   # BR(~b_1 -> chi^0_4 b)
     1.21038903E-04    2    -1000024         6   # BR(~b_1 -> chi^-_1 t)
     8.25206061E-03    2    -1000037         6   # BR(~b_1 -> chi^-_2 t)
     9.63983972E-01    2     1000021         5   # BR(~b_1 -> ~g b)
DECAY   2000005     3.46931552E+02   # ~b_2
#    BR                NDA      ID1      ID2
     1.68252643E-03    2     1000022         5   # BR(~b_2 -> chi^0_1 b)
     5.36982893E-02    2     1000023         5   # BR(~b_2 -> chi^0_2 b)
     2.26262774E-03    2     1000025         5   # BR(~b_2 -> chi^0_3 b)
     2.25080251E-03    2     1000035         5   # BR(~b_2 -> chi^0_4 b)
     1.06746918E-01    2    -1000024         6   # BR(~b_2 -> chi^-_1 t)
     1.87239955E-01    2    -1000037         6   # BR(~b_2 -> chi^-_2 t)
     6.24664069E-01    2     1000021         5   # BR(~b_2 -> ~g b)
     2.10726840E-02    2     1000006       -24   # BR(~b_2 -> ~t_1 W^-)
     1.43050211E-04    2     1000005        23   # BR(~b_2 -> ~b_1 Z)
     2.39077271E-04    2     1000005        25   # BR(~b_2 -> ~b_1 h^0)
DECAY   2000002     7.63115253E+02   # ~u_R
#    BR                NDA      ID1      ID2
     2.94746033E-02    2     1000022         2   # BR(~u_R -> chi^0_1 u)
     9.70500044E-01    2     1000021         2   # BR(~u_R -> ~g u)
DECAY   1000002     8.77242970E+02   # ~u_L
#    BR                NDA      ID1      ID2
     1.63284134E-03    2     1000022         2   # BR(~u_L -> chi^0_1 u)
     5.05520557E-02    2     1000023         2   # BR(~u_L -> chi^0_2 u)
     1.01352889E-01    2     1000024         1   # BR(~u_L -> chi^+_1 d)
     8.46362629E-01    2     1000021         2   # BR(~u_L -> ~g u)
DECAY   2000004     7.63122252E+02   # ~c_R
#    BR                NDA      ID1      ID2
     2.94743334E-02    2     1000022         4   # BR(~c_R -> chi^0_1 c)
     9.70491148E-01    2     1000021         4   # BR(~c_R -> ~g c)
DECAY   1000004     8.77248182E+02   # ~c_L
#    BR                NDA      ID1      ID2
     1.63283190E-03    2     1000022         4   # BR(~c_L -> chi^0_1 c)
     5.05517550E-02    2     1000023         4   # BR(~c_L -> chi^0_2 c)
     1.01352300E-01    2     1000024         3   # BR(~c_L -> chi^+_1 s)
     8.46357595E-01    2     1000021         4   # BR(~c_L -> ~g c)
DECAY   1000006     3.08549477E+02   # ~t_1
#    BR                NDA      ID1      ID2
     2.63795831E-02    2     1000022         6   # BR(~t_1 -> chi^0_1 t)
     5.29396144E-03    2     1000023         6   # BR(~t_1 -> chi^0_2 t)
     9.81525695E-02    2     1000025         6   # BR(~t_1 -> chi^0_3 t)
     9.45585926E-02    2     1000035         6   # BR(~t_1 -> chi^0_4 t)
     1.06599081E-02    2     1000024         5   # BR(~t_1 -> chi^+_1 b)
     1.71054705E-01    2     1000037         5   # BR(~t_1 -> chi^+_2 b)
     5.93819836E-01    2     1000021         6   # BR(~t_1 -> ~g t)
#    BR                NDA      ID1      ID2       ID3
DECAY   2000006     3.57839655E+02   # ~t_2
#    BR                NDA      ID1      ID2
     3.89911151E-03    2     1000022         6   # BR(~t_2 -> chi^0_1 t)
     4.73271745E-02    2     1000023         6   # BR(~t_2 -> chi^0_2 t)
     8.79450173E-02    2     1000025         6   # BR(~t_2 -> chi^0_3 t)
     9.08878927E-02    2     1000035         6   # BR(~t_2 -> chi^0_4 t)
     9.52220013E-02    2     1000024         5   # BR(~t_2 -> chi^+_1 b)
     2.16549793E-02    2     1000037         5   # BR(~t_2 -> chi^+_2 b)
     6.26610951E-01    2     1000021         6   # BR(~t_2 -> ~g t)
     2.64648129E-04    2     1000005        24   # BR(~t_2 -> ~b_1 W^+)
     1.22634329E-02    2     1000006        23   # BR(~t_2 -> ~t_1 Z)
     1.39247911E-02    2     1000006        25   # BR(~t_2 -> ~t_1 h^0)
DECAY   1000024     7.96074011E-11   # chi^+_1
#    BR                NDA      ID1      ID2       ID3
     3.41557939E-01    3     1000022        -1         2   # BR(chi^+_1 -> chi^0_1 d_bar u)
     3.35509810E-01    3     1000022        -3         4   # BR(chi^+_1 -> chi^0_1 s_bar c)
     1.08971751E-01    3     1000022       -11        12   # BR(chi^+_1 -> chi^0_1 e^+ nu_e)
     1.08962429E-01    3     1000022       -13        14   # BR(chi^+_1 -> chi^0_1 mu^+ nu_mu)
     1.04997204E-01    3     1000022       -15        16   # BR(chi^+_1 -> chi^0_1 tau^+ nu_tau)
DECAY   1000037     1.10773456E+01   # chi^+_2
#    BR                NDA      ID1      ID2
     1.08593729E-01    2     1000022        24   # BR(chi^+_2 -> chi^0_1 W^+)
     2.87901633E-01    2     1000023        24   # BR(chi^+_2 -> chi^0_2 W^+)
     2.87255198E-01    2     1000024        23   # BR(chi^+_2 -> chi^+_1 Z)
     2.92861110E-01    2     1000024        25   # BR(chi^+_2 -> chi^+_1 h^0)
#    BR                NDA      ID1      ID2       ID3
     1.17200167E-02    3     1000024         6        -6   # BR(chi^+_2 -> chi^+_1 t t_bar)
     2.71974271E-03    3     1000022        -5         6   # BR(chi^+_2 -> chi^0_1 b_bar t)
     8.94742258E-03    3     1000023        -5         6   # BR(chi^+_2 -> chi^0_2 b_bar t)
DECAY   1000022     0.00000000E+00   # chi^0_1
DECAY   1000023     5.50428658E-11   # chi^0_2
#    BR                NDA      ID1      ID2
     2.09864444E-01    2     1000022        22   # BR(chi^0_2 -> chi^0_1 photon)
#    BR                NDA      ID1      ID2       ID3
     1.00202277E-01    3     1000022         2        -2   # BR(chi^0_2 -> chi^0_1 u u_bar)
     9.64107554E-02    3     1000022         4        -4   # BR(chi^0_2 -> chi^0_1 c c_bar)
     1.28312653E-01    3     1000022         1        -1   # BR(chi^0_2 -> chi^0_1 d d_bar)
     1.28288880E-01    3     1000022         3        -3   # BR(chi^0_2 -> chi^0_1 s s_bar)
     9.65941378E-02    3     1000022         5        -5   # BR(chi^0_2 -> chi^0_1 b b_bar)
     2.70759611E-02    3     1000022        11       -11   # BR(chi^0_2 -> chi^0_1 e^- e^+)
     2.70682904E-02    3     1000022        13       -13   # BR(chi^0_2 -> chi^0_1 mu^- mu^+)
     2.50265658E-02    3     1000022        15       -15   # BR(chi^0_2 -> chi^0_1 tau^- tau^+)
     1.61156035E-01    3     1000022        12       -12   # BR(chi^0_2 -> chi^0_1 nu_e nu_bar_e)
DECAY   1000025     1.14018615E+01   # chi^0_3
#    BR                NDA      ID1      ID2
     2.80389022E-01    2     1000024       -24   # BR(chi^0_3 -> chi^+_1 W^-)
     2.80389022E-01    2    -1000024        24   # BR(chi^0_3 -> chi^-_1 W^+)
     8.01462188E-02    2     1000022        23   # BR(chi^0_3 -> chi^0_1 Z)
     1.16109915E-01    2     1000023        23   # BR(chi^0_3 -> chi^0_2 Z)
     4.77748419E-02    2     1000022        25   # BR(chi^0_3 -> chi^0_1 h^0)
     1.70657389E-01    2     1000023        25   # BR(chi^0_3 -> chi^0_2 h^0)
#    BR                NDA      ID1      ID2       ID3
     1.55657894E-03    3     1000022         6        -6   # BR(chi^0_3 -> chi^0_1 t t_bar)
     5.42766857E-03    3     1000023         6        -6   # BR(chi^0_3 -> chi^0_2 t t_bar)
     8.76926536E-03    3     1000024         5        -6   # BR(chi^0_3 -> chi^+_1 b t_bar)
     8.76926536E-03    3    -1000024        -5         6   # BR(chi^0_3 -> chi^-_1 b_bar t)
DECAY   1000035     1.26771808E+01   # chi^0_4
#    BR                NDA      ID1      ID2
     2.52375671E-01    2     1000024       -24   # BR(chi^0_4 -> chi^+_1 W^-)
     2.52375671E-01    2    -1000024        24   # BR(chi^0_4 -> chi^-_1 W^+)
     2.20476930E-02    2     1000022        23   # BR(chi^0_4 -> chi^0_1 Z)
     1.48331994E-01    2     1000023        23   # BR(chi^0_4 -> chi^0_2 Z)
     6.43293224E-02    2     1000022        25   # BR(chi^0_4 -> chi^0_1 h^0)
     2.31021931E-01    2     1000023        25   # BR(chi^0_4 -> chi^0_2 h^0)
#    BR                NDA      ID1      ID2       ID3
     1.67524381E-03    3     1000022         6        -6   # BR(chi^0_4 -> chi^0_1 t t_bar)
     5.89339905E-03    3     1000023         6        -6   # BR(chi^0_4 -> chi^0_2 t t_bar)
     1.09619614E-02    3     1000024         5        -6   # BR(chi^0_4 -> chi^+_1 b t_bar)
     1.09619614E-02    3    -1000024        -5         6   # BR(chi^0_4 -> chi^-_1 b_bar t)
DECAY   1000021     2.36802799E-03   # ~g
#    BR                NDA      ID1      ID2
     9.70769603E-04    2     1000025        21   # BR(~g -> chi^0_3 g)
     9.10773310E-04    2     1000035        21   # BR(~g -> chi^0_4 g)
#    BR                NDA      ID1      ID2       ID3
     2.10219274E-03    3     1000022         2        -2   # BR(~g -> chi^0_1 u u_bar)
     2.10219246E-03    3     1000022         4        -4   # BR(~g -> chi^0_1 c c_bar)
     8.32507033E-02    3     1000022         6        -6   # BR(~g -> chi^0_1 t t_bar)
     6.15411331E-04    3     1000022         1        -1   # BR(~g -> chi^0_1 d d_bar)
     6.15411632E-04    3     1000022         3        -3   # BR(~g -> chi^0_1 s s_bar)
     9.53143937E-02    3     1000022         5        -5   # BR(~g -> chi^0_1 b b_bar)
     3.78984686E-03    3     1000023         2        -2   # BR(~g -> chi^0_2 u u_bar)
     3.78984642E-03    3     1000023         4        -4   # BR(~g -> chi^0_2 c c_bar)
     1.19991305E-01    3     1000023         6        -6   # BR(~g -> chi^0_2 t t_bar)
     3.78954366E-03    3     1000023         1        -1   # BR(~g -> chi^0_2 d d_bar)
     3.78954411E-03    3     1000023         3        -3   # BR(~g -> chi^0_2 s s_bar)
     1.36129403E-01    3     1000023         5        -5   # BR(~g -> chi^0_2 b b_bar)
     7.57845437E-03    3     1000024         1        -2   # BR(~g -> chi^+_1 d u_bar)
     7.57845437E-03    3    -1000024        -1         2   # BR(~g -> chi^-_1 d_bar u)
     7.57845437E-03    3     1000024         3        -4   # BR(~g -> chi^+_1 s c_bar)
     7.57845437E-03    3    -1000024        -3         4   # BR(~g -> chi^-_1 s_bar c)
     2.55973029E-01    3     1000024         5        -6   # BR(~g -> chi^+_1 b t_bar)
     2.55973029E-01    3    -1000024        -5         6   # BR(~g -> chi^-_1 b_bar t)
     1.90946189E-04    3     1000037         5        -6   # BR(~g -> chi^+_2 b t_bar)
     1.90946189E-04    3    -1000037        -5         6   # BR(~g -> chi^-_2 b_bar t)
DECAY        25     3.60369955E-03   # Gamma(h0)
     2.52759231E-03   2        22        22   # BR(h0 -> photon photon)
     1.62597910E-03   2        22        23   # BR(h0 -> photon Z)
     3.02179623E-02   2        23        23   # BR(h0 -> Z Z)
     2.49038680E-01   2       -24        24   # BR(h0 -> W W)
     7.83399866E-02   2        21        21   # BR(h0 -> gluon gluon)
     4.91983397E-09   2       -11        11   # BR(h0 -> Electron electron)
     2.18843083E-04   2       -13        13   # BR(h0 -> Muon muon)
     6.31005781E-02   2       -15        15   # BR(h0 -> Tau tau)
     1.40063722E-07   2        -2         2   # BR(h0 -> Up up)
     2.71829284E-02   2        -4         4   # BR(h0 -> Charm charm)
     5.69373072E-07   2        -1         1   # BR(h0 -> Down down)
     2.05928843E-04   2        -3         3   # BR(h0 -> Strange strange)
     5.47540807E-01   2        -5         5   # BR(h0 -> Bottom bottom)
DECAY        35     5.96490358E+01   # Gamma(HH)
     1.51719786E-09   2        22        22   # BR(HH -> photon photon)
     2.27150923E-08   2        22        23   # BR(HH -> photon Z)
     2.11090329E-06   2        23        23   # BR(HH -> Z Z)
     3.53793812E-07   2       -24        24   # BR(HH -> W W)
     2.32429794E-06   2        21        21   # BR(HH -> gluon gluon)
     1.10598305E-09   2       -11        11   # BR(HH -> Electron electron)
     4.92521185E-05   2       -13        13   # BR(HH -> Muon muon)
     1.42257202E-02   2       -15        15   # BR(HH -> Tau tau)
     1.98491271E-12   2        -2         2   # BR(HH -> Up up)
     3.85099665E-07   2        -4         4   # BR(HH -> Charm charm)
     2.99065067E-02   2        -6         6   # BR(HH -> Top top)
     7.74116652E-08   2        -1         1   # BR(HH -> Down down)
     2.80011078E-05   2        -3         3   # BR(HH -> Strange strange)
     7.84160972E-02   2        -5         5   # BR(HH -> Bottom bottom)
     3.41206509E-03   2  -1000024   1000024   # BR(HH -> Chargino1 chargino1)
     2.64886136E-01   2  -1000024   1000037   # BR(HH -> Chargino1 chargino2)
     2.64886136E-01   2  -1000037   1000024   # BR(HH -> Chargino2 chargino1)
     4.93916365E-05   2  -1000037   1000037   # BR(HH -> Chargino2 chargino2)
     1.70664616E-03   2   1000022   1000022   # BR(HH -> neutralino1 neutralino1)
     9.90817559E-04   2   1000022   1000023   # BR(HH -> neutralino1 neutralino2)
     1.52855144E-01   2   1000022   1000025   # BR(HH -> neutralino1 neutralino3)
     1.10238378E-01   2   1000022   1000035   # BR(HH -> neutralino1 neutralino4)
     1.39773952E-04   2   1000023   1000023   # BR(HH -> neutralino2 neutralino2)
     4.75936591E-02   2   1000023   1000025   # BR(HH -> neutralino2 neutralino3)
     2.88608288E-02   2   1000023   1000035   # BR(HH -> neutralino2 neutralino4)
     3.82602347E-04   2   1000025   1000025   # BR(HH -> neutralino3 neutralino3)
     1.09774170E-03   2   1000025   1000035   # BR(HH -> neutralino3 neutralino4)
     2.57371427E-04   2   1000035   1000035   # BR(HH -> neutralino4 neutralino4)
     1.24534577E-05   2        25        25   # BR(HH -> h0 h0)
DECAY        36     5.92700009E+01   # Gamma(A0)
     7.66629480E-09   2        22        22   # BR(A0 -> photon photon)
     1.75965471E-08   2        22        23   # BR(A0 -> photon Z)
     9.65505507E-06   2        21        21   # BR(A0 -> gluon gluon)
     1.07068653E-09   2       -11        11   # BR(A0 -> Electron electron)
     4.76793455E-05   2       -13        13   # BR(A0 -> Muon muon)
     1.37714569E-02   2       -15        15   # BR(A0 -> Tau tau)
     1.79073774E-12   2        -2         2   # BR(A0 -> Up up)
     3.47420517E-07   2        -4         4   # BR(A0 -> Charm charm)
     2.71312688E-02   2        -6         6   # BR(A0 -> Top top)
     7.49379400E-08   2        -1         1   # BR(A0 -> Down down)
     2.71065010E-05   2        -3         3   # BR(A0 -> Strange strange)
     7.59071361E-02   2        -5         5   # BR(A0 -> Bottom bottom)
     3.37106184E-03   2  -1000024   1000024   # BR(A0 -> Chargino1 chargino1)
     2.66681417E-01   2  -1000024   1000037   # BR(A0 -> Chargino1 chargino2)
     2.66681417E-01   2  -1000037   1000024   # BR(A0 -> Chargino2 chargino1)
     1.38484186E-06   2  -1000037   1000037   # BR(A0 -> Chargino2 chargino2)
     1.68581862E-03   2   1000022   1000022   # BR(A0 -> neutralino1 neutralino1)
     1.02641826E-03   2   1000022   1000023   # BR(A0 -> neutralino1 neutralino2)
     1.10976575E-01   2   1000022   1000025   # BR(A0 -> neutralino1 neutralino3)
     1.53841294E-01   2   1000022   1000035   # BR(A0 -> neutralino1 neutralino4)
     1.60274137E-04   2   1000023   1000023   # BR(A0 -> neutralino2 neutralino2)
     2.90390982E-02   2   1000023   1000025   # BR(A0 -> neutralino2 neutralino3)
     4.78795012E-02   2   1000023   1000035   # BR(A0 -> neutralino2 neutralino4)
     4.41664120E-04   2   1000025   1000025   # BR(A0 -> neutralino3 neutralino3)
     6.37953761E-04   2   1000025   1000035   # BR(A0 -> neutralino3 neutralino4)
     6.75584118E-04   2   1000035   1000035   # BR(A0 -> neutralino4 neutralino4)
     5.78767156E-06   2        23        25   # BR(A0 -> Z h0)
     7.07668280E-37   2        25        25   # BR(A0 -> h0 h0)
DECAY        37     6.04883682E+01   # Gamma(Hp)
     1.29605519E-09   2       -11        12   # BR(Hp -> Electron nu_e)
     5.54104075E-05   2       -13        14   # BR(Hp -> Muon nu_mu)
     1.56732210E-02   2       -15        16   # BR(Hp -> Tau nu_tau)
     7.86003380E-08   2        -1         2   # BR(Hp -> Down up)
     1.33403201E-06   2        -3         2   # BR(Hp -> Strange up)
     9.26505050E-07   2        -5         2   # BR(Hp -> Bottom up)
     2.26473805E-08   2        -1         4   # BR(Hp -> Down charm)
     2.87302872E-05   2        -3         4   # BR(Hp -> Strange charm)
     1.29744514E-04   2        -5         4   # BR(Hp -> Bottom charm)
     2.08269413E-06   2        -1         6   # BR(Hp -> Down top)
     4.54519812E-05   2        -3         6   # BR(Hp -> Strange top)
     1.19190434E-01   2        -5         6   # BR(Hp -> Bottom top)
     3.48704468E-11   2   1000022   1000024   # BR(Hp -> neutralino1 chargino1)
     2.63275899E-01   2   1000022   1000037   # BR(Hp -> neutralino1 chargino2)
     1.98843015E-03   2   1000023   1000024   # BR(Hp -> neutralino2 chargino1)
     7.57860058E-02   2   1000023   1000037   # BR(Hp -> neutralino2 chargino2)
     2.61680715E-01   2   1000024   1000025   # BR(Hp -> chargino1 neutralino3)
     3.37422312E-04   2   1000025   1000037   # BR(Hp -> neutralino3 chargino2)
     2.61270980E-01   2   1000024   1000035   # BR(Hp -> chargino1 neutralino4)
     5.27436330E-04   2   1000035   1000037   # BR(Hp -> neutralino4 chargino2)
     5.67288283E-06   2        24        25   # BR(Hp -> W h0)
DECAY         6     2.43000000E+00   # top
#    BR                NDA      ID1      ID2
     1.00000000E+00    2           5        24   # BR(t -> b W)
Block HiggsBoundsInputHiggsCouplingsFermions
# ScalarNormEffCoupSq PseudoSNormEffCoupSq NP IP1 IP2 IP2
    9.03259401E-01    0.00000000E+00        3  25   5   5  # h0-b-b eff. coupling^2, normalised to SM
    8.65714802E+01    0.00000000E+00        3  35   5   5  # H0-b-b eff. coupling^2, normalised to SM
    0.00000000E+00    8.64747396E+01        3  36   5   5  # A0-b-b eff. coupling^2, normalised to SM
#
    1.00111872E+00    0.00000000E+00        3  25   6   6  # h0-t-t eff. coupling^2, normalised to SM
    1.04453556E-02    0.00000000E+00        3  35   6   6  # H0-t-t eff. coupling^2, normalised to SM
    0.00000000E+00    1.15640707E-02        3  36   6   6  # A0-t-t eff. coupling^2, normalised to SM
#
    9.03259401E-01    0.00000000E+00        3  25  15  15  # h0-tau-tau eff. coupling^2, normalised to SM
    8.65714802E+01    0.00000000E+00        3  35  15  15  # H0-tau-tau eff. coupling^2, normalised to SM
    0.00000000E+00    8.64747396E+01        3  36  15  15  # A0-tau-tau eff. coupling^2, normalised to SM
#
Block HiggsBoundsInputHiggsCouplingsBosons
    9.99971566E-01        3  25  24  24  # h0-W-W eff. coupling^2, normalised to SM
    2.84336153E-05        3  35  24  24  # H0-W-W eff. coupling^2, normalised to SM
    0.00000000E+00        3  36  24  24  # A0-W-W eff. coupling^2, normalised to SM
#
    9.99971566E-01        3  25  23  23  # h0-Z-Z eff. coupling^2, normalised to SM
    2.84336153E-05        3  35  23  23  # H0-Z-Z eff. coupling^2, normalised to SM
    0.00000000E+00        3  36  23  23  # A0-Z-Z eff. coupling^2, normalised to SM
#
    1.27244421E+00        3  25  21  21  # h0-g-g eff. coupling^2, normalised to SM
    6.76647146E-03        3  35  21  21  # H0-g-g eff. coupling^2, normalised to SM
    1.26414408E-01        3  36  21  21  # A0-g-g eff. coupling^2, normalised to SM
#
    0.00000000E+00        3  25  25  23  # h0-h0-Z eff. coupling^2, normalised to SM
    0.00000000E+00        3  35  25  23  # H0-h0-Z eff. coupling^2, normalised to SM
    2.84336153E-05        3  36  25  23  # A0-h0-Z eff. coupling^2, normalised to SM
    0.00000000E+00        3  35  35  23  # H0-H0-Z eff. coupling^2, normalised to SM
    9.99971566E-01        3  36  35  23  # A0-H0-Z eff. coupling^2, normalised to SM
    0.00000000E+00        3  36  36  23  # A0-A0-Z eff. coupling^2, normalised to SM
#
    0.00000000E+00        4  25  21  21  23  # h0-g-g-Z eff. coupling^2, normalised to SM
    0.00000000E+00        4  35  21  21  23  # H0-g-g-Z eff. coupling^2, normalised to SM
    0.00000000E+00        4  36  21  21  23  # A0-g-g-Z eff. coupling^2, normalised to SM
Block SPhenoLowEnergy  # low energy observables
    1    3.20816704E-04   # BR(b -> s gamma)
    2    1.59007800E-06   # BR(b -> s mu+ mu-)
    3    3.52508675E-05   # BR(b -> s nu nu)
    4    2.58561036E-15   # BR(Bd -> e+ e-)
    5    1.10454327E-10   # BR(Bd -> mu+ mu-)
    6    2.31217963E-08   # BR(Bd -> tau+ tau-)
    7    8.73923172E-14   # BR(Bs -> e+ e-)
    8    3.73339657E-09   # BR(Bs -> mu+ mu-)
    9    7.91859907E-07   # BR(Bs -> tau+ tau-)
   10    9.67855939E-05   # BR(B_u -> tau nu)
   11    9.99758130E-01   # BR(B_u -> tau nu)/BR(B_u -> tau nu)_SM
   12    5.42019476E-01   # |Delta(M_Bd)| [ps^-1] 
   13    1.93667193E+01   # |Delta(M_Bs)| [ps^-1] 
   14    0.00000000E+00   # neutron EDM according to the chiral quark model
   15    0.00000000E+00   # neutron EDM according to the relativistic quark-parton model
   16    2.15737937E-03   # epsilon_K
   17    2.28165874E-15   # Delta(M_K)
   18    2.47991847E-11   # BR(K^0 -> pi^0 nu nu)
   19    8.29024303E-11   # BR(K^+ -> pi^+ nu nu)
   20   -6.64098317E-17   # Delta(g-2)_electron/2
   21   -2.83923054E-12   # Delta(g-2)_muon/2
   22   -8.03453235E-10   # Delta(g-2)_tau/2
   23    0.00000000E+00   # electric dipole moment of the electron
   24    0.00000000E+00   # electric dipole moment of the muon
   25    0.00000000E+00   # electric dipole moment of the tau
   26    0.00000000E+00   # Br(mu -> e gamma)
   27    0.00000000E+00   # Br(tau -> e gamma)
   28    0.00000000E+00   # Br(tau -> mu gamma)
   29    0.00000000E+00   # Br(mu -> 3 e)
   30    0.00000000E+00   # Br(tau -> 3 e)
   31    0.00000000E+00   # Br(tau -> 3 mu)
   39   -6.20921613E-05   # Delta(rho_parameter)
   40    0.00000000E+00   # BR(Z -> e mu)
   41    0.00000000E+00   # BR(Z -> e tau)
   42    0.00000000E+00   # BR(Z -> mu tau)
Block FWCOEF Q=  1.60000000E+02  # Wilson coefficients at scale Q
#    id        order  M        value         comment
     0305 4422   00   0    -1.88819110E-01   # C7
     0305 4422   00   2    -1.89338102E-01   # C7
     0305 4322   00   2    -4.64611135E-05   # C7'
     0305 6421   00   0    -9.52278348E-02   # C8
     0305 6421   00   2    -9.72160040E-02   # C8
     0305 6321   00   2    -6.06637297E-05   # C8'
 03051111 4133   00   0     1.62768823E+00   # C9 e+e-
 03051111 4133   00   2     1.62788177E+00   # C9 e+e-
 03051111 4233   00   2     2.53432322E-05   # C9' e+e-
 03051111 4137   00   0    -4.45038033E+00   # C10 e+e-
 03051111 4137   00   2    -4.44853548E+00   # C10 e+e-
 03051111 4237   00   2    -1.85696713E-04   # C10' e+e-
 03051313 4133   00   0     1.62768823E+00   # C9 mu+mu-
 03051313 4133   00   2     1.62788176E+00   # C9 mu+mu-
 03051313 4233   00   2     2.53432317E-05   # C9' mu+mu-
 03051313 4137   00   0    -4.45038033E+00   # C10 mu+mu-
 03051313 4137   00   2    -4.44853549E+00   # C10 mu+mu-
 03051313 4237   00   2    -1.85696714E-04   # C10' mu+mu-
 03051212 4137   00   0     1.50535012E+00   # C11 nu_1 nu_1
 03051212 4137   00   2     1.50495313E+00   # C11 nu_1 nu_1
 03051212 4237   00   2     4.01444609E-05   # C11' nu_1 nu_1
 03051414 4137   00   0     1.50535012E+00   # C11 nu_2 nu_2
 03051414 4137   00   2     1.50495313E+00   # C11 nu_2 nu_2
 03051414 4237   00   2     4.01444609E-05   # C11' nu_2 nu_2
 03051616 4137   00   0     1.50535012E+00   # C11 nu_3 nu_3
 03051616 4137   00   2     1.50495313E+00   # C11 nu_3 nu_3
 03051616 4237   00   2     4.01444719E-05   # C11' nu_3 nu_3
Block IMFWCOEF Q=  1.60000000E+02  # Im(Wilson coefficients) at scale Q
#    id        order  M        value         comment
     0305 4422   00   0     3.85833376E-07   # C7
     0305 4422   00   2    -3.25717713E-06   # C7
     0305 4322   00   2     2.19137122E-07   # C7'
     0305 6421   00   0     3.30491803E-07   # C8
     0305 6421   00   2     1.07727878E-05   # C8
     0305 6321   00   2     3.15722040E-07   # C8'
 03051111 4133   00   2     7.35478302E-07   # C9 e+e-
 03051111 4233   00   2     4.72235413E-07   # C9' e+e-
 03051111 4137   00   2     2.24967449E-06   # C10 e+e-
 03051111 4237   00   2    -3.46152121E-06   # C10' e+e-
 03051313 4133   00   2     7.35478028E-07   # C9 mu+mu-
 03051313 4233   00   2     4.72235406E-07   # C9' mu+mu-
 03051313 4137   00   2     2.24967478E-06   # C10 mu+mu-
 03051313 4237   00   2    -3.46152123E-06   # C10' mu+mu-
 03051212 4137   00   2    -4.53350789E-07   # C11 nu_1 nu_1
 03051212 4237   00   2     7.48322730E-07   # C11' nu_1 nu_1
 03051414 4137   00   2    -4.53350774E-07   # C11 nu_2 nu_2
 03051414 4237   00   2     7.48322730E-07   # C11' nu_2 nu_2
 03051616 4137   00   2    -4.53346509E-07   # C11 nu_3 nu_3
 03051616 4237   00   2     7.48322728E-07   # C11' nu_3 nu_3
