#
#                              ======================
#                              | THE SUSYHIT OUTPUT |
#                              ======================
#
#
#              ------------------------------------------------------
#              |     This is the output of the SUSY-HIT package     |
#              |  created by A.Djouadi, M.Muehlleitner and M.Spira. |
#              |  In case of problems with SUSY-HIT email to        |
#              |           margarete.muehlleitner@cern.ch           |
#              |           michael.spira@psi.ch                     |
#              |           abdelhak.djouadi@cern.ch                 |
#              ------------------------------------------------------
#
#              ------------------------------------------------------
#              |  SUSY Les Houches Accord - MSSM Spectrum + Decays  |
#              |              based on the decay programs           |
#              |                                                    |
#              |                     SDECAY 1.3b                    |
#              |                                                    |
#              |  Authors: M.Muhlleitner, A.Djouadi and Y.Mambrini  |
#              |  Ref.:    Comput.Phys.Commun.168(2005)46           |
#              |           [hep-ph/0311167]                         |
#              |                                                    |
#              |                     HDECAY 3.4                     |
#              |                                                    |
#              |  By: A.Djouadi,J.Kalinowski,M.Muhlleitner,M.Spira  |
#              |  Ref.:    Comput.Phys.Commun.108(1998)56           |
#              |           [hep-ph/9704448]                         |
#              |                                                    |
#              |                                                    |
#              |  If not stated otherwise all DRbar couplings and   |
#              |  soft SUSY breaking masses are given at the scale  |
#              |  Q=  0.26932890E+04
#              |                                                    |
#              ------------------------------------------------------
#
#
BLOCK DCINFO  # Decay Program information
     1   SDECAY/HDECAY # decay calculator
     2   1.3b  /3.4    # version number
#
BLOCK SPINFO  # Spectrum calculator information
     1     SOFTSUSY    # spectrum calculator               
     2     3.4.0       # version number                    
#
BLOCK MODSEL  # Model selection
     1     0   #  nonUniversal                                     
#
BLOCK SMINPUTS  # Standard Model inputs
         1     1.27908970E+02   # alpha_em^-1(M_Z)^MSbar
         2     1.16637870E-05   # G_F [GeV^-2]
         3     1.18400000E-01   # alpha_S(M_Z)^MSbar
         4     9.11876000E+01   # M_Z pole mass
         5     4.18000000E+00   # mb(mb)^MSbar
         6     1.73200000E+02   # mt pole mass
         7     1.77700000E+00   # mtau pole mass
#
BLOCK MINPAR  # Input parameters - minimal models
         3     3.29600000E+01   # tanb                
#
BLOCK EXTPAR  # Input parameters - non-minimal models
         0    -1.00000000E+00   # Set                 
         1    -1.42294000E+03   # M_1(MX)             
         2    -6.85550000E+02   # M_2(MX)             
         3     2.22496000E+03   # M_3(MX)             
        11    -3.60120000E+03   # At(MX)              
        12    -1.78100000E+03   # Ab(MX)              
        13     9.55900000E+01   # Atau(MX)            
        23    -2.07830000E+02   # mu(MX)              
        26     2.75094000E+03   # mA(pole)            
        31     2.23499000E+03   # meL(MX)             
        32     2.23499000E+03   # mmuL(MX)            
        33     3.04401000E+03   # mtauL(MX)           
        34     2.98283000E+03   # meR(MX)             
        35     2.98283000E+03   # mmuR(MX)            
        36     3.57523000E+03   # mtauR(MX)           
        41     2.90281000E+03   # mqL1(MX)            
        42     2.90281000E+03   # mqL2(MX)            
        43     3.64391000E+03   # mqL3(MX)            
        44     1.57130000E+03   # muR(MX)             
        45     1.57130000E+03   # mcR(MX)             
        46     1.98957000E+03   # mtR(MX)             
        47     3.98526000E+03   # mdR(MX)             
        48     3.98526000E+03   # msR(MX)             
        49     2.63290000E+03   # mbR(MX)             
#
BLOCK MASS  # Mass Spectrum
# PDG code           mass       particle
        24     8.03766774E+01   # W+
        25     1.26848618E+02   # h
        35     2.75094775E+03   # H
        36     2.75094002E+03   # A
        37     2.75236182E+03   # H+
         5     4.81876030E+00   # b-quark pole mass calculated from mb(mb)_Msbar
   1000001     2.97448372E+03   # ~d_L
   2000001     4.03383043E+03   # ~d_R
   1000002     2.97357486E+03   # ~u_L
   2000002     1.68562902E+03   # ~u_R
   1000003     2.97448372E+03   # ~s_L
   2000003     4.03383043E+03   # ~s_R
   1000004     2.97357486E+03   # ~c_L
   2000004     1.68562902E+03   # ~c_R
   1000005     2.69669972E+03   # ~b_1
   2000005     3.66683387E+03   # ~b_2
   1000006     2.04064116E+03   # ~t_1
   2000006     3.67297121E+03   # ~t_2
   1000011     2.24077285E+03   # ~e_L
   2000011     2.98793263E+03   # ~e_R
   1000012     2.23905197E+03   # ~nu_eL
   1000013     2.24077285E+03   # ~mu_L
   2000013     2.98793263E+03   # ~mu_R
   1000014     2.23905197E+03   # ~nu_muL
   1000015     3.04718149E+03   # ~tau_1
   2000015     3.57371554E+03   # ~tau_2
   1000016     3.04583149E+03   # ~nu_tauL
   1000021     2.42150068E+03   # ~g
   1000022    -2.10955557E+02   # ~chi_10
   1000023     2.21561778E+02   # ~chi_20
   1000025    -7.30695427E+02   # ~chi_30
   1000035    -1.41116705E+03   # ~chi_40
   1000024     2.15014167E+02   # ~chi_1+
   1000037     7.30964459E+02   # ~chi_2+
#
BLOCK NMIX  # Neutralino Mixing Matrix
  1  1    -2.64890669E-02   # N_11
  1  2     1.10207018E-01   # N_12
  1  3     7.13291007E-01   # N_13
  1  4    -6.91642018E-01   # N_14
  2  1     1.88255632E-02   # N_21
  2  2    -5.80224046E-02   # N_22
  2  3     6.99795813E-01   # N_23
  2  4     7.11733671E-01   # N_24
  3  1     7.88077697E-03   # N_31
  3  2     9.92206278E-01   # N_32
  3  3    -3.82812364E-02   # N_33
  3  4     1.18317970E-01   # N_34
  4  1     9.99440754E-01   # N_41
  4  2    -3.80990153E-03   # N_42
  4  3     6.02541844E-03   # N_43
  4  4    -3.26704472E-02   # N_44
#
BLOCK UMIX  # Chargino Mixing Matrix U
  1  1     5.46820110E-02   # U_11
  1  2     9.98503820E-01   # U_12
  2  1    -9.98503820E-01   # U_21
  2  2     5.46820110E-02   # U_22
#
BLOCK VMIX  # Chargino Mixing Matrix V
  1  1    -1.69079710E-01   # V_11
  1  2    -9.85602380E-01   # V_12
  2  1     9.85602380E-01   # V_21
  2  2    -1.69079710E-01   # V_22
#
BLOCK STOPMIX  # Stop Mixing Matrix
  1  1     5.56250543E-02   # cos(theta_t)
  1  2     9.98451728E-01   # sin(theta_t)
  2  1    -9.98451728E-01   # -sin(theta_t)
  2  2     5.56250543E-02   # cos(theta_t)
#
BLOCK SBOTMIX  # Sbottom Mixing Matrix
  1  1    -1.76842379E-03   # cos(theta_b)
  1  2     9.99998436E-01   # sin(theta_b)
  2  1    -9.99998436E-01   # -sin(theta_b)
  2  2    -1.76842379E-03   # cos(theta_b)
#
BLOCK STAUMIX  # Stau Mixing Matrix
  1  1     9.99993884E-01   # cos(theta_tau)
  1  2    -3.49742228E-03   # sin(theta_tau)
  2  1     3.49742228E-03   # -sin(theta_tau)
  2  2     9.99993884E-01   # cos(theta_tau)
#
BLOCK ALPHA  # Higgs mixing
          -3.13962036E-02   # Mixing angle in the neutral Higgs boson sector
#
BLOCK HMIX Q=  2.69328900E+03  # DRbar Higgs Parameters
         1    -2.11800841E+02   # mu(Q)MSSM           
         2     3.19508267E+01   # tan                 
         3     2.41649172E+02   # higgs               
         4     7.66439580E+06   # mA^2(Q)MSSM         
#
BLOCK GAUGE Q=  2.69328900E+03  # The gauge couplings
     1     3.64960757E-01   # gprime(Q) DRbar
     2     6.40446811E-01   # g(Q) DRbar
     3     1.01682493E+00   # g3(Q) DRbar
#
BLOCK AU Q=  2.69328900E+03  # The trilinear couplings
  1  1     0.00000000E+00   # A_u(Q) DRbar
  2  2     0.00000000E+00   # A_c(Q) DRbar
  3  3    -3.60119999E+03   # A_t(Q) DRbar
#
BLOCK AD Q=  2.69328900E+03  # The trilinear couplings
  1  1     0.00000000E+00   # A_d(Q) DRbar
  2  2     0.00000000E+00   # A_s(Q) DRbar
  3  3    -1.78100000E+03   # A_b(Q) DRbar
#
BLOCK AE Q=  2.69328900E+03  # The trilinear couplings
  1  1     0.00000000E+00   # A_e(Q) DRbar
  2  2     0.00000000E+00   # A_mu(Q) DRbar
  3  3     9.55900016E+01   # A_tau(Q) DRbar
#
BLOCK Yu Q=  2.69328900E+03  # The Yukawa couplings
  1  1     0.00000000E+00   # y_u(Q) DRbar
  2  2     0.00000000E+00   # y_c(Q) DRbar
  3  3     8.23058092E-01   # y_t(Q) DRbar
#
BLOCK Yd Q=  2.69328900E+03  # The Yukawa couplings
  1  1     0.00000000E+00   # y_d(Q) DRbar
  2  2     0.00000000E+00   # y_s(Q) DRbar
  3  3     4.34415512E-01   # y_b(Q) DRbar
#
BLOCK Ye Q=  2.69328900E+03  # The Yukawa couplings
  1  1     0.00000000E+00   # y_e(Q) DRbar
  2  2     0.00000000E+00   # y_mu(Q) DRbar
  3  3     3.29362538E-01   # y_tau(Q) DRbar
#
BLOCK MSOFT Q=  2.69328900E+03  # The soft SUSY breaking masses at the scale Q
         1    -1.42294000E+03   # M_1(Q)              
         2    -6.85550000E+02   # M_2(Q)              
         3     2.22496000E+03   # M_3(Q)              
        21     7.61139485E+06   # mH1^2(Q)            
        22     7.16813449E+04   # mH2^2(Q)            
        31     2.23499000E+03   # meL(Q)              
        32     2.23499000E+03   # mmuL(Q)             
        33     3.04401000E+03   # mtauL(Q)            
        34     2.98283000E+03   # meR(Q)              
        35     2.98283000E+03   # mmuR(Q)             
        36     3.57523000E+03   # mtauR(Q)            
        41     2.90281000E+03   # mqL1(Q)             
        42     2.90281000E+03   # mqL2(Q)             
        43     3.64390999E+03   # mqL3(Q)             
        44     1.57129999E+03   # muR(Q)              
        45     1.57129999E+03   # mcR(Q)              
        46     1.98956997E+03   # mtR(Q)              
        47     3.98526000E+03   # mdR(Q)              
        48     3.98526000E+03   # msR(Q)              
        49     2.63289999E+03   # mbR(Q)              
#
Block HiggsBoundsInputHiggsCouplingsFermions
# ScalarNormEffCoupSq PseudoSNormEffCoupSq NP   IP1 IP2 IP2
    1.00693395E+00    0.00000000E+00        3  25   5   5  # h0-b-b eff. coupling^2, normalised to SM
    1.02084839E+03    0.00000000E+00        3  35   5   5  # H0-b-b eff. coupling^2, normalised to SM
    0.00000000E+00    1.02085533E+03        3  36   5   5  # A0-b-b eff. coupling^2, normalised to SM
#
    9.99993208E-01    0.00000000E+00        3  25   6   6  # h0-t-t eff. coupling^2, normalised to SM
    9.86363028E-04    0.00000000E+00        3  35   6   6  # H0-t-t eff. coupling^2, normalised to SM
    0.00000000E+00    9.79570732E-04        3  36   6   6  # A0-t-t eff. coupling^2, normalised to SM
#
    1.00693395E+00    0.00000000E+00        3  25  15  15  # h0-tau-tau eff. coupling^2, normalised to SM
    1.02084839E+03    0.00000000E+00        3  35  15  15  # H0-tau-tau eff. coupling^2, normalised to SM
    0.00000000E+00    1.02085533E+03        3  36  15  15  # A0-tau-tau eff. coupling^2, normalised to SM
#
Block HiggsBoundsInputHiggsCouplingsBosons
    9.99999988E-01        3  25  24  24  # h0-W-W eff. coupling^2, normalised to SM
    1.17337547E-08        3  35  24  24  # H0-W-W eff. coupling^2, normalised to SM
    0.00000000E+00        3  36  24  24  # A0-W-W eff. coupling^2, normalised to SM
#
    9.99999988E-01        3  25  23  23  # h0-Z-Z eff. coupling^2, normalised to SM
    1.17337547E-08        3  35  23  23  # H0-Z-Z eff. coupling^2, normalised to SM
    0.00000000E+00        3  36  23  23  # A0-Z-Z eff. coupling^2, normalised to SM
#
    8.88254193E-01        3  25  21  21  # h0-g-g eff. coupling^2, normalised to SM
    7.34879853E-13        3  35  21  21  # H0-g-g eff. coupling^2, normalised to SM
    5.90476343E-12        3  36  21  21  # A0-g-g eff. coupling^2, normalised to SM
#
    0.00000000E+00        3  25  25  23  # h0-h0-Z eff. coupling^2, normalised to SM
    0.00000000E+00        3  35  25  23  # H0-h0-Z eff. coupling^2, normalised to SM
    1.17337547E-08        3  36  25  23  # A0-h0-Z eff. coupling^2, normalised to SM
    0.00000000E+00        3  35  35  23  # H0-H0-Z eff. coupling^2, normalised to SM
    9.99999988E-01        3  36  35  23  # A0-H0-Z eff. coupling^2, normalised to SM
    0.00000000E+00        3  36  36  23  # A0-A0-Z eff. coupling^2, normalised to SM
#
    0.00000000E+00        4  25  21  21  23  # h0-g-g-Z eff. coupling^2, normalised to SM
    0.00000000E+00        4  35  21  21  23  # H0-g-g-Z eff. coupling^2, normalised to SM
    0.00000000E+00        4  36  21  21  23  # A0-g-g-Z eff. coupling^2, normalised to SM
#
#
#
#                             =================
#                             |The decay table|
#                             =================
#
# - The QCD corrections to the decays gluino -> squark  + quark
#                                     squark -> gaugino + quark_prime
#                                     squark -> squark_prime + Higgs
#                                     squark -> gluino  + quark
#   are included.
#
# - The multi-body decays for the inos, stops and sbottoms are included.
#
# - The loop induced decays for the gluino, neutralinos and stops
#   are included.
#
# - The SUSY decays of the top quark are included.
#
#
#         PDG            Width
DECAY         6     1.44515879E+00   # top decays
#          BR         NDA      ID1       ID2
     1.00000000E+00    2           5        24   # BR(t ->  b    W+)
#
#         PDG            Width
DECAY   1000021     2.76522403E+01   # gluino decays
#          BR         NDA      ID1       ID2
     2.17226499E-01    2     2000002        -2   # BR(~g -> ~u_R  ub)
     2.17226499E-01    2    -2000002         2   # BR(~g -> ~u_R* u )
     2.17226118E-01    2     2000004        -4   # BR(~g -> ~c_R  cb)
     2.17226118E-01    2    -2000004         4   # BR(~g -> ~c_R* c )
     6.55473825E-02    2     1000006        -6   # BR(~g -> ~t_1  tb)
     6.55473825E-02    2    -1000006         6   # BR(~g -> ~t_1* t )
#
#         PDG            Width
DECAY   1000006     5.42307401E+01   # stop1 decays
#          BR         NDA      ID1       ID2
     2.31755032E-01    2     1000022         6   # BR(~t_1 -> ~chi_10 t )
     2.45340951E-01    2     1000023         6   # BR(~t_1 -> ~chi_20 t )
     8.37425037E-03    2     1000025         6   # BR(~t_1 -> ~chi_30 t )
     2.37206262E-02    2     1000035         6   # BR(~t_1 -> ~chi_40 t )
     4.73574594E-01    2     1000024         5   # BR(~t_1 -> ~chi_1+ b )
     1.72345465E-02    2     1000037         5   # BR(~t_1 -> ~chi_2+ b )
#
#         PDG            Width
DECAY   2000006     1.99816516E+02   # stop2 decays
#          BR         NDA      ID1       ID2
     1.19137063E-01    2     1000022         6   # BR(~t_2 -> ~chi_10 t )
     1.25111600E-01    2     1000023         6   # BR(~t_2 -> ~chi_20 t )
     6.98993392E-02    2     1000025         6   # BR(~t_2 -> ~chi_30 t )
     1.93645897E-03    2     1000035         6   # BR(~t_2 -> ~chi_40 t )
     7.66449954E-02    2     1000024         5   # BR(~t_2 -> ~chi_1+ b )
     1.30903485E-01    2     1000037         5   # BR(~t_2 -> ~chi_2+ b )
     3.13888159E-01    2     1000021         6   # BR(~t_2 -> ~g      t )
     8.07059512E-02    2     1000006        25   # BR(~t_2 -> ~t_1    h )
     8.17256249E-02    2     1000006        23   # BR(~t_2 -> ~t_1    Z )
     4.73235661E-05    2     1000005        24   # BR(~t_2 -> ~b_1    W+)
#
#         PDG            Width
DECAY   1000005     2.62875683E+01   # sbottom1 decays
#          BR         NDA      ID1       ID2
     1.93728302E-01    2     1000022         5   # BR(~b_1 -> ~chi_10 b )
     1.86024181E-01    2     1000023         5   # BR(~b_1 -> ~chi_20 b )
     4.42717878E-04    2     1000025         5   # BR(~b_1 -> ~chi_30 b )
     3.18248174E-02    2     1000035         5   # BR(~b_1 -> ~chi_40 b )
     3.76048587E-01    2    -1000024         6   # BR(~b_1 -> ~chi_1- t )
     8.87500318E-04    2    -1000037         6   # BR(~b_1 -> ~chi_2- t )
     2.11043546E-01    2     1000021         5   # BR(~b_1 -> ~g      b )
     3.47747192E-07    2     1000006       -24   # BR(~b_1 -> ~t_1    W-)
#
#         PDG            Width
DECAY   2000005     1.99836037E+02   # sbottom2 decays
#          BR         NDA      ID1       ID2
     3.57818685E-02    2     1000022         5   # BR(~b_2 -> ~chi_10 b )
     3.37836873E-02    2     1000023         5   # BR(~b_2 -> ~chi_20 b )
     6.78655392E-02    2     1000025         5   # BR(~b_2 -> ~chi_30 b )
     2.04018291E-03    2     1000035         5   # BR(~b_2 -> ~chi_40 b )
     2.37812770E-01    2    -1000024         6   # BR(~b_2 -> ~chi_1- t )
     1.44666655E-01    2    -1000037         6   # BR(~b_2 -> ~chi_2- t )
     3.20045622E-01    2     1000021         5   # BR(~b_2 -> ~g      b )
     2.82502686E-05    2     1000005        25   # BR(~b_2 -> ~b_1    h )
     2.39437618E-05    2     1000005        23   # BR(~b_2 -> ~b_1    Z )
     1.57951481E-01    2     1000006       -24   # BR(~b_2 -> ~t_1    W-)
#
#         PDG            Width
DECAY   1000002     5.58187574E+01   # sup_L decays
#          BR         NDA      ID1       ID2
     2.26600501E-03    2     1000022         2   # BR(~u_L -> ~chi_10 u)
     6.06673626E-04    2     1000023         2   # BR(~u_L -> ~chi_20 u)
     1.81047380E-01    2     1000025         2   # BR(~u_L -> ~chi_30 u)
     4.33645686E-03    2     1000035         2   # BR(~u_L -> ~chi_40 u)
     1.17081623E-02    2     1000024         1   # BR(~u_L -> ~chi_1+ d)
     3.56181988E-01    2     1000037         1   # BR(~u_L -> ~chi_2+ d)
     4.43853335E-01    2     1000021         2   # BR(~u_L -> ~g      u)
#
#         PDG            Width
DECAY   2000002     3.67487947E-01   # sup_R decays
#           BR         NDA      ID1       ID2
     7.31309358E-03    2     1000022         2   # BR(~u_R -> ~chi_10 u)
     3.68191945E-03    2     1000023         2   # BR(~u_R -> ~chi_20 u)
     4.42228705E-04    2     1000025         2   # BR(~u_R -> ~chi_30 u)
     9.88562758E-01    2     1000035         2   # BR(~u_R -> ~chi_40 u)
#
#         PDG            Width
DECAY   1000001     5.58311031E+01   # sdown_L decays
#          BR         NDA      ID1       ID2
     2.72063914E-03    2     1000022         1   # BR(~d_L -> ~chi_10 d)
     7.76597602E-04    2     1000023         1   # BR(~d_L -> ~chi_20 d)
     1.79988339E-01    2     1000025         1   # BR(~d_L -> ~chi_30 d)
     4.70104175E-03    2     1000035         1   # BR(~d_L -> ~chi_40 d)
     1.22472011E-03    2    -1000024         2   # BR(~d_L -> ~chi_1- u)
     3.65629304E-01    2    -1000037         2   # BR(~d_L -> ~chi_2- u)
     4.44959358E-01    2     1000021         1   # BR(~d_L -> ~g      d)
#
#         PDG            Width
DECAY   2000001     1.22952904E+02   # sdown_R decays
#          BR         NDA      ID1       ID2
     1.29446878E-05    2     1000022         1   # BR(~d_R -> ~chi_10 d)
     6.53478125E-06    2     1000023         1   # BR(~d_R -> ~chi_20 d)
     1.08006146E-06    2     1000025         1   # BR(~d_R -> ~chi_30 d)
     1.43369328E-02    2     1000035         1   # BR(~d_R -> ~chi_40 d)
     9.85642508E-01    2     1000021         1   # BR(~d_R -> ~g      d)
#
#         PDG            Width
DECAY   1000004     5.09995564E+01   # scharm_L decays
#          BR         NDA      ID1       ID2
     2.60509853E-03    2     1000022         4   # BR(~c_L -> ~chi_10 c)
     6.97400545E-04    2     1000023         4   # BR(~c_L -> ~chi_20 c)
     2.07392753E-01    2     1000025         4   # BR(~c_L -> ~chi_30 c)
     4.94229828E-03    2     1000035         4   # BR(~c_L -> ~chi_40 c)
     1.34597938E-02    2     1000024         3   # BR(~c_L -> ~chi_1+ s)
     4.08011874E-01    2     1000037         3   # BR(~c_L -> ~chi_2+ s)
     3.62890781E-01    2     1000021         4   # BR(~c_L -> ~g      c)
#
#         PDG            Width
DECAY   2000004     3.59099758E-01   # scharm_R decays
#           BR         NDA      ID1       ID2
     7.51688522E-03    2     1000022         4   # BR(~c_R -> ~chi_10 c)
     3.78420562E-03    2     1000023         4   # BR(~c_R -> ~chi_20 c)
     4.52859055E-04    2     1000025         4   # BR(~c_R -> ~chi_30 c)
     9.88246050E-01    2     1000035         4   # BR(~c_R -> ~chi_40 c)
#
#         PDG            Width
DECAY   1000003     5.09900962E+01   # sstrange_L decays
#          BR         NDA      ID1       ID2
     3.12902049E-03    2     1000022         3   # BR(~s_L -> ~chi_10 s)
     8.93094470E-04    2     1000023         3   # BR(~s_L -> ~chi_20 s)
     2.06262527E-01    2     1000025         3   # BR(~s_L -> ~chi_30 s)
     5.35999206E-03    2     1000035         3   # BR(~s_L -> ~chi_40 s)
     1.40851131E-03    2    -1000024         4   # BR(~s_L -> ~chi_1- c)
     4.19001968E-01    2    -1000037         4   # BR(~s_L -> ~chi_2- c)
     3.63944887E-01    2     1000021         3   # BR(~s_L -> ~g      s)
#
#         PDG            Width
DECAY   2000003     9.23581478E+01   # sstrange_R decays
#          BR         NDA      ID1       ID2
     1.79476225E-05    2     1000022         3   # BR(~s_R -> ~chi_10 s)
     9.05991201E-06    2     1000023         3   # BR(~s_R -> ~chi_20 s)
     1.49421103E-06    2     1000025         3   # BR(~s_R -> ~chi_30 s)
     1.97868390E-02    2     1000035         3   # BR(~s_R -> ~chi_40 s)
     9.80184659E-01    2     1000021         3   # BR(~s_R -> ~g      s)
#
#         PDG            Width
DECAY   1000011     2.30304732E+01   # selectron_L decays
#          BR         NDA      ID1       ID2
     3.52777106E-03    2     1000022        11   # BR(~e_L -> ~chi_10 e-)
     8.70663856E-04    2     1000023        11   # BR(~e_L -> ~chi_20 e-)
     3.14946650E-01    2     1000025        11   # BR(~e_L -> ~chi_30 e-)
     4.62563211E-02    2     1000035        11   # BR(~e_L -> ~chi_40 e-)
     2.33048166E-03    2    -1000024        12   # BR(~e_L -> ~chi_1- nu_e)
     6.32068113E-01    2    -1000037        12   # BR(~e_L -> ~chi_2- nu_e)
#
#         PDG            Width
DECAY   2000011     9.56550047E+00   # selectron_R decays
#          BR         NDA      ID1       ID2
     1.15002798E-03    2     1000022        11   # BR(~e_R -> ~chi_10 e-)
     5.80259660E-04    2     1000023        11   # BR(~e_R -> ~chi_20 e-)
     9.08846070E-05    2     1000025        11   # BR(~e_R -> ~chi_30 e-)
     9.98178828E-01    2     1000035        11   # BR(~e_R -> ~chi_40 e-)
#
#         PDG            Width
DECAY   1000013     2.30304731E+01   # smuon_L decays
#          BR         NDA      ID1       ID2
     3.52777105E-03    2     1000022        13   # BR(~mu_L -> ~chi_10 mu-)
     8.70663854E-04    2     1000023        13   # BR(~mu_L -> ~chi_20 mu-)
     3.14946649E-01    2     1000025        13   # BR(~mu_L -> ~chi_30 mu-)
     4.62563207E-02    2     1000035        13   # BR(~mu_L -> ~chi_40 mu-)
     2.33048166E-03    2    -1000024        14   # BR(~mu_L -> ~chi_1- nu_mu)
     6.32068114E-01    2    -1000037        14   # BR(~mu_L -> ~chi_2- nu_mu)
#
#         PDG            Width
DECAY   2000013     9.56550043E+00   # smuon_R decays
#          BR         NDA      ID1       ID2
     1.15002798E-03    2     1000022        13   # BR(~mu_R -> ~chi_10 mu-)
     5.80259661E-04    2     1000023        13   # BR(~mu_R -> ~chi_20 mu-)
     9.08846071E-05    2     1000025        13   # BR(~mu_R -> ~chi_30 mu-)
     9.98178828E-01    2     1000035        13   # BR(~mu_R -> ~chi_40 mu-)
#
#         PDG            Width
DECAY   1000015     4.21686647E+01   # stau_1 decays
#          BR         NDA      ID1       ID2
     8.13583769E-02    2     1000022        15   # BR(~tau_1 -> ~chi_10  tau-)
     7.61457392E-02    2     1000023        15   # BR(~tau_1 -> ~chi_20  tau-)
     2.60326980E-01    2     1000025        15   # BR(~tau_1 -> ~chi_30  tau-)
     5.82279728E-02    2     1000035        15   # BR(~tau_1 -> ~chi_40  tau-)
     1.86218073E-03    2    -1000024        16   # BR(~tau_1 -> ~chi_1-  nu_tau)
     5.22078751E-01    2    -1000037        16   # BR(~tau_1 -> ~chi_2-  nu_tau)
#
#         PDG            Width
DECAY   2000015     2.88237297E+01   # stau_2 decays
#          BR         NDA      ID1       ID2
     1.35420231E-01    2     1000022        15   # BR(~tau_2 -> ~chi_10  tau-)
     1.30383888E-01    2     1000023        15   # BR(~tau_2 -> ~chi_20  tau-)
     4.92416979E-04    2     1000025        15   # BR(~tau_2 -> ~chi_30  tau-)
     4.67634888E-01    2     1000035        15   # BR(~tau_2 -> ~chi_40  tau-)
     2.64648265E-01    2    -1000024        16   # BR(~tau_2 -> ~chi_1-  nu_tau)
     9.28295204E-04    2    -1000037        16   # BR(~tau_2 -> ~chi_2-  nu_tau)
     2.41833205E-04    2     1000016       -24   # BR(~tau_2 -> ~nu_tauL W-)
     1.27905291E-04    2     1000015        25   # BR(~tau_2 -> ~tau_1   h)
     1.22276330E-04    2     1000015        23   # BR(~tau_2 -> ~tau_1   Z)
#
#         PDG            Width
DECAY   1000012     2.30692813E+01   # snu_eL decays
#          BR         NDA      ID1       ID2
     6.10755029E-03    2     1000022        12   # BR(~nu_eL -> ~chi_10 nu_e)
     1.83525989E-03    2     1000023        12   # BR(~nu_eL -> ~chi_20 nu_e)
     3.08425576E-01    2     1000025        12   # BR(~nu_eL -> ~chi_30 nu_e)
     4.72986645E-02    2     1000035        12   # BR(~nu_eL -> ~chi_40 nu_e)
     2.22260582E-02    2     1000024        11   # BR(~nu_eL -> ~chi_1+ e-)
     6.14106891E-01    2     1000037        11   # BR(~nu_eL -> ~chi_2+ e-)
#
#         PDG            Width
DECAY   1000014     2.30692812E+01   # snu_muL decays
#          BR         NDA      ID1       ID2
     6.10755031E-03    2     1000022        14   # BR(~nu_muL -> ~chi_10 nu_mu)
     1.83525989E-03    2     1000023        14   # BR(~nu_muL -> ~chi_20 nu_mu)
     3.08425577E-01    2     1000025        14   # BR(~nu_muL -> ~chi_30 nu_mu)
     4.72986646E-02    2     1000035        14   # BR(~nu_muL -> ~chi_40 nu_mu)
     2.22260582E-02    2     1000024        13   # BR(~nu_muL -> ~chi_1+ mu-)
     6.14106890E-01    2     1000037        13   # BR(~nu_muL -> ~chi_2+ mu-)
#
#         PDG            Width
DECAY   1000016     4.21915026E+01   # snu_tauL decays
#          BR         NDA      ID1       ID2
     4.58021468E-03    2     1000022        16   # BR(~nu_tauL -> ~chi_10 nu_tau)
     1.37748522E-03    2     1000023        16   # BR(~nu_tauL -> ~chi_20 nu_tau)
     2.55226359E-01    2     1000025        16   # BR(~nu_tauL -> ~chi_30 nu_tau)
     5.97169030E-02    2     1000035        16   # BR(~nu_tauL -> ~chi_40 nu_tau)
     1.70451752E-01    2     1000024        15   # BR(~nu_tauL -> ~chi_1+ tau-)
     5.08647286E-01    2     1000037        15   # BR(~nu_tauL -> ~chi_2+ tau-)
#
#         PDG            Width
DECAY   1000024     1.24435746E-09   # chargino1+ decays
#           BR         NDA      ID1       ID2       ID3
     3.57323938E-01    3     1000022         2        -1   # BR(~chi_1+ -> ~chi_10 u    db)
     3.57323938E-01    3     1000022         4        -3   # BR(~chi_1+ -> ~chi_10 c    sb)
     1.19109898E-01    3     1000022       -11        12   # BR(~chi_1+ -> ~chi_10 e+   nu_e)
     1.19109898E-01    3     1000022       -13        14   # BR(~chi_1+ -> ~chi_10 mu+  nu_mu)
     4.71323284E-02    3     1000022       -15        16   # BR(~chi_1+ -> ~chi_10 tau+ nu_tau)
#
#         PDG            Width
DECAY   1000037     5.68121059E+00   # chargino2+ decays
#          BR         NDA      ID1       ID2
     2.56592037E-01    2     1000024        23   # BR(~chi_2+ -> ~chi_1+  Z )
     2.46259873E-01    2     1000022        24   # BR(~chi_2+ -> ~chi_10  W+)
     2.55997673E-01    2     1000023        24   # BR(~chi_2+ -> ~chi_20  W+)
     2.41150417E-01    2     1000024        25   # BR(~chi_2+ -> ~chi_1+  h )
#
#         PDG            Width
DECAY   1000022     0.00000000E+00   # neutralino1 decays
#
#         PDG            Width
DECAY   1000023     1.36859247E-07   # neutralino2 decays
#          BR         NDA      ID1       ID2
     1.09119663E-02    2     1000022        22   # BR(~chi_20 -> ~chi_10 gam)
#           BR         NDA      ID1       ID2       ID3
     1.08881563E-01    3     1000022        -2         2   # BR(~chi_20 -> ~chi_10 ub      u)
     1.41273188E-01    3     1000022        -1         1   # BR(~chi_20 -> ~chi_10 db      d)
     1.08881563E-01    3     1000022        -4         4   # BR(~chi_20 -> ~chi_10 cb      c)
     1.41273188E-01    3     1000022        -3         3   # BR(~chi_20 -> ~chi_10 sb      s)
     4.30507129E-03    3     1000022        -5         5   # BR(~chi_20 -> ~chi_10 bb      b)
     3.24186202E-02    3     1000022       -11        11   # BR(~chi_20 -> ~chi_10 e+      e-)
     3.24186202E-02    3     1000022       -13        13   # BR(~chi_20 -> ~chi_10 mu+     mu-)
     2.73596257E-02    3     1000022       -15        15   # BR(~chi_20 -> ~chi_10 tau+    tau-)
     6.48148840E-02    3     1000022       -12        12   # BR(~chi_20 -> ~chi_10 nu_eb   nu_e)
     6.48148840E-02    3     1000022       -14        14   # BR(~chi_20 -> ~chi_10 nu_mub  nu_mu)
     6.48142290E-02    3     1000022       -16        16   # BR(~chi_20 -> ~chi_10 nu_taub nu_tau)
     3.40973412E-02    3     1000024        -2         1   # BR(~chi_20 -> ~chi_1+ ub      d)
     3.40973412E-02    3    -1000024        -1         2   # BR(~chi_20 -> ~chi_1- db      u)
     3.40973412E-02    3     1000024        -4         3   # BR(~chi_20 -> ~chi_1+ cb      s)
     3.40973412E-02    3    -1000024        -3         4   # BR(~chi_20 -> ~chi_1- sb      c)
     1.13658701E-02    3     1000024       -12        11   # BR(~chi_20 -> ~chi_1+ nu_eb   e-)
     1.13658701E-02    3    -1000024        12       -11   # BR(~chi_20 -> ~chi_1- nu_e    e+)
     1.13658701E-02    3     1000024       -14        13   # BR(~chi_20 -> ~chi_1+ nu_mub  mu-)
     1.13658701E-02    3    -1000024        14       -13   # BR(~chi_20 -> ~chi_1- nu_mu   mu+)
     7.98987643E-03    3     1000024       -16        15   # BR(~chi_20 -> ~chi_1+ nu_taub tau-)
     7.98987643E-03    3    -1000024        16       -15   # BR(~chi_20 -> ~chi_1- nu_tau  tau+)
#
#         PDG            Width
DECAY   1000025     5.68039264E+00   # neutralino3 decays
#          BR         NDA      ID1       ID2
     5.26734976E-02    2     1000022        23   # BR(~chi_30 -> ~chi_10   Z )
     1.98775074E-01    2     1000023        23   # BR(~chi_30 -> ~chi_20   Z )
     2.60995653E-01    2     1000024       -24   # BR(~chi_30 -> ~chi_1+   W-)
     2.60995653E-01    2    -1000024        24   # BR(~chi_30 -> ~chi_1-   W+)
     1.79424451E-01    2     1000022        25   # BR(~chi_30 -> ~chi_10   h )
     4.71356716E-02    2     1000023        25   # BR(~chi_30 -> ~chi_20   h )
#
#         PDG            Width
DECAY   1000035     3.65428562E+00   # neutralino4 decays
#          BR         NDA      ID1       ID2
     7.85002255E-02    2     1000022        23   # BR(~chi_40 -> ~chi_10   Z )
     1.74253779E-01    2     1000023        23   # BR(~chi_40 -> ~chi_20   Z )
     1.32537369E-03    2     1000025        23   # BR(~chi_40 -> ~chi_30   Z )
     2.28709766E-01    2     1000024       -24   # BR(~chi_40 -> ~chi_1+   W-)
     2.28709766E-01    2    -1000024        24   # BR(~chi_40 -> ~chi_1-   W+)
     1.40452122E-02    2     1000037       -24   # BR(~chi_40 -> ~chi_2+   W-)
     1.40452122E-02    2    -1000037        24   # BR(~chi_40 -> ~chi_2-   W+)
     1.64530184E-01    2     1000022        25   # BR(~chi_40 -> ~chi_10   h )
     8.26560595E-02    2     1000023        25   # BR(~chi_40 -> ~chi_20   h )
     1.32244225E-02    2     1000025        25   # BR(~chi_40 -> ~chi_30   h )
#
#         PDG            Width
DECAY        25     4.27429765E-03   # h decays
#          BR         NDA      ID1       ID2
     5.63936424E-01    2           5        -5   # BR(h -> b       bb     )
     6.18568394E-02    2         -15        15   # BR(h -> tau+    tau-   )
     2.18939582E-04    2         -13        13   # BR(h -> mu+     mu-    )
     2.38325015E-04    2           3        -3   # BR(h -> s       sb     )
     2.05314866E-02    2           4        -4   # BR(h -> c       cb     )
     7.79500085E-02    2          21        21   # BR(h -> g       g      )
     2.35010215E-03    2          22        22   # BR(h -> gam     gam    )
     1.71722001E-03    2          22        23   # BR(h -> Z       gam    )
     2.40402199E-01    2          24       -24   # BR(h -> W+      W-     )
     3.07984565E-02    2          23        23   # BR(h -> Z       Z      )
#
#         PDG            Width
DECAY        35     6.95988009E+01   # H decays
#          BR         NDA      ID1       ID2
     4.58658980E-01    2           5        -5   # BR(H -> b       bb     )
     8.29422077E-02    2         -15        15   # BR(H -> tau+    tau-   )
     2.91989590E-04    2         -13        13   # BR(H -> mu+     mu-    )
     1.92653714E-04    2           3        -3   # BR(H -> s       sb     )
     1.61858327E-08    2           4        -4   # BR(H -> c       cb     )
     1.58727647E-03    2           6        -6   # BR(H -> t       tb     )
     7.19230509E-06    2          21        21   # BR(H -> g       g      )
     3.17473355E-08    2          22        22   # BR(H -> gam     gam    )
     3.99917853E-09    2          23        22   # BR(H -> Z       gam    )
     1.12679932E-06    2          24       -24   # BR(H -> W+      W-     )
     5.62013870E-07    2          23        23   # BR(H -> Z       Z      )
     3.47526590E-06    2          25        25   # BR(H -> h       h      )
     9.01303362E-03    2     1000024  -1000024   # BR(H -> ~chi_1+ ~chi_1-)
     4.80623474E-04    2     1000037  -1000037   # BR(H -> ~chi_2+ ~chi_2-)
     1.38909022E-01    2     1000024  -1000037   # BR(H -> ~chi_1+ ~chi_2-)
     1.38909022E-01    2     1000037  -1000024   # BR(H -> ~chi_2+ ~chi_1-)
     2.39146653E-03    2     1000022   1000022   # BR(H -> ~chi_10 ~chi_10)
     7.78751834E-04    2     1000023   1000023   # BR(H -> ~chi_20 ~chi_20)
     2.37484655E-04    2     1000025   1000025   # BR(H -> ~chi_30 ~chi_30)
     3.01933998E-04    2     1000022   1000023   # BR(H -> ~chi_10 ~chi_20)
     6.28690985E-02    2     1000022   1000025   # BR(H -> ~chi_10 ~chi_30)
     1.10045311E-02    2     1000022   1000035   # BR(H -> ~chi_10 ~chi_40)
     7.63873386E-02    2     1000023   1000025   # BR(H -> ~chi_20 ~chi_30)
     1.50098866E-02    2     1000023   1000035   # BR(H -> ~chi_20 ~chi_40)
     2.22923837E-05    2     1000025   1000035   # BR(H -> ~chi_30 ~chi_40)
#
#         PDG            Width
DECAY        36     6.95995363E+01   # A decays
#          BR         NDA      ID1       ID2
     4.58669954E-01    2           5        -5   # BR(A -> b       bb     )
     8.29418024E-02    2         -15        15   # BR(A -> tau+    tau-   )
     2.91987682E-04    2         -13        13   # BR(A -> mu+     mu-    )
     1.92665777E-04    2           3        -3   # BR(A -> s       sb     )
     1.62228176E-08    2           4        -4   # BR(A -> c       cb     )
     1.59292498E-03    2           6        -6   # BR(A -> t       tb     )
     2.03868892E-05    2          21        21   # BR(A -> g       g      )
     7.20411954E-08    2          22        22   # BR(A -> gam     gam    )
     1.47692516E-08    2          23        22   # BR(A -> Z       gam    )
     1.14062800E-06    2          23        25   # BR(A -> Z       h      )
     9.61612207E-03    2     1000024  -1000024   # BR(A -> ~chi_1+ ~chi_1-)
     9.93392863E-04    2     1000037  -1000037   # BR(A -> ~chi_2+ ~chi_2-)
     1.38346620E-01    2     1000024  -1000037   # BR(A -> ~chi_1+ ~chi_2-)
     1.38346620E-01    2     1000037  -1000024   # BR(A -> ~chi_2+ ~chi_1-)
     2.76585609E-03    2     1000022   1000022   # BR(A -> ~chi_10 ~chi_10)
     7.03726918E-04    2     1000023   1000023   # BR(A -> ~chi_20 ~chi_20)
     4.88121679E-04    2     1000025   1000025   # BR(A -> ~chi_30 ~chi_30)
     1.88913989E-04    2     1000022   1000023   # BR(A -> ~chi_10 ~chi_20)
     7.74132014E-02    2     1000022   1000025   # BR(A -> ~chi_10 ~chi_30)
     1.54089537E-02    2     1000022   1000035   # BR(A -> ~chi_10 ~chi_40)
     6.13982586E-02    2     1000023   1000025   # BR(A -> ~chi_20 ~chi_30)
     1.05354760E-02    2     1000023   1000035   # BR(A -> ~chi_20 ~chi_40)
     8.37723114E-05    2     1000025   1000035   # BR(A -> ~chi_30 ~chi_40)
#
#         PDG            Width
DECAY        37     6.94487800E+01   # H+ decays
#          BR         NDA      ID1       ID2
     7.69862819E-04    2           4        -5   # BR(H+ -> c       bb     )
     8.31648097E-02    2         -15        16   # BR(H+ -> tau+    nu_tau )
     2.92772755E-04    2         -13        14   # BR(H+ -> mu+     nu_mu  )
     7.69861730E-06    2           2        -5   # BR(H+ -> u       bb     )
     9.65758345E-06    2           2        -3   # BR(H+ -> u       sb     )
     1.90106141E-04    2           4        -3   # BR(H+ -> c       sb     )
     4.58746429E-01    2           6        -5   # BR(H+ -> t       bb     )
     1.14573633E-06    2          24        25   # BR(H+ -> W+      h      )
     1.10057685E-13    2          24        36   # BR(H+ -> W+      A      )
     2.72021890E-04    2     1000024   1000022   # BR(H+ -> ~chi_1+ ~chi_10)
     1.70617582E-03    2     1000024   1000023   # BR(H+ -> ~chi_1+ ~chi_20)
     1.42952105E-01    2     1000024   1000025   # BR(H+ -> ~chi_1+ ~chi_30)
     2.52813016E-02    2     1000024   1000035   # BR(H+ -> ~chi_1+ ~chi_40)
     1.47185673E-01    2     1000037   1000022   # BR(H+ -> ~chi_2+ ~chi_10)
     1.39313955E-01    2     1000037   1000023   # BR(H+ -> ~chi_2+ ~chi_20)
     2.60175610E-08    2     1000037   1000025   # BR(H+ -> ~chi_2+ ~chi_30)
     1.06258938E-04    2     1000037   1000035   # BR(H+ -> ~chi_2+ ~chi_40)

DECAY         5   0.000000e+00 # b decays
DECAY        15   0.000000e+00 # tau decays
DECAY        23     2.49520000E+00   # Z
DECAY        24     2.08500000E+00   # W
