# SUSY Les Houches Accord 2 - MSSM spectrum + Decays
# SPheno v4.0.5be
# W. Porod, Comput. Phys. Commun. 153 (2003) 275-315, hep-ph/0301101;
# W. Porod, F.~Staub, Comput. Phys. Commun. 183 (2012) 2458
#                     arXiv:1104.1573 [hep-ph] 
# in case of problems send email to porod@physik.uni-wuerzburg.de
# Created: 10.04.2021,  07:44
Block SPINFO         # Program information
     1   SPheno      # spectrum calculator
     2   v4.0.5be    # version number
#
Block SPhenoINFO     # SPheno specific information
    1      2         # using 2-loop RGEs
    2      2         # using pole masses for boundary conditions at mZ
Block MODSEL  # Model selection
    1    0    # general MSSM
Block MINPAR  # Input parameters
    3    1.72018092E+01  # tanb at m_Z    
    4   -1.00000000E+00  # Sign(mu)
Block EXTPAR  # non-universal input parameters
    0    1.31095272E+03  # scale for input parameters
    1    8.54473935E+02  # M_1
    2    8.55802932E+02  # M_2
    3    2.29228337E+03  # M_3
   11    3.68808017E+03  # A_t
   12    1.55166872E+03  # A_b
   13    7.29892587E+02  # A_tau
   23   -2.92359441E+02  # mu
   25    1.65510524E+01  # tan(beta)
   26    1.25666402E+03  # m_A, pole mass
   31    9.22609918E+02  # M_L11
   32    9.22609918E+02  # M_L22
   33    3.06535624E+02  # M_L33
   34    1.51930844E+03  # M_E11
   35    1.51930844E+03  # M_E22
   36    1.26404991E+03  # M_E33
   41    1.95595861E+03  # M_Q11
   42    1.95595861E+03  # M_Q22
   43    1.15541476E+03  # M_Q33
   44    2.64279941E+03  # M_U11
   45    2.64279941E+03  # M_U22
   46    1.61406545E+03  # M_U33
   47    2.76946011E+03  # M_D11
   48    2.76946011E+03  # M_D22
   49    1.68220278E+03  # M_D33
Block SMINPUTS  # SM parameters
         1     1.27908970E+02  # alpha_em^-1(MZ)^MSbar
         2     1.16637870E-05  # G_mu [GeV^-2]
         3     1.18400000E-01  # alpha_s(MZ)^MSbar
         4     9.11876000E+01  # m_Z(pole)
         5     4.18000000E+00  # m_b(m_b), MSbar
         6     1.73200000E+02  # m_t(pole)
         7     1.77700000E+00  # m_tau(pole)
         8     0.00000000E+00  # m_nu_3
        11     5.10998930E-04  # m_e(pole)
        12     0.00000000E+00  # m_nu_1
        13     1.05658372E-01  # m_muon(pole)
        14     0.00000000E+00  # m_nu_2
        21     5.00000000E-03  # m_d(2 GeV), MSbar
        22     2.50000000E-03  # m_u(2 GeV), MSbar
        23     9.50000000E-02  # m_s(2 GeV), MSbar
        24     1.27000000E+00  # m_c(m_c), MSbar
Block gauge Q=  1.31095272E+03  # (SUSY scale)
   1    3.55362975E-01  # g'(Q)^DRbar
   2    6.65198874E-01  # g(Q)^DRbar
   3    1.21977796E+00  # g3(Q)^DRbar
Block Yu Q=  1.31095272E+03  # (SUSY scale)
  1  1     8.39966164E-06   # Y_u(Q)^DRbar
  2  2     4.26702811E-03   # Y_c(Q)^DRbar
  3  3     1.01474659E+00   # Y_t(Q)^DRbar
Block Yd Q=  1.31095272E+03  # (SUSY scale)
  1  1     2.79362207E-04   # Y_d(Q)^DRbar
  2  2     5.30788193E-03   # Y_s(Q)^DRbar
  3  3     2.77039770E-01   # Y_b(Q)^DRbar
Block Ye Q=  1.31095272E+03  # (SUSY scale)
  1  1     4.87507480E-05   # Y_e(Q)^DRbar
  2  2     1.00801085E-02   # Y_mu(Q)^DRbar
  3  3     1.69530843E-01   # Y_tau(Q)^DRbar
Block Au Q=  1.31095272E+03  # (SUSY scale)
  1  1     0.00000000E+00   # A_u(Q)^DRbar
  2  2     0.00000000E+00   # A_c(Q)^DRbar
  3  3     3.68808024E+03   # A_t(Q)^DRbar
Block Ad Q=  1.31095272E+03  # (SUSY scale)
  1  1     0.00000000E+00   # A_d(Q)^DRbar
  2  2     0.00000000E+00   # A_s(Q)^DRbar
  3  3     1.55166875E+03   # A_b(Q)^DRbar
Block Ae Q=  1.31095272E+03  # (SUSY scale)
  1  1     0.00000000E+00   # A_e(Q)^DRbar
  2  2     0.00000000E+00   # A_mu(Q)^DRbar
  3  3     7.29892583E+02   # A_tau(Q)^DRbar
Block MSOFT Q=  1.31095272E+03  # soft SUSY breaking masses at Q
   1    8.54473935E+02  # M_1
   2    8.55802932E+02  # M_2
   3    2.29228337E+03  # M_3
  21    1.48288012E+06  # M^2_(H,d)
  22   -4.33542758E+04  # M^2_(H,u)
  31    9.22609918E+02  # M_(L,11)
  32    9.22609918E+02  # M_(L,22)
  33    3.06535624E+02  # M_(L,33)
  34    1.51930844E+03  # M_(E,11)
  35    1.51930844E+03  # M_(E,22)
  36    1.26404991E+03  # M_(E,33)
  41    1.95595861E+03  # M_(Q,11)
  42    1.95595861E+03  # M_(Q,22)
  43    1.15541476E+03  # M_(Q,33)
  44    2.64279941E+03  # M_(U,11)
  45    2.64279941E+03  # M_(U,22)
  46    1.61406545E+03  # M_(U,33)
  47    2.76946011E+03  # M_(D,11)
  48    2.76946011E+03  # M_(D,22)
  49    1.68220278E+03  # M_(D,33)
Block MASS  # Mass spectrum
#   PDG code      mass          particle
         6     1.73200000E+02  # m_t(pole)
        23     9.11876000E+01  # m_Z(pole)
        24     8.04299946E+01  # W+
        15     1.77700000E+00  # m_tau(pole)
        25     1.23053923E+02  # h0
        35     1.25663967E+03  # H0
        36     1.25666402E+03  # A0
        37     1.25930148E+03  # H+
   1000001     2.01065193E+03  # ~d_L
   2000001     2.80348220E+03  # ~d_R
   1000002     2.00925099E+03  # ~u_L
   2000002     2.68089743E+03  # ~u_R
   1000003     2.01065173E+03  # ~s_L
   2000003     2.80348183E+03  # ~s_R
   1000004     2.00925090E+03  # ~c_L
   2000004     2.68089731E+03  # ~c_R
   1000005     1.16122815E+03  # ~b_1
   2000005     1.72831680E+03  # ~b_2
   1000006     1.06204995E+03  # ~t_1
   2000006     1.61818852E+03  # ~t_2
   1000011     9.34218283E+02  # ~e_L-
   2000011     1.52069324E+03  # ~e_R-
   1000012     9.30610025E+02  # ~nu_eL
   1000013     9.34216157E+02  # ~mu_L-
   2000013     1.52069013E+03  # ~mu_R-
   1000014     9.30607979E+02  # ~nu_muL
   1000015     3.33517074E+02  # ~tau_1-
   2000015     1.26479278E+03  # ~tau_2-
   1000016     3.23967671E+02  # ~nu_tauL
   1000021     2.35439060E+03  # ~g
   1000022     2.91687426E+02  # ~chi_10
   1000023     3.00728344E+02  # ~chi_20
   1000025     8.52520433E+02  # ~chi_30
   1000035     8.82511993E+02  # ~chi_40
   1000024     2.95667463E+02  # ~chi_1+
   1000037     8.82067645E+02  # ~chi_2+
# Higgs mixing
Block alpha # Effective Higgs mixing angle
          -5.89969797E-02   # alpha
Block Hmix Q=  1.31095272E+03  # Higgs mixing parameters
   1   -2.92359441E+02  # mu
   2    1.65510524E+01  # tan[beta](Q)
   3    2.44152315E+02  # v(Q)
   4    1.57920446E+06  # m^2_A(Q)
Block stopmix # stop mixing matrix
   1  1    -9.20982505E-01   # Re[R_st(1,1)]
   1  2     3.89603933E-01   # Re[R_st(1,2)]
   2  1    -3.89603933E-01   # Re[R_st(2,1)]
   2  2    -9.20982505E-01   # Re[R_st(2,2)]
Block sbotmix # sbottom mixing matrix
   1  1    -9.99953659E-01   # Re[R_sb(1,1)]
   1  2     9.62699824E-03   # Re[R_sb(1,2)]
   2  1    -9.62699824E-03   # Re[R_sb(2,1)]
   2  2    -9.99953659E-01   # Re[R_sb(2,2)]
Block staumix # stau mixing matrix
   1  1    -9.99978769E-01   # Re[R_sta(1,1)]
   1  2     6.51617696E-03   # Re[R_sta(1,2)]
   2  1    -6.51617696E-03   # Re[R_sta(2,1)]
   2  2    -9.99978769E-01   # Re[R_sta(2,2)]
Block Nmix # neutralino mixing matrix
   1  1     5.10702546E-02   # Re[N(1,1)]
   1  2    -8.87735925E-02   # Re[N(1,2)]
   1  3    -7.10909702E-01   # Re[N(1,3)]
   1  4    -6.95786227E-01   # Re[N(1,4)]
   2  1     2.85590896E-02   # Re[N(2,1)]
   2  2    -5.12264948E-02   # Re[N(2,2)]
   2  3     7.02562443E-01   # Re[N(2,3)]
   2  4    -7.09201127E-01   # Re[N(2,4)]
   3  1    -9.70638019E-01   # Re[N(3,1)]
   3  2    -2.38325575E-01   # Re[N(3,2)]
   3  3    -9.42389467E-03   # Re[N(3,3)]
   3  4    -3.12081129E-02   # Re[N(3,4)]
   4  1     2.33319616E-01   # Re[N(4,1)]
   4  2    -9.65761884E-01   # Re[N(4,2)]
   4  3     3.04072386E-02   # Re[N(4,3)]
   4  4     1.09276442E-01   # Re[N(4,4)]
Block Umix # chargino mixing matrix
   1  1    -3.92664886E-02   # Re[U(1,1)]
   1  2    -9.99228774E-01   # Re[U(1,2)]
   2  1     9.99228774E-01   # Re[U(2,1)]
   2  2    -3.92664886E-02   # Re[U(2,2)]
Block Vmix # chargino mixing matrix
   1  1    -1.40913661E-01   # Re[V(1,1)]
   1  2     9.90021889E-01   # Re[V(1,2)]
   2  1     9.90021889E-01   # Re[V(2,1)]
   2  2     1.40913661E-01   # Re[V(2,2)]
DECAY        23     2.49520000E+00   # Z
DECAY        24     2.08500000E+00   # W
DECAY   1000011     2.23516647E-01   # ~e^-_L
#    BR                NDA      ID1      ID2
     5.66593170E-02    2     1000022        11   # BR(~e^-_L -> chi^0_1 e^-)
     1.91248469E-02    2     1000023        11   # BR(~e^-_L -> chi^0_2 e^-)
     2.94797077E-01    2     1000025        11   # BR(~e^-_L -> chi^0_3 e^-)
     1.50775034E-01    2     1000035        11   # BR(~e^-_L -> chi^0_4 e^-)
     4.59349024E-02    2    -1000024        12   # BR(~e^-_L -> chi^-_1 nu_e)
     4.32708819E-01    2    -1000037        12   # BR(~e^-_L -> chi^-_2 nu_e)
#    BR                NDA      ID1      ID2       ID3
DECAY   2000011     3.59209944E+00   # ~e^-_R
#    BR                NDA      ID1      ID2
     5.14724514E-03    2     1000022        11   # BR(~e^-_R -> chi^0_1 e^-)
     1.60191001E-03    2     1000023        11   # BR(~e^-_R -> chi^0_2 e^-)
     9.42317316E-01    2     1000025        11   # BR(~e^-_R -> chi^0_3 e^-)
     5.09335096E-02    2     1000035        11   # BR(~e^-_R -> chi^0_4 e^-)
DECAY   1000013     2.25029706E-01   # ~mu^-_L
#    BR                NDA      ID1      ID2
     5.97349251E-02    2     1000022        13   # BR(~mu^-_L -> chi^0_1 mu^-)
     2.23231013E-02    2     1000023        13   # BR(~mu^-_L -> chi^0_2 mu^-)
     2.92800923E-01    2     1000025        13   # BR(~mu^-_L -> chi^0_3 mu^-)
     1.49748905E-01    2     1000035        13   # BR(~mu^-_L -> chi^0_4 mu^-)
     4.56258943E-02    2    -1000024        14   # BR(~mu^-_L -> chi^-_1 nu_mu)
     4.29766248E-01    2    -1000037        14   # BR(~mu^-_L -> chi^-_2 nu_mu)
#    BR                NDA      ID1      ID2       ID3
DECAY   2000013     3.59780004E+00   # ~mu^-_R
#    BR                NDA      ID1      ID2
     5.53976795E-03    2     1000022        13   # BR(~mu^-_R -> chi^0_1 mu^-)
     1.98870228E-03    2     1000023        13   # BR(~mu^-_R -> chi^0_2 mu^-)
     9.40818768E-01    2     1000025        13   # BR(~mu^-_R -> chi^0_3 mu^-)
     5.08528059E-02    2     1000035        13   # BR(~mu^-_R -> chi^0_4 mu^-)
     7.89809178E-04    2    -1000024        14   # BR(~mu^-_R -> chi^-_1 nu_mu)
DECAY   1000015     9.28356945E-03   # ~tau^-_1
#    BR                NDA      ID1      ID2
     6.20880947E-01    2     1000022        15   # BR(~tau^-_1 -> chi^0_1 tau^-)
     3.54825629E-01    2     1000023        15   # BR(~tau^-_1 -> chi^0_2 tau^-)
     2.42784933E-02    2    -1000024        16   # BR(~tau^-_1 -> chi^-_1 nu_tau)
#    BR                NDA      ID1      ID2       ID3
DECAY   2000015     3.27651717E+00   # ~tau^-_2
#    BR                NDA      ID1      ID2
     1.03970881E-01    2     1000022        15   # BR(~tau^-_2 -> chi^0_1 tau^-)
     9.86964386E-02    2     1000023        15   # BR(~tau^-_2 -> chi^0_2 tau^-)
     5.44110229E-01    2     1000025        15   # BR(~tau^-_2 -> chi^0_3 tau^-)
     2.79240489E-02    2     1000035        15   # BR(~tau^-_2 -> chi^0_4 tau^-)
     1.96544348E-01    2    -1000024        16   # BR(~tau^-_2 -> chi^-_1 nu_tau)
     2.44610176E-04    2    -1000037        16   # BR(~tau^-_2 -> chi^-_2 nu_tau)
     1.43395027E-02    2     1000016       -24   # BR(~tau^-_2 -> ~nu_tau W^-)
     7.04776948E-03    2     1000015        23   # BR(~tau^-_2 -> ~tau^-_1 Z)
     7.12217213E-03    2     1000015        25   # BR(~tau^-_2 -> ~tau^-_1 h^0)
DECAY   1000012     3.31459185E-01   # ~nu_e
#    BR                NDA      ID1      ID2
     1.35349997E-01    2     1000022        12   # BR(~nu_e -> chi^0_1 nu_e)
     4.38095200E-02    2     1000023        12   # BR(~nu_e -> chi^0_2 nu_e)
     2.50834664E-02    2     1000025        12   # BR(~nu_e -> chi^0_3 nu_e)
     1.48989306E-01    2     1000035        12   # BR(~nu_e -> chi^0_4 nu_e)
     3.96691251E-01    2     1000024        11   # BR(~nu_e -> chi^+_1 e^-)
     2.50076459E-01    2     1000037        11   # BR(~nu_e -> chi^+_2 e^-)
DECAY   1000014     3.32967614E-01   # ~nu_mu
#    BR                NDA      ID1      ID2
     1.34736402E-01    2     1000022        14   # BR(~nu_mu -> chi^0_1 nu_mu)
     4.36109110E-02    2     1000023        14   # BR(~nu_mu -> chi^0_2 nu_mu)
     2.49686307E-02    2     1000025        14   # BR(~nu_mu -> chi^0_3 nu_mu)
     1.48302372E-01    2     1000035        14   # BR(~nu_mu -> chi^0_4 nu_mu)
     3.99459207E-01    2     1000024        13   # BR(~nu_mu -> chi^+_1 mu^-)
     2.48922478E-01    2     1000037        13   # BR(~nu_mu -> chi^+_2 mu^-)
DECAY   1000016     7.88023324E-03   # ~nu_tau
#    BR                NDA      ID1      ID2
     8.73867703E-02    2     1000022        16   # BR(~nu_tau -> chi^0_1 nu_tau)
     1.53027479E-02    2     1000023        16   # BR(~nu_tau -> chi^0_2 nu_tau)
     8.97310482E-01    2     1000024        15   # BR(~nu_tau -> chi^+_1 tau^-)
DECAY   1000001     1.75376661E+01   # ~d_L
#    BR                NDA      ID1      ID2
     4.63213768E-03    2     1000022         1   # BR(~d_L -> chi^0_1 d)
     1.52948154E-03    2     1000023         1   # BR(~d_L -> chi^0_2 d)
     1.45564991E-03    2     1000025         1   # BR(~d_L -> chi^0_3 d)
     3.33748202E-01    2     1000035         1   # BR(~d_L -> chi^0_4 d)
     1.48954670E-03    2    -1000024         2   # BR(~d_L -> chi^-_1 u)
     6.57144982E-01    2    -1000037         2   # BR(~d_L -> chi^-_2 u)
DECAY   2000001     2.05099892E+01   # ~d_R
#    BR                NDA      ID1      ID2
     1.94854569E-04    2     1000022         1   # BR(~d_R -> chi^0_1 d)
     5.92145256E-02    2     1000025         1   # BR(~d_R -> chi^0_3 d)
     3.37175657E-03    2     1000035         1   # BR(~d_R -> chi^0_4 d)
     9.37157735E-01    2     1000021         1   # BR(~d_R -> ~g d)
DECAY   1000003     1.75394271E+01   # ~s_L
#    BR                NDA      ID1      ID2
     4.66273186E-03    2     1000022         3   # BR(~s_L -> chi^0_1 s)
     1.55954077E-03    2     1000023         3   # BR(~s_L -> chi^0_2 s)
     1.45550783E-03    2     1000025         3   # BR(~s_L -> chi^0_3 s)
     3.33714630E-01    2     1000035         3   # BR(~s_L -> chi^0_4 s)
     1.52825239E-03    2    -1000024         4   # BR(~s_L -> chi^-_1 c)
     6.57079337E-01    2    -1000037         4   # BR(~s_L -> chi^-_2 c)
DECAY   2000003     2.05130281E+01   # ~s_R
#    BR                NDA      ID1      ID2
     2.32604154E-04    2     1000022         3   # BR(~s_R -> chi^0_1 s)
     5.92057453E-02    2     1000025         3   # BR(~s_R -> chi^0_3 s)
     3.37131214E-03    2     1000035         3   # BR(~s_R -> chi^0_4 s)
     9.37017499E-01    2     1000021         3   # BR(~s_R -> ~g s)
DECAY   1000005     2.43539270E+01   # ~b_1
#    BR                NDA      ID1      ID2
     3.42654812E-02    2     1000022         5   # BR(~b_1 -> chi^0_1 b)
     3.17426616E-02    2     1000023         5   # BR(~b_1 -> chi^0_2 b)
     1.91898637E-04    2     1000025         5   # BR(~b_1 -> chi^0_3 b)
     3.79712472E-02    2     1000035         5   # BR(~b_1 -> chi^0_4 b)
     7.91859934E-01    2    -1000024         6   # BR(~b_1 -> chi^-_1 t)
     7.15374325E-02    2    -1000037         6   # BR(~b_1 -> chi^-_2 t)
     3.24313446E-02    2     1000006       -24   # BR(~b_1 -> ~t_1 W^-)
DECAY   2000005     5.60245804E+00   # ~b_2
#    BR                NDA      ID1      ID2
     2.23928754E-01    2     1000022         5   # BR(~b_2 -> chi^0_1 b)
     2.19430122E-01    2     1000023         5   # BR(~b_2 -> chi^0_2 b)
     9.29367795E-02    2     1000025         5   # BR(~b_2 -> chi^0_3 b)
     5.69847839E-03    2     1000035         5   # BR(~b_2 -> chi^0_4 b)
     4.34558703E-01    2    -1000024         6   # BR(~b_2 -> chi^-_1 t)
     9.92871214E-04    2    -1000037         6   # BR(~b_2 -> chi^-_2 t)
     1.16098570E-02    2     1000006       -24   # BR(~b_2 -> ~t_1 W^-)
     4.60422460E-03    2     1000005        23   # BR(~b_2 -> ~b_1 Z)
     6.23493471E-03    2     1000005        25   # BR(~b_2 -> ~b_1 h^0)
DECAY   1000002     1.76318181E+01   # ~u_L
#    BR                NDA      ID1      ID2
     3.05162019E-03    2     1000022         2   # BR(~u_L -> chi^0_1 u)
     1.02054665E-03    2     1000023         2   # BR(~u_L -> chi^0_2 u)
     5.70140317E-02    2     1000025         2   # BR(~u_L -> chi^0_3 u)
     2.79074691E-01    2     1000035         2   # BR(~u_L -> chi^0_4 u)
     1.90662496E-02    2     1000024         1   # BR(~u_L -> chi^+_1 d)
     6.40772861E-01    2     1000037         1   # BR(~u_L -> chi^+_2 d)
DECAY   2000002     1.59092056E+01   # ~u_R
#    BR                NDA      ID1      ID2
     9.58398552E-04    2     1000022         2   # BR(~u_R -> chi^0_1 u)
     2.99256542E-04    2     1000023         2   # BR(~u_R -> chi^0_2 u)
     2.86463292E-01    2     1000025         2   # BR(~u_R -> chi^0_3 u)
     1.62866736E-02    2     1000035         2   # BR(~u_R -> chi^0_4 u)
     6.95992379E-01    2     1000021         2   # BR(~u_R -> ~g u)
DECAY   1000004     1.76335800E+01   # ~c_L
#    BR                NDA      ID1      ID2
     3.07035941E-03    2     1000022         4   # BR(~c_L -> chi^0_1 c)
     1.04022202E-03    2     1000023         4   # BR(~c_L -> chi^0_2 c)
     5.70082174E-02    2     1000025         4   # BR(~c_L -> chi^0_3 c)
     2.79047142E-01    2     1000035         4   # BR(~c_L -> chi^0_4 c)
     1.91252829E-02    2     1000024         3   # BR(~c_L -> chi^+_1 s)
     6.40708777E-01    2     1000037         3   # BR(~c_L -> chi^+_2 s)
DECAY   2000004     1.59109700E+01   # ~c_R
#    BR                NDA      ID1      ID2
     9.87104843E-04    2     1000022         4   # BR(~c_R -> chi^0_1 c)
     3.29130284E-04    2     1000023         4   # BR(~c_R -> chi^0_2 c)
     2.86431449E-01    2     1000025         4   # BR(~c_R -> chi^0_3 c)
     1.62855101E-02    2     1000035         4   # BR(~c_R -> chi^0_4 c)
     6.95907467E-01    2     1000021         4   # BR(~c_R -> ~g c)
DECAY   1000006     2.14459917E+01   # ~t_1
#    BR                NDA      ID1      ID2
     3.97559952E-01    2     1000022         6   # BR(~t_1 -> chi^0_1 t)
     4.20344516E-01    2     1000023         6   # BR(~t_1 -> chi^0_2 t)
     6.85012572E-04    2     1000025         6   # BR(~t_1 -> chi^0_3 t)
     7.32095115E-03    2     1000035         6   # BR(~t_1 -> chi^0_4 t)
     1.32204299E-01    2     1000024         5   # BR(~t_1 -> chi^+_1 b)
     4.15470468E-02    2     1000037         5   # BR(~t_1 -> chi^+_2 b)
#    BR                NDA      ID1      ID2       ID3
     3.37698257E-04    3     1000022        24         5   # BR(~t_1 -> chi^0_1 W^+ b)
DECAY   2000006     1.63881791E+02   # ~t_2
#    BR                NDA      ID1      ID2
     9.16731341E-02    2     1000022         6   # BR(~t_2 -> chi^0_1 t)
     9.25273907E-02    2     1000023         6   # BR(~t_2 -> chi^0_2 t)
     1.00897081E-02    2     1000025         6   # BR(~t_2 -> chi^0_3 t)
     4.34238580E-04    2     1000035         6   # BR(~t_2 -> chi^0_4 t)
     1.71943481E-01    2     1000024         5   # BR(~t_2 -> chi^+_1 b)
     1.51484276E-03    2     1000037         5   # BR(~t_2 -> chi^+_2 b)
     2.90272248E-01    2     1000005        24   # BR(~t_2 -> ~b_1 W^+)
     2.00184187E-01    2     1000006        23   # BR(~t_2 -> ~t_1 Z)
     1.41360770E-01    2     1000006        25   # BR(~t_2 -> ~t_1 h^0)
DECAY   1000024     1.12359974E-09   # chi^+_1
#    BR                NDA      ID1      ID2       ID3
     4.15813800E-01    3     1000022        -1         2   # BR(chi^+_1 -> chi^0_1 d_bar u)
     2.54710375E-01    3     1000022        -3         4   # BR(chi^+_1 -> chi^0_1 s_bar c)
     1.38622368E-01    3     1000022       -11        12   # BR(chi^+_1 -> chi^0_1 e^+ nu_e)
     1.38135772E-01    3     1000022       -13        14   # BR(chi^+_1 -> chi^0_1 mu^+ nu_mu)
     5.27176853E-02    3     1000022       -15        16   # BR(chi^+_1 -> chi^0_1 tau^+ nu_tau)
DECAY   1000037     1.25197927E+01   # chi^+_2
#    BR                NDA      ID1      ID2
     2.27383469E-01    2    -1000015        16   # BR(chi^+_2 -> ~tau^+_1 nu_tau)
     2.27519496E-01    2     1000016       -15   # BR(chi^+_2 -> ~nu_tau tau^+)
     1.32978127E-01    2     1000022        24   # BR(chi^+_2 -> chi^0_1 W^+)
     1.40422868E-01    2     1000023        24   # BR(chi^+_2 -> chi^0_2 W^+)
     1.34963677E-01    2     1000024        23   # BR(chi^+_2 -> chi^+_1 Z)
     1.32011195E-01    2     1000024        25   # BR(chi^+_2 -> chi^+_1 h^0)
#    BR                NDA      ID1      ID2       ID3
     9.80018165E-04    3     1000024         6        -6   # BR(chi^+_2 -> chi^+_1 t t_bar)
     1.67410432E-03    3     1000022        -5         6   # BR(chi^+_2 -> chi^0_1 b_bar t)
     2.00814933E-03    3     1000023        -5         6   # BR(chi^+_2 -> chi^0_2 b_bar t)
DECAY   1000022     0.00000000E+00   # chi^0_1
DECAY   1000023     3.05655663E-07   # chi^0_2
#    BR                NDA      ID1      ID2
     3.94650618E-01    2     1000022        22   # BR(chi^0_2 -> chi^0_1 photon)
#    BR                NDA      ID1      ID2       ID3
     7.75141178E-02    3     1000022         2        -2   # BR(chi^0_2 -> chi^0_1 u u_bar)
     5.95049574E-02    3     1000022         4        -4   # BR(chi^0_2 -> chi^0_1 c c_bar)
     9.93850677E-02    3     1000022         1        -1   # BR(chi^0_2 -> chi^0_1 d d_bar)
     9.92576091E-02    3     1000022         3        -3   # BR(chi^0_2 -> chi^0_1 s s_bar)
     1.14264658E-03    3     1000022         5        -5   # BR(chi^0_2 -> chi^0_1 b b_bar)
     2.24277590E-02    3     1000022        11       -11   # BR(chi^0_2 -> chi^0_1 e^- e^+)
     2.23825738E-02    3     1000022        13       -13   # BR(chi^0_2 -> chi^0_1 mu^- mu^+)
     1.29417113E-02    3     1000022        15       -15   # BR(chi^0_2 -> chi^0_1 tau^- tau^+)
     1.33179358E-01    3     1000022        12       -12   # BR(chi^0_2 -> chi^0_1 nu_e nu_bar_e)
     1.49801305E-02    3     1000024         1        -2   # BR(chi^0_2 -> chi^+_1 d u_bar)
     1.49801305E-02    3    -1000024        -1         2   # BR(chi^0_2 -> chi^-_1 d_bar u)
     1.10611700E-02    3     1000024         3        -4   # BR(chi^0_2 -> chi^+_1 s c_bar)
     1.10611700E-02    3    -1000024        -3         4   # BR(chi^0_2 -> chi^-_1 s_bar c)
     4.99367409E-03    3     1000024        11       -12   # BR(chi^0_2 -> chi^+_1 e^- nu_bar_e)
     4.99367409E-03    3    -1000024       -11        12   # BR(chi^0_2 -> chi^-_1 e^+ nu_e)
     4.98285002E-03    3     1000024        13       -14   # BR(chi^0_2 -> chi^+_1 mu^- nu_bar_mu)
     4.98285002E-03    3    -1000024       -13        14   # BR(chi^0_2 -> chi^-_1 mu^+ nu_mu)
     2.78896613E-03    3     1000024        15       -16   # BR(chi^0_2 -> chi^+_1 tau^- nu_bar_tau)
     2.78896613E-03    3    -1000024       -15        16   # BR(chi^0_2 -> chi^-_1 tau^+ nu_tau)
DECAY   1000025     4.03373858E+00   # chi^0_3
#    BR                NDA      ID1      ID2
     1.91140860E-01    2     1000015       -15   # BR(chi^0_3 -> ~tau^-_1 tau^+)
     1.91140860E-01    2    -1000015        15   # BR(chi^0_3 -> ~tau^+_1 tau^-)
     2.67342426E-02    2     1000016       -16   # BR(chi^0_3 -> ~nu_tau nu_bar_tau)
     2.67342426E-02    2    -1000016        16   # BR(chi^0_3 -> ~nu^*_tau nu_tau)
     2.33801700E-01    2     1000024       -24   # BR(chi^0_3 -> chi^+_1 W^-)
     2.33801700E-01    2    -1000024        24   # BR(chi^0_3 -> chi^-_1 W^+)
     8.34387048E-03    2     1000022        23   # BR(chi^0_3 -> chi^0_1 Z)
     2.98810232E-02    2     1000023        23   # BR(chi^0_3 -> chi^0_2 Z)
     2.28093158E-02    2     1000022        25   # BR(chi^0_3 -> chi^0_1 h^0)
     3.08806881E-02    2     1000023        25   # BR(chi^0_3 -> chi^0_2 h^0)
#    BR                NDA      ID1      ID2       ID3
     1.39117128E-04    3     1000022         6        -6   # BR(chi^0_3 -> chi^0_1 t t_bar)
     1.49393156E-04    3     1000023         6        -6   # BR(chi^0_3 -> chi^0_2 t t_bar)
     2.21219723E-03    3     1000024         5        -6   # BR(chi^0_3 -> chi^+_1 b t_bar)
     2.21219723E-03    3    -1000024        -5         6   # BR(chi^0_3 -> chi^-_1 b_bar t)
DECAY   1000035     1.34934658E+01   # chi^0_4
#    BR                NDA      ID1      ID2
     7.48224365E-02    2     1000015       -15   # BR(chi^0_4 -> ~tau^-_1 tau^+)
     7.48224365E-02    2    -1000015        15   # BR(chi^0_4 -> ~tau^+_1 tau^-)
     1.28120787E-01    2     1000016       -16   # BR(chi^0_4 -> ~nu_tau nu_bar_tau)
     1.28120787E-01    2    -1000016        16   # BR(chi^0_4 -> ~nu^*_tau nu_tau)
     9.16315883E-02    2     1000024       -24   # BR(chi^0_4 -> chi^+_1 W^-)
     9.16315883E-02    2    -1000024        24   # BR(chi^0_4 -> chi^-_1 W^+)
     3.72003275E-02    2     1000022        23   # BR(chi^0_4 -> chi^0_1 Z)
     1.20105416E-01    2     1000023        23   # BR(chi^0_4 -> chi^0_2 Z)
     1.06749040E-01    2     1000022        25   # BR(chi^0_4 -> chi^0_1 h^0)
     1.44286248E-01    2     1000023        25   # BR(chi^0_4 -> chi^0_2 h^0)
#    BR                NDA      ID1      ID2       ID3
     3.23854436E-04    3     1000022         6        -6   # BR(chi^0_4 -> chi^0_1 t t_bar)
     3.68919002E-04    3     1000023         6        -6   # BR(chi^0_4 -> chi^0_2 t t_bar)
     8.87051854E-04    3     1000024         5        -6   # BR(chi^0_4 -> chi^+_1 b t_bar)
     8.87051854E-04    3    -1000024        -5         6   # BR(chi^0_4 -> chi^-_1 b_bar t)
DECAY   1000021     1.40370247E+02   # ~g
#    BR                NDA      ID1      ID2
     1.83247838E-02    2     1000002        -2   # BR(~g -> ~u_L u_bar)
     1.83247838E-02    2    -1000002         2   # BR(~g -> ~u^*_L u)
     1.83246874E-02    2     1000004        -4   # BR(~g -> ~c_L c_bar)
     1.83246874E-02    2    -1000004         4   # BR(~g -> ~c^*_L c)
     1.77589320E-01    2     1000006        -6   # BR(~g -> ~t_1 t_bar)
     1.77589320E-01    2    -1000006         6   # BR(~g -> ~t^*_1 t)
     5.43589874E-02    2     2000006        -6   # BR(~g -> ~t_2 t_bar)
     5.43589874E-02    2    -2000006         6   # BR(~g -> ~t^*_2 t)
     1.81879960E-02    2     1000001        -1   # BR(~g -> ~d_L d_bar)
     1.81879960E-02    2    -1000001         1   # BR(~g -> ~d^*_L d)
     1.81880149E-02    2     1000003        -3   # BR(~g -> ~s_L s_bar)
     1.81880149E-02    2    -1000003         3   # BR(~g -> ~s^*_L s)
     1.42164733E-01    2     1000005        -5   # BR(~g -> ~b_1 b_bar)
     1.42164733E-01    2    -1000005         5   # BR(~g -> ~b^*_1 b)
     5.27748913E-02    2     2000005        -5   # BR(~g -> ~b_2 b_bar)
     5.27748913E-02    2    -2000005         5   # BR(~g -> ~b^*_2 b)
#    BR                NDA      ID1      ID2       ID3
DECAY        25     3.71120676E-03   # Gamma(h0)
     2.30675813E-03   2        22        22   # BR(h0 -> photon photon)
     1.30952696E-03   2        22        23   # BR(h0 -> photon Z)
     2.25671052E-02   2        23        23   # BR(h0 -> Z Z)
     1.93855301E-01   2       -24        24   # BR(h0 -> W W)
     6.98968518E-02   2        21        21   # BR(h0 -> gluon gluon)
     5.44532023E-09   2       -11        11   # BR(h0 -> Electron electron)
     2.42216438E-04   2       -13        13   # BR(h0 -> Muon muon)
     6.98218665E-02   2       -15        15   # BR(h0 -> Tau tau)
     1.50828618E-07   2        -2         2   # BR(h0 -> Up up)
     2.92679711E-02   2        -4         4   # BR(h0 -> Charm charm)
     6.32775652E-07   2        -1         1   # BR(h0 -> Down down)
     2.28860840E-04   2        -3         3   # BR(h0 -> Strange strange)
     6.10502753E-01   2        -5         5   # BR(h0 -> Bottom bottom)
DECAY        35     9.06330061E+00   # Gamma(HH)
     5.94033679E-08   2        22        22   # BR(HH -> photon photon)
     2.42058006E-07   2        22        23   # BR(HH -> photon Z)
     4.34133696E-05   2        23        23   # BR(HH -> Z Z)
     4.41176059E-05   2       -24        24   # BR(HH -> W W)
     1.86351553E-05   2        21        21   # BR(HH -> gluon gluon)
     6.39831315E-09   2       -11        11   # BR(HH -> Electron electron)
     2.84806733E-04   2       -13        13   # BR(HH -> Muon muon)
     7.95958851E-02   2       -15        15   # BR(HH -> Tau tau)
     1.62100775E-12   2        -2         2   # BR(HH -> Up up)
     3.14373442E-07   2        -4         4   # BR(HH -> Charm charm)
     2.19264811E-02   2        -6         6   # BR(HH -> Top top)
     5.52856418E-07   2        -1         1   # BR(HH -> Down down)
     1.99989599E-04   2        -3         3   # BR(HH -> Strange strange)
     5.93355168E-01   2        -5         5   # BR(HH -> Bottom bottom)
     1.71863432E-02   2  -1000024   1000024   # BR(HH -> Chargino1 chargino1)
     8.56972642E-02   2  -1000024   1000037   # BR(HH -> Chargino1 chargino2)
     8.56972642E-02   2  -1000037   1000024   # BR(HH -> Chargino2 chargino1)
     6.34670105E-03   2   1000022   1000022   # BR(HH -> neutralino1 neutralino1)
     3.76807941E-04   2   1000022   1000023   # BR(HH -> neutralino1 neutralino2)
     6.36478937E-05   2   1000022   1000025   # BR(HH -> neutralino1 neutralino3)
     2.27036053E-02   2   1000022   1000035   # BR(HH -> neutralino1 neutralino4)
     1.52850890E-03   2   1000023   1000023   # BR(HH -> neutralino2 neutralino2)
     2.18092964E-04   2   1000023   1000025   # BR(HH -> neutralino2 neutralino3)
     8.43807162E-02   2   1000023   1000035   # BR(HH -> neutralino2 neutralino4)
     2.95578797E-04   2        25        25   # BR(HH -> h0 h0)
     1.27489273E-05   2  -1000015   1000015   # BR(HH -> Stau1 stau1)
DECAY        36     9.00578061E+00   # Gamma(A0)
     8.15344377E-08   2        22        22   # BR(A0 -> photon photon)
     5.93921205E-07   2        22        23   # BR(A0 -> photon Z)
     8.61783989E-05   2        21        21   # BR(A0 -> gluon gluon)
     6.33835080E-09   2       -11        11   # BR(A0 -> Electron electron)
     2.82137694E-04   2       -13        13   # BR(A0 -> Muon muon)
     7.88422550E-02   2       -15        15   # BR(A0 -> Tau tau)
     1.53321914E-12   2        -2         2   # BR(A0 -> Up up)
     2.97250280E-07   2        -4         4   # BR(A0 -> Charm charm)
     2.25810204E-02   2        -6         6   # BR(A0 -> Top top)
     5.47690270E-07   2        -1         1   # BR(A0 -> Down down)
     1.98120609E-04   2        -3         3   # BR(A0 -> Strange strange)
     5.87818399E-01   2        -5         5   # BR(A0 -> Bottom bottom)
     2.05851909E-02   2  -1000024   1000024   # BR(A0 -> Chargino1 chargino1)
     8.51147239E-02   2  -1000024   1000037   # BR(A0 -> Chargino1 chargino2)
     8.51147239E-02   2  -1000037   1000024   # BR(A0 -> Chargino2 chargino1)
     6.40949278E-03   2   1000022   1000022   # BR(A0 -> neutralino1 neutralino1)
     7.24052414E-04   2   1000022   1000023   # BR(A0 -> neutralino1 neutralino2)
     2.30993758E-04   2   1000022   1000025   # BR(A0 -> neutralino1 neutralino3)
     8.98584926E-02   2   1000022   1000035   # BR(A0 -> neutralino1 neutralino4)
     2.50979643E-03   2   1000023   1000023   # BR(A0 -> neutralino2 neutralino2)
     5.56421330E-05   2   1000023   1000025   # BR(A0 -> neutralino2 neutralino3)
     1.95276130E-02   2   1000023   1000035   # BR(A0 -> neutralino2 neutralino4)
     5.96401036E-05   2        23        25   # BR(A0 -> Z h0)
     9.77724122E-38   2        25        25   # BR(A0 -> h0 h0)
DECAY        37     8.70643180E+00   # Gamma(Hp)
     7.07780231E-09   2       -11        12   # BR(Hp -> Electron nu_e)
     3.02598151E-04   2       -13        14   # BR(Hp -> Muon nu_mu)
     8.55916843E-02   2       -15        16   # BR(Hp -> Tau nu_tau)
     5.14515337E-07   2        -1         2   # BR(Hp -> Down up)
     8.59363309E-06   2        -3         2   # BR(Hp -> Strange up)
     6.28981143E-06   2        -5         2   # BR(Hp -> Bottom up)
     3.64580064E-08   2        -1         4   # BR(Hp -> Down charm)
     1.85722662E-04   2        -3         4   # BR(Hp -> Strange charm)
     8.80797575E-04   2        -5         4   # BR(Hp -> Bottom charm)
     1.34478991E-06   2        -1         6   # BR(Hp -> Down top)
     2.95839951E-05   2        -3         6   # BR(Hp -> Strange top)
     6.02275967E-01   2        -5         6   # BR(Hp -> Bottom top)
     2.82305376E-04   2   1000022   1000024   # BR(Hp -> neutralino1 chargino1)
     9.64935839E-02   2   1000022   1000037   # BR(Hp -> neutralino1 chargino2)
     2.83266310E-03   2   1000023   1000024   # BR(Hp -> neutralino2 chargino1)
     8.77070363E-02   2   1000023   1000037   # BR(Hp -> neutralino2 chargino2)
     8.23379897E-02   2   1000024   1000025   # BR(Hp -> chargino1 neutralino3)
     4.09650724E-02   2   1000024   1000035   # BR(Hp -> chargino1 neutralino4)
     6.23174076E-05   2        24        25   # BR(Hp -> W h0)
     2.08507077E-11   2        24        35   # BR(Hp -> W HH)
     1.99146160E-11   2        24        36   # BR(Hp -> W A0)
     3.58916629E-05   2  -1000015   1000016   # BR(Hp -> Stau1 snu_tau1)
DECAY         6     2.43000000E+00   # top
#    BR                NDA      ID1      ID2
     1.00000000E+00    2           5        24   # BR(t -> b W)
Block HiggsBoundsInputHiggsCouplingsFermions
# ScalarNormEffCoupSq PseudoSNormEffCoupSq NP IP1 IP2 IP2
    9.55849119E-01    0.00000000E+00        3  25   5   5  # h0-b-b eff. coupling^2, normalised to SM
    2.73981486E+02    0.00000000E+00        3  35   5   5  # H0-b-b eff. coupling^2, normalised to SM
    0.00000000E+00    2.73937336E+02        3  36   5   5  # A0-b-b eff. coupling^2, normalised to SM
#
    1.00016117E+00    0.00000000E+00        3  25   6   6  # h0-t-t eff. coupling^2, normalised to SM
    3.48929844E-03    0.00000000E+00        3  35   6   6  # H0-t-t eff. coupling^2, normalised to SM
    0.00000000E+00    3.65046991E-03        3  36   6   6  # A0-t-t eff. coupling^2, normalised to SM
#
    9.55849119E-01    0.00000000E+00        3  25  15  15  # h0-tau-tau eff. coupling^2, normalised to SM
    2.73981486E+02    0.00000000E+00        3  35  15  15  # H0-tau-tau eff. coupling^2, normalised to SM
    0.00000000E+00    2.73937336E+02        3  36  15  15  # A0-tau-tau eff. coupling^2, normalised to SM
#
Block HiggsBoundsInputHiggsCouplingsBosons
    9.99998181E-01        3  25  24  24  # h0-W-W eff. coupling^2, normalised to SM
    1.81920704E-06        3  35  24  24  # H0-W-W eff. coupling^2, normalised to SM
    0.00000000E+00        3  36  24  24  # A0-W-W eff. coupling^2, normalised to SM
#
    9.99998181E-01        3  25  23  23  # h0-Z-Z eff. coupling^2, normalised to SM
    1.81920704E-06        3  35  23  23  # H0-Z-Z eff. coupling^2, normalised to SM
    0.00000000E+00        3  36  23  23  # A0-Z-Z eff. coupling^2, normalised to SM
#
    1.22136120E+00        3  25  21  21  # h0-g-g eff. coupling^2, normalised to SM
    3.17842441E-03        3  35  21  21  # H0-g-g eff. coupling^2, normalised to SM
    1.04445341E-01        3  36  21  21  # A0-g-g eff. coupling^2, normalised to SM
#
    0.00000000E+00        3  25  25  23  # h0-h0-Z eff. coupling^2, normalised to SM
    0.00000000E+00        3  35  25  23  # H0-h0-Z eff. coupling^2, normalised to SM
    1.81920704E-06        3  36  25  23  # A0-h0-Z eff. coupling^2, normalised to SM
    0.00000000E+00        3  35  35  23  # H0-H0-Z eff. coupling^2, normalised to SM
    9.99998181E-01        3  36  35  23  # A0-H0-Z eff. coupling^2, normalised to SM
    0.00000000E+00        3  36  36  23  # A0-A0-Z eff. coupling^2, normalised to SM
#
    0.00000000E+00        4  25  21  21  23  # h0-g-g-Z eff. coupling^2, normalised to SM
    0.00000000E+00        4  35  21  21  23  # H0-g-g-Z eff. coupling^2, normalised to SM
    0.00000000E+00        4  36  21  21  23  # A0-g-g-Z eff. coupling^2, normalised to SM
Block SPhenoLowEnergy  # low energy observables
    1    3.12827507E-04   # BR(b -> s gamma)
    2    1.58803974E-06   # BR(b -> s mu+ mu-)
    3    3.51780742E-05   # BR(b -> s nu nu)
    4    2.76285787E-15   # BR(Bd -> e+ e-)
    5    1.18025922E-10   # BR(Bd -> mu+ mu-)
    6    2.46957773E-08   # BR(Bd -> tau+ tau-)
    7    9.34970195E-14   # BR(Bs -> e+ e-)
    8    3.99418205E-09   # BR(Bs -> mu+ mu-)
    9    8.46798647E-07   # BR(Bs -> tau+ tau-)
   10    9.58581050E-05   # BR(B_u -> tau nu)
   11    9.90177525E-01   # BR(B_u -> tau nu)/BR(B_u -> tau nu)_SM
   12    5.43115925E-01   # |Delta(M_Bd)| [ps^-1] 
   13    1.94018507E+01   # |Delta(M_Bs)| [ps^-1] 
   14    0.00000000E+00   # neutron EDM according to the chiral quark model
   15    0.00000000E+00   # neutron EDM according to the relativistic quark-parton model
   16    2.16171526E-03   # epsilon_K
   17    2.28170455E-15   # Delta(M_K)
   18    2.47787472E-11   # BR(K^0 -> pi^0 nu nu)
   19    8.28192628E-11   # BR(K^+ -> pi^+ nu nu)
   20   -5.68500339E-15   # Delta(g-2)_electron/2
   21   -2.43052281E-10   # Delta(g-2)_muon/2
   22   -1.09315544E-07   # Delta(g-2)_tau/2
   23    0.00000000E+00   # electric dipole moment of the electron
   24    0.00000000E+00   # electric dipole moment of the muon
   25    0.00000000E+00   # electric dipole moment of the tau
   26    0.00000000E+00   # Br(mu -> e gamma)
   27    0.00000000E+00   # Br(tau -> e gamma)
   28    0.00000000E+00   # Br(tau -> mu gamma)
   29    0.00000000E+00   # Br(mu -> 3 e)
   30    0.00000000E+00   # Br(tau -> 3 e)
   31    0.00000000E+00   # Br(tau -> 3 mu)
   39    7.40442923E-05   # Delta(rho_parameter)
   40    0.00000000E+00   # BR(Z -> e mu)
   41    0.00000000E+00   # BR(Z -> e tau)
   42    0.00000000E+00   # BR(Z -> mu tau)
Block FWCOEF Q=  1.60000000E+02  # Wilson coefficients at scale Q
#    id        order  M        value         comment
     0305 4422   00   0    -1.88819110E-01   # C7
     0305 4422   00   2    -1.75565999E-01   # C7
     0305 4322   00   2     8.18831835E-06   # C7'
     0305 6421   00   0    -9.52278348E-02   # C8
     0305 6421   00   2    -1.05512658E-01   # C8
     0305 6321   00   2    -3.45589529E-04   # C8'
 03051111 4133   00   0     1.58701326E+00   # C9 e+e-
 03051111 4133   00   2     1.58809887E+00   # C9 e+e-
 03051111 4233   00   2     3.74799029E-05   # C9' e+e-
 03051111 4137   00   0    -4.40970537E+00   # C10 e+e-
 03051111 4137   00   2    -4.40067499E+00   # C10 e+e-
 03051111 4237   00   2    -2.92448937E-04   # C10' e+e-
 03051313 4133   00   0     1.58701326E+00   # C9 mu+mu-
 03051313 4133   00   2     1.58809802E+00   # C9 mu+mu-
 03051313 4233   00   2     3.74796403E-05   # C9' mu+mu-
 03051313 4137   00   0    -4.40970537E+00   # C10 mu+mu-
 03051313 4137   00   2    -4.40067585E+00   # C10 mu+mu-
 03051313 4237   00   2    -2.92448943E-04   # C10' mu+mu-
 03051212 4137   00   0     1.50535012E+00   # C11 nu_1 nu_1
 03051212 4137   00   2     1.50340095E+00   # C11 nu_1 nu_1
 03051212 4237   00   2     6.38072535E-05   # C11' nu_1 nu_1
 03051414 4137   00   0     1.50535012E+00   # C11 nu_2 nu_2
 03051414 4137   00   2     1.50340095E+00   # C11 nu_2 nu_2
 03051414 4237   00   2     6.38072989E-05   # C11' nu_2 nu_2
 03051616 4137   00   0     1.50535012E+00   # C11 nu_3 nu_3
 03051616 4137   00   2     1.50339630E+00   # C11 nu_3 nu_3
 03051616 4237   00   2     6.38206227E-05   # C11' nu_3 nu_3
Block IMFWCOEF Q=  1.60000000E+02  # Im(Wilson coefficients) at scale Q
#    id        order  M        value         comment
     0305 4422   00   0     3.85847122E-07   # C7
     0305 4422   00   2    -3.47177868E-05   # C7
     0305 4322   00   2     8.45523298E-06   # C7'
     0305 6421   00   0     3.30503578E-07   # C8
     0305 6421   00   2    -3.65965185E-06   # C8
     0305 6321   00   2     3.96885008E-06   # C8'
 03051111 4133   00   2    -7.85284529E-06   # C9 e+e-
 03051111 4233   00   2     1.13702936E-06   # C9' e+e-
 03051111 4137   00   2     6.25753156E-05   # C10 e+e-
 03051111 4237   00   2    -8.89607459E-06   # C10' e+e-
 03051313 4133   00   2    -7.85281038E-06   # C9 mu+mu-
 03051313 4233   00   2     1.13702849E-06   # C9' mu+mu-
 03051313 4137   00   2     6.25753648E-05   # C10 mu+mu-
 03051313 4237   00   2    -8.89607853E-06   # C10' mu+mu-
 03051212 4137   00   2    -1.32293431E-05   # C11 nu_1 nu_1
 03051212 4237   00   2     1.94097125E-06   # C11' nu_1 nu_1
 03051414 4137   00   2    -1.32293435E-05   # C11 nu_2 nu_2
 03051414 4237   00   2     1.94097125E-06   # C11' nu_2 nu_2
 03051616 4137   00   2    -1.33124726E-05   # C11 nu_3 nu_3
 03051616 4237   00   2     1.94098048E-06   # C11' nu_3 nu_3
