BLOCK SPINFO
   1   SPheno
   2   v4.0.5be

BLOCK SPHENOINFO
   1   2
   2   2

BLOCK MODSEL
   1   0

BLOCK MINPAR
   3    35.003088
   4   -1

BLOCK EXTPAR
   0    4066.3459
   1    1243.2354
   2    3109.5341
   3    2744.7402
   11   -1338.4225
   12    7015.0505
   13   -7200.4794
   23   -1282.6112
   25    34.053433
   26    2590.231
   31    3982.085
   32    3982.085
   33    1792.8374
   34    2747.9199
   35    2747.9199
   36    3219.5179
   41    2124.8824
   42    2124.8824
   43    3622.9061
   44    3378.4019
   45    3378.4019
   46    4454.8331
   47    2322.8815
   48    2322.8815
   49    1364.9073

BLOCK SMINPUTS
   1    127.90897
   2    1.1663787e-05
   3    0.1184
   4    91.1876
   5    4.18
   6    173.2
   7    1.777
   8    0
   11    0.00051099893
   12    0
   13    0.10565837
   14    0
   21    0.005
   22    0.0025
   23    0.095
   24    1.27

BLOCK GAUGE Q=  4066.3459
   1    0.35536298
   2    0.66519887
   3    1.219778

BLOCK YU Q=  4066.3459
   1   1    8.3879864e-06
   2   2    0.0042610971
   3   3    1.0133361

BLOCK YD Q=  4066.3459
   1   1    0.00057398279
   2   2    0.010905673
   3   3    0.56921106

BLOCK YE Q=  4066.3459
   1   1    0.00010016419
   2   2    0.020710778
   3   3    0.34832122

BLOCK AU Q=  4066.3459
   1   1    0
   2   2    0
   3   3   -1338.4226

BLOCK AD Q=  4066.3459
   1   1    0
   2   2    0
   3   3    7015.054

BLOCK AE Q=  4066.3459
   1   1    0
   2   2    0
   3   3   -7200.4789

BLOCK MSOFT Q=  4066.3459
   1    1243.2354
   2    3109.5341
   3    2744.7402
   21    5403532
   22   -1378441.3
   31    3982.085
   32    3982.085
   33    1792.8374
   34    2747.9199
   35    2747.9199
   36    3219.5179
   41    2124.8824
   42    2124.8824
   43    3622.9061
   44    3378.4019
   45    3378.4019
   46    4454.8331
   47    2322.8815
   48    2322.8815
   49    1364.9073

BLOCK MASS
   6    173.2
   23    91.1876
   24    80.429995
   15    1.777
   25    120.4601
   35    2590.0233
   36    2590.231
   37    2591.3335
   1000001    2332.058
   2000001    2480.7532
   1000002    2330.697
   2000002    3484.7706
   1000003    2332.0505
   2000003    2480.7441
   1000004    2330.6912
   2000004    3484.7699
   1000005    1517.8191
   2000005    3686.3581
   1000006    3687.1944
   2000006    4484.4852
   1000011    4003.1853
   2000011    2758.7528
   1000012    4001.9709
   1000013    4003.1658
   2000013    2758.7081
   1000014    4001.9509
   1000015    1818.9566
   2000015    3198.9198
   1000016    1818.2538
   1000021    2951.2817
   1000022    1217.0559
   1000023   -1300.5663
   1000025    1309.3492
   1000035    3098.1982
   1000024    1298.5412
   1000037    3098.3093

BLOCK ALPHA
      -0.028653627

BLOCK HMIX Q=  4066.3459
   1   -1282.6112
   2    34.053433
   3    242.93428
   4    6709296.5

BLOCK STOPMIX
   1   1    0.99941541
   1   2    0.03418819
   2   1   -0.03418819
   2   2    0.99941541

BLOCK SBOTMIX
   1   1   -0.011271405
   1   2    0.99993648
   2   1   -0.99993648
   2   2   -0.011271405

BLOCK STAUMIX
   1   1   -0.99995925
   1   2    0.0090277631
   2   1   -0.0090277631
   2   2   -0.99995925

BLOCK NMIX
   1   1   -0.93329001
   1   2    0.0097254302
   1   3    0.2622586
   1   4    0.24514405
   2   1   -0.012674142
   2   2    0.012930447
   2   3   -0.7067042
   2   4    0.70727741
   3   1    0.35889914
   3   2    0.027781653
   3   3    0.65700333
   3   4    0.6623943
   4   1   -0.00073065994
   4   2    0.99948307
   4   3   -0.011671248
   4   4   -0.029947434

BLOCK UMIX
   1   1   -0.01652903
   1   2   -0.99986339
   2   1    0.99986339
   2   2   -0.01652903

BLOCK VMIX
   1   1   -0.042385957
   1   2    0.99910131
   2   1    0.99910131
   2   2    0.042385957

BLOCK HIGGSBOUNDSINPUTHIGGSCOUPLINGSFERMIONS
       0, 1159.6363,3,36,15,15

BLOCK HIGGSBOUNDSINPUTHIGGSCOUPLINGSBOSONS
       0,4,36,21,21,23

BLOCK SPHENOLOWENERGY
   1    0.00033306501
   2    1.5893152e-06
   3    3.5261699e-05
   4    2.2923047e-15
   5    9.7924908e-11
   6    2.0515596e-08
   7    7.8676147e-14
   8    3.3610507e-09
   9    7.1342848e-07
   10    9.5699004e-05
   11    0.98853407
   12    0.54194026
   13    19.356745
   14    0
   15    0
   16    0.0021572078
   17    2.2816584e-15
   18    2.4804294e-11
   19    8.2917733e-11
   20   -9.6964019e-16
   21   -4.1454546e-11
   22   -2.3030686e-08
   23    0
   24    0
   25    0
   26    0
   27    0
   28    0
   29    0
   30    0
   31    0
   39    6.8304575e-05
   40    0
   41    0
   42    0

BLOCK FWCOEF Q=  160
   305   4422   0   0   -0.18881911
   305   4422   0   2   -0.20312906
   305   4322   0   2   -0.00032094913
   305   6421   0   0   -0.095227835
   305   6421   0   2   -0.1070599
   305   6321   0   2   -0.00026383273
   3051111   4133   0   0    1.6274091
   3051111   4133   0   2    1.6277842
   3051111   4233   0   2    0.00018730069
   3051111   4137   0   0   -4.4501012
   3051111   4137   0   2   -4.4493793
   3051111   4237   0   2   -0.0013834438
   3051313   4133   0   0    1.6274091
   3051313   4133   0   2    1.6277838
   3051313   4233   0   2    0.00018730018
   3051313   4137   0   0   -4.4501012
   3051313   4137   0   2   -4.4493797
   3051313   4237   0   2   -0.001383444
   3051212   4137   0   0    1.5053501
   3051212   4137   0   2    1.5051948
   3051212   4237   0   2    0.00029910394
   3051414   4137   0   0    1.5053501
   3051414   4137   0   2    1.5051948
   3051414   4237   0   2    0.00029910401
   3051616   4137   0   0    1.5053501
   3051616   4137   0   2    1.5051943
   3051616   4237   0   2    0.00029912256

BLOCK IMFWCOEF Q=  160
   305   4422   0   0    3.8581083e-07
   305   4422   0   2   -1.8536415e-05
   305   4322   0   2   -2.7622156e-06
   305   6421   0   0    3.3047249e-07
   305   6421   0   2    2.0410276e-05
   305   6321   0   2   -8.7012911e-07
   3051111   4133   0   2    8.2721899e-07
   3051111   4233   0   2    4.0619977e-06
   3051111   4137   0   2   -4.3822335e-06
   3051111   4237   0   2   -3.0010162e-05
   3051313   4133   0   2    8.2721624e-07
   3051313   4233   0   2    4.061994e-06
   3051313   4137   0   2   -4.3822344e-06
   3051313   4237   0   2   -3.0010171e-05
   3051212   4137   0   2    9.6156964e-07
   3051212   4237   0   2    6.4882715e-06
   3051414   4137   0   2    9.6156953e-07
   3051414   4237   0   2    6.4882715e-06
   3051616   4137   0   2    9.524581e-07
   3051616   4237   0   2    6.4882727e-06

DECAY 23  2.4952


DECAY 24  2.085


DECAY 2000011  8.904608
    0.87949523   2    1000022    11
    0.12035345   2    1000025    11
    0.0001512776   2    1000023    11

DECAY 1000011  12.647038
    0.44790533   2   -1000037    12
    0.27424915   2    1000022    11
    0.2236555   2    1000035    11
    0.053538197   2    1000025    11
    0.00060950448   2   -1000024    12

DECAY 2000013  8.9328424
    0.87680588   2    1000022    13
    0.12065075   2    1000025    13
    0.0015964884   2   -1000024    14
    0.00094688032   2    1000023    13

DECAY 1000013  12.674981
    0.44690273   2   -1000037    14
    0.27379512   2    1000022    13
    0.2231549   2    1000035    13
    0.054347795   2    1000025    13
    0.001119068   2    1000023    13
    0.00060815642   2   -1000024    14

DECAY 1000015  1.7324685
    0.39200018   2    1000022    15
    0.30480743   2    1000025    15
    0.30218838   2    1000023    15
    0.0010040007   2   -1000024    16

DECAY 2000015  23.573803
    0.45016685   2    1000022    15
    0.22827781   2   -1000024    16
    0.15934958   2    1000025    15
    0.11412333   2    1000023    15
    0.023754669   2    1000016   -24
    0.012481053   2    1000015    25
    0.011844554   2    1000015    23

DECAY 1000012  12.653097
    0.44606302   2    1000037    11
    0.29623868   2    1000022    12
    0.22342431   2    1000035    12
    0.029837425   2    1000025    12
    0.0040043298   2    1000024    11
    0.00043223326   2    1000023    12

DECAY 1000014  12.680104
    0.44509751   2    1000037    13
    0.29560565   2    1000022    14
    0.22294067   2    1000035    14
    0.029773655   2    1000025    14
    0.0061512064   2    1000024    13
    0.00043130949   2    1000023    14

DECAY 1000016  1.7412708
    0.60914   2    1000024    15
    0.36179996   2    1000022    16
    0.028634562   2    1000025    16
    0.00042547721   2    1000023    16

DECAY 1000001  0.17827561
    0.94344132   2    1000022    1
    0.035257732   2    1000025    1
    0.014976481   2   -1000024    2
    0.0063244709   2    1000023    1

DECAY 2000001  0.78851799
    0.88208096   2    1000022    1
    0.11775421   2    1000025    1
    0.00015377344   2    1000023    1

DECAY 1000003  0.18129149
    0.92885353   2    1000022    3
    0.04080961   2    1000025    3
    0.016923971   2   -1000024    4
    0.013412888   2    1000023    3

DECAY 2000003  0.79473328
    0.87547114   2    1000022    3
    0.11848312   2    1000025    3
    0.003891813   2   -1000024    4
    0.0020867016   2    1000023    3

DECAY 1000005  1.2073484
    0.32838542   2   -1000024    6
    0.28574156   2    1000023    5
    0.23241511   2    1000025    5
    0.15345791   2    1000022    5

DECAY 2000005  120.45072
    0.4758456   2   -1000024    6
    0.31145309   2    1000021    5
    0.075581898   2    1000023    5
    0.065452213   2    1000025    5
    0.022877833   2   -1000037    6
    0.013703381   2    1000022    5
    0.013215367   2    1000005    25
    0.011608404   2    1000035    5
    0.010262214   2    1000005    23

DECAY 1000002  0.1913502
    0.69433595   2    1000022    2
    0.21112598   2    1000025    2
    0.091641852   2    1000024    1
    0.0028962263   2    1000023    2

DECAY 2000002  27.956078
    0.78659553   2    1000021    2
    0.18692457   2    1000022    2
    0.026446765   2    1000025    2

DECAY 1000004  0.19436213
    0.68372557   2    1000022    4
    0.20871568   2    1000025    4
    0.10368329   2    1000024    3
    0.0038754565   2    1000023    4

DECAY 2000004  27.957799
    0.78654212   2    1000021    4
    0.18691462   2    1000022    4
    0.026460127   2    1000025    4

DECAY 1000006  120.07023
    0.3065587   2    1000021    6
    0.23867751   2    1000023    6
    0.2066586   2    1000025    6
    0.15354642   2    1000024    5
    0.034956272   2    1000022    6
    0.02318007   2    1000037    5
    0.020602022   2    1000005    24
    0.011430847   2    1000035    6
    0.0043895502   3    1000022    24    5

DECAY 2000006  278.66112
    0.40193981   2    1000021    6
    0.27468989   2    1000024    5
    0.13753885   2    1000023    6
    0.12633506   2    1000025    6
    0.041575363   2    1000022    6
    0.0086408077   2    2000005    24
    0.0044057423   2    1000006    25
    0.0042844269   2    1000006    23
    0.00037691711   2    1000037    5
    0.00018745684   2    1000035    6

DECAY 1000024  0.00080454076
    0.99994103   2    1000022    24

DECAY 1000037  67.434786
    0.11413411   2    1000004   -3
    0.11413262   2    1000002   -1
    0.11396061   2   -1000003    4
    0.11395893   2   -1000001    2
    0.093337902   2    1000024    25
    0.086967949   2    1000023    24
    0.086806229   2   -1000015    16
    0.086774132   2    1000016   -15
    0.086658098   2    1000024    23
    0.077442221   2    1000025    24
    0.0090545915   2    1000022    24
    0.0066917441   3    1000024    6   -6
    0.0051380169   3    1000023   -5    6
    0.0041346986   3    1000025   -5    6
    0.00052842128   3    1000022   -5    6
    0.00023605157   3    1000024    5   -5

DECAY 1000022 -1


DECAY 1000023  0.0080443933
    0.20343214   3    1000022    12   -12
    0.15211575   3    1000022    1   -1
    0.15211466   3    1000022    3   -3
    0.15081568   3    1000022    5   -5
    0.11863756   3    1000022    2   -2
    0.11842681   3    1000022    4   -4
    0.03432776   3    1000022    11   -11
    0.034327353   3    1000022    13   -13
    0.034229151   3    1000022    15   -15
    0.0015731093   2    1000022    22

DECAY 1000025  8.6907798e-05
    0.98979773   2    1000022    23
    0.0021077311   2    1000023    22
    0.0020371891   3    1000022    5   -5
    0.00069685721   3    1000024    1   -2
    0.00069685721   3   -1000024   -1    2
    0.00065135233   3    1000024    3   -4
    0.00065135233   3   -1000024   -3    4
    0.00036965771   3    1000023    12   -12
    0.00027642749   3    1000023    1   -1
    0.00027605208   3    1000023    3   -3
    0.00023228391   3    1000024    11   -12
    0.00023228391   3   -1000024   -11    12
    0.0002321743   3    1000024    13   -14
    0.0002321743   3   -1000024   -13    14
    0.00022530858   3    1000022    15   -15
    0.00021558839   3    1000023    2   -2
    0.00020378314   3    1000024    15   -16
    0.00020378314   3   -1000024   -15    16
    0.00017461804   2    1000022    22
    0.00016287058   3    1000023    4   -4
    0.0001545269   3    1000022    4   -4

DECAY 1000035  72.286753
    0.082405308   2    1000023    25
    0.081101939   2    1000024   -24
    0.081101939   2   -1000024    24
    0.067981979   2    1000023    23
    0.065633119   2    1000025    25
    0.053251487   2    1000004   -4
    0.053251487   2   -1000004    4
    0.053250905   2    1000002   -2
    0.053250905   2   -1000002    2
    0.053117366   2    1000003   -3
    0.053117366   2   -1000003    3
    0.053116473   2    1000001   -1
    0.053116473   2   -1000001    1
    0.0405287   2    1000016   -16
    0.0405287   2   -1000016    16
    0.040427183   2    1000015   -15
    0.040427183   2   -1000015    15
    0.011523305   2    1000025    23
    0.0076331829   2    1000022    25
    0.0039157775   3    1000024    5   -6
    0.0039157775   3   -1000024   -5    6
    0.0029320751   3    1000023    6   -6
    0.0023611546   3    1000025    6   -6
    0.0015554941   2    1000022    23
    0.00029683707   3    1000022    6   -6
    0.00010281548   3    1000023    5   -5

DECAY 1000021  111.75942
    0.21144405   2    1000005   -5
    0.21144405   2   -1000005    5
    0.055353806   2    1000004   -4
    0.055353806   2   -1000004    4
    0.055352989   2    1000002   -2
    0.055352989   2   -1000002    2
    0.055140039   2    1000003   -3
    0.055140039   2   -1000003    3
    0.055138869   2    1000001   -1
    0.055138869   2   -1000001    1
    0.033655645   2    2000003   -3
    0.033655645   2   -2000003    3
    0.033654459   2    2000001   -1
    0.033654459   2   -2000001    1
    0.00011221255   3    1000024    5   -6
    0.00011221255   3   -1000024   -5    6

DECAY 25  0.0033790403
    0.64012426   2   -5    5
    0.15895515   2   -24    24
    0.074762354   2    21    21
    0.073118118   2   -15    15
    0.031556532   2   -4    4
    0.017561298   2    23    23
    0.0023111861   2    22    22
    0.001115977   2    22    23
    0.00025365218   2   -13    13
    0.00024064387   2   -3    3
    6.6535761e-07   2   -1    1
    1.6263364e-07   2   -2    2
    5.7024465e-09   2   -11    11

DECAY 35  49.131312
    0.87670206   2   -5    5
    0.11348651   2   -15    15
    0.0055480616   2    1000022    1000023
    0.0024007465   2   -6    6
    0.00052960969   2    1000023    1000025
    0.00041942892   2    1000022    1000022
    0.00041532264   2   -13    13
    0.00035475527   2   -3    3
    0.00011914072   2    1000022    1000025
    1.5164187e-05   2    21    21
    4.6588172e-06   2    25    25
    2.4285357e-06   2   -1000024    1000024
    9.8082852e-07   2   -1    1
    6.620511e-07   2    23    23
    2.4367625e-07   2   -24    24
    1.8339381e-07   2    1000023    1000023
    3.1989117e-08   2   -4    4
    9.3283042e-09   2   -11    11
    1.5048296e-09   2    22    22
    5.0259053e-10   2    22    23
    1.6489503e-13   2   -2    2

DECAY 36  46.742348
    0.876735   2   -5    5
    0.11349506   2   -15    15
    0.0038872329   2    1000022    1000022
    0.0023222106   2   -6    6
    0.0022312926   2    1000022    1000025
    0.00041533943   2   -13    13
    0.00039585726   2    1000022    1000023
    0.00035476778   2   -3    3
    0.00012006052   2   -1000024    1000024
    2.4007435e-05   2    21    21
    1.2571093e-05   2    1000023    1000023
    4.426643e-06   2    1000023    1000025
    1.0330278e-06   2    23    25
    9.8086514e-07   2   -1    1
    6.6499403e-08   2    22    22
    5.7442528e-08   2    22    23
    3.0342829e-08   2   -4    4
    9.3286752e-09   2   -11    11
    1.5642396e-13   2   -2    2
    8.1305533e-38   2    25    25

DECAY 37  48.710496
    0.86092043   2   -5    6
    0.13034926   2   -15    16
    0.0058866039   2    1000022    1000024
    0.0012751424   2   -5    4
    0.00074549684   2    1000024    1000025
    0.00046083129   2   -13    14
    0.00032499337   2   -3    4
    1.5195242e-05   2   -3    2
    9.1058335e-06   2   -5    2
    7.9250688e-06   2    1000023    1000024
    2.9496655e-06   2   -3    6
    9.933918e-07   2    24    25
    9.0173776e-07   2   -1    2
    1.1330448e-07   2   -1    6
    4.3078469e-08   2   -1    4
    1.0778892e-08   2   -11    12
    1.0790323e-13   2    24    35
    4.552817e-14   2    24    36

DECAY 6  2.43
    1   2    5    24

DECAY 15 -1
