BLOCK SPINFO
   1   SPheno
   2   v4.0.5be

BLOCK SPHENOINFO
   1   2
   2   2

BLOCK MODSEL
   1   0

BLOCK MINPAR
   3    6.8913589
   4    1

BLOCK EXTPAR
   0    3649.8128
   1   -2966.0261
   2   -2054.2085
   3    4572.899
   11    4720.2748
   12   -1887.5382
   13    2923.3734
   23    313.87444
   25    6.5403788
   26    3915.4389
   31    4808.0631
   32    4808.0631
   33    3167.2931
   34    4944.8216
   35    4944.8216
   36    4113.7764
   41    2502.8063
   42    2502.8063
   43    4588.5502
   44    3266.8718
   45    3266.8718
   46    2758.3007
   47    4516.1694
   48    4516.1694
   49    574.69264

BLOCK SMINPUTS
   1    127.90897
   2    1.1663787e-05
   3    0.1184
   4    91.1876
   5    4.18
   6    173.2
   7    1.777
   8    0
   11    0.00051099893
   12    0
   13    0.10565837
   14    0
   21    0.005
   22    0.0025
   23    0.095
   24    1.27

BLOCK GAUGE Q=  3649.8128
   1    0.35536298
   2    0.66519887
   3    1.219778

BLOCK YU Q=  3649.8128
   1   1    8.4818079e-06
   2   2    0.0043087584
   3   3    1.0246705

BLOCK YD Q=  3649.8128
   1   1    0.00011147349
   2   2    0.0021179962
   3   3    0.11054677

BLOCK YE Q=  3649.8128
   1   1    1.9452938e-05
   2   2    0.0040222507
   3   3    0.06764764

BLOCK AU Q=  3649.8128
   1   1    0
   2   2    0
   3   3    4720.2748

BLOCK AD Q=  3649.8128
   1   1    0
   2   2    0
   3   3   -1887.5382

BLOCK AE Q=  3649.8128
   1   1    0
   2   2    0
   3   3    2923.3734

BLOCK MSOFT Q=  3649.8128
   1   -2966.0261
   2   -2054.2085
   3    4572.899
   21    14812141
   22    419134.97
   31    4808.0631
   32    4808.0631
   33    3167.2931
   34    4944.8216
   35    4944.8216
   36    4113.7764
   41    2502.8063
   42    2502.8063
   43    4588.5502
   44    3266.8718
   45    3266.8718
   46    2758.3007
   47    4516.1694
   48    4516.1694
   49    574.69264

BLOCK MASS
   6    173.2
   23    91.1876
   24    80.429995
   15    1.777
   25    121.70919
   35    3915.408
   36    3915.4389
   37    3916.418
   1000001    2684.9332
   2000001    4645.0473
   1000002    2683.7753
   2000002    3417.1085
   1000003    2684.9326
   2000003    4645.0471
   1000004    2683.7748
   2000004    3417.1077
   1000005    877.40706
   2000005    4685.724
   1000006    2840.0087
   2000006    4690.5257
   1000011    4819.7543
   2000011    4954.304
   1000012    4818.7155
   1000013    4819.7537
   2000013    4954.3029
   1000014    4818.715
   1000015    3182.4879
   2000015    4124.8482
   1000016    3181.1273
   1000021    4655.3837
   1000022   -323.87184
   1000023    327.55041
   1000025   -2110.7144
   1000035   -2944.0083
   1000024    326.17235
   1000037    2110.736

BLOCK ALPHA
      -0.14430735

BLOCK HMIX Q=  3649.8128
   1    313.87444
   2    6.5403788
   3    243.05233
   4    15330662

BLOCK STOPMIX
   1   1   -0.04689192
   1   2    0.99889997
   2   1   -0.99889997
   2   2   -0.04689192

BLOCK SBOTMIX
   1   1    0.00041278178
   1   2    0.99999991
   2   1   -0.99999991
   2   2    0.00041278178

BLOCK STAUMIX
   1   1   -0.99999998
   1   2    0.00022418843
   2   1   -0.00022418843
   2   2   -0.99999998

BLOCK NMIX
   1   1   -0.01022421
   1   2    0.026022792
   1   3   -0.70905152
   1   4   -0.70460217
   2   1    0.01106824
   2   2   -0.026213511
   2   3   -0.70515646
   2   4    0.70848056
   3   1    0.0020533179
   3   2    0.99931648
   3   3   -3.231758e-05
   3   4    0.036910086
   4   1   -0.99988436
   4   2    0.0014958875
   4   3   -0.00055547953
   4   4    0.01512317

BLOCK UMIX
   1   1    2.7921509e-05
   1   2    1
   2   1   -1
   2   2    2.7921509e-05

BLOCK VMIX
   1   1    0.05230241
   1   2    0.99863129
   2   1    0.99863129
   2   2   -0.05230241

BLOCK HIGGSBOUNDSINPUTHIGGSCOUPLINGSFERMIONS
       0, 42.776555,3,36,15,15

BLOCK HIGGSBOUNDSINPUTHIGGSCOUPLINGSBOSONS
       0,4,36,21,21,23

BLOCK SPHENOLOWENERGY
   1    0.00032504263
   2    1.589994e-06
   3    3.5259232e-05
   4    2.5340836e-15
   5    1.0825318e-10
   6    2.2661902e-08
   7    8.5336725e-14
   8    3.6455823e-09
   9    7.7326519e-07
   10    9.6789695e-05
   11    0.9998005
   12    0.54222649
   13    19.374085
   14    0
   15    0
   16    0.0021582785
   17    2.2816681e-15
   18    2.4802523e-11
   19    8.2913198e-11
   20   -2.0215235e-16
   21   -8.6426522e-12
   22   -3.7016578e-09
   23    0
   24    0
   25    0
   26    0
   27    0
   28    0
   29    0
   30    0
   31    0
   39   -0.0001845864
   40    0
   41    0
   42    0

BLOCK FWCOEF Q=  160
   305   4422   0   0   -0.18881911
   305   4422   0   2   -0.1939078
   305   4322   0   2   -0.00011050178
   305   6421   0   0   -0.095227835
   305   6421   0   2   -0.10135848
   305   6321   0   2   -0.00012604554
   3051111   4133   0   0    1.6230132
   3051111   4133   0   2    1.6233671
   3051111   4233   0   2    5.1396151e-06
   3051111   4137   0   0   -4.4457053
   3051111   4137   0   2   -4.4446852
   3051111   4237   0   2   -3.7679168e-05
   3051313   4133   0   0    1.6230132
   3051313   4133   0   2    1.6233671
   3051313   4233   0   2    5.1396149e-06
   3051313   4137   0   0   -4.4457053
   3051313   4137   0   2   -4.4446852
   3051313   4237   0   2   -3.7679168e-05
   3051212   4137   0   0    1.5053501
   3051212   4137   0   2    1.5051304
   3051212   4237   0   2    8.1545114e-06
   3051414   4137   0   0    1.5053501
   3051414   4137   0   2    1.5051304
   3051414   4237   0   2    8.1545114e-06
   3051616   4137   0   0    1.5053501
   3051616   4137   0   2    1.5051304
   3051616   4237   0   2    8.1545581e-06

BLOCK IMFWCOEF Q=  160
   305   4422   0   0    3.8582027e-07
   305   4422   0   2   -8.0328663e-08
   305   4322   0   2   -4.8981027e-07
   305   6421   0   0    3.3048057e-07
   305   6421   0   2   -1.1174261e-06
   305   6321   0   2   -2.6007734e-07
   3051111   4133   0   2    5.8688027e-07
   3051111   4233   0   2    1.0601664e-07
   3051111   4137   0   2   -3.720022e-06
   3051111   4237   0   2   -7.7882703e-07
   3051313   4133   0   2    5.8688013e-07
   3051313   4233   0   2    1.0601664e-07
   3051313   4137   0   2   -3.720022e-06
   3051313   4237   0   2   -7.7882704e-07
   3051212   4137   0   2    8.2413761e-07
   3051212   4237   0   2    1.6855312e-07
   3051414   4137   0   2    8.2413761e-07
   3051414   4237   0   2    1.6855312e-07
   3051616   4137   0   2    8.2366302e-07
   3051616   4237   0   2    1.6855384e-07

DECAY 23  2.4952


DECAY 24  2.085


DECAY 1000011  43.966718
    0.63035646   2   -1000037    12
    0.31544193   2    1000025    11
    0.053802446   2    1000035    11
    0.00020214097   2    1000022    11
    0.00019701667   2    1000023    11

DECAY 2000011  10.420321
    0.99945554   2    1000035    11
    0.0002901087   2    1000023    11
    0.00024759897   2    1000022    11

DECAY 1000013  43.968245
    0.63033443   2   -1000037    14
    0.31543091   2    1000025    13
    0.053800556   2    1000035    13
    0.00021971154   2    1000022    13
    0.00021439193   2    1000023    13

DECAY 2000013  10.423476
    0.99915239   2    1000035    13
    0.00036542566   2    1000023    13
    0.00032377746   2    1000022    13
    0.00015165804   2   -1000024    14

DECAY 1000015  13.5658
    0.64791272   2   -1000037    16
    0.32423401   2    1000025    15
    0.010942046   2    1000022    15
    0.010814802   2    1000023    15
    0.0060964156   2    1000035    15

DECAY 2000015  5.7339291
    0.86977628   2    1000035    15
    0.064675948   2   -1000024    16
    0.032899073   2    1000022    15
    0.03258959   2    1000023    15

DECAY 1000012  43.977588
    0.62821269   2    1000037    11
    0.31385043   2    1000025    12
    0.054355441   2    1000035    12
    0.0026144947   2    1000024    11
    0.00049317871   2    1000023    12
    0.00047377448   2    1000022    12

DECAY 1000014  43.979114
    0.62819074   2    1000037    13
    0.31383946   2    1000025    14
    0.054353532   2    1000035    14
    0.002649348   2    1000024    13
    0.00049316154   2    1000023    14
    0.00047375798   2    1000022    14

DECAY 1000016  13.59044
    0.6438257   2    1000037    15
    0.32165842   2    1000025    16
    0.026385523   2    1000024    15
    0.0060892034   2    1000035    16
    0.001040918   2    1000023    16
    0.0010002342   2    1000022    16

DECAY 1000001  5.1875304
    0.66480252   2   -1000037    2
    0.33172606   2    1000025    1
    0.0017562519   2    1000023    1
    0.001715168   2    1000022    1

DECAY 2000001  0.92869297
    0.99936237   2    1000035    1
    0.00033930265   2    1000023    1
    0.00028968788   2    1000022    1

DECAY 1000003  5.1887063
    0.66464933   2   -1000037    4
    0.33165031   2    1000025    3
    0.0017780844   2    1000023    3
    0.0017372547   2    1000022    3
    0.00018501769   2   -1000024    4

DECAY 2000003  0.92951208
    0.99848152   2    1000035    3
    0.00055796098   2    1000023    3
    0.00051085764   2    1000022    3
    0.00044159293   2   -1000024    4

DECAY 1000005  0.30054468
    0.47212502   2   -1000024    6
    0.26632324   2    1000022    5
    0.26155174   2    1000023    5

DECAY 2000005  176.24831
    0.54694143   2   -1000024    6
    0.22046305   2    1000006   -24
    0.15001422   2   -1000037    6
    0.074191737   2    1000025    5
    0.003307832   2    1000022    5
    0.0032753527   2    1000023    5
    0.0013819243   2    1000035    5
    0.00034602944   2    1000021    5

DECAY 1000002  5.2221705
    0.6564649   2    1000037    1
    0.32894537   2    1000025    2
    0.01201298   2    1000024    1
    0.001290088   2    1000023    2
    0.0012866583   2    1000022    2

DECAY 2000002  0.508492
    0.99663025   2    1000035    2
    0.0018048331   2    1000023    2
    0.0015407052   2    1000022    2

DECAY 1000004  5.2233475
    0.65631596   2    1000037    3
    0.32886909   2    1000025    4
    0.012054687   2    1000024    3
    0.0013823241   2    1000023    4
    0.001377946   2    1000022    4

DECAY 2000004  0.51096287
    0.99180206   2    1000035    4
    0.003013479   2    1000023    4
    0.0027378163   2    1000022    4
    0.0024185993   2    1000024    3

DECAY 1000006  115.1129
    0.50096957   2    1000024    5
    0.25077891   2    1000023    6
    0.24817662   2    1000022    6

DECAY 2000006  186.66821
    0.2596447   2    1000023    6
    0.25687505   2    1000022    6
    0.15996131   2    1000006    25
    0.14105301   2    1000037    5
    0.10445267   2    1000006    23
    0.070351315   2    1000025    6
    0.0061232585   2    1000024    5
    0.0014812674   2    1000035    6

DECAY 1000024  1.7019263e-10
    0.53064607   3    1000022   -1    2
    0.17688712   3    1000022   -11    12
    0.1750431   3    1000022   -13    14
    0.11250831   3    1000022   -3    4
    0.0049154062   3    1000022   -15    16

DECAY 1000037  16.998355
    0.24720048   2    1000024    25
    0.24015265   2    1000023    24
    0.23876016   2    1000024    23
    0.23757019   2    1000022    24
    0.014110921   3    1000024    6   -6
    0.012265595   3    1000022   -5    6
    0.0099335252   3    1000023   -5    6

DECAY 1000022 -1


DECAY 1000023  9.9933727e-09
    0.83533099   2    1000022    22
    0.046873683   3    1000022    12   -12
    0.035050486   3    1000022    1   -1
    0.03477994   3    1000022    3   -3
    0.027336867   3    1000022    2   -2
    0.0079100797   3    1000022    11   -11
    0.0078140165   3    1000022    13   -13
    0.0041287082   3    1000022    4   -4
    0.0002331841   3    1000024    1   -2
    0.0002331841   3   -1000024   -1    2

DECAY 1000025  18.911432
    0.21604281   2    1000024   -24
    0.21604281   2   -1000024    24
    0.20344576   2    1000023    25
    0.11156823   2    1000022    25
    0.10752627   2    1000023    23
    0.10689985   2    1000022    23
    0.012284399   3    1000024    5   -6
    0.012284399   3   -1000024   -5    6
    0.0074997566   3    1000023    6   -6
    0.0063727771   3    1000022    6   -6

DECAY 1000035  12.584886
    0.16261097   2    1000005   -5
    0.16261097   2   -1000005    5
    0.1495894   2    1000024   -24
    0.1495894   2   -1000024    24
    0.11540368   2    1000023    25
    0.081249467   2    1000022    23
    0.07085203   2    1000023    23
    0.063332021   2    1000022    25
    0.0089311525   3    1000024    5   -6
    0.0089311525   3   -1000024   -5    6
    0.0066255659   3    1000023    6   -6
    0.0060789841   3    1000022    6   -6
    0.0014096126   2    1000003   -3
    0.0014096126   2   -1000003    3
    0.0014096065   2    1000001   -1
    0.0014096065   2   -1000001    1
    0.0013746675   2    1000002   -2
    0.0013746675   2   -1000002    2
    0.0013746478   2    1000004   -4
    0.0013746478   2   -1000004    4
    0.0010348328   2    1000037   -24
    0.0010348328   2   -1000037    24
    0.0008720982   2    1000025    25

DECAY 1000021  488.07822
    0.13131435   2    1000005   -5
    0.13131435   2   -1000005    5
    0.062927413   2    1000004   -4
    0.062927413   2   -1000004    4
    0.062927395   2    1000002   -2
    0.062927395   2   -1000002    2
    0.062873365   2    1000003   -3
    0.062873365   2   -1000003    3
    0.062873338   2    1000001   -1
    0.062873338   2   -1000001    1
    0.056113426   2    1000006   -6
    0.056113426   2   -1000006    6
    0.030030031   2    2000004   -4
    0.030030031   2   -2000004    4
    0.030030011   2    2000002   -2
    0.030030011   2   -2000002    2
    0.00038916461   3    1000024    5   -6
    0.00038916461   3   -1000024   -5    6
    0.00032246871   3    1000023    6   -6
    0.00031912175   3    1000022    6   -6

DECAY 25  0.0034901774
    0.62167982   2   -5    5
    0.1775482   2   -24    24
    0.074640288   2    21    21
    0.071205733   2   -15    15
    0.030780944   2   -4    4
    0.020113201   2    23    23
    0.0023280116   2    22    22
    0.0012224581   2    22    23
    0.00024697058   2   -13    13
    0.00023356527   2   -3    3
    6.457848e-07   2   -1    1
    1.5863216e-07   2   -2    2
    5.5522176e-09   2   -11    11

DECAY 35  29.840339
    0.26451276   2   -1000024    1000037
    0.26451276   2   -1000037    1000024
    0.15580291   2    1000022    1000025
    0.1086272   2    1000023    1000025
    0.1011991   2   -6    6
    0.064512564   2   -5    5
    0.012551902   2   -15    15
    0.011971531   2    1000022    1000035
    0.011938457   2    1000023    1000035
    0.0030384869   2   -1000024    1000024
    0.00071009364   2    1000022    1000022
    0.00039550056   2    1000023    1000023
    9.864529e-05   2    25    25
    4.3482344e-05   2   -13    13
    2.5497343e-05   2    1000022    1000023
    2.4861214e-05   2   -3    3
    1.6029927e-05   2    21    21
    1.325931e-05   2    23    23
    2.8714341e-06   2   -24    24
    1.3509748e-06   2   -4    4
    6.2879604e-07   2   -1000005    1000005
    6.8734761e-08   2   -1    1
    4.0178333e-08   2    22    22
    7.0963123e-09   2    22    23
    9.7650722e-10   2   -11    11
    6.9636515e-12   2   -2    2

DECAY 36  29.559946
    0.26704457   2   -1000024    1000037
    0.26704457   2   -1000037    1000024
    0.15553317   2    1000023    1000025
    0.11137476   2    1000022    1000025
    0.094907212   2   -6    6
    0.063224673   2   -5    5
    0.012301591   2   -15    15
    0.012241714   2    1000022    1000035
    0.01189405   2    1000023    1000035
    0.0031343689   2   -1000024    1000024
    0.00073811205   2    1000023    1000023
    0.00041146661   2    1000022    1000022
    4.2614938e-05   2   -13    13
    3.2656783e-05   2    21    21
    2.7583513e-05   2    23    25
    2.4365498e-05   2   -3    3
    2.1107911e-05   2    1000022    1000023
    1.256196e-06   2   -4    4
    7.5341904e-08   2    22    22
    6.7363679e-08   2   -1    1
    2.377417e-08   2    22    23
    9.5702735e-10   2   -11    11
    6.4752337e-12   2   -2    2
    5.3342272e-37   2    25    25

DECAY 37  29.947798
    0.26624091   2    1000022    1000037
    0.26467679   2    1000024    1000025
    0.26288773   2    1000023    1000037
    0.16925937   2   -5    6
    0.023645607   2    1000024    1000035
    0.012420218   2   -15    16
    0.00025779702   2    1000023    1000024
    0.00025681231   2    1000022    1000024
    0.00015053759   2   -3    6
    9.4226939e-05   2   -5    4
    4.3909892e-05   2   -13    14
    2.7256686e-05   2    24    25
    2.3840581e-05   2   -3    4
    6.902808e-06   2   -1    6
    6.1825902e-06   2   -1000005    1000004
    1.0569654e-06   2   -3    2
    6.728626e-07   2   -5    2
    6.5845219e-08   2   -1    4
    6.2438953e-08   2   -1    2
    4.4150084e-08   2   -1000005    1000002
    1.0270569e-09   2   -11    12
    4.7802826e-14   2    24    35

DECAY 6  2.43
    1   2    5    24

DECAY 15 -1
