BLOCK SPINFO
   1   SPheno
   2   v4.0.5be

BLOCK SPHENOINFO
   1   2
   2   2

BLOCK MODSEL
   1   0

BLOCK MINPAR
   3    40.098689
   4   -1

BLOCK EXTPAR
   0    3008.0806
   1    33.040493
   2   -929.55456
   3    2733.6639
   11    5787.3156
   12    5236.9632
   13   -3782.6165
   23   -2462.9742
   25    40.043969
   26    1153.0763
   31    2192.9455
   32    2192.9455
   33    4156.1748
   34    2668.3215
   35    2668.3215
   36    1495.0815
   41    4116.127
   42    4116.127
   43    4924.1196
   44    4951.0471
   45    4951.0471
   46    1659.4987
   47    1563.6734
   48    1563.6734
   49    2852.7021

BLOCK SMINPUTS
   1    127.90897
   2    1.1663787e-05
   3    0.1184
   4    91.1876
   5    4.18
   6    173.2
   7    1.777
   8    0
   11    0.00051099893
   12    0
   13    0.10565837
   14    0
   21    0.005
   22    0.0025
   23    0.095
   24    1.27

BLOCK GAUGE Q=  3008.0806
   1    0.35536298
   2    0.66519887
   3    1.219778

BLOCK YU Q=  3008.0806
   1   1    8.3869861e-06
   2   2    0.0042605889
   3   3    1.0132153

BLOCK YD Q=  3008.0806
   1   1    0.00067487492
   2   2    0.012822623
   3   3    0.66926444

BLOCK YE Q=  3008.0806
   1   1    0.00011777061
   2   2    0.024351226
   3   3    0.40954757

BLOCK AU Q=  3008.0806
   1   1    0
   2   2    0
   3   3    5787.3156

BLOCK AD Q=  3008.0806
   1   1    0
   2   2    0
   3   3    5236.966

BLOCK AE Q=  3008.0806
   1   1    0
   2   2    0
   3   3   -3782.6179

BLOCK MSOFT Q=  3008.0806
   1    33.040493
   2   -929.55456
   3    2733.6639
   21   -4940487.7
   22   -6324872.2
   31    2192.9455
   32    2192.9455
   33    4156.1748
   34    2668.3215
   35    2668.3215
   36    1495.0815
   41    4116.127
   42    4116.127
   43    4924.1196
   44    4951.0471
   45    4951.0471
   46    1659.4987
   47    1563.6734
   48    1563.6734
   49    2852.7021

BLOCK MASS
   6    173.2
   23    91.1876
   24    80.429995
   15    1.777
   25    126.66384
   35    1152.6933
   36    1153.0763
   37    1156.6267
   1000001    4192.8689
   2000001    1705.5477
   1000002    4192.0418
   2000002    5012.0013
   1000003    4192.8616
   2000003    1705.5489
   1000004    4192.0353
   2000004    5012.0009
   1000005    2953.1537
   2000005    4909.823
   1000006    1841.4319
   2000006    4913.8655
   1000011    2202.5053
   2000011    2667.2509
   1000012    2200.6986
   1000013    2202.4831
   2000013    2667.2262
   1000014    2200.6894
   1000015    1491.6553
   2000015    4158.2898
   1000016    4156.9882
   1000021    2994.0238
   1000022    32.904074
   1000023   -982.2595
   1000025    2456.89
   1000035   -2457.8662
   1000024    982.2707
   1000037    2458.668

BLOCK ALPHA
      -0.025430685

BLOCK HMIX Q=  3008.0806
   1   -2462.9742
   2    40.043969
   3    243.26666
   4    1329585

BLOCK STOPMIX
   1   1   -0.038634286
   1   2    0.99925342
   2   1   -0.99925342
   2   2   -0.038634286

BLOCK SBOTMIX
   1   1   -0.021919568
   1   2    0.99975974
   2   1   -0.99975974
   2   2   -0.021919568

BLOCK STAUMIX
   1   1   -0.011485844
   1   2    0.99993404
   2   1   -0.99993404
   2   2   -0.011485844

BLOCK NMIX
   1   1    0.99982842
   1   2   -7.6006278e-05
   1   3   -0.018521215
   1   4    0.00030479135
   2   1    0.00077326165
   2   2    0.99918032
   2   3    0.037387428
   2   4   -0.015500522
   3   1    0.012875523
   3   2   -0.015485065
   3   3    0.70675869
   3   4    0.707168
   4   1    0.013295001
   4   2   -0.037401749
   4   3    0.70622326
   4   4   -0.70687556

BLOCK UMIX
   1   1   -0.99859665
   1   2   -0.052959756
   2   1   -0.052959756
   2   2    0.99859665

BLOCK VMIX
   1   1    0.99975513
   1   2    0.022128805
   2   1    0.022128805
   2   2   -0.99975513

BLOCK HIGGSBOUNDSINPUTHIGGSCOUPLINGSFERMIONS
       0, 1603.5195,3,36,15,15

BLOCK HIGGSBOUNDSINPUTHIGGSCOUPLINGSBOSONS
       0,4,36,21,21,23

BLOCK SPHENOLOWENERGY
   1    0.00033687024
   2    1.5884125e-06
   3    3.5253124e-05
   4    5.6445826e-15
   5    2.4109291e-10
   6    4.8308504e-08
   7    1.9590266e-13
   8    8.3676612e-09
   9    1.6987372e-06
   10    9.2030232e-05
   11    0.95063706
   12    0.54175449
   13    19.349622
   14    0
   15    0
   16    0.0021569529
   17    2.2816629e-15
   18    2.480083e-11
   19    8.2903542e-11
   20    2.5518589e-15
   21    1.0909641e-10
   22    1.4778503e-08
   23    0
   24    0
   25    0
   26    0
   27    0
   28    0
   29    0
   30    0
   31    0
   39    6.9314086e-05
   40    0
   41    0
   42    0

BLOCK FWCOEF Q=  160
   305   4422   0   0   -0.18881911
   305   4422   0   2   -0.20430892
   305   4322   0   2   -0.00025231309
   305   6421   0   0   -0.095227835
   305   6421   0   2   -0.11988425
   305   6321   0   2   -0.00045152498
   3051111   4133   0   0    1.6170406
   3051111   4133   0   2    1.6170858
   3051111   4233   0   2   -9.8964747e-06
   3051111   4137   0   0   -4.4397327
   3051111   4137   0   2   -4.4380924
   3051111   4237   0   2    7.3832747e-05
   3051313   4133   0   0    1.6170406
   3051313   4133   0   2    1.6170834
   3051313   4233   0   2   -9.9058405e-06
   3051313   4137   0   0   -4.4397327
   3051313   4137   0   2   -4.4380948
   3051313   4237   0   2    7.3841541e-05
   3051212   4137   0   0    1.5053501
   3051212   4137   0   2    1.5049991
   3051212   4237   0   2   -1.5996035e-05
   3051414   4137   0   0    1.5053501
   3051414   4137   0   2    1.5049991
   3051414   4237   0   2   -1.5994034e-05
   3051616   4137   0   0    1.5053501
   3051616   4137   0   2    1.5049989
   3051616   4237   0   2   -1.5430711e-05

BLOCK IMFWCOEF Q=  160
   305   4422   0   0    3.8589683e-07
   305   4422   0   2    1.5413561e-06
   305   4322   0   2    5.5186441e-06
   305   6421   0   0    3.3054615e-07
   305   6421   0   2    1.4845411e-05
   305   6321   0   2    3.9295929e-06
   3051111   4133   0   2   -3.5751175e-07
   3051111   4233   0   2    3.0173282e-06
   3051111   4137   0   2    3.3965296e-06
   3051111   4237   0   2   -2.2666233e-05
   3051313   4133   0   2   -3.5753103e-07
   3051313   4233   0   2    3.0173258e-06
   3051313   4137   0   2    3.396516e-06
   3051313   4237   0   2   -2.2666241e-05
   3051212   4137   0   2   -6.5637879e-07
   3051212   4237   0   2    4.9120172e-06
   3051414   4137   0   2   -6.5637871e-07
   3051414   4237   0   2    4.9120172e-06
   3051616   4137   0   2   -6.6118962e-07
   3051616   4237   0   2    4.9120089e-06

DECAY 23  2.4952


DECAY 24  2.085


DECAY 1000011  21.388409
    0.5801342   2   -1000024    12
    0.29064975   2    1000023    11
    0.12921605   2    1000022    11

DECAY 2000011  13.393396
    0.99999171   2    1000022    11

DECAY 1000013  21.388039
    0.58013254   2   -1000024    14
    0.29065007   2    1000023    13
    0.12921739   2    1000022    13

DECAY 2000013  13.39891
    0.99957177   2    1000022    13
    0.00030615418   2    1000013    25

DECAY 1000015  7.4996758
    0.99836455   2    1000022    15
    0.0010909596   2   -1000024    16
    0.00054449457   2    1000023    15

DECAY 2000015  73.178755
    0.44431208   2   -1000024    16
    0.22284021   2    1000023    15
    0.071369646   2    1000022    15
    0.062284633   2    1000015    35
    0.062276555   2    1000015    36
    0.040193043   2    1000035    15
    0.040167769   2    1000025    15
    0.029105   2    1000015    23
    0.026688835   2    1000015    25
    0.00076223149   2   -1000037    16

DECAY 1000012  21.375763
    0.58087368   2    1000024    11
    0.28986643   2    1000023    12
    0.1292599   2    1000022    12

DECAY 1000014  21.375639
    0.58087423   2    1000024    13
    0.28986567   2    1000023    14
    0.1292601   2    1000022    14

DECAY 1000016  73.369861
    0.44486987   2    1000024    15
    0.22176346   2    1000023    16
    0.12411749   2    1000015    37
    0.079806108   2    1000037    15
    0.071158325   2    1000022    16
    0.058022994   2    1000015    24
    0.00020894936   2    1000035    16

DECAY 2000001  0.95116003
    0.9999997   2    1000022    1

DECAY 1000001  129.46987
    0.61399718   2    1000021    1
    0.25393752   2   -1000024    2
    0.12708253   2    1000023    1
    0.0045218148   2    1000022    1
    0.00034424323   2   -1000037    2

DECAY 2000003  0.95117303
    0.99998872   2    1000022    3

DECAY 1000003  129.47756
    0.61395513   2    1000021    3
    0.25392181   2   -1000024    4
    0.12707484   2    1000023    3
    0.0045215743   2    1000022    3
    0.00034930306   2   -1000037    4
    0.00011987036   2    1000035    3

DECAY 1000005  6.556427
    0.34075695   2   -1000037    6
    0.25382741   2    1000022    5
    0.18986911   2    1000025    5
    0.18872187   2    1000035    5
    0.017548969   2   -1000024    6
    0.0088416964   2    1000023    5
    0.00043400123   2    1000006   -24

DECAY 2000005  421.25565
    0.36301538   2    1000021    5
    0.18076167   2    1000006   -24
    0.13384428   2   -1000037    6
    0.093781186   2   -1000024    6
    0.047188662   2    1000023    5
    0.041534899   2    1000006   -37
    0.029412112   2    1000005    36
    0.029348016   2    1000005    35
    0.029188462   2    1000035    5
    0.029185065   2    1000025    5
    0.011892096   2    1000005    23
    0.0092144195   2    1000005    25
    0.0016337575   2    1000022    5

DECAY 1000002  129.42046
    0.61360624   2    1000021    2
    0.25456233   2    1000024    1
    0.12717023   2    1000023    2
    0.0045149323   2    1000022    2

DECAY 2000002  174.83157
    0.93599515   2    1000021    2
    0.063992166   2    1000022    2

DECAY 1000004  129.42619
    0.6135735   2    1000021    4
    0.2545508   2    1000024    3
    0.12716432   2    1000023    4
    0.004514724   2    1000022    4
    0.00010556146   2    1000037    3

DECAY 2000004  174.83354
    0.93598394   2    1000021    4
    0.063991427   2    1000022    4

DECAY 1000006  4.0946176
    0.98421866   2    1000022    6
    0.010600873   2    1000024    5
    0.0050828734   2    1000023    6

DECAY 2000006  445.29677
    0.34398697   2    1000021    6
    0.13627202   2    1000006    25
    0.089373628   2    1000024    5
    0.085664909   2    1000006    23
    0.062874092   2    1000025    6
    0.062842792   2    1000035    6
    0.055716278   2    1000005    37
    0.05539093   2    1000037    5
    0.044497232   2    1000023    6
    0.022613603   2    1000005    24
    0.019681139   2    1000006    36
    0.019518711   2    1000006    35
    0.0015677009   2    1000022    6

DECAY 1000024  0.00042486979
    0.90565527   2    1000022    24
    0.02965433   3    1000022   -13    14
    0.029646211   3    1000022   -11    12
    0.028302295   3    1000022   -5    6
    0.0054174603   3    1000022   -15    16
    0.0006648672   3    1000022   -3    4
    0.0006595612   3    1000022   -1    2

DECAY 1000037  42.068062
    0.34445295   2    1000006   -5
    0.12824593   2    1000024    25
    0.11837408   2    1000023    24
    0.11683057   2    1000024    23
    0.06201217   2    37    1000023
    0.057153156   2    1000024    36
    0.056923724   2    1000024    35
    0.04107887   2    1000022    24
    0.038748012   2   -1000015    16
    0.02210227   2    37    1000022
    0.0072748023   3    1000024    6   -6
    0.0048926407   3    1000023   -5    6
    0.0017461606   3    1000022   -5    6

DECAY 1000022 -1


DECAY 1000023  0.00039576829
    0.51560211   2    1000022    25
    0.38459708   2    1000022    23
    0.03726207   3    1000022    12   -12
    0.017969211   3    1000022    13   -13
    0.017961201   3    1000022    11   -11
    0.014836306   3    1000022    5   -5
    0.0052880895   3    1000022    6   -6
    0.0048548338   3    1000022    15   -15
    0.00040847341   3    1000022    3   -3
    0.0004026107   3    1000022    1   -1
    0.00040244891   3    1000022    2   -2
    0.0004024411   3    1000022    4   -4

DECAY 1000025  44.075727
    0.15472072   2    1000006   -6
    0.15472072   2   -1000006    6
    0.11183081   2    1000024   -24
    0.11183081   2   -1000024    24
    0.095324633   2    1000023    23
    0.095181233   2    1000023    25
    0.055031359   2    1000023    35
    0.053928633   2    37   -1000024
    0.053928633   2   -37    1000024
    0.020256921   2    1000022    23
    0.018514431   2    1000015   -15
    0.018514431   2   -1000015    15
    0.016975002   2    1000022    25
    0.011534541   2    1000022    35
    0.0097308324   2    1000022    36
    0.0048650752   3    1000024    5   -6
    0.0048650752   3   -1000024   -5    6
    0.0040010499   2    1000023    36
    0.0028768385   3    1000023    6   -6
    0.0012456929   3    1000022    6   -6

DECAY 1000035  41.273361
    0.16626676   2    1000006   -6
    0.16626676   2   -1000006    6
    0.11826045   2    1000024   -24
    0.11826045   2   -1000024    24
    0.11212039   2    1000023    25
    0.062868193   2    37   -1000024
    0.062868193   2   -37    1000024
    0.052941842   2    1000023    35
    0.020246538   2    1000022    23
    0.020053738   2    1000022    25
    0.019752109   2    1000015   -15
    0.019752109   2   -1000015    15
    0.017407139   2    1000023    23
    0.011453698   2    1000022    36
    0.011091253   2    1000022    35
    0.0053662   3    1000024    5   -6
    0.0053662   3   -1000024   -5    6
    0.0047244493   2    1000023    36
    0.003370939   3    1000023    6   -6
    0.0013842715   3    1000022    6   -6

DECAY 1000021  115.48967
    0.17507418   2    2000001   -1
    0.17507418   2   -2000001    1
    0.17507395   2    2000003   -3
    0.17507395   2   -2000003    3
    0.14942881   2    1000006   -6
    0.14942881   2   -1000006    6
    0.00028189699   2    1000005   -5
    0.00028189699   2   -1000005    5

DECAY 25  0.0042647684
    0.56045745   2   -5    5
    0.24699506   2   -24    24
    0.068337924   2    21    21
    0.063060854   2   -15    15
    0.030880674   2    23    23
    0.025989148   2   -4    4
    0.0022554737   2    22    22
    0.0015767173   2    22    23
    0.00021893336   2   -13    13
    0.00020903131   2   -3    3
    1.8013009e-05   2    1000022    1000022
    5.77934e-07   2   -1    1
    1.3392333e-07   2   -2    2
    4.9218458e-09   2   -11    11

DECAY 35  61.074552
    0.93367423   2   -5    5
    0.064557698   2   -15    15
    0.0011361194   2   -6    6
    0.00031137394   2   -3    3
    0.00023508561   2   -13    13
    5.2421513e-05   2    21    21
    1.519043e-05   2    1000022    1000023
    1.3438675e-05   2    1000022    1000022
    1.5700379e-06   2   -24    24
    1.3835588e-06   2    23    23
    8.602475e-07   2   -1    1
    5.5254227e-07   2    25    25
    3.0167674e-08   2    22    23
    2.8069419e-08   2    22    22
    1.395695e-08   2   -4    4
    5.2814414e-09   2   -11    11
    7.1962229e-14   2   -2    2

DECAY 36  57.353517
    0.93371237   2   -5    5
    0.064563297   2   -15    15
    0.0010743253   2   -6    6
    0.0003113784   2   -3    3
    0.00023510408   2   -13    13
    7.3427404e-05   2    21    21
    1.4379648e-05   2    1000022    1000022
    1.2728403e-05   2    1000022    1000023
    2.0520335e-06   2    23    25
    8.602606e-07   2   -1    1
    4.0622749e-08   2    22    22
    1.7963965e-08   2    22    23
    1.1809025e-08   2   -4    4
    5.2818535e-09   2   -11    11
    6.0865619e-14   2   -2    2
    1.3713201e-36   2    25    25

DECAY 37  60.286569
    0.93632643   2   -5    6
    0.061691663   2   -15    16
    0.0014258806   2   -5    4
    0.00028247013   2   -3    4
    0.00021810293   2   -13    14
    2.8246782e-05   2    1000022    1000024
    1.3074341e-05   2   -3    2
    1.018228e-05   2   -5    2
    1.9795371e-06   2    24    25
    1.1165562e-06   2   -3    6
    7.8318305e-07   2   -1    2
    3.6457906e-08   2   -1    4
    3.2974567e-08   2   -1    6
    5.1014502e-09   2   -11    12
    2.1194234e-11   2    24    35
    1.2701074e-11   2    24    36

DECAY 6  2.43
    1   2    5    24

DECAY 15 -1
