BLOCK SPINFO
   1   SPheno
   2   v4.0.5be

BLOCK SPHENOINFO
   1   2
   2   2

BLOCK MODSEL
   1   0

BLOCK MINPAR
   3    43.425013
   4   -1

BLOCK EXTPAR
   0    2629.093
   1   -311.4373
   2   -1305.4924
   3    4723.6769
   11    5314.2012
   12   -5934.107
   13    5964.2495
   23   -640.70629
   25    42.961546
   26    2233.3061
   31    4578.9901
   32    4578.9901
   33    4472.0086
   34    333.06315
   35    333.06315
   36    1329.6582
   41    2880.0729
   42    2880.0729
   43    1515.774
   44    1713.5165
   45    1713.5165
   46    4526.2693
   47    3279.4106
   48    3279.4106
   49    2866.6371

BLOCK SMINPUTS
   1    127.90897
   2    1.1663787e-05
   3    0.1184
   4    91.1876
   5    4.18
   6    173.2
   7    1.777
   8    0
   11    0.00051099893
   12    0
   13    0.10565837
   14    0
   21    0.005
   22    0.0025
   23    0.095
   24    1.27

BLOCK GAUGE Q=  2629.093
   1    0.35536298
   2    0.66519887
   3    1.219778

BLOCK YU Q=  2629.093
   1   1    8.3866432e-06
   2   2    0.0042604147
   3   3    1.0131739

BLOCK YD Q=  2629.093
   1   1    0.00072401624
   2   2    0.013756309
   3   3    0.71799724

BLOCK YE Q=  2629.093
   1   1    0.00012634613
   2   2    0.026124372
   3   3    0.43936897

BLOCK AU Q=  2629.093
   1   1    0
   2   2    0
   3   3    5314.2011

BLOCK AD Q=  2629.093
   1   1    0
   2   2    0
   3   3   -5934.1061

BLOCK AE Q=  2629.093
   1   1    0
   2   2    0
   3   3    5964.2496

BLOCK MSOFT Q=  2629.093
   1   -311.4373
   2   -1305.4924
   3    4723.6769
   21    4911480.1
   22   -534909.53
   31    4578.9901
   32    4578.9901
   33    4472.0086
   34    333.06315
   35    333.06315
   36    1329.6582
   41    2880.0729
   42    2880.0729
   43    1515.774
   44    1713.5165
   45    1713.5165
   46    4526.2693
   47    3279.4106
   48    3279.4106
   49    2866.6371

BLOCK MASS
   6    173.2
   23    91.1876
   24    80.429995
   15    1.777
   25    125.92276
   35    2231.6228
   36    2233.3061
   37    2233.6286
   1000001    2959.3017
   2000001    3353.0658
   1000002    2958.291
   2000002    1750.7012
   1000003    2959.2962
   2000003    3353.0564
   1000004    2958.2858
   2000004    1750.7007
   1000005    1525.7283
   2000005    2854.7317
   1000006    1519.6749
   2000006    4548.4267
   1000011    4589.7993
   2000011    308.01682
   1000012    4588.7004
   1000013    4589.786
   2000013    308.00353
   1000014    4588.6886
   1000015    1333.5373
   2000015    4468.4786
   1000016    4468.2314
   1000021    4622.8481
   1000022   -305.06623
   1000023   -649.02713
   1000025    653.71357
   1000035   -1354.2039
   1000024    648.02262
   1000037    1354.3419

BLOCK ALPHA
      -0.023147881

BLOCK HMIX Q=  2629.093
   1   -640.70629
   2    42.961546
   3    243.36204
   4    4987656.1

BLOCK STOPMIX
   1   1   -0.99906709
   1   2    0.043184966
   2   1   -0.043184966
   2   2   -0.99906709

BLOCK SBOTMIX
   1   1   -0.99994707
   1   2    0.010288414
   2   1   -0.010288414
   2   2   -0.99994707

BLOCK STAUMIX
   1   1   -0.0033228778
   1   2    0.99999448
   2   1   -0.99999448
   2   2   -0.0033228778

BLOCK NMIX
   1   1    0.99534223
   1   2   -0.0034026022
   1   3   -0.086520277
   1   4    0.042385291
   2   1    0.091210628
   2   2    0.082635681
   2   3    0.70281123
   2   4   -0.70064852
   3   1    0.031041865
   3   2   -0.027887348
   3   3    0.70502526
   3   4    0.70795344
   4   1    0.0032974072
   4   2   -0.99618375
   4   3    0.038858688
   4   4   -0.078083718

BLOCK UMIX
   1   1   -0.054926442
   1   2   -0.9984904
   2   1   -0.9984904
   2   2    0.054926442

BLOCK VMIX
   1   1    0.11047037
   1   2    0.99387942
   2   1    0.99387942
   2   2   -0.11047037

BLOCK HIGGSBOUNDSINPUTHIGGSCOUPLINGSFERMIONS
       0, 1845.6944,3,36,15,15

BLOCK HIGGSBOUNDSINPUTHIGGSCOUPLINGSBOSONS
       0,4,36,21,21,23

BLOCK SPHENOLOWENERGY
   1    0.00032120701
   2    1.5904488e-06
   3    3.5258355e-05
   4    3.7669597e-15
   5    1.60912e-10
   6    3.3208648e-08
   7    1.3174472e-13
   8    5.6278245e-09
   9    1.1757827e-06
   10    9.505808e-05
   11    0.98191358
   12    0.54169881
   13    19.360931
   14    0
   15    0
   16    0.0021564997
   17    2.2816524e-15
   18    2.4802355e-11
   19    8.2911533e-11
   20    4.9215403e-16
   21    2.0943799e-11
   22    1.3220546e-08
   23    0
   24    0
   25    0
   26    0
   27    0
   28    0
   29    0
   30    0
   31    0
   39    7.4452276e-05
   40    0
   41    0
   42    0

BLOCK FWCOEF Q=  160
   305   4422   0   0   -0.18881911
   305   4422   0   2   -0.18817323
   305   4322   0   2   -4.2164197e-05
   305   6421   0   0   -0.095227835
   305   6421   0   2   -0.10272393
   305   6321   0   2   -0.00018200939
   3051111   4133   0   0    1.6123928
   3051111   4133   0   2    1.61271
   3051111   4233   0   2    0.00043691549
   3051111   4137   0   0   -4.4350849
   3051111   4137   0   2   -4.4340931
   3051111   4237   0   2   -0.0033010941
   3051313   4133   0   0    1.6123928
   3051313   4133   0   2    1.6127097
   3051313   4233   0   2    0.0004369129
   3051313   4137   0   0   -4.4350849
   3051313   4137   0   2   -4.4340935
   3051313   4237   0   2   -0.0033010952
   3051212   4137   0   0    1.5053501
   3051212   4137   0   2    1.5051398
   3051212   4237   0   2    0.00071612065
   3051414   4137   0   0    1.5053501
   3051414   4137   0   2    1.5051398
   3051414   4237   0   2    0.00071612091
   3051616   4137   0   0    1.5053501
   3051616   4137   0   2    1.5051398
   3051616   4237   0   2    0.0007161945

BLOCK IMFWCOEF Q=  160
   305   4422   0   0    3.8586166e-07
   305   4422   0   2    2.0895878e-05
   305   4322   0   2    2.9404191e-06
   305   6421   0   0    3.3051603e-07
   305   6421   0   2    1.7479314e-05
   305   6321   0   2    1.4263154e-06
   3051111   4133   0   2    7.2513503e-07
   3051111   4233   0   2    9.1561462e-06
   3051111   4137   0   2   -1.5782718e-06
   3051111   4237   0   2   -6.9185429e-05
   3051313   4133   0   2    7.2513709e-07
   3051313   4233   0   2    9.1561215e-06
   3051313   4137   0   2   -1.5782596e-06
   3051313   4237   0   2   -6.918547e-05
   3051212   4137   0   2    4.2973485e-07
   3051212   4237   0   2    1.5008698e-05
   3051414   4137   0   2    4.2973498e-07
   3051414   4237   0   2    1.5008698e-05
   3051616   4137   0   2    4.3007399e-07
   3051616   4237   0   2    1.5008698e-05

DECAY 23  2.4952


DECAY 24  2.085


DECAY 2000011  0.00055741907
    1   2    1000022    11

DECAY 1000011  56.26728
    0.5966691   2   -1000037    12
    0.29591997   2    1000035    11
    0.099335709   2    1000022    11
    0.0059503032   2    1000023    11
    0.0020808682   2   -1000024    12

DECAY 2000013  0.00055228542
    1   2    1000022    13

DECAY 1000013  56.327499
    0.59602882   2   -1000037    14
    0.2956038   2    1000035    13
    0.09923742   2    1000022    13
    0.0064687744   2    1000023    13
    0.002078637   2   -1000024    14
    0.00057182723   2    1000025    13

DECAY 1000015  11.956428
    0.50166175   2    1000022    15
    0.249312   2   -1000024    16
    0.12591091   2    1000023    15
    0.12311534   2    1000025    15

DECAY 2000015  89.139539
    0.36292236   2   -1000037    16
    0.1802295   2    1000035    15
    0.10071387   2    1000015    35
    0.10062368   2    1000015    36
    0.094745975   2    1000023    15
    0.091709986   2    1000025    15
    0.062382141   2    1000022    15
    0.0028374239   2    1000015    23
    0.0026589404   2    1000015    25
    0.0011761228   2   -1000024    16

DECAY 1000012  56.282846
    0.59081204   2    1000037    11
    0.29783951   2    1000035    12
    0.10185818   2    1000022    12
    0.0084128261   2    1000024    11
    0.00068116487   2    1000025    12
    0.00039627459   2    1000023    12

DECAY 1000014  56.34247
    0.59018754   2    1000037    13
    0.29752327   2    1000035    14
    0.10175013   2    1000022    14
    0.009462759   2    1000024    13
    0.00068044214   2    1000025    14
    0.00039585414   2    1000023    14

DECAY 1000016  89.174778
    0.35981097   2    1000037    15
    0.20112224   2    1000015    37
    0.18901952   2    1000024    15
    0.18114313   2    1000035    16
    0.062569854   2    1000022    16
    0.0056736082   2    1000015    24
    0.00041768447   2    1000025    16
    0.00024300022   2    1000023    16

DECAY 1000001  24.87336
    0.65258275   2   -1000037    2
    0.32520367   2    1000035    1
    0.016727788   2    1000022    1
    0.002863974   2   -1000024    2
    0.0020922177   2    1000023    1
    0.00052959794   2    1000025    1

DECAY 2000001  1.8401954
    0.99120915   2    1000022    1
    0.0078495314   2    1000023    1
    0.00091588423   2    1000025    1

DECAY 1000003  24.884289
    0.65229404   2   -1000037    4
    0.32505996   2    1000035    3
    0.016723688   2    1000022    3
    0.0029010116   2   -1000024    4
    0.002291166   2    1000023    3
    0.0007301335   2    1000025    3

DECAY 2000003  1.863552
    0.97883297   2    1000022    3
    0.010842132   2    1000023    3
    0.0062583108   2   -1000024    4
    0.0040115834   2    1000025    3

DECAY 1000005  30.727511
    0.64156143   2   -1000024    6
    0.16956355   2    1000023    5
    0.16871343   2    1000025    5
    0.010392974   2    1000022    5
    0.0097686166   2    1000035    5

DECAY 2000005  55.215374
    0.47163345   2   -1000024    6
    0.23686749   2    1000025    5
    0.2355854   2    1000023    5
    0.031507177   2    1000022    5
    0.011080647   2    1000006   -24
    0.0058642807   2    1000005    25
    0.0054879868   2    1000005    23
    0.0013117398   2   -1000037    6
    0.00066182792   2    1000035    5

DECAY 2000002  3.668628
    0.99264128   2    1000022    2
    0.0065963475   2    1000023    2
    0.0007605018   2    1000025    2

DECAY 1000002  24.929707
    0.64465424   2    1000037    1
    0.32347683   2    1000035    2
    0.015450682   2    1000022    2
    0.011555229   2    1000024    1
    0.004626767   2    1000023    2
    0.00023624966   2    1000025    2

DECAY 2000004  3.6695543
    0.99238963   2    1000022    4
    0.0066566995   2    1000023    4
    0.00082456231   2    1000025    4
    0.00012673893   2    1000024    3

DECAY 1000004  24.94063
    0.64437051   2    1000037    3
    0.32333366   2    1000035    4
    0.015443948   2    1000022    4
    0.011952373   2    1000024    3
    0.0046439099   2    1000023    4
    0.00025559736   2    1000025    4

DECAY 1000006  31.788096
    0.33497944   2    1000024    5
    0.3179808   2    1000023    6
    0.31759816   2    1000025    6
    0.01741686   2    1000037    5
    0.0078458131   2    1000022    6
    0.0029115363   2    1000022    4
    0.00068363244   2    1000023    4
    0.00058375536   3    1000022    24    5

DECAY 2000006  370.09399
    0.23624784   2    1000024    5
    0.22519414   2    1000005    24
    0.15160038   2    1000006    25
    0.11993015   2    1000025    6
    0.11765185   2    1000023    6
    0.11269577   2    1000006    23
    0.027078754   2    1000022    6
    0.0040019315   2    1000037    5
    0.0019934943   2    1000035    6
    0.001793093   2    1000005    37
    0.0009042   2    1000006    36
    0.00090082394   2    1000006    35

DECAY 1000024  0.43278603
    0.99105001   2    1000022    24
    0.0060727037   2   -2000013    14
    0.0028701486   3    1000022   -5    6

DECAY 1000037  11.646578
    0.25545005   2    1000023    24
    0.24613829   2    1000024    23
    0.24611519   2    1000025    24
    0.23897827   2    1000024    25
    0.0045750893   3    1000025   -5    6
    0.0044232127   3    1000023   -5    6
    0.0040468961   3    1000024    6   -6
    0.00025469534   3    1000024    5   -5

DECAY 1000022 -1


DECAY 1000023  0.40452182
    0.79885058   2    1000022    25
    0.11413819   2    1000022    23
    0.023366997   2    2000013   -13
    0.023366997   2   -2000013    13
    0.020129608   2    2000011   -11
    0.020129608   2   -2000011    11

DECAY 1000025  0.7186014
    0.5674443   2    1000022    23
    0.42348812   2    1000022    25
    0.0031924336   2    2000013   -13
    0.0031924336   2   -2000013    13
    0.0013330026   2    2000011   -11
    0.0013330026   2   -2000011    11

DECAY 1000035  13.852152
    0.21462724   2    1000024   -24
    0.21462724   2   -1000024    24
    0.19221594   2    1000025    23
    0.18011224   2    1000023    25
    0.16720186   2    1000025    25
    0.021379381   2    1000023    23
    0.0036984865   3    1000024    5   -6
    0.0036984865   3   -1000024   -5    6
    0.0011124853   3    1000023    6   -6
    0.0010471294   3    1000025    6   -6
    0.00010433826   3    1000023    5   -5
    0.00010330453   3    1000025    5   -5

DECAY 1000021  779.03518
    0.07034709   2    1000006   -6
    0.07034709   2   -1000006    6
    0.069736311   2    1000005   -5
    0.069736311   2   -1000005    5
    0.064439452   2    2000004   -4
    0.064439452   2   -2000004    4
    0.064439441   2    2000002   -2
    0.064439441   2   -2000002    2
    0.034732458   2    1000006   -4
    0.034732458   2   -1000006    4
    0.033611876   2    2000005   -5
    0.033611876   2   -2000005    5
    0.030622747   2    1000004   -4
    0.030622747   2   -1000004    4
    0.030622603   2    1000002   -2
    0.030622603   2   -1000002    2
    0.030593739   2    1000003   -3
    0.030593739   2   -1000003    3
    0.030593583   2    1000001   -1
    0.030593583   2   -1000001    1
    0.019724257   2    2000003   -3
    0.019724257   2   -2000003    3
    0.019724009   2    2000001   -1
    0.019724009   2   -2000001    1
    0.00026710812   3    1000025    6   -6
    0.00026459478   3    1000024    5   -6
    0.00026459478   3   -1000024   -5    6
    0.00026101096   3    1000023    6   -6
    0.00024581783   3    1000037    5   -6
    0.00024581783   3   -1000037   -5    6

DECAY 25  0.00403229
    0.56083939   2   -5    5
    0.24203972   2   -24    24
    0.071231046   2    21    21
    0.064322183   2   -15    15
    0.029834752   2    23    23
    0.02741424   2   -4    4
    0.0023197902   2    22    22
    0.0015649606   2    22    23
    0.00022324784   2   -13    13
    0.00020993939   2   -3    3
    5.8045905e-07   2   -1    1
    1.4126942e-07   2   -2    2
    5.0188486e-09   2   -11    11

DECAY 35  101.62154
    0.81795142   2   -5    5
    0.085687675   2   -15    15
    0.02432695   2   -1000024    1000037
    0.02432695   2   -1000037    1000024
    0.019570343   2    1000025    1000035
    0.011528682   2    1000022    1000025
    0.0090915304   2    1000022    1000023
    0.0045801839   2    1000023    1000035
    0.0012752231   2   -1000024    1000024
    0.00047929921   2   -6    6
    0.00035323013   2    1000022    1000022
    0.00030343601   2   -13    13
    0.00022746611   2   -3    3
    0.00011517769   2    1000022    1000035
    0.00010433163   2    1000025    1000025
    5.9962744e-05   2    1000023    1000023
    1.3458904e-05   2    21    21
    1.9634204e-06   2    1000023    1000025
    1.3448504e-06   2    25    25
    6.2876696e-07   2   -1    1
    3.8958903e-07   2    23    23
    1.7662415e-07   2   -24    24
    5.6339417e-08   2    22    23
    3.8978606e-08   2   -1000011    1000011
    3.8529408e-08   2   -1000013    1000013
    2.5716221e-08   2    22    22
    7.3999049e-09   2   -4    4
    6.8156448e-09   2   -11    11
    3.8141894e-14   2   -2    2

DECAY 36  95.108932
    0.8117704   2   -5    5
    0.085041063   2   -15    15
    0.025673236   2   -1000024    1000037
    0.025673236   2   -1000037    1000024
    0.020741337   2    1000023    1000035
    0.012721412   2    1000022    1000023
    0.0093892047   2    1000022    1000025
    0.0049078944   2    1000025    1000035
    0.0021206128   2   -1000024    1000024
    0.00051135411   2   -6    6
    0.00042855373   2    1000022    1000022
    0.00030114502   2   -13    13
    0.00022573555   2   -3    3
    0.00020876079   2    1000022    1000035
    0.00015233996   2    1000025    1000025
    0.00010458591   2    1000023    1000023
    2.4487861e-05   2    21    21
    3.2104714e-06   2    1000023    1000025
    6.2398254e-07   2   -1    1
    5.8001032e-07   2    23    25
    1.2981791e-07   2    22    23
    8.0259032e-08   2    22    22
    7.710605e-09   2   -4    4
    6.7641723e-09   2   -11    11
    1.5604581e-13   2    23    35
    3.9741198e-14   2   -2    2
    3.0027385e-39   2    25    25

DECAY 37  99.198004
    0.81600879   2   -5    6
    0.084914704   2   -15    16
    0.025171893   2    1000023    1000037
    0.025040502   2    1000024    1000035
    0.024706404   2    1000025    1000037
    0.021383548   2    1000022    1000024
    0.0012119774   2   -5    4
    0.00039494979   2    1000023    1000024
    0.00032211022   2    1000022    1000037
    0.00031062542   2    1000024    1000025
    0.00030020396   2   -13    14
    0.00021346027   2   -3    4
    9.9632983e-06   2   -3    2
    8.6547722e-06   2   -5    2
    1.0023087e-06   2   -3    6
    5.9210191e-07   2   -1    2
    5.5697214e-07   2    24    25
    3.1602707e-08   2   -1    6
    2.7846627e-08   2   -1    4
    7.021802e-09   2   -11    12
    4.4538561e-13   2    24    35

DECAY 6  2.43
    1   2    5    24

DECAY 15 -1
