BLOCK SPINFO
   1   SPheno
   2   v4.0.5be

BLOCK SPHENOINFO
   1   2
   2   2

BLOCK MODSEL
   1   0

BLOCK MINPAR
   3    44.752824
   4    1

BLOCK EXTPAR
   0    2228.0235
   1   -685.53092
   2    1781.155
   3    4347.294
   11    3476.655
   12    1603.83
   13    70.590797
   23    4426.8463
   25    43.218948
   26    3422.4615
   31    2047.1083
   32    2047.1083
   33    1303.9588
   34    3817.8064
   35    3817.8064
   36    4930.5572
   41    774.10727
   42    774.10727
   43    3780.4368
   44    2878.5822
   45    2878.5822
   46    1315.9252
   47    4577.6022
   48    4577.6022
   49    1901.0678

BLOCK SMINPUTS
   1    127.90897
   2    1.1663787e-05
   3    0.1184
   4    91.1876
   5    4.18
   6    173.2
   7    1.777
   8    0
   11    0.00051099893
   12    0
   13    0.10565837
   14    0
   21    0.005
   22    0.0025
   23    0.095
   24    1.27

BLOCK GAUGE Q=  2228.0235
   1    0.35536298
   2    0.66519887
   3    1.219778

BLOCK YU Q=  2228.0235
   1   1    8.3866162e-06
   2   2    0.004260401
   3   3    1.0131706

BLOCK YD Q=  2228.0235
   1   1    0.00072835181
   2   2    0.013838684
   3   3    0.72229676

BLOCK YE Q=  2228.0235
   1   1    0.00012710272
   2   2    0.026280811
   3   3    0.442

BLOCK AU Q=  2228.0235
   1   1    0
   2   2    0
   3   3    3476.655

BLOCK AD Q=  2228.0235
   1   1    0
   2   2    0
   3   3    1603.8301

BLOCK AE Q=  2228.0235
   1   1    0
   2   2    0
   3   3    70.590796

BLOCK MSOFT Q=  2228.0235
   1   -685.53092
   2    1781.155
   3    4347.294
   21   -7852635.9
   22   -19590555
   31    2047.1083
   32    2047.1083
   33    1303.9588
   34    3817.8064
   35    3817.8064
   36    4930.5572
   41    774.10727
   42    774.10727
   43    3780.4368
   44    2878.5822
   45    2878.5822
   46    1315.9252
   47    4577.6022
   48    4577.6022
   49    1901.0678

BLOCK MASS
   6    173.2
   23    91.1876
   24    80.429995
   15    1.777
   25    120.70423
   35    3422.0385
   36    3422.4615
   37    3423.1439
   1000001    695.86999
   2000001    4633.6622
   1000002    691.33367
   2000002    2921.4219
   1000003    695.86908
   2000003    4633.6605
   1000004    691.33411
   2000004    2921.4214
   1000005    1914.6382
   2000005    3826.55
   1000006    1295.8991
   2000006    3830.6136
   1000011    2055.1732
   2000011    3828.4257
   1000012    2053.3191
   1000013    2055.1453
   2000013    3828.3735
   1000014    2053.2948
   1000015    1318.9331
   2000015    4931.8603
   1000016    1308.4754
   1000021    4319.6617
   1000022   -684.61452
   1000023    1790.1231
   1000025   -4405.4434
   1000035    4406.0875
   1000024    1790.3476
   1000037    4406.6402

BLOCK ALPHA
      -0.022408302

BLOCK HMIX Q=  2228.0235
   1    4426.8463
   2    43.218948
   3    243.5568
   4    11713243

BLOCK STOPMIX
   1   1   -0.03943952
   1   2    0.99922196
   2   1   -0.99922196
   2   2   -0.03943952

BLOCK SBOTMIX
   1   1    0.023295912
   1   2    0.99972861
   2   1   -0.99972861
   2   2    0.023295912

BLOCK STAUMIX
   1   1    0.999868
   1   2    0.016247825
   2   1   -0.016247825
   2   2    0.999868

BLOCK NMIX
   1   1    0.99994171
   1   2    5.5610291e-05
   1   3    0.010689183
   1   4    0.0015199865
   2   1   -0.00015129776
   2   2   -0.99975291
   2   3    0.020557028
   2   4   -0.0084555632
   3   1    0.0086330907
   3   2   -0.0085584341
   3   3   -0.70700688
   3   4   -0.70710218
   4   1   -0.0064822013
   4   2    0.020514896
   4   3    0.70682701
   4   4   -0.70705919

BLOCK UMIX
   1   1   -0.99957723
   1   2    0.029075267
   2   1    0.029075267
   2   2    0.99957723

BLOCK VMIX
   1   1   -0.99992835
   1   2    0.011970491
   2   1    0.011970491
   2   2    0.99992835

BLOCK HIGGSBOUNDSINPUTHIGGSCOUPLINGSFERMIONS
       0, 1867.8774,3,36,15,15

BLOCK HIGGSBOUNDSINPUTHIGGSCOUPLINGSBOSONS
       0,4,36,21,21,23

BLOCK SPHENOLOWENERGY
   1    0.00032766259
   2    1.5894998e-06
   3    3.5257211e-05
   4    3.9440823e-15
   5    1.6848689e-10
   6    3.5282518e-08
   7    1.3298172e-13
   8    5.6809809e-09
   9    1.205392e-06
   10    9.5378798e-05
   11    0.98522647
   12    0.54217939
   13    19.365269
   14    0
   15    0
   16    0.0021584442
   17    2.2816707e-15
   18    2.4802868e-11
   19    8.2909284e-11
   20    1.414858e-15
   21    6.048675e-11
   22    1.8749969e-08
   23    0
   24    0
   25    0
   26    0
   27    0
   28    0
   29    0
   30    0
   31    0
   39    7.0811705e-05
   40    0
   41    0
   42    0

BLOCK FWCOEF Q=  160
   305   4422   0   0   -0.18881911
   305   4422   0   2   -0.19680857
   305   4322   0   2   -0.00019391301
   305   6421   0   0   -0.095227835
   305   6421   0   2   -0.10363396
   305   6321   0   2   -0.00020517248
   3051111   4133   0   0    1.6065292
   3051111   4133   0   2    1.6065268
   3051111   4233   0   2   -8.069411e-05
   3051111   4137   0   0   -4.4292213
   3051111   4137   0   2   -4.4279886
   3051111   4237   0   2    0.00061581914
   3051313   4133   0   0    1.6065292
   3051313   4133   0   2    1.6065253
   3051313   4233   0   2   -8.0694357e-05
   3051313   4137   0   0   -4.4292213
   3051313   4137   0   2   -4.4279901
   3051313   4237   0   2    0.00061581949
   3051212   4137   0   0    1.5053501
   3051212   4137   0   2    1.5050816
   3051212   4237   0   2   -0.0001337709
   3051414   4137   0   0    1.5053501
   3051414   4137   0   2    1.5050816
   3051414   4237   0   2   -0.00013377084
   3051616   4137   0   0    1.5053501
   3051616   4137   0   2    1.5050816
   3051616   4237   0   2   -0.00013375473

BLOCK IMFWCOEF Q=  160
   305   4422   0   0    3.8567603e-07
   305   4422   0   2   -2.2336066e-06
   305   4322   0   2   -1.7098926e-06
   305   6421   0   0    3.3035703e-07
   305   6421   0   2    1.8427747e-06
   305   6321   0   2   -1.3418317e-06
   3051111   4133   0   2   -5.0286079e-07
   3051111   4233   0   2   -7.508965e-07
   3051111   4137   0   2    3.6656492e-06
   3051111   4237   0   2    5.7335543e-06
   3051313   4133   0   2   -5.0285313e-07
   3051313   4233   0   2   -7.5089608e-07
   3051313   4137   0   2    3.6656554e-06
   3051313   4237   0   2    5.7335559e-06
   3051212   4137   0   2   -8.0859323e-07
   3051212   4237   0   2   -1.2454804e-06
   3051414   4137   0   2   -8.0859322e-07
   3051414   4237   0   2   -1.2454804e-06
   3051616   4137   0   2   -8.0824345e-07
   3051616   4237   0   2   -1.2454818e-06

DECAY 23  2.4952


DECAY 24  2.085


DECAY 1000011  3.6180597
    0.56401725   2    1000022    11
    0.29045247   2   -1000024    12
    0.14553027   2    1000023    11

DECAY 2000011  18.023724
    0.99999995   2    1000022    11

DECAY 1000013  3.6177295
    0.56405797   2    1000022    13
    0.29042529   2   -1000024    14
    0.14551674   2    1000023    13

DECAY 2000013  18.04845
    0.9986149   2    1000022    13
    0.0013828259   2    1000013    25

DECAY 1000015  0.88608302
    0.99999974   2    1000022    15

DECAY 2000015  58.451697
    0.40761603   2    1000022    15
    0.29584627   2    1000016   -24
    0.14730339   2    1000015    23
    0.12230014   2    1000015    25
    0.013338838   2   -1000037    16
    0.0067009902   2    1000025    15
    0.0066849492   2    1000035    15
    0.00010280307   2    1000016   -37

DECAY 1000012  3.5957216
    0.56651749   2    1000022    12
    0.28888453   2    1000024    11
    0.14459798   2    1000023    12

DECAY 1000014  3.5954336
    0.56655281   2    1000022    14
    0.28886101   2    1000024    13
    0.14458618   2    1000023    14

DECAY 1000016  0.86663461
    1   2    1000022    16

DECAY 1000001  9.9918956e-05
    1   2    1000022    1

DECAY 2000001  8.7456739
    0.71700675   2    1000021    1
    0.28299032   2    1000022    1

DECAY 1000003  9.9882621e-05
    1   2    1000022    3

DECAY 2000003  8.7537985
    0.71633387   2    1000021    3
    0.28272777   2    1000022    3
    0.00089849863   2    1000003    25

DECAY 1000005  0.81782598
    0.99874591   2    1000022    5
    0.00076386008   2    1000006   -24
    0.00049023026   2    1000023    5

DECAY 2000005  95.962593
    0.42774121   2    1000006   -24
    0.21176492   2   -1000024    6
    0.20316143   2    1000005    25
    0.10691937   2    1000023    5
    0.045216568   2    1000005    23
    0.0051965082   2    1000022    5

DECAY 1000002  3.6115523e-05
    1   2    1000022    2

DECAY 2000002  5.826475
    0.99999999   2    1000022    2

DECAY 1000004  3.5315331e-05
    1   2    1000022    4

DECAY 2000004  5.8264717
    0.99999988   2    1000022    4

DECAY 1000006  1.3963202
    0.99999982   2    1000022    6

DECAY 2000006  87.349007
    0.30590726   2    1000006    25
    0.23596351   2    1000024    5
    0.23554003   2    1000006    23
    0.11687452   2    1000023    6
    0.099863734   2    1000005    24
    0.0058509423   2    1000022    6

DECAY 1000024  71.635187
    0.2389033   2    1000004   -3
    0.23890329   2    1000002   -1
    0.23763539   2   -1000003    4
    0.23763516   2   -1000001    2
    0.023883133   2    1000016   -15
    0.022992238   2   -1000015    16

DECAY 1000037  208.6878
    0.53957853   2    1000006   -5
    0.2171738   2   -1000005    6
    0.046460624   2    1000024    25
    0.040119264   2    1000023    24
    0.040064089   2    1000024    23
    0.036740747   2   -2000005    6
    0.034099171   2    1000016   -15
    0.019632771   2    2000006   -5
    0.015106449   2    1000022    24
    0.0045532292   3    1000024    6   -6
    0.0029351177   3    1000023   -5    6
    0.0015246385   2    37    1000022
    0.00090729723   3    1000022   -5    6
    0.00023491745   2   -1000003    4
    0.00022410315   2   -1000001    2
    0.00015271735   2    1000004   -3
    0.00015076193   3    1000024    5   -5

DECAY 1000022 -1


DECAY 1000023  71.618118
    0.11941915   2    1000002   -2
    0.11941915   2   -1000002    2
    0.1194191   2    1000004   -4
    0.1194191   2   -1000004    4
    0.11885592   2    1000003   -3
    0.11885592   2   -1000003    3
    0.11885575   2    1000001   -1
    0.11885575   2   -1000001    1
    0.011923571   2    1000016   -16
    0.011923571   2   -1000016    16
    0.011502624   2    1000015   -15
    0.011502624   2   -1000015    15

DECAY 1000025  212.67684
    0.26286312   2    1000006   -6
    0.26286312   2   -1000006    6
    0.10600717   2    1000005   -5
    0.10600717   2   -1000005    5
    0.039387345   2    1000024   -24
    0.039387345   2   -1000024    24
    0.035881041   2    1000023    25
    0.033540501   2    1000023    23
    0.018635159   2    2000006   -6
    0.018635159   2   -2000006    6
    0.016666261   2    1000015   -15
    0.016666261   2   -1000015    15
    0.0097201428   2    2000005   -5
    0.0097201428   2   -2000005    5
    0.0080801256   2    1000022    25
    0.0053432743   2    1000022    23
    0.0028849677   3    1000024    5   -6
    0.0028849677   3   -1000024   -5    6
    0.0020330169   3    1000023    6   -6
    0.001408401   2    1000022    35
    0.00072229817   3    1000022    6   -6
    0.00019283303   2    1000022    36

DECAY 1000035  208.5619
    0.26825958   2    1000006   -6
    0.26825958   2   -1000006    6
    0.10802404   2    1000005   -5
    0.10802404   2   -1000005    5
    0.040042627   2    1000024   -24
    0.040042627   2   -1000024    24
    0.039983091   2    1000023    25
    0.01880128   2    2000006   -6
    0.01880128   2   -2000006    6
    0.01699092   2    1000015   -15
    0.01699092   2   -1000015    15
    0.0099322082   2    2000005   -5
    0.0099322082   2   -2000005    5
    0.0096613127   2    1000022    23
    0.0090144723   2    1000022    25
    0.0059479672   2    1000023    23
    0.0029439699   3    1000024    5   -6
    0.0029439699   3   -1000024   -5    6
    0.0021961681   3    1000023    6   -6
    0.0013132613   2    1000022    35
    0.00073552814   3    1000022    6   -6
    0.0002161653   2    1000022    36
    0.00011960942   2    1000003   -3
    0.00011960942   2   -1000003    3

DECAY 1000021  761.50377
    0.079707933   2    1000002   -2
    0.079707933   2   -1000002    2
    0.079707927   2    1000004   -4
    0.079707927   2   -1000004    4
    0.079652778   2    1000003   -3
    0.079652778   2   -1000003    3
    0.079652767   2    1000001   -1
    0.079652767   2   -1000001    1
    0.069979225   2    1000006   -6
    0.069979225   2   -1000006    6
    0.054200778   2    1000005   -5
    0.054200778   2   -1000005    5
    0.02471787   2    2000004   -4
    0.02471787   2   -2000004    4
    0.024717864   2    2000002   -2
    0.024717864   2   -2000002    2
    0.0038923389   2    2000005   -5
    0.0038923389   2   -2000005    5
    0.0035026685   2    2000006   -6
    0.0035026685   2   -2000006    6

DECAY 25  0.0033996667
    0.63611197   2   -5    5
    0.16252502   2   -24    24
    0.074860246   2    21    21
    0.07301084   2   -15    15
    0.031500118   2   -4    4
    0.018043215   2    23    23
    0.0023177072   2    22    22
    0.001137827   2    22    23
    0.00025323985   2   -13    13
    0.00023899599   2   -3    3
    6.6080781e-07   2   -1    1
    1.623427e-07   2   -2    2
    5.6931751e-09   2   -11    11

DECAY 35  43.056074
    0.57879639   2   -5    5
    0.40610429   2   -15    15
    0.013219366   2   -1000006    1000006
    0.0013467431   2   -13    13
    0.00026369597   2   -3    3
    9.1823545e-05   2   -6    6
    8.8930917e-05   2    1000022    1000023
    6.24592e-05   2    25    25
    1.4213773e-05   2    1000022    1000022
    7.8424789e-06   2    21    21
    7.5553964e-07   2    23    23
    7.2956202e-07   2   -1    1
    5.7627513e-07   2   -1000001    1000001
    5.757824e-07   2   -1000003    1000003
    3.9321667e-07   2   -1000002    1000002
    3.9244676e-07   2   -1000004    1000004
    3.437037e-07   2   -1000015    1000015
    1.9265864e-07   2   -24    24
    3.0245792e-08   2   -11    11
    2.5812266e-08   2    22    22
    2.0105462e-08   2    22    23
    1.2264363e-08   2   -4    4
    6.3492592e-14   2   -2    2

DECAY 36  40.747822
    0.58660628   2   -5    5
    0.41160687   2   -15    15
    0.001364982   2   -13    13
    0.00026724439   2   -3    3
    7.2242856e-05   2   -6    6
    5.1112524e-05   2    1000022    1000023
    1.7681406e-05   2    1000022    1000022
    1.1346473e-05   2    21    21
    1.4434133e-06   2    23    25
    7.3937933e-07   2   -1    1
    3.0655377e-08   2   -11    11
    1.1743166e-08   2   -4    4
    1.0675033e-08   2    22    22
    6.9677683e-09   2    22    23
    6.0816424e-14   2   -2    2
    4.6832918e-38   2    25    25

DECAY 37  38.747918
    0.63589728   2   -5    6
    0.35384491   2   -15    16
    0.0065444228   2   -1000003    1000006
    0.0012509679   2   -13    14
    0.0009405934   2   -5    4
    0.00063604299   2   -1000005    1000006
    0.00030015688   2   -1000001    1000006
    0.00028125989   2   -3    4
    0.00015268602   2    1000022    1000024
    0.0001234081   2   -1000005    1000004
    1.319219e-05   2   -3    2
    6.716807e-06   2   -5    2
    2.8616093e-06   2   -3    6
    1.5195483e-06   2    24    25
    1.0101836e-06   2   -1000001    1000002
    1.0078666e-06   2   -1000003    1000004
    8.8126144e-07   2   -1000005    1000002
    7.8072343e-07   2   -1    2
    1.1209e-07   2   -1    6
    5.3993714e-08   2   -1000003    1000002
    5.3945598e-08   2   -1000001    1000004
    3.7537393e-08   2   -1    4
    2.9260269e-08   2   -11    12
    1.2080499e-08   2   -1000015    1000016
    5.7994255e-14   2    24    35

DECAY 6  2.43
    1   2    5    24

DECAY 15 -1
