BLOCK SPINFO
   1   SPheno
   2   v4.0.5be

BLOCK SPHENOINFO
   1   2
   2   2

BLOCK MODSEL
   1   0

BLOCK MINPAR
   3    56.373143
   4   -1

BLOCK EXTPAR
   0    3033.1191
   1    1055.1838
   2    4004.7178
   3    4972.1449
   11   -6444.1339
   12   -3704.6062
   13   -3855.572
   23   -2700.6166
   25    57.520266
   26    1814.7372
   31    1083.4594
   32    1083.4594
   33    1067.2842
   34    3535.4576
   35    3535.4576
   36    1761.0802
   41    2182.6541
   42    2182.6541
   43    4731.4164
   44    3283.1629
   45    3283.1629
   46    1847.0723
   47    3558.1722
   48    3558.1722
   49    1645.5681

BLOCK SMINPUTS
   1    127.90897
   2    1.1663787e-05
   3    0.1184
   4    91.1876
   5    4.18
   6    173.2
   7    1.777
   8    0
   11    0.00051099893
   12    0
   13    0.10565837
   14    0
   21    0.005
   22    0.0025
   23    0.095
   24    1.27

BLOCK GAUGE Q=  3033.1191
   1    0.35536298
   2    0.66519887
   3    1.219778

BLOCK YU Q=  3033.1191
   1   1    8.3856391e-06
   2   2    0.0042599047
   3   3    1.0130526

BLOCK YD Q=  3033.1191
   1   1    0.00096925333
   2   2    0.018415813
   3   3    0.96119558

BLOCK YE Q=  3033.1191
   1   1    0.00016914179
   2   2    0.034973158
   3   3    0.58819099

BLOCK AU Q=  3033.1191
   1   1    0
   2   2    0
   3   3   -6444.1338

BLOCK AD Q=  3033.1191
   1   1    0
   2   2    0
   3   3   -3704.6094

BLOCK AE Q=  3033.1191
   1   1    0
   2   2    0
   3   3   -3855.5725

BLOCK MSOFT Q=  3033.1191
   1    1055.1838
   2    4004.7178
   3    4972.1449
   21   -3779012.4
   22   -7402383.7
   31    1083.4594
   32    1083.4594
   33    1067.2842
   34    3535.4576
   35    3535.4576
   36    1761.0802
   41    2182.6541
   42    2182.6541
   43    4731.4164
   44    3283.1629
   45    3283.1629
   46    1847.0723
   47    3558.1722
   48    3558.1722
   49    1645.5681

BLOCK MASS
   6    173.2
   23    91.1876
   24    80.429995
   15    1.777
   25    125.28989
   35    1813.7392
   36    1814.7372
   37    1815.6362
   1000001    2292.7066
   2000001    3654.9206
   1000002    2291.3075
   2000002    3378.7544
   1000003    2292.6929
   2000003    3654.8776
   1000004    2291.2982
   2000004    3378.754
   1000005    1739.2534
   2000005    4757.0119
   1000006    1931.7529
   2000006    4762.4164
   1000011    1118.2759
   2000011    3539.532
   1000012    1115.139
   1000013    1118.2539
   2000013    3539.4767
   1000014    1115.1425
   1000015    1052.6528
   2000015    1716.7612
   1000016    1072.3283
   1000021    4909.3762
   1000022    1044.5132
   1000023    2673.3857
   1000025   -2676.1848
   1000035    3963.8535
   1000024    2673.452
   1000037    3963.9211

BLOCK ALPHA
      -0.017812495

BLOCK HMIX Q=  3033.1191
   1   -2700.6166
   2    57.520266
   3    243.23867
   4    3293271.1

BLOCK STOPMIX
   1   1    0.04681992
   1   2    0.99890335
   2   1   -0.99890335
   2   2    0.04681992

BLOCK SBOTMIX
   1   1   -0.020905191
   1   2    0.99978146
   2   1   -0.99978146
   2   2   -0.020905191

BLOCK STAUMIX
   1   1   -0.98913299
   1   2    0.14702354
   2   1   -0.14702354
   2   2   -0.98913299

BLOCK NMIX
   1   1   -0.99977015
   1   2    0.00020010622
   1   3    0.020025189
   1   4    0.0076553231
   2   1    0.019567446
   2   2    0.042817557
   2   3    0.70656563
   2   4    0.70607987
   3   1   -0.0087434048
   3   2    0.0082897805
   3   3   -0.70694247
   3   4    0.70716842
   4   1    0.00056582748
   4   2   -0.9990485
   4   3    0.024420259
   4   4    0.036130797

BLOCK UMIX
   1   1   -0.034407649
   1   2   -0.99940788
   2   1    0.99940788
   2   2   -0.034407649

BLOCK VMIX
   1   1   -0.051021938
   1   2    0.99869753
   2   1    0.99869753
   2   2    0.051021938

BLOCK HIGGSBOUNDSINPUTHIGGSCOUPLINGSFERMIONS
       0, 3308.581,3,36,15,15

BLOCK HIGGSBOUNDSINPUTHIGGSCOUPLINGSBOSONS
       0,4,36,21,21,23

BLOCK SPHENOLOWENERGY
   1    0.00034779817
   2    1.5887052e-06
   3    3.527185e-05
   4    2.3273035e-15
   5    9.9250243e-11
   6    1.1148074e-08
   7    7.7266722e-14
   8    3.2953972e-09
   9    3.862215e-07
   10    8.5328232e-05
   11    0.88140796
   12    0.54218692
   13    19.220287
   14    0
   15    0
   16    0.0021621826
   17    2.281715e-15
   18    2.4813056e-11
   19    8.2936085e-11
   20   -2.2278083e-15
   21   -9.5245466e-11
   22   -4.4348931e-08
   23    0
   24    0
   25    0
   26    0
   27    0
   28    0
   29    0
   30    0
   31    0
   39    7.3529055e-05
   40    0
   41    0
   42    0

BLOCK FWCOEF Q=  160
   305   4422   0   0   -0.18881911
   305   4422   0   2   -0.21850908
   305   4322   0   2   -0.00078186659
   305   6421   0   0   -0.095227835
   305   6421   0   2   -0.12132041
   305   6321   0   2   -0.00066519714
   3051111   4133   0   0    1.6181358
   3051111   4133   0   2    1.6184072
   3051111   4233   0   2    0.00023239952
   3051111   4137   0   0   -4.4408279
   3051111   4137   0   2   -4.4411228
   3051111   4237   0   2   -0.0017415364
   3051313   4133   0   0    1.6181358
   3051313   4133   0   2    1.6184039
   3051313   4233   0   2    0.0002323918
   3051313   4137   0   0   -4.4408279
   3051313   4137   0   2   -4.4411261
   3051313   4237   0   2   -0.0017415309
   3051212   4137   0   0    1.5053501
   3051212   4137   0   2    1.5054144
   3051212   4237   0   2    0.00037731058
   3051414   4137   0   0    1.5053501
   3051414   4137   0   2    1.5054144
   3051414   4237   0   2    0.00037731215
   3051616   4137   0   0    1.5053501
   3051616   4137   0   2    1.5054144
   3051616   4237   0   2    0.00037775581

BLOCK IMFWCOEF Q=  160
   305   4422   0   0    3.8549931e-07
   305   4422   0   2   -9.0653009e-06
   305   4322   0   2   -8.8615701e-06
   305   6421   0   0    3.3020565e-07
   305   6421   0   2    6.0256398e-06
   305   6321   0   2   -5.5148555e-06
   3051111   4133   0   2    4.379663e-07
   3051111   4233   0   2    7.3272719e-06
   3051111   4137   0   2   -2.8673028e-06
   3051111   4237   0   2   -5.4919409e-05
   3051313   4133   0   2    4.3792643e-07
   3051313   4233   0   2    7.3272642e-06
   3051313   4137   0   2   -2.8673424e-06
   3051313   4237   0   2   -5.4919442e-05
   3051212   4137   0   2    6.2758492e-07
   3051212   4237   0   2    1.1898508e-05
   3051414   4137   0   2    6.2758438e-07
   3051414   4237   0   2    1.1898508e-05
   3051616   4137   0   2    6.2730933e-07
   3051616   4237   0   2    1.1898508e-05

DECAY 23  2.4952


DECAY 24  2.085


DECAY 1000011  0.022833554
    0.99999998   2    1000022    11

DECAY 2000011  14.816884
    0.99989829   2    1000022    11

DECAY 1000013  0.022820789
    0.99999998   2    1000022    13

DECAY 2000013  14.870828
    0.99625168   2    1000022    13
    0.001514521   2    1000013    25
    0.0010670541   2   -1000024    14
    0.00061784343   2    1000023    13
    0.0005477666   2    1000025    13

DECAY 1000015  0.00028600306
    1   2    1000022    15

DECAY 2000015  36.192479
    0.45492954   2    1000016   -24
    0.23716299   2    1000015    23
    0.21517404   2    1000015    25
    0.092733424   2    1000022    15

DECAY 1000012  0.021080321
    1   2    1000022    12

DECAY 1000014  0.021082291
    1   2    1000022    14

DECAY 1000016  0.0035382508
    0.99846572   2    1000022    16
    0.00077461808   3    1000015   -2    1
    0.00075966378   3    1000015   -4    3

DECAY 1000001  0.2013103
    1   2    1000022    1

DECAY 2000001  1.7202736
    0.99985863   2    1000022    1
    0.00010247511   2    1000023    1

DECAY 1000003  0.20131193
    1   2    1000022    3

DECAY 2000003  1.7349146
    0.99140993   2    1000022    3
    0.0030689741   2   -1000024    4
    0.0023421126   2    1000003    25
    0.0016313352   2    1000023    3
    0.0015476487   2    1000025    3

DECAY 1000005  0.40514295
    1   2    1000022    5

DECAY 2000005  264.67377
    0.35262668   2    1000006   -24
    0.17021249   2   -1000024    6
    0.078758149   2    1000006   -37
    0.077184607   2    1000023    5
    0.077157285   2    1000025    5
    0.068256741   2    1000005    36
    0.068202006   2    1000005    35
    0.043731705   2    1000005    25
    0.039234052   2    1000005    23
    0.014896211   2   -1000037    6
    0.0074056679   2    1000035    5
    0.0023344096   2    1000022    5

DECAY 1000002  0.20015679
    1   2    1000022    2

DECAY 2000002  6.1697048
    0.99992154   2    1000022    2

DECAY 1000004  0.20015504
    1   2    1000022    4

DECAY 2000004  6.1700412
    0.99986639   2    1000022    4

DECAY 1000006  2.0843185
    0.99962352   2    1000022    6
    0.00033291717   3    1000016   -15    5

DECAY 2000006  290.13371
    0.25001013   2    1000006    25
    0.1612585   2    1000006    23
    0.14105784   2    1000024    5
    0.12494125   2    1000005    37
    0.078354771   2    1000025    6
    0.078000257   2    1000023    6
    0.071802655   2    1000005    24
    0.036061839   2    1000006    36
    0.035832249   2    1000006    35
    0.013698931   2    1000037    5
    0.0068919166   2    1000035    6
    0.0020896531   2    1000022    6

DECAY 1000024  54.973044
    0.44541507   2   -1000005    6
    0.34005646   2    1000006   -5
    0.11807443   2    1000016   -15
    0.055826169   2   -2000015    16
    0.033000313   2    1000022    24
    0.0041084679   2   -1000015    16
    0.00158833   3    1000022   -5    6
    0.00078335584   2    1000014   -13
    0.00038021189   2    1000012   -11
    0.00017249914   2   -1000013    14
    0.00017249626   2   -1000011    12
    0.0001524062   2    1000004   -3
    0.00011788982   2    1000002   -1

DECAY 1000037  208.67207
    0.11094827   2   -1000003    4
    0.11094702   2   -1000001    2
    0.11092633   2    1000004   -3
    0.11092532   2    1000002   -1
    0.071704918   2    1000016   -15
    0.070748433   2   -1000013    14
    0.070747952   2   -1000011    12
    0.070716051   2    1000014   -13
    0.07071588   2    1000012   -11
    0.069951725   2   -1000015    16
    0.031657086   2    1000024    25
    0.03123488   2    1000023    24
    0.031139024   2    1000025    24
    0.030871687   2    1000024    23
    0.0017295286   2   -2000015    16
    0.0016638206   3    1000024    6   -6
    0.0014805921   3    1000025   -5    6
    0.0013546362   3    1000023   -5    6
    0.00020434898   3    1000024    5   -5
    0.00013960872   2    1000006   -5
    0.00013771856   2   -1000005    6

DECAY 1000022 -1


DECAY 1000023  54.774506
    0.22363449   2    1000005   -5
    0.22363449   2   -1000005    5
    0.17052831   2    1000006   -6
    0.17052831   2   -1000006    6
    0.060681271   2    1000015   -15
    0.060681271   2   -1000015    15
    0.028686254   2    2000015   -15
    0.028686254   2   -2000015    15
    0.0240784   2    1000022    25
    0.005540797   2    1000022    23
    0.00084555283   3    1000022    6   -6
    0.00040923194   2    1000013   -13
    0.00040923194   2   -1000013    13
    0.00036026799   3    1000022    5   -5
    0.00020748221   2    1000011   -11
    0.00020748221   2   -1000011    11

DECAY 1000025  56.346156
    0.21822879   2    1000005   -5
    0.21822879   2   -1000005    5
    0.16818666   2    1000006   -6
    0.16818666   2   -1000006    6
    0.058092463   2    1000015   -15
    0.058092463   2   -1000015    15
    0.02843308   2    2000015   -15
    0.02843308   2   -2000015    15
    0.027097102   2    1000022    23
    0.025215307   2    1000022    25
    0.00091154484   3    1000022    6   -6
    0.00033411047   3    1000022    5   -5
    0.00019768617   2    1000013   -13
    0.00019768617   2   -1000013    13

DECAY 1000035  215.08576
    0.053833407   2    1000004   -4
    0.053833407   2   -1000004    4
    0.053833008   2    1000002   -2
    0.053833008   2   -1000002    2
    0.05378942   2    1000003   -3
    0.05378942   2   -1000003    3
    0.053788721   2    1000001   -1
    0.053788721   2   -1000001    1
    0.034793762   2    1000016   -16
    0.034793762   2   -1000016    16
    0.034347696   2    1000012   -12
    0.034347696   2   -1000012    12
    0.034347659   2    1000014   -14
    0.034347659   2   -1000014    14
    0.034273291   2    1000013   -13
    0.034273291   2   -1000013    13
    0.034272937   2    1000011   -11
    0.034272937   2   -1000011    11
    0.033919673   2    1000015   -15
    0.033919673   2   -1000015    15
    0.031823236   2    1000025    25
    0.029877473   2    1000024   -24
    0.029877473   2   -1000024    24
    0.029509545   2    1000023    25
    0.029308506   2    1000025    23
    0.0012480533   3    1000024    5   -6
    0.0012480533   3   -1000024   -5    6
    0.0010957121   2    1000023    23
    0.00083983372   2    2000015   -15
    0.00083983372   2   -2000015    15
    0.00073691802   3    1000025    6   -6
    0.00067986443   3    1000023    6   -6

DECAY 1000021  708.93352
    0.078384277   2    1000005   -5
    0.078384277   2   -1000005    5
    0.072599998   2    1000006   -6
    0.072599998   2   -1000006    6
    0.062703061   2    1000004   -4
    0.062703061   2   -1000004    4
    0.062702782   2    1000002   -2
    0.062702782   2   -1000002    2
    0.062660542   2    1000003   -3
    0.062660542   2   -1000003    3
    0.062660126   2    1000001   -1
    0.062660126   2   -1000001    1
    0.028393982   2    2000004   -4
    0.028393982   2   -2000004    4
    0.028393976   2    2000002   -2
    0.028393976   2   -2000002    2
    0.020365575   2    2000003   -3
    0.020365575   2   -2000003    3
    0.020364383   2    2000001   -1
    0.020364383   2   -2000001    1
    0.00038212694   2    2000005   -5
    0.00038212694   2   -2000005    5
    0.00018106308   3    1000024    5   -6
    0.00018106308   3   -1000024   -5    6
    0.00015800176   3    1000025    6   -6
    0.00015681993   3    1000023    6   -6

DECAY 25  0.0039203516
    0.56888854   2   -5    5
    0.2330741   2   -24    24
    0.071972909   2    21    21
    0.065355605   2   -15    15
    0.028376617   2    23    23
    0.028022035   2   -4    4
    0.0023469601   2    22    22
    0.001521029   2    22    23
    0.00022665555   2   -13    13
    0.00021480076   2   -3    3
    5.9391033e-07   2   -1    1
    1.4440324e-07   2   -2    2
    5.0954633e-09   2   -11    11

DECAY 35  99.350284
    0.9173857   2   -5    5
    0.081545463   2   -15    15
    0.0006070697   2   -3    3
    0.00027448076   2   -13    13
    0.00016335957   2   -6    6
    1.8100877e-05   2    21    21
    3.9912941e-06   2    25    25
    1.6806981e-06   2   -1    1
    8.2535743e-08   2    23    23
    5.0351569e-08   2   -24    24
    6.165628e-09   2   -11    11
    4.473656e-09   2    22    23
    3.4996522e-09   2    22    22
    3.4436944e-09   2   -4    4
    1.7771382e-14   2   -2    2

DECAY 36  92.094469
    0.91733531   2   -5    5
    0.08153325   2   -15    15
    0.00060704471   2   -3    3
    0.0002744443   2   -13    13
    0.00021913621   2   -6    6
    2.8952775e-05   2    21    21
    1.6806276e-06   2   -1    1
    1.1846704e-07   2    23    25
    2.8606121e-08   2    22    22
    1.8785105e-08   2    22    23
    6.1648317e-09   2   -11    11
    4.2221017e-09   2   -4    4
    2.1794959e-14   2   -2    2
    7.1859873e-40   2    25    25

DECAY 37  83.014224
    0.85853722   2   -5    6
    0.13900022   2   -15    16
    0.0012801942   2   -5    4
    0.00064822718   2   -3    4
    0.000491416   2   -13    14
    3.0180309e-05   2   -3    2
    9.1419135e-06   2   -5    2
    1.8008323e-06   2   -1    2
    1.3492028e-06   2   -3    6
    1.3184941e-07   2    24    25
    8.3770299e-08   2   -1    4
    1.8628352e-08   2   -1    6
    1.1494272e-08   2   -11    12
    4.0257488e-13   2    24    35

DECAY 6  2.43
    1   2    5    24

DECAY 15 -1
