BLOCK SPINFO
   1   SPheno
   2   v4.0.5be

BLOCK SPHENOINFO
   1   2
   2   2

BLOCK MODSEL
   1   0

BLOCK MINPAR
   3    43.514055
   4   -1

BLOCK EXTPAR
   0    2702.0747
   1   -592.18733
   2    1518.8439
   3    4285.9359
   11   -7598.8458
   12   -6245.1499
   13    4313.0271
   23   -1692.3035
   25    43.515045
   26    2704.1514
   31    1232.5649
   32    1232.5649
   33    3440.5992
   34    3028.3661
   35    3028.3661
   36    3394.3028
   41    2118.5961
   42    2118.5961
   43    1407.6454
   44    532.02033
   45    532.02033
   46    4902.7382
   47    1057.3836
   48    1057.3836
   49    1357.3548

BLOCK SMINPUTS
   1    127.90897
   2    1.1663787e-05
   3    0.1184
   4    91.1876
   5    4.18
   6    173.2
   7    1.777
   8    0
   11    0.00051099893
   12    0
   13    0.10565837
   14    0
   21    0.005
   22    0.0025
   23    0.095
   24    1.27

BLOCK GAUGE Q=  2702.0747
   1    0.35536298
   2    0.66519887
   3    1.219778

BLOCK YU Q=  2702.0747
   1   1    8.3865858e-06
   2   2    0.0042603856
   3   3    1.0131669

BLOCK YD Q=  2702.0747
   1   1    0.00073333915
   2   2    0.013933444
   3   3    0.72724265

BLOCK YE Q=  2702.0747
   1   1    0.00012797305
   2   2    0.026460767
   3   3    0.44502657

BLOCK AU Q=  2702.0747
   1   1    0
   2   2    0
   3   3   -7598.8457

BLOCK AD Q=  2702.0747
   1   1    0
   2   2    0
   3   3   -6245.1473

BLOCK AE Q=  2702.0747
   1   1    0
   2   2    0
   3   3    4313.0275

BLOCK MSOFT Q=  2702.0747
   1   -592.18733
   2    1518.8439
   3    4285.9359
   21    5846812.8
   22   -3254190.2
   31    1232.5649
   32    1232.5649
   33    3440.5992
   34    3028.3661
   35    3028.3661
   36    3394.3028
   41    2118.5961
   42    2118.5961
   43    1407.6454
   44    532.02033
   45    532.02033
   46    4902.7382
   47    1057.3836
   48    1057.3836
   49    1357.3548

BLOCK MASS
   6    173.2
   23    91.1876
   24    80.429995
   15    1.777
   25    126.78812
   35    2702.2854
   36    2704.1514
   37    2704.4311
   1000001    2217.3424
   2000001    1117.5904
   1000002    2215.8833
   2000002    604.63312
   1000003    2217.3343
   2000003    1117.567
   1000004    2215.873
   2000004    604.63401
   1000005    1318.663
   2000005    1528.9886
   1000006    1490.2104
   2000006    4899.4475
   1000011    1260.8655
   2000011    3026.5021
   1000012    1258.045
   1000013    1260.8523
   2000013    3026.47
   1000014    1258.0379
   1000015    3378.984
   2000015    3452.7554
   1000016    3446.1664
   1000021    4224.6355
   1000022   -582.86379
   1000023    1518.9034
   1000025   -1676.7556
   1000035    1694.4077
   1000024    1519.1126
   1000037    1695.3207

BLOCK ALPHA
      -0.023010924

BLOCK HMIX Q=  2702.0747
   1   -1692.3035
   2    43.515045
   3    243.36009
   4    7312434.7

BLOCK STOPMIX
   1   1    0.99879788
   1   2    0.049018297
   2   1   -0.049018297
   2   2    0.99879788

BLOCK SBOTMIX
   1   1   -0.36263669
   1   2    0.93193059
   2   1   -0.93193059
   2   2   -0.36263669

BLOCK STAUMIX
   1   1   -0.27512546
   1   2    0.96140833
   2   1   -0.96140833
   2   2   -0.27512546

BLOCK NMIX
   1   1   -0.99951315
   1   2   -0.00041087801
   1   3    0.029319268
   1   4   -0.010661447
   2   1    0.0041541101
   2   2    0.95125692
   2   3    0.22974463
   2   4    0.20569499
   3   1   -0.028268105
   3   2    0.017798613
   3   3   -0.7062928
   3   4    0.70713125
   4   1   -0.012534446
   4   2    0.30788524
   4   3   -0.66896059
   4   4   -0.67641799

BLOCK UMIX
   1   1   -0.93854128
   1   2   -0.34516701
   2   1    0.34516701
   2   2   -0.93854128

BLOCK VMIX
   1   1   -0.95033785
   1   2    0.31122014
   2   1    0.31122014
   2   2    0.95033785

BLOCK HIGGSBOUNDSINPUTHIGGSCOUPLINGSFERMIONS
       0, 1893.5591,3,36,15,15

BLOCK HIGGSBOUNDSINPUTHIGGSCOUPLINGSBOSONS
       0,4,36,21,21,23

BLOCK SPHENOLOWENERGY
   1    0.00034670403
   2    1.5890227e-06
   3    3.5275264e-05
   4    1.2665932e-15
   5    5.4099552e-11
   6    1.0871184e-08
   7    4.9085719e-14
   8    2.0967536e-09
   9    4.3382947e-07
   10    9.4124219e-05
   11    0.97226715
   12    0.54196188
   13    19.247269
   14    0
   15    0
   16    0.0021584703
   17    2.2816723e-15
   18    2.4815588e-11
   19    8.2941273e-11
   20   -2.0174683e-15
   21   -8.6244242e-11
   22   -1.732016e-08
   23    0
   24    0
   25    0
   26    0
   27    0
   28    0
   29    0
   30    0
   31    0
   39    6.8397801e-05
   40    0
   41    0
   42    0

BLOCK FWCOEF Q=  160
   305   4422   0   0   -0.18881911
   305   4422   0   2   -0.21892944
   305   4322   0   2   -0.00055952601
   305   6421   0   0   -0.095227835
   305   6421   0   2   -0.11526085
   305   6321   0   2   -0.00037296834
   3051111   4133   0   0    1.6133879
   3051111   4133   0   2    1.6137374
   3051111   4233   0   2    0.00085343545
   3051111   4137   0   0   -4.43608
   3051111   4137   0   2   -4.4367974
   3051111   4237   0   2   -0.0064421201
   3051313   4133   0   0    1.6133879
   3051313   4133   0   2    1.6137363
   3051313   4233   0   2    0.000853434
   3051313   4137   0   0   -4.43608
   3051313   4137   0   2   -4.4367985
   3051313   4237   0   2   -0.0064421229
   3051212   4137   0   0    1.5053501
   3051212   4137   0   2    1.5055273
   3051212   4237   0   2    0.0013972074
   3051414   4137   0   0    1.5053501
   3051414   4137   0   2    1.5055273
   3051414   4237   0   2    0.0013972075
   3051616   4137   0   0    1.5053501
   3051616   4137   0   2    1.5055277
   3051616   4237   0   2    0.0013972467

BLOCK IMFWCOEF Q=  160
   305   4422   0   0    3.8561592e-07
   305   4422   0   2   -7.1029107e-05
   305   4322   0   2   -7.2929686e-06
   305   6421   0   0    3.3030554e-07
   305   6421   0   2    1.7739359e-05
   305   6321   0   2   -3.1774287e-06
   3051111   4133   0   2    1.2916993e-07
   3051111   4233   0   2    1.6230335e-05
   3051111   4137   0   2    1.2800544e-06
   3051111   4237   0   2   -0.00012251523
   3051313   4133   0   2    1.2908687e-07
   3051313   4233   0   2    1.6230321e-05
   3051313   4137   0   2    1.2800843e-06
   3051313   4237   0   2   -0.00012251529
   3051212   4137   0   2    1.1079888e-07
   3051212   4237   0   2    2.6571869e-05
   3051414   4137   0   2    1.1079517e-07
   3051414   4237   0   2    2.6571869e-05
   3051616   4137   0   2    1.1717457e-07
   3051616   4237   0   2    2.657187e-05

DECAY 23  2.4952


DECAY 24  2.085


DECAY 1000011  0.97980407
    1   2    1000022    11

DECAY 2000011  14.093324
    0.99949544   2    1000022    11
    0.00041417231   2    1000025    11

DECAY 1000013  0.97979145
    1   2    1000022    13

DECAY 2000013  14.139147
    0.99624646   2    1000022    13
    0.0012367344   2   -1000037    14
    0.0011271507   2    1000025    13
    0.00070854715   2    1000035    13
    0.00038385691   2    1000013    25
    0.00019878007   2   -1000024    14

DECAY 1000015  32.194217
    0.47154399   2    1000022    15
    0.13564662   2   -1000024    16
    0.13387039   2   -1000037    16
    0.11440828   2    1000025    15
    0.078278641   2    1000035    15
    0.06625208   2    1000023    15

DECAY 2000015  40.212179
    0.34584011   2   -1000024    16
    0.19139232   2    1000023    15
    0.12838257   2    1000035    15
    0.12243741   2    1000022    15
    0.11084475   2   -1000037    16
    0.10109783   2    1000025    15

DECAY 1000012  0.97223138
    1   2    1000022    12

DECAY 1000014  0.97221987
    1   2    1000022    14

DECAY 1000016  41.212427
    0.45714412   2    1000024    15
    0.2152117   2    1000023    16
    0.20759546   2    1000037    15
    0.09886704   2    1000022    16
    0.020941325   2    1000035    16
    0.00023208729   2    1000025    16

DECAY 2000001  0.33035774
    1   2    1000022    1

DECAY 1000001  8.1567172
    0.5935298   2   -1000024    2
    0.30453516   2    1000023    1
    0.049203961   2   -1000037    2
    0.032696137   2    1000022    1
    0.019919701   2    1000035    1
    0.00011461385   2    1000025    1

DECAY 2000003  0.33034286
    1   2    1000022    3

DECAY 1000003  8.1601284
    0.59326867   2   -1000024    4
    0.30441949   2    1000023    3
    0.04920132   2   -1000037    4
    0.032683111   2    1000022    3
    0.019991004   2    1000035    3
    0.00022621289   2    2000003    25
    0.00021019604   2    1000025    3

DECAY 1000005  0.49927246
    1   2    1000022    5

DECAY 2000005  2.742646
    0.62214558   2    1000005    23
    0.3242899   2    1000005    25
    0.053220716   2    1000022    5
    0.00034380801   2    1000023    5

DECAY 2000002  0.0067447923
    1   2    1000022    2

DECAY 1000002  8.184445
    0.60467143   2    1000024    1
    0.30354022   2    1000023    2
    0.0396926   2    1000037    1
    0.032859578   2    1000022    2
    0.019200708   2    1000035    2

DECAY 2000004  0.0067309067
    1   2    1000022    4

DECAY 1000004  8.1859909
    0.60458185   2    1000024    3
    0.30347487   2    1000023    4
    0.039839888   2    1000037    3
    0.032853143   2    1000022    4
    0.019205921   2    1000035    4

DECAY 1000006  2.2999115
    0.9030634   2    1000005    24
    0.064523774   2    1000022    6
    0.032309707   2    1000022    4

DECAY 2000006  526.31118
    0.23306486   2    2000005    24
    0.20306454   2    1000006    25
    0.13599733   2    1000006    23
    0.13569013   2    1000037    5
    0.07386019   2    1000025    6
    0.068840208   2    1000035    6
    0.045395085   2    1000021    6
    0.038301449   2    1000005    24
    0.020162894   2    1000022    6
    0.01222137   2    1000024    5
    0.010060542   2    2000005    37
    0.0069069786   2    1000006    36
    0.0068513692   2    1000006    35
    0.0052662382   2    1000023    6
    0.0043168209   2    1000005    37

DECAY 1000024  2.9045024
    0.20527257   2    1000014   -13
    0.20522224   2    1000012   -11
    0.19627368   2   -1000013    14
    0.19625553   2   -1000011    12
    0.15925557   2   -1000005    6
    0.027325408   2    1000022    24
    0.0095213937   2    1000006   -5
    0.0007564108   3    1000022   -5    6

DECAY 1000037  9.7479155
    0.45836315   2   -1000005    6
    0.13272796   2    1000006   -5
    0.10315891   2    1000023    24
    0.1015054   2    1000022    24
    0.078727761   2    1000024    23
    0.055297555   2    1000024    25
    0.018212536   2   -1000013    14
    0.018211595   2   -1000011    12
    0.015186649   2    1000014   -13
    0.014969816   2    1000012   -11
    0.0032746385   3    1000022   -5    6
    0.00028377061   2   -2000003    4

DECAY 1000022 -1


DECAY 1000023  3.0567389
    0.09710862   2    1000014   -14
    0.09710862   2   -1000014    14
    0.097103824   2    1000012   -12
    0.097103824   2   -1000012    12
    0.09612646   2    1000013   -13
    0.09612646   2   -1000013    13
    0.096101081   2    1000011   -11
    0.096101081   2   -1000011    11
    0.093310018   2    1000005   -5
    0.093310018   2   -1000005    5
    0.019498153   2    1000022    23
    0.016263532   2    1000022    25
    0.0020642205   2    1000006   -4
    0.0020642205   2   -1000006    4
    0.00036913612   3    1000022    6   -6

DECAY 1000025  11.071001
    0.16855873   2    1000005   -5
    0.16855873   2   -1000005    5
    0.11746964   2    1000024   -24
    0.11746964   2   -1000024    24
    0.10770429   2    1000023    23
    0.078178435   2    1000022    25
    0.061985469   2    1000023    25
    0.044290643   2    1000006   -6
    0.044290643   2   -1000006    6
    0.035256256   2    2000005   -5
    0.035256256   2   -2000005    5
    0.017206407   2    1000022    23
    0.0015142518   3    1000022    6   -6
    0.00033821588   2    2000004   -4
    0.00033821588   2   -2000004    4
    0.00030683013   2    2000002   -2
    0.00030683013   2   -2000002    2
    0.00016653348   2    2000003   -3
    0.00016653348   2   -2000003    3

DECAY 1000035  9.0888529
    0.16356126   2    1000005   -5
    0.16356126   2   -1000005    5
    0.090484437   2    1000022    23
    0.081960595   2    1000022    25
    0.07066733   2    1000024   -24
    0.07066733   2   -1000024    24
    0.063632524   2    1000023    25
    0.059728814   2    2000005   -5
    0.059728814   2   -2000005    5
    0.055344712   2    1000006   -6
    0.055344712   2   -1000006    6
    0.0081761629   2    1000014   -14
    0.0081761629   2   -1000014    14
    0.0081759358   2    1000012   -12
    0.0081759358   2   -1000012    12
    0.0075288198   2    1000013   -13
    0.0075288198   2   -1000013    13
    0.007412197   2    1000011   -11
    0.007412197   2   -1000011    11
    0.0016230647   3    1000022    6   -6
    0.00038417196   2    1000023    23
    0.00016212389   2    2000003   -3
    0.00016212389   2   -2000003    3
    0.00010972677   2    2000004   -4
    0.00010972677   2   -2000004    4

DECAY 1000021  1059.502
    0.056620362   2    2000002   -2
    0.056620362   2   -2000002    2
    0.056620354   2    2000004   -4
    0.056620354   2   -2000004    4
    0.051042808   2    2000003   -3
    0.051042808   2   -2000003    3
    0.051042485   2    2000001   -1
    0.051042485   2   -2000001    1
    0.048145393   2    1000005   -5
    0.048145393   2   -1000005    5
    0.044802333   2    1000006   -6
    0.044802333   2   -1000006    6
    0.044497139   2    2000005   -5
    0.044497139   2   -2000005    5
    0.031009135   2    1000004   -4
    0.031009135   2   -1000004    4
    0.031008921   2    1000002   -2
    0.031008921   2   -1000002    2
    0.030978092   2    1000003   -3
    0.030978092   2   -1000003    3
    0.030977919   2    1000001   -1
    0.030977919   2   -1000001    1
    0.02244726   2    1000006   -4
    0.02244726   2   -1000006    4
    0.0002563827   3    1000024    5   -6
    0.0002563827   3   -1000024   -5    6
    0.00023280146   3    1000037    5   -6
    0.00023280146   3   -1000037   -5    6
    0.00016252675   3    1000025    5   -5
    0.00014874191   3    1000035    5   -5
    0.00010258615   3    1000023    6   -6

DECAY 25  0.0041130462
    0.54411585   2   -5    5
    0.25938367   2   -24    24
    0.069892342   2    21    21
    0.062728719   2   -15    15
    0.032505696   2    23    23
    0.026942541   2   -4    4
    0.0023552806   2    22    22
    0.0016529488   2    22    23
    0.00021747979   2   -13    13
    0.00020475753   2   -3    3
    5.6613579e-07   2   -1    1
    1.3883621e-07   2   -2    2
    4.8891648e-09   2   -11    11

DECAY 35  102.37368
    0.90604468   2   -5    5
    0.083505175   2   -15    15
    0.0055729491   2    1000022    1000035
    0.002026098   2    1000022    1000025
    0.0011646478   2    1000022    1000023
    0.00085859924   2    21    21
    0.00052208666   2   -3    3
    0.0002490861   2   -13    13
    3.7545477e-05   2    1000022    1000022
    1.0815815e-05   2   -6    6
    2.5423648e-06   2   -2000004    1000004
    2.5423648e-06   2   -1000004    2000004
    1.4448137e-06   2   -1    1
    3.8875189e-07   2    22    23
    3.5001254e-07   2    22    22
    3.2046851e-07   2    25    25
    2.279169e-07   2   -1000002    1000002
    2.278765e-07   2   -1000004    1000004
    4.7360025e-08   2    23    23
    2.096634e-08   2   -1000011    1000011
    2.0703052e-08   2   -1000013    1000013
    1.6447925e-08   2   -24    24
    1.1385026e-08   2   -4    4
    6.8943334e-09   2   -1000001    1000001
    6.7085112e-09   2   -1000003    1000003
    5.5945257e-09   2   -11    11
    9.8518526e-12   2   -2000002    1000002
    9.8518526e-12   2   -1000002    2000002
    5.8769306e-14   2   -2    2

DECAY 36  100.41365
    0.90654246   2   -5    5
    0.083667272   2   -15    15
    0.0066578227   2    1000022    1000025
    0.0017238606   2    1000022    1000035
    0.00052320929   2   -3    3
    0.00050599266   2    1000022    1000023
    0.00024957192   2   -13    13
    5.6710678e-05   2   -6    6
    4.9041198e-05   2    1000022    1000022
    1.7105528e-05   2    21    21
    2.6345781e-06   2   -2000004    1000004
    2.6345781e-06   2   -1000004    2000004
    1.4479175e-06   2   -1    1
    9.0524688e-08   2    22    23
    7.3471894e-08   2    23    25
    5.1132453e-08   2    22    22
    1.4590635e-08   2   -4    4
    5.6054061e-09   2   -11    11
    1.020918e-11   2   -2000002    1000002
    1.020918e-11   2   -1000002    2000002
    2.4745753e-13   2    23    35
    7.5320598e-14   2   -2    2
    1.4266067e-36   2    25    25

DECAY 37  88.813824
    0.87207109   2   -5    6
    0.11530539   2   -15    16
    0.00839937   2    1000022    1000037
    0.0019114384   2    1000022    1000024
    0.0012930067   2   -5    4
    0.00057144546   2   -3    4
    0.00040764578   2   -13    14
    2.6732986e-05   2   -3    2
    9.2334031e-06   2   -5    2
    1.7569999e-06   2   -3    6
    1.5875135e-06   2   -1    2
    8.5390824e-07   2   -2000003    1000004
    9.5692959e-08   2   -1000011    1000012
    9.5263526e-08   2   -1000013    1000014
    8.3157568e-08   2    24    25
    7.4432694e-08   2   -1    4
    4.5687785e-08   2   -2000001    1000004
    4.1884621e-08   2   -1    6
    9.5348773e-09   2   -11    12
    3.8399384e-09   2   -2000005    1000004
    1.2906332e-09   2   -1000005    1000004
    4.5764222e-11   2   -1000003    1000004
    3.0465595e-11   2   -1000003    1000006
    4.4869116e-12   2   -2000001    1000002
    6.9708303e-13   2    24    35
    2.3991337e-13   2   -2000003    1000002
    6.7902651e-15   2   -1000001    1000004
    3.8750063e-15   2   -1000001    1000006
    1.4382698e-16   2   -2000005    1000002
    4.8341349e-17   2   -1000005    1000002
    1.2857712e-17   2   -1000003    1000002
    6.6685053e-19   2   -1000001    1000002

DECAY 6  2.43
    1   2    5    24

DECAY 15 -1
