# SUSY Les Houches Accord 2 - MSSM spectrum + Decays
# SPheno v4.0.5be
# W. Porod, Comput. Phys. Commun. 153 (2003) 275-315, hep-ph/0301101;
# W. Porod, F.~Staub, Comput. Phys. Commun. 183 (2012) 2458
#                     arXiv:1104.1573 [hep-ph] 
# in case of problems send email to porod@physik.uni-wuerzburg.de
# Created: 22.11.2021,  15:17
Block SPINFO         # Program information
     1   SPheno      # spectrum calculator
     2   v4.0.5be    # version number
#
Block SPhenoINFO     # SPheno specific information
    1      2         # using 2-loop RGEs
    2      2         # using pole masses for boundary conditions at mZ
Block MODSEL  # Model selection
    1    0    # general MSSM
Block MINPAR  # Input parameters
    3    3.20800640E+01  # tanb at m_Z    
    4   -1.00000000E+00  # Sign(mu)
Block EXTPAR  # non-universal input parameters
    0    4.02451455E+03  # scale for input parameters
    1   -4.14066278E+02  # M_1
    2   -4.43822284E+02  # M_2
    3    1.26934273E+03  # M_3
   11   -3.82098529E+03  # A_t
   12   -4.43161862E+02  # A_b
   13    9.25297417E+02  # A_tau
   23   -1.13707871E+02  # mu
   25    3.09395006E+01  # tan(beta)
   26    1.11227498E+03  # m_A, pole mass
   31    4.85991611E+02  # M_L11
   32    4.85991611E+02  # M_L22
   33    8.41156193E+02  # M_L33
   34    1.00233696E+03  # M_E11
   35    1.00233696E+03  # M_E22
   36    3.90919309E+02  # M_E33
   41    1.00000000E+04  # M_Q11
   42    1.00000000E+04  # M_Q22
   43    4.08413815E+03  # M_Q33
   44    1.00000000E+04  # M_U11
   45    1.00000000E+04  # M_U22
   46    3.99813970E+03  # M_U33
   47    1.00000000E+04  # M_D11
   48    1.00000000E+04  # M_D22
   49    2.77401506E+03  # M_D33
Block SMINPUTS  # SM parameters
         1     1.27908970E+02  # alpha_em^-1(MZ)^MSbar
         2     1.16637870E-05  # G_mu [GeV^-2]
         3     1.18400000E-01  # alpha_s(MZ)^MSbar
         4     9.11876000E+01  # m_Z(pole)
         5     4.18000000E+00  # m_b(m_b), MSbar
         6     1.73200000E+02  # m_t(pole)
         7     1.77700000E+00  # m_tau(pole)
         8     0.00000000E+00  # m_nu_3
        11     5.10998930E-04  # m_e(pole)
        12     0.00000000E+00  # m_nu_1
        13     1.05658372E-01  # m_muon(pole)
        14     0.00000000E+00  # m_nu_2
        21     5.00000000E-03  # m_d(2 GeV), MSbar
        22     2.50000000E-03  # m_u(2 GeV), MSbar
        23     9.50000000E-02  # m_s(2 GeV), MSbar
        24     1.27000000E+00  # m_c(m_c), MSbar
Block gauge Q=  4.02451455E+03  # (SUSY scale)
   1    3.55362975E-01  # g'(Q)^DRbar
   2    6.65198874E-01  # g(Q)^DRbar
   3    1.21977796E+00  # g3(Q)^DRbar
Block Yu Q=  4.02451455E+03  # (SUSY scale)
  1  1     8.38875038E-06   # Y_u(Q)^DRbar
  2  2     4.26148520E-03   # Y_c(Q)^DRbar
  3  3     1.01342843E+00   # Y_t(Q)^DRbar
Block Yd Q=  4.02451455E+03  # (SUSY scale)
  1  1     5.21543838E-04   # Y_d(Q)^DRbar
  2  2     9.90933292E-03   # Y_s(Q)^DRbar
  3  3     5.17208059E-01   # Y_b(Q)^DRbar
Block Ye Q=  4.02451455E+03  # (SUSY scale)
  1  1     9.10132135E-05   # Y_e(Q)^DRbar
  2  2     1.88186460E-02   # Y_mu(Q)^DRbar
  3  3     3.16498668E-01   # Y_tau(Q)^DRbar
Block Au Q=  4.02451455E+03  # (SUSY scale)
  1  1     0.00000000E+00   # A_u(Q)^DRbar
  2  2     0.00000000E+00   # A_c(Q)^DRbar
  3  3    -3.82098703E+03   # A_t(Q)^DRbar
Block Ad Q=  4.02451455E+03  # (SUSY scale)
  1  1     0.00000000E+00   # A_d(Q)^DRbar
  2  2     0.00000000E+00   # A_s(Q)^DRbar
  3  3    -4.43161823E+02   # A_b(Q)^DRbar
Block Ae Q=  4.02451455E+03  # (SUSY scale)
  1  1     0.00000000E+00   # A_e(Q)^DRbar
  2  2     0.00000000E+00   # A_mu(Q)^DRbar
  3  3     9.25297251E+02   # A_tau(Q)^DRbar
Block MSOFT Q=  4.02451455E+03  # soft SUSY breaking masses at Q
   1   -4.14066278E+02  # M_1
   2   -4.43822284E+02  # M_2
   3    1.26934273E+03  # M_3
  21    1.33347979E+06  # M^2_(H,d)
  22    3.69416101E+05  # M^2_(H,u)
  31    4.85991611E+02  # M_(L,11)
  32    4.85991611E+02  # M_(L,22)
  33    8.41156193E+02  # M_(L,33)
  34    1.00233696E+03  # M_(E,11)
  35    1.00233696E+03  # M_(E,22)
  36    3.90919309E+02  # M_(E,33)
  41    1.00000000E+04  # M_(Q,11)
  42    1.00000000E+04  # M_(Q,22)
  43    4.08413815E+03  # M_(Q,33)
  44    1.00000000E+04  # M_(U,11)
  45    1.00000000E+04  # M_(U,22)
  46    3.99813970E+03  # M_(U,33)
  47    1.00000000E+04  # M_(D,11)
  48    1.00000000E+04  # M_(D,22)
  49    2.77401506E+03  # M_(D,33)
Block MASS  # Mass spectrum
#   PDG code      mass          particle
         6     1.73200000E+02  # m_t(pole)
        23     9.11876000E+01  # m_Z(pole)
        24     8.04299946E+01  # W+
        15     1.77700000E+00  # m_tau(pole)
        25     1.25068480E+02  # h0
        35     1.11206802E+03  # H0
        36     1.11227498E+03  # A0
        37     1.11737306E+03  # H+
   1000001     1.01230760E+04  # ~d_L
   2000001     1.00974362E+04  # ~d_R
   1000002     1.01227161E+04  # ~u_L
   2000002     1.01007495E+04  # ~u_R
   1000003     1.01230775E+04  # ~s_L
   2000003     1.00974386E+04  # ~s_R
   1000004     1.01227176E+04  # ~c_L
   2000004     1.01007500E+04  # ~c_R
   1000005     2.80695707E+03  # ~b_1
   2000005     4.08889937E+03  # ~b_2
   1000006     3.93356449E+03  # ~t_1
   2000006     4.11756751E+03  # ~t_2
   1000011     4.95496311E+02  # ~e_L-
   2000011     1.00820504E+03  # ~e_R-
   1000012     4.88613837E+02  # ~nu_eL
   1000013     4.95473656E+02  # ~mu_L-
   2000013     1.00817832E+03  # ~mu_R-
   1000014     4.88600297E+02  # ~nu_muL
   1000015     3.88102833E+02  # ~tau_1-
   2000015     8.41640202E+02  # ~tau_2-
   1000016     8.38244847E+02  # ~nu_tauL
   1000021     1.60661944E+03  # ~g
   1000022     1.23366993E+02  # ~chi_10
   1000023     1.42430347E+02  # ~chi_20
   1000025     4.11319767E+02  # ~chi_30
   1000035     4.90758901E+02  # ~chi_40
   1000024     1.31324204E+02  # ~chi_1+
   1000037     4.90158673E+02  # ~chi_2+
# Higgs mixing
Block alpha # Effective Higgs mixing angle
          -3.17939611E-02   # alpha
Block Hmix Q=  4.02451455E+03  # Higgs mixing parameters
   1   -1.13707871E+02  # mu
   2    3.09395006E+01  # tan[beta](Q)
   3    2.42906130E+02  # v(Q)
   4    1.23715563E+06  # m^2_A(Q)
Block stopmix # stop mixing matrix
   1  1     3.99315192E-01   # Re[R_st(1,1)]
   1  2     9.16813709E-01   # Re[R_st(1,2)]
   2  1    -9.16813709E-01   # Re[R_st(2,1)]
   2  2     3.99315192E-01   # Re[R_st(2,2)]
Block sbotmix # sbottom mixing matrix
   1  1    -5.89504636E-04   # Re[R_sb(1,1)]
   1  2     9.99999826E-01   # Re[R_sb(1,2)]
   2  1    -9.99999826E-01   # Re[R_sb(2,1)]
   2  2    -5.89504636E-04   # Re[R_sb(2,2)]
Block staumix # stau mixing matrix
   1  1    -1.55870957E-02   # Re[R_sta(1,1)]
   1  2     9.99878514E-01   # Re[R_sta(1,2)]
   2  1    -9.99878514E-01   # Re[R_sta(2,1)]
   2  2    -1.55870957E-02   # Re[R_sta(2,2)]
Block Nmix # neutralino mixing matrix
   1  1    -1.06355182E-01   # Re[N(1,1)]
   1  2     1.54396698E-01   # Re[N(1,2)]
   1  3     7.25363248E-01   # Re[N(1,3)]
   1  4    -6.62343109E-01   # Re[N(1,4)]
   2  1     5.59423510E-02   # Re[N(2,1)]
   2  2    -9.06319477E-02   # Re[N(2,2)]
   2  3     6.85317578E-01   # Re[N(2,3)]
   2  4     7.20413854E-01   # Re[N(2,4)]
   3  1     9.87309729E-01   # Re[N(3,1)]
   3  2     1.24392220E-01   # Re[N(3,2)]
   3  3     3.34833373E-02   # Re[N(3,3)]
   3  4    -9.28705597E-02   # Re[N(3,4)]
   4  1    -1.03819689E-01   # Re[N(4,1)]
   4  2     9.75947788E-01   # Re[N(4,2)]
   4  3    -5.53790791E-02   # Re[N(4,3)]
   4  4     1.83522599E-01   # Re[N(4,4)]
Block Umix # chargino mixing matrix
   1  1    -7.54893438E-02   # Re[U(1,1)]
   1  2    -9.97146609E-01   # Re[U(1,2)]
   2  1    -9.97146609E-01   # Re[U(2,1)]
   2  2     7.54893438E-02   # Re[U(2,2)]
Block Vmix # chargino mixing matrix
   1  1     2.50584338E-01   # Re[V(1,1)]
   1  2     9.68094773E-01   # Re[V(1,2)]
   2  1     9.68094773E-01   # Re[V(2,1)]
   2  2    -2.50584338E-01   # Re[V(2,2)]
DECAY        23     2.49520000E+00   # Z
DECAY        24     2.08500000E+00   # W
DECAY   1000011     1.38765431E-01   # ~e^-_L
#    BR                NDA      ID1      ID2
     1.31672922E-01    2     1000022        11   # BR(~e^-_L -> chi^0_1 e^-)
     4.88086503E-02    2     1000023        11   # BR(~e^-_L -> chi^0_2 e^-)
     6.45497415E-01    2     1000025        11   # BR(~e^-_L -> chi^0_3 e^-)
     4.82274996E-03    2     1000035        11   # BR(~e^-_L -> chi^0_4 e^-)
     1.54846592E-01    2    -1000024        12   # BR(~e^-_L -> chi^-_1 nu_e)
     1.43514804E-02    2    -1000037        12   # BR(~e^-_L -> chi^-_2 nu_e)
#    BR                NDA      ID1      ID2       ID3
DECAY   2000011     3.53371217E+00   # ~e^-_R
#    BR                NDA      ID1      ID2
     1.57339110E-02    2     1000022        11   # BR(~e^-_R -> chi^0_1 e^-)
     4.30918879E-03    2     1000023        11   # BR(~e^-_R -> chi^0_2 e^-)
     9.70959831E-01    2     1000025        11   # BR(~e^-_R -> chi^0_3 e^-)
     8.99702348E-03    2     1000035        11   # BR(~e^-_R -> chi^0_4 e^-)
DECAY   1000013     1.41695839E-01   # ~mu^-_L
#    BR                NDA      ID1      ID2
     1.40355651E-01    2     1000022        13   # BR(~mu^-_L -> chi^0_1 mu^-)
     5.75275647E-02    2     1000023        13   # BR(~mu^-_L -> chi^0_2 mu^-)
     6.31867806E-01    2     1000025        13   # BR(~mu^-_L -> chi^0_3 mu^-)
     4.67671208E-03    2     1000035        13   # BR(~mu^-_L -> chi^0_4 mu^-)
     1.51635185E-01    2    -1000024        14   # BR(~mu^-_L -> chi^-_1 nu_mu)
     1.39368949E-02    2    -1000037        14   # BR(~mu^-_L -> chi^-_2 nu_mu)
#    BR                NDA      ID1      ID2       ID3
DECAY   2000013     3.54727375E+00   # ~mu^-_R
#    BR                NDA      ID1      ID2
     1.66957507E-02    2     1000022        13   # BR(~mu^-_R -> chi^0_1 mu^-)
     5.19573049E-03    2     1000023        13   # BR(~mu^-_R -> chi^0_2 mu^-)
     9.67202924E-01    2     1000025        13   # BR(~mu^-_R -> chi^0_3 mu^-)
     8.96562168E-03    2     1000035        13   # BR(~mu^-_R -> chi^0_4 mu^-)
     1.92399274E-03    2    -1000024        14   # BR(~mu^-_R -> chi^-_1 nu_mu)
DECAY   1000015     1.23157118E+00   # ~tau^-_1
#    BR                NDA      ID1      ID2
     2.85515041E-01    2     1000022        15   # BR(~tau^-_1 -> chi^0_1 tau^-)
     2.22552914E-01    2     1000023        15   # BR(~tau^-_1 -> chi^0_2 tau^-)
     4.91932045E-01    2    -1000024        16   # BR(~tau^-_1 -> chi^-_1 nu_tau)
DECAY   2000015     7.20760799E+00   # ~tau^-_2
#    BR                NDA      ID1      ID2
     1.20365391E-01    2     1000022        15   # BR(~tau^-_2 -> chi^0_1 tau^-)
     1.05728997E-01    2     1000023        15   # BR(~tau^-_2 -> chi^0_2 tau^-)
     1.26845713E-01    2     1000025        15   # BR(~tau^-_2 -> chi^0_3 tau^-)
     1.90164533E-01    2     1000035        15   # BR(~tau^-_2 -> chi^0_4 tau^-)
     4.53589899E-03    2    -1000024        16   # BR(~tau^-_2 -> chi^-_1 nu_tau)
     4.46729860E-01    2    -1000037        16   # BR(~tau^-_2 -> chi^-_2 nu_tau)
     3.11028786E-03    2     1000015        23   # BR(~tau^-_2 -> ~tau^-_1 Z)
     2.51931965E-03    2     1000015        25   # BR(~tau^-_2 -> ~tau^-_1 h^0)
#    BR                NDA      ID1      ID2       ID3
DECAY   1000012     3.72389830E-01   # ~nu_e
#    BR                NDA      ID1      ID2
     2.25840257E-01    2     1000022        12   # BR(~nu_e -> chi^0_1 nu_e)
     7.02328969E-02    2     1000023        12   # BR(~nu_e -> chi^0_2 nu_e)
     7.96410735E-02    2     1000025        12   # BR(~nu_e -> chi^0_3 nu_e)
     6.24285773E-01    2     1000024        11   # BR(~nu_e -> chi^+_1 e^-)
DECAY   1000014     3.75308065E-01   # ~nu_mu
#    BR                NDA      ID1      ID2
     2.24076319E-01    2     1000022        14   # BR(~nu_mu -> chi^0_1 nu_mu)
     6.96841476E-02    2     1000023        14   # BR(~nu_mu -> chi^0_2 nu_mu)
     7.89983259E-02    2     1000025        14   # BR(~nu_mu -> chi^0_3 nu_mu)
     6.27241208E-01    2     1000024        13   # BR(~nu_mu -> chi^+_1 mu^-)
DECAY   1000016     7.31369933E+00   # ~nu_tau
#    BR                NDA      ID1      ID2
     2.15407780E-02    2     1000022        16   # BR(~nu_tau -> chi^0_1 nu_tau)
     6.91020590E-03    2     1000023        16   # BR(~nu_tau -> chi^0_2 nu_tau)
     4.72378263E-02    2     1000025        16   # BR(~nu_tau -> chi^0_3 nu_tau)
     2.31815943E-01    2     1000035        16   # BR(~nu_tau -> chi^0_4 nu_tau)
     2.76217426E-01    2     1000024        15   # BR(~nu_tau -> chi^+_1 tau^-)
     4.10168509E-01    2     1000037        15   # BR(~nu_tau -> chi^+_2 tau^-)
     6.10931129E-03    2     1000015        24   # BR(~nu_tau -> ~tau^-_1 W^+)
DECAY   2000001     7.62798287E+02   # ~d_R
#    BR                NDA      ID1      ID2
     7.18005458E-03    2     1000025         1   # BR(~d_R -> chi^0_3 d)
     9.92633832E-01    2     1000021         1   # BR(~d_R -> ~g d)
DECAY   1000001     8.93762448E+02   # ~d_L
#    BR                NDA      ID1      ID2
     1.49744248E-03    2     1000022         1   # BR(~d_L -> chi^0_1 d)
     5.04299808E-04    2     1000023         1   # BR(~d_L -> chi^0_2 d)
     1.31385840E-04    2     1000025         1   # BR(~d_L -> chi^0_3 d)
     4.90685081E-02    2     1000035         1   # BR(~d_L -> chi^0_4 d)
     5.68000440E-04    2    -1000024         2   # BR(~d_L -> chi^-_1 u)
     9.86740136E-02    2    -1000037         2   # BR(~d_L -> chi^-_2 u)
     8.49556350E-01    2     1000021         1   # BR(~d_L -> ~g d)
DECAY   2000003     7.62837814E+02   # ~s_R
#    BR                NDA      ID1      ID2
     7.17971301E-03    2     1000025         3   # BR(~s_R -> chi^0_3 s)
     9.92582658E-01    2     1000021         3   # BR(~s_R -> ~g s)
DECAY   1000003     8.93785961E+02   # ~s_L
#    BR                NDA      ID1      ID2
     1.50900926E-03    2     1000022         3   # BR(~s_L -> chi^0_1 s)
     5.14645221E-04    2     1000023         3   # BR(~s_L -> chi^0_2 s)
     1.31407052E-04    2     1000025         3   # BR(~s_L -> chi^0_3 s)
     4.90672917E-02    2     1000035         3   # BR(~s_L -> chi^0_4 s)
     5.71818930E-04    2    -1000024         4   # BR(~s_L -> chi^-_1 c)
     9.86716888E-02    2    -1000037         4   # BR(~s_L -> chi^-_2 c)
     8.49534139E-01    2     1000021         3   # BR(~s_L -> ~g s)
DECAY   1000005     1.31292957E+02   # ~b_1
#    BR                NDA      ID1      ID2
     5.97866125E-02    2     1000022         5   # BR(~b_1 -> chi^0_1 b)
     5.31882352E-02    2     1000023         5   # BR(~b_1 -> chi^0_2 b)
     1.12600408E-02    2     1000025         5   # BR(~b_1 -> chi^0_3 b)
     4.42097603E-04    2     1000035         5   # BR(~b_1 -> chi^0_4 b)
     1.11784355E-01    2    -1000024         6   # BR(~b_1 -> chi^-_1 t)
     5.92359075E-04    2    -1000037         6   # BR(~b_1 -> chi^-_2 t)
     7.62946300E-01    2     1000021         5   # BR(~b_1 -> ~g b)
DECAY   2000005     3.90579032E+02   # ~b_2
#    BR                NDA      ID1      ID2
     3.06338000E-02    2     1000022         5   # BR(~b_2 -> chi^0_1 b)
     2.65723096E-02    2     1000023         5   # BR(~b_2 -> chi^0_2 b)
     1.81345567E-04    2     1000025         5   # BR(~b_2 -> chi^0_3 b)
     4.44317549E-02    2     1000035         5   # BR(~b_2 -> chi^0_4 b)
     1.99797255E-01    2    -1000024         6   # BR(~b_2 -> chi^-_1 t)
     1.02396284E-01    2    -1000037         6   # BR(~b_2 -> chi^-_2 t)
     5.90880273E-01    2     1000021         5   # BR(~b_2 -> ~g b)
     4.92279897E-03    2     1000006       -24   # BR(~b_2 -> ~t_1 W^-)
DECAY   2000002     7.79936239E+02   # ~u_R
#    BR                NDA      ID1      ID2
     3.27042518E-04    2     1000022         2   # BR(~u_R -> chi^0_1 u)
     2.80984117E-02    2     1000025         2   # BR(~u_R -> chi^0_3 u)
     3.10258064E-04    2     1000035         2   # BR(~u_R -> chi^0_4 u)
     9.71173813E-01    2     1000021         2   # BR(~u_R -> ~g u)
DECAY   1000002     8.93752412E+02   # ~u_L
#    BR                NDA      ID1      ID2
     9.14452327E-04    2     1000022         2   # BR(~u_L -> chi^0_1 u)
     3.24291942E-04    2     1000023         2   # BR(~u_L -> chi^0_2 u)
     4.47802331E-03    2     1000025         2   # BR(~u_L -> chi^0_3 u)
     4.54862942E-02    2     1000035         2   # BR(~u_L -> chi^0_4 u)
     6.25862396E-03    2     1000024         1   # BR(~u_L -> chi^+_1 d)
     9.30057509E-02    2     1000037         1   # BR(~u_L -> chi^+_2 d)
     8.49532563E-01    2     1000021         2   # BR(~u_L -> ~g u)
DECAY   2000004     7.79943544E+02   # ~c_R
#    BR                NDA      ID1      ID2
     3.29091636E-04    2     1000022         4   # BR(~c_R -> chi^0_1 c)
     2.80981883E-02    2     1000025         4   # BR(~c_R -> chi^0_3 c)
     3.10411816E-04    2     1000035         4   # BR(~c_R -> chi^0_4 c)
     9.71164731E-01    2     1000021         4   # BR(~c_R -> ~g c)
DECAY   1000004     8.93775891E+02   # ~c_L
#    BR                NDA      ID1      ID2
     9.16223232E-04    2     1000022         4   # BR(~c_L -> chi^0_1 c)
     3.26406474E-04    2     1000023         4   # BR(~c_L -> chi^0_2 c)
     4.47794163E-03    2     1000025         4   # BR(~c_L -> chi^0_3 c)
     4.54852394E-02    2     1000035         4   # BR(~c_L -> chi^0_4 c)
     6.28039085E-03    2     1000024         3   # BR(~c_L -> chi^+_1 s)
     9.30034472E-02    2     1000037         3   # BR(~c_L -> chi^+_2 s)
     8.49510351E-01    2     1000021         4   # BR(~c_L -> ~g c)
DECAY   1000006     3.87059170E+02   # ~t_1
#    BR                NDA      ID1      ID2
     8.09374417E-02    2     1000022         6   # BR(~t_1 -> chi^0_1 t)
     1.00855023E-01    2     1000023         6   # BR(~t_1 -> chi^0_2 t)
     2.30261614E-02    2     1000025         6   # BR(~t_1 -> chi^0_3 t)
     2.59905901E-02    2     1000035         6   # BR(~t_1 -> chi^0_4 t)
     1.48511607E-01    2     1000024         5   # BR(~t_1 -> chi^+_1 b)
     4.70909420E-02    2     1000037         5   # BR(~t_1 -> chi^+_2 b)
     4.77442463E-04    2     1000021         4   # BR(~t_1 -> ~g c)
     5.71304132E-01    2     1000021         6   # BR(~t_1 -> ~g t)
#    BR                NDA      ID1      ID2       ID3
     1.80493415E-03    3     1000022        24         5   # BR(~t_1 -> chi^0_1 W^+ b)
DECAY   2000006     3.90530115E+02   # ~t_2
#    BR                NDA      ID1      ID2
     1.05162018E-01    2     1000022         6   # BR(~t_2 -> chi^0_1 t)
     1.17994725E-01    2     1000023         6   # BR(~t_2 -> chi^0_2 t)
     6.11899715E-03    2     1000025         6   # BR(~t_2 -> chi^0_3 t)
     2.80513019E-02    2     1000035         6   # BR(~t_2 -> chi^0_4 t)
     1.08874709E-01    2     1000024         5   # BR(~t_2 -> chi^+_1 b)
     4.90086969E-02    2     1000037         5   # BR(~t_2 -> chi^+_2 b)
     5.78247942E-01    2     1000021         6   # BR(~t_2 -> ~g t)
     2.09438512E-04    2     1000005        37   # BR(~t_2 -> ~b_1 H^+)
     3.56223155E-03    2     1000006        23   # BR(~t_2 -> ~t_1 Z)
     2.76452286E-03    2     1000006        25   # BR(~t_2 -> ~t_1 h^0)
DECAY   1000024     1.20539515E-07   # chi^+_1
#    BR                NDA      ID1      ID2       ID3
     3.55014186E-01    3     1000022        -1         2   # BR(chi^+_1 -> chi^0_1 d_bar u)
     3.13667000E-01    3     1000022        -3         4   # BR(chi^+_1 -> chi^0_1 s_bar c)
     1.18538816E-01    3     1000022       -11        12   # BR(chi^+_1 -> chi^0_1 e^+ nu_e)
     1.18436265E-01    3     1000022       -13        14   # BR(chi^+_1 -> chi^0_1 mu^+ nu_mu)
     9.43437327E-02    3     1000022       -15        16   # BR(chi^+_1 -> chi^0_1 tau^+ nu_tau)
DECAY   1000037     3.89067831E+00   # chi^+_2
#    BR                NDA      ID1      ID2
     2.47123195E-01    2     1000022        24   # BR(chi^+_2 -> chi^0_1 W^+)
     2.70411484E-01    2     1000023        24   # BR(chi^+_2 -> chi^0_2 W^+)
     2.55092320E-01    2     1000024        23   # BR(chi^+_2 -> chi^+_1 Z)
     2.24063751E-01    2     1000024        25   # BR(chi^+_2 -> chi^+_1 h^0)
#    BR                NDA      ID1      ID2       ID3
     6.75519124E-04    3     1000022        -5         6   # BR(chi^+_2 -> chi^0_1 b_bar t)
     7.03056962E-04    3     1000023        -5         6   # BR(chi^+_2 -> chi^0_2 b_bar t)
     5.94457226E-04    3     1000025        -1         2   # BR(chi^+_2 -> chi^0_3 d_bar u)
     5.94168527E-04    3     1000025        -3         4   # BR(chi^+_2 -> chi^0_3 s_bar c)
     2.18865750E-04    3     1000025       -11        12   # BR(chi^+_2 -> chi^0_3 e^+ nu_e)
     2.18880509E-04    3     1000025       -13        14   # BR(chi^+_2 -> chi^0_3 mu^+ nu_mu)
     1.98614213E-04    3     1000025       -15        16   # BR(chi^+_2 -> chi^0_3 tau^+ nu_tau)
DECAY   1000022     0.00000000E+00   # chi^0_1
DECAY   1000023     7.36498857E-06   # chi^0_2
#    BR                NDA      ID1      ID2
     6.34267288E-02    2     1000022        22   # BR(chi^0_2 -> chi^0_1 photon)
#    BR                NDA      ID1      ID2       ID3
     1.13033984E-01    3     1000022         2        -2   # BR(chi^0_2 -> chi^0_1 u u_bar)
     1.06595391E-01    3     1000022         4        -4   # BR(chi^0_2 -> chi^0_1 c c_bar)
     1.44931586E-01    3     1000022         1        -1   # BR(chi^0_2 -> chi^0_1 d d_bar)
     1.44890381E-01    3     1000022         3        -3   # BR(chi^0_2 -> chi^0_1 s s_bar)
     8.22778136E-02    3     1000022         5        -5   # BR(chi^0_2 -> chi^0_1 b b_bar)
     3.26923430E-02    3     1000022        11       -11   # BR(chi^0_2 -> chi^0_1 e^- e^+)
     3.26793127E-02    3     1000022        13       -13   # BR(chi^0_2 -> chi^0_1 mu^- mu^+)
     2.96496026E-02    3     1000022        15       -15   # BR(chi^0_2 -> chi^0_1 tau^- tau^+)
     1.94040339E-01    3     1000022        12       -12   # BR(chi^0_2 -> chi^0_1 nu_e nu_bar_e)
     9.61038699E-03    3     1000024         1        -2   # BR(chi^0_2 -> chi^+_1 d u_bar)
     9.61038699E-03    3    -1000024        -1         2   # BR(chi^0_2 -> chi^-_1 d_bar u)
     9.01383906E-03    3     1000024         3        -4   # BR(chi^0_2 -> chi^+_1 s c_bar)
     9.01383906E-03    3    -1000024        -3         4   # BR(chi^0_2 -> chi^-_1 s_bar c)
     3.20627148E-03    3     1000024        11       -12   # BR(chi^0_2 -> chi^+_1 e^- nu_bar_e)
     3.20627148E-03    3    -1000024       -11        12   # BR(chi^0_2 -> chi^-_1 e^+ nu_e)
     3.20482991E-03    3     1000024        13       -14   # BR(chi^0_2 -> chi^+_1 mu^- nu_bar_mu)
     3.20482991E-03    3    -1000024       -13        14   # BR(chi^0_2 -> chi^-_1 mu^+ nu_mu)
     2.85593182E-03    3     1000024        15       -16   # BR(chi^0_2 -> chi^+_1 tau^- nu_bar_tau)
     2.85593182E-03    3    -1000024       -15        16   # BR(chi^0_2 -> chi^-_1 tau^+ nu_tau)
DECAY   1000025     1.08133613E+00   # chi^0_3
#    BR                NDA      ID1      ID2
     1.12351048E-02    2     1000015       -15   # BR(chi^0_3 -> ~tau^-_1 tau^+)
     1.12351048E-02    2    -1000015        15   # BR(chi^0_3 -> ~tau^+_1 tau^-)
     3.34160687E-01    2     1000024       -24   # BR(chi^0_3 -> chi^+_1 W^-)
     3.34160687E-01    2    -1000024        24   # BR(chi^0_3 -> chi^-_1 W^+)
     2.49098139E-02    2     1000022        23   # BR(chi^0_3 -> chi^0_1 Z)
     1.33790762E-01    2     1000023        23   # BR(chi^0_3 -> chi^0_2 Z)
     6.99985690E-02    2     1000022        25   # BR(chi^0_3 -> chi^0_1 h^0)
     7.97361025E-02    2     1000023        25   # BR(chi^0_3 -> chi^0_2 h^0)
#    BR                NDA      ID1      ID2       ID3
     3.67916525E-04    3     1000024         5        -6   # BR(chi^0_3 -> chi^+_1 b t_bar)
     3.67916525E-04    3    -1000024        -5         6   # BR(chi^0_3 -> chi^-_1 b_bar t)
DECAY   1000035     4.54131095E+00   # chi^0_4
#    BR                NDA      ID1      ID2
     4.26978945E-04    2     1000015       -15   # BR(chi^0_4 -> ~tau^-_1 tau^+)
     4.26978945E-04    2    -1000015        15   # BR(chi^0_4 -> ~tau^+_1 tau^-)
     2.22432048E-01    2     1000024       -24   # BR(chi^0_4 -> chi^+_1 W^-)
     2.22432048E-01    2    -1000024        24   # BR(chi^0_4 -> chi^-_1 W^+)
     5.07377332E-02    2     1000022        23   # BR(chi^0_4 -> chi^0_1 Z)
     2.09398213E-01    2     1000023        23   # BR(chi^0_4 -> chi^0_2 Z)
     1.37155159E-01    2     1000022        25   # BR(chi^0_4 -> chi^0_1 h^0)
     1.55253390E-01    2     1000023        25   # BR(chi^0_4 -> chi^0_2 h^0)
#    BR                NDA      ID1      ID2       ID3
     7.85063196E-04    3     1000024         5        -6   # BR(chi^0_4 -> chi^+_1 b t_bar)
     7.85063196E-04    3    -1000024        -5         6   # BR(chi^0_4 -> chi^-_1 b_bar t)
DECAY   1000021     7.15569052E-03   # ~g
#    BR                NDA      ID1      ID2
     5.67996804E-03    2     1000022        21   # BR(~g -> chi^0_1 g)
     8.20036811E-03    2     1000023        21   # BR(~g -> chi^0_2 g)
     2.00071549E-04    2     1000025        21   # BR(~g -> chi^0_3 g)
     4.20416292E-04    2     1000035        21   # BR(~g -> chi^0_4 g)
#    BR                NDA      ID1      ID2       ID3
     1.14061247E-01    3     1000022         6        -6   # BR(~g -> chi^0_1 t t_bar)
     1.12001410E-01    3     1000022         5        -5   # BR(~g -> chi^0_1 b b_bar)
     1.29377396E-01    3     1000023         6        -6   # BR(~g -> chi^0_2 t t_bar)
     9.77264270E-02    3     1000023         5        -5   # BR(~g -> chi^0_2 b b_bar)
     2.45516638E-04    3     1000025         2        -2   # BR(~g -> chi^0_3 u u_bar)
     2.45511534E-04    3     1000025         4        -4   # BR(~g -> chi^0_3 c c_bar)
     8.25492757E-03    3     1000025         6        -6   # BR(~g -> chi^0_3 t t_bar)
     1.19645252E-02    3     1000025         5        -5   # BR(~g -> chi^0_3 b b_bar)
     3.23772130E-04    3     1000035         2        -2   # BR(~g -> chi^0_4 u u_bar)
     3.23762604E-04    3     1000035         4        -4   # BR(~g -> chi^0_4 c c_bar)
     8.58364284E-03    3     1000035         6        -6   # BR(~g -> chi^0_4 t t_bar)
     3.47607366E-04    3     1000035         1        -1   # BR(~g -> chi^0_4 d d_bar)
     3.47608206E-04    3     1000035         3        -3   # BR(~g -> chi^0_4 s s_bar)
     1.52060755E-02    3     1000035         5        -5   # BR(~g -> chi^0_4 b b_bar)
     2.27990566E-01    3     1000024         5        -6   # BR(~g -> chi^+_1 b t_bar)
     2.27990566E-01    3    -1000024        -5         6   # BR(~g -> chi^-_1 b_bar t)
     3.12347686E-04    3     1000037         1        -2   # BR(~g -> chi^+_2 d u_bar)
     3.12347686E-04    3    -1000037        -1         2   # BR(~g -> chi^-_2 d_bar u)
     3.12345711E-04    3     1000037         3        -4   # BR(~g -> chi^+_2 s c_bar)
     3.12345711E-04    3    -1000037        -3         4   # BR(~g -> chi^-_2 s_bar c)
     1.44750329E-02    3     1000037         5        -6   # BR(~g -> chi^+_2 b t_bar)
     1.44750329E-02    3    -1000037        -5         6   # BR(~g -> chi^-_2 b_bar t)
DECAY        25     3.66791898E-03   # Gamma(h0)
     2.49872735E-03   2        22        22   # BR(h0 -> photon photon)
     1.59828921E-03   2        22        23   # BR(h0 -> photon Z)
     2.95040924E-02   2        23        23   # BR(h0 -> Z Z)
     2.43396000E-01   2       -24        24   # BR(h0 -> W W)
     7.67608853E-02   2        21        21   # BR(h0 -> gluon gluon)
     4.99845665E-09   2       -11        11   # BR(h0 -> Electron electron)
     2.22340317E-04   2       -13        13   # BR(h0 -> Muon muon)
     6.40783177E-02   2       -15        15   # BR(h0 -> Tau tau)
     1.36514240E-07   2        -2         2   # BR(h0 -> Up up)
     2.64942080E-02   2        -4         4   # BR(h0 -> Charm charm)
     5.76668890E-07   2        -1         1   # BR(h0 -> Down down)
     2.08567874E-04   2        -3         3   # BR(h0 -> Strange strange)
     5.55237853E-01   2        -5         5   # BR(h0 -> Bottom bottom)
DECAY        35     2.59086497E+01   # Gamma(HH)
     1.06615043E-07   2        22        22   # BR(HH -> photon photon)
     3.09027325E-07   2        22        23   # BR(HH -> photon Z)
     4.66306160E-06   2        23        23   # BR(HH -> Z Z)
     5.53039503E-06   2       -24        24   # BR(HH -> W W)
     2.68059388E-05   2        21        21   # BR(HH -> gluon gluon)
     6.76198842E-09   2       -11        11   # BR(HH -> Electron electron)
     3.00983750E-04   2       -13        13   # BR(HH -> Muon muon)
     8.56867048E-02   2       -15        15   # BR(HH -> Tau tau)
     1.11101102E-13   2        -2         2   # BR(HH -> Up up)
     2.15466687E-08   2        -4         4   # BR(HH -> Charm charm)
     1.45311011E-03   2        -6         6   # BR(HH -> Top top)
     5.33787238E-07   2        -1         1   # BR(HH -> Down down)
     1.93069886E-04   2        -3         3   # BR(HH -> Strange strange)
     5.13644533E-01   2        -5         5   # BR(HH -> Bottom bottom)
     2.26913431E-02   2  -1000024   1000024   # BR(HH -> Chargino1 chargino1)
     1.10094766E-01   2  -1000024   1000037   # BR(HH -> Chargino1 chargino2)
     1.10094766E-01   2  -1000037   1000024   # BR(HH -> Chargino2 chargino1)
     2.41493955E-04   2  -1000037   1000037   # BR(HH -> Chargino2 chargino2)
     7.38123035E-03   2   1000022   1000022   # BR(HH -> neutralino1 neutralino1)
     5.03497413E-04   2   1000022   1000023   # BR(HH -> neutralino1 neutralino2)
     5.82253147E-03   2   1000022   1000025   # BR(HH -> neutralino1 neutralino3)
     5.90125954E-02   2   1000022   1000035   # BR(HH -> neutralino1 neutralino4)
     2.73774396E-03   2   1000023   1000023   # BR(HH -> neutralino2 neutralino2)
     7.07665229E-03   2   1000023   1000025   # BR(HH -> neutralino2 neutralino3)
     7.27563953E-02   2   1000023   1000035   # BR(HH -> neutralino2 neutralino4)
     3.39418454E-06   2   1000025   1000025   # BR(HH -> neutralino3 neutralino3)
     4.88031058E-05   2   1000025   1000035   # BR(HH -> neutralino3 neutralino4)
     1.62849158E-04   2   1000035   1000035   # BR(HH -> neutralino4 neutralino4)
     3.25611847E-05   2        25        25   # BR(HH -> h0 h0)
     4.41737589E-07   2  -1000011   1000011   # BR(HH -> Selectron1 selectron1)
     4.39520902E-07   2  -1000013   1000013   # BR(HH -> Smuon1 smuon1)
     1.91111477E-05   2  -1000015   1000015   # BR(HH -> Stau1 stau1)
DECAY        36     2.54536735E+01   # Gamma(A0)
     3.63791328E-07   2        22        22   # BR(A0 -> photon photon)
     5.98029259E-07   2        22        23   # BR(A0 -> photon Z)
     5.05557862E-05   2        21        21   # BR(A0 -> gluon gluon)
     6.68248044E-09   2       -11        11   # BR(A0 -> Electron electron)
     2.97444610E-04   2       -13        13   # BR(A0 -> Muon muon)
     8.46805960E-02   2       -15        15   # BR(A0 -> Tau tau)
     1.06058245E-13   2        -2         2   # BR(A0 -> Up up)
     2.05635332E-08   2        -4         4   # BR(A0 -> Charm charm)
     1.54526282E-03   2        -6         6   # BR(A0 -> Top top)
     5.27497235E-07   2        -1         1   # BR(A0 -> Down down)
     1.90794694E-04   2        -3         3   # BR(A0 -> Strange strange)
     5.07606965E-01   2        -5         5   # BR(A0 -> Bottom bottom)
     2.48459354E-02   2  -1000024   1000024   # BR(A0 -> Chargino1 chargino1)
     1.10650397E-01   2  -1000024   1000037   # BR(A0 -> Chargino1 chargino2)
     1.10650397E-01   2  -1000037   1000024   # BR(A0 -> Chargino2 chargino1)
     1.24538870E-03   2  -1000037   1000037   # BR(A0 -> Chargino2 chargino2)
     8.70208589E-03   2   1000022   1000022   # BR(A0 -> neutralino1 neutralino1)
     2.58011116E-04   2   1000022   1000023   # BR(A0 -> neutralino1 neutralino2)
     7.75161155E-03   2   1000022   1000025   # BR(A0 -> neutralino1 neutralino3)
     8.04788744E-02   2   1000022   1000035   # BR(A0 -> neutralino1 neutralino4)
     2.55754354E-03   2   1000023   1000023   # BR(A0 -> neutralino2 neutralino2)
     5.22771999E-03   2   1000023   1000025   # BR(A0 -> neutralino2 neutralino3)
     5.22003233E-02   2   1000023   1000035   # BR(A0 -> neutralino2 neutralino4)
     1.20269285E-05   2   1000025   1000025   # BR(A0 -> neutralino3 neutralino3)
     2.03774871E-04   2   1000025   1000035   # BR(A0 -> neutralino3 neutralino4)
     8.36094194E-04   2   1000035   1000035   # BR(A0 -> neutralino4 neutralino4)
     6.67970989E-06   2        23        25   # BR(A0 -> Z h0)
     3.50194093E-37   2        25        25   # BR(A0 -> h0 h0)
DECAY        37     2.62436685E+01   # Gamma(Hp)
     7.24610744E-09   2       -11        12   # BR(Hp -> Electron nu_e)
     3.09793720E-04   2       -13        14   # BR(Hp -> Muon nu_mu)
     8.76268997E-02   2       -15        16   # BR(Hp -> Tau nu_tau)
     5.25857230E-07   2        -1         2   # BR(Hp -> Down up)
     8.76774021E-06   2        -3         2   # BR(Hp -> Strange up)
     5.64586362E-06   2        -5         2   # BR(Hp -> Bottom up)
     2.53468439E-08   2        -1         4   # BR(Hp -> Down charm)
     1.89534140E-04   2        -3         4   # BR(Hp -> Strange charm)
     7.90621179E-04   2        -5         4   # BR(Hp -> Bottom charm)
     1.14289667E-07   2        -1         6   # BR(Hp -> Down top)
     2.75762730E-06   2        -3         6   # BR(Hp -> Strange top)
     5.19163793E-01   2        -5         6   # BR(Hp -> Bottom top)
     1.89196243E-04   2   1000022   1000024   # BR(Hp -> neutralino1 chargino1)
     1.27718030E-01   2   1000022   1000037   # BR(Hp -> neutralino1 chargino2)
     3.26808400E-03   2   1000023   1000024   # BR(Hp -> neutralino2 chargino1)
     1.06278102E-01   2   1000023   1000037   # BR(Hp -> neutralino2 chargino2)
     6.59389418E-02   2   1000024   1000025   # BR(Hp -> chargino1 neutralino3)
     5.49872105E-04   2   1000025   1000037   # BR(Hp -> neutralino3 chargino2)
     8.79343923E-02   2   1000024   1000035   # BR(Hp -> chargino1 neutralino4)
     1.48249197E-05   2   1000035   1000037   # BR(Hp -> neutralino4 chargino2)
     6.60239469E-06   2        24        25   # BR(Hp -> W h0)
     2.17063536E-10   2        24        35   # BR(Hp -> W HH)
     1.77915422E-10   2        24        36   # BR(Hp -> W A0)
     1.73608597E-06   2  -1000011   1000012   # BR(Hp -> Selectron1 snu_e1)
     1.73294630E-06   2  -1000013   1000014   # BR(Hp -> Smuon1 snu_mu1)
DECAY         6     2.43000000E+00   # top
#    BR                NDA      ID1      ID2
     1.00000000E+00    2           5        24   # BR(t -> b W)
Block HiggsBoundsInputHiggsCouplingsFermions
# ScalarNormEffCoupSq PseudoSNormEffCoupSq NP IP1 IP2 IP2
    9.68329106E-01    0.00000000E+00        3  25   5   5  # h0-b-b eff. coupling^2, normalised to SM
    9.57284368E+02    0.00000000E+00        3  35   5   5  # H0-b-b eff. coupling^2, normalised to SM
    0.00000000E+00    9.57252697E+02        3  36   5   5  # A0-b-b eff. coupling^2, normalised to SM
#
    1.00003309E+00    0.00000000E+00        3  25   6   6  # h0-t-t eff. coupling^2, normalised to SM
    1.01157104E-03    0.00000000E+00        3  35   6   6  # H0-t-t eff. coupling^2, normalised to SM
    0.00000000E+00    1.04465624E-03        3  36   6   6  # A0-t-t eff. coupling^2, normalised to SM
#
    9.68329106E-01    0.00000000E+00        3  25  15  15  # h0-tau-tau eff. coupling^2, normalised to SM
    9.57284368E+02    0.00000000E+00        3  35  15  15  # H0-tau-tau eff. coupling^2, normalised to SM
    0.00000000E+00    9.57252697E+02        3  36  15  15  # A0-tau-tau eff. coupling^2, normalised to SM
#
Block HiggsBoundsInputHiggsCouplingsBosons
    9.99999734E-01        3  25  24  24  # h0-W-W eff. coupling^2, normalised to SM
    2.66187219E-07        3  35  24  24  # H0-W-W eff. coupling^2, normalised to SM
    0.00000000E+00        3  36  24  24  # A0-W-W eff. coupling^2, normalised to SM
#
    9.99999734E-01        3  25  23  23  # h0-Z-Z eff. coupling^2, normalised to SM
    2.66187219E-07        3  35  23  23  # H0-Z-Z eff. coupling^2, normalised to SM
    0.00000000E+00        3  36  23  23  # A0-Z-Z eff. coupling^2, normalised to SM
#
    1.26660623E+00        3  25  21  21  # h0-g-g eff. coupling^2, normalised to SM
    1.02418927E-02        3  35  21  21  # H0-g-g eff. coupling^2, normalised to SM
    1.27095776E-01        3  36  21  21  # A0-g-g eff. coupling^2, normalised to SM
#
    0.00000000E+00        3  25  25  23  # h0-h0-Z eff. coupling^2, normalised to SM
    0.00000000E+00        3  35  25  23  # H0-h0-Z eff. coupling^2, normalised to SM
    2.66187219E-07        3  36  25  23  # A0-h0-Z eff. coupling^2, normalised to SM
    0.00000000E+00        3  35  35  23  # H0-H0-Z eff. coupling^2, normalised to SM
    9.99999734E-01        3  36  35  23  # A0-H0-Z eff. coupling^2, normalised to SM
    0.00000000E+00        3  36  36  23  # A0-A0-Z eff. coupling^2, normalised to SM
#
    0.00000000E+00        4  25  21  21  23  # h0-g-g-Z eff. coupling^2, normalised to SM
    0.00000000E+00        4  35  21  21  23  # H0-g-g-Z eff. coupling^2, normalised to SM
    0.00000000E+00        4  36  21  21  23  # A0-g-g-Z eff. coupling^2, normalised to SM
Block SPhenoLowEnergy  # low energy observables
    1    3.58930249E-04   # BR(b -> s gamma)
    2    1.58691554E-06   # BR(b -> s mu+ mu-)
    3    3.52443765E-05   # BR(b -> s nu nu)
    4    1.94850661E-15   # BR(Bd -> e+ e-)
    5    8.32379699E-11   # BR(Bd -> mu+ mu-)
    6    1.74233634E-08   # BR(Bd -> tau+ tau-)
    7    6.61870824E-14   # BR(Bs -> e+ e-)
    8    2.82751022E-09   # BR(Bs -> mu+ mu-)
    9    5.99733816E-07   # BR(Bs -> tau+ tau-)
   10    9.19729262E-05   # BR(B_u -> tau nu)
   11    9.50045117E-01   # BR(B_u -> tau nu)/BR(B_u -> tau nu)_SM
   12    5.42059071E-01   # |Delta(M_Bd)| [ps^-1] 
   13    1.93428055E+01   # |Delta(M_Bs)| [ps^-1] 
   14    0.00000000E+00   # neutron EDM according to the chiral quark model
   15    0.00000000E+00   # neutron EDM according to the relativistic quark-parton model
   16    2.15785891E-03   # epsilon_K
   17    2.28166940E-15   # Delta(M_K)
   18    2.47946771E-11   # BR(K^0 -> pi^0 nu nu)
   19    8.28918193E-11   # BR(K^+ -> pi^+ nu nu)
   20    2.03221752E-14   # Delta(g-2)_electron/2
   21    8.68933192E-10   # Delta(g-2)_muon/2
   22    2.57414673E-07   # Delta(g-2)_tau/2
   23    0.00000000E+00   # electric dipole moment of the electron
   24    0.00000000E+00   # electric dipole moment of the muon
   25    0.00000000E+00   # electric dipole moment of the tau
   26    0.00000000E+00   # Br(mu -> e gamma)
   27    0.00000000E+00   # Br(tau -> e gamma)
   28    0.00000000E+00   # Br(tau -> mu gamma)
   29    0.00000000E+00   # Br(mu -> 3 e)
   30    0.00000000E+00   # Br(tau -> 3 e)
   31    0.00000000E+00   # Br(tau -> 3 mu)
   39    9.17771785E-05   # Delta(rho_parameter)
   40    0.00000000E+00   # BR(Z -> e mu)
   41    0.00000000E+00   # BR(Z -> e tau)
   42    0.00000000E+00   # BR(Z -> mu tau)
Block FWCOEF Q=  1.60000000E+02  # Wilson coefficients at scale Q
#    id        order  M        value         comment
     0305 4422   00   0    -1.88819110E-01   # C7
     0305 4422   00   2    -2.29170252E-01   # C7
     0305 4322   00   2    -6.66953992E-04   # C7'
     0305 6421   00   0    -9.52278348E-02   # C8
     0305 6421   00   2    -1.34158705E-01   # C8
     0305 6321   00   2    -7.11460823E-04   # C8'
 03051111 4133   00   0     1.62693206E+00   # C9 e+e-
 03051111 4133   00   2     1.62713531E+00   # C9 e+e-
 03051111 4233   00   2     1.61317353E-04   # C9' e+e-
 03051111 4137   00   0    -4.44962417E+00   # C10 e+e-
 03051111 4137   00   2    -4.44708752E+00   # C10 e+e-
 03051111 4237   00   2    -1.19155050E-03   # C10' e+e-
 03051313 4133   00   0     1.62693206E+00   # C9 mu+mu-
 03051313 4133   00   2     1.62713369E+00   # C9 mu+mu-
 03051313 4233   00   2     1.61313121E-04   # C9' mu+mu-
 03051313 4137   00   0    -4.44962417E+00   # C10 mu+mu-
 03051313 4137   00   2    -4.44708913E+00   # C10 mu+mu-
 03051313 4237   00   2    -1.19154731E-03   # C10' mu+mu-
 03051212 4137   00   0     1.50535012E+00   # C11 nu_1 nu_1
 03051212 4137   00   2     1.50482318E+00   # C11 nu_1 nu_1
 03051212 4237   00   2     2.57631418E-04   # C11' nu_1 nu_1
 03051414 4137   00   0     1.50535012E+00   # C11 nu_2 nu_2
 03051414 4137   00   2     1.50482318E+00   # C11 nu_2 nu_2
 03051414 4237   00   2     2.57632279E-04   # C11' nu_2 nu_2
 03051616 4137   00   0     1.50535012E+00   # C11 nu_3 nu_3
 03051616 4137   00   2     1.50482337E+00   # C11 nu_3 nu_3
 03051616 4237   00   2     2.57875093E-04   # C11' nu_3 nu_3
Block IMFWCOEF Q=  1.60000000E+02  # Im(Wilson coefficients) at scale Q
#    id        order  M        value         comment
     0305 4422   00   0     3.85818041E-07   # C7
     0305 4422   00   2     1.38870620E-06   # C7
     0305 4322   00   2    -1.00606077E-06   # C7'
     0305 6421   00   0     3.30478668E-07   # C8
     0305 6421   00   2     3.79917167E-05   # C8
     0305 6321   00   2     2.49302796E-07   # C8'
 03051111 4133   00   2    -7.75770059E-07   # C9 e+e-
 03051111 4233   00   2     4.98609529E-06   # C9' e+e-
 03051111 4137   00   2     3.11224693E-06   # C10 e+e-
 03051111 4237   00   2    -3.68622155E-05   # C10' e+e-
 03051313 4133   00   2    -7.75786936E-07   # C9 mu+mu-
 03051313 4233   00   2     4.98609085E-06   # C9' mu+mu-
 03051313 4137   00   2     3.11227058E-06   # C10 mu+mu-
 03051313 4237   00   2    -3.68622296E-05   # C10' mu+mu-
 03051212 4137   00   2    -2.84831943E-07   # C11 nu_1 nu_1
 03051212 4237   00   2     7.97033876E-06   # C11' nu_1 nu_1
 03051414 4137   00   2    -2.84832046E-07   # C11 nu_2 nu_2
 03051414 4237   00   2     7.97033876E-06   # C11' nu_2 nu_2
 03051616 4137   00   2    -2.87590330E-07   # C11 nu_3 nu_3
 03051616 4237   00   2     7.97034186E-06   # C11' nu_3 nu_3
