BLOCK SPINFO
   1   SPheno
   2   v4.0.5be

BLOCK SPHENOINFO
   1   2
   2   2

BLOCK MODSEL
   1   0

BLOCK MINPAR
   3    26.534582
   4    1

BLOCK EXTPAR
   0    1749.0494
   1   -50.259581
   2    2288.1701
   3    3421.6864
   11    3717.3829
   12    1432.7145
   13   -3346.5923
   23    123.10264
   25    25.585637
   26    1208.0677
   31    3380.4233
   32    3380.4233
   33    4266.2302
   34    3835.7049
   35    3835.7049
   36    1006.1041
   41    2319.9365
   42    2319.9365
   43    2756.2243
   44    3488.9898
   45    3488.9898
   46    1146.605
   47    2288.6184
   48    2288.6184
   49    4446.4086

BLOCK SMINPUTS
   1    127.90897
   2    1.1663787e-05
   3    0.1184
   4    91.1876
   5    4.18
   6    173.2
   7    1.777
   8    0
   11    0.00051099893
   12    0
   13    0.10565837
   14    0
   21    0.005
   22    0.0025
   23    0.095
   24    1.27

BLOCK GAUGE Q=  1749.0494
   1    0.35536298
   2    0.66519887
   3    1.219778

BLOCK YU Q=  1749.0494
   1   1    8.3907736e-06
   2   2    0.004262513
   3   3    1.0136729

BLOCK YD Q=  1749.0494
   1   1    0.00043139835
   2   2    0.0081965687
   3   3    0.42781199

BLOCK YE Q=  1749.0494
   1   1    7.5282168e-05
   2   2    0.015565965
   3   3    0.26179392

BLOCK AU Q=  1749.0494
   1   1    0
   2   2    0
   3   3    3717.3829

BLOCK AD Q=  1749.0494
   1   1    0
   2   2    0
   3   3    1432.7145

BLOCK AE Q=  1749.0494
   1   1    0
   2   2    0
   3   3   -3346.5923

BLOCK MSOFT Q=  1749.0494
   1   -50.259581
   2    2288.1701
   3    3421.6864
   21    1364386
   22   -17037.082
   31    3380.4233
   32    3380.4233
   33    4266.2302
   34    3835.7049
   35    3835.7049
   36    1006.1041
   41    2319.9365
   42    2319.9365
   43    2756.2243
   44    3488.9898
   45    3488.9898
   46    1146.605
   47    2288.6184
   48    2288.6184
   49    4446.4086

BLOCK MASS
   6    173.2
   23    91.1876
   24    80.429995
   15    1.777
   25    123.78857
   35    1208.0522
   36    1208.0677
   37    1211.0781
   1000001    2377.6666
   2000001    2330.2245
   1000002    2376.43
   2000002    3537.6386
   1000003    2377.6656
   2000003    2330.2227
   1000004    2376.4292
   2000004    3537.6384
   1000005    2786.4823
   2000005    4474.4609
   1000006    1093.2816
   2000006    2798.1575
   1000011    3389.3765
   2000011    3837.9413
   1000012    3388.0617
   1000013    3389.3758
   2000013    3837.9387
   1000014    3388.061
   1000015    1011.2674
   2000015    4272.9786
   1000016    4272.6699
   1000021    3428.5818
   1000022   -45.118298
   1000023    132.01386
   1000025   -139.14113
   1000035    2320.2222
   1000024    126.9551
   1000037    2320.4231

BLOCK ALPHA
      -0.038284097

BLOCK HMIX Q=  1749.0494
   1    123.10264
   2    25.585637
   3    243.81409
   4    1459427.5

BLOCK STOPMIX
   1   1   -0.086310483
   1   2    0.99626829
   2   1   -0.99626829
   2   2   -0.086310483

BLOCK SBOTMIX
   1   1    0.99999995
   1   2    0.00031501549
   2   1   -0.00031501549
   2   2    0.99999995

BLOCK STAUMIX
   1   1    0.00066897103
   1   2    0.99999978
   2   1   -0.99999978
   2   2    0.00066897103

BLOCK NMIX
   1   1   -0.92150876
   1   2   -0.0035138782
   1   3   -0.36960334
   1   4   -0.11917478
   2   1   -0.18215563
   2   2   -0.026004419
   2   3    0.68248511
   2   4   -0.70735929
   3   1    0.34298751
   3   2   -0.021194808
   3   3   -0.63055366
   3   4   -0.69592559
   4   1    0.00070576829
   4   2   -0.99943094
   4   3   -0.0030861806
   4   4    0.033582353

BLOCK UMIX
   1   1   -0.0043567967
   1   2    0.99999051
   2   1    0.99999051
   2   2    0.0043567967

BLOCK VMIX
   1   1   -0.047437582
   1   2    0.9988742
   2   1    0.9988742
   2   2    0.047437582

BLOCK HIGGSBOUNDSINPUTHIGGSCOUPLINGSFERMIONS
       0, 654.62482,3,36,15,15

BLOCK HIGGSBOUNDSINPUTHIGGSCOUPLINGSBOSONS
       0,4,36,21,21,23

BLOCK SPHENOLOWENERGY
   1    0.00035920012
   2    1.5863556e-06
   3    3.5225997e-05
   4    2.2412222e-15
   5    9.5742341e-11
   6    2.0034968e-08
   7    7.5174743e-14
   8    3.2114578e-09
   9    6.8087998e-07
   10    9.3981716e-05
   11    0.97079515
   12    0.54304867
   13    19.391233
   14    0
   15    0
   16    0.0021621113
   17    2.2817103e-15
   18    2.4785648e-11
   19    8.2860591e-11
   20    1.2926265e-15
   21    5.5263643e-11
   22    1.2948507e-08
   23    0
   24    0
   25    0
   26    0
   27    0
   28    0
   29    0
   30    0
   31    0
   39    6.7218453e-05
   40    0
   41    0
   42    0

BLOCK FWCOEF Q=  160
   305   4422   0   0   -0.18881911
   305   4422   0   2   -0.22988229
   305   4322   0   2   -0.00086582296
   305   6421   0   0   -0.095227835
   305   6421   0   2   -0.13301208
   305   6321   0   2   -0.00077177104
   3051111   4133   0   0    1.5974121
   3051111   4133   0   2    1.5985699
   3051111   4233   0   2    5.1923564e-06
   3051111   4137   0   0   -4.4201042
   3051111   4137   0   2   -4.4158307
   3051111   4237   0   2   -3.9707511e-05
   3051313   4133   0   0    1.5974121
   3051313   4133   0   2    1.5985694
   3051313   4233   0   2    5.1909492e-06
   3051313   4137   0   0   -4.4201042
   3051313   4137   0   2   -4.4158312
   3051313   4237   0   2   -3.9706299e-05
   3051212   4137   0   0    1.5053501
   3051212   4137   0   2    1.5044209
   3051212   4237   0   2    8.645004e-06
   3051414   4137   0   0    1.5053501
   3051414   4137   0   2    1.5044209
   3051414   4237   0   2    8.6453001e-06
   3051616   4137   0   0    1.5053501
   3051616   4137   0   2    1.5044209
   3051616   4237   0   2    8.7286431e-06

BLOCK IMFWCOEF Q=  160
   305   4422   0   0    3.8581119e-07
   305   4422   0   2    6.9660628e-06
   305   4322   0   2   -6.4419325e-06
   305   6421   0   0    3.304728e-07
   305   6421   0   2    1.4351731e-06
   305   6321   0   2   -2.8807379e-06
   3051111   4133   0   2   -1.9204431e-06
   3051111   4233   0   2    1.296015e-06
   3051111   4137   0   2    1.5614986e-05
   3051111   4237   0   2   -1.0012831e-05
   3051313   4133   0   2   -1.9204385e-06
   3051313   4233   0   2    1.2960142e-06
   3051313   4137   0   2    1.5614992e-05
   3051313   4237   0   2   -1.0012834e-05
   3051212   4137   0   2   -3.382172e-06
   3051212   4237   0   2    2.1795256e-06
   3051414   4137   0   2   -3.382172e-06
   3051414   4237   0   2    2.1795256e-06
   3051616   4137   0   2   -3.3818672e-06
   3051616   4237   0   2    2.179524e-06

DECAY 23  2.4952


DECAY 24  2.085


DECAY 1000011  16.909745
    0.49806693   2   -1000037    12
    0.24864311   2    1000035    11
    0.21679542   2    1000022    11
    0.023085812   2    1000025    11
    0.013375328   2    1000023    11

DECAY 2000011  19.272249
    0.84947246   2    1000022    11
    0.11740448   2    1000025    11
    0.033122833   2    1000023    11

DECAY 1000013  16.926024
    0.49758744   2   -1000037    14
    0.24840375   2    1000035    13
    0.21671869   2    1000022    13
    0.023446075   2    1000025    13
    0.013810683   2    1000023    13

DECAY 2000013  19.309158
    0.84797901   2    1000022    13
    0.11755995   2    1000025    13
    0.033504723   2    1000023    13
    0.00095599967   2   -1000024    14

DECAY 1000015  7.7080519
    0.58193974   2    1000022    15
    0.1732887   2   -1000024    16
    0.14311415   2    1000025    15
    0.10165741   2    1000023    15

DECAY 2000015  42.308748
    0.44200709   2   -1000037    16
    0.22062268   2    1000035    15
    0.12799921   2    1000022    15
    0.070780674   2    1000023    15
    0.066323186   2    1000025    15
    0.035898292   2    1000015    35
    0.035894   2    1000015    36
    0.00023578241   2    1000015    23
    0.00022420552   2    1000015    25

DECAY 1000012  16.917082
    0.49586749   2    1000037    11
    0.2484735   2    1000035    12
    0.21051991   2    1000022    12
    0.036714222   2    1000025    12
    0.0044686073   2    1000023    12
    0.0039562719   2    1000024    11

DECAY 1000014  16.933354
    0.49539051   2    1000037    13
    0.24823449   2    1000035    14
    0.21031757   2    1000022    14
    0.036678933   2    1000025    14
    0.0049141867   2    1000024    13
    0.0044643122   2    1000023    14

DECAY 1000016  42.329014
    0.44072567   2    1000037    15
    0.22080602   2    1000035    16
    0.13937882   2    1000024    15
    0.10611718   2    1000022    16
    0.07171878   2    1000015    37
    0.018527388   2    1000025    16
    0.0022547461   2    1000023    16
    0.00047139441   2    1000015    24

DECAY 2000001  1.2987697
    0.84996549   2    1000022    1
    0.11700152   2    1000025    1
    0.033026384   2    1000023    1

DECAY 1000001  0.41205183
    0.65446674   2    1000022    1
    0.1707443   2    1000025    1
    0.11495131   2   -1000037    2
    0.057824548   2    1000035    1
    0.0010543817   2    1000023    1
    0.00095871732   2   -1000024    2

DECAY 2000003  1.304944
    0.84626806   2    1000022    3
    0.11738768   2    1000025    3
    0.033971742   2    1000023    3
    0.0023725166   2   -1000024    4

DECAY 1000003  0.41603918
    0.64923367   2    1000022    3
    0.17211626   2    1000025    3
    0.11381259   2   -1000037    4
    0.057268225   2    1000035    3
    0.0045705477   2    1000023    3
    0.0029987088   2   -1000024    4

DECAY 1000005  136.48059
    0.4846676   2    1000006   -24
    0.41146703   2   -1000024    6
    0.034472313   2    1000023    5
    0.030009928   2    1000025    5
    0.016316252   2   -1000037    6
    0.012474836   2    1000022    5
    0.0084433943   2    1000035    5
    0.0021486485   2    1000006   -37

DECAY 2000005  96.597145
    0.62318914   2    1000021    5
    0.16787956   2   -1000024    6
    0.079285856   2    1000023    5
    0.069982279   2    1000025    5
    0.044969134   2    1000022    5
    0.0073123823   2    2000006   -37
    0.0036641085   2    1000005    36
    0.0036638984   2    1000005    35

DECAY 1000002  0.46059705
    0.63752153   2    1000022    2
    0.10164376   2    1000024    1
    0.098323001   2    1000037    1
    0.077084222   2    1000023    2
    0.049553265   2    1000035    2
    0.035874217   2    1000025    2

DECAY 2000002  8.9233746
    0.75156053   2    1000022    2
    0.11531628   2    1000021    2
    0.10382889   2    1000025    2
    0.029294166   2    1000023    2

DECAY 1000004  0.4645888
    0.63206933   2    1000022    4
    0.10754869   2    1000024    3
    0.097474715   2    1000037    3
    0.077340137   2    1000023    4
    0.049111076   2    1000035    4
    0.036456052   2    1000025    4

DECAY 2000004  8.9258274
    0.75135578   2    1000022    4
    0.11527436   2    1000021    4
    0.10386932   2    1000025    4
    0.029357673   2    1000023    4
    0.00014257021   2    1000024    3

DECAY 1000006  44.326143
    0.48398497   2    1000024    5
    0.23914332   2    1000023    6
    0.22343689   2    1000025    6
    0.053434771   2    1000022    6

DECAY 2000006  146.20746
    0.28212447   2    1000006    25
    0.22814749   2    1000006    23
    0.19183986   2    1000023    6
    0.19150228   2    1000025    6
    0.074228443   2    1000024    5
    0.01607063   2    1000037    5
    0.0078022341   2    1000035    6
    0.006292478   2    1000022    6
    0.0010213128   2    1000006    36
    0.00097080142   2    1000006    35

DECAY 1000024  0.020862426
    0.99999902   2    1000022    24

DECAY 1000037  31.48193
    0.16225266   2    1000024    25
    0.15410878   2    1000023    24
    0.15146791   2    1000024    23
    0.14427162   2    1000025    24
    0.084750091   2    1000024    35
    0.084733632   2    1000024    36
    0.078815009   2    37    1000023
    0.069109398   2    37    1000025
    0.023264003   2    37    1000022
    0.014749767   2    1000006   -5
    0.011187749   3    1000024    6   -6
    0.0077414217   3    1000023   -5    6
    0.0071787261   3    1000025   -5    6
    0.0059025615   2    1000022    24
    0.00028342738   3    1000022   -5    6

DECAY 1000022 -1


DECAY 1000023  0.0032507494
    0.20386645   3    1000022    12   -12
    0.15244082   3    1000022    1   -1
    0.15243981   3    1000022    3   -3
    0.15033241   3    1000022    5   -5
    0.11889975   3    1000022    2   -2
    0.11870773   3    1000022    4   -4
    0.034394547   3    1000022    11   -11
    0.034394137   3    1000022    13   -13
    0.034242555   3    1000022    15   -15
    0.00027950665   2    1000022    22

DECAY 1000025  0.006821329
    0.9995817   2    1000022    23
    0.00014565066   2    1000022    22

DECAY 1000035  31.85178
    0.14965281   2    1000024   -24
    0.14965281   2   -1000024    24
    0.095963658   2    1000023    25
    0.084636174   2    1000025    23
    0.083446712   2    37   -1000024
    0.083446712   2   -37    1000024
    0.078763408   2    1000025    25
    0.061951341   2    1000023    23
    0.04262227   2    1000025    35
    0.042069424   2    1000023    35
    0.036117514   2    1000023    36
    0.025860329   2    1000025    36
    0.012473788   2    1000022    35
    0.010588489   2    1000022    36
    0.0071635962   2    1000006   -6
    0.0071635962   2   -1000006    6
    0.0066173446   3    1000024    5   -6
    0.0066173446   3   -1000024   -5    6
    0.0045863933   3    1000023    6   -6
    0.0042838796   3    1000025    6   -6
    0.0035251626   2    1000022    23
    0.0024400693   2    1000022    25
    0.00017225386   3    1000022    6   -6

DECAY 1000021  273.837
    0.15232051   2    1000006   -6
    0.15232051   2   -1000006    6
    0.053651195   2    2000003   -3
    0.053651195   2   -2000003    3
    0.053651055   2    2000001   -1
    0.053651055   2   -2000001    1
    0.050025267   2    1000004   -4
    0.050025267   2   -1000004    4
    0.050025223   2    1000002   -2
    0.050025223   2   -1000002    2
    0.049929046   2    1000003   -3
    0.049929046   2   -1000003    3
    0.049928972   2    1000001   -1
    0.049928972   2   -1000001    1
    0.021355639   2    1000005   -5
    0.021355639   2   -1000005    5
    0.018979478   2    2000006   -6
    0.018979478   2   -2000006    6

DECAY 25  0.0047016148
    0.48251352   2   -5    5
    0.19236268   2    1000022    1000022
    0.16571662   2   -24    24
    0.057870705   2    21    21
    0.05542595   2   -15    15
    0.023186429   2   -4    4
    0.019580221   2    23    23
    0.0018622772   2    22    22
    0.0011075561   2    22    23
    0.00019222594   2   -13    13
    0.0001811865   2   -3    3
    5.0096214e-07   2   -1    1
    1.194883e-07   2   -2    2
    4.3214653e-09   2   -11    11

DECAY 35  13.720702
    0.76309558   2   -5    5
    0.12898905   2   -15    15
    0.031354049   2    1000022    1000023
    0.023461147   2    1000022    1000022
    0.021089309   2    1000022    1000025
    0.012112677   2    1000025    1000025
    0.011325794   2    1000023    1000025
    0.0046922957   2   -6    6
    0.0016654297   2   -1000024    1000024
    0.0013393413   2    1000023    1000023
    0.00044791668   2   -13    13
    0.0002935939   2   -3    3
    8.2705126e-05   2    25    25
    2.7331545e-05   2    21    21
    1.1799578e-05   2   -24    24
    1.1033086e-05   2    23    23
    8.117425e-07   2   -1    1
    7.0295394e-08   2   -4    4
    2.9202608e-08   2    22    22
    2.0777523e-08   2    22    23
    1.0062779e-08   2   -11    11
    3.6245745e-13   2   -2    2

DECAY 36  13.395999
    0.76067952   2   -5    5
    0.12857902   2   -15    15
    0.037587903   2    1000022    1000023
    0.022969787   2    1000022    1000022
    0.017890885   2    1000022    1000025
    0.01198682   2    1000023    1000025
    0.011040352   2    1000025    1000025
    0.0049556576   2   -6    6
    0.001804172   2   -1000024    1000024
    0.0016791388   2    1000023    1000023
    0.00044648873   2   -13    13
    0.00029265762   2   -3    3
    7.0904426e-05   2    21    21
    1.5561683e-05   2    23    25
    8.0915385e-07   2   -1    1
    1.6644667e-07   2    22    22
    8.0554499e-08   2    22    23
    6.7796858e-08   2   -4    4
    1.0030698e-08   2   -11    11
    3.4960501e-13   2   -2    2
    1.4976794e-37   2    25    25

DECAY 37  12.803955
    0.75607903   2   -5    6
    0.13318219   2   -15    16
    0.094611886   2    1000022    1000024
    0.0090415431   2    1000024    1000025
    0.0051475808   2    1000023    1000024
    0.001139509   2   -5    4
    0.00047084828   2   -13    14
    0.00028016636   2   -3    4
    1.6472004e-05   2    24    25
    1.297255e-05   2   -3    2
    8.4673715e-06   2   -3    6
    8.1372848e-06   2   -5    2
    7.7723284e-07   2   -1    2
    3.7018818e-07   2   -1    6
    3.9395233e-08   2   -1    4
    1.101319e-08   2   -11    12
    2.6904591e-11   2    24    35
    2.622279e-11   2    24    36

DECAY 6  2.43
    1   2    5    24

DECAY 15 -1
