BLOCK SPINFO
   1   SPheno
   2   v4.0.5be

BLOCK SPHENOINFO
   1   2
   2   2

BLOCK MODSEL
   1   0

BLOCK MINPAR
   3    38.132885
   4   -1

BLOCK EXTPAR
   0    2999.423
   1    3595.5372
   2    1591.5588
   3    3171.1414
   11    2068.0974
   12   -1785.9696
   13   -1851.0472
   23   -549.51691
   25    37.164939
   26    2047.9165
   31    1254.4213
   32    1254.4213
   33    3584.2437
   34    3768.46
   35    3768.46
   36    1724.1548
   41    3021.7243
   42    3021.7243
   43    2306.7991
   44    2504.1634
   45    2504.1634
   46    3665.8006
   47    719.3535
   48    719.3535
   49    2878.4662

BLOCK SMINPUTS
   1    127.90897
   2    1.1663787e-05
   3    0.1184
   4    91.1876
   5    4.18
   6    173.2
   7    1.777
   8    0
   11    0.00051099893
   12    0
   13    0.10565837
   14    0
   21    0.005
   22    0.0025
   23    0.095
   24    1.27

BLOCK GAUGE Q=  2999.423
   1    0.35536298
   2    0.66519887
   3    1.219778

BLOCK YU Q=  2999.423
   1   1    8.3874067e-06
   2   2    0.0042608026
   3   3    1.0132661

BLOCK YD Q=  2999.423
   1   1    0.00062638503
   2   2    0.011901316
   3   3    0.62117767

BLOCK YE Q=  2999.423
   1   1    0.00010930877
   2   2    0.022601586
   3   3    0.3801215

BLOCK AU Q=  2999.423
   1   1    0
   2   2    0
   3   3    2068.0972

BLOCK AD Q=  2999.423
   1   1    0
   2   2    0
   3   3   -1785.9691

BLOCK AE Q=  2999.423
   1   1    0
   2   2    0
   3   3   -1851.0471

BLOCK MSOFT Q=  2999.423
   1    3595.5372
   2    1591.5588
   3    3171.1414
   21    4001440.5
   22   -168940.01
   31    1254.4213
   32    1254.4213
   33    3584.2437
   34    3768.46
   35    3768.46
   36    1724.1548
   41    3021.7243
   42    3021.7243
   43    2306.7991
   44    2504.1634
   45    2504.1634
   46    3665.8006
   47    719.3535
   48    719.3535
   49    2878.4662

BLOCK MASS
   6    173.2
   23    91.1876
   24    80.429995
   15    1.777
   25    120.35756
   35    2047.7654
   36    2047.9165
   37    2050.0157
   1000001    3148.4546
   2000001    944.95362
   1000002    3147.4306
   2000002    2633.5223
   1000003    3148.4511
   2000003    944.93948
   1000004    3147.4272
   2000004    2633.5217
   1000005    2419.2257
   2000005    2975.8573
   1000006    2420.5942
   2000006    3716.6654
   1000011    1280.2674
   2000011    3779.2918
   1000012    1277.3278
   1000013    1280.2434
   2000013    3779.2646
   1000014    1277.3038
   1000015    1728.6953
   2000015    3589.8648
   1000016    3588.3615
   1000021    3292.8027
   1000022    555.4271
   1000023   -559.98338
   1000025    1629.4436
   1000035    3550.3926
   1000024    557.5281
   1000037    1629.6333

BLOCK ALPHA
      -0.026342955

BLOCK HMIX Q=  2999.423
   1   -549.51691
   2    37.164939
   3    243.2708
   4    4193962

BLOCK STOPMIX
   1   1   -0.99944441
   1   2    0.033329818
   2   1   -0.033329818
   2   2   -0.99944441

BLOCK SBOTMIX
   1   1   -0.99988468
   1   2    0.015186135
   2   1   -0.015186135
   2   2   -0.99988468

BLOCK STAUMIX
   1   1   -0.0033093714
   1   2    0.99999452
   2   1   -0.99999452
   2   2   -0.0033093714

BLOCK NMIX
   1   1    0.010067145
   1   2   -0.050693952
   1   3   -0.70813927
   1   4   -0.70417864
   2   1    0.0077582812
   2   2   -0.026509549
   2   3    0.70586094
   2   4   -0.70781169
   3   1   -0.0011923077
   3   2   -0.99836223
   3   3    0.017213722
   3   4    0.054544699
   4   1    0.99991852
   4   2   -0.00047438167
   4   3    0.0016733338
   4   4    0.012646536

BLOCK UMIX
   1   1   -0.024396866
   1   2   -0.99970235
   2   1    0.99970235
   2   2   -0.024396866

BLOCK VMIX
   1   1   -0.077291266
   1   2    0.99700856
   2   1    0.99700856
   2   2    0.077291266

BLOCK HIGGSBOUNDSINPUTHIGGSCOUPLINGSFERMIONS
       0, 1381.2327,3,36,15,15

BLOCK HIGGSBOUNDSINPUTHIGGSCOUPLINGSBOSONS
       0,4,36,21,21,23

BLOCK SPHENOLOWENERGY
   1    0.00033021529
   2    1.5887114e-06
   3    3.524301e-05
   4    2.6064662e-15
   5    1.1134499e-10
   6    2.3290243e-08
   7    8.8462732e-14
   8    3.7791144e-09
   9    8.0088907e-07
   10    9.4957456e-05
   11    0.98087417
   12    0.54197734
   13    19.356089
   14    0
   15    0
   16    0.0021574328
   17    2.2816618e-15
   18    2.4793057e-11
   19    8.2887496e-11
   20   -4.7187234e-15
   21   -2.0174632e-10
   22   -2.1588335e-08
   23    0
   24    0
   25    0
   26    0
   27    0
   28    0
   29    0
   30    0
   31    0
   39    7.7281798e-05
   40    0
   41    0
   42    0

BLOCK FWCOEF Q=  160
   305   4422   0   0   -0.18881911
   305   4422   0   2   -0.19866194
   305   4322   0   2   -0.00021474094
   305   6421   0   0   -0.095227835
   305   6421   0   2   -0.10893142
   305   6321   0   2   -0.00028250786
   3051111   4133   0   0    1.6168293
   3051111   4133   0   2    1.6172495
   3051111   4233   0   2    0.00020994886
   3051111   4137   0   0   -4.4395214
   3051111   4137   0   2   -4.4369458
   3051111   4237   0   2   -0.0015758884
   3051313   4133   0   0    1.6168293
   3051313   4133   0   2    1.6172484
   3051313   4233   0   2    0.00020994758
   3051313   4137   0   0   -4.4395214
   3051313   4137   0   2   -4.436947
   3051313   4237   0   2   -0.0015758891
   3051212   4137   0   0    1.5053501
   3051212   4137   0   2    1.5047972
   3051212   4237   0   2    0.00034152257
   3051414   4137   0   0    1.5053501
   3051414   4137   0   2    1.5047972
   3051414   4237   0   2    0.00034152277
   3051616   4137   0   0    1.5053501
   3051616   4137   0   2    1.5047978
   3051616   4237   0   2    0.00034158116

BLOCK IMFWCOEF Q=  160
   305   4422   0   0    3.8583349e-07
   305   4422   0   2   -1.9193224e-05
   305   4322   0   2    4.0366206e-07
   305   6421   0   0    3.304919e-07
   305   6421   0   2    7.8792293e-07
   305   6321   0   2    3.224809e-07
   3051111   4133   0   2   -1.2455846e-07
   3051111   4233   0   2    4.9386005e-06
   3051111   4137   0   2    1.4150754e-06
   3051111   4237   0   2   -3.7074727e-05
   3051313   4133   0   2   -1.2457544e-07
   3051313   4233   0   2    4.9385951e-06
   3051313   4137   0   2    1.4150966e-06
   3051313   4237   0   2   -3.7074757e-05
   3051212   4137   0   2   -2.1015576e-07
   3051212   4237   0   2    8.0347455e-06
   3051414   4137   0   2   -2.101577e-07
   3051414   4237   0   2    8.0347455e-06
   3051616   4137   0   2   -2.0000627e-07
   3051616   4237   0   2    8.0347484e-06

DECAY 23  2.4952


DECAY 24  2.085


DECAY 1000011  0.013878038
    0.54949658   2    1000022    11
    0.31767452   2   -1000024    12
    0.13282887   2    1000023    11

DECAY 2000011  0.26493118
    0.98884508   2    1000035    11
    0.006955526   2    1000022    11
    0.0041285807   2    1000023    11

DECAY 1000013  0.022416557
    0.53201836   2    1000022    13
    0.27131721   2    1000023    13
    0.19666442   2   -1000024    14

DECAY 2000013  0.33872953
    0.77323444   2    1000035    13
    0.10844897   2   -1000024    14
    0.059868456   2    1000022    13
    0.057267925   2    1000023    13
    0.0010588021   2    1000013    25

DECAY 1000015  7.978891
    0.5000197   2   -1000024    16
    0.25141762   2    1000022    15
    0.24855865   2    1000023    15

DECAY 2000015  39.885759
    0.49914877   2   -1000037    16
    0.24929768   2    1000025    15
    0.12430015   2    1000022    15
    0.12293968   2    1000023    15
    0.0019505361   2    1000015    23
    0.0019269919   2    1000015    25
    0.00038223231   2   -1000024    16

DECAY 1000012  0.059123964
    0.74508898   2    1000024    11
    0.19660238   2    1000022    12
    0.058308637   2    1000023    12

DECAY 1000014  0.067632704
    0.77716696   2    1000024    13
    0.17186197   2    1000022    14
    0.050971071   2    1000023    14

DECAY 1000016  39.910903
    0.49577447   2    1000037    15
    0.25051243   2    1000024    15
    0.24822938   2    1000025    16
    0.0038942883   2    1000015    24
    0.0011853233   2    1000022    16
    0.00035397489   2    1000023    16

DECAY 2000001  4.2542907e-05
    0.57570818   2    1000022    1
    0.35051889   2    1000023    1
    0.073772931   2   -1000024    2

DECAY 1000001  22.30839
    0.66548102   2   -1000037    2
    0.3317644   2    1000025    1
    0.001606975   2    1000022    1
    0.00069391563   2   -1000024    2
    0.00045366465   2    1000023    1

DECAY 2000003  0.0022996821
    0.49265031   2   -1000024    4
    0.2587262   2    1000022    3
    0.24862349   2    1000023    3

DECAY 1000003  22.317813
    0.66519834   2   -1000037    4
    0.33162346   2    1000025    3
    0.0017929342   2    1000022    3
    0.000741088   2   -1000024    4
    0.00063867291   2    1000023    3

DECAY 1000005  69.805887
    0.62296127   2   -1000024    6
    0.12032389   2    1000022    5
    0.11871171   2    1000023    5
    0.092667333   2   -1000037    6
    0.045335786   2    1000025    5

DECAY 2000005  42.738989
    0.49413537   2   -1000024    6
    0.249228   2    1000022    5
    0.24802757   2    1000023    5
    0.0036256108   2    1000006   -24
    0.0025262379   2    1000005    25
    0.0018099264   2    1000005    23
    0.00043159651   2   -1000037    6
    0.00021568888   2    1000025    5

DECAY 2000002  0.00087008231
    0.62544735   2    1000022    2
    0.37088875   2    1000023    2
    0.00366005   2    1000025    2

DECAY 1000002  22.350209
    0.66013161   2    1000037    1
    0.33115995   2    1000025    2
    0.0069500999   2    1000024    1
    0.0013913565   2    1000022    2
    0.00036699011   2    1000023    2

DECAY 2000004  0.0026006915
    0.37473839   2    1000022    4
    0.33174262   2    1000024    3
    0.2910496   2    1000023    4
    0.0016374198   2    1000025    4
    0.00083196949   2    1000037    3

DECAY 1000004  22.359508
    0.65985533   2    1000037    3
    0.33102137   2    1000025    4
    0.0073182292   2    1000024    3
    0.0014143805   2    1000022    4
    0.00039068968   2    1000023    4

DECAY 1000006  71.318695
    0.30762271   2    1000023    6
    0.30459081   2    1000022    6
    0.23347988   2    1000024    5
    0.089410879   2    1000037    5
    0.045710012   2    1000025    6
    0.018990138   3    1000022    24    5
    0.00015477855   2    1000022    4

DECAY 2000006  174.99073
    0.41319666   2    1000024    5
    0.20670476   2    1000023    6
    0.20497029   2    1000022    6
    0.071846464   2    1000021    6
    0.042182431   2    1000005    24
    0.038815668   2    1000006    25
    0.020983521   2    1000006    23
    0.00086985693   2    1000037    5
    0.00042802643   2    1000025    6

DECAY 1000024  8.7205618e-12
    0.59567819   3    1000022   -1    2
    0.19857585   3    1000022   -11    12
    0.19441622   3    1000022   -13    14
    0.011329743   3    1000022   -3    4

DECAY 1000037  17.821628
    0.18797168   2    1000024    25
    0.18726348   2    1000023    24
    0.18500801   2    1000024    23
    0.18466955   2    1000022    24
    0.059505026   2    1000014   -13
    0.05949783   2    1000012   -11
    0.058951834   2   -1000013    14
    0.058944696   2   -1000011    12
    0.0064545331   3    1000024    6   -6
    0.0060536008   3    1000023   -5    6
    0.0055136011   3    1000022   -5    6
    0.00014591961   3    1000024    5   -5

DECAY 1000022 -1


DECAY 1000023  2.735425e-08
    0.77140014   2    1000022    22
    0.050104358   3    1000022    12   -12
    0.037466188   3    1000022    1   -1
    0.03727763   3    1000022    3   -3
    0.029220705   3    1000022    2   -2
    0.011279712   3    1000024    1   -2
    0.011279712   3   -1000024   -1    2
    0.0094847142   3    1000022    4   -4
    0.0084550833   3    1000022    11   -11
    0.0083880593   3    1000022    13   -13
    0.0045406163   3    1000024    3   -4
    0.0045406163   3   -1000024   -3    4
    0.0037599707   3    1000024    11   -12
    0.0037599707   3   -1000024   -11    12
    0.0037358946   3    1000024    13   -14
    0.0037358946   3   -1000024   -13    14
    0.00057334076   3    1000024    15   -16
    0.00057334076   3   -1000024   -15    16
    0.00042405401   3    1000022    15   -15

DECAY 1000025  20.043918
    0.16599575   2    1000024   -24
    0.16599575   2   -1000024    24
    0.14722597   2    1000023    25
    0.13082247   2    1000023    23
    0.13029776   2    1000022    25
    0.035132187   2    1000022    23
    0.026469106   2    1000014   -14
    0.026469106   2   -1000014    14
    0.026465935   2    1000012   -12
    0.026465935   2   -1000012    12
    0.02614838   2    1000013   -13
    0.02614838   2   -1000013    13
    0.02614518   2    1000011   -11
    0.02614518   2   -1000011    11
    0.0045472785   3    1000024    5   -6
    0.0045472785   3   -1000024   -5    6
    0.0025034887   3    1000023    6   -6
    0.0023230295   3    1000022    6   -6

DECAY 1000035  59.573098
    0.087135105   2    1000015   -15
    0.087135105   2   -1000015    15
    0.043081741   2    2000003   -3
    0.043081741   2   -2000003    3
    0.043081543   2    2000001   -1
    0.043081543   2   -2000001    1
    0.040383687   2    2000002   -2
    0.040383687   2   -2000002    2
    0.040383685   2    2000004   -4
    0.040383685   2   -2000004    4
    0.038039871   2    1000024   -24
    0.038039871   2   -1000024    24
    0.028415031   2    1000014   -14
    0.028415031   2   -1000014    14
    0.028414714   2    1000012   -12
    0.028414714   2   -1000012    12
    0.02827549   2    1000013   -13
    0.02827549   2   -1000013    13
    0.028275173   2    1000011   -11
    0.028275173   2   -1000011    11
    0.025733462   2    1000023    25
    0.02434514   2    1000023    23
    0.022833803   2    1000022    25
    0.016277279   2    37   -1000024
    0.016277279   2   -37    1000024
    0.014151473   2    1000022    23
    0.012257915   2    1000022    35
    0.010989302   2    1000023    35
    0.0045703077   2    1000023    36
    0.0044168647   2    2000005   -5
    0.0044168647   2   -2000005    5
    0.0041579955   2    1000022    36
    0.0041420034   2    1000006   -6
    0.0041420034   2   -1000006    6
    0.0035975455   2    1000005   -5
    0.0035975455   2   -1000005    5
    0.0019167363   3    1000024    5   -6
    0.0019167363   3   -1000024   -5    6
    0.0015225898   3    1000023    6   -6
    0.0014633358   3    1000022    6   -6
    0.00057224191   2    1000003   -3
    0.00057224191   2   -1000003    3
    0.00057223254   2    1000001   -1
    0.00057223254   2   -1000001    1
    0.00056889048   2    1000004   -4
    0.00056889048   2   -1000004    4
    0.00056888121   2    1000002   -2
    0.00056888121   2   -1000002    2
    0.00040360742   2    1000037   -24
    0.00040360742   2   -1000037    24
    0.00037810671   2    1000025    25

DECAY 1000021  246.94165
    0.16618235   2    2000003   -3
    0.16618235   2   -2000003    3
    0.16618145   2    2000001   -1
    0.16618145   2   -2000001    1
    0.041804447   2    1000005   -5
    0.041804447   2   -1000005    5
    0.041706539   2    1000006   -6
    0.041706539   2   -1000006    6
    0.025626042   2    2000004   -4
    0.025626042   2   -2000004    4
    0.025626037   2    2000002   -2
    0.025626037   2   -2000002    2
    0.02012468   2    1000006   -4
    0.02012468   2   -1000006    4
    0.0066232597   2    2000005   -5
    0.0066232597   2   -2000005    5
    0.0014714298   2    1000004   -4
    0.0014714298   2   -1000004    4
    0.0014714157   2    1000002   -2
    0.0014714157   2   -1000002    2
    0.0014512893   2    1000003   -3
    0.0014512893   2   -1000003    3
    0.0014512214   2    1000001   -1
    0.0014512214   2   -1000001    1
    0.00013458388   3    1000024    5   -6
    0.00013458388   3   -1000024   -5    6
    0.00013206306   3    1000023    6   -6
    0.00013116899   3    1000022    6   -6

DECAY 25  0.0033782151
    0.64201665   2   -5    5
    0.15710726   2   -24    24
    0.074812165   2    21    21
    0.073303938   2   -15    15
    0.031536374   2   -4    4
    0.017321842   2    23    23
    0.0023014672   2    22    22
    0.0011040949   2    22    23
    0.0002541649   2   -13    13
    0.0002412095   2   -3    3
    6.6692013e-07   2   -1    1
    1.6252988e-07   2   -2    2
    5.7139746e-09   2   -11    11

DECAY 35  44.204489
    0.86570467   2   -5    5
    0.12993129   2   -15    15
    0.0015283382   2   -6    6
    0.001485628   2   -1000024    1000024
    0.00042533233   2   -13    13
    0.00040548737   2    1000022    1000022
    0.00034617919   2   -3    3
    0.00010469404   2    1000023    1000023
    4.6355787e-05   2    1000022    1000023
    1.7066615e-05   2    21    21
    2.7782524e-06   2    25    25
    9.5703706e-07   2   -1    1
    7.2056277e-07   2    23    23
    3.6929613e-07   2   -24    24
    3.1451858e-08   2   -1000001    1000001
    3.1279866e-08   2   -1000003    1000003
    2.20937e-08   2   -4    4
    1.9959454e-08   2    22    22
    1.6519219e-08   2    22    23
    9.5538503e-09   2   -11    11
    1.1390628e-13   2   -2    2

DECAY 36  42.43889
    0.86499715   2   -5    5
    0.12982584   2   -15    15
    0.0020976531   2   -1000024    1000024
    0.0015223697   2   -6    6
    0.00053191761   2    1000022    1000022
    0.00042498739   2   -13    13
    0.00034589342   2   -3    3
    0.00017069174   2    1000023    1000023
    4.9107127e-05   2    1000022    1000023
    3.2281361e-05   2    21    21
    1.0188653e-06   2    23    25
    9.5624591e-07   2   -1    1
    6.8683872e-08   2    22    23
    3.3816504e-08   2    22    22
    2.1324815e-08   2   -4    4
    9.5461294e-09   2   -11    11
    1.0996516e-13   2   -2    2
    1.1703995e-39   2    25    25

DECAY 37  44.128503
    0.86241422   2   -5    6
    0.13509279   2   -15    16
    0.0012813031   2   -5    4
    0.00047760163   2   -13    14
    0.00032433582   2    1000023    1000024
    0.00031541762   2   -3    4
    6.6162701e-05   2    1000022    1000024
    1.470656e-05   2   -3    2
    9.1498304e-06   2   -5    2
    2.3175081e-06   2   -3    6
    9.8422117e-07   2    24    25
    8.7511415e-07   2   -1    2
    8.5131932e-08   2   -1    6
    4.146938e-08   2   -1    4
    1.1171152e-08   2   -11    12
    1.7789615e-12   2    24    35
    1.2566996e-12   2    24    36

DECAY 6  2.43
    1   2    5    24

DECAY 15 -1
