BLOCK DCINFO
   1   SDECAY/HDECAY
   2   1.3b /3.4

BLOCK SPINFO
   1   SOFTSUSY
   2   3.4.0

BLOCK MODSEL
   1   0

BLOCK SMINPUTS
   1    127.90897
   2    1.1663787e-05
   3    0.1184
   4    91.1876
   5    4.18
   6    173.2
   7    1.777

BLOCK MINPAR
   3    56.35

BLOCK EXTPAR
   0   -1
   1   -942.11
   2   -2347.13
   3    2596.28
   11   -3534.42
   12   -882.46
   13    1634.99
   23    913.94
   26    3798.14
   31    3580.28
   32    3580.28
   33    1049.54
   34    2727.61
   35    2727.61
   36    1388.14
   41    1044
   42    1044
   43    3495.8
   44    2770.68
   45    2770.68
   46    3725.34
   47    3653
   48    3653
   49    707.72

BLOCK MASS
   24    80.378779
   25    125.27152
   35    3798.14
   36    3798.14
   37    3798.8343
   5    4.8187603
   1000001    1288.0797
   2000001    3732.6115
   1000002    1285.6961
   2000002    2876.6119
   1000003    1288.0797
   2000003    3732.6115
   1000004    1285.6961
   2000004    2876.6119
   1000005    913.58308
   2000005    3546.6612
   1000006    3524.2459
   2000006    3751.41
   1000011    3594.1477
   2000011    2737.0449
   1000012    3592.9533
   1000013    3594.1477
   2000013    2737.0449
   1000014    3592.9533
   1000015    1068.5677
   2000015    1378.672
   1000016    1069.3071
   1000021    2762.6262
   1000022   -902.91818
   1000023    941.52524
   1000025   -965.06446
   1000035   -2345.599
   1000024    939.20533
   1000037    2345.7643

BLOCK NMIX
   1   1    0.7515114
   1   2   -0.024120535
   1   3    0.475709
   1   4    0.45645346
   2   1    0.016942803
   2   2   -0.017099962
   2   3   -0.70640114
   2   4    0.70740227
   3   1   -0.65950128
   3   2   -0.029854091
   3   3    0.52390067
   3   4    0.53823312
   4   1   -0.0012733573
   4   2    0.99911687
   4   3    0.015048792
   4   4    0.039209541

BLOCK UMIX
   1   1   -0.021298698
   1   2    0.99977316
   2   1   -0.99977316
   2   2   -0.021298698

BLOCK VMIX
   1   1    0.055467848
   1   2    0.99846047
   2   1    0.99846047
   2   2   -0.055467848

BLOCK STOPMIX
   1   1    0.94652042
   1   2    0.32264392
   2   1   -0.32264392
   2   2    0.94652042

BLOCK SBOTMIX
   1   1    0.0084314305
   1   2    0.99996445
   2   1   -0.99996445
   2   2    0.0084314305

BLOCK STAUMIX
   1   1    0.99462958
   1   2    0.10349878
   2   1   -0.10349878
   2   2    0.99462958

BLOCK ALPHA
      -0.018014842

BLOCK HMIX Q=  3609.852
   1    932.02445
   2    55.56605
   3    242.4956
   4    13072264

BLOCK GAUGE Q=  3609.852
   1    0.3655678
   2    0.6372847
   3    1.0105411

BLOCK AU Q=  3609.852
   1   1    0
   2   2    0
   3   3   -3534.42

BLOCK AD Q=  3609.852
   1   1    0
   2   2    0
   3   3   -882.45998

BLOCK AE Q=  3609.852
   1   1    0
   2   2    0
   3   3    1634.99

BLOCK YU Q=  3609.852
   1   1    0
   2   2    0
   3   3    0.81089423

BLOCK YD Q=  3609.852
   1   1    0
   2   2    0
   3   3    0.61900718

BLOCK YE Q=  3609.852
   1   1    0
   2   2    0
   3   3    0.51374424

BLOCK MSOFT Q=  3609.852
   1   -942.11
   2   -2347.13
   3    2596.28
   21    13788426
   22   -631428.89
   31    3580.28
   32    3580.28
   33    1049.54
   34    2727.61
   35    2727.61
   36    1388.14
   41    1044
   42    1044
   43    3495.8
   44    2770.68
   45    2770.68
   46    3725.34
   47    3653
   48    3653
   49    707.71992

BLOCK HIGGSBOUNDSINPUTHIGGSCOUPLINGSFERMIONS
       0, 3087.5859,3,36,15,15

BLOCK HIGGSBOUNDSINPUTHIGGSCOUPLINGSBOSONS
       0,4,36,21,21,23

DECAY 6  1.4308301
    1   2    5    24

DECAY 1000021  179.41107
    0.12071425   2    1000005   -5
    0.12071425   2   -1000005    5
    0.094918787   2    1000002   -2
    0.094918787   2   -1000002    2
    0.094918765   2    1000004   -4
    0.094918765   2   -1000004    4
    0.094724101   2    1000001   -1
    0.094724101   2   -1000001    1
    0.094724101   2    1000003   -3
    0.094724101   2   -1000003    3

DECAY 1000006  108.5819
    0.28385025   2    1000021    6
    0.21999922   2    1000024    5
    0.1768324   2    1000023    6
    0.13419357   2    1000025    6
    0.076222303   2    1000037    5
    0.057556909   2    1000022    6
    0.038339976   2    1000035    6
    0.013005386   2    1000005    24

DECAY 2000006  138.54763
    0.30524284   2    1000024    5
    0.2735653   2    1000021    6
    0.15930151   2    1000023    6
    0.11325452   2    1000022    6
    0.092125226   2    1000025    6
    0.023093826   2    2000005    24
    0.014275901   2    1000006    23
    0.0097024132   2    1000006    25
    0.0052930397   2    1000037    5
    0.0026800583   2    1000035    6
    0.0014653642   2    1000005    24

DECAY 1000005  0.0012174173
    1   2    1000022    5

DECAY 2000005  108.68273
    0.36575748   2   -1000024    6
    0.2733813   2    1000021    5
    0.10735398   2    1000023    5
    0.083915116   2   -1000037    6
    0.060053215   2    1000025    5
    0.051920592   2    1000022    5
    0.041699463   2    1000035    5
    0.0082703932   2    1000005    25
    0.0076484539   2    1000005    23

DECAY 1000002  0.051836844
    0.47924776   2    1000025    2
    0.37835278   2    1000022    2
    0.13813499   2    1000024    1
    0.0042644661   2    1000023    2

DECAY 2000002  6.5565892
    0.45627087   2    1000022    2
    0.34066125   2    1000025    2
    0.20284014   2    1000021    2
    0.00022755779   2    1000023    2
    1.8604436e-07   2    1000035    2

DECAY 1000001  0.05008951
    0.77808215   2    1000022    1
    0.19102483   2    1000025    1
    0.02129178   2   -1000024    2
    0.0096012433   2    1000023    1

DECAY 2000001  60.340319
    0.96918954   2    1000021    1
    0.017533009   2    1000022    1
    0.013268614   2    1000025    1
    8.816753e-06   2    1000023    1
    2.101659e-08   2    1000035    1

DECAY 1000004  0.05031995
    0.47851108   2    1000025    4
    0.37908177   2    1000022    4
    0.13814306   2    1000024    3
    0.004264091   2    1000023    4

DECAY 2000004  6.3906929
    0.48823378   2    1000022    4
    0.36438839   2    1000025    4
    0.14713419   2    1000021    4
    0.00024344226   2    1000023    4
    1.9370428e-07   2    1000035    4

DECAY 1000003  0.048691224
    0.77863602   2    1000022    3
    0.19050784   2    1000025    3
    0.021267158   2   -1000024    4
    0.0095889832   2    1000023    3

DECAY 2000003  43.29103
    0.95519243   2    1000021    3
    0.025501506   2    1000022    3
    0.019293216   2    1000025    3
    1.2821449e-05   2    1000023    3
    3.0243354e-08   2    1000035    3

DECAY 1000011  18.540481
    0.51587836   2   -1000037    12
    0.25727794   2    1000035    11
    0.1138535   2    1000022    11
    0.11233639   2    1000025    11
    0.00061679916   2   -1000024    12
    3.7010379e-05   2    1000023    11

DECAY 2000011  11.385136
    0.57337111   2    1000022    11
    0.4263435   2    1000025    11
    0.00028524693   2    1000023    11
    1.4619597e-07   2    1000035    11

DECAY 1000013  18.540481
    0.51587836   2   -1000037    14
    0.25727794   2    1000035    13
    0.1138535   2    1000022    13
    0.11233639   2    1000025    13
    0.00061679916   2   -1000024    14
    3.7010379e-05   2    1000023    13

DECAY 2000013  11.385136
    0.57337111   2    1000022    13
    0.4263435   2    1000025    13
    0.00028524693   2    1000023    13
    1.4619596e-07   2    1000035    13

DECAY 1000015  0.39683809
    0.45598568   2    1000022    15
    0.34959587   2    1000023    15
    0.18210187   2    1000025    15
    0.012316579   2   -1000024    16

DECAY 2000015  8.302109
    0.24627449   2   -1000024    16
    0.2151227   2    1000022    15
    0.16830891   2    1000025    15
    0.12492004   2    1000023    15
    0.12022265   2    1000016   -24
    0.065259905   2    1000015    25
    0.059891303   2    1000015    23

DECAY 1000012  18.548464
    0.51362492   2    1000037    11
    0.2575803   2    1000035    12
    0.14232352   2    1000022    12
    0.081803343   2    1000025    12
    0.0041797149   2    1000024    11
    0.0004882041   2    1000023    12

DECAY 1000014  18.548464
    0.51362492   2    1000037    13
    0.2575803   2    1000035    14
    0.14232352   2    1000022    14
    0.081803343   2    1000025    14
    0.0041797149   2    1000024    13
    0.0004882041   2    1000023    14

DECAY 1000016  0.38691638
    0.76240086   2    1000024    15
    0.19056051   2    1000022    16
    0.046633107   2    1000025    16
    0.00040552272   2    1000023    16

DECAY 1000024  3.5119278e-05
    0.33363064   3    1000022    2   -1
    0.33363064   3    1000022    4   -3
    0.11121453   3    1000022   -11    12
    0.11121453   3    1000022   -13    14
    0.11030966   3    1000022   -15    16

DECAY 1000037  83.888087
    0.16355102   2    1000002   -1
    0.16355102   2    1000004   -3
    0.16346402   2   -1000001    2
    0.16346392   2   -1000003    4
    0.070704066   2    1000016   -15
    0.069905736   2   -1000015    16
    0.053004616   2    1000024    25
    0.051595567   2    1000024    23
    0.050027552   2    1000023    24
    0.030678839   2    1000025    24
    0.019312945   2    1000022    24
    0.00070343879   2   -2000015    16
    3.7257152e-05   2   -1000005    6

DECAY 1000022 -1


DECAY 1000023  0.036210015
    0.5   2    1000005   -5
    0.5   2   -1000005    5

DECAY 1000025  0.076782107
    0.5   2    1000005   -5
    0.5   2   -1000005    5

DECAY 1000035  83.880688
    0.081835236   2    1000002   -2
    0.081835236   2   -1000002    2
    0.081835189   2    1000004   -4
    0.081835189   2   -1000004    4
    0.081656568   2    1000001   -1
    0.081656568   2   -1000001    1
    0.081656568   2    1000003   -3
    0.081656568   2   -1000003    3
    0.050127464   2    1000024   -24
    0.050127464   2   -1000024    24
    0.042941331   2    1000023    23
    0.035435519   2    1000016   -16
    0.035435519   2   -1000016    16
    0.03486635   2    1000015   -15
    0.03486635   2   -1000015    15
    0.027307787   2    1000025    25
    0.016962995   2    1000022    25
    0.0086629247   2    1000023    25
    0.0050032408   2    1000025    23
    0.0035572238   2    1000022    23
    0.00035105486   2    2000015   -15
    0.00035105486   2   -2000015    15
    1.8300334e-05   2    1000005   -5
    1.8300334e-05   2   -1000005    5

DECAY 25  0.0046703461
    0.64429114   2    5   -5
    0.18563269   2    24   -24
    0.068760427   2    21    21
    0.055660106   2   -15    15
    0.023235343   2    23    23
    0.018602651   2    4   -4
    0.0020361346   2    22    22
    0.0013696786   2    22    23
    0.00021485004   2    3   -3
    0.00019698485   2   -13    13

DECAY 35  167.51182
    0.70606144   2    5   -5
    0.17713393   2   -15    15
    0.024439036   2    1000024   -1000037
    0.024439036   2    1000037   -1000024
    0.018599877   2    1000023    1000035
    0.010015297   2    1000015   -2000015
    0.010015297   2    2000015   -1000015
    0.0067444246   2    1000022    1000023
    0.0055819064   2    1000022    1000022
    0.0047221234   2    1000023    1000025
    0.0036585862   2    1000025    1000025
    0.0030579999   2    1000025    1000035
    0.002815454   2    1000022    1000035
    0.00055060879   2   -13    13
    0.0004861387   2    1000015   -1000015
    0.00039484238   2    2000015   -2000015
    0.00039350661   2    1000024   -1000024
    0.00032130603   2    1000022    1000025
    0.00028895242   2    6   -6
    0.00022505095   2    3   -3
    4.1511966e-05   2    1000023    1000023
    1.011609e-05   2    21    21
    2.9328961e-06   2    1000005   -1000005
    2.5860608e-07   2    25    25
    7.3848881e-08   2    1000001   -1000001
    7.3848881e-08   2    1000003   -1000003
    5.0385951e-08   2    1000002   -1000002
    5.0385951e-08   2    1000004   -1000004
    4.2887928e-08   2    24   -24
    3.8199128e-08   2    1000016   -1000016
    2.140695e-08   2    23    23
    6.619512e-09   2    23    22
    5.2680561e-09   2    22    22
    2.9283351e-09   2    4   -4

DECAY 36  167.51434
    0.70606105   2    5   -5
    0.17713154   2   -15    15
    0.024378871   2    1000024   -1000037
    0.024378871   2    1000037   -1000024
    0.010457803   2    1000015   -2000015
    0.010457803   2   -1000015    2000015
    0.010249211   2    1000025    1000035
    0.0083879681   2    1000022    1000035
    0.0067305273   2    1000022    1000022
    0.0058107981   2    1000023    1000035
    0.005573778   2    1000022    1000023
    0.00458043   2    1000025    1000025
    0.0037652467   2    1000023    1000025
    0.00055060091   2   -13    13
    0.00050671944   2    1000024   -1000024
    0.00038925368   2    1000022    1000025
    0.0002898208   2    6   -6
    0.00022505287   2    3   -3
    5.9157455e-05   2    1000023    1000023
    1.5427237e-05   2    21    21
    4.3508556e-08   2    23    25
    1.1504126e-08   2    23    22
    6.834661e-09   2    22    22
    2.9488903e-09   2    4   -4

DECAY 37  138.84415
    0.64472933   2    6   -5
    0.21374684   2   -15    16
    0.029512829   2    1000024    1000035
    0.029430018   2    1000037    1000023
    0.024959766   2   -2000015    1000016
    0.016121695   2    1000037    1000025
    0.013740029   2    1000024    1000022
    0.01356742   2    1000037    1000022
    0.011784835   2    1000024    1000025
    0.0010840664   2    4   -5
    0.00066441698   2   -13    14
    0.00029113735   2   -1000015    1000016
    0.00026749167   2    4   -3
    7.5344674e-05   2    1000024    1000023
    1.3589786e-05   2    2   -3
    1.0840656e-05   2    2   -5
    1.4837816e-07   2    1000002   -1000001
    1.4837816e-07   2    1000004   -1000003
    5.2541937e-08   2    24    25
    1.5293832e-15   2    24    36

DECAY 5 -1


DECAY 15 -1


DECAY 23  2.4952


DECAY 24  2.085
