# SUSY Les Houches Accord 2 - MSSM spectrum + Decays
# SPheno v4.0.5be
# W. Porod, Comput. Phys. Commun. 153 (2003) 275-315, hep-ph/0301101;
# W. Porod, F.~Staub, Comput. Phys. Commun. 183 (2012) 2458
#                     arXiv:1104.1573 [hep-ph] 
# in case of problems send email to porod@physik.uni-wuerzburg.de
# Created: 07.09.2021,  19:54
Block SPINFO         # Program information
     1   SPheno      # spectrum calculator
     2   v4.0.5be    # version number
#
Block SPhenoINFO     # SPheno specific information
    1      2         # using 2-loop RGEs
    2      2         # using pole masses for boundary conditions at mZ
Block MODSEL  # Model selection
    1    0    # general MSSM
Block MINPAR  # Input parameters
    3    3.52191178E+01  # tanb at m_Z    
    4   -1.00000000E+00  # Sign(mu)
Block EXTPAR  # non-universal input parameters
    0    4.34037050E+03  # scale for input parameters
    1    1.67549126E+02  # M_1
    2   -1.50436829E+03  # M_2
    3    2.38319254E+03  # M_3
   11   -4.92542256E+03  # A_t
   12   -1.32568661E+03  # A_b
   13   -1.93860069E+03  # A_tau
   23   -1.62959474E+02  # mu
   25    3.40795023E+01  # tan(beta)
   26    1.98873355E+03  # m_A, pole mass
   31    1.00000000E+04  # M_L11
   32    1.00000000E+04  # M_L22
   33    1.00000000E+04  # M_L33
   34    1.00000000E+04  # M_E11
   35    1.00000000E+04  # M_E22
   36    1.00000000E+04  # M_E33
   41    1.00000000E+04  # M_Q11
   42    1.00000000E+04  # M_Q22
   43    4.62858346E+03  # M_Q33
   44    1.00000000E+04  # M_U11
   45    1.00000000E+04  # M_U22
   46    4.07389050E+03  # M_U33
   47    1.00000000E+04  # M_D11
   48    1.00000000E+04  # M_D22
   49    2.24909594E+03  # M_D33
Block SMINPUTS  # SM parameters
         1     1.27908970E+02  # alpha_em^-1(MZ)^MSbar
         2     1.16637870E-05  # G_mu [GeV^-2]
         3     1.18400000E-01  # alpha_s(MZ)^MSbar
         4     9.11876000E+01  # m_Z(pole)
         5     4.18000000E+00  # m_b(m_b), MSbar
         6     1.73200000E+02  # m_t(pole)
         7     1.77700000E+00  # m_tau(pole)
         8     0.00000000E+00  # m_nu_3
        11     5.10998930E-04  # m_e(pole)
        12     0.00000000E+00  # m_nu_1
        13     1.05658372E-01  # m_muon(pole)
        14     0.00000000E+00  # m_nu_2
        21     5.00000000E-03  # m_d(2 GeV), MSbar
        22     2.50000000E-03  # m_u(2 GeV), MSbar
        23     9.50000000E-02  # m_s(2 GeV), MSbar
        24     1.27000000E+00  # m_c(m_c), MSbar
Block gauge Q=  4.34037050E+03  # (SUSY scale)
   1    3.55362975E-01  # g'(Q)^DRbar
   2    6.65198874E-01  # g(Q)^DRbar
   3    1.21977796E+00  # g3(Q)^DRbar
Block Yu Q=  4.34037050E+03  # (SUSY scale)
  1  1     8.38798092E-06   # Y_u(Q)^DRbar
  2  2     4.26109431E-03   # Y_c(Q)^DRbar
  3  3     1.01333547E+00   # Y_t(Q)^DRbar
Block Yd Q=  4.34037050E+03  # (SUSY scale)
  1  1     5.74421815E-04   # Y_d(Q)^DRbar
  2  2     1.09140145E-02   # Y_s(Q)^DRbar
  3  3     5.69646443E-01   # Y_b(Q)^DRbar
Block Ye Q=  4.34037050E+03  # (SUSY scale)
  1  1     1.00240807E-04   # Y_e(Q)^DRbar
  2  2     2.07266197E-02   # Y_mu(Q)^DRbar
  3  3     3.48587647E-01   # Y_tau(Q)^DRbar
Block Au Q=  4.34037050E+03  # (SUSY scale)
  1  1     0.00000000E+00   # A_u(Q)^DRbar
  2  2     0.00000000E+00   # A_c(Q)^DRbar
  3  3    -4.92542630E+03   # A_t(Q)^DRbar
Block Ad Q=  4.34037050E+03  # (SUSY scale)
  1  1     0.00000000E+00   # A_d(Q)^DRbar
  2  2     0.00000000E+00   # A_s(Q)^DRbar
  3  3    -1.32568640E+03   # A_b(Q)^DRbar
Block Ae Q=  4.34037050E+03  # (SUSY scale)
  1  1     0.00000000E+00   # A_e(Q)^DRbar
  2  2     0.00000000E+00   # A_mu(Q)^DRbar
  3  3    -1.93860024E+03   # A_tau(Q)^DRbar
Block MSOFT Q=  4.34037050E+03  # soft SUSY breaking masses at Q
   1    1.67549126E+02  # M_1
   2   -1.50436829E+03  # M_2
   3    2.38319254E+03  # M_3
  21    3.94290392E+06  # M^2_(H,d)
  22    3.66897977E+05  # M^2_(H,u)
  31    1.00000000E+04  # M_(L,11)
  32    1.00000000E+04  # M_(L,22)
  33    1.00000000E+04  # M_(L,33)
  34    1.00000000E+04  # M_(E,11)
  35    1.00000000E+04  # M_(E,22)
  36    1.00000000E+04  # M_(E,33)
  41    1.00000000E+04  # M_(Q,11)
  42    1.00000000E+04  # M_(Q,22)
  43    4.62858346E+03  # M_(Q,33)
  44    1.00000000E+04  # M_(U,11)
  45    1.00000000E+04  # M_(U,22)
  46    4.07389050E+03  # M_(U,33)
  47    1.00000000E+04  # M_(D,11)
  48    1.00000000E+04  # M_(D,22)
  49    2.24909594E+03  # M_(D,33)
Block MASS  # Mass spectrum
#   PDG code      mass          particle
         6     1.73200000E+02  # m_t(pole)
        23     9.11876000E+01  # m_Z(pole)
        24     8.04299946E+01  # W+
        15     1.77700000E+00  # m_tau(pole)
        25     1.25546215E+02  # h0
        35     1.98856808E+03  # H0
        36     1.98873355E+03  # A0
        37     1.99186011E+03  # H+
   1000001     1.01163870E+04  # ~d_L
   2000001     1.00920327E+04  # ~d_R
   1000002     1.01160260E+04  # ~u_L
   2000002     1.00947452E+04  # ~u_R
   1000003     1.01163878E+04  # ~s_L
   2000003     1.00920339E+04  # ~s_R
   1000004     1.01160267E+04  # ~c_L
   2000004     1.00947455E+04  # ~c_R
   1000005     2.36468393E+03  # ~b_1
   2000005     4.64614169E+03  # ~b_2
   1000006     4.04468789E+03  # ~t_1
   2000006     4.65766868E+03  # ~t_2
   1000011     1.00206008E+04  # ~e_L-
   2000011     1.00094145E+04  # ~e_R-
   1000012     1.00198350E+04  # ~nu_eL
   1000013     1.00206039E+04  # ~mu_L-
   2000013     1.00094203E+04  # ~mu_R-
   1000014     1.00198380E+04  # ~nu_muL
   1000015     1.00111376E+04  # ~tau_1-
   2000015     1.00215008E+04  # ~tau_2-
   1000016     1.00207261E+04  # ~nu_tauL
   1000021     2.83738467E+03  # ~g
   1000022     1.47255740E+02  # ~chi_10
   1000023     1.85402662E+02  # ~chi_20
   1000025     2.10272762E+02  # ~chi_30
   1000035     1.60689487E+03  # ~chi_40
   1000024     1.84165635E+02  # ~chi_1+
   1000037     1.60686067E+03  # ~chi_2+
# Higgs mixing
Block alpha # Effective Higgs mixing angle
          -2.85624593E-02   # alpha
Block Hmix Q=  4.34037050E+03  # Higgs mixing parameters
   1   -1.62959474E+02  # mu
   2    3.40795023E+01  # tan[beta](Q)
   3    2.42842246E+02  # v(Q)
   4    3.95506113E+06  # m^2_A(Q)
Block stopmix # stop mixing matrix
   1  1     1.32184584E-01   # Re[R_st(1,1)]
   1  2     9.91225119E-01   # Re[R_st(1,2)]
   2  1    -9.91225119E-01   # Re[R_st(2,1)]
   2  2     1.32184584E-01   # Re[R_st(2,2)]
Block sbotmix # sbottom mixing matrix
   1  1    -5.03534003E-04   # Re[R_sb(1,1)]
   1  2     9.99999873E-01   # Re[R_sb(1,2)]
   2  1    -9.99999873E-01   # Re[R_sb(2,1)]
   2  2    -5.03534003E-04   # Re[R_sb(2,2)]
Block staumix # stau mixing matrix
   1  1    -2.89102786E-02   # Re[R_sta(1,1)]
   1  2     9.99582011E-01   # Re[R_sta(1,2)]
   2  1    -9.99582011E-01   # Re[R_sta(2,1)]
   2  2    -2.89102786E-02   # Re[R_sta(2,2)]
Block Nmix # neutralino mixing matrix
   1  1     7.83375051E-01   # Re[N(1,1)]
   1  2     1.70391054E-02   # Re[N(1,2)]
   1  3    -4.88318712E-01   # Re[N(1,3)]
   1  4    -3.84158865E-01   # Re[N(1,4)]
   2  1     9.12809397E-02   # Re[N(2,1)]
   2  2     4.06822739E-02   # Re[N(2,2)]
   2  3     7.02324613E-01   # Re[N(2,3)]
   2  4    -7.04806981E-01   # Re[N(2,4)]
   3  1     6.14808602E-01   # Re[N(3,1)]
   3  2    -2.56319528E-02   # Re[N(3,2)]
   3  3     5.17915221E-01   # Re[N(3,3)]
   3  4     5.94236662E-01   # Re[N(3,4)]
   4  1     1.30447966E-03   # Re[N(4,1)]
   4  2    -9.98697965E-01   # Re[N(4,2)]
   4  3     6.98556522E-03   # Re[N(4,3)]
   4  4    -5.05160938E-02   # Re[N(4,4)]
Block Umix # chargino mixing matrix
   1  1    -9.88105880E-03   # Re[U(1,1)]
   1  2    -9.99951181E-01   # Re[U(1,2)]
   2  1    -9.99951181E-01   # Re[U(2,1)]
   2  2     9.88105880E-03   # Re[U(2,2)]
Block Vmix # chargino mixing matrix
   1  1     7.14660516E-02   # Re[V(1,1)]
   1  2     9.97443033E-01   # Re[V(1,2)]
   2  1     9.97443033E-01   # Re[V(2,1)]
   2  2    -7.14660516E-02   # Re[V(2,2)]
DECAY        23     2.49520000E+00   # Z
DECAY        24     2.08500000E+00   # W
DECAY   2000011     5.02632296E+01   # ~e^-_R
#    BR                NDA      ID1      ID2
     6.13782137E-01    2     1000022        11   # BR(~e^-_R -> chi^0_1 e^-)
     8.33155273E-03    2     1000023        11   # BR(~e^-_R -> chi^0_2 e^-)
     3.77884655E-01    2     1000025        11   # BR(~e^-_R -> chi^0_3 e^-)
DECAY   1000011     1.38189765E+02   # ~e^-_L
#    BR                NDA      ID1      ID2
     6.05170947E-02    2     1000022        11   # BR(~e^-_L -> chi^0_1 e^-)
     2.55182539E-03    2     1000023        11   # BR(~e^-_L -> chi^0_2 e^-)
     2.92403977E-02    2     1000025        11   # BR(~e^-_L -> chi^0_3 e^-)
     3.01755404E-01    2     1000035        11   # BR(~e^-_L -> chi^0_4 e^-)
     6.05872996E-01    2    -1000037        12   # BR(~e^-_L -> chi^-_2 nu_e)
#    BR                NDA      ID1      ID2       ID3
DECAY   2000013     5.04342285E+01   # ~mu^-_R
#    BR                NDA      ID1      ID2
     6.12105730E-01    2     1000022        13   # BR(~mu^-_R -> chi^0_1 mu^-)
     9.13936854E-03    2     1000023        13   # BR(~mu^-_R -> chi^0_2 mu^-)
     3.77058194E-01    2     1000025        13   # BR(~mu^-_R -> chi^0_3 mu^-)
     1.69486124E-03    2    -1000024        14   # BR(~mu^-_R -> chi^-_1 nu_mu)
DECAY   1000013     1.38275392E+02   # ~mu^-_L
#    BR                NDA      ID1      ID2
     6.06272561E-02    2     1000022        13   # BR(~mu^-_L -> chi^0_1 mu^-)
     2.85553084E-03    2     1000023        13   # BR(~mu^-_L -> chi^0_2 mu^-)
     2.93882834E-02    2     1000025        13   # BR(~mu^-_L -> chi^0_3 mu^-)
     3.01568672E-01    2     1000035        13   # BR(~mu^-_L -> chi^0_4 mu^-)
     6.05498014E-01    2    -1000037        14   # BR(~mu^-_L -> chi^-_2 nu_mu)
#    BR                NDA      ID1      ID2       ID3
DECAY   1000015     9.86966311E+01   # ~tau^-_1
#    BR                NDA      ID1      ID2
     3.74638620E-01    2     1000022        15   # BR(~tau^-_1 -> chi^0_1 tau^-)
     1.25002913E-01    2     1000023        15   # BR(~tau^-_1 -> chi^0_2 tau^-)
     2.54562084E-01    2     1000025        15   # BR(~tau^-_1 -> chi^0_3 tau^-)
     2.38226206E-04    2     1000035        15   # BR(~tau^-_1 -> chi^0_4 tau^-)
     2.45080793E-01    2    -1000024        16   # BR(~tau^-_1 -> chi^-_1 nu_tau)
     4.77363769E-04    2    -1000037        16   # BR(~tau^-_1 -> chi^-_2 nu_tau)
DECAY   2000015     1.62357841E+02   # ~tau^-_2
#    BR                NDA      ID1      ID2
     8.49143749E-02    2     1000022        15   # BR(~tau^-_2 -> chi^0_1 tau^-)
     7.57902317E-02    2     1000023        15   # BR(~tau^-_2 -> chi^0_2 tau^-)
     6.70894117E-02    2     1000025        15   # BR(~tau^-_2 -> chi^0_3 tau^-)
     2.56731719E-01    2     1000035        15   # BR(~tau^-_2 -> chi^0_4 tau^-)
     5.15459169E-01    2    -1000037        16   # BR(~tau^-_2 -> chi^-_2 nu_tau)
#    BR                NDA      ID1      ID2       ID3
DECAY   1000012     1.38193570E+02   # ~nu_e
#    BR                NDA      ID1      ID2
     5.14119681E-02    2     1000022        12   # BR(~nu_e -> chi^0_1 nu_e)
     3.99746623E-02    2     1000025        12   # BR(~nu_e -> chi^0_3 nu_e)
     3.02564928E-01    2     1000035        12   # BR(~nu_e -> chi^0_4 nu_e)
     3.25772120E-03    2     1000024        11   # BR(~nu_e -> chi^+_1 e^-)
     6.02769889E-01    2     1000037        11   # BR(~nu_e -> chi^+_2 e^-)
#    BR                NDA      ID1      ID2       ID3
DECAY   1000014     1.38279189E+02   # ~nu_mu
#    BR                NDA      ID1      ID2
     5.13801504E-02    2     1000022        14   # BR(~nu_mu -> chi^0_1 nu_mu)
     3.99499229E-02    2     1000025        14   # BR(~nu_mu -> chi^0_3 nu_mu)
     3.02377687E-01    2     1000035        14   # BR(~nu_mu -> chi^0_4 nu_mu)
     3.87449631E-03    2     1000024        13   # BR(~nu_mu -> chi^+_1 mu^-)
     6.02396926E-01    2     1000037        13   # BR(~nu_mu -> chi^+_2 mu^-)
#    BR                NDA      ID1      ID2       ID3
DECAY   1000016     1.62414971E+02   # ~nu_tau
#    BR                NDA      ID1      ID2
     4.37486506E-02    2     1000022        16   # BR(~nu_tau -> chi^0_1 nu_tau)
     3.40161589E-02    2     1000025        16   # BR(~nu_tau -> chi^0_3 nu_tau)
     2.57467883E-01    2     1000035        16   # BR(~nu_tau -> chi^0_4 nu_tau)
     1.51807931E-01    2     1000024        15   # BR(~nu_tau -> chi^+_1 tau^-)
     5.12941651E-01    2     1000037        15   # BR(~nu_tau -> chi^+_2 tau^-)
#    BR                NDA      ID1      ID2       ID3
DECAY   2000001     6.81270694E+02   # ~d_R
#    BR                NDA      ID1      ID2
     5.07314689E-03    2     1000022         1   # BR(~d_R -> chi^0_1 d)
     3.12339756E-03    2     1000025         1   # BR(~d_R -> chi^0_3 d)
     9.91734434E-01    2     1000021         1   # BR(~d_R -> ~g d)
DECAY   1000001     8.06172626E+02   # ~d_L
#    BR                NDA      ID1      ID2
     8.27961476E-04    2     1000022         1   # BR(~d_L -> chi^0_1 d)
     1.00746429E-03    2     1000025         1   # BR(~d_L -> chi^0_3 d)
     5.23690676E-02    2     1000035         1   # BR(~d_L -> chi^0_4 d)
     1.04952564E-01    2    -1000037         2   # BR(~d_L -> chi^-_2 u)
     8.40799188E-01    2     1000021         1   # BR(~d_L -> ~g d)
DECAY   2000003     6.81318468E+02   # ~s_R
#    BR                NDA      ID1      ID2
     5.08113546E-03    2     1000022         3   # BR(~s_R -> chi^0_1 s)
     3.13255990E-03    2     1000025         3   # BR(~s_R -> chi^0_3 s)
     9.91665051E-01    2     1000021         3   # BR(~s_R -> ~g s)
DECAY   1000003     8.06200250E+02   # ~s_L
#    BR                NDA      ID1      ID2
     8.35001324E-04    2     1000022         3   # BR(~s_L -> chi^0_1 s)
     1.01537697E-03    2     1000025         3   # BR(~s_L -> chi^0_3 s)
     5.23672789E-02    2     1000035         3   # BR(~s_L -> chi^0_4 s)
     1.04948999E-01    2    -1000037         4   # BR(~s_L -> chi^-_2 c)
     8.40770467E-01    2     1000021         3   # BR(~s_L -> ~g s)
DECAY   1000005     3.13018366E+01   # ~b_1
#    BR                NDA      ID1      ID2
     1.41176990E-01    2     1000022         5   # BR(~b_1 -> chi^0_1 b)
     2.37947677E-01    2     1000023         5   # BR(~b_1 -> chi^0_2 b)
     1.44343017E-01    2     1000025         5   # BR(~b_1 -> chi^0_3 b)
     4.76514482E-01    2    -1000024         6   # BR(~b_1 -> chi^-_1 t)
DECAY   2000005     3.33975169E+02   # ~b_2
#    BR                NDA      ID1      ID2
     2.22746707E-02    2     1000022         5   # BR(~b_2 -> chi^0_1 b)
     4.41950899E-02    2     1000023         5   # BR(~b_2 -> chi^0_2 b)
     2.51173818E-02    2     1000025         5   # BR(~b_2 -> chi^0_3 b)
     4.73613691E-02    2     1000035         5   # BR(~b_2 -> chi^0_4 b)
     2.81068585E-01    2    -1000024         6   # BR(~b_2 -> chi^-_1 t)
     9.62970257E-02    2    -1000037         6   # BR(~b_2 -> chi^-_2 t)
     4.31758446E-01    2     1000021         5   # BR(~b_2 -> ~g b)
     4.93306535E-02    2     1000006       -24   # BR(~b_2 -> ~t_1 W^-)
     1.28103362E-03    2     1000005        36   # BR(~b_2 -> ~b_1 A^0)
     1.28119016E-03    2     1000005        35   # BR(~b_2 -> ~b_1 H^0)
DECAY   2000002     6.98413424E+02   # ~u_R
#    BR                NDA      ID1      ID2
     1.97997353E-02    2     1000022         2   # BR(~u_R -> chi^0_1 u)
     2.68764522E-04    2     1000023         2   # BR(~u_R -> chi^0_2 u)
     1.21901116E-02    2     1000025         2   # BR(~u_R -> chi^0_3 u)
     9.67741336E-01    2     1000021         2   # BR(~u_R -> ~g u)
DECAY   1000002     8.06159293E+02   # ~u_L
#    BR                NDA      ID1      ID2
     1.35283506E-03    2     1000022         2   # BR(~u_L -> chi^0_1 u)
     1.78932622E-04    2     1000023         2   # BR(~u_L -> chi^0_2 u)
     3.87984786E-04    2     1000025         2   # BR(~u_L -> chi^0_3 u)
     5.23191718E-02    2     1000035         2   # BR(~u_L -> chi^0_4 u)
     5.63893734E-04    2     1000024         1   # BR(~u_L -> chi^+_1 d)
     1.04424340E-01    2     1000037         1   # BR(~u_L -> chi^+_2 d)
     8.40772842E-01    2     1000021         2   # BR(~u_L -> ~g u)
DECAY   2000004     6.98420707E+02   # ~c_R
#    BR                NDA      ID1      ID2
     1.98002978E-02    2     1000022         4   # BR(~c_R -> chi^0_1 c)
     2.71353216E-04    2     1000023         4   # BR(~c_R -> chi^0_2 c)
     1.21918281E-02    2     1000025         4   # BR(~c_R -> chi^0_3 c)
     9.67731240E-01    2     1000021         4   # BR(~c_R -> ~g c)
DECAY   1000004     8.06186873E+02   # ~c_L
#    BR                NDA      ID1      ID2
     1.35345769E-03    2     1000022         4   # BR(~c_L -> chi^0_1 c)
     1.81176769E-04    2     1000023         4   # BR(~c_L -> chi^0_2 c)
     3.89570383E-04    2     1000025         4   # BR(~c_L -> chi^0_3 c)
     5.23173926E-02    2     1000035         4   # BR(~c_L -> chi^0_4 c)
     5.93504731E-04    2     1000024         3   # BR(~c_L -> chi^+_1 s)
     1.04420779E-01    2     1000037         3   # BR(~c_L -> chi^+_2 s)
     8.40744119E-01    2     1000021         4   # BR(~c_L -> ~g c)
DECAY   1000006     2.56050793E+02   # ~t_1
#    BR                NDA      ID1      ID2
     7.42733128E-02    2     1000022         6   # BR(~t_1 -> chi^0_1 t)
     1.59335821E-01    2     1000023         6   # BR(~t_1 -> chi^0_2 t)
     1.17932619E-01    2     1000025         6   # BR(~t_1 -> chi^0_3 t)
     2.81920714E-03    2     1000035         6   # BR(~t_1 -> chi^0_4 t)
     3.11982953E-01    2     1000024         5   # BR(~t_1 -> chi^+_1 b)
     5.66965890E-03    2     1000037         5   # BR(~t_1 -> chi^+_2 b)
     9.77793876E-04    2     1000021         4   # BR(~t_1 -> ~g c)
     3.26913105E-01    2     1000021         6   # BR(~t_1 -> ~g t)
#    BR                NDA      ID1      ID2       ID3
DECAY   2000006     3.36633764E+02   # ~t_2
#    BR                NDA      ID1      ID2
     3.80823974E-02    2     1000022         6   # BR(~t_2 -> chi^0_1 t)
     1.39714548E-01    2     1000023         6   # BR(~t_2 -> chi^0_2 t)
     1.06976980E-01    2     1000025         6   # BR(~t_2 -> chi^0_3 t)
     4.50582966E-02    2     1000035         6   # BR(~t_2 -> chi^0_4 t)
     9.64354029E-02    2     1000024         5   # BR(~t_2 -> chi^+_1 b)
     8.97425294E-02    2     1000037         5   # BR(~t_2 -> chi^+_2 b)
     4.20795006E-01    2     1000021         6   # BR(~t_2 -> ~g t)
     2.61129122E-03    2     1000005        37   # BR(~t_2 -> ~b_1 H^+)
     2.51988860E-02    2     1000006        23   # BR(~t_2 -> ~t_1 Z)
     3.53639008E-02    2     1000006        25   # BR(~t_2 -> ~t_1 h^0)
DECAY   1000024     3.21457108E-05   # chi^+_1
#    BR                NDA      ID1      ID2       ID3
     3.34354706E-01    3     1000022        -1         2   # BR(chi^+_1 -> chi^0_1 d_bar u)
     3.32543584E-01    3     1000022        -3         4   # BR(chi^+_1 -> chi^0_1 s_bar c)
     1.11451229E-01    3     1000022       -11        12   # BR(chi^+_1 -> chi^0_1 e^+ nu_e)
     1.11450568E-01    3     1000022       -13        14   # BR(chi^+_1 -> chi^0_1 mu^+ nu_mu)
     1.10199913E-01    3     1000022       -15        16   # BR(chi^+_1 -> chi^0_1 tau^+ nu_tau)
DECAY   1000037     1.44620086E+01   # chi^+_2
#    BR                NDA      ID1      ID2
     8.06779956E-02    2     1000022        24   # BR(chi^+_2 -> chi^0_1 W^+)
     2.44682048E-01    2     1000023        24   # BR(chi^+_2 -> chi^0_2 W^+)
     1.62152784E-01    2     1000025        24   # BR(chi^+_2 -> chi^0_3 W^+)
     2.42741339E-01    2     1000024        23   # BR(chi^+_2 -> chi^+_1 Z)
     2.43234260E-01    2     1000024        25   # BR(chi^+_2 -> chi^+_1 h^0)
#    BR                NDA      ID1      ID2       ID3
     1.03275306E-02    3     1000024         6        -6   # BR(chi^+_2 -> chi^+_1 t t_bar)
     2.04510234E-04    3     1000024         5        -5   # BR(chi^+_2 -> chi^+_1 b b_bar)
     2.68988304E-03    3     1000022        -5         6   # BR(chi^+_2 -> chi^0_1 b_bar t)
     7.87270052E-03    3     1000023        -5         6   # BR(chi^+_2 -> chi^0_2 b_bar t)
     5.37119658E-03    3     1000025        -5         6   # BR(chi^+_2 -> chi^0_3 b_bar t)
DECAY   1000022     0.00000000E+00   # chi^0_1
DECAY   1000023     9.05972636E-05   # chi^0_2
#    BR                NDA      ID1      ID2
     1.94892539E-02    2     1000022        22   # BR(chi^0_2 -> chi^0_1 photon)
#    BR                NDA      ID1      ID2       ID3
     1.18769207E-01    3     1000022         2        -2   # BR(chi^0_2 -> chi^0_1 u u_bar)
     1.17141172E-01    3     1000022         4        -4   # BR(chi^0_2 -> chi^0_1 c c_bar)
     1.52285139E-01    3     1000022         1        -1   # BR(chi^0_2 -> chi^0_1 d d_bar)
     1.52275070E-01    3     1000022         3        -3   # BR(chi^0_2 -> chi^0_1 s s_bar)
     1.34298052E-01    3     1000022         5        -5   # BR(chi^0_2 -> chi^0_1 b b_bar)
     3.43656657E-02    3     1000022        11       -11   # BR(chi^0_2 -> chi^0_1 e^- e^+)
     3.43620589E-02    3     1000022        13       -13   # BR(chi^0_2 -> chi^0_1 mu^- mu^+)
     3.33652307E-02    3     1000022        15       -15   # BR(chi^0_2 -> chi^0_1 tau^- tau^+)
     2.03649004E-01    3     1000022        12       -12   # BR(chi^0_2 -> chi^0_1 nu_e nu_bar_e)
DECAY   1000025     3.95836421E-05   # chi^0_3
#    BR                NDA      ID1      ID2
     3.39300715E-03    2     1000022        22   # BR(chi^0_3 -> chi^0_1 photon)
     2.67911198E-02    2     1000023        22   # BR(chi^0_3 -> chi^0_2 photon)
#    BR                NDA      ID1      ID2       ID3
     6.85296790E-03    3     1000022         2        -2   # BR(chi^0_3 -> chi^0_1 u u_bar)
     6.82359330E-03    3     1000022         4        -4   # BR(chi^0_3 -> chi^0_1 c c_bar)
     8.78121847E-03    3     1000022         1        -1   # BR(chi^0_3 -> chi^0_1 d d_bar)
     8.78104720E-03    3     1000022         3        -3   # BR(chi^0_3 -> chi^0_1 s s_bar)
     8.71794857E-03    3     1000022         5        -5   # BR(chi^0_3 -> chi^0_1 b b_bar)
     1.97713910E-03    3     1000022        11       -11   # BR(chi^0_3 -> chi^0_1 e^- e^+)
     1.97708243E-03    3     1000022        13       -13   # BR(chi^0_3 -> chi^0_1 mu^- mu^+)
     1.96118442E-03    3     1000022        15       -15   # BR(chi^0_3 -> chi^0_1 tau^- tau^+)
     1.17507726E-02    3     1000022        12       -12   # BR(chi^0_3 -> chi^0_1 nu_e nu_bar_e)
     5.42683307E-02    3     1000023         2        -2   # BR(chi^0_3 -> chi^0_2 u u_bar)
     5.24517350E-02    3     1000023         4        -4   # BR(chi^0_3 -> chi^0_2 c c_bar)
     6.95830724E-02    3     1000023         1        -1   # BR(chi^0_3 -> chi^0_2 d d_bar)
     6.95716334E-02    3     1000023         3        -3   # BR(chi^0_3 -> chi^0_2 s s_bar)
     5.05809157E-02    3     1000023         5        -5   # BR(chi^0_3 -> chi^0_2 b b_bar)
     1.57031433E-02    3     1000023        11       -11   # BR(chi^0_3 -> chi^0_2 e^- e^+)
     1.56990580E-02    3     1000023        13       -13   # BR(chi^0_3 -> chi^0_2 mu^- mu^+)
     1.45985708E-02    3     1000023        15       -15   # BR(chi^0_3 -> chi^0_2 tau^- tau^+)
     9.30525311E-02    3     1000023        12       -12   # BR(chi^0_3 -> chi^0_2 nu_e nu_bar_e)
     7.99485634E-02    3     1000024         1        -2   # BR(chi^0_3 -> chi^+_1 d u_bar)
     7.99485634E-02    3    -1000024        -1         2   # BR(chi^0_3 -> chi^-_1 d_bar u)
     7.90462593E-02    3     1000024         3        -4   # BR(chi^0_3 -> chi^+_1 s c_bar)
     7.90462593E-02    3    -1000024        -3         4   # BR(chi^0_3 -> chi^-_1 s_bar c)
     2.66496070E-02    3     1000024        11       -12   # BR(chi^0_3 -> chi^+_1 e^- nu_bar_e)
     2.66496070E-02    3    -1000024       -11        12   # BR(chi^0_3 -> chi^-_1 e^+ nu_e)
     2.66494070E-02    3     1000024        13       -14   # BR(chi^0_3 -> chi^+_1 mu^- nu_bar_mu)
     2.66494070E-02    3    -1000024       -13        14   # BR(chi^0_3 -> chi^-_1 mu^+ nu_mu)
     2.60481277E-02    3     1000024        15       -16   # BR(chi^0_3 -> chi^+_1 tau^- nu_bar_tau)
     2.60481277E-02    3    -1000024       -15        16   # BR(chi^0_3 -> chi^-_1 tau^+ nu_tau)
DECAY   1000035     1.52588208E+01   # chi^0_4
#    BR                NDA      ID1      ID2
     2.31615863E-01    2     1000024       -24   # BR(chi^0_4 -> chi^+_1 W^-)
     2.31615863E-01    2    -1000024        24   # BR(chi^0_4 -> chi^-_1 W^+)
     4.70421913E-02    2     1000022        23   # BR(chi^0_4 -> chi^0_1 Z)
     8.39290658E-02    2     1000023        23   # BR(chi^0_4 -> chi^0_2 Z)
     9.96351413E-02    2     1000025        23   # BR(chi^0_4 -> chi^0_3 Z)
     4.12209198E-02    2     1000022        25   # BR(chi^0_4 -> chi^0_1 h^0)
     1.47670694E-01    2     1000023        25   # BR(chi^0_4 -> chi^0_2 h^0)
     9.06255038E-02    2     1000025        25   # BR(chi^0_4 -> chi^0_3 h^0)
#    BR                NDA      ID1      ID2       ID3
     1.58149021E-03    3     1000022         6        -6   # BR(chi^0_4 -> chi^0_1 t t_bar)
     4.77638592E-03    3     1000023         6        -6   # BR(chi^0_4 -> chi^0_2 t t_bar)
     3.10306425E-03    3     1000025         6        -6   # BR(chi^0_4 -> chi^0_3 t t_bar)
     8.45057945E-03    3     1000024         5        -6   # BR(chi^0_4 -> chi^+_1 b t_bar)
     8.45057945E-03    3    -1000024        -5         6   # BR(chi^0_4 -> chi^-_1 b_bar t)
DECAY   1000021     7.91542674E+00   # ~g
#    BR                NDA      ID1      ID2
     4.94934384E-01    2     1000005        -5   # BR(~g -> ~b_1 b_bar)
     4.94934384E-01    2    -1000005         5   # BR(~g -> ~b^*_1 b)
#    BR                NDA      ID1      ID2       ID3
     7.33502910E-04    3     1000022         6        -6   # BR(~g -> chi^0_1 t t_bar)
     2.17960829E-03    3     1000023         6        -6   # BR(~g -> chi^0_2 t t_bar)
     1.71492278E-04    3     1000023         5        -5   # BR(~g -> chi^0_2 b b_bar)
     1.73271252E-03    3     1000025         6        -6   # BR(~g -> chi^0_3 t t_bar)
     2.45020501E-03    3     1000024         5        -6   # BR(~g -> chi^+_1 b t_bar)
     2.45020501E-03    3    -1000024        -5         6   # BR(~g -> chi^-_1 b_bar t)
DECAY        25     3.71972890E-03   # Gamma(h0)
     2.49323042E-03   2        22        22   # BR(h0 -> photon photon)
     1.63998278E-03   2        22        23   # BR(h0 -> photon Z)
     3.08736201E-02   2        23        23   # BR(h0 -> Z Z)
     2.52310806E-01   2       -24        24   # BR(h0 -> W W)
     7.66229286E-02   2        21        21   # BR(h0 -> gluon gluon)
     4.90590492E-09   2       -11        11   # BR(h0 -> Electron electron)
     2.18223718E-04   2       -13        13   # BR(h0 -> Muon muon)
     6.29224377E-02   2       -15        15   # BR(h0 -> Tau tau)
     1.38112505E-07   2        -2         2   # BR(h0 -> Up up)
     2.68041593E-02   2        -4         4   # BR(h0 -> Charm charm)
     5.67436592E-07   2        -1         1   # BR(h0 -> Down down)
     2.05228570E-04   2        -3         3   # BR(h0 -> Strange strange)
     5.45908673E-01   2        -5         5   # BR(h0 -> Bottom bottom)
DECAY        35     3.78083460E+01   # Gamma(HH)
     1.18428087E-08   2        22        22   # BR(HH -> photon photon)
     2.64158499E-08   2        22        23   # BR(HH -> photon Z)
     1.54812523E-06   2        23        23   # BR(HH -> Z Z)
     8.27513142E-07   2       -24        24   # BR(HH -> W W)
     1.47257902E-05   2        21        21   # BR(HH -> gluon gluon)
     9.40201193E-09   2       -11        11   # BR(HH -> Electron electron)
     4.18569074E-04   2       -13        13   # BR(HH -> Muon muon)
     1.20879919E-01   2       -15        15   # BR(HH -> Tau tau)
     1.00784725E-13   2        -2         2   # BR(HH -> Up up)
     1.95492286E-08   2        -4         4   # BR(HH -> Charm charm)
     1.45492254E-03   2        -6         6   # BR(HH -> Top top)
     7.30626863E-07   2        -1         1   # BR(HH -> Down down)
     2.64266870E-04   2        -3         3   # BR(HH -> Strange strange)
     7.05413060E-01   2        -5         5   # BR(HH -> Bottom bottom)
     2.39444138E-03   2  -1000024   1000024   # BR(HH -> Chargino1 chargino1)
     3.62783466E-02   2  -1000024   1000037   # BR(HH -> Chargino1 chargino2)
     3.62783466E-02   2  -1000037   1000024   # BR(HH -> Chargino2 chargino1)
     1.60108303E-02   2   1000022   1000022   # BR(HH -> neutralino1 neutralino1)
     1.07623262E-02   2   1000022   1000023   # BR(HH -> neutralino1 neutralino2)
     1.88880933E-03   2   1000022   1000025   # BR(HH -> neutralino1 neutralino3)
     1.54512125E-02   2   1000022   1000035   # BR(HH -> neutralino1 neutralino4)
     9.53355970E-06   2   1000023   1000023   # BR(HH -> neutralino2 neutralino2)
     1.76514847E-02   2   1000023   1000025   # BR(HH -> neutralino2 neutralino3)
     1.16759311E-02   2   1000023   1000035   # BR(HH -> neutralino2 neutralino4)
     1.38838297E-02   2   1000025   1000025   # BR(HH -> neutralino3 neutralino3)
     9.25713175E-03   2   1000025   1000035   # BR(HH -> neutralino3 neutralino4)
     9.13969999E-06   2        25        25   # BR(HH -> h0 h0)
DECAY        36     3.67588505E+01   # Gamma(A0)
     9.69482373E-08   2        22        22   # BR(A0 -> photon photon)
     7.44226118E-08   2        22        23   # BR(A0 -> photon Z)
     3.07549656E-05   2        21        21   # BR(A0 -> gluon gluon)
     9.34490906E-09   2       -11        11   # BR(A0 -> Electron electron)
     4.16027190E-04   2       -13        13   # BR(A0 -> Muon muon)
     1.20146257E-01   2       -15        15   # BR(A0 -> Tau tau)
     9.70413166E-14   2        -2         2   # BR(A0 -> Up up)
     1.88225156E-08   2        -4         4   # BR(A0 -> Charm charm)
     1.44768602E-03   2        -6         6   # BR(A0 -> Top top)
     7.26183401E-07   2        -1         1   # BR(A0 -> Down down)
     2.62659326E-04   2        -3         3   # BR(A0 -> Strange strange)
     7.01129817E-01   2        -5         5   # BR(A0 -> Bottom bottom)
     2.56978845E-03   2  -1000024   1000024   # BR(A0 -> Chargino1 chargino1)
     3.72906046E-02   2  -1000024   1000037   # BR(A0 -> Chargino1 chargino2)
     3.72906046E-02   2  -1000037   1000024   # BR(A0 -> Chargino2 chargino1)
     1.52633343E-02   2   1000022   1000022   # BR(A0 -> neutralino1 neutralino1)
     1.21717279E-02   2   1000022   1000023   # BR(A0 -> neutralino1 neutralino2)
     1.94089981E-03   2   1000022   1000025   # BR(A0 -> neutralino1 neutralino3)
     8.62312379E-03   2   1000022   1000035   # BR(A0 -> neutralino1 neutralino4)
     1.12985742E-05   2   1000023   1000023   # BR(A0 -> neutralino2 neutralino2)
     1.96400872E-02   2   1000023   1000025   # BR(A0 -> neutralino2 neutralino3)
     2.49343908E-02   2   1000023   1000035   # BR(A0 -> neutralino2 neutralino4)
     1.29303832E-02   2   1000025   1000025   # BR(A0 -> neutralino3 neutralino3)
     3.89748372E-03   2   1000025   1000035   # BR(A0 -> neutralino3 neutralino4)
     2.14561507E-06   2        23        25   # BR(A0 -> Z h0)
     1.30964239E-36   2        25        25   # BR(A0 -> h0 h0)
DECAY        37     3.98765554E+01   # Gamma(Hp)
     1.02461051E-08   2       -11        12   # BR(Hp -> Electron nu_e)
     4.38052995E-04   2       -13        14   # BR(Hp -> Muon nu_mu)
     1.23906187E-01   2       -15        16   # BR(Hp -> Tau nu_tau)
     6.92852932E-07   2        -1         2   # BR(Hp -> Down up)
     1.16385834E-05   2        -3         2   # BR(Hp -> Strange up)
     7.54880286E-06   2        -5         2   # BR(Hp -> Bottom up)
     3.31917171E-08   2        -1         4   # BR(Hp -> Down charm)
     2.49713193E-04   2        -3         4   # BR(Hp -> Strange charm)
     1.05710203E-03   2        -5         4   # BR(Hp -> Bottom charm)
     1.07539939E-07   2        -1         6   # BR(Hp -> Down top)
     2.70951854E-06   2        -3         6   # BR(Hp -> Strange top)
     7.11724851E-01   2        -5         6   # BR(Hp -> Bottom top)
     3.02442561E-02   2   1000022   1000024   # BR(Hp -> neutralino1 chargino1)
     2.28487644E-02   2   1000022   1000037   # BR(Hp -> neutralino1 chargino2)
     1.38616243E-03   2   1000023   1000024   # BR(Hp -> neutralino2 chargino1)
     3.45526539E-02   2   1000023   1000037   # BR(Hp -> neutralino2 chargino2)
     2.62293358E-02   2   1000024   1000025   # BR(Hp -> chargino1 neutralino3)
     1.25096104E-02   2   1000025   1000037   # BR(Hp -> neutralino3 chargino2)
     3.48285806E-02   2   1000024   1000035   # BR(Hp -> chargino1 neutralino4)
     1.99014672E-06   2        24        25   # BR(Hp -> W h0)
     1.31862476E-11   2        24        35   # BR(Hp -> W HH)
     1.01894176E-11   2        24        36   # BR(Hp -> W A0)
DECAY         6     2.43000000E+00   # top
#    BR                NDA      ID1      ID2
     1.00000000E+00    2           5        24   # BR(t -> b W)
Block HiggsBoundsInputHiggsCouplingsFermions
# ScalarNormEffCoupSq PseudoSNormEffCoupSq NP IP1 IP2 IP2
    9.48054613E-01    0.00000000E+00        3  25   5   5  # h0-b-b eff. coupling^2, normalised to SM
    1.16146442E+03    0.00000000E+00        3  35   5   5  # H0-b-b eff. coupling^2, normalised to SM
    0.00000000E+00    1.16141248E+03        3  36   5   5  # A0-b-b eff. coupling^2, normalised to SM
#
    1.00004473E+00    0.00000000E+00        3  25   6   6  # h0-t-t eff. coupling^2, normalised to SM
    8.16294496E-04    0.00000000E+00        3  35   6   6  # H0-t-t eff. coupling^2, normalised to SM
    0.00000000E+00    8.61020542E-04        3  36   6   6  # A0-t-t eff. coupling^2, normalised to SM
#
    9.48054613E-01    0.00000000E+00        3  25  15  15  # h0-tau-tau eff. coupling^2, normalised to SM
    1.16146442E+03    0.00000000E+00        3  35  15  15  # H0-tau-tau eff. coupling^2, normalised to SM
    0.00000000E+00    1.16141248E+03        3  36  15  15  # A0-tau-tau eff. coupling^2, normalised to SM
#
Block HiggsBoundsInputHiggsCouplingsBosons
    9.99999404E-01        3  25  24  24  # h0-W-W eff. coupling^2, normalised to SM
    5.96408389E-07        3  35  24  24  # H0-W-W eff. coupling^2, normalised to SM
    0.00000000E+00        3  36  24  24  # A0-W-W eff. coupling^2, normalised to SM
#
    9.99999404E-01        3  25  23  23  # h0-Z-Z eff. coupling^2, normalised to SM
    5.96408389E-07        3  35  23  23  # H0-Z-Z eff. coupling^2, normalised to SM
    0.00000000E+00        3  36  23  23  # A0-Z-Z eff. coupling^2, normalised to SM
#
    1.26867926E+00        3  25  21  21  # h0-g-g eff. coupling^2, normalised to SM
    6.79913536E-03        3  35  21  21  # H0-g-g eff. coupling^2, normalised to SM
    1.20318731E-01        3  36  21  21  # A0-g-g eff. coupling^2, normalised to SM
#
    0.00000000E+00        3  25  25  23  # h0-h0-Z eff. coupling^2, normalised to SM
    0.00000000E+00        3  35  25  23  # H0-h0-Z eff. coupling^2, normalised to SM
    5.96408389E-07        3  36  25  23  # A0-h0-Z eff. coupling^2, normalised to SM
    0.00000000E+00        3  35  35  23  # H0-H0-Z eff. coupling^2, normalised to SM
    9.99999404E-01        3  36  35  23  # A0-H0-Z eff. coupling^2, normalised to SM
    0.00000000E+00        3  36  36  23  # A0-A0-Z eff. coupling^2, normalised to SM
#
    0.00000000E+00        4  25  21  21  23  # h0-g-g-Z eff. coupling^2, normalised to SM
    0.00000000E+00        4  35  21  21  23  # H0-g-g-Z eff. coupling^2, normalised to SM
    0.00000000E+00        4  36  21  21  23  # A0-g-g-Z eff. coupling^2, normalised to SM
Block SPhenoLowEnergy  # low energy observables
    1    3.41066367E-04   # BR(b -> s gamma)
    2    1.58815028E-06   # BR(b -> s mu+ mu-)
    3    3.52513933E-05   # BR(b -> s nu nu)
    4    1.76480835E-15   # BR(Bd -> e+ e-)
    5    7.53906444E-11   # BR(Bd -> mu+ mu-)
    6    1.57845202E-08   # BR(Bd -> tau+ tau-)
    7    6.04787678E-14   # BR(Bs -> e+ e-)
    8    2.58365383E-09   # BR(Bs -> mu+ mu-)
    9    5.48186271E-07   # BR(Bs -> tau+ tau-)
   10    9.49597273E-05   # BR(B_u -> tau nu)
   11    9.80897628E-01   # BR(B_u -> tau nu)/BR(B_u -> tau nu)_SM
   12    5.41975600E-01   # |Delta(M_Bd)| [ps^-1] 
   13    1.93516333E+01   # |Delta(M_Bs)| [ps^-1] 
   14    0.00000000E+00   # neutron EDM according to the chiral quark model
   15    0.00000000E+00   # neutron EDM according to the relativistic quark-parton model
   16    2.15742440E-03   # epsilon_K
   17    2.28166136E-15   # Delta(M_K)
   18    2.48008398E-11   # BR(K^0 -> pi^0 nu nu)
   19    8.29058064E-11   # BR(K^+ -> pi^+ nu nu)
   20    3.23867081E-16   # Delta(g-2)_electron/2
   21    1.38463646E-11   # Delta(g-2)_muon/2
   22    3.91975700E-09   # Delta(g-2)_tau/2
   23    0.00000000E+00   # electric dipole moment of the electron
   24    0.00000000E+00   # electric dipole moment of the muon
   25    0.00000000E+00   # electric dipole moment of the tau
   26    0.00000000E+00   # Br(mu -> e gamma)
   27    0.00000000E+00   # Br(tau -> e gamma)
   28    0.00000000E+00   # Br(tau -> mu gamma)
   29    0.00000000E+00   # Br(mu -> 3 e)
   30    0.00000000E+00   # Br(tau -> 3 e)
   31    0.00000000E+00   # Br(tau -> 3 mu)
   39    6.44030635E-05   # Delta(rho_parameter)
   40    0.00000000E+00   # BR(Z -> e mu)
   41    0.00000000E+00   # BR(Z -> e tau)
   42    0.00000000E+00   # BR(Z -> mu tau)
Block FWCOEF Q=  1.60000000E+02  # Wilson coefficients at scale Q
#    id        order  M        value         comment
     0305 4422   00   0    -1.88819110E-01   # C7
     0305 4422   00   2    -2.11531990E-01   # C7
     0305 4322   00   2    -3.30708126E-04   # C7'
     0305 6421   00   0    -9.52278348E-02   # C8
     0305 6421   00   2    -1.14839714E-01   # C8
     0305 6321   00   2    -3.30925754E-04   # C8'
 03051111 4133   00   0     1.62969307E+00   # C9 e+e-
 03051111 4133   00   2     1.62990417E+00   # C9 e+e-
 03051111 4233   00   2     2.58512155E-04   # C9' e+e-
 03051111 4137   00   0    -4.45238517E+00   # C10 e+e-
 03051111 4137   00   2    -4.45066293E+00   # C10 e+e-
 03051111 4237   00   2    -1.90317687E-03   # C10' e+e-
 03051313 4133   00   0     1.62969307E+00   # C9 mu+mu-
 03051313 4133   00   2     1.62990405E+00   # C9 mu+mu-
 03051313 4233   00   2     2.58511319E-04   # C9' mu+mu-
 03051313 4137   00   0    -4.45238517E+00   # C10 mu+mu-
 03051313 4137   00   2    -4.45066306E+00   # C10 mu+mu-
 03051313 4237   00   2    -1.90317627E-03   # C10' mu+mu-
 03051212 4137   00   0     1.50535012E+00   # C11 nu_1 nu_1
 03051212 4137   00   2     1.50497914E+00   # C11 nu_1 nu_1
 03051212 4237   00   2     4.11259413E-04   # C11' nu_1 nu_1
 03051414 4137   00   0     1.50535012E+00   # C11 nu_2 nu_2
 03051414 4137   00   2     1.50497914E+00   # C11 nu_2 nu_2
 03051414 4237   00   2     4.11259581E-04   # C11' nu_2 nu_2
 03051616 4137   00   0     1.50535012E+00   # C11 nu_3 nu_3
 03051616 4137   00   2     1.50497914E+00   # C11 nu_3 nu_3
 03051616 4237   00   2     4.11306970E-04   # C11' nu_3 nu_3
Block IMFWCOEF Q=  1.60000000E+02  # Im(Wilson coefficients) at scale Q
#    id        order  M        value         comment
     0305 4422   00   0     3.85815603E-07   # C7
     0305 4422   00   2     7.51417945E-07   # C7
     0305 4322   00   2    -1.29217725E-06   # C7'
     0305 6421   00   0     3.30476579E-07   # C8
     0305 6421   00   2     2.45453630E-05   # C8
     0305 6321   00   2    -1.27916353E-07   # C8'
 03051111 4133   00   2    -9.26795962E-08   # C9 e+e-
 03051111 4233   00   2     5.70381626E-06   # C9' e+e-
 03051111 4137   00   2     2.68361080E-06   # C10 e+e-
 03051111 4237   00   2    -4.20034193E-05   # C10' e+e-
 03051313 4133   00   2    -9.26814063E-08   # C9 mu+mu-
 03051313 4233   00   2     5.70381523E-06   # C9' mu+mu-
 03051313 4137   00   2     2.68361307E-06   # C10 mu+mu-
 03051313 4237   00   2    -4.20034224E-05   # C10' mu+mu-
 03051212 4137   00   2    -5.58733885E-07   # C11 nu_1 nu_1
 03051212 4237   00   2     9.07656724E-06   # C11' nu_1 nu_1
 03051414 4137   00   2    -5.58733798E-07   # C11 nu_2 nu_2
 03051414 4237   00   2     9.07656724E-06   # C11' nu_2 nu_2
 03051616 4137   00   2    -5.58709008E-07   # C11 nu_3 nu_3
 03051616 4237   00   2     9.07656721E-06   # C11' nu_3 nu_3
