BLOCK SPINFO
   1   SPheno
   2   v4.0.5be

BLOCK SPHENOINFO
   1   2
   2   2

BLOCK MODSEL
   1   0

BLOCK MINPAR
   3    35.38198
   4   -1

BLOCK EXTPAR
   0    2419.2872
   1   -2808.5269
   2    270.63871
   3    3012.4025
   11    7101.7659
   12   -1298.2249
   13    1055.1822
   23   -116.14629
   25    34.299658
   26    122.27942
   31    4118.447
   32    4118.447
   33    2670.8119
   34    3344.3527
   35    3344.3527
   36    2060.4361
   41    2656.4763
   42    2656.4763
   43    1788.4577
   44    4973.718
   45    4973.718
   46    3313.0355
   47    1169.8681
   48    1169.8681
   49    3137.7626

BLOCK SMINPUTS
   1    127.90897
   2    1.1663787e-05
   3    0.1184
   4    91.1876
   5    4.18
   6    173.2
   7    1.777
   8    0
   11    0.00051099893
   12    0
   13    0.10565837
   14    0
   21    0.005
   22    0.0025
   23    0.095
   24    1.27

BLOCK GAUGE Q=  2419.2872
   1    0.35536298
   2    0.66519887
   3    1.219778

BLOCK YU Q=  2419.2872
   1   1    8.3879347e-06
   2   2    0.0042610708
   3   3    1.0133299

BLOCK YD Q=  2419.2872
   1   1    0.00057812943
   2   2    0.010984459
   3   3    0.57332323

BLOCK YE Q=  2419.2872
   1   1    0.00010088781
   2   2    0.0208604
   3   3    0.35083761

BLOCK AU Q=  2419.2872
   1   1    0
   2   2    0
   3   3    7101.766

BLOCK AD Q=  2419.2872
   1   1    0
   2   2    0
   3   3   -1298.225

BLOCK AE Q=  2419.2872
   1   1    0
   2   2    0
   3   3    1055.1822

BLOCK MSOFT Q=  2419.2872
   1   -2808.5269
   2    270.63871
   3    3012.4025
   21    20587.159
   22    16983.337
   31    4118.447
   32    4118.447
   33    2670.8119
   34    3344.3527
   35    3344.3527
   36    2060.4361
   41    2656.4763
   42    2656.4763
   43    1788.4577
   44    4973.718
   45    4973.718
   46    3313.0355
   47    1169.8681
   48    1169.8681
   49    3137.7626

BLOCK MASS
   6    173.2
   23    91.1876
   24    80.429995
   15    1.777
   25    121.34912
   35    129.03064
   36    122.27942
   37    152.37142
   1000001    2761.8254
   2000001    1291.7069
   1000002    2760.6929
   2000002    5030.2114
   1000003    2761.8236
   2000003    1291.702
   1000004    2760.6912
   2000004    5030.2111
   1000005    1843.8525
   2000005    3209.7977
   1000006    1806.2761
   2000006    3240.3411
   1000011    4131.3105
   2000011    3341.9641
   1000012    4130.15
   1000013    4131.3035
   2000013    3341.9518
   1000014    4130.1447
   1000015    2049.1911
   2000015    2680.6179
   1000016    2679.0435
   1000021    3144.6332
   1000022    105.75033
   1000023   -128.64706
   1000025    312.36163
   1000035   -2798.8521
   1000024    112.72258
   1000037    313.48267

BLOCK ALPHA
      -1.0979543

BLOCK HMIX Q=  2419.2872
   1   -116.14629
   2    34.299658
   3    243.46565
   4    14952.257

BLOCK STOPMIX
   1   1   -0.98959957
   1   2    0.14384955
   2   1   -0.14384955
   2   2   -0.98959957

BLOCK SBOTMIX
   1   1   -0.9999997
   1   2    0.00077966554
   2   1   -0.00077966554
   2   2   -0.9999997

BLOCK STAUMIX
   1   1   -0.0030107523
   1   2    0.99999547
   2   1   -0.99999547
   2   2   -0.0030107523

BLOCK NMIX
   1   1   -0.0091123699
   1   2   -0.270381
   1   3   -0.72703568
   1   4   -0.63105483
   2   1    0.012084618
   2   2    0.14476416
   2   3   -0.67878486
   2   4    0.71982527
   3   1    0.0040184689
   3   2   -0.95180739
   3   3    0.10329029
   3   4    0.28875191
   4   1   -0.99987738
   4   2    0.00038847055
   4   3   -0.0011629116
   4   4    0.015611473

BLOCK UMIX
   1   1   -0.15146107
   1   2   -0.98846322
   2   1    0.98846322
   2   2   -0.15146107

BLOCK VMIX
   1   1   -0.42127504
   1   2    0.90693293
   2   1    0.90693293
   2   2    0.42127504

BLOCK HIGGSBOUNDSINPUTHIGGSCOUPLINGSFERMIONS
       0, 1176.4665,3,36,15,15

BLOCK HIGGSBOUNDSINPUTHIGGSCOUPLINGSBOSONS
       0,4,36,21,21,23

BLOCK SPHENOLOWENERGY
   1    0.00057584843
   2    1.6271957e-06
   3    3.5255461e-05
   4    6.9945186e-15
   5    2.9876822e-10
   6    6.0816169e-08
   7    2.4493172e-13
   8    1.0462429e-08
   9    2.1574044e-06
   10    2.3015765e-05
   11    0.23774404
   12    0.54139291
   13    19.055486
   14    0
   15    0
   16    0.0021586148
   17    2.2820298e-15
   18    2.481096e-11
   19    8.2916877e-11
   20   -1.0710667e-15
   21   -4.5791641e-11
   22   -2.5107707e-08
   23    0
   24    0
   25    0
   26    0
   27    0
   28    0
   29    0
   30    0
   31    0
   39    7.1469334e-05
   40    0
   41    0
   42    0

BLOCK FWCOEF Q=  160
   305   4422   0   0   -0.18881911
   305   4422   0   2   -0.42436678
   305   4322   0   2   -0.0041420478
   305   6421   0   0   -0.095227835
   305   6421   0   2   -0.29868856
   305   6321   0   2   -0.0034488876
   3051111   4133   0   0    1.6091376
   3051111   4133   0   2    1.6098609
   3051111   4233   0   2   -0.00059914719
   3051111   4137   0   0   -4.4318297
   3051111   4137   0   2   -4.4301708
   3051111   4237   0   2    0.004553534
   3051313   4133   0   0    1.6091376
   3051313   4133   0   2    1.6098604
   3051313   4233   0   2   -0.00060162418
   3051313   4137   0   0   -4.4318297
   3051313   4137   0   2   -4.4301713
   3051313   4237   0   2    0.0045560207
   3051212   4137   0   0    1.5053501
   3051212   4137   0   2    1.5050108
   3051212   4237   0   2   -0.0009885454
   3051414   4137   0   0    1.5053501
   3051414   4137   0   2    1.5050108
   3051414   4237   0   2   -0.0009880053
   3051616   4137   0   0    1.5053501
   3051616   4137   0   2    1.5050137
   3051616   4237   0   2   -0.00083580232

BLOCK IMFWCOEF Q=  160
   305   4422   0   0    3.8583403e-07
   305   4422   0   2   -5.932188e-05
   305   4322   0   2    6.8281464e-06
   305   6421   0   0    3.3049236e-07
   305   6421   0   2    1.7897232e-05
   305   6321   0   2    4.7330639e-06
   3051111   4133   0   2    3.1423131e-06
   3051111   4233   0   2    9.2003294e-06
   3051111   4137   0   2    2.8008779e-05
   3051111   4237   0   2   -6.9869924e-05
   3051313   4133   0   2    3.142289e-06
   3051313   4233   0   2    9.2003217e-06
   3051313   4137   0   2    2.800881e-05
   3051313   4237   0   2   -6.9869945e-05
   3051212   4137   0   2   -5.7033602e-06
   3051212   4237   0   2    1.5168334e-05
   3051414   4137   0   2   -5.7033591e-06
   3051414   4237   0   2    1.5168334e-05
   3051616   4137   0   2   -5.651197e-06
   3051616   4237   0   2    1.5168331e-05

DECAY 23  2.4952


DECAY 24  2.085


DECAY 2000011  1.5011106
    0.99726578   2    1000035    11
    0.0016290208   2    1000023    11
    0.00092725146   2    1000022    11
    0.00017750274   2    1000025    11

DECAY 1000011  55.47867
    0.63314099   2   -1000037    12
    0.29222825   2    1000025    11
    0.027334472   2    1000035    11
    0.024799752   2    1000022    11
    0.015015857   2   -1000024    12
    0.007480683   2    1000023    11

DECAY 2000013  1.5587641
    0.96034344   2    1000035    13
    0.018093704   2   -1000024    14
    0.010683924   2    1000022    13
    0.010095094   2    1000023    13
    0.00041833174   2   -1000037    14
    0.0003655077   2    1000025    13

DECAY 1000013  55.514273
    0.63273384   2   -1000037    14
    0.29204711   2    1000025    13
    0.027316738   2    1000035    13
    0.025123899   2    1000022    13
    0.015006201   2   -1000024    14
    0.0077721255   2    1000023    13

DECAY 1000015  9.969383
    0.48966704   2   -1000024    16
    0.26550276   2    1000022    15
    0.22985876   2    1000023    15
    0.010207249   2   -1000037    16
    0.0047641917   2    1000025    15

DECAY 2000015  41.43922
    0.54153204   2   -1000037    16
    0.2516135   2    1000025    15
    0.10473117   2    1000022    15
    0.079246179   2    1000023    15
    0.012748793   2   -1000024    16
    0.0049660532   2    1000015    36
    0.0044248712   2    1000015    25
    0.00063773607   2    1000015    35

DECAY 1000012  55.505373
    0.53259357   2    1000037    11
    0.29465004   2    1000025    12
    0.11607755   2    1000024    11
    0.027367104   2    1000035    12
    0.023058755   2    1000022    12
    0.0062529848   2    1000023    12

DECAY 1000014  55.540986
    0.53226594   2    1000037    13
    0.29446072   2    1000025    14
    0.11663104   2    1000024    13
    0.0273494   2    1000035    14
    0.023043939   2    1000022    14
    0.0062489672   2    1000023    14

DECAY 1000016  41.484139
    0.45840598   2    1000037    15
    0.25451508   2    1000024    15
    0.25169061   2    1000025    16
    0.019976432   2    1000022    16
    0.0098002999   2    1000015    37
    0.0054124288   2    1000023    16
    0.00019916381   2    1000015    24

DECAY 2000001  0.0001895197
    0.56520065   2    1000023    1
    0.33537239   2    1000022    1
    0.054897686   2    1000025    1
    0.04360848   2   -1000024    2
    0.00092080044   2   -1000037    2

DECAY 1000001  35.57315
    0.65067613   2   -1000037    2
    0.30216608   2    1000025    1
    0.024611116   2    1000022    1
    0.015626473   2   -1000024    2
    0.0069202001   2    1000023    1

DECAY 2000003  0.0062659409
    0.47614966   2   -1000024    4
    0.26749358   2    1000022    3
    0.23997585   2    1000023    3
    0.010053969   2   -1000037    4
    0.006326938   2    1000025    3

DECAY 1000003  35.580707
    0.65054243   2   -1000037    4
    0.3021036   2    1000025    3
    0.02470382   2    1000022    3
    0.015646071   2   -1000024    4
    0.0070039537   2    1000023    3

DECAY 1000005  71.632925
    0.42570276   2   -1000024    6
    0.3000408   2   -1000037    6
    0.098630546   2    1000025    5
    0.096572301   2    1000022    5
    0.079053591   2    1000023    5

DECAY 2000005  46.943697
    0.43313157   2   -1000024    6
    0.23572124   2    1000022    5
    0.20540986   2    1000023    5
    0.050757654   2    1000006   -37
    0.024504542   2    1000005    36
    0.01760863   2    1000005    25
    0.010122204   2   -1000037    6
    0.008699496   2    1000021    5
    0.0069824501   2    1000005    35
    0.0047364275   2    1000025    5
    0.0021918647   2    1000035    5

DECAY 1000002  35.645623
    0.54641536   2    1000037    1
    0.30051658   2    1000025    2
    0.12059492   2    1000024    1
    0.025147171   2    1000022    2
    0.0073259795   2    1000023    2

DECAY 2000002  152.70588
    0.96492621   2    1000021    2
    0.035055781   2    1000035    2

DECAY 1000004  35.653173
    0.54630338   2    1000037    3
    0.30045505   2    1000025    4
    0.12074987   2    1000024    3
    0.025152882   2    1000022    4
    0.0073388184   2    1000023    4

DECAY 2000004  152.70941
    0.96490328   2    1000021    4
    0.035054948   2    1000035    4

DECAY 1000006  70.704857
    0.25871471   2    1000023    6
    0.21074007   2    1000037    5
    0.19902391   2    1000022    6
    0.16924647   2    1000024    5
    0.15414755   2    1000025    6
    0.008126213   3    1000022    24    5

DECAY 2000006  455.59798
    0.32335586   2    1000005    24
    0.17136439   2    1000006    35
    0.16748454   2    1000006    23
    0.12826911   2    1000024    5
    0.076437673   2    1000023    6
    0.060589452   2    1000022    6
    0.048594018   2    1000006    25
    0.015667444   2    1000037    5
    0.0072053444   2    1000025    6
    0.00091668818   2    1000035    6

DECAY 1000024  2.2394978e-08
    0.36258135   3    1000022   -1    2
    0.30862143   3    1000022   -3    4
    0.12085249   3    1000022   -11    12
    0.12070569   3    1000022   -13    14
    0.087239049   3    1000022   -15    16

DECAY 1000037  3.3698442
    0.21270219   2    1000023    24
    0.15156557   2    1000022    24
    0.14193273   2    1000024    23
    0.13992313   2    1000024    35
    0.12350132   2    1000024    36
    0.11724952   2    37    1000022
    0.068361214   2    37    1000023
    0.044743034   2    1000024    25

DECAY 1000022 -1


DECAY 1000023  2.2692754e-05
    0.14074035   3    1000022    12   -12
    0.10523082   3    1000022    1   -1
    0.10521059   3    1000022    3   -3
    0.082083608   3    1000022    2   -2
    0.078838424   3    1000022    4   -4
    0.07192341   3    1000022    5   -5
    0.051983695   3    1000024    1   -2
    0.051983695   3   -1000024   -1    2
    0.050400753   3    1000024    3   -4
    0.050400753   3   -1000024   -3    4
    0.03989664   2    1000022    22
    0.023748564   3    1000022    11   -11
    0.023741326   3    1000022    13   -13
    0.021822622   3    1000022    15   -15
    0.017327518   3    1000024    11   -12
    0.017327518   3   -1000024   -11    12
    0.017325005   3    1000024    13   -14
    0.017325005   3   -1000024   -13    14
    0.016344851   3    1000024    15   -16
    0.016344851   3   -1000024   -15    16

DECAY 1000025  3.7841522
    0.16324892   2    1000024   -24
    0.16324892   2   -1000024    24
    0.15667398   2    1000023    25
    0.14710893   2    1000023    23
    0.11516021   2    1000022    35
    0.082496493   2    37   -1000024
    0.082496493   2   -37    1000024
    0.025585172   2    1000022    25
    0.025292284   2    1000022    23
    0.014915018   2    1000022    36
    0.014089633   2    1000023    35
    0.0096473549   2    1000023    36

DECAY 1000035  24.535269
    0.069703076   2    37   -1000024
    0.069703076   2   -37    1000024
    0.068106367   2    1000023    25
    0.062991593   2    1000024   -24
    0.062991593   2   -1000024    24
    0.062172148   2    1000022    35
    0.061673849   2    1000015   -15
    0.061673849   2   -1000015    15
    0.059155262   2    2000003   -3
    0.059155262   2   -2000003    3
    0.059155017   2    2000001   -1
    0.059155017   2   -2000001    1
    0.03464704   2    1000022    23
    0.033068742   2    1000022    36
    0.032986542   2    1000023    23
    0.031787424   2    1000023    36
    0.010967843   2    1000037   -24
    0.010967843   2   -1000037    24
    0.010841255   2    1000006   -6
    0.010841255   2   -1000006    6
    0.009732235   2    1000022    25
    0.0087620503   2    1000023    35
    0.0076830968   2    1000005   -5
    0.0076830968   2   -1000005    5
    0.0068481502   2    1000025    35
    0.0062755258   2    1000025    23
    0.0045275596   3    1000024    5   -6
    0.0045275596   3   -1000024   -5    6
    0.0025268429   3    1000023    6   -6
    0.0018837908   3    1000022    6   -6
    0.0017589267   2    37   -1000037
    0.0017589267   2   -37    1000037
    0.00057429733   3    1000037    5   -6
    0.00057429733   3   -1000037   -5    6
    0.00053153762   2    1000025    36
    0.00050351501   2    1000016   -16
    0.00050351501   2   -1000016    16
    0.00048907712   2    2000015   -15
    0.00048907712   2   -2000015    15
    0.00031269498   3    1000025    6   -6

DECAY 1000021  232.20264
    0.13850067   2    2000003   -3
    0.13850067   2   -2000003    3
    0.13850024   2    2000001   -1
    0.13850024   2   -2000001    1
    0.093757277   2    1000006   -6
    0.093757277   2   -1000006    6
    0.086304156   2    1000005   -5
    0.086304156   2   -1000005    5
    0.010536614   2    1000004   -4
    0.010536614   2   -1000004    4
    0.010536578   2    1000002   -2
    0.010536578   2   -1000002    2
    0.010478621   2    1000003   -3
    0.010478621   2   -1000003    3
    0.010478533   2    1000001   -1
    0.010478533   2   -1000001    1
    0.000408966   3    1000024    5   -6
    0.000408966   3   -1000024   -5    6
    0.00032043505   3    1000023    6   -6
    0.00025451201   3    1000022    6   -6
    0.00014888427   3    1000022    5   -5
    0.00012956111   3    1000023    5   -5

DECAY 25  2.9767918
    0.90392209   2   -5    5
    0.094654453   2   -15    15
    0.00071163519   2    21    21
    0.00032913653   2   -13    13
    0.0003242421   2   -3    3
    4.6120598e-05   2   -24    24
    5.1868678e-06   2    23    23
    4.699733e-06   2   -4    4
    1.3102428e-06   2    22    22
    8.9642816e-07   2   -1    1
    2.1771917e-07   2    22    23
    7.3994207e-09   2   -11    11
    2.4218353e-11   2   -2    2

DECAY 35  0.47594497
    0.89894677   2   -5    5
    0.094729358   2   -15    15
    0.0029931233   2    21    21
    0.0021615419   2   -24    24
    0.00032939142   2   -13    13
    0.00032188339   2   -3    3
    0.0002819722   2    23    23
    0.00020657444   2   -4    4
    1.4332657e-05   2    22    23
    1.4147192e-05   2    22    22
    8.8990174e-07   2   -1    1
    7.4050122e-09   2   -11    11
    6.9228683e-09   2    23    36
    1.0644474e-09   2   -2    2

DECAY 36  3.4835008
    0.90375467   2   -5    5
    0.094589342   2   -15    15
    0.0010023333   2    21    21
    0.00032863131   2   -13    13
    0.00032343219   2   -3    3
    8.941876e-07   2   -1    1
    6.4866804e-07   2    22    22
    2.5402507e-08   2    22    23
    1.9779072e-08   2   -4    4
    7.3880234e-09   2   -11    11
    1.1073687e-13   2   -2    2

DECAY 37  0.38882102
    0.98083379   2   -15    16
    0.012351081   2   -5    4
    0.0034685353   2   -13    14
    0.0029796128   2   -3    4
    0.00013321394   2   -3    2
    8.8211718e-05   2   -5    2
    6.8494108e-05   2    24    36
    6.1049935e-05   2    24    25
    8.267669e-06   2   -1    2
    4.6203247e-06   2    24    35
    2.6657535e-06   2   -5    6
    3.7927647e-07   2   -1    4
    8.1129479e-08   2   -11    12

DECAY 6  2.43
    1   2    5    24

DECAY 15 -1
