BLOCK SPINFO
   1   SPheno
   2   v4.0.5be

BLOCK SPHENOINFO
   1   2
   2   2

BLOCK MODSEL
   1   0

BLOCK MINPAR
   3    34.994476
   4    1

BLOCK EXTPAR
   0    2008.8697
   1    240.51958
   2    2478.9627
   3    4251.3154
   11    5534.8412
   12    2670.9707
   13   -7461.3466
   23    2241.8086
   25    33.705233
   26    4759.0783
   31    1470.9853
   32    1470.9853
   33    3317.4664
   34    4001.1226
   35    4001.1226
   36    1558.1146
   41    2660.0176
   42    2660.0176
   43    2701.4891
   44    3919.5518
   45    3919.5518
   46    1581.5279
   47    1268.414
   48    1268.414
   49    4164.2447

BLOCK SMINPUTS
   1    127.90897
   2    1.1663787e-05
   3    0.1184
   4    91.1876
   5    4.18
   6    173.2
   7    1.777
   8    0
   11    0.00051099893
   12    0
   13    0.10565837
   14    0
   21    0.005
   22    0.0025
   23    0.095
   24    1.27

BLOCK GAUGE Q=  2008.8697
   1    0.35536298
   2    0.66519887
   3    1.219778

BLOCK YU Q=  2008.8697
   1   1    8.3880615e-06
   2   2    0.0042611352
   3   3    1.0133452

BLOCK YD Q=  2008.8697
   1   1    0.00056811883
   2   2    0.010794258
   3   3    0.56339586

BLOCK YE Q=  2008.8697
   1   1    9.914089e-05
   2   2    0.020499192
   3   3    0.34476268

BLOCK AU Q=  2008.8697
   1   1    0
   2   2    0
   3   3    5534.8413

BLOCK AD Q=  2008.8697
   1   1    0
   2   2    0
   3   3    2670.9705

BLOCK AE Q=  2008.8697
   1   1    0
   2   2    0
   3   3   -7461.3466

BLOCK MSOFT Q=  2008.8697
   1    240.51958
   2    2478.9627
   3    4251.3154
   21    17706004
   22   -4917204
   31    1470.9853
   32    1470.9853
   33    3317.4664
   34    4001.1226
   35    4001.1226
   36    1558.1146
   41    2660.0176
   42    2660.0176
   43    2701.4891
   44    3919.5518
   45    3919.5518
   46    1581.5279
   47    1268.414
   48    1268.414
   49    4164.2447

BLOCK MASS
   6    173.2
   23    91.1876
   24    80.429995
   15    1.777
   25    125.363
   35    4758.1281
   36    4759.0783
   37    4758.4336
   1000001    2705.5908
   2000001    1201.6699
   1000002    2704.5815
   2000002    3971.7945
   1000003    2705.5913
   2000003    1201.6735
   1000004    2704.5818
   2000004    3971.7943
   1000005    2687.8122
   2000005    4212.8457
   1000006    1486.0298
   2000006    2715.6639
   1000011    1494.4615
   2000011    4002.5237
   1000012    1492.0297
   1000013    1494.4878
   2000013    4002.5212
   1000014    1492.0577
   1000015    1599.6042
   2000015    3334.3625
   1000016    3332.9968
   1000021    4172.4741
   1000022    240.02389
   1000023    2232.441
   1000025   -2242.9232
   1000035    2508.087
   1000024    2232.6497
   1000037    2508.3287

BLOCK ALPHA
      -0.028582187

BLOCK HMIX Q=  2008.8697
   1    2241.8086
   2    33.705233
   3    243.63678
   4    22648826

BLOCK STOPMIX
   1   1   -0.16456997
   1   2    0.98636541
   2   1   -0.98636541
   2   2   -0.16456997

BLOCK SBOTMIX
   1   1    0.99993652
   1   2    0.011267746
   2   1   -0.011267746
   2   2    0.99993652

BLOCK STAUMIX
   1   1    0.017411245
   1   2    0.99984841
   2   1   -0.99984841
   2   2    0.017411245

BLOCK NMIX
   1   1    0.99978897
   1   2   -7.30153e-05
   1   3    0.020377733
   1   4   -0.0025985768
   2   1    0.015941509
   2   2    0.20643503
   2   3   -0.69338351
   2   4    0.69018095
   3   1   -0.01256933
   3   2    0.011215082
   3   3    0.70689844
   3   4    0.70711443
   4   1    0.0031448615
   4   2   -0.97839603
   4   3   -0.13819783
   4   4    0.15372923

BLOCK UMIX
   1   1   -0.18900754
   1   2    0.98197564
   2   1    0.98197564
   2   2    0.18900754

BLOCK VMIX
   1   1   -0.21100418
   1   2    0.97748516
   2   1    0.97748516
   2   2    0.21100418

BLOCK HIGGSBOUNDSINPUTHIGGSCOUPLINGSFERMIONS
       0, 1136.0427,3,36,15,15

BLOCK HIGGSBOUNDSINPUTHIGGSCOUPLINGSBOSONS
       0,4,36,21,21,23

BLOCK SPHENOLOWENERGY
   1    0.00033318993
   2    1.5885946e-06
   3    3.5247658e-05
   4    4.3160185e-15
   5    1.8437598e-10
   6    3.8626723e-08
   7    1.4508496e-13
   8    6.1980446e-09
   9    1.3156852e-06
   10    9.6227989e-05
   11    0.99399828
   12    0.54290829
   13    19.396016
   14    0
   15    0
   16    0.0021636625
   17    2.2817233e-15
   18    2.480024e-11
   19    8.289838e-11
   20    2.024784e-15
   21    8.656805e-11
   22    1.436251e-08
   23    0
   24    0
   25    0
   26    0
   27    0
   28    0
   29    0
   30    0
   31    0
   39    6.5490482e-05
   40    0
   41    0
   42    0

BLOCK FWCOEF Q=  160
   305   4422   0   0   -0.18881911
   305   4422   0   2   -0.20357
   305   4322   0   2   -0.00029625623
   305   6421   0   0   -0.095227835
   305   6421   0   2   -0.10619814
   305   6321   0   2   -0.00021930791
   3051111   4133   0   0    1.6025347
   3051111   4133   0   2    1.6027205
   3051111   4233   0   2    0.0001240662
   3051111   4137   0   0   -4.4252268
   3051111   4137   0   2   -4.4231098
   3051111   4237   0   2   -0.00095198752
   3051313   4133   0   0    1.6025347
   3051313   4133   0   2    1.6027189
   3051313   4233   0   2    0.00012406609
   3051313   4137   0   0   -4.4252268
   3051313   4137   0   2   -4.4231113
   3051313   4237   0   2   -0.00095198786
   3051212   4137   0   0    1.5053501
   3051212   4137   0   2    1.5048912
   3051212   4237   0   2    0.00020698236
   3051414   4137   0   0    1.5053501
   3051414   4137   0   2    1.5048912
   3051414   4237   0   2    0.00020698237
   3051616   4137   0   0    1.5053501
   3051616   4137   0   2    1.5048914
   3051616   4237   0   2    0.00020698375

BLOCK IMFWCOEF Q=  160
   305   4422   0   0    3.8558888e-07
   305   4422   0   2    7.6006304e-06
   305   4322   0   2   -4.3063275e-06
   305   6421   0   0    3.3028237e-07
   305   6421   0   2    1.4186217e-07
   305   6321   0   2   -2.5578591e-06
   3051111   4133   0   2   -1.4533144e-06
   3051111   4233   0   2    2.4569182e-06
   3051111   4137   0   2    1.1645776e-05
   3051111   4237   0   2   -1.8852176e-05
   3051313   4133   0   2   -1.4533025e-06
   3051313   4233   0   2    2.4569169e-06
   3051313   4137   0   2    1.1645794e-05
   3051313   4237   0   2   -1.8852183e-05
   3051212   4137   0   2   -2.5064366e-06
   3051212   4237   0   2    4.0988582e-06
   3051414   4137   0   2   -2.5064374e-06
   3051414   4237   0   2    4.0988582e-06
   3051616   4137   0   2   -2.50184e-06
   3051616   4237   0   2    4.0988491e-06

DECAY 23  2.4952


DECAY 24  2.085


DECAY 1000011  1.7804414
    1   2    1000022    11

DECAY 2000011  19.962401
    0.99979988   2    1000022    11
    0.00012151668   2    1000023    11

DECAY 1000013  1.780481
    1   2    1000022    13

DECAY 2000013  19.998398
    0.99800029   2    1000022    13
    0.00076557741   2   -1000024    14
    0.00050308269   2    1000023    13
    0.00046821468   2    1000025    13
    0.00022533222   2    1000013    25

DECAY 1000015  7.6779018
    1   2    1000022    15

DECAY 2000015  18.362264
    0.29138507   2   -1000037    16
    0.22574982   2    1000022    15
    0.14583043   2    1000035    15
    0.094532445   2    1000015    23
    0.089146353   2    1000015    25
    0.073164449   2    1000023    15
    0.064409444   2    1000025    15
    0.015781987   2   -1000024    16

DECAY 1000012  1.7782092
    1   2    1000022    12

DECAY 1000014  1.7782461
    1   2    1000022    14

DECAY 1000016  18.470048
    0.28837671   2    1000037    15
    0.22430064   2    1000022    16
    0.18784322   2    1000015    24
    0.14641199   2    1000024    15
    0.14353238   2    1000035    16
    0.0094586059   2    1000023    16

DECAY 2000001  0.61815818
    1   2    1000022    1

DECAY 1000001  1.188182
    0.3815763   2   -1000037    2
    0.31296156   2    1000022    1
    0.19006398   2    1000035    1
    0.072892149   2   -1000024    2
    0.042323826   2    1000023    1
    0.00017817377   2    1000025    1

DECAY 2000003  0.61816126
    1   2    1000022    3

DECAY 1000003  1.1905918
    0.38080318   2   -1000037    4
    0.31233028   2    1000022    3
    0.18968335   2    1000035    3
    0.072811191   2   -1000024    4
    0.042492641   2    1000023    3
    0.0014445669   2    2000003    25
    0.00043478556   2    1000025    3

DECAY 1000005  125.49134
    0.94737477   2    1000006   -24
    0.033857046   2   -1000024    6
    0.0066360527   2    1000023    5
    0.0062301906   2    1000025    5
    0.0030264646   2    1000022    5
    0.0015581395   2    1000035    5
    0.0013173369   2   -1000037    6

DECAY 2000005  33.8217
    0.38875523   2   -1000024    6
    0.20192175   2    1000025    5
    0.19457277   2    1000023    5
    0.069218025   2    1000022    5
    0.061351421   2    1000005    25
    0.036928978   2    2000006   -24
    0.019792311   2    1000005    23
    0.013320951   2   -1000037    6
    0.0071245078   2    1000035    5
    0.0035478126   2    1000021    5
    0.0034662384   2    1000006   -24

DECAY 1000002  1.1998637
    0.37086324   2    1000037    1
    0.30928754   2    1000022    2
    0.18600482   2    1000035    2
    0.089642608   2    1000024    1
    0.044123849   2    1000023    2

DECAY 2000002  8.8030503
    0.99980273   2    1000022    2
    0.00011982299   2    1000023    2

DECAY 1000004  1.2005619
    0.37065466   2    1000037    3
    0.30910754   2    1000022    4
    0.1858961   2    1000035    4
    0.090094176   2    1000024    3
    0.044130249   2    1000023    4
    0.00011727112   2    1000025    4

DECAY 2000004  8.8043773
    0.99965174   2    1000022    4
    0.00015620617   2    1000023    4
    0.00011156961   2    1000025    4

DECAY 1000006  2.9619631
    0.99996206   2    1000022    6

DECAY 2000006  139.23598
    0.50405037   2    1000006    25
    0.43937555   2    1000006    23
    0.016457612   2    1000025    6
    0.015925171   2    1000023    6
    0.015731113   2    1000024    5
    0.0038587613   2    1000022    6
    0.0031882158   2    1000037    5
    0.0014132147   2    1000035    6

DECAY 1000024  21.609573
    0.87720331   2    1000006   -5
    0.068979152   2    1000022    24
    0.028254003   2   -1000015    16
    0.0063282332   2    1000014   -13
    0.0062007783   2    1000012   -11
    0.0049491695   2   -1000011    12
    0.0049488872   2   -1000013    14
    0.0029586198   3    1000022   -5    6
    0.00017477524   2   -2000003    4

DECAY 1000037  27.970757
    0.15835609   2   -1000011    12
    0.15834997   2   -1000013    14
    0.15747323   2    1000012   -11
    0.15747211   2    1000014   -13
    0.11420819   2    1000006   -5
    0.069879   2    1000025    24
    0.066105921   2    1000023    24
    0.05845865   2    1000024    25
    0.055755262   2    1000024    23
    0.0026630049   2    1000022    24
    0.00090821833   2   -1000015    16
    0.00013187916   3    1000022   -5    6

DECAY 1000022 -1


DECAY 1000023  19.775699
    0.43467862   2    1000006   -6
    0.43467862   2   -1000006    6
    0.043183605   2    1000022    25
    0.028159536   2    1000022    23
    0.015415835   2    1000015   -15
    0.015415835   2   -1000015    15
    0.0035650162   2    1000013   -13
    0.0035650162   2   -1000013    13
    0.0034959597   2    1000011   -11
    0.0034959597   2   -1000011    11
    0.0029795486   2    1000012   -12
    0.0029795486   2   -1000012    12
    0.0029793682   2    1000014   -14
    0.0029793682   2   -1000014    14
    0.0021762804   3    1000022    6   -6
    0.00010731072   2    2000003   -3
    0.00010731072   2   -2000003    3

DECAY 1000025  21.844129
    0.4433376   2    1000006   -6
    0.4433376   2   -1000006    6
    0.044834296   2    1000022    23
    0.036626118   2    1000022    25
    0.014638846   2    1000015   -15
    0.014638846   2   -1000015    15
    0.0021382834   3    1000022    6   -6

DECAY 1000035  29.232001
    0.07571608   2    1000012   -12
    0.07571608   2   -1000012    12
    0.075712969   2    1000014   -14
    0.075712969   2   -1000014    14
    0.074929292   2    1000011   -11
    0.074929292   2   -1000011    11
    0.074929122   2    1000013   -13
    0.074929122   2   -1000013    13
    0.072909797   2    1000025    23
    0.055026937   2    1000023    25
    0.054251833   2    1000006   -6
    0.054251833   2   -1000006    6
    0.053638056   2    1000025    25
    0.051661975   2    1000024   -24
    0.051661975   2   -1000024    24
    0.0014697341   2    1000022    25
    0.0010439759   2    1000022    23
    0.00047207356   2    1000015   -15
    0.00047207356   2   -1000015    15
    0.00019982933   2    1000023    23
    0.0001011407   3    1000022    6   -6

DECAY 1000021  554.29844
    0.093692272   2    2000001   -1
    0.093692272   2   -2000001    1
    0.09369217   2    2000003   -3
    0.09369217   2   -2000003    3
    0.087502751   2    1000006   -6
    0.087502751   2   -1000006    6
    0.038127833   2    1000005   -5
    0.038127833   2   -1000005    5
    0.037456806   2    1000002   -2
    0.037456806   2   -1000002    2
    0.037456785   2    1000004   -4
    0.037456785   2   -1000004    4
    0.037416294   2    1000001   -1
    0.037416294   2   -1000001    1
    0.037416275   2    1000003   -3
    0.037416275   2   -1000003    3
    0.035130131   2    2000006   -6
    0.035130131   2   -2000006    6
    0.00098185643   2    2000002   -2
    0.00098185643   2   -2000002    2
    0.00098183906   2    2000004   -4
    0.00098183906   2   -2000004    4

DECAY 25  0.0039175161
    0.56697849   2   -5    5
    0.23503363   2   -24    24
    0.071610614   2    21    21
    0.065268461   2   -15    15
    0.028656371   2    23    23
    0.028122789   2   -4    4
    0.0023578218   2    22    22
    0.0015318623   2    22    23
    0.00022636165   2   -13    13
    0.00021286294   2   -3    3
    5.8854392e-07   2   -1    1
    1.4492244e-07   2   -2    2
    5.088857e-09   2   -11    11

DECAY 35  84.031578
    0.44086831   2   -5    5
    0.15321484   2   -15    15
    0.14561685   2   -2000006    1000006
    0.14561685   2   -1000006    2000006
    0.027745996   2   -1000006    1000006
    0.0223143   2    1000022    1000025
    0.0173653   2    1000022    1000023
    0.015136803   2   -1000024    1000037
    0.015136803   2   -1000037    1000024
    0.011254317   2    1000025    1000035
    0.0017061339   2    1000023    1000025
    0.0010335461   2   -6    6
    0.0010182972   2   -1000024    1000024
    0.00057027423   2   -13    13
    0.00042661736   2    1000023    1000023
    0.00040353834   2    1000022    1000035
    0.00016721428   2    1000023    1000035
    0.0001600771   2   -1000015    1000015
    0.0001547381   2   -3    3
    4.9246453e-05   2    1000022    1000022
    2.5475604e-05   2    25    25
    1.0521204e-05   2    21    21
    2.9653129e-06   2    1000025    1000025
    4.2791931e-07   2   -1    1
    6.0160502e-08   2    22    22
    4.8141875e-08   2    22    23
    4.3112936e-08   2   -1000011    1000011
    4.2764772e-08   2   -1000013    1000013
    3.1786433e-08   2    23    23
    1.2806161e-08   2   -11    11
    1.0011731e-08   2   -1000001    1000001
    9.9724327e-09   2   -1000003    1000003
    6.6476484e-09   2   -2000003    1000003
    6.6476484e-09   2   -1000003    2000003
    5.5368193e-09   2   -24    24
    3.7008413e-09   2   -4    4
    1.8425055e-11   2   -2000001    1000001
    1.8425055e-11   2   -1000001    2000001
    1.9075715e-14   2   -2    2

DECAY 36  82.687762
    0.42906146   2   -5    5
    0.16390982   2   -2000006    1000006
    0.16390982   2   -1000006    2000006
    0.14920765   2   -15    15
    0.022318445   2    1000022    1000023
    0.017890297   2    1000022    1000025
    0.012669826   2    1000023    1000035
    0.012624385   2   -1000024    1000037
    0.012624385   2   -1000037    1000024
    0.0093932147   2   -1000024    1000024
    0.0039745519   2    1000023    1000023
    0.00079185018   2   -6    6
    0.00055768113   2    1000022    1000035
    0.00055522901   2   -13    13
    0.00017795422   2    1000023    1000025
    0.00015064   2   -3    3
    0.00010107441   2    1000025    1000035
    5.1362167e-05   2    1000022    1000022
    2.41987e-05   2    1000025    1000025
    5.0558995e-06   2    21    21
    4.2875857e-07   2    22    23
    4.1658348e-07   2   -1    1
    1.2770566e-07   2    22    22
    8.3852662e-08   2    23    25
    1.2468518e-08   2   -11    11
    6.7795021e-09   2   -2000003    1000003
    6.7795021e-09   2   -1000003    2000003
    6.4118196e-09   2   -4    4
    1.8790493e-11   2   -2000001    1000001
    1.8790493e-11   2   -1000001    2000001
    3.3044494e-14   2   -2    2
    2.6581594e-37   2    25    25

DECAY 37  67.063729
    0.48335923   2   -5    6
    0.23517667   2   -1000005    1000006
    0.17376836   2   -15    16
    0.049209857   2    1000022    1000024
    0.019304131   2    1000023    1000037
    0.018952376   2    1000024    1000035
    0.01419689   2    1000025    1000037
    0.0028289581   2    1000024    1000025
    0.0011932244   2    1000022    1000037
    0.00071445161   2   -5    4
    0.00061433293   2   -13    14
    0.00043828176   2   -2000003    1000006
    0.00018440293   2   -3    4
    2.0339313e-05   2    1000023    1000024
    2.0101644e-05   2   -2000001    1000006
    8.6795304e-06   2   -3    2
    5.1019205e-06   2   -5    2
    3.3827588e-06   2   -3    6
    5.1189378e-07   2   -1    2
    2.1241466e-07   2   -1000011    1000012
    2.1180207e-07   2   -1000013    1000014
    1.4251391e-07   2   -1    6
    1.0337141e-07   2    24    25
    2.5324312e-08   2   -1    4
    1.5776807e-08   2   -1000003    1000004
    1.4369311e-08   2   -11    12
    8.4508765e-10   2   -1000003    1000002
    6.2391042e-10   2   -1000003    1000006
    6.0031114e-11   2   -1000003    2000006
    4.380214e-11   2   -1000001    1000002
    2.3394217e-12   2   -1000001    1000004
    7.9312255e-14   2   -1000001    1000006
    7.6312188e-15   2   -1000001    2000006

DECAY 6  2.43
    1   2    5    24

DECAY 15 -1
