BLOCK DCINFO
   1   SDECAY/HDECAY
   2   1.3b /3.4

BLOCK SPINFO
   1   SOFTSUSY
   2   3.4.0

BLOCK MODSEL
   1   0

BLOCK SMINPUTS
   1    127.90897
   2    1.1663787e-05
   3    0.1184
   4    91.1876
   5    4.18
   6    173.2
   7    1.777

BLOCK MINPAR
   3    32.42

BLOCK EXTPAR
   0   -1
   1   -951.28
   2    2536.02
   3    3465.48
   11   -4737.5
   12   -770.26
   13   -1885.96
   23    1023.91
   26    1804.36
   31    1629.29
   32    1629.29
   33    1125.89
   34    3873.14
   35    3873.14
   36    3263.77
   41    741.26
   42    741.26
   43    3285.14
   44    1176.94
   45    1176.94
   46    3260.71
   47    1321.17
   48    1321.17
   49    3611.87

BLOCK MASS
   24    80.378496
   25    126.83808
   35    1804.3753
   36    1804.36
   37    1806.2061
   5    4.8187603
   1000001    1027.0494
   2000001    1497.8781
   1000002    1024.0219
   2000002    1366.3828
   1000003    1027.0494
   2000003    1497.8781
   1000004    1024.0219
   2000004    1366.3828
   1000005    3364.5742
   2000005    3705.681
   1000006    3220.6402
   2000006    3435.4853
   1000011    1663.3111
   2000011    3876.5078
   1000012    1661.1698
   1000013    1663.3111
   2000013    3876.5078
   1000014    1661.1698
   1000015    1163.0711
   2000015    3256.6635
   1000016    1160.3747
   1000021    3530.454
   1000022   -929.81089
   1000023    1058.2457
   1000025   -1067.8804
   1000035    2513.4329
   1000024    1058.9311
   1000037    2513.5996

BLOCK NMIX
   1   1    0.97416955
   1   2    0.0032471151
   1   3    0.17033347
   1   4    0.14822166
   2   1   -0.016087548
   2   2   -0.039412933
   2   3    0.70702669
   2   4   -0.70590444
   3   1   -0.22524349
   3   2    0.014613098
   3   3    0.68614898
   3   4    0.69155723
   4   1   -0.00050624295
   4   2    0.99911087
   4   3    0.017301524
   4   4   -0.038443032

BLOCK UMIX
   1   1   -0.024473894
   1   2    0.99970047
   2   1   -0.99970047
   2   2   -0.024473894

BLOCK VMIX
   1   1   -0.054378034
   1   2    0.99852042
   2   1   -0.99852042
   2   2   -0.054378034

BLOCK STOPMIX
   1   1    0.56613815
   1   2    0.82431037
   2   1   -0.82431037
   2   2    0.56613815

BLOCK SBOTMIX
   1   1    0.99954798
   1   2    0.030063794
   2   1   -0.030063794
   2   2    0.99954798

BLOCK STAUMIX
   1   1    0.99997504
   1   2    0.0070659307
   2   1   -0.0070659307
   2   2    0.99997504

BLOCK ALPHA
      -0.032060362

BLOCK HMIX Q=  3272.42
   1    1043.4743
   2    31.382345
   3    242.55379
   4    3937725.1

BLOCK GAUGE Q=  3272.42
   1    0.36522771
   2    0.63708892
   3    1.0089558

BLOCK AU Q=  3272.42
   1   1    0
   2   2    0
   3   3   -4737.5

BLOCK AD Q=  3272.42
   1   1    0
   2   2    0
   3   3   -770.25999

BLOCK AE Q=  3272.42
   1   1    0
   2   2    0
   3   3   -1885.96

BLOCK YU Q=  3272.42
   1   1    0
   2   2    0
   3   3    0.80871565

BLOCK YD Q=  3272.42
   1   1    0
   2   2    0
   3   3    0.41224942

BLOCK YE Q=  3272.42
   1   1    0
   2   2    0
   3   3    0.34413033

BLOCK MSOFT Q=  3272.42
   1   -951.28
   2    2536.02
   3    3465.48
   21    2172623
   22   -906828.91
   31    1629.29
   32    1629.29
   33    1125.89
   34    3873.14
   35    3873.14
   36    3263.77
   41    741.25994
   42    741.25994
   43    3285.14
   44    1176.94
   45    1176.94
   46    3260.71
   47    1321.17
   48    1321.17
   49    3611.87

BLOCK HIGGSBOUNDSINPUTHIGGSCOUPLINGSFERMIONS
       0, 984.85159,3,36,15,15

BLOCK HIGGSBOUNDSINPUTHIGGSCOUPLINGSBOSONS
       0,4,36,21,21,23

DECAY 6  1.4299637
    1   2    5    24

DECAY 1000021  441.0133
    0.068036199   2    1000002   -2
    0.068036199   2   -1000002    2
    0.068036196   2    1000004   -4
    0.068036196   2   -1000004    4
    0.067962199   2    1000001   -1
    0.067962199   2   -1000001    1
    0.067962199   2    1000003   -3
    0.067962199   2   -1000003    3
    0.058630781   2    2000002   -2
    0.058630781   2   -2000002    2
    0.058630776   2    2000004   -4
    0.058630776   2   -2000004    4
    0.054537192   2    2000001   -1
    0.054537192   2   -2000001    1
    0.054537192   2    2000003   -3
    0.054537192   2   -2000003    3
    0.00094776442   2    1000006   -6
    0.00094776442   2   -1000006    6
    0.00071950159   2    1000005   -5
    0.00071950159   2   -1000005    5

DECAY 1000006  66.228615
    0.40299986   2    1000024    5
    0.27740579   2    1000025    6
    0.2453875   2    1000023    6
    0.050933588   2    1000022    6
    0.015514031   2    1000037    5
    0.0077592289   2    1000035    6

DECAY 2000006  65.975007
    0.27743135   2    1000023    6
    0.25402132   2    1000024    5
    0.22813149   2    1000025    6
    0.07377123   2    1000022    6
    0.06751125   2    1000037    5
    0.056992141   2    1000006    23
    0.033830399   2    1000035    6
    0.0083108197   2    1000006    25

DECAY 1000005  55.298417
    0.63511365   2   -1000024    6
    0.095783736   2   -1000037    6
    0.083977337   2    1000023    5
    0.077894515   2    1000025    5
    0.04783349   2    1000035    5
    0.04617343   2    1000006   -24
    0.013223848   2    1000022    5

DECAY 2000005  25.068493
    0.4206291   2   -1000024    6
    0.21019256   2    1000023    5
    0.20422818   2    1000025    5
    0.082636149   2    1000022    5
    0.067928575   2    1000021    5
    0.0051598322   2    1000006   -24
    0.0033832521   2    1000005    25
    0.002865073   2    1000005    23
    0.0018804208   2    2000006   -24
    0.00073070374   2   -1000037    6
    0.00036615304   2    1000035    5

DECAY 1000002  0.0049410534
    1   2    1000022    2

DECAY 2000002  0.93887733
    0.97233793   2    1000022    2
    0.027513791   2    1000025    2
    0.00014827421   2    1000023    2

DECAY 1000001  0.0048756418
    1   2    1000022    1

DECAY 2000001  0.33698138
    0.96660686   2    1000022    1
    0.033217406   2    1000025    1
    0.00017573024   2    1000023    1

DECAY 1000004  0.004569361
    1   2    1000022    4

DECAY 2000004  0.90672844
    0.97253526   2    1000022    4
    0.027317417   2    1000025    4
    0.00014732036   2    1000023    4

DECAY 1000003  0.0045143149
    1   2    1000022    3

DECAY 2000003  0.32760996
    0.96674788   2    1000022    3
    0.033077065   2    1000025    3
    0.00017505778   2    1000023    3

DECAY 1000011  1.0404166
    0.96261134   2    1000022    11
    0.029245103   2    1000025    11
    0.0054090297   2    1000023    11
    0.0027345282   2   -1000024    12

DECAY 2000011  18.239246
    0.95087599   2    1000022    11
    0.048873856   2    1000025    11
    0.00025005303   2    1000023    11
    9.7120256e-08   2    1000035    11

DECAY 1000013  1.0404166
    0.96261134   2    1000022    13
    0.029245103   2    1000025    13
    0.0054090297   2    1000023    13
    0.0027345282   2   -1000024    14

DECAY 2000013  18.239246
    0.95087599   2    1000022    13
    0.048873856   2    1000025    13
    0.00025005303   2    1000023    13
    9.7120256e-08   2    1000035    13

DECAY 1000015  0.27779981
    0.73191826   2    1000022    15
    0.14691879   2    1000023    15
    0.1203713   2    1000025    15
    0.00079165309   2   -1000024    16

DECAY 2000015  30.272476
    0.46296354   2    1000022    15
    0.2024325   2   -1000024    16
    0.11844836   2    1000025    15
    0.10139634   2    1000023    15
    0.033134205   2    1000016   -37
    0.023624643   2    1000016   -24
    0.016550086   2    1000015    36
    0.016542273   2    1000015    35
    0.0126611   2    1000015    25
    0.012159307   2    1000015    23
    5.8409732e-05   2   -1000037    16
    2.9225463e-05   2    1000035    15

DECAY 1000012  1.0387842
    0.9385421   2    1000022    12
    0.045924343   2    1000025    12
    0.013456039   2    1000024    11
    0.0020775189   2    1000023    12

DECAY 1000014  1.0387842
    0.9385421   2    1000022    14
    0.045924343   2    1000025    14
    0.013456039   2    1000024    13
    0.0020775189   2    1000023    14

DECAY 1000016  0.26428517
    0.70002934   2    1000022    16
    0.29093194   2    1000024    15
    0.0085811778   2    1000025    16
    0.00045754387   2    1000023    16

DECAY 1000024  0.11043977
    0.99621311   2    1000022    24
    0.0016184342   2    1000002   -1
    0.0016183426   2    1000004   -3
    0.00027520878   2   -1000001    2
    0.0002749098   2   -1000003    4

DECAY 1000037  129.51311
    0.162657   2   -1000001    2
    0.16265697   2   -1000003    4
    0.16265356   2    1000002   -1
    0.16265356   2    1000004   -3
    0.048381531   2    1000016   -15
    0.0483562   2   -1000015    16
    0.039208622   2    1000024    25
    0.038889577   2    1000024    23
    0.037751236   2    1000023    24
    0.035548329   2    1000025    24
    0.024785308   2    1000012   -11
    0.024785308   2    1000014   -13
    0.024744632   2   -1000011    12
    0.024744632   2   -1000013    14
    0.0021835266   2    1000022    24

DECAY 1000022 -1


DECAY 1000023  0.080743058
    0.99575048   2    1000022    23
    0.00065076562   2    1000002   -2
    0.00065076562   2   -1000002    2
    0.00065015187   2    1000004   -4
    0.00065015187   2   -1000004    4
    0.00039814341   2    1000001   -1
    0.00039814341   2   -1000001    1
    0.00039814341   2    1000003   -3
    0.00039814341   2   -1000003    3
    5.5112267e-05   2    1000022    25

DECAY 1000025  0.090596551
    0.9746359   2    1000022    25
    0.017755961   2    1000022    23
    0.0014872756   2    1000001   -1
    0.0014872756   2   -1000001    1
    0.0014872756   2    1000003   -3
    0.0014872756   2   -1000003    3
    0.00041487917   2    1000002   -2
    0.00041487917   2   -1000002    2
    0.00041464089   2    1000004   -4
    0.00041464089   2   -1000004    4

DECAY 1000035  129.48897
    0.081413049   2    1000002   -2
    0.081413049   2   -1000002    2
    0.081413033   2    1000004   -4
    0.081413033   2   -1000004    4
    0.081254112   2    1000001   -1
    0.081254112   2   -1000001    1
    0.081254112   2    1000003   -3
    0.081254112   2   -1000003    3
    0.037774634   2    1000024   -24
    0.037774634   2   -1000024    24
    0.03417238   2    1000023    25
    0.032031439   2    1000025    23
    0.024231538   2    1000016   -16
    0.024231538   2   -1000016    16
    0.024139779   2    1000015   -15
    0.024139779   2   -1000015    15
    0.01241346   2    1000012   -12
    0.01241346   2   -1000012    12
    0.01241346   2    1000014   -14
    0.01241346   2   -1000014    14
    0.012349479   2    1000011   -11
    0.012349479   2   -1000011    11
    0.012349479   2    1000013   -13
    0.012349479   2   -1000013    13
    0.0049169745   2    1000023    23
    0.0046149434   2    1000025    25
    0.0018935019   2    1000022    23
    0.00035845581   2    1000022    25
    8.7375956e-09   2    2000002   -2
    8.7375956e-09   2   -2000002    2
    8.7375914e-09   2    2000004   -4
    8.7375914e-09   2   -2000004    4
    1.8332288e-09   2    2000001   -1
    1.8332288e-09   2   -2000001    1
    1.8332288e-09   2    2000003   -3
    1.8332288e-09   2   -2000003    3

DECAY 25  0.0045222192
    0.58798656   2    5   -5
    0.22690809   2    24   -24
    0.073577137   2    21    21
    0.058777381   2   -15    15
    0.029072982   2    23    23
    0.01940447   2    4   -4
    0.0022176212   2    22    22
    0.0016217062   2    22    23
    0.00022597982   2    3   -3
    0.00020806738   2   -13    13

DECAY 35  24.935137
    0.86210249   2    5   -5
    0.13399093   2   -15    15
    0.0031506725   2    6   -6
    0.0004828023   2   -13    13
    0.00022591064   2    3   -3
    2.9298665e-05   2    21    21
    1.3053493e-05   2    25    25
    3.1899464e-06   2    24   -24
    1.5878107e-06   2    23    23
    3.2750865e-08   2    4   -4
    1.3979161e-08   2    23    22
    1.2316411e-08   2    22    22

DECAY 36  24.93771
    0.86205012   2    5   -5
    0.13397835   2   -15    15
    0.0031919467   2    6   -6
    0.00048275502   2   -13    13
    0.00022590563   2    3   -3
    6.7622313e-05   2    21    21
    3.2097943e-06   2    23    25
    4.012071e-08   2    23    22
    3.262497e-08   2    4   -4
    2.2887833e-08   2    22    22

DECAY 37  22.833554
    0.85129267   2    6   -5
    0.14647442   2   -15    16
    0.0014322348   2    4   -5
    0.00052778128   2   -13    14
    0.00024271671   2    4   -3
    1.4322303e-05   2    2   -5
    1.2329534e-05   2    2   -3
    3.522624e-06   2    24    25
    1.2347106e-12   2    24    36

DECAY 5 -1


DECAY 15 -1


DECAY 23  2.4952


DECAY 24  2.085
