BLOCK SPINFO
   1   SPheno
   2   v4.0.5be

BLOCK SPHENOINFO
   1   2
   2   2

BLOCK MODSEL
   1   0

BLOCK MINPAR
   3    6.9261504
   4   -1

BLOCK EXTPAR
   0    2370.3461
   1    987.97065
   2   -4106.7381
   3    3676.2437
   11    3497.0997
   12    2780.3967
   13   -3523.5602
   23   -1430.8175
   25    6.5997212
   26    1990.7077
   31    4232.1118
   32    4232.1118
   33    3036.7489
   34    4156.4768
   35    4156.4768
   36    2151.9814
   41    4184.4684
   42    4184.4684
   43    1941.0308
   44    2557.2169
   45    2557.2169
   46    2799.1914
   47    1540.8019
   48    1540.8019
   49    4622.8992

BLOCK SMINPUTS
   1    127.90897
   2    1.1663787e-05
   3    0.1184
   4    91.1876
   5    4.18
   6    173.2
   7    1.777
   8    0
   11    0.00051099893
   12    0
   13    0.10565837
   14    0
   21    0.005
   22    0.0025
   23    0.095
   24    1.27

BLOCK GAUGE Q=  2370.3461
   1    0.35536298
   2    0.66519887
   3    1.219778

BLOCK YU Q=  2370.3461
   1   1    8.4800734e-06
   2   2    0.0043078773
   3   3    1.024461

BLOCK YD Q=  2370.3461
   1   1    0.00011246191
   2   2    0.0021367763
   3   3    0.11152697

BLOCK YE Q=  2370.3461
   1   1    1.9625425e-05
   2   2    0.0040579155
   3   3    0.068247464

BLOCK AU Q=  2370.3461
   1   1    0
   2   2    0
   3   3    3497.0997

BLOCK AD Q=  2370.3461
   1   1    0
   2   2    0
   3   3    2780.3967

BLOCK AE Q=  2370.3461
   1   1    0
   2   2    0
   3   3   -3523.5602

BLOCK MSOFT Q=  2370.3461
   1    987.97065
   2   -4106.7381
   3    3676.2437
   21    1805828.4
   22   -1824962.5
   31    4232.1118
   32    4232.1118
   33    3036.7489
   34    4156.4768
   35    4156.4768
   36    2151.9814
   41    4184.4684
   42    4184.4684
   43    1941.0308
   44    2557.2169
   45    2557.2169
   46    2799.1914
   47    1540.8019
   48    1540.8019
   49    4622.8992

BLOCK MASS
   6    173.2
   23    91.1876
   24    80.429995
   15    1.777
   25    120.42883
   35    1990.8504
   36    1990.7077
   37    1992.6086
   1000001    4265.6694
   2000001    1622.38
   1000002    4265.0446
   2000002    2639.1051
   1000003    4265.6692
   2000003    1622.3799
   1000004    4265.0443
   2000004    2639.1051
   1000005    2012.4117
   2000005    4678.8397
   1000006    1996.9897
   2000006    2813.5051
   1000011    4244.3321
   2000011    4163.5622
   1000012    4243.2173
   1000013    4244.3321
   2000013    4163.5616
   1000014    4243.2171
   1000015    2161.6837
   2000015    3048.9844
   1000016    3047.5929
   1000021    3765.7725
   1000022    985.49478
   1000023   -1445.4397
   1000025    1448.8741
   1000035   -4107.2
   1000024    1445.8079
   1000037    4107.3625

BLOCK ALPHA
      -0.14418278

BLOCK HMIX Q=  2370.3461
   1   -1430.8175
   2    6.5997212
   3    243.51238
   4    3962917.3

BLOCK STOPMIX
   1   1   -0.99072405
   1   2    0.13588915
   2   1   -0.13588915
   2   2   -0.99072405

BLOCK SBOTMIX
   1   1   -0.99999877
   1   2    0.0015658844
   2   1   -0.0015658844
   2   2   -0.99999877

BLOCK STAUMIX
   1   1   -0.0022903275
   1   2    0.99999738
   2   1   -0.99999738
   2   2   -0.0022903275

BLOCK NMIX
   1   1    0.99827658
   1   2    0.00034130289
   1   3   -0.050529774
   1   4   -0.029841269
   2   1   -0.014658414
   2   2   -0.023746248
   2   3   -0.70705497
   2   4    0.70660775
   3   1    0.056823975
   3   2   -0.0084900095
   3   3    0.70526847
   3   4    0.70660833
   4   1   -0.00020642658
   4   2    0.99968191
   4   3   -0.010788352
   4   4    0.02279583

BLOCK UMIX
   1   1   -0.015333022
   1   2   -0.99988244
   2   1   -0.99988244
   2   2    0.015333022

BLOCK VMIX
   1   1    0.032391636
   1   2    0.99947525
   2   1    0.99947525
   2   2   -0.032391636

BLOCK HIGGSBOUNDSINPUTHIGGSCOUPLINGSFERMIONS
       0, 43.55632,3,36,15,15

BLOCK HIGGSBOUNDSINPUTHIGGSCOUPLINGSBOSONS
       0,4,36,21,21,23

BLOCK SPHENOLOWENERGY
   1    0.00033079219
   2    1.5903229e-06
   3    3.5277447e-05
   4    2.4566682e-15
   5    1.0494608e-10
   6    2.1969388e-08
   7    8.2881935e-14
   8    3.5407136e-09
   9    7.5101462e-07
   10    9.6740575e-05
   11    0.9992931
   12    0.5425275
   13    19.384656
   14    0
   15    0
   16    0.0021594928
   17    2.2816809e-15
   18    2.4814601e-11
   19    8.2941034e-11
   20    1.5662315e-16
   21    6.6961206e-12
   22    2.6697306e-09
   23    0
   24    0
   25    0
   26    0
   27    0
   28    0
   29    0
   30    0
   31    0
   39   -0.00012554982
   40    0
   41    0
   42    0

BLOCK FWCOEF Q=  160
   305   4422   0   0   -0.18881911
   305   4422   0   2   -0.19913136
   305   4322   0   2   -0.00022275543
   305   6421   0   0   -0.095227835
   305   6421   0   2   -0.10996464
   305   6321   0   2   -0.00029956947
   3051111   4133   0   0    1.6078943
   3051111   4133   0   2    1.6086447
   3051111   4233   0   2    5.8697862e-06
   3051111   4137   0   0   -4.4305864
   3051111   4137   0   2   -4.4313634
   3051111   4237   0   2   -4.5330793e-05
   3051313   4133   0   0    1.6078943
   3051313   4133   0   2    1.6086447
   3051313   4233   0   2    5.8697848e-06
   3051313   4137   0   0   -4.4305864
   3051313   4137   0   2   -4.4313634
   3051313   4237   0   2   -4.5330792e-05
   3051212   4137   0   0    1.5053501
   3051212   4137   0   2    1.5055192
   3051212   4237   0   2    9.8448475e-06
   3051414   4137   0   0    1.5053501
   3051414   4137   0   2    1.5055192
   3051414   4237   0   2    9.8448478e-06
   3051616   4137   0   0    1.5053501
   3051616   4137   0   2    1.5055191
   3051616   4237   0   2    9.8449731e-06

BLOCK IMFWCOEF Q=  160
   305   4422   0   0    3.8583554e-07
   305   4422   0   2    1.2112904e-06
   305   4322   0   2    4.1652832e-07
   305   6421   0   0    3.3049366e-07
   305   6421   0   2    1.7305882e-06
   305   6321   0   2    1.8598599e-07
   3051111   4133   0   2    3.8627085e-07
   3051111   4233   0   2    1.4527882e-07
   3051111   4137   0   2   -1.8191957e-06
   3051111   4237   0   2   -1.1174207e-06
   3051313   4133   0   2    3.8627081e-07
   3051313   4233   0   2    1.4527882e-07
   3051313   4137   0   2   -1.8191958e-06
   3051313   4237   0   2   -1.1174207e-06
   3051212   4137   0   2    4.0080189e-07
   3051212   4237   0   2    2.4267203e-07
   3051414   4137   0   2    4.0080189e-07
   3051414   4237   0   2    2.4267203e-07
   3051616   4137   0   2    3.997438e-07
   3051616   4237   0   2    2.4267301e-07

DECAY 23  2.4952


DECAY 24  2.085


DECAY 2000011  18.63339
    0.99701298   2    1000022    11
    0.0028004221   2    1000025    11
    0.00018659593   2    1000023    11

DECAY 1000011  5.0162915
    0.94927299   2    1000022    11
    0.030027412   2   -1000037    12
    0.01503942   2    1000035    11
    0.002902008   2    1000023    11
    0.0013898652   2    1000025    11
    0.0013683017   2   -1000024    12

DECAY 2000013  18.635496
    0.99690032   2    1000022    13
    0.0028282154   2    1000025    13
    0.00021487313   2    1000023    13

DECAY 1000013  5.0173774
    0.94906813   2    1000022    13
    0.030020888   2   -1000037    14
    0.015036146   2    1000035    13
    0.0030096668   2    1000023    13
    0.0014971637   2    1000025    13
    0.0013680055   2   -1000024    14

DECAY 1000015  6.9261867
    0.9807582   2    1000022    15
    0.0088371345   2   -1000024    16
    0.0058815817   2    1000025    15
    0.0045230807   2    1000023    15

DECAY 2000015  3.2624491
    0.9395717   2    1000022    15
    0.028478167   2    1000023    15
    0.027049092   2    1000025    15
    0.0018979639   2    1000015    25
    0.0018762767   2    1000015    23
    0.0011267983   2   -1000024    16

DECAY 1000012  5.0268679
    0.94454914   2    1000022    12
    0.029469805   2    1000037    11
    0.014778975   2    1000035    12
    0.0060912127   2    1000024    11
    0.0043755033   2    1000025    12
    0.00073536334   2    1000023    12

DECAY 1000014  5.0279523
    0.94434536   2    1000022    14
    0.029463347   2    1000037    13
    0.014775739   2    1000035    14
    0.0063057951   2    1000024    13
    0.0043745592   2    1000025    14
    0.00073520467   2    1000023    14

DECAY 1000016  3.2677921
    0.93488656   2    1000022    16
    0.057033556   2    1000024    15
    0.0037444658   2    1000015    24
    0.0037108192   2    1000025    16
    0.00062459909   2    1000023    16

DECAY 2000001  0.35954778
    0.99964348   2    1000022    1
    0.00033342248   2    1000025    1

DECAY 1000001  17.239776
    0.95085706   2    1000021    1
    0.030721785   2    1000022    1
    0.011555879   2   -1000037    2
    0.0057876893   2    1000035    1
    0.00040118827   2   -1000024    2
    0.00038123455   2    1000023    1
    0.00029516065   2    1000025    1

DECAY 2000003  0.35956031
    0.99960933   2    1000022    3
    0.00034161274   2    1000025    3

DECAY 1000003  17.241302
    0.95077187   2    1000021    3
    0.030719116   2    1000022    3
    0.011554389   2   -1000037    4
    0.0057871524   2    1000035    3
    0.00047255269   2   -1000024    4
    0.00038998415   2    1000023    3
    0.0003038539   2    1000025    3

DECAY 1000005  9.4318525
    0.97037058   2   -1000024    6
    0.017179451   2    1000022    5
    0.0062956103   2    1000023    5
    0.0061543599   2    1000025    5

DECAY 2000005  50.648733
    0.9045697   2    1000021    5
    0.046984268   2    1000022    5
    0.018647006   2   -1000024    6
    0.0094355508   2    1000025    5
    0.0093565393   2    1000023    5
    0.0033803174   2    1000006   -37
    0.0018086193   2    1000006   -24
    0.0017515081   2    1000005    35
    0.0017363772   2    1000005    36
    0.0014015017   2    1000005    25
    0.00091138234   2    1000005    23

DECAY 2000002  4.3594165
    0.99772722   2    1000022    2
    0.0021304274   2    1000025    2
    0.00014234777   2    1000023    2

DECAY 1000002  17.227546
    0.94942427   2    1000021    2
    0.030975046   2    1000022    2
    0.011466958   2    1000037    1
    0.0057470356   2    1000035    2
    0.0017913541   2    1000024    1
    0.00059307248   2    1000023    2

DECAY 2000004  4.3603665
    0.99750884   2    1000022    4
    0.0021849825   2    1000025    4
    0.00019684186   2    1000023    4
    0.00010933789   2    1000024    3

DECAY 1000004  17.228991
    0.94933958   2    1000021    4
    0.030972526   2    1000022    4
    0.011465956   2    1000037    3
    0.0057462802   2    1000035    4
    0.0018087512   2    1000024    3
    0.00062884848   2    1000023    4

DECAY 1000006  9.986761
    0.47805893   2    1000023    6
    0.47054628   2    1000025    6
    0.033981379   2    1000024    5
    0.016676822   2    1000022    6
    0.00073604995   3    1000022    24    5

DECAY 2000006  137.49614
    0.23340483   2    1000005    24
    0.22563517   2    1000024    5
    0.1648462   2    1000006    25
    0.11968247   2    1000006    23
    0.11086846   2    1000023    6
    0.11072307   2    1000025    6
    0.034839797   2    1000022    6

DECAY 1000024  0.52649794
    0.99198569   2    1000022    24
    0.0080139631   3    1000022   -5    6

DECAY 1000037  127.69532
    0.24276765   2   -1000005    6
    0.23951742   2    1000006   -5
    0.081793092   2    1000024    25
    0.079560595   2    1000024    23
    0.079147788   2    1000025    24
    0.078405972   2    1000023    24
    0.042128565   2    37    1000023
    0.028570506   2    1000016   -15
    0.028530036   2   -2000015    16
    0.026414023   2    1000024    35
    0.02613168   2    1000024    36
    0.025920253   2    37    1000025
    0.0080936408   3    1000024    6   -6
    0.0050325694   3    1000025   -5    6
    0.0041060265   2    2000006   -5
    0.0033943607   3    1000023   -5    6
    0.0002804202   2    1000022    24
    0.0001298705   2    37    1000022

DECAY 1000022 -1


DECAY 1000023  1.3789129
    0.61069841   2    1000022    25
    0.38884772   2    1000022    23
    0.00044331433   3    1000022    6   -6

DECAY 1000025  0.50623723
    0.92850203   2    1000022    25
    0.070786509   2    1000022    23
    0.00070992803   3    1000022    6   -6

DECAY 1000035  136.41816
    0.11472872   2    1000005   -5
    0.11472872   2   -1000005    5
    0.11348796   2    1000006   -6
    0.11348796   2   -1000006    6
    0.075355158   2    1000024   -24
    0.075355158   2   -1000024    24
    0.067842904   2    1000023    25
    0.065319612   2    1000025    23
    0.03938465   2    37   -1000024
    0.03938465   2   -37    1000024
    0.03775699   2    1000025    25
    0.036601566   2    1000025    35
    0.020484803   2    1000023    35
    0.013377245   2    1000016   -16
    0.013377245   2   -1000016    16
    0.013341563   2    2000015   -15
    0.013341563   2   -2000015    15
    0.0083673217   2    1000023    23
    0.004309688   2    1000023    36
    0.0036675246   3    1000023    6   -6
    0.0034730748   3    1000024    5   -6
    0.0034730748   3   -1000024   -5    6
    0.0025791209   3    1000025    6   -6
    0.0023136249   2    1000025    36
    0.0019306844   2    2000006   -6
    0.0019306844   2   -2000006    6
    0.00021734042   2    1000022    23
    0.00014610807   2    1000022    35
    0.00011820087   2    1000022    25

DECAY 1000021  342.2157
    0.10801467   2    2000001   -1
    0.10801467   2   -2000001    1
    0.10801467   2    2000003   -3
    0.10801467   2   -2000003    3
    0.086829711   2    1000006   -6
    0.086829711   2   -1000006    6
    0.083124398   2    1000005   -5
    0.083124398   2   -1000005    5
    0.042170877   2    2000002   -2
    0.042170877   2   -2000002    2
    0.042170863   2    2000004   -4
    0.042170863   2   -2000004    4
    0.029645553   2    2000006   -6
    0.029645553   2   -2000006    6

DECAY 25  0.0033859338
    0.64138668   2   -5    5
    0.1580556   2   -24    24
    0.07451292   2    21    21
    0.073233408   2   -15    15
    0.031448862   2   -4    4
    0.017451072   2    23    23
    0.0023054624   2    22    22
    0.0011103911   2    22    23
    0.00025400251   2   -13    13
    0.00024076798   2   -3    3
    6.6569912e-07   2   -1    1
    1.6207847e-07   2   -2    2
    5.7103229e-09   2   -11    11

DECAY 35  3.3371948
    0.56097182   2   -6    6
    0.37652274   2   -5    5
    0.05991924   2   -15    15
    0.0015114177   2    25    25
    0.00035581476   2    23    23
    0.00020645472   2   -13    13
    0.00018987944   2   -24    24
    0.00016615147   2    21    21
    0.00013832724   2   -3    3
    9.2612978e-06   2    1000022    1000022
    7.3818865e-06   2   -4    4
    8.9388434e-07   2    22    22
    3.8242001e-07   2   -1    1
    2.2747225e-07   2    22    23
    4.6374444e-09   2   -11    11
    3.8053864e-11   2   -2    2

DECAY 36  3.2429623
    0.55915342   2   -6    6
    0.37892201   2   -5    5
    0.060300237   2   -15    15
    0.00049374203   2    23    25
    0.00039458524   2    1000022    1000022
    0.00037984422   2    21    21
    0.00020776693   2   -13    13
    0.00013920404   2   -3    3
    7.1194351e-06   2   -4    4
    1.3243299e-06   2    22    22
    3.848445e-07   2   -1    1
    3.6168597e-07   2    22    23
    4.6669221e-09   2   -11    11
    3.6702694e-11   2   -2    2
    6.7166844e-36   2    25    25

DECAY 37  3.1282661
    0.93662347   2   -5    6
    0.061107844   2   -15    16
    0.00077294725   2   -3    6
    0.00058012325   2   -5    4
    0.00051405826   2    24    25
    0.00021603824   2   -13    14
    0.00013906654   2   -3    4
    3.5442067e-05   2   -1    6
    6.1550491e-06   2   -3    2
    4.1426034e-06   2   -5    2
    3.6641234e-07   2   -1    2
    3.4374697e-07   2   -1    4
    5.0531569e-09   2   -11    12
    1.0793071e-11   2    24    36
    7.3066398e-12   2    24    35

DECAY 6  2.43
    1   2    5    24

DECAY 15 -1
