BLOCK SPINFO
   1   SPheno
   2   v4.0.5be

BLOCK SPHENOINFO
   1   2
   2   2

BLOCK MODSEL
   1   0

BLOCK MINPAR
   3    35.992021
   4    1

BLOCK EXTPAR
   0    3913.1285
   1   -196.27666
   2    180.10803
   3    3237.9065
   11    2268.9302
   12   -3059.2425
   13   -5695.5288
   23    1918.212
   25    34.71774
   26    1654.9671
   31    4242.1592
   32    4242.1592
   33    3737.3023
   34    1720.6388
   35    1720.6388
   36    2253.6214
   41    4771.243
   42    4771.243
   43    4913.117
   44    4789.0198
   45    4789.0198
   46    2970.4808
   47    1304.3545
   48    1304.3545
   49    4992.6905

BLOCK SMINPUTS
   1    127.90897
   2    1.1663787e-05
   3    0.1184
   4    91.1876
   5    4.18
   6    173.2
   7    1.777
   8    0
   11    0.00051099893
   12    0
   13    0.10565837
   14    0
   21    0.005
   22    0.0025
   23    0.095
   24    1.27

BLOCK GAUGE Q=  3913.1285
   1    0.35536298
   2    0.66519887
   3    1.219778

BLOCK YU Q=  3913.1285
   1   1    8.3878495e-06
   2   2    0.0042610275
   3   3    1.0133196

BLOCK YD Q=  3913.1285
   1   1    0.00058517037
   2   2    0.011118237
   3   3    0.58030564

BLOCK YE Q=  3913.1285
   1   1    0.00010211651
   2   2    0.021114455
   3   3    0.3551104

BLOCK AU Q=  3913.1285
   1   1    0
   2   2    0
   3   3    2268.9302

BLOCK AD Q=  3913.1285
   1   1    0
   2   2    0
   3   3   -3059.2425

BLOCK AE Q=  3913.1285
   1   1    0
   2   2    0
   3   3   -5695.5284

BLOCK MSOFT Q=  3913.1285
   1   -196.27666
   2    180.10803
   3    3237.9065
   21   -892225.11
   22   -3451024.9
   31    4242.1592
   32    4242.1592
   33    3737.3023
   34    1720.6388
   35    1720.6388
   36    2253.6214
   41    4771.243
   42    4771.243
   43    4913.117
   44    4789.0198
   45    4789.0198
   46    2970.4808
   47    1304.3545
   48    1304.3545
   49    4992.6905

BLOCK MASS
   6    173.2
   23    91.1876
   24    80.429995
   15    1.777
   25    121.69045
   35    1654.8996
   36    1654.9671
   37    1657.3597
   1000001    4872.6486
   2000001    1535.5602
   1000002    4871.9608
   2000002    4875.4528
   1000003    4872.6464
   2000003    1535.5577
   1000004    4871.9585
   2000004    4875.4522
   1000005    4971.9446
   2000005    5066.453
   1000006    3077.1435
   2000006    4976.2304
   1000011    4248.9942
   2000011    1732.9822
   1000012    4247.8387
   1000013    4248.9783
   2000013    1732.9573
   1000014    4247.8201
   1000015    2245.5889
   2000015    3728.2884
   1000016    3726.4061
   1000021    3555.6661
   1000022   -194.33971
   1000023    197.8748
   1000025   -1936.5676
   1000035    1937.1505
   1000024    198.08146
   1000037    1938.4086

BLOCK ALPHA
      -0.028013034

BLOCK HMIX Q=  3913.1285
   1    1918.212
   2    34.71774
   3    242.97939
   4    2738916.1

BLOCK STOPMIX
   1   1   -0.01772596
   1   2    0.99984288
   2   1   -0.99984288
   2   2   -0.01772596

BLOCK SBOTMIX
   1   1    0.98942566
   1   2    0.14504092
   2   1   -0.14504092
   2   2    0.98942566

BLOCK STAUMIX
   1   1    0.014691023
   1   2    0.99989208
   2   1   -0.99989208
   2   2    0.014691023

BLOCK NMIX
   1   1    0.99972466
   1   2    0.00024732809
   1   3    0.023400301
   1   4    0.0017213946
   2   1   -0.00070204938
   2   2   -0.99914798
   2   3    0.040936374
   2   4   -0.005199291
   3   1    0.01775855
   3   2   -0.025275206
   3   3   -0.70640796
   3   4   -0.70713053
   4   1   -0.01532121
   4   2    0.032625374
   4   3    0.70623256
   4   4   -0.70706182

BLOCK UMIX
   1   1   -0.99832385
   1   2    0.05787483
   2   1    0.05787483
   2   2    0.99832385

BLOCK VMIX
   1   1   -0.99997298
   1   2    0.0073515461
   2   1    0.0073515461
   2   2    0.99997298

BLOCK HIGGSBOUNDSINPUTHIGGSCOUPLINGSFERMIONS
       0, 1205.3215,3,36,15,15

BLOCK HIGGSBOUNDSINPUTHIGGSCOUPLINGSBOSONS
       0,4,36,21,21,23

BLOCK SPHENOLOWENERGY
   1    0.00033809031
   2    1.5880521e-06
   3    3.5246192e-05
   4    2.62893e-15
   5    1.1230504e-10
   6    2.3518043e-08
   7    8.7938081e-14
   8    3.7567166e-09
   9    7.9711238e-07
   10    9.3865037e-05
   11    0.9695899
   12    0.54208599
   13    19.35416
   14    0
   15    0
   16    0.0021579051
   17    2.2816674e-15
   18    2.479443e-11
   19    8.2891634e-11
   20    6.5841228e-16
   21    2.814861e-11
   22    9.5638474e-09
   23    0
   24    0
   25    0
   26    0
   27    0
   28    0
   29    0
   30    0
   31    0
   39    6.9313993e-05
   40    0
   41    0
   42    0

BLOCK FWCOEF Q=  160
   305   4422   0   0   -0.18881911
   305   4422   0   2   -0.20685818
   305   4322   0   2   -0.00036238411
   305   6421   0   0   -0.095227835
   305   6421   0   2   -0.11699525
   305   6321   0   2   -0.00043451542
   3051111   4133   0   0    1.6260888
   3051111   4133   0   2    1.6262348
   3051111   4233   0   2    4.3904949e-05
   3051111   4137   0   0   -4.4487809
   3051111   4137   0   2   -4.4464766
   3051111   4237   0   2   -0.00032598112
   3051313   4133   0   0    1.6260888
   3051313   4133   0   2    1.6262343
   3051313   4233   0   2    4.390326e-05
   3051313   4137   0   0   -4.4487809
   3051313   4137   0   2   -4.4464771
   3051313   4237   0   2   -0.00032597977
   3051212   4137   0   0    1.5053501
   3051212   4137   0   2    1.5048545
   3051212   4237   0   2    7.0505734e-05
   3051414   4137   0   0    1.5053501
   3051414   4137   0   2    1.5048545
   3051414   4237   0   2    7.0506076e-05
   3051616   4137   0   0    1.5053501
   3051616   4137   0   2    1.5048546
   3051616   4237   0   2    7.060257e-05

BLOCK IMFWCOEF Q=  160
   305   4422   0   0    3.857966e-07
   305   4422   0   2    3.5689144e-06
   305   4322   0   2   -4.3557653e-07
   305   6421   0   0    3.304603e-07
   305   6421   0   2   -3.1187073e-06
   305   6321   0   2   -2.8402056e-07
   3051111   4133   0   2    4.797802e-07
   3051111   4233   0   2    2.2614377e-06
   3051111   4137   0   2    4.0070534e-07
   3051111   4237   0   2   -1.6770241e-05
   3051313   4133   0   2    4.7977846e-07
   3051313   4233   0   2    2.2614358e-06
   3051313   4137   0   2    4.0070789e-07
   3051313   4237   0   2   -1.6770245e-05
   3051212   4137   0   2   -3.7227746e-08
   3051212   4237   0   2    3.6269685e-06
   3051414   4137   0   2   -3.7227639e-08
   3051414   4237   0   2    3.6269685e-06
   3051616   4137   0   2   -3.5534348e-08
   3051616   4237   0   2    3.6269704e-06

DECAY 23  2.4952


DECAY 24  2.085


DECAY 2000011  8.4852996
    0.99999951   2    1000022    11

DECAY 1000011  61.125838
    0.6072224   2   -1000024    12
    0.30434368   2    1000023    11
    0.086986094   2    1000022    11
    0.0012852579   2   -1000037    12
    0.00011468672   2    1000035    11

DECAY 2000013  8.4852547
    0.99999064   2    1000022    13

DECAY 1000013  61.152487
    0.60695549   2   -1000024    14
    0.30421093   2    1000023    13
    0.086948196   2    1000022    13
    0.0012846879   2   -1000037    14
    0.00030751071   2    1000035    13
    0.00024088377   2    1000025    13

DECAY 1000015  11.905044
    0.9334411   2    1000022    15
    0.030532822   2   -1000037    16
    0.015503509   2    1000025    15
    0.015430768   2    1000035    15
    0.003393102   2   -1000024    16
    0.0016987029   2    1000023    15

DECAY 2000015  60.41953
    0.53773015   2   -1000024    16
    0.26977177   2    1000023    15
    0.077180992   2    1000022    15
    0.041332515   2    1000035    15
    0.041306365   2    1000025    15
    0.016193825   2    1000015    23
    0.015236019   2    1000015    25
    0.0012483627   2   -1000037    16

DECAY 1000012  61.140529
    0.60891673   2    1000024    11
    0.3037307   2    1000023    12
    0.086780445   2    1000022    12
    0.00031949913   2    1000035    12
    0.00023188998   2    1000025    12

DECAY 1000014  61.163926
    0.60868316   2    1000024    13
    0.30361317   2    1000023    14
    0.086746865   2    1000022    14
    0.00040557047   2    1000037    13
    0.00031937404   2    1000035    14
    0.0002317992   2    1000025    14

DECAY 1000016  60.502903
    0.53960872   2    1000024    15
    0.26890449   2    1000023    16
    0.081949955   2    1000037    15
    0.076833624   2    1000022    16
    0.032288231   2    1000015    24
    0.00024044671   2    1000035    16
    0.00017453698   2    1000025    16

DECAY 2000001  0.82959248
    0.99999945   2    1000022    1

DECAY 1000001  148.81612
    0.56488061   2    1000021    1
    0.28632199   2   -1000024    2
    0.14336252   2    1000023    1
    0.0045403317   2    1000022    1
    0.00068404977   2   -1000037    2
    0.00012776974   2    1000035    1

DECAY 2000003  0.82961121
    0.99997739   2    1000022    3

DECAY 1000003  148.82644
    0.56484001   2    1000021    3
    0.28630196   2   -1000024    4
    0.14335265   2    1000023    3
    0.0045400586   2    1000022    3
    0.00069242179   2   -1000037    4
    0.00015615505   2    1000035    3
    0.00011112354   2    1000025    3

DECAY 1000005  264.95464
    0.35381508   2    1000021    5
    0.26870669   2   -1000037    6
    0.16266733   2   -1000024    6
    0.081846201   2    1000023    5
    0.044666047   2    1000025    5
    0.044570482   2    1000035    5
    0.022734932   2    1000006   -24
    0.017793251   2    1000006   -37
    0.0031999919   2    1000022    5

DECAY 2000005  157.89702
    0.65179705   2    1000021    5
    0.1677602   2   -1000037    6
    0.079235499   2    1000035    5
    0.079135307   2    1000025    5
    0.017064002   2    1000022    5
    0.0025276175   2   -1000024    6
    0.0012768887   2    1000023    5
    0.00092877016   2    1000006   -24
    0.0002211724   2    1000006   -37

DECAY 1000002  148.78589
    0.56455231   2    1000021    2
    0.28728626   2    1000024    1
    0.14344305   2    1000023    2
    0.0045659122   2    1000022    2

DECAY 2000002  95.183634
    0.88599483   2    1000021    2
    0.11396048   2    1000022    2

DECAY 1000004  148.79529
    0.5645147   2    1000021    4
    0.28726823   2    1000024    3
    0.14343389   2    1000023    4
    0.0045656207   2    1000022    4

DECAY 2000004  95.186007
    0.88597147   2    1000021    4
    0.11395761   2    1000022    4

DECAY 1000006  52.252055
    0.43766241   2    1000037    5
    0.21685302   2    1000035    6
    0.21590596   2    1000025    6
    0.12954529   2    1000022    6

DECAY 2000006  270.56603
    0.3454938   2    1000021    6
    0.16180697   2    1000024    5
    0.1347008   2    1000035    6
    0.13467508   2    1000025    6
    0.088377892   2    1000037    5
    0.080395146   2    1000023    6
    0.022901587   2    1000006    25
    0.011424213   2    1000006    23
    0.0088414443   2    1000006    36
    0.008816237   2    1000006    35
    0.0025668382   2    1000022    6

DECAY 1000024  2.4703454e-15
    0.44473218   3    1000022   -1    2
    0.25362822   3    1000022   -3    4
    0.090334986   3    1000022   -11    12
    0.0899629   3    1000022   -13    14
    0.077334917   3    1000023   -11    12
    0.025567203   3    1000022   -15    16
    0.018439598   3    1000023   -13    14

DECAY 1000037  14.911388
    0.28597008   2    1000024    25
    0.27376205   2    1000023    24
    0.2730167   2    1000024    23
    0.088620528   2    1000022    24
    0.015519758   3    1000024    6   -6
    0.014908109   2    1000024    35
    0.01489826   2    1000024    36
    0.014637563   2    37    1000023
    0.011095151   3    1000023   -5    6
    0.0041929634   2    37    1000022
    0.0032455828   3    1000022   -5    6

DECAY 1000022 -1


DECAY 1000023  1.9702251e-14
    0.94165529   2    1000022    22
    0.015092137   3    1000022    1   -1
    0.014964995   3    1000022    3   -3
    0.011857093   3    1000022    2   -2
    0.011067523   3    1000022    12   -12
    0.0019479717   3    1000022    11   -11
    0.0019228905   3    1000022    13   -13
    0.001492105   3    1000022    4   -4

DECAY 1000025  15.620433
    0.26111949   2    1000024   -24
    0.26111949   2   -1000024    24
    0.1630599   2    1000023    23
    0.15341997   2    1000023    25
    0.04366175   2    1000022    25
    0.03602908   2    1000022    23
    0.014837435   2    37   -1000024
    0.014837435   2   -37    1000024
    0.013268902   2    1000023    35
    0.011531807   3    1000024    5   -6
    0.011531807   3   -1000024   -5    6
    0.0072233141   3    1000023    6   -6
    0.003822468   2    1000022    35
    0.0019467865   3    1000022    6   -6
    0.0018501254   2    1000023    36
    0.00056074026   2    1000022    36

DECAY 1000035  15.062767
    0.27084751   2    1000024   -24
    0.27084751   2   -1000024    24
    0.17772299   2    1000023    25
    0.10144619   2    1000023    23
    0.050668407   2    1000022    25
    0.050209852   2    1000022    23
    0.014222459   2    37   -1000024
    0.014222459   2   -37    1000024
    0.012339432   2    1000023    35
    0.010851824   3    1000024    5   -6
    0.010851824   3   -1000024   -5    6
    0.0072742913   3    1000023    6   -6
    0.0035540049   2    1000022    35
    0.0021738011   2    1000023    36
    0.0019485796   3    1000022    6   -6
    0.00065854771   2    1000022    36

DECAY 1000021  145.76095
    0.23891936   2    2000003   -3
    0.23891936   2   -2000003    3
    0.238919   2    2000001   -1
    0.238919   2   -2000001    1
    0.02169608   2    1000006   -6
    0.02169608   2   -1000006    6

DECAY 25  0.0035211209
    0.62435777   2   -5    5
    0.17561645   2   -24    24
    0.073960175   2    21    21
    0.071636779   2   -15    15
    0.030533243   2   -4    4
    0.019886836   2    23    23
    0.0023127472   2    22    22
    0.001212411   2    22    23
    0.00024845754   2   -13    13
    0.00023431916   2   -3    3
    6.4786949e-07   2   -1    1
    1.5735568e-07   2   -2    2
    5.5856467e-09   2   -11    11

DECAY 35  25.583767
    0.81942657   2   -5    5
    0.17505793   2   -15    15
    0.0017484858   2   -1000024    1000024
    0.001369055   2   -6    6
    0.0008728742   2    1000022    1000022
    0.00060409082   2   -13    13
    0.00052575299   2    1000022    1000023
    0.00027301333   2   -3    3
    7.1208901e-05   2    1000023    1000023
    2.6262927e-05   2    25    25
    1.9825795e-05   2    21    21
    2.3907023e-06   2    23    23
    1.6628655e-06   2   -24    24
    7.5484645e-07   2   -1    1
    7.030342e-08   2    22    23
    2.0464697e-08   2   -4    4
    1.7491649e-08   2    22    22
    1.3570055e-08   2   -11    11
    1.055054e-13   2   -2    2

DECAY 36  24.734219
    0.81918386   2   -5    5
    0.17500582   2   -15    15
    0.0019238577   2   -1000024    1000024
    0.0014086702   2   -6    6
    0.00096044057   2    1000022    1000022
    0.00060390802   2   -13    13
    0.00051719414   2    1000022    1000023
    0.00027292915   2   -3    3
    7.7400154e-05   2    1000023    1000023
    4.1531917e-05   2    21    21
    3.2717986e-06   2    23    25
    7.546126e-07   2   -1    1
    2.125365e-07   2    22    23
    1.1380433e-07   2    22    22
    2.0070455e-08   2   -4    4
    1.3565913e-08   2   -11    11
    1.0347996e-13   2   -2    2
    5.4341181e-38   2    25    25

DECAY 37  23.77557
    0.81615688   2   -5    6
    0.18058963   2   -15    16
    0.00121717   2   -5    4
    0.0011054371   2    1000023    1000024
    0.00063844983   2   -13    14
    0.00026357583   2   -3    4
    1.2256297e-05   2   -3    2
    8.6918572e-06   2   -5    2
    3.5593238e-06   2   -3    6
    3.4258179e-06   2    24    25
    7.3135718e-07   2   -1    2
    1.457475e-07   2   -1    6
    3.5264831e-08   2   -1    4
    1.4933408e-08   2   -11    12
    5.8717906e-10   2    1000022    1000024
    5.1536063e-12   2    24    35
    4.4839247e-12   2    24    36

DECAY 6  2.43
    1   2    5    24

DECAY 15 -1
