BLOCK DCINFO
   1   SDECAY/HDECAY
   2   1.3b /3.4

BLOCK SPINFO
   1   SOFTSUSY
   2   3.4.0

BLOCK MODSEL
   1   0

BLOCK SMINPUTS
   1    127.90897
   2    1.1663787e-05
   3    0.1184
   4    91.1876
   5    4.18
   6    173.2
   7    1.777

BLOCK MINPAR
   3    37.48

BLOCK EXTPAR
   0   -1
   1   -1206.18
   2    1057.61
   3    2588.32
   11   -3237.58
   12   -403.64
   13   -350.96
   23    997.25
   26    3487.56
   31    2684.07
   32    2684.07
   33    2663.1
   34    3642.71
   35    3642.71
   36    1675.74
   41    1042.19
   42    1042.19
   43    3778.11
   44    2905.32
   45    2905.32
   46    3243.83
   47    3436.08
   48    3436.08
   49    1654.13

BLOCK MASS
   24    80.3761
   25    125.32071
   35    3487.5627
   36    3487.56
   37    3488.5854
   5    4.8187603
   1000001    1257.7724
   2000001    3519.1304
   1000002    1255.3067
   2000002    3003.4567
   1000003    1257.7724
   2000003    3519.1304
   1000004    1255.3067
   2000004    3003.4567
   1000005    1787.9833
   2000005    3817.4055
   1000006    3264.6874
   2000006    3826.9515
   1000011    2690.1456
   2000011    3650.5857
   1000012    2688.662
   1000013    2690.1456
   2000013    3650.5857
   1000014    2688.662
   1000015    1674.1732
   2000015    2662.9366
   1000016    2661.2361
   1000021    2752.2615
   1000022    995.2455
   1000023   -1027.0691
   1000025    1116.326
   1000035   -1198.449
   1000024    996.21122
   1000037    1116.8232

BLOCK NMIX
   1   1   -0.012050482
   1   2   -0.54627716
   1   3    0.60222567
   1   4   -0.58203118
   2   1    0.17752588
   2   2    0.024991754
   2   3    0.69712137
   2   4    0.69417704
   3   1   -0.0078529416
   3   2    0.83721937
   3   3    0.37151366
   3   4   -0.40122271
   4   1    0.98401102
   4   2   -0.0045171769
   4   3   -0.11542808
   4   4   -0.1355665

BLOCK UMIX
   1   1   -0.52866263
   1   2    0.84883204
   2   1   -0.84883204
   2   2   -0.52866263

BLOCK VMIX
   1   1   -0.57106365
   1   2    0.82090578
   2   1   -0.82090578
   2   2   -0.57106365

BLOCK STOPMIX
   1   1    0.12187549
   1   2    0.9925454
   2   1   -0.9925454
   2   2    0.12187549

BLOCK SBOTMIX
   1   1    0.0069806802
   1   2    0.99997563
   2   1   -0.99997563
   2   2    0.0069806802

BLOCK STAUMIX
   1   1    0.016068685
   1   2    0.99987089
   2   1   -0.99987089
   2   2    0.016068685

BLOCK ALPHA
      -0.027539281

BLOCK HMIX Q=  3502.116
   1    1017.6235
   2    36.365527
   3    242.07029
   4    12887162

BLOCK GAUGE Q=  3502.116
   1    0.36536543
   2    0.63889093
   3    1.0109952

BLOCK AU Q=  3502.116
   1   1    0
   2   2    0
   3   3   -3237.58

BLOCK AD Q=  3502.116
   1   1    0
   2   2    0
   3   3   -403.63999

BLOCK AE Q=  3502.116
   1   1    0
   2   2    0
   3   3   -350.96

BLOCK YU Q=  3502.116
   1   1    0
   2   2    0
   3   3    0.81322247

BLOCK YD Q=  3502.116
   1   1    0
   2   2    0
   3   3    0.45434322

BLOCK YE Q=  3502.116
   1   1    0
   2   2    0
   3   3    0.38271692

BLOCK MSOFT Q=  3502.116
   1   -1206.18
   2    1057.61
   3    2588.32
   21    11305340
   22   -777580.62
   31    2684.07
   32    2684.07
   33    2663.1
   34    3642.71
   35    3642.71
   36    1675.74
   41    1042.19
   42    1042.19
   43    3778.11
   44    2905.32
   45    2905.32
   46    3243.83
   47    3436.08
   48    3436.08
   49    1654.13

BLOCK HIGGSBOUNDSINPUTHIGGSCOUPLINGSFERMIONS
       0, 1322.4516,3,36,15,15

BLOCK HIGGSBOUNDSINPUTHIGGSCOUPLINGSBOSONS
       0,4,36,21,21,23

DECAY 6  1.4381714
    1   2    5    24

DECAY 1000021  155.64641
    0.11054143   2    1000002   -2
    0.11054143   2   -1000002    2
    0.11054141   2    1000004   -4
    0.11054141   2   -1000004    4
    0.11031319   2    1000001   -1
    0.11031319   2   -1000001    1
    0.11031319   2    1000003   -3
    0.11031319   2   -1000003    3
    0.058290786   2    1000005   -5
    0.058290786   2   -1000005    5

DECAY 1000006  90.105707
    0.29764754   2    1000024    5
    0.18479843   2    1000023    6
    0.1647381   2    1000021    6
    0.14781064   2    1000022    6
    0.08904682   2    1000037    5
    0.072527153   2    1000035    6
    0.043371331   2    1000025    6
    5.9978632e-05   2    1000005    24

DECAY 2000006  152.81689
    0.30074853   2    1000021    6
    0.16268547   2    1000037    5
    0.13787083   2    1000023    6
    0.11813899   2    1000025    6
    0.10869295   2    1000022    6
    0.097507413   2    1000024    5
    0.033707704   2    1000006    23
    0.029991315   2    1000006    25
    0.0053846968   2    1000035    6
    0.0052721124   2    1000005    24

DECAY 1000005  6.7425367
    0.36146367   2   -1000024    6
    0.24039537   2    1000023    5
    0.19048335   2    1000022    5
    0.10356433   2   -1000037    6
    0.05422055   2    1000025    5
    0.049872734   2    1000035    5

DECAY 2000005  154.49729
    0.3089198   2    1000021    5
    0.23219369   2   -1000024    6
    0.21524019   2   -1000037    6
    0.071138159   2    1000025    5
    0.063077428   2    1000006   -24
    0.057317857   2    1000022    5
    0.042374528   2    1000023    5
    0.0041788351   2    1000035    5
    0.0028646927   2    1000005    25
    0.0026948227   2    1000005    23

DECAY 1000002  1.1749144
    0.40214122   2    1000024    1
    0.26823027   2    1000037    1
    0.18675423   2    1000022    2
    0.13992524   2    1000025    2
    0.0017071458   2    1000023    2
    0.0012419007   2    1000035    2

DECAY 2000002  10.701164
    0.54974622   2    1000021    2
    0.43456734   2    1000035    2
    0.015584411   2    1000023    2
    7.2958738e-05   2    1000022    2
    2.9065154e-05   2    1000025    2

DECAY 1000001  1.1501091
    0.35738778   2   -1000024    2
    0.30217149   2   -1000037    2
    0.19041843   2    1000022    1
    0.14846973   2    1000025    1
    0.001512426   2    1000035    1
    4.0149286e-05   2    1000023    1

DECAY 2000001  42.026237
    0.96289565   2    1000021    1
    0.035847861   2    1000035    1
    0.0012483067   2    1000023    1
    5.8163804e-06   2    1000022    1
    2.3620055e-06   2    1000025    1

DECAY 1000004  1.1247162
    0.40506984   2    1000024    3
    0.26542902   2    1000037    3
    0.18812695   2    1000022    4
    0.13847022   2    1000025    4
    0.0017140865   2    1000023    4
    0.0011898916   2    1000035    4

DECAY 2000004  9.2120397
    0.52682094   2    1000035    4
    0.45414037   2    1000021    4
    0.018914872   2    1000023    4
    8.8568275e-05   2    1000022    4
    3.5255729e-05   2    1000025    4

DECAY 1000003  1.1005747
    0.36020941   2   -1000024    4
    0.29928016   2   -1000037    4
    0.19194236   2    1000022    3
    0.14707513   2    1000025    3
    0.001452591   2    1000035    3
    4.0340808e-05   2    1000023    3

DECAY 2000003  30.404754
    0.94649803   2    1000021    3
    0.051688551   2    1000035    3
    0.0018016181   2    1000023    3
    8.3959214e-06   2    1000022    3
    3.407309e-06   2    1000025    3

DECAY 1000011  25.321997
    0.42579041   2   -1000037    12
    0.20496994   2    1000025    11
    0.1795161   2   -1000024    12
    0.098332839   2    1000022    11
    0.086352612   2    1000035    11
    0.0050381036   2    1000023    11

DECAY 2000011  15.467647
    0.96628005   2    1000035    11
    0.033500437   2    1000023    11
    0.0001559837   2    1000022    11
    6.352495e-05   2    1000025    11

DECAY 1000013  25.321997
    0.42579041   2   -1000037    14
    0.20496994   2    1000025    13
    0.1795161   2   -1000024    14
    0.098332839   2    1000022    13
    0.086352612   2    1000035    13
    0.0050381036   2    1000023    13

DECAY 2000013  15.467647
    0.96628005   2    1000035    13
    0.033500437   2    1000023    13
    0.0001559837   2    1000022    13
    6.352495e-05   2    1000025    13

DECAY 1000015  5.9501425
    0.34583587   2    1000035    15
    0.25470625   2   -1000024    16
    0.17416228   2    1000023    15
    0.12868104   2    1000022    15
    0.064614799   2   -1000037    16
    0.031999763   2    1000025    15

DECAY 2000015  31.140541
    0.34380304   2   -1000037    16
    0.18899614   2    1000025    15
    0.14314971   2    1000022    15
    0.13911605   2   -1000024    16
    0.091388123   2    1000023    15
    0.071383088   2    1000035    15
    0.011097552   2    1000015    25
    0.011066292   2    1000015    23

DECAY 1000012  25.338139
    0.39757856   2    1000037    11
    0.20914452   2    1000024    11
    0.20907051   2    1000025    12
    0.093349991   2    1000022    12
    0.089015729   2    1000035    12
    0.0018406881   2    1000023    12

DECAY 1000014  25.338139
    0.39757856   2    1000037    13
    0.20914452   2    1000024    13
    0.20907051   2    1000025    14
    0.093349992   2    1000022    14
    0.089015729   2    1000035    14
    0.0018406882   2    1000023    14

DECAY 1000016  31.145254
    0.36479068   2    1000037    15
    0.29977418   2    1000024    15
    0.16690386   2    1000025    16
    0.074676233   2    1000022    16
    0.070945264   2    1000035    16
    0.02143805   2   -1000015   -24
    0.0014717371   2    1000023    16

DECAY 1000024  3.0378246e-12
    0.43865904   2    1000022    211
    0.21198691   3    1000022    211    111
    0.16149299   3    1000022   -11    12
    0.1522887   3    1000022   -13    14
    0.017786177   4    1000022    211    111    111
    0.017786177   4    1000022    211    211   -211

DECAY 1000037  0.60461003
    0.55188581   2    1000022    24
    0.37774764   2    1000024    23
    0.070366547   2    1000023    24

DECAY 1000022 -1


DECAY 1000023  7.0489851e-05
    0.11302545   3    1000024   -2    1
    0.11302545   3   -1000024   -1    2
    0.11302545   3    1000024   -4    3
    0.11302545   3   -1000024   -3    4
    0.050061358   3    1000022   -1    1
    0.050061358   3    1000022   -3    3
    0.041010044   3    1000022   -5    5
    0.038595703   3    1000022   -2    2
    0.038595703   3    1000022   -4    4
    0.037649925   3    1000024   -12    11
    0.037649925   3   -1000024    12   -11
    0.037649925   3    1000024   -14    13
    0.037649925   3   -1000024    14   -13
    0.037073883   3    1000024   -16    15
    0.037073883   3   -1000024    16   -15
    0.022998603   3    1000022   -12    12
    0.022998603   3    1000022   -14    14
    0.022998549   3    1000022   -16    16
    0.011500787   3    1000022   -11    11
    0.011500787   3    1000022   -13    13
    0.011311066   3    1000022   -15    15
    0.00151818   2    1000022    22

DECAY 1000025  0.66319964
    0.49960625   2    1000024   -24
    0.49960625   2   -1000024    24
    0.00078749277   2    1000022    23

DECAY 1000035  1.0278581
    0.26782717   2    1000024   -24
    0.26782717   2   -1000024    24
    0.25566627   2    1000022    23
    0.20430076   2    1000023    25
    0.0025004337   2    1000023    23
    0.0017358423   2    1000022    25
    7.1174639e-05   2    1000037   -24
    7.1174639e-05   2   -1000037    24

DECAY 25  0.0043686043
    0.61819209   2    5   -5
    0.19959444   2    24   -24
    0.07365324   2    21    21
    0.059581758   2   -15    15
    0.024992556   2    23    23
    0.019893778   2    4   -4
    0.002180667   2    22    22
    0.0014705569   2    22    23
    0.00023002145   2    3   -3
    0.00021089732   2   -13    13

DECAY 35  89.293536
    0.54063718   2    5   -5
    0.1020152   2   -15    15
    0.075337315   2    1000024   -1000037
    0.075337315   2    1000037   -1000024
    0.043475404   2    1000023    1000025
    0.040899682   2    1000024   -1000024
    0.026524006   2    1000037   -1000037
    0.024664872   2    1000022    1000023
    0.018347955   2    1000022    1000022
    0.01380364   2    1000025    1000025
    0.010541346   2    1000025    1000035
    0.010468531   2    1000023    1000035
    0.0078337945   2    1000022    1000035
    0.0074362763   2    1000022    1000025
    0.0011750612   2    6   -6
    0.00050938681   2    1000035    1000035
    0.00044074709   2    1000023    1000023
    0.00036182427   2   -13    13
    0.0001804561   2    3   -3
    6.8319353e-06   2    21    21
    1.3777038e-06   2    25    25
    3.4682179e-07   2    24   -24
    3.3192313e-07   2    1000001   -1000001
    3.3192313e-07   2    1000003   -1000003
    2.265637e-07   2    1000002   -1000002
    2.265637e-07   2    1000004   -1000004
    1.7308547e-07   2    23    23
    1.2255454e-07   2    1000015   -1000015
    2.6258142e-08   2    22    22
    1.1922996e-08   2    4   -4
    3.9988632e-09   2    23    22

DECAY 36  89.290869
    0.54066849   2    5   -5
    0.10201855   2   -15    15
    0.067008677   2    1000024   -1000024
    0.050858265   2    1000037   -1000037
    0.050095999   2    1000024   -1000037
    0.050095999   2    1000037   -1000024
    0.030268888   2    1000022    1000022
    0.026343733   2    1000025    1000025
    0.024004683   2    1000023    1000025
    0.015794976   2    1000023    1000035
    0.014996484   2    1000022    1000023
    0.012936473   2    1000022    1000025
    0.0061240485   2    1000025    1000035
    0.0055940928   2    1000022    1000035
    0.0011784432   2    6   -6
    0.00084827464   2    1000035    1000035
    0.00060479617   2    1000023    1000023
    0.00036183577   2   -13    13
    0.00018047148   2    3   -3
    1.6393848e-05   2    21    21
    3.5171016e-07   2    23    25
    5.608969e-08   2    22    22
    1.2708015e-08   2    23    22
    1.1992428e-08   2    4   -4

DECAY 37  83.002477
    0.50642295   2    6   -5
    0.12064299   2    1000037    1000022
    0.11360118   2    1000024    1000025
    0.10977989   2   -15    16
    0.069150249   2    1000037    1000023
    0.047259532   2    1000024    1000023
    0.017777845   2    1000037    1000035
    0.013868139   2    1000024    1000035
    0.00085003072   2    4   -5
    0.00038936344   2   -13    14
    0.00019124116   2    4   -3
    4.3473522e-05   2    1000024    1000022
    9.7154107e-06   2    2   -3
    8.5002996e-06   2    2   -5
    3.3266185e-06   2    1000037    1000025
    5.9446785e-07   2    1000002   -1000001
    5.9446785e-07   2    1000004   -1000003
    3.7886538e-07   2    24    25
    1.7972886e-14   2    24    36

DECAY 5 -1


DECAY 15 -1


DECAY 23  2.4952


DECAY 24  2.085
