# SUSY Les Houches Accord 2 - MSSM spectrum + Decays
# SPheno v4.0.5be
# W. Porod, Comput. Phys. Commun. 153 (2003) 275-315, hep-ph/0301101;
# W. Porod, F.~Staub, Comput. Phys. Commun. 183 (2012) 2458
#                     arXiv:1104.1573 [hep-ph] 
# in case of problems send email to porod@physik.uni-wuerzburg.de
# Created: 07.09.2021,  21:03
Block SPINFO         # Program information
     1   SPheno      # spectrum calculator
     2   v4.0.5be    # version number
#
Block SPhenoINFO     # SPheno specific information
    1      2         # using 2-loop RGEs
    2      2         # using pole masses for boundary conditions at mZ
Block MODSEL  # Model selection
    1    0    # general MSSM
Block MINPAR  # Input parameters
    3    4.05363328E+01  # tanb at m_Z    
    4   -1.00000000E+00  # Sign(mu)
Block EXTPAR  # non-universal input parameters
    0    4.78634067E+03  # scale for input parameters
    1    1.70545806E+02  # M_1
    2   -4.53671034E+02  # M_2
    3    2.48421156E+03  # M_3
   11   -3.21739591E+03  # A_t
   12    1.43423872E+03  # A_b
   13    1.50585842E+03  # A_tau
   23   -1.93271976E+02  # mu
   25    3.94678869E+01  # tan(beta)
   26    2.64798450E+02  # m_A, pole mass
   31    1.00000000E+04  # M_L11
   32    1.00000000E+04  # M_L22
   33    1.00000000E+04  # M_L33
   34    1.00000000E+04  # M_E11
   35    1.00000000E+04  # M_E22
   36    1.00000000E+04  # M_E33
   41    1.00000000E+04  # M_Q11
   42    1.00000000E+04  # M_Q22
   43    4.77420504E+03  # M_Q33
   44    1.00000000E+04  # M_U11
   45    1.00000000E+04  # M_U22
   46    4.76766206E+03  # M_U33
   47    1.00000000E+04  # M_D11
   48    1.00000000E+04  # M_D22
   49    3.13209683E+03  # M_D33
Block SMINPUTS  # SM parameters
         1     1.27908970E+02  # alpha_em^-1(MZ)^MSbar
         2     1.16637870E-05  # G_mu [GeV^-2]
         3     1.18400000E-01  # alpha_s(MZ)^MSbar
         4     9.11876000E+01  # m_Z(pole)
         5     4.18000000E+00  # m_b(m_b), MSbar
         6     1.73200000E+02  # m_t(pole)
         7     1.77700000E+00  # m_tau(pole)
         8     0.00000000E+00  # m_nu_3
        11     5.10998930E-04  # m_e(pole)
        12     0.00000000E+00  # m_nu_1
        13     1.05658372E-01  # m_muon(pole)
        14     0.00000000E+00  # m_nu_2
        21     5.00000000E-03  # m_d(2 GeV), MSbar
        22     2.50000000E-03  # m_u(2 GeV), MSbar
        23     9.50000000E-02  # m_s(2 GeV), MSbar
        24     1.27000000E+00  # m_c(m_c), MSbar
Block gauge Q=  4.78634067E+03  # (SUSY scale)
   1    3.55362975E-01  # g'(Q)^DRbar
   2    6.65198874E-01  # g(Q)^DRbar
   3    1.21977796E+00  # g3(Q)^DRbar
Block Yu Q=  4.78634067E+03  # (SUSY scale)
  1  1     8.38706294E-06   # Y_u(Q)^DRbar
  2  2     4.26062798E-03   # Y_c(Q)^DRbar
  3  3     1.01322457E+00   # Y_t(Q)^DRbar
Block Yd Q=  4.78634067E+03  # (SUSY scale)
  1  1     6.65172100E-04   # Y_d(Q)^DRbar
  2  2     1.26382699E-02   # Y_s(Q)^DRbar
  3  3     6.59642288E-01   # Y_b(Q)^DRbar
Block Ye Q=  4.78634067E+03  # (SUSY scale)
  1  1     1.16077396E-04   # Y_e(Q)^DRbar
  2  2     2.40011239E-02   # Y_mu(Q)^DRbar
  3  3     4.03659420E-01   # Y_tau(Q)^DRbar
Block Au Q=  4.78634067E+03  # (SUSY scale)
  1  1     0.00000000E+00   # A_u(Q)^DRbar
  2  2     0.00000000E+00   # A_c(Q)^DRbar
  3  3    -3.21739675E+03   # A_t(Q)^DRbar
Block Ad Q=  4.78634067E+03  # (SUSY scale)
  1  1     0.00000000E+00   # A_d(Q)^DRbar
  2  2     0.00000000E+00   # A_s(Q)^DRbar
  3  3     1.43423886E+03   # A_b(Q)^DRbar
Block Ae Q=  4.78634067E+03  # (SUSY scale)
  1  1     0.00000000E+00   # A_e(Q)^DRbar
  2  2     0.00000000E+00   # A_mu(Q)^DRbar
  3  3     1.50585833E+03   # A_tau(Q)^DRbar
Block MSOFT Q=  4.78634067E+03  # soft SUSY breaking masses at Q
   1    1.70545806E+02  # M_1
   2   -4.53671034E+02  # M_2
   3    2.48421156E+03  # M_3
  21    1.26958434E+05  # M^2_(H,d)
  22    4.99818042E+05  # M^2_(H,u)
  31    1.00000000E+04  # M_(L,11)
  32    1.00000000E+04  # M_(L,22)
  33    1.00000000E+04  # M_(L,33)
  34    1.00000000E+04  # M_(E,11)
  35    1.00000000E+04  # M_(E,22)
  36    1.00000000E+04  # M_(E,33)
  41    1.00000000E+04  # M_(Q,11)
  42    1.00000000E+04  # M_(Q,22)
  43    4.77420504E+03  # M_(Q,33)
  44    1.00000000E+04  # M_(U,11)
  45    1.00000000E+04  # M_(U,22)
  46    4.76766206E+03  # M_(U,33)
  47    1.00000000E+04  # M_(D,11)
  48    1.00000000E+04  # M_(D,22)
  49    3.13209683E+03  # M_(D,33)
Block MASS  # Mass spectrum
#   PDG code      mass          particle
         6     1.73200000E+02  # m_t(pole)
        23     9.11876000E+01  # m_Z(pole)
        24     8.04299946E+01  # W+
        15     1.77700000E+00  # m_tau(pole)
        25     1.25476689E+02  # h0
        35     2.64916851E+02  # H0
        36     2.64798450E+02  # A0
        37     2.87822170E+02  # H+
   1000001     1.01182546E+04  # ~d_L
   2000001     1.00930307E+04  # ~d_R
   1000002     1.01178899E+04  # ~u_L
   2000002     1.00961236E+04  # ~u_R
   1000003     1.01182542E+04  # ~s_L
   2000003     1.00930300E+04  # ~s_R
   1000004     1.01178895E+04  # ~c_L
   2000004     1.00961236E+04  # ~c_R
   1000005     3.21205802E+03  # ~b_1
   2000005     4.80717159E+03  # ~b_2
   1000006     4.73319148E+03  # ~t_1
   2000006     4.84008667E+03  # ~t_2
   1000011     1.00214692E+04  # ~e_L-
   2000011     1.00090901E+04  # ~e_R-
   1000012     1.00206954E+04  # ~nu_eL
   1000013     1.00214673E+04  # ~mu_L-
   2000013     1.00090859E+04  # ~mu_R-
   1000014     1.00206933E+04  # ~nu_muL
   1000015     1.00078370E+04  # ~tau_1-
   2000015     1.00209070E+04  # ~tau_2-
   1000016     1.00200949E+04  # ~nu_tauL
   1000021     2.96473073E+03  # ~g
   1000022     1.58715940E+02  # ~chi_10
   1000023     2.09067543E+02  # ~chi_20
   1000025     2.36818968E+02  # ~chi_30
   1000035     5.13205698E+02  # ~chi_40
   1000024     2.10652528E+02  # ~chi_1+
   1000037     5.13110492E+02  # ~chi_2+
# Higgs mixing
Block alpha # Effective Higgs mixing angle
          -3.61948936E-02   # alpha
Block Hmix Q=  4.78634067E+03  # Higgs mixing parameters
   1   -1.93271976E+02  # mu
   2    3.94678869E+01  # tan[beta](Q)
   3    2.42752962E+02  # v(Q)
   4    7.01182191E+04  # m^2_A(Q)
Block stopmix # stop mixing matrix
   1  1     5.52271537E-01   # Re[R_st(1,1)]
   1  2     8.33664291E-01   # Re[R_st(1,2)]
   2  1    -8.33664291E-01   # Re[R_st(2,1)]
   2  2     5.52271537E-01   # Re[R_st(2,2)]
Block sbotmix # sbottom mixing matrix
   1  1    -1.41780501E-03   # Re[R_sb(1,1)]
   1  2     9.99998995E-01   # Re[R_sb(1,2)]
   2  1    -9.99998995E-01   # Re[R_sb(2,1)]
   2  2    -1.41780501E-03   # Re[R_sb(2,2)]
Block staumix # stau mixing matrix
   1  1    -6.06453212E-02   # Re[R_sta(1,1)]
   1  2     9.98159379E-01   # Re[R_sta(1,2)]
   2  1    -9.98159379E-01   # Re[R_sta(2,1)]
   2  2    -6.06453212E-02   # Re[R_sta(2,2)]
Block Nmix # neutralino mixing matrix
   1  1     8.96408044E-01   # Re[N(1,1)]
   1  2     3.07013323E-02   # Re[N(1,2)]
   1  3    -3.59319215E-01   # Re[N(1,3)]
   1  4    -2.57681488E-01   # Re[N(1,4)]
   2  1     8.10484775E-02   # Re[N(2,1)]
   2  2     1.93603620E-01   # Re[N(2,2)]
   2  3     7.04744772E-01   # Re[N(2,3)]
   2  4    -6.77704647E-01   # Re[N(2,4)]
   3  1     4.35574847E-01   # Re[N(3,1)]
   3  2    -7.09552057E-02   # Re[N(3,2)]
   3  3     6.05906989E-01   # Re[N(3,3)]
   3  4     6.61903793E-01   # Re[N(3,4)]
   4  1     1.25823456E-02   # Re[N(4,1)]
   4  2    -9.78028847E-01   # Re[N(4,2)]
   4  3     8.42687874E-02   # Re[N(4,3)]
   4  4    -1.90263056E-01   # Re[N(4,4)]
Block Umix # chargino mixing matrix
   1  1    -1.19766306E-01   # Re[U(1,1)]
   1  2    -9.92802111E-01   # Re[U(1,2)]
   2  1    -9.92802111E-01   # Re[U(2,1)]
   2  2     1.19766306E-01   # Re[U(2,2)]
Block Vmix # chargino mixing matrix
   1  1     2.70793475E-01   # Re[V(1,1)]
   1  2     9.62637467E-01   # Re[V(1,2)]
   2  1     9.62637467E-01   # Re[V(2,1)]
   2  2    -2.70793475E-01   # Re[V(2,2)]
DECAY        23     2.49520000E+00   # Z
DECAY        24     2.08500000E+00   # W
DECAY   2000011     5.02606962E+01   # ~e^-_R
#    BR                NDA      ID1      ID2
     8.03643902E-01    2     1000022        11   # BR(~e^-_R -> chi^0_1 e^-)
     6.56724201E-03    2     1000023        11   # BR(~e^-_R -> chi^0_2 e^-)
     1.89631220E-01    2     1000025        11   # BR(~e^-_R -> chi^0_3 e^-)
     1.57582617E-04    2     1000035        11   # BR(~e^-_R -> chi^0_4 e^-)
DECAY   1000011     1.44234192E+02   # ~e^-_L
#    BR                NDA      ID1      ID2
     7.93733914E-02    2     1000022        11   # BR(~e^-_L -> chi^0_1 e^-)
     1.71484027E-02    2     1000023        11   # BR(~e^-_L -> chi^0_2 e^-)
     7.99107064E-03    2     1000025        11   # BR(~e^-_L -> chi^0_3 e^-)
     2.87011015E-01    2     1000035        11   # BR(~e^-_L -> chi^0_4 e^-)
     8.76560241E-03    2    -1000024        12   # BR(~e^-_L -> chi^-_1 nu_e)
     5.99710518E-01    2    -1000037        12   # BR(~e^-_L -> chi^-_2 nu_e)
#    BR                NDA      ID1      ID2       ID3
DECAY   2000013     5.04898649E+01   # ~mu^-_R
#    BR                NDA      ID1      ID2
     8.00289079E-01    2     1000022        13   # BR(~mu^-_R -> chi^0_1 mu^-)
     7.66477685E-03    2     1000023        13   # BR(~mu^-_R -> chi^0_2 mu^-)
     1.89603513E-01    2     1000025        13   # BR(~mu^-_R -> chi^0_3 mu^-)
     1.72915166E-04    2     1000035        13   # BR(~mu^-_R -> chi^0_4 mu^-)
     2.23729925E-03    2    -1000024        14   # BR(~mu^-_R -> chi^-_1 nu_mu)
DECAY   1000013     1.44348901E+02   # ~mu^-_L
#    BR                NDA      ID1      ID2
     7.94129690E-02    2     1000022        13   # BR(~mu^-_L -> chi^0_1 mu^-)
     1.75295830E-02    2     1000023        13   # BR(~mu^-_L -> chi^0_2 mu^-)
     8.27648171E-03    2     1000025        13   # BR(~mu^-_L -> chi^0_3 mu^-)
     2.86788499E-01    2     1000035        13   # BR(~mu^-_L -> chi^0_4 mu^-)
     8.75863500E-03    2    -1000024        14   # BR(~mu^-_L -> chi^-_1 nu_mu)
     5.99233833E-01    2    -1000037        14   # BR(~mu^-_L -> chi^-_2 nu_mu)
#    BR                NDA      ID1      ID2       ID3
DECAY   1000015     1.15307008E+02   # ~tau^-_1
#    BR                NDA      ID1      ID2
     3.92026089E-01    2     1000022        15   # BR(~tau^-_1 -> chi^0_1 tau^-)
     1.46745124E-01    2     1000023        15   # BR(~tau^-_1 -> chi^0_2 tau^-)
     1.78258157E-01    2     1000025        15   # BR(~tau^-_1 -> chi^0_3 tau^-)
     2.82756977E-01    2    -1000024        16   # BR(~tau^-_1 -> chi^-_1 nu_tau)
     1.15633591E-04    2    -1000037        16   # BR(~tau^-_1 -> chi^-_2 nu_tau)
DECAY   2000015     1.76447627E+02   # ~tau^-_2
#    BR                NDA      ID1      ID2
     8.50595450E-02    2     1000022        15   # BR(~tau^-_2 -> chi^0_1 tau^-)
     1.02579954E-01    2     1000023        15   # BR(~tau^-_2 -> chi^0_2 tau^-)
     7.89915390E-02    2     1000025        15   # BR(~tau^-_2 -> chi^0_3 tau^-)
     2.37180205E-01    2     1000035        15   # BR(~tau^-_2 -> chi^0_4 tau^-)
     3.44189457E-03    2    -1000024        16   # BR(~tau^-_2 -> chi^-_1 nu_tau)
     4.92746862E-01    2    -1000037        16   # BR(~tau^-_2 -> chi^-_2 nu_tau)
#    BR                NDA      ID1      ID2       ID3
DECAY   1000012     1.44238861E+02   # ~nu_e
#    BR                NDA      ID1      ID2
     6.13906975E-02    2     1000022        12   # BR(~nu_e -> chi^0_1 nu_e)
     6.90227621E-03    2     1000023        12   # BR(~nu_e -> chi^0_2 nu_e)
     2.81627553E-02    2     1000025        12   # BR(~nu_e -> chi^0_3 nu_e)
     2.94978253E-01    2     1000035        12   # BR(~nu_e -> chi^0_4 nu_e)
     4.48065366E-02    2     1000024        11   # BR(~nu_e -> chi^+_1 e^-)
     5.63759482E-01    2     1000037        11   # BR(~nu_e -> chi^+_2 e^-)
#    BR                NDA      ID1      ID2       ID3
DECAY   1000014     1.44353558E+02   # ~nu_mu
#    BR                NDA      ID1      ID2
     6.13419060E-02    2     1000022        14   # BR(~nu_mu -> chi^0_1 nu_mu)
     6.89679048E-03    2     1000023        14   # BR(~nu_mu -> chi^0_2 nu_mu)
     2.81403724E-02    2     1000025        14   # BR(~nu_mu -> chi^0_3 nu_mu)
     2.94743812E-01    2     1000035        14   # BR(~nu_mu -> chi^0_4 nu_mu)
     4.55543409E-02    2     1000024        13   # BR(~nu_mu -> chi^+_1 mu^-)
     5.63322778E-01    2     1000037        13   # BR(~nu_mu -> chi^+_2 mu^-)
#    BR                NDA      ID1      ID2       ID3
DECAY   1000016     1.76680610E+02   # ~nu_tau
#    BR                NDA      ID1      ID2
     5.01152509E-02    2     1000022        16   # BR(~nu_tau -> chi^0_1 nu_tau)
     5.63455544E-03    2     1000023        16   # BR(~nu_tau -> chi^0_2 nu_tau)
     2.29901842E-02    2     1000025        16   # BR(~nu_tau -> chi^0_3 nu_tau)
     2.40800338E-01    2     1000035        16   # BR(~nu_tau -> chi^0_4 nu_tau)
     2.17620038E-01    2     1000024        15   # BR(~nu_tau -> chi^+_1 tau^-)
     4.62839633E-01    2     1000037        15   # BR(~nu_tau -> chi^+_2 tau^-)
#    BR                NDA      ID1      ID2       ID3
DECAY   2000001     6.70759320E+02   # ~d_R
#    BR                NDA      ID1      ID2
     6.74706104E-03    2     1000022         1   # BR(~d_R -> chi^0_1 d)
     1.59212576E-03    2     1000025         1   # BR(~d_R -> chi^0_3 d)
     9.91604155E-01    2     1000021         1   # BR(~d_R -> ~g d)
DECAY   1000001     8.01762143E+02   # ~d_L
#    BR                NDA      ID1      ID2
     9.22851987E-04    2     1000022         1   # BR(~d_L -> chi^0_1 d)
     1.78172768E-03    2     1000023         1   # BR(~d_L -> chi^0_2 d)
     1.22396518E-03    2     1000025         1   # BR(~d_L -> chi^0_3 d)
     5.31027159E-02    2     1000035         1   # BR(~d_L -> chi^0_4 d)
     1.59215729E-03    2    -1000024         2   # BR(~d_L -> chi^-_1 u)
     1.08938658E-01    2    -1000037         2   # BR(~d_L -> chi^-_2 u)
     8.32437924E-01    2     1000021         1   # BR(~d_L -> ~g d)
DECAY   2000003     6.70823163E+02   # ~s_R
#    BR                NDA      ID1      ID2
     6.75257136E-03    2     1000022         3   # BR(~s_R -> chi^0_1 s)
     1.60945806E-03    2     1000025         3   # BR(~s_R -> chi^0_3 s)
     9.91509689E-01    2     1000021         3   # BR(~s_R -> ~g s)
DECAY   1000003     8.01797784E+02   # ~s_L
#    BR                NDA      ID1      ID2
     9.27971488E-04    2     1000022         3   # BR(~s_L -> chi^0_1 s)
     1.80149298E-03    2     1000023         3   # BR(~s_L -> chi^0_2 s)
     1.23857528E-03    2     1000025         3   # BR(~s_L -> chi^0_3 s)
     5.31006352E-02    2     1000035         3   # BR(~s_L -> chi^0_4 s)
     1.59630498E-03    2    -1000024         4   # BR(~s_L -> chi^-_1 c)
     1.08934144E-01    2    -1000037         4   # BR(~s_L -> chi^-_2 c)
     8.32400876E-01    2     1000021         3   # BR(~s_L -> ~g s)
DECAY   1000005     6.22786059E+01   # ~b_1
#    BR                NDA      ID1      ID2
     8.05414262E-02    2     1000022         5   # BR(~b_1 -> chi^0_1 b)
     2.20150329E-01    2     1000023         5   # BR(~b_1 -> chi^0_2 b)
     1.67359326E-01    2     1000025         5   # BR(~b_1 -> chi^0_3 b)
     2.94417586E-03    2     1000035         5   # BR(~b_1 -> chi^0_4 b)
     4.33866094E-01    2    -1000024         6   # BR(~b_1 -> chi^-_1 t)
     5.90088607E-03    2    -1000037         6   # BR(~b_1 -> chi^-_2 t)
     8.92377623E-02    2     1000021         5   # BR(~b_1 -> ~g b)
DECAY   2000005     3.49433411E+02   # ~b_2
#    BR                NDA      ID1      ID2
     1.63081759E-02    2     1000022         5   # BR(~b_2 -> chi^0_1 b)
     6.08365722E-02    2     1000023         5   # BR(~b_2 -> chi^0_2 b)
     4.48802958E-02    2     1000025         5   # BR(~b_2 -> chi^0_3 b)
     5.77104976E-02    2     1000035         5   # BR(~b_2 -> chi^0_4 b)
     2.60248170E-01    2    -1000024         6   # BR(~b_2 -> chi^-_1 t)
     1.37228573E-01    2    -1000037         6   # BR(~b_2 -> chi^-_2 t)
     4.16935907E-01    2     1000021         5   # BR(~b_2 -> ~g b)
     2.87009711E-03    2     1000005        36   # BR(~b_2 -> ~b_1 A^0)
     2.85970831E-03    2     1000005        35   # BR(~b_2 -> ~b_1 H^0)
DECAY   2000002     6.87941095E+02   # ~u_R
#    BR                NDA      ID1      ID2
     2.63222002E-02    2     1000022         2   # BR(~u_R -> chi^0_1 u)
     2.15101077E-04    2     1000023         2   # BR(~u_R -> chi^0_2 u)
     6.21116313E-03    2     1000025         2   # BR(~u_R -> chi^0_3 u)
     9.67246374E-01    2     1000021         2   # BR(~u_R -> ~g u)
DECAY   1000002     8.01748819E+02   # ~u_L
#    BR                NDA      ID1      ID2
     2.01115669E-03    2     1000022         2   # BR(~u_L -> chi^0_1 u)
     2.40193755E-03    2     1000023         2   # BR(~u_L -> chi^0_2 u)
     5.26172797E-02    2     1000035         2   # BR(~u_L -> chi^0_4 u)
     8.13936301E-03    2     1000024         1   # BR(~u_L -> chi^+_1 d)
     1.02417357E-01    2     1000037         1   # BR(~u_L -> chi^+_2 d)
     8.32410482E-01    2     1000021         2   # BR(~u_L -> ~g u)
DECAY   2000004     6.87948347E+02   # ~c_R
#    BR                NDA      ID1      ID2
     2.63222726E-02    2     1000022         4   # BR(~c_R -> chi^0_1 c)
     2.17530644E-04    2     1000023         4   # BR(~c_R -> chi^0_2 c)
     6.21341844E-03    2     1000025         4   # BR(~c_R -> chi^0_3 c)
     9.67236132E-01    2     1000021         4   # BR(~c_R -> ~g c)
DECAY   1000004     8.01784426E+02   # ~c_L
#    BR                NDA      ID1      ID2
     2.01136989E-03    2     1000022         4   # BR(~c_L -> chi^0_1 c)
     2.40392282E-03    2     1000023         4   # BR(~c_L -> chi^0_2 c)
     5.26151003E-02    2     1000035         4   # BR(~c_L -> chi^0_4 c)
     8.17838071E-03    2     1000024         3   # BR(~c_L -> chi^+_1 s)
     1.02413377E-01    2     1000037         3   # BR(~c_L -> chi^+_2 s)
     8.32373432E-01    2     1000021         4   # BR(~c_L -> ~g c)
DECAY   1000006     3.50964003E+02   # ~t_1
#    BR                NDA      ID1      ID2
     4.90319034E-02    2     1000022         6   # BR(~t_1 -> chi^0_1 t)
     1.14314278E-01    2     1000023         6   # BR(~t_1 -> chi^0_2 t)
     9.99347781E-02    2     1000025         6   # BR(~t_1 -> chi^0_3 t)
     4.77985891E-02    2     1000035         6   # BR(~t_1 -> chi^0_4 t)
     1.71071928E-01    2     1000024         5   # BR(~t_1 -> chi^+_1 b)
     8.93738812E-02    2     1000037         5   # BR(~t_1 -> chi^+_2 b)
     5.28855625E-03    2     1000021         4   # BR(~t_1 -> ~g c)
     4.17406717E-01    2     1000021         6   # BR(~t_1 -> ~g t)
     2.40683128E-03    2     1000005        37   # BR(~t_1 -> ~b_1 H^+)
#    BR                NDA      ID1      ID2       ID3
     3.28953957E-03    3     1000022        24         5   # BR(~t_1 -> chi^0_1 W^+ b)
DECAY   2000006     3.44839543E+02   # ~t_2
#    BR                NDA      ID1      ID2
     1.40682993E-02    2     1000022         6   # BR(~t_2 -> chi^0_1 t)
     1.45588326E-01    2     1000023         6   # BR(~t_2 -> chi^0_2 t)
     1.51380245E-01    2     1000025         6   # BR(~t_2 -> chi^0_3 t)
     2.74128541E-02    2     1000035         6   # BR(~t_2 -> chi^0_4 t)
     2.14893966E-01    2     1000024         5   # BR(~t_2 -> chi^+_1 b)
     4.10861414E-02    2     1000037         5   # BR(~t_2 -> chi^+_2 b)
     4.01810703E-01    2     1000021         6   # BR(~t_2 -> ~g t)
     3.42410172E-03    2     1000005        37   # BR(~t_2 -> ~b_1 H^+)
     2.80805563E-04    2     1000006        23   # BR(~t_2 -> ~t_1 Z)
DECAY   1000024     9.80678333E-05   # chi^+_1
#    BR                NDA      ID1      ID2       ID3
     3.33438070E-01    3     1000022        -1         2   # BR(chi^+_1 -> chi^0_1 d_bar u)
     3.32628528E-01    3     1000022        -3         4   # BR(chi^+_1 -> chi^0_1 s_bar c)
     1.11143369E-01    3     1000022       -11        12   # BR(chi^+_1 -> chi^0_1 e^+ nu_e)
     1.11146794E-01    3     1000022       -13        14   # BR(chi^+_1 -> chi^0_1 mu^+ nu_mu)
     1.11642985E-01    3     1000022       -15        16   # BR(chi^+_1 -> chi^0_1 tau^+ nu_tau)
DECAY   1000037     5.02882009E+00   # chi^+_2
#    BR                NDA      ID1      ID2
     5.35372367E-02    2     1000022        24   # BR(chi^+_2 -> chi^0_1 W^+)
     2.32511093E-01    2     1000023        24   # BR(chi^+_2 -> chi^0_2 W^+)
     1.48453514E-01    2     1000025        24   # BR(chi^+_2 -> chi^0_3 W^+)
     1.57188387E-02    2          37   1000022   # BR(chi^+_2 -> H^+ chi^0_1)
     5.11147269E-02    2          37   1000023   # BR(chi^+_2 -> H^+ chi^0_2)
     1.96914170E-01    2     1000024        23   # BR(chi^+_2 -> chi^+_1 Z)
     7.01186268E-02    2     1000024        36   # BR(chi^+_2 -> chi^+_1 A^0)
     1.69366827E-01    2     1000024        25   # BR(chi^+_2 -> chi^+_1 h^0)
     6.06692671E-02    2     1000024        35   # BR(chi^+_2 -> chi^+_1 H^0)
#    BR                NDA      ID1      ID2       ID3
     1.48736659E-04    3     1000022        -5         6   # BR(chi^+_2 -> chi^0_1 b_bar t)
     3.66042389E-04    3     1000023        -5         6   # BR(chi^+_2 -> chi^0_2 b_bar t)
     7.71576995E-04    3     1000025        -5         6   # BR(chi^+_2 -> chi^0_3 b_bar t)
     3.07336665E-04    3     1000025       -15        16   # BR(chi^+_2 -> chi^0_3 tau^+ nu_tau)
DECAY   1000022     0.00000000E+00   # chi^0_1
DECAY   1000023     1.94295063E-04   # chi^0_2
#    BR                NDA      ID1      ID2
     1.03503439E-02    2     1000022        22   # BR(chi^0_2 -> chi^0_1 photon)
#    BR                NDA      ID1      ID2       ID3
     1.18587541E-01    3     1000022         2        -2   # BR(chi^0_2 -> chi^0_1 u u_bar)
     1.17714271E-01    3     1000022         4        -4   # BR(chi^0_2 -> chi^0_1 c c_bar)
     1.52051411E-01    3     1000022         1        -1   # BR(chi^0_2 -> chi^0_1 d d_bar)
     1.52046482E-01    3     1000022         3        -3   # BR(chi^0_2 -> chi^0_1 s s_bar)
     1.43370661E-01    3     1000022         5        -5   # BR(chi^0_2 -> chi^0_1 b b_bar)
     3.43116914E-02    3     1000022        11       -11   # BR(chi^0_2 -> chi^0_1 e^- e^+)
     3.43103157E-02    3     1000022        13       -13   # BR(chi^0_2 -> chi^0_1 mu^- mu^+)
     3.39256110E-02    3     1000022        15       -15   # BR(chi^0_2 -> chi^0_1 tau^- tau^+)
     2.03331673E-01    3     1000022        12       -12   # BR(chi^0_2 -> chi^0_1 nu_e nu_bar_e)
DECAY   1000025     1.06577735E-04   # chi^0_3
#    BR                NDA      ID1      ID2
     1.72387112E-03    2     1000022        22   # BR(chi^0_3 -> chi^0_1 photon)
     1.98807506E-02    2     1000023        22   # BR(chi^0_3 -> chi^0_2 photon)
#    BR                NDA      ID1      ID2       ID3
     4.56950152E-02    3     1000022         2        -2   # BR(chi^0_3 -> chi^0_1 u u_bar)
     4.55913813E-02    3     1000022         4        -4   # BR(chi^0_3 -> chi^0_1 c c_bar)
     5.85790912E-02    3     1000022         1        -1   # BR(chi^0_3 -> chi^0_1 d d_bar)
     5.85790796E-02    3     1000022         3        -3   # BR(chi^0_3 -> chi^0_1 s s_bar)
     5.94340109E-02    3     1000022         5        -5   # BR(chi^0_3 -> chi^0_1 b b_bar)
     1.32110670E-02    3     1000022        11       -11   # BR(chi^0_3 -> chi^0_1 e^- e^+)
     1.32117510E-02    3     1000022        13       -13   # BR(chi^0_3 -> chi^0_1 mu^- mu^+)
     1.34013489E-02    3     1000022        15       -15   # BR(chi^0_3 -> chi^0_1 tau^- tau^+)
     7.83558714E-02    3     1000022        12       -12   # BR(chi^0_3 -> chi^0_1 nu_e nu_bar_e)
     4.45583367E-02    3     1000023         2        -2   # BR(chi^0_3 -> chi^0_2 u u_bar)
     4.33653590E-02    3     1000023         4        -4   # BR(chi^0_3 -> chi^0_2 c c_bar)
     5.71325727E-02    3     1000023         1        -1   # BR(chi^0_3 -> chi^0_2 d d_bar)
     5.71251225E-02    3     1000023         3        -3   # BR(chi^0_3 -> chi^0_2 s s_bar)
     4.44041478E-02    3     1000023         5        -5   # BR(chi^0_3 -> chi^0_2 b b_bar)
     1.28933916E-02    3     1000023        11       -11   # BR(chi^0_3 -> chi^0_2 e^- e^+)
     1.28907393E-02    3     1000023        13       -13   # BR(chi^0_3 -> chi^0_2 mu^- mu^+)
     1.21700637E-02    3     1000023        15       -15   # BR(chi^0_3 -> chi^0_2 tau^- tau^+)
     7.64034478E-02    3     1000023        12       -12   # BR(chi^0_3 -> chi^0_2 nu_e nu_bar_e)
     3.88035989E-02    3     1000024         1        -2   # BR(chi^0_3 -> chi^+_1 d u_bar)
     3.88035989E-02    3    -1000024        -1         2   # BR(chi^0_3 -> chi^-_1 d_bar u)
     3.83675259E-02    3     1000024         3        -4   # BR(chi^0_3 -> chi^+_1 s c_bar)
     3.83675259E-02    3    -1000024        -3         4   # BR(chi^0_3 -> chi^-_1 s_bar c)
     1.29346495E-02    3     1000024        11       -12   # BR(chi^0_3 -> chi^+_1 e^- nu_bar_e)
     1.29346495E-02    3    -1000024       -11        12   # BR(chi^0_3 -> chi^-_1 e^+ nu_e)
     1.29346027E-02    3     1000024        13       -14   # BR(chi^0_3 -> chi^+_1 mu^- nu_bar_mu)
     1.29346027E-02    3    -1000024       -13        14   # BR(chi^0_3 -> chi^-_1 mu^+ nu_mu)
     1.26564135E-02    3     1000024        15       -16   # BR(chi^0_3 -> chi^+_1 tau^- nu_bar_tau)
     1.26564135E-02    3    -1000024       -15        16   # BR(chi^0_3 -> chi^-_1 tau^+ nu_tau)
DECAY   1000035     6.08394808E+00   # chi^0_4
#    BR                NDA      ID1      ID2
     1.99097472E-01    2     1000024       -24   # BR(chi^0_4 -> chi^+_1 W^-)
     1.99097472E-01    2    -1000024        24   # BR(chi^0_4 -> chi^-_1 W^+)
     3.74934049E-02    2          37  -1000024   # BR(chi^0_4 -> H^+ chi^-_1)
     3.74934049E-02    2         -37   1000024   # BR(chi^0_4 -> H^- chi^+_1)
     3.74166234E-02    2     1000022        23   # BR(chi^0_4 -> chi^0_1 Z)
     2.33089941E-02    2     1000023        23   # BR(chi^0_4 -> chi^0_2 Z)
     1.29775392E-01    2     1000025        23   # BR(chi^0_4 -> chi^0_3 Z)
     2.04412731E-03    2     1000022        36   # BR(chi^0_4 -> chi^0_1 A^0)
     2.92781565E-03    2     1000023        36   # BR(chi^0_4 -> chi^0_2 A^0)
     3.43651846E-04    2     1000025        36   # BR(chi^0_4 -> chi^0_3 A^0)
     2.73491190E-02    2     1000022        25   # BR(chi^0_4 -> chi^0_1 h^0)
     1.17286705E-01    2     1000023        25   # BR(chi^0_4 -> chi^0_2 h^0)
     8.69192931E-02    2     1000025        25   # BR(chi^0_4 -> chi^0_3 h^0)
     1.59803864E-02    2     1000022        35   # BR(chi^0_4 -> chi^0_1 H^0)
     5.24787098E-02    2     1000023        35   # BR(chi^0_4 -> chi^0_2 H^0)
     3.01521886E-02    2     1000025        35   # BR(chi^0_4 -> chi^0_3 H^0)
#    BR                NDA      ID1      ID2       ID3
     3.94607613E-04    3     1000024         5        -6   # BR(chi^0_4 -> chi^+_1 b t_bar)
     3.94607613E-04    3    -1000024        -5         6   # BR(chi^0_4 -> chi^-_1 b_bar t)
DECAY   1000021     1.87238331E-01   # ~g
#    BR                NDA      ID1      ID2
     4.41469204E-04    2     1000022        21   # BR(~g -> chi^0_1 g)
     9.66878984E-04    2     1000023        21   # BR(~g -> chi^0_2 g)
     1.02457133E-03    2     1000025        21   # BR(~g -> chi^0_3 g)
#    BR                NDA      ID1      ID2       ID3
     2.08308492E-04    3     1000022         2        -2   # BR(~g -> chi^0_1 u u_bar)
     2.08315447E-04    3     1000022         4        -4   # BR(~g -> chi^0_1 c c_bar)
     1.31696082E-02    3     1000022         6        -6   # BR(~g -> chi^0_1 t t_bar)
     5.50320297E-02    3     1000022         5        -5   # BR(~g -> chi^0_1 b b_bar)
     6.82283662E-02    3     1000023         6        -6   # BR(~g -> chi^0_2 t t_bar)
     1.58909265E-01    3     1000023         5        -5   # BR(~g -> chi^0_2 b b_bar)
     6.67241392E-02    3     1000025         6        -6   # BR(~g -> chi^0_3 t t_bar)
     1.19113785E-01    3     1000025         5        -5   # BR(~g -> chi^0_3 b b_bar)
     4.17105260E-04    3     1000035         2        -2   # BR(~g -> chi^0_4 u u_bar)
     4.17108438E-04    3     1000035         4        -4   # BR(~g -> chi^0_4 c c_bar)
     1.17642777E-02    3     1000035         6        -6   # BR(~g -> chi^0_4 t t_bar)
     4.20855184E-04    3     1000035         1        -1   # BR(~g -> chi^0_4 d d_bar)
     4.20860609E-04    3     1000035         3        -3   # BR(~g -> chi^0_4 s s_bar)
     1.28908919E-02    3     1000035         5        -5   # BR(~g -> chi^0_4 b b_bar)
     2.25619430E-01    3     1000024         5        -6   # BR(~g -> chi^+_1 b t_bar)
     2.25619430E-01    3    -1000024        -5         6   # BR(~g -> chi^-_1 b_bar t)
     4.91602915E-04    3     1000037         1        -2   # BR(~g -> chi^+_2 d u_bar)
     4.91602915E-04    3    -1000037        -1         2   # BR(~g -> chi^-_2 d_bar u)
     4.91611556E-04    3     1000037         3        -4   # BR(~g -> chi^+_2 s c_bar)
     4.91611556E-04    3    -1000037        -3         4   # BR(~g -> chi^-_2 s_bar c)
     1.79481656E-02    3     1000037         5        -6   # BR(~g -> chi^+_2 b t_bar)
     1.79481656E-02    3    -1000037        -5         6   # BR(~g -> chi^-_2 b_bar t)
DECAY        25     6.44968255E-03   # Gamma(h0)
     1.44401473E-03   2        22        22   # BR(h0 -> photon photon)
     9.40979121E-04   2        22        23   # BR(h0 -> photon Z)
     1.76507209E-02   2        23        23   # BR(h0 -> Z Z)
     1.44444860E-01   2       -24        24   # BR(h0 -> W W)
     4.21482455E-02   2        21        21   # BR(h0 -> gluon gluon)
     6.16506175E-09   2       -11        11   # BR(h0 -> Electron electron)
     2.74233229E-04   2       -13        13   # BR(h0 -> Muon muon)
     7.90664610E-02   2       -15        15   # BR(h0 -> Tau tau)
     8.01175753E-08   2        -2         2   # BR(h0 -> Up up)
     1.55487037E-02   2        -4         4   # BR(h0 -> Charm charm)
     7.14912833E-07   2        -1         1   # BR(h0 -> Down down)
     2.58570078E-04   2        -3         3   # BR(h0 -> Strange strange)
     6.98222411E-01   2        -5         5   # BR(h0 -> Bottom bottom)
DECAY        35     7.50049354E+00   # Gamma(HH)
     3.36642896E-07   2        22        22   # BR(HH -> photon photon)
     1.02067776E-07   2        22        23   # BR(HH -> photon Z)
     2.74829899E-05   2        23        23   # BR(HH -> Z Z)
     6.35368214E-05   2       -24        24   # BR(HH -> W W)
     4.05889998E-04   2        21        21   # BR(HH -> gluon gluon)
     8.71328436E-09   2       -11        11   # BR(HH -> Electron electron)
     3.87670018E-04   2       -13        13   # BR(HH -> Muon muon)
     1.11894090E-01   2       -15        15   # BR(HH -> Tau tau)
     1.51534112E-13   2        -2         2   # BR(HH -> Up up)
     2.93722808E-08   2        -4         4   # BR(HH -> Charm charm)
     8.96779619E-07   2        -1         1   # BR(HH -> Down down)
     3.24355963E-04   2        -3         3   # BR(HH -> Strange strange)
     8.86682031E-01   2        -5         5   # BR(HH -> Bottom bottom)
     2.13569543E-04   2        25        25   # BR(HH -> h0 h0)
DECAY        36     7.49228187E+00   # Gamma(A0)
     1.04252401E-07   2        22        22   # BR(A0 -> photon photon)
     9.14117690E-09   2        22        23   # BR(A0 -> photon Z)
     3.93759114E-04   2        21        21   # BR(A0 -> gluon gluon)
     8.71217258E-09   2       -11        11   # BR(A0 -> Electron electron)
     3.87620752E-04   2       -13        13   # BR(A0 -> Muon muon)
     1.11900195E-01   2       -15        15   # BR(A0 -> Tau tau)
     6.31643591E-14   2        -2         2   # BR(A0 -> Up up)
     1.22437492E-08   2        -4         4   # BR(A0 -> Charm charm)
     8.96725635E-07   2        -1         1   # BR(A0 -> Down down)
     3.24336477E-04   2        -3         3   # BR(A0 -> Strange strange)
     8.86973029E-01   2        -5         5   # BR(A0 -> Bottom bottom)
     2.00294271E-05   2        23        25   # BR(A0 -> Z h0)
     4.13450559E-35   2        25        25   # BR(A0 -> h0 h0)
DECAY        37     3.91181320E+00   # Gamma(Hp)
     1.99938171E-08   2       -11        12   # BR(Hp -> Electron nu_e)
     8.54797896E-04   2       -13        14   # BR(Hp -> Muon nu_mu)
     2.41767255E-01   2       -15        16   # BR(Hp -> Tau nu_tau)
     1.77666929E-06   2        -1         2   # BR(Hp -> Down up)
     2.90018358E-05   2        -3         2   # BR(Hp -> Strange up)
     1.88776430E-05   2        -5         2   # BR(Hp -> Bottom up)
     8.16429190E-08   2        -1         4   # BR(Hp -> Down charm)
     6.40289513E-04   2        -3         4   # BR(Hp -> Strange charm)
     2.64344335E-03   2        -5         4   # BR(Hp -> Bottom charm)
     6.30656293E-08   2        -1         6   # BR(Hp -> Down top)
     1.74969273E-06   2        -3         6   # BR(Hp -> Strange top)
     7.53951061E-01   2        -5         6   # BR(Hp -> Bottom top)
     8.74556915E-05   2        24        25   # BR(Hp -> W h0)
     2.03698000E-06   2        24        35   # BR(Hp -> W HH)
     2.09016273E-06   2        24        36   # BR(Hp -> W A0)
DECAY         6     2.43000000E+00   # top
#    BR                NDA      ID1      ID2
     1.00000000E+00    2           5        24   # BR(t -> b W)
Block HiggsBoundsInputHiggsCouplingsFermions
# ScalarNormEffCoupSq PseudoSNormEffCoupSq NP IP1 IP2 IP2
    2.04113350E+00    0.00000000E+00        3  25   5   5  # h0-b-b eff. coupling^2, normalised to SM
    1.55667296E+03    0.00000000E+00        3  35   5   5  # H0-b-b eff. coupling^2, normalised to SM
    0.00000000E+00    1.55771410E+03        3  36   5   5  # A0-b-b eff. coupling^2, normalised to SM
#
    9.99331627E-01    0.00000000E+00        3  25   6   6  # h0-t-t eff. coupling^2, normalised to SM
    1.31033898E-03    0.00000000E+00        3  35   6   6  # H0-t-t eff. coupling^2, normalised to SM
    0.00000000E+00    6.41966329E-04        3  36   6   6  # A0-t-t eff. coupling^2, normalised to SM
#
    2.04113350E+00    0.00000000E+00        3  25  15  15  # h0-tau-tau eff. coupling^2, normalised to SM
    1.55667296E+03    0.00000000E+00        3  35  15  15  # H0-tau-tau eff. coupling^2, normalised to SM
    0.00000000E+00    1.55771410E+03        3  36  15  15  # A0-tau-tau eff. coupling^2, normalised to SM
#
Block HiggsBoundsInputHiggsCouplingsBosons
    9.99881994E-01        3  25  24  24  # h0-W-W eff. coupling^2, normalised to SM
    1.18005752E-04        3  35  24  24  # H0-W-W eff. coupling^2, normalised to SM
    0.00000000E+00        3  36  24  24  # A0-W-W eff. coupling^2, normalised to SM
#
    9.99881994E-01        3  25  23  23  # h0-Z-Z eff. coupling^2, normalised to SM
    1.18005752E-04        3  35  23  23  # H0-Z-Z eff. coupling^2, normalised to SM
    0.00000000E+00        3  36  23  23  # A0-Z-Z eff. coupling^2, normalised to SM
#
    1.21509793E+00        3  25  21  21  # h0-g-g eff. coupling^2, normalised to SM
    9.78739769E-01        3  35  21  21  # H0-g-g eff. coupling^2, normalised to SM
    5.87394154E-01        3  36  21  21  # A0-g-g eff. coupling^2, normalised to SM
#
    0.00000000E+00        3  25  25  23  # h0-h0-Z eff. coupling^2, normalised to SM
    0.00000000E+00        3  35  25  23  # H0-h0-Z eff. coupling^2, normalised to SM
    1.18005752E-04        3  36  25  23  # A0-h0-Z eff. coupling^2, normalised to SM
    0.00000000E+00        3  35  35  23  # H0-H0-Z eff. coupling^2, normalised to SM
    9.99881994E-01        3  36  35  23  # A0-H0-Z eff. coupling^2, normalised to SM
    0.00000000E+00        3  36  36  23  # A0-A0-Z eff. coupling^2, normalised to SM
#
    0.00000000E+00        4  25  21  21  23  # h0-g-g-Z eff. coupling^2, normalised to SM
    0.00000000E+00        4  35  21  21  23  # H0-g-g-Z eff. coupling^2, normalised to SM
    0.00000000E+00        4  36  21  21  23  # A0-g-g-Z eff. coupling^2, normalised to SM
Block SPhenoLowEnergy  # low energy observables
    1    4.96210800E-04   # BR(b -> s gamma)
    2    1.60365328E-06   # BR(b -> s mu+ mu-)
    3    3.52572892E-05   # BR(b -> s nu nu)
    4    1.61387607E-15   # BR(Bd -> e+ e-)
    5    6.89402381E-11   # BR(Bd -> mu+ mu-)
    6    1.42754784E-08   # BR(Bd -> tau+ tau-)
    7    5.58883906E-14   # BR(Bs -> e+ e-)
    8    2.38747403E-09   # BR(Bs -> mu+ mu-)
    9    5.01955416E-07   # BR(Bs -> tau+ tau-)
   10    1.59287020E-05   # BR(B_u -> tau nu)
   11    1.64537393E-01   # BR(B_u -> tau nu)/BR(B_u -> tau nu)_SM
   12    5.41390831E-01   # |Delta(M_Bd)| [ps^-1] 
   13    1.90170133E+01   # |Delta(M_Bs)| [ps^-1] 
   14    0.00000000E+00   # neutron EDM according to the chiral quark model
   15    0.00000000E+00   # neutron EDM according to the relativistic quark-parton model
   16    2.15736042E-03   # epsilon_K
   17    2.28179969E-15   # Delta(M_K)
   18    2.48016054E-11   # BR(K^0 -> pi^0 nu nu)
   19    8.29085313E-11   # BR(K^+ -> pi^+ nu nu)
   20    2.69684722E-16   # Delta(g-2)_electron/2
   21    1.15299508E-11   # Delta(g-2)_muon/2
   22    3.26817177E-09   # Delta(g-2)_tau/2
   23    0.00000000E+00   # electric dipole moment of the electron
   24    0.00000000E+00   # electric dipole moment of the muon
   25    0.00000000E+00   # electric dipole moment of the tau
   26    0.00000000E+00   # Br(mu -> e gamma)
   27    0.00000000E+00   # Br(tau -> e gamma)
   28    0.00000000E+00   # Br(tau -> mu gamma)
   29    0.00000000E+00   # Br(mu -> 3 e)
   30    0.00000000E+00   # Br(tau -> 3 e)
   31    0.00000000E+00   # Br(tau -> 3 mu)
   39    6.97050048E-05   # Delta(rho_parameter)
   40    0.00000000E+00   # BR(Z -> e mu)
   41    0.00000000E+00   # BR(Z -> e tau)
   42    0.00000000E+00   # BR(Z -> mu tau)
Block FWCOEF Q=  1.60000000E+02  # Wilson coefficients at scale Q
#    id        order  M        value         comment
     0305 4422   00   0    -1.88819110E-01   # C7
     0305 4422   00   2    -3.55665130E-01   # C7
     0305 4322   00   2    -3.11771727E-03   # C7'
     0305 6421   00   0    -9.52278348E-02   # C8
     0305 6421   00   2    -2.51641290E-01   # C8
     0305 6321   00   2    -2.93544646E-03   # C8'
 03051111 4133   00   0     1.63334404E+00   # C9 e+e-
 03051111 4133   00   2     1.63356558E+00   # C9 e+e-
 03051111 4233   00   2    -5.26545535E-04   # C9' e+e-
 03051111 4137   00   0    -4.45603614E+00   # C10 e+e-
 03051111 4137   00   2    -4.45466485E+00   # C10 e+e-
 03051111 4237   00   2     3.86417125E-03   # C10' e+e-
 03051313 4133   00   0     1.63334404E+00   # C9 mu+mu-
 03051313 4133   00   2     1.63356545E+00   # C9 mu+mu-
 03051313 4233   00   2    -5.27297831E-04   # C9' mu+mu-
 03051313 4137   00   0    -4.45603614E+00   # C10 mu+mu-
 03051313 4137   00   2    -4.45466498E+00   # C10 mu+mu-
 03051313 4237   00   2     3.86492478E-03   # C10' mu+mu-
 03051212 4137   00   0     1.50535012E+00   # C11 nu_1 nu_1
 03051212 4137   00   2     1.50505561E+00   # C11 nu_1 nu_1
 03051212 4237   00   2    -8.34332424E-04   # C11' nu_1 nu_1
 03051414 4137   00   0     1.50535012E+00   # C11 nu_2 nu_2
 03051414 4137   00   2     1.50505561E+00   # C11 nu_2 nu_2
 03051414 4237   00   2    -8.34169661E-04   # C11' nu_2 nu_2
 03051616 4137   00   0     1.50535012E+00   # C11 nu_3 nu_3
 03051616 4137   00   2     1.50505562E+00   # C11 nu_3 nu_3
 03051616 4237   00   2    -7.88302051E-04   # C11' nu_3 nu_3
Block IMFWCOEF Q=  1.60000000E+02  # Im(Wilson coefficients) at scale Q
#    id        order  M        value         comment
     0305 4422   00   0     3.85816009E-07   # C7
     0305 4422   00   2     2.55077939E-06   # C7
     0305 4322   00   2    -8.59956020E-07   # C7'
     0305 6421   00   0     3.30476927E-07   # C8
     0305 6421   00   2     2.01584446E-05   # C8
     0305 6321   00   2     8.13224363E-09   # C8'
 03051111 4133   00   2     4.90304859E-07   # C9 e+e-
 03051111 4233   00   2     7.40095900E-06   # C9' e+e-
 03051111 4137   00   2     9.24911712E-07   # C10 e+e-
 03051111 4237   00   2    -5.42432164E-05   # C10' e+e-
 03051313 4133   00   2     4.90301210E-07   # C9 mu+mu-
 03051313 4233   00   2     7.40095723E-06   # C9' mu+mu-
 03051313 4137   00   2     9.24915685E-07   # C10 mu+mu-
 03051313 4237   00   2    -5.42432217E-05   # C10' mu+mu-
 03051212 4137   00   2    -1.71492305E-07   # C11 nu_1 nu_1
 03051212 4237   00   2     1.17118886E-05   # C11' nu_1 nu_1
 03051414 4137   00   2    -1.71492110E-07   # C11 nu_2 nu_2
 03051414 4237   00   2     1.17118886E-05   # C11' nu_2 nu_2
 03051616 4137   00   2    -1.71437482E-07   # C11 nu_3 nu_3
 03051616 4237   00   2     1.17118885E-05   # C11' nu_3 nu_3
