# SUSY Les Houches Accord 2 - MSSM spectrum + Decays
# SPheno v4.0.5be
# W. Porod, Comput. Phys. Commun. 153 (2003) 275-315, hep-ph/0301101;
# W. Porod, F.~Staub, Comput. Phys. Commun. 183 (2012) 2458
#                     arXiv:1104.1573 [hep-ph] 
# in case of problems send email to porod@physik.uni-wuerzburg.de
# Created: 15.03.2021,  12:41
Block SPINFO         # Program information
     1   SPheno      # spectrum calculator
     2   v4.0.5be    # version number
#
Block SPhenoINFO     # SPheno specific information
    1      2         # using 2-loop RGEs
    2      2         # using pole masses for boundary conditions at mZ
Block MODSEL  # Model selection
    1    0    # general MSSM
Block MINPAR  # Input parameters
    3    5.45078659E+01  # tanb at m_Z    
    4    1.00000000E+00  # Sign(mu)
Block EXTPAR  # non-universal input parameters
    0    3.00278965E+03  # scale for input parameters
    1    1.72655081E+03  # M_1
    2    3.57868856E+02  # M_2
    3    2.85247281E+03  # M_3
   11    6.10530032E+03  # A_t
   12   -2.85104046E+02  # A_b
   13   -9.21579695E+02  # A_tau
   23    1.42217286E+02  # mu
   25    5.39649003E+01  # tan(beta)
   26    3.31460521E+03  # m_A, pole mass
   31    1.00000000E+04  # M_L11
   32    1.00000000E+04  # M_L22
   33    1.00000000E+04  # M_L33
   34    1.00000000E+04  # M_E11
   35    1.00000000E+04  # M_E22
   36    1.00000000E+04  # M_E33
   41    1.00000000E+04  # M_Q11
   42    1.00000000E+04  # M_Q22
   43    3.25728562E+03  # M_Q33
   44    1.00000000E+04  # M_U11
   45    1.00000000E+04  # M_U22
   46    2.79199822E+03  # M_U33
   47    1.00000000E+04  # M_D11
   48    1.00000000E+04  # M_D22
   49    4.17315173E+03  # M_D33
Block SMINPUTS  # SM parameters
         1     1.27908970E+02  # alpha_em^-1(MZ)^MSbar
         2     1.16637870E-05  # G_mu [GeV^-2]
         3     1.18400000E-01  # alpha_s(MZ)^MSbar
         4     9.11876000E+01  # m_Z(pole)
         5     4.18000000E+00  # m_b(m_b), MSbar
         6     1.73200000E+02  # m_t(pole)
         7     1.77700000E+00  # m_tau(pole)
         8     0.00000000E+00  # m_nu_3
        11     5.10998930E-04  # m_e(pole)
        12     0.00000000E+00  # m_nu_1
        13     1.05658372E-01  # m_muon(pole)
        14     0.00000000E+00  # m_nu_2
        21     5.00000000E-03  # m_d(2 GeV), MSbar
        22     2.50000000E-03  # m_u(2 GeV), MSbar
        23     9.50000000E-02  # m_s(2 GeV), MSbar
        24     1.27000000E+00  # m_c(m_c), MSbar
Block gauge Q=  3.00278965E+03  # (SUSY scale)
   1    3.55362975E-01  # g'(Q)^DRbar
   2    6.65198874E-01  # g(Q)^DRbar
   3    1.21977796E+00  # g3(Q)^DRbar
Block Yu Q=  3.00278965E+03  # (SUSY scale)
  1  1     8.38581153E-06   # Y_u(Q)^DRbar
  2  2     4.25999226E-03   # Y_c(Q)^DRbar
  3  3     1.01307339E+00   # Y_t(Q)^DRbar
Block Yd Q=  3.00278965E+03  # (SUSY scale)
  1  1     9.09361836E-04   # Y_d(Q)^DRbar
  2  2     1.72778749E-02   # Y_s(Q)^DRbar
  3  3     9.01801989E-01   # Y_b(Q)^DRbar
Block Ye Q=  3.00278965E+03  # (SUSY scale)
  1  1     1.58690290E-04   # Y_e(Q)^DRbar
  2  2     3.28121190E-02   # Y_mu(Q)^DRbar
  3  3     5.51845863E-01   # Y_tau(Q)^DRbar
Block Au Q=  3.00278965E+03  # (SUSY scale)
  1  1     0.00000000E+00   # A_u(Q)^DRbar
  2  2     0.00000000E+00   # A_c(Q)^DRbar
  3  3     6.10530032E+03   # A_t(Q)^DRbar
Block Ad Q=  3.00278965E+03  # (SUSY scale)
  1  1     0.00000000E+00   # A_d(Q)^DRbar
  2  2     0.00000000E+00   # A_s(Q)^DRbar
  3  3    -2.85104047E+02   # A_b(Q)^DRbar
Block Ae Q=  3.00278965E+03  # (SUSY scale)
  1  1     0.00000000E+00   # A_e(Q)^DRbar
  2  2     0.00000000E+00   # A_mu(Q)^DRbar
  3  3    -9.21579702E+02   # A_tau(Q)^DRbar
Block MSOFT Q=  3.00278965E+03  # soft SUSY breaking masses at Q
   1    1.72655081E+03  # M_1
   2    3.57868856E+02  # M_2
   3    2.85247281E+03  # M_3
  21    1.07404108E+07  # M^2_(H,d)
  22    1.64081464E+05  # M^2_(H,u)
  31    1.00000000E+04  # M_(L,11)
  32    1.00000000E+04  # M_(L,22)
  33    1.00000000E+04  # M_(L,33)
  34    1.00000000E+04  # M_(E,11)
  35    1.00000000E+04  # M_(E,22)
  36    1.00000000E+04  # M_(E,33)
  41    1.00000000E+04  # M_(Q,11)
  42    1.00000000E+04  # M_(Q,22)
  43    3.25728562E+03  # M_(Q,33)
  44    1.00000000E+04  # M_(U,11)
  45    1.00000000E+04  # M_(U,22)
  46    2.79199822E+03  # M_(U,33)
  47    1.00000000E+04  # M_(D,11)
  48    1.00000000E+04  # M_(D,22)
  49    4.17315173E+03  # M_(D,33)
Block MASS  # Mass spectrum
#   PDG code      mass          particle
         6     1.73200000E+02  # m_t(pole)
        23     9.11876000E+01  # m_Z(pole)
        24     8.04299946E+01  # W+
        15     1.77700000E+00  # m_tau(pole)
        25     1.29697275E+02  # h0
        35     3.31258519E+03  # H0
        36     3.31460521E+03  # A0
        37     3.31417502E+03  # H+
   1000001     1.01049241E+04  # ~d_L
   2000001     1.00798102E+04  # ~d_R
   1000002     1.01045605E+04  # ~u_L
   2000002     1.00825222E+04  # ~u_R
   1000003     1.01049365E+04  # ~s_L
   2000003     1.00798331E+04  # ~s_R
   1000004     1.01045729E+04  # ~c_L
   2000004     1.00825237E+04  # ~c_R
   1000005     3.25492669E+03  # ~b_1
   2000005     4.21284752E+03  # ~b_2
   1000006     2.74229426E+03  # ~t_1
   2000006     3.28802995E+03  # ~t_2
   1000011     1.00212174E+04  # ~e_L-
   2000011     1.00083824E+04  # ~e_R-
   1000012     1.00204511E+04  # ~nu_eL
   1000013     1.00212780E+04  # ~mu_L-
   2000013     1.00085002E+04  # ~mu_R-
   1000014     1.00205114E+04  # ~nu_muL
   1000015     1.00382967E+04  # ~tau_1-
   2000015     1.00421136E+04  # ~tau_2-
   1000016     1.00376992E+04  # ~nu_tauL
   1000021     3.28902262E+03  # ~g
   1000022     1.43481126E+02  # ~chi_10
   1000023     1.62775250E+02  # ~chi_20
   1000025     4.13107984E+02  # ~chi_30
   1000035     1.74571414E+03  # ~chi_40
   1000024     1.49244074E+02  # ~chi_1+
   1000037     4.13344685E+02  # ~chi_2+
# Higgs mixing
Block alpha # Effective Higgs mixing angle
          -1.83910262E-02   # alpha
Block Hmix Q=  3.00278965E+03  # Higgs mixing parameters
   1    1.42217286E+02  # mu
   2    5.39649003E+01  # tan[beta](Q)
   3    2.43203998E+02  # v(Q)
   4    1.09866077E+07  # m^2_A(Q)
Block stopmix # stop mixing matrix
   1  1    -2.53270738E-01   # Re[R_st(1,1)]
   1  2     9.67395438E-01   # Re[R_st(1,2)]
   2  1    -9.67395438E-01   # Re[R_st(2,1)]
   2  2    -2.53270738E-01   # Re[R_st(2,2)]
Block sbotmix # sbottom mixing matrix
   1  1     9.99997996E-01   # Re[R_sb(1,1)]
   1  2     2.00196381E-03   # Re[R_sb(1,2)]
   2  1    -2.00196381E-03   # Re[R_sb(2,1)]
   2  2     9.99997996E-01   # Re[R_sb(2,2)]
Block staumix # stau mixing matrix
   1  1     9.79818327E-01   # Re[R_sta(1,1)]
   1  2     1.99890083E-01   # Re[R_sta(1,2)]
   2  1    -1.99890083E-01   # Re[R_sta(2,1)]
   2  2     9.79818327E-01   # Re[R_sta(2,2)]
Block Nmix # neutralino mixing matrix
   1  1    -1.87527780E-02   # Re[N(1,1)]
   1  2     2.16518474E-01   # Re[N(1,2)]
   1  3    -7.19060386E-01   # Re[N(1,3)]
   1  4     6.60091089E-01   # Re[N(1,4)]
   2  1    -1.64654246E-02   # Re[N(2,1)]
   2  2     1.02707225E-01   # Re[N(2,2)]
   2  3     6.89420998E-01   # Re[N(2,3)]
   2  4     7.16853405E-01   # Re[N(2,4)]
   3  1     7.53908603E-03   # Re[N(3,1)]
   3  2     9.70859679E-01   # Re[N(3,2)]
   3  3     8.74245384E-02   # Re[N(3,3)]
   3  4    -2.23005821E-01   # Re[N(3,4)]
   4  1     9.99660135E-01   # Re[N(4,1)]
   4  2    -1.56848677E-03   # Re[N(4,2)]
   4  3    -2.79282061E-03   # Re[N(4,3)]
   4  4     2.58718904E-02   # Re[N(4,4)]
Block Umix # chargino mixing matrix
   1  1    -1.26394429E-01   # Re[U(1,1)]
   1  2     9.91980064E-01   # Re[U(1,2)]
   2  1     9.91980064E-01   # Re[U(2,1)]
   2  2     1.26394429E-01   # Re[U(2,2)]
Block Vmix # chargino mixing matrix
   1  1    -3.22838323E-01   # Re[V(1,1)]
   1  2     9.46454128E-01   # Re[V(1,2)]
   2  1     9.46454128E-01   # Re[V(2,1)]
   2  2     3.22838323E-01   # Re[V(2,2)]
DECAY        23     2.49520000E+00   # Z
DECAY        24     2.08500000E+00   # W
DECAY   2000011     4.72770801E+01   # ~e^-_R
#    BR                NDA      ID1      ID2
     3.73967699E-04    2     1000022        11   # BR(~e^-_R -> chi^0_1 e^-)
     2.88276827E-04    2     1000023        11   # BR(~e^-_R -> chi^0_2 e^-)
     9.99277396E-01    2     1000035        11   # BR(~e^-_R -> chi^0_4 e^-)
DECAY   1000011     1.43727577E+02   # ~e^-_L
#    BR                NDA      ID1      ID2
     1.30812022E-02    2     1000022        11   # BR(~e^-_L -> chi^0_1 e^-)
     2.70514437E-03    2     1000023        11   # BR(~e^-_L -> chi^0_2 e^-)
     2.90679889E-01    2     1000025        11   # BR(~e^-_L -> chi^0_3 e^-)
     8.18103320E-02    2     1000035        11   # BR(~e^-_L -> chi^0_4 e^-)
     9.80114309E-03    2    -1000024        12   # BR(~e^-_L -> chi^-_1 nu_e)
     6.01922289E-01    2    -1000037        12   # BR(~e^-_L -> chi^-_2 nu_e)
#    BR                NDA      ID1      ID2       ID3
DECAY   2000013     4.77062295E+01   # ~mu^-_R
#    BR                NDA      ID1      ID2
     2.69299472E-03    2     1000022        13   # BR(~mu^-_R -> chi^0_1 mu^-)
     2.42031296E-03    2     1000023        13   # BR(~mu^-_R -> chi^0_2 mu^-)
     9.90301383E-01    2     1000035        13   # BR(~mu^-_R -> chi^0_4 mu^-)
     4.41982769E-03    2    -1000024        14   # BR(~mu^-_R -> chi^-_1 nu_mu)
DECAY   1000013     1.43942996E+02   # ~mu^-_L
#    BR                NDA      ID1      ID2
     1.38323820E-02    2     1000022        13   # BR(~mu^-_L -> chi^0_1 mu^-)
     3.40948453E-03    2     1000023        13   # BR(~mu^-_L -> chi^0_2 mu^-)
     2.90257998E-01    2     1000025        13   # BR(~mu^-_L -> chi^0_3 mu^-)
     8.16884645E-02    2     1000035        13   # BR(~mu^-_L -> chi^0_4 mu^-)
     9.78653434E-03    2    -1000024        14   # BR(~mu^-_L -> chi^-_1 nu_mu)
     6.01025136E-01    2    -1000037        14   # BR(~mu^-_L -> chi^-_2 nu_mu)
#    BR                NDA      ID1      ID2       ID3
DECAY   1000015     2.03353660E+02   # ~tau^-_1
#    BR                NDA      ID1      ID2
     1.79723453E-01    2     1000022        15   # BR(~tau^-_1 -> chi^0_1 tau^-)
     1.36243234E-01    2     1000023        15   # BR(~tau^-_1 -> chi^0_2 tau^-)
     1.91445858E-01    2     1000025        15   # BR(~tau^-_1 -> chi^0_3 tau^-)
     6.47968521E-02    2     1000035        15   # BR(~tau^-_1 -> chi^0_4 tau^-)
     3.61129987E-02    2    -1000024        16   # BR(~tau^-_1 -> chi^-_1 nu_tau)
     3.91677604E-01    2    -1000037        16   # BR(~tau^-_1 -> chi^-_2 nu_tau)
#    BR                NDA      ID1      ID2       ID3
DECAY   2000015     1.70488359E+02   # ~tau^-_2
#    BR                NDA      ID1      ID2
     1.65579069E-01    2     1000022        15   # BR(~tau^-_2 -> chi^0_1 tau^-)
     1.78849268E-01    2     1000023        15   # BR(~tau^-_2 -> chi^0_2 tau^-)
     2.25830899E-02    2     1000025        15   # BR(~tau^-_2 -> chi^0_3 tau^-)
     2.69969549E-01    2     1000035        15   # BR(~tau^-_2 -> chi^0_4 tau^-)
     3.16191446E-01    2    -1000024        16   # BR(~tau^-_2 -> chi^-_1 nu_tau)
     4.68275778E-02    2    -1000037        16   # BR(~tau^-_2 -> chi^-_2 nu_tau)
#    BR                NDA      ID1      ID2       ID3
DECAY   1000012     1.43732690E+02   # ~nu_e
#    BR                NDA      ID1      ID2
     1.57410432E-02    2     1000022        12   # BR(~nu_e -> chi^0_1 nu_e)
     3.81313189E-03    2     1000023        12   # BR(~nu_e -> chi^0_2 nu_e)
     2.85864029E-01    2     1000025        12   # BR(~nu_e -> chi^0_3 nu_e)
     8.27670520E-02    2     1000035        12   # BR(~nu_e -> chi^0_4 nu_e)
     6.39355746E-02    2     1000024        11   # BR(~nu_e -> chi^+_1 e^-)
     5.47879170E-01    2     1000037        11   # BR(~nu_e -> chi^+_2 e^-)
#    BR                NDA      ID1      ID2       ID3
DECAY   1000014     1.43948088E+02   # ~nu_mu
#    BR                NDA      ID1      ID2
     1.57175837E-02    2     1000022        14   # BR(~nu_mu -> chi^0_1 nu_mu)
     3.80744902E-03    2     1000023        14   # BR(~nu_mu -> chi^0_2 nu_mu)
     2.85438003E-01    2     1000025        14   # BR(~nu_mu -> chi^0_3 nu_mu)
     8.26437626E-02    2     1000035        14   # BR(~nu_mu -> chi^0_4 nu_mu)
     6.53067949E-02    2     1000024        13   # BR(~nu_mu -> chi^+_1 mu^-)
     5.47086406E-01    2     1000037        13   # BR(~nu_mu -> chi^+_2 mu^-)
#    BR                NDA      ID1      ID2       ID3
DECAY   1000016     2.04767814E+02   # ~nu_tau
#    BR                NDA      ID1      ID2
     1.10681463E-02    2     1000022        16   # BR(~nu_tau -> chi^0_1 nu_tau)
     2.68116400E-03    2     1000023        16   # BR(~nu_tau -> chi^0_2 nu_tau)
     2.01004302E-01    2     1000025        16   # BR(~nu_tau -> chi^0_3 nu_tau)
     5.82091962E-02    2     1000035        16   # BR(~nu_tau -> chi^0_4 nu_tau)
     3.37068160E-01    2     1000024        15   # BR(~nu_tau -> chi^+_1 tau^-)
     3.89969031E-01    2     1000037        15   # BR(~nu_tau -> chi^+_2 tau^-)
DECAY   2000001     6.40525011E+02   # ~d_R
#    BR                NDA      ID1      ID2
     8.26097661E-03    2     1000035         1   # BR(~d_R -> chi^0_4 d)
     9.91732539E-01    2     1000021         1   # BR(~d_R -> ~g d)
DECAY   1000001     7.71889178E+02   # ~d_L
#    BR                NDA      ID1      ID2
     2.78424488E-03    2     1000022         1   # BR(~d_L -> chi^0_1 d)
     6.42799993E-04    2     1000023         1   # BR(~d_L -> chi^0_2 d)
     5.39808072E-02    2     1000025         1   # BR(~d_L -> chi^0_3 d)
     1.74898569E-03    2     1000035         1   # BR(~d_L -> chi^0_4 d)
     1.84025343E-03    2    -1000024         2   # BR(~d_L -> chi^-_1 u)
     1.13021892E-01    2    -1000037         2   # BR(~d_L -> chi^-_2 u)
     8.25981017E-01    2     1000021         1   # BR(~d_L -> ~g d)
DECAY   2000003     6.40646493E+02   # ~s_R
#    BR                NDA      ID1      ID2
     8.25943193E-03    2     1000035         3   # BR(~s_R -> chi^0_4 s)
     9.91547808E-01    2     1000021         3   # BR(~s_R -> ~g s)
DECAY   1000003     7.71953960E+02   # ~s_L
#    BR                NDA      ID1      ID2
     2.82408279E-03    2     1000022         3   # BR(~s_L -> chi^0_1 s)
     6.79576227E-04    2     1000023         3   # BR(~s_L -> chi^0_2 s)
     5.39769350E-02    2     1000025         3   # BR(~s_L -> chi^0_3 s)
     1.74884191E-03    2     1000035         3   # BR(~s_L -> chi^0_4 s)
     1.84433199E-03    2    -1000024         4   # BR(~s_L -> chi^-_1 c)
     1.13013038E-01    2    -1000037         4   # BR(~s_L -> chi^-_2 c)
     8.25913194E-01    2     1000021         3   # BR(~s_L -> ~g s)
DECAY   1000005     1.95473651E+02   # ~b_1
#    BR                NDA      ID1      ID2
     1.42368921E-01    2     1000022         5   # BR(~b_1 -> chi^0_1 b)
     1.28181817E-01    2     1000023         5   # BR(~b_1 -> chi^0_2 b)
     6.86447974E-02    2     1000025         5   # BR(~b_1 -> chi^0_3 b)
     1.20017626E-03    2     1000035         5   # BR(~b_1 -> chi^0_4 b)
     3.03701790E-01    2    -1000024         6   # BR(~b_1 -> chi^-_1 t)
     1.74710960E-01    2    -1000037         6   # BR(~b_1 -> chi^-_2 t)
     1.81191538E-01    2     1000006       -24   # BR(~b_1 -> ~t_1 W^-)
DECAY   2000005     1.88066545E+02   # ~b_2
#    BR                NDA      ID1      ID2
     1.86836905E-01    2     1000022         5   # BR(~b_2 -> chi^0_1 b)
     1.71807773E-01    2     1000023         5   # BR(~b_2 -> chi^0_2 b)
     2.78079933E-03    2     1000025         5   # BR(~b_2 -> chi^0_3 b)
     8.57719578E-03    2     1000035         5   # BR(~b_2 -> chi^0_4 b)
     3.54404044E-01    2    -1000024         6   # BR(~b_2 -> chi^-_1 t)
     5.79203693E-03    2    -1000037         6   # BR(~b_2 -> chi^-_2 t)
     2.69604395E-01    2     1000021         5   # BR(~b_2 -> ~g b)
DECAY   2000002     6.56668997E+02   # ~u_R
#    BR                NDA      ID1      ID2
     3.22412776E-02    2     1000035         2   # BR(~u_R -> chi^0_4 u)
     9.67735436E-01    2     1000021         2   # BR(~u_R -> ~g u)
DECAY   1000002     7.71875543E+02   # ~u_L
#    BR                NDA      ID1      ID2
     2.61750432E-03    2     1000022         2   # BR(~u_L -> chi^0_1 u)
     5.73314365E-04    2     1000023         2   # BR(~u_L -> chi^0_2 u)
     5.42792058E-02    2     1000025         2   # BR(~u_L -> chi^0_3 u)
     1.68837755E-03    2     1000035         2   # BR(~u_L -> chi^0_4 u)
     1.20058144E-02    2     1000024         1   # BR(~u_L -> chi^+_1 d)
     1.02883985E-01    2     1000037         1   # BR(~u_L -> chi^+_2 d)
     8.25951799E-01    2     1000021         2   # BR(~u_L -> ~g u)
DECAY   2000004     6.56676385E+02   # ~c_R
#    BR                NDA      ID1      ID2
     3.22409235E-02    2     1000035         4   # BR(~c_R -> chi^0_4 c)
     9.67724715E-01    2     1000021         4   # BR(~c_R -> ~g c)
DECAY   1000004     7.71940292E+02   # ~c_L
#    BR                NDA      ID1      ID2
     2.61934562E-03    2     1000022         4   # BR(~c_L -> chi^0_1 c)
     5.75693879E-04    2     1000023         4   # BR(~c_L -> chi^0_2 c)
     5.42749547E-02    2     1000025         4   # BR(~c_L -> chi^0_3 c)
     1.68824095E-03    2     1000035         4   # BR(~c_L -> chi^0_4 c)
     1.20810738E-02    2     1000024         3   # BR(~c_L -> chi^+_1 s)
     1.02876718E-01    2     1000037         3   # BR(~c_L -> chi^+_2 s)
     8.25883973E-01    2     1000021         4   # BR(~c_L -> ~g c)
DECAY   1000006     1.13896126E+02   # ~t_1
#    BR                NDA      ID1      ID2
     1.30677276E-04    2     1000022         4   # BR(~t_1 -> chi^0_1 c)
     1.95783711E-01    2     1000022         6   # BR(~t_1 -> chi^0_1 t)
     2.40988184E-01    2     1000023         6   # BR(~t_1 -> chi^0_2 t)
     5.24111460E-02    2     1000025         6   # BR(~t_1 -> chi^0_3 t)
     1.81732316E-02    2     1000035         6   # BR(~t_1 -> chi^0_4 t)
     3.87519387E-01    2     1000024         5   # BR(~t_1 -> chi^+_1 b)
     1.03975708E-01    2     1000037         5   # BR(~t_1 -> chi^+_2 b)
#    BR                NDA      ID1      ID2       ID3
     9.89374987E-04    3     1000022        24         5   # BR(~t_1 -> chi^0_1 W^+ b)
DECAY   2000006     2.05990582E+02   # ~t_2
#    BR                NDA      ID1      ID2
     1.54120762E-01    2     1000022         6   # BR(~t_2 -> chi^0_1 t)
     1.71710753E-01    2     1000023         6   # BR(~t_2 -> chi^0_2 t)
     6.07640857E-02    2     1000025         6   # BR(~t_2 -> chi^0_3 t)
     1.92807727E-03    2     1000035         6   # BR(~t_2 -> chi^0_4 t)
     3.01023044E-01    2     1000024         5   # BR(~t_2 -> chi^+_1 b)
     8.89271072E-02    2     1000037         5   # BR(~t_2 -> chi^+_2 b)
     9.52432023E-02    2     1000006        23   # BR(~t_2 -> ~t_1 Z)
     1.26282969E-01    2     1000006        25   # BR(~t_2 -> ~t_1 h^0)
DECAY   1000024     8.24845408E-09   # chi^+_1
#    BR                NDA      ID1      ID2       ID3
     3.74734287E-01    3     1000022        -1         2   # BR(chi^+_1 -> chi^0_1 d_bar u)
     2.96349242E-01    3     1000022        -3         4   # BR(chi^+_1 -> chi^0_1 s_bar c)
     1.24911511E-01    3     1000022       -11        12   # BR(chi^+_1 -> chi^0_1 e^+ nu_e)
     1.24702017E-01    3     1000022       -13        14   # BR(chi^+_1 -> chi^0_1 mu^+ nu_mu)
     7.93029430E-02    3     1000022       -15        16   # BR(chi^+_1 -> chi^0_1 tau^+ nu_tau)
DECAY   1000037     3.11023195E+00   # chi^+_2
#    BR                NDA      ID1      ID2
     2.50590750E-01    2     1000022        24   # BR(chi^+_2 -> chi^0_1 W^+)
     3.11567533E-01    2     1000023        24   # BR(chi^+_2 -> chi^0_2 W^+)
     2.48535922E-01    2     1000024        23   # BR(chi^+_2 -> chi^+_1 Z)
     1.88976390E-01    2     1000024        25   # BR(chi^+_2 -> chi^+_1 h^0)
#    BR                NDA      ID1      ID2       ID3
     1.88186944E-04    3     1000022        -5         6   # BR(chi^+_2 -> chi^0_1 b_bar t)
     1.40962031E-04    3     1000023        -5         6   # BR(chi^+_2 -> chi^0_2 b_bar t)
DECAY   1000022     0.00000000E+00   # chi^0_1
DECAY   1000023     1.10121626E-05   # chi^0_2
#    BR                NDA      ID1      ID2
     6.54901109E-02    2     1000022        22   # BR(chi^0_2 -> chi^0_1 photon)
#    BR                NDA      ID1      ID2       ID3
     8.15336942E-02    3     1000022         2        -2   # BR(chi^0_2 -> chi^0_1 u u_bar)
     7.70031293E-02    3     1000022         4        -4   # BR(chi^0_2 -> chi^0_1 c c_bar)
     1.04541841E-01    3     1000022         1        -1   # BR(chi^0_2 -> chi^0_1 d d_bar)
     1.04512883E-01    3     1000022         3        -3   # BR(chi^0_2 -> chi^0_1 s s_bar)
     6.02906793E-02    3     1000022         5        -5   # BR(chi^0_2 -> chi^0_1 b b_bar)
     2.35921375E-02    3     1000022        11       -11   # BR(chi^0_2 -> chi^0_1 e^- e^+)
     2.35818324E-02    3     1000022        13       -13   # BR(chi^0_2 -> chi^0_1 mu^- mu^+)
     2.08769288E-02    3     1000022        15       -15   # BR(chi^0_2 -> chi^0_1 tau^- tau^+)
     1.39803379E-01    3     1000022        12       -12   # BR(chi^0_2 -> chi^0_1 nu_e nu_bar_e)
     5.09619965E-02    3     1000024         1        -2   # BR(chi^0_2 -> chi^+_1 d u_bar)
     5.09619965E-02    3    -1000024        -1         2   # BR(chi^0_2 -> chi^-_1 d_bar u)
     4.88193291E-02    3     1000024         3        -4   # BR(chi^0_2 -> chi^+_1 s c_bar)
     4.88193291E-02    3    -1000024        -3         4   # BR(chi^0_2 -> chi^-_1 s_bar c)
     1.69873384E-02    3     1000024        11       -12   # BR(chi^0_2 -> chi^+_1 e^- nu_bar_e)
     1.69873384E-02    3    -1000024       -11        12   # BR(chi^0_2 -> chi^-_1 e^+ nu_e)
     1.69822554E-02    3     1000024        13       -14   # BR(chi^0_2 -> chi^+_1 mu^- nu_bar_mu)
     1.69822554E-02    3    -1000024       -13        14   # BR(chi^0_2 -> chi^-_1 mu^+ nu_mu)
     1.56357727E-02    3     1000024        15       -16   # BR(chi^0_2 -> chi^+_1 tau^- nu_bar_tau)
     1.56357727E-02    3    -1000024       -15        16   # BR(chi^0_2 -> chi^-_1 tau^+ nu_tau)
DECAY   1000025     3.64641987E+00   # chi^0_3
#    BR                NDA      ID1      ID2
     2.45828855E-01    2     1000024       -24   # BR(chi^0_3 -> chi^+_1 W^-)
     2.45828855E-01    2    -1000024        24   # BR(chi^0_3 -> chi^-_1 W^+)
     3.53193476E-02    2     1000022        23   # BR(chi^0_3 -> chi^0_1 Z)
     2.17961324E-01    2     1000023        23   # BR(chi^0_3 -> chi^0_2 Z)
     1.15523432E-01    2     1000022        25   # BR(chi^0_3 -> chi^0_1 h^0)
     1.39192016E-01    2     1000023        25   # BR(chi^0_3 -> chi^0_2 h^0)
#    BR                NDA      ID1      ID2       ID3
     1.60816937E-04    3     1000024         5        -6   # BR(chi^0_3 -> chi^+_1 b t_bar)
     1.60816937E-04    3    -1000024        -5         6   # BR(chi^0_3 -> chi^-_1 b_bar t)
DECAY   1000035     4.98774899E+00   # chi^0_4
#    BR                NDA      ID1      ID2
     2.02723214E-01    2     1000024       -24   # BR(chi^0_4 -> chi^+_1 W^-)
     2.02723214E-01    2    -1000024        24   # BR(chi^0_4 -> chi^-_1 W^+)
     3.52742430E-02    2     1000037       -24   # BR(chi^0_4 -> chi^+_2 W^-)
     3.52742430E-02    2    -1000037        24   # BR(chi^0_4 -> chi^-_2 W^+)
     8.08545283E-02    2     1000022        23   # BR(chi^0_4 -> chi^0_1 Z)
     1.48370752E-01    2     1000023        23   # BR(chi^0_4 -> chi^0_2 Z)
     9.35977839E-03    2     1000025        23   # BR(chi^0_4 -> chi^0_3 Z)
     1.11564288E-01    2     1000022        25   # BR(chi^0_4 -> chi^0_1 h^0)
     1.26481488E-01    2     1000023        25   # BR(chi^0_4 -> chi^0_2 h^0)
     2.32526217E-02    2     1000025        25   # BR(chi^0_4 -> chi^0_3 h^0)
#    BR                NDA      ID1      ID2       ID3
     4.00489211E-03    3     1000022         6        -6   # BR(chi^0_4 -> chi^0_1 t t_bar)
     4.71390848E-03    3     1000023         6        -6   # BR(chi^0_4 -> chi^0_2 t t_bar)
     5.98602478E-04    3     1000025         6        -6   # BR(chi^0_4 -> chi^0_3 t t_bar)
     6.31265152E-03    3     1000024         5        -6   # BR(chi^0_4 -> chi^+_1 b t_bar)
     6.31265152E-03    3    -1000024        -5         6   # BR(chi^0_4 -> chi^-_1 b_bar t)
     1.02969622E-03    3     1000037         5        -6   # BR(chi^0_4 -> chi^+_2 b t_bar)
     1.02969622E-03    3    -1000037        -5         6   # BR(chi^0_4 -> chi^-_2 b_bar t)
DECAY   1000021     1.09888347E+01   # ~g
#    BR                NDA      ID1      ID2
     1.12294860E-02    2     1000006        -4   # BR(~g -> ~t_1 c_bar)
     1.12294860E-02    2    -1000006         4   # BR(~g -> ~t^*_1 c)
     4.59862214E-01    2     1000006        -6   # BR(~g -> ~t_1 t_bar)
     4.59862214E-01    2    -1000006         6   # BR(~g -> ~t^*_1 t)
     1.86950060E-03    2     1000005        -5   # BR(~g -> ~b_1 b_bar)
     1.86950060E-03    2    -1000005         5   # BR(~g -> ~b^*_1 b)
     5.01362363E-04    2     1000022        21   # BR(~g -> chi^0_1 g)
     6.93331374E-04    2     1000023        21   # BR(~g -> chi^0_2 g)
#    BR                NDA      ID1      ID2       ID3
     8.48776235E-03    3     1000022         6        -6   # BR(~g -> chi^0_1 t t_bar)
     1.37901468E-03    3     1000022         5        -5   # BR(~g -> chi^0_1 b b_bar)
     9.40706145E-03    3     1000023         6        -6   # BR(~g -> chi^0_2 t t_bar)
     1.26474102E-03    3     1000023         5        -5   # BR(~g -> chi^0_2 b b_bar)
     3.40914726E-03    3     1000025         6        -6   # BR(~g -> chi^0_3 t t_bar)
     1.19021198E-02    3     1000024         5        -6   # BR(~g -> chi^+_1 b t_bar)
     1.19021198E-02    3    -1000024        -5         6   # BR(~g -> chi^-_1 b_bar t)
     2.39017644E-03    3     1000037         5        -6   # BR(~g -> chi^+_2 b t_bar)
     2.39017644E-03    3    -1000037        -5         6   # BR(~g -> chi^-_2 b_bar t)
DECAY        25     4.21241092E-03   # Gamma(h0)
     2.54590252E-03   2        22        22   # BR(h0 -> photon photon)
     2.05868769E-03   2        22        23   # BR(h0 -> photon Z)
     4.47378882E-02   2        23        23   # BR(h0 -> Z Z)
     3.39212756E-01   2       -24        24   # BR(h0 -> W W)
     7.43629886E-02   2        21        21   # BR(h0 -> gluon gluon)
     4.16763168E-09   2       -11        11   # BR(h0 -> Electron electron)
     1.85385786E-04   2       -13        13   # BR(h0 -> Muon muon)
     5.34581401E-02   2       -15        15   # BR(h0 -> Tau tau)
     1.17541994E-07   2        -2         2   # BR(h0 -> Up up)
     2.28153684E-02   2        -4         4   # BR(h0 -> Charm charm)
     4.79213744E-07   2        -1         1   # BR(h0 -> Down down)
     1.73320384E-04   2        -3         3   # BR(h0 -> Strange strange)
     4.60448961E-01   2        -5         5   # BR(h0 -> Bottom bottom)
DECAY        35     1.41478719E+02   # Gamma(HH)
     4.28947810E-09   2        22        22   # BR(HH -> photon photon)
     2.78136832E-08   2        22        23   # BR(HH -> photon Z)
     1.05818078E-07   2        23        23   # BR(HH -> Z Z)
     2.81100615E-08   2       -24        24   # BR(HH -> W W)
     7.27264879E-06   2        21        21   # BR(HH -> gluon gluon)
     9.22796015E-09   2       -11        11   # BR(HH -> Electron electron)
     4.10882005E-04   2       -13        13   # BR(HH -> Muon muon)
     1.18669551E-01   2       -15        15   # BR(HH -> Tau tau)
     1.74893245E-14   2        -2         2   # BR(HH -> Up up)
     3.39280222E-09   2        -4         4   # BR(HH -> Charm charm)
     2.38456193E-04   2        -6         6   # BR(HH -> Top top)
     6.65870116E-07   2        -1         1   # BR(HH -> Down down)
     2.40834487E-04   2        -3         3   # BR(HH -> Strange strange)
     5.86267060E-01   2        -5         5   # BR(HH -> Bottom bottom)
     2.23170622E-02   2  -1000024   1000024   # BR(HH -> Chargino1 chargino1)
     8.08174257E-02   2  -1000024   1000037   # BR(HH -> Chargino1 chargino2)
     8.08174257E-02   2  -1000037   1000024   # BR(HH -> Chargino2 chargino1)
     2.59762939E-03   2  -1000037   1000037   # BR(HH -> Chargino2 chargino2)
     5.59695191E-03   2   1000022   1000022   # BR(HH -> neutralino1 neutralino1)
     6.60257956E-04   2   1000022   1000023   # BR(HH -> neutralino1 neutralino2)
     4.03392691E-02   2   1000022   1000025   # BR(HH -> neutralino1 neutralino3)
     6.91203633E-03   2   1000022   1000035   # BR(HH -> neutralino1 neutralino4)
     1.34680434E-03   2   1000023   1000023   # BR(HH -> neutralino2 neutralino2)
     4.37892002E-02   2   1000023   1000025   # BR(HH -> neutralino2 neutralino3)
     7.55496927E-03   2   1000023   1000035   # BR(HH -> neutralino2 neutralino4)
     1.31447287E-03   2   1000025   1000025   # BR(HH -> neutralino3 neutralino3)
     1.01043885E-04   2   1000025   1000035   # BR(HH -> neutralino3 neutralino4)
     5.50356459E-07   2        25        25   # BR(HH -> h0 h0)
DECAY        36     1.32675684E+02   # Gamma(A0)
     5.85822521E-08   2        22        22   # BR(A0 -> photon photon)
     9.43689194E-08   2        22        23   # BR(A0 -> photon Z)
     1.15341631E-05   2        21        21   # BR(A0 -> gluon gluon)
     8.97032741E-09   2       -11        11   # BR(A0 -> Electron electron)
     3.99416306E-04   2       -13        13   # BR(A0 -> Muon muon)
     1.15358226E-01   2       -15        15   # BR(A0 -> Tau tau)
     1.65897770E-14   2        -2         2   # BR(A0 -> Up up)
     3.21814708E-09   2        -4         4   # BR(A0 -> Charm charm)
     2.28926508E-04   2        -6         6   # BR(A0 -> Top top)
     6.47235621E-07   2        -1         1   # BR(A0 -> Down down)
     2.34095563E-04   2        -3         3   # BR(A0 -> Strange strange)
     5.69869287E-01   2        -5         5   # BR(A0 -> Bottom bottom)
     2.46284659E-02   2  -1000024   1000024   # BR(A0 -> Chargino1 chargino1)
     8.54290125E-02   2  -1000024   1000037   # BR(A0 -> Chargino1 chargino2)
     8.54290125E-02   2  -1000037   1000024   # BR(A0 -> Chargino2 chargino1)
     3.56874419E-03   2  -1000037   1000037   # BR(A0 -> Chargino2 chargino2)
     6.41954855E-03   2   1000022   1000022   # BR(A0 -> neutralino1 neutralino1)
     5.52208112E-04   2   1000022   1000023   # BR(A0 -> neutralino1 neutralino2)
     4.66310598E-02   2   1000022   1000025   # BR(A0 -> neutralino1 neutralino3)
     8.80306462E-03   2   1000022   1000035   # BR(A0 -> neutralino1 neutralino4)
     1.34123941E-03   2   1000023   1000023   # BR(A0 -> neutralino2 neutralino2)
     4.25552872E-02   2   1000023   1000025   # BR(A0 -> neutralino2 neutralino3)
     6.56803286E-03   2   1000023   1000035   # BR(A0 -> neutralino2 neutralino4)
     1.78504421E-03   2   1000025   1000025   # BR(A0 -> neutralino3 neutralino3)
     1.86783971E-04   2   1000025   1000035   # BR(A0 -> neutralino3 neutralino4)
     1.98514385E-07   2        23        25   # BR(A0 -> Z h0)
     2.78462729E-13   2        23        35   # BR(A0 -> Z HH)
     7.28190444E-41   2        25        25   # BR(A0 -> h0 h0)
DECAY        37     1.59235355E+02   # Gamma(Hp)
     1.02262160E-08   2       -11        12   # BR(Hp -> Electron nu_e)
     4.37202674E-04   2       -13        14   # BR(Hp -> Muon nu_mu)
     1.23665793E-01   2       -15        16   # BR(Hp -> Tau nu_tau)
     6.42615811E-07   2        -1         2   # BR(Hp -> Down up)
     1.08587773E-05   2        -3         2   # BR(Hp -> Strange up)
     6.49511432E-06   2        -5         2   # BR(Hp -> Bottom up)
     3.02076202E-08   2        -1         4   # BR(Hp -> Down charm)
     2.31580327E-04   2        -3         4   # BR(Hp -> Strange charm)
     9.09548452E-04   2        -5         4   # BR(Hp -> Bottom charm)
     1.78924118E-08   2        -1         6   # BR(Hp -> Down top)
     7.33796703E-07   2        -3         6   # BR(Hp -> Strange top)
     6.13536417E-01   2        -5         6   # BR(Hp -> Bottom top)
     5.63006093E-04   2   1000022   1000024   # BR(Hp -> neutralino1 chargino1)
     8.98224617E-02   2   1000022   1000037   # BR(Hp -> neutralino1 chargino2)
     4.64469741E-03   2   1000023   1000024   # BR(Hp -> neutralino2 chargino1)
     7.40009678E-02   2   1000023   1000037   # BR(Hp -> neutralino2 chargino2)
     7.93529674E-02   2   1000024   1000025   # BR(Hp -> chargino1 neutralino3)
     2.00385182E-08   2   1000025   1000037   # BR(Hp -> neutralino3 chargino2)
     1.25617952E-02   2   1000024   1000035   # BR(Hp -> chargino1 neutralino4)
     2.54588883E-04   2   1000035   1000037   # BR(Hp -> neutralino4 chargino2)
     1.65422640E-07   2        24        25   # BR(Hp -> W h0)
     8.68309948E-14   2        24        35   # BR(Hp -> W HH)
DECAY         6     2.43000000E+00   # top
#    BR                NDA      ID1      ID2
     1.00000000E+00    2           5        24   # BR(t -> b W)
Block HiggsBoundsInputHiggsCouplingsFermions
# ScalarNormEffCoupSq PseudoSNormEffCoupSq NP IP1 IP2 IP2
    9.85223638E-01    0.00000000E+00        3  25   5   5  # h0-b-b eff. coupling^2, normalised to SM
    2.91222524E+03    0.00000000E+00        3  35   5   5  # H0-b-b eff. coupling^2, normalised to SM
    0.00000000E+00    2.91221046E+03        3  36   5   5  # A0-b-b eff. coupling^2, normalised to SM
#
    1.00000507E+00    0.00000000E+00        3  25   6   6  # h0-t-t eff. coupling^2, normalised to SM
    3.38307842E-04    0.00000000E+00        3  35   6   6  # H0-t-t eff. coupling^2, normalised to SM
    0.00000000E+00    3.43381776E-04        3  36   6   6  # A0-t-t eff. coupling^2, normalised to SM
#
    9.85223638E-01    0.00000000E+00        3  25  15  15  # h0-tau-tau eff. coupling^2, normalised to SM
    2.91222524E+03    0.00000000E+00        3  35  15  15  # H0-tau-tau eff. coupling^2, normalised to SM
    0.00000000E+00    2.91221046E+03        3  36  15  15  # A0-tau-tau eff. coupling^2, normalised to SM
#
Block HiggsBoundsInputHiggsCouplingsBosons
    9.99999981E-01        3  25  24  24  # h0-W-W eff. coupling^2, normalised to SM
    1.88832942E-08        3  35  24  24  # H0-W-W eff. coupling^2, normalised to SM
    0.00000000E+00        3  36  24  24  # A0-W-W eff. coupling^2, normalised to SM
#
    9.99999981E-01        3  25  23  23  # h0-Z-Z eff. coupling^2, normalised to SM
    1.88832942E-08        3  35  23  23  # H0-Z-Z eff. coupling^2, normalised to SM
    0.00000000E+00        3  36  23  23  # A0-Z-Z eff. coupling^2, normalised to SM
#
    1.25822484E+00        3  25  21  21  # h0-g-g eff. coupling^2, normalised to SM
    1.49183655E-02        3  35  21  21  # H0-g-g eff. coupling^2, normalised to SM
    1.48629408E-01        3  36  21  21  # A0-g-g eff. coupling^2, normalised to SM
#
    0.00000000E+00        3  25  25  23  # h0-h0-Z eff. coupling^2, normalised to SM
    0.00000000E+00        3  35  25  23  # H0-h0-Z eff. coupling^2, normalised to SM
    1.88832942E-08        3  36  25  23  # A0-h0-Z eff. coupling^2, normalised to SM
    0.00000000E+00        3  35  35  23  # H0-H0-Z eff. coupling^2, normalised to SM
    9.99999981E-01        3  36  35  23  # A0-H0-Z eff. coupling^2, normalised to SM
    0.00000000E+00        3  36  36  23  # A0-A0-Z eff. coupling^2, normalised to SM
#
    0.00000000E+00        4  25  21  21  23  # h0-g-g-Z eff. coupling^2, normalised to SM
    0.00000000E+00        4  35  21  21  23  # H0-g-g-Z eff. coupling^2, normalised to SM
    0.00000000E+00        4  36  21  21  23  # A0-g-g-Z eff. coupling^2, normalised to SM
Block SPhenoLowEnergy  # low energy observables
    1    3.51895633E-04   # BR(b -> s gamma)
    2    1.58706880E-06   # BR(b -> s mu+ mu-)
    3    3.52378768E-05   # BR(b -> s nu nu)
    4    2.18489472E-15   # BR(Bd -> e+ e-)
    5    9.33367836E-11   # BR(Bd -> mu+ mu-)
    6    1.95717049E-08   # BR(Bd -> tau+ tau-)
    7    7.28249060E-14   # BR(Bs -> e+ e-)
    8    3.11109636E-09   # BR(Bs -> mu+ mu-)
    9    6.60989864E-07   # BR(Bs -> tau+ tau-)
   10    9.53044929E-05   # BR(B_u -> tau nu)
   11    9.84458925E-01   # BR(B_u -> tau nu)/BR(B_u -> tau nu)_SM
   12    5.42249797E-01   # |Delta(M_Bd)| [ps^-1] 
   13    1.93682022E+01   # |Delta(M_Bs)| [ps^-1] 
   14    0.00000000E+00   # neutron EDM according to the chiral quark model
   15    0.00000000E+00   # neutron EDM according to the relativistic quark-parton model
   16    2.15867966E-03   # epsilon_K
   17    2.28167368E-15   # Delta(M_K)
   18    2.47930824E-11   # BR(K^0 -> pi^0 nu nu)
   19    8.28875809E-11   # BR(K^+ -> pi^+ nu nu)
   20    3.56728866E-16   # Delta(g-2)_electron/2
   21    1.52515077E-11   # Delta(g-2)_muon/2
   22    4.33125617E-09   # Delta(g-2)_tau/2
   23    0.00000000E+00   # electric dipole moment of the electron
   24    0.00000000E+00   # electric dipole moment of the muon
   25    0.00000000E+00   # electric dipole moment of the tau
   26    0.00000000E+00   # Br(mu -> e gamma)
   27    0.00000000E+00   # Br(tau -> e gamma)
   28    0.00000000E+00   # Br(tau -> mu gamma)
   29    0.00000000E+00   # Br(mu -> 3 e)
   30    0.00000000E+00   # Br(tau -> 3 e)
   31    0.00000000E+00   # Br(tau -> 3 mu)
   39    7.37397059E-05   # Delta(rho_parameter)
   40    0.00000000E+00   # BR(Z -> e mu)
   41    0.00000000E+00   # BR(Z -> e tau)
   42    0.00000000E+00   # BR(Z -> mu tau)
Block FWCOEF Q=  1.60000000E+02  # Wilson coefficients at scale Q
#    id        order  M        value         comment
     0305 4422   00   0    -1.88819110E-01   # C7
     0305 4422   00   2    -2.24581518E-01   # C7
     0305 4322   00   2    -2.38013043E-04   # C7'
     0305 6421   00   0    -9.52278348E-02   # C8
     0305 6421   00   2    -1.19241062E-01   # C8
     0305 6321   00   2    -2.19821743E-04   # C8'
 03051111 4133   00   0     1.61759736E+00   # C9 e+e-
 03051111 4133   00   2     1.61796458E+00   # C9 e+e-
 03051111 4233   00   2     6.86725379E-04   # C9' e+e-
 03051111 4137   00   0    -4.44028947E+00   # C10 e+e-
 03051111 4137   00   2    -4.43736517E+00   # C10 e+e-
 03051111 4237   00   2    -5.14899052E-03   # C10' e+e-
 03051313 4133   00   0     1.61759736E+00   # C9 mu+mu-
 03051313 4133   00   2     1.61796425E+00   # C9 mu+mu-
 03051313 4233   00   2     6.86724335E-04   # C9' mu+mu-
 03051313 4137   00   0    -4.44028947E+00   # C10 mu+mu-
 03051313 4137   00   2    -4.43736550E+00   # C10 mu+mu-
 03051313 4237   00   2    -5.14899093E-03   # C10' mu+mu-
 03051212 4137   00   0     1.50535012E+00   # C11 nu_1 nu_1
 03051212 4137   00   2     1.50471841E+00   # C11 nu_1 nu_1
 03051212 4237   00   2     1.11568501E-03   # C11' nu_1 nu_1
 03051414 4137   00   0     1.50535012E+00   # C11 nu_2 nu_2
 03051414 4137   00   2     1.50471841E+00   # C11 nu_2 nu_2
 03051414 4237   00   2     1.11568515E-03   # C11' nu_2 nu_2
 03051616 4137   00   0     1.50535012E+00   # C11 nu_3 nu_3
 03051616 4137   00   2     1.50471841E+00   # C11 nu_3 nu_3
 03051616 4237   00   2     1.11572652E-03   # C11' nu_3 nu_3
Block IMFWCOEF Q=  1.60000000E+02  # Im(Wilson coefficients) at scale Q
#    id        order  M        value         comment
     0305 4422   00   0     3.85800491E-07   # C7
     0305 4422   00   2     1.84286029E-05   # C7
     0305 4322   00   2    -2.27861352E-06   # C7'
     0305 6421   00   0     3.30463635E-07   # C8
     0305 6421   00   2    -1.25916131E-05   # C8
     0305 6321   00   2    -1.36181429E-06   # C8'
 03051111 4133   00   2     6.36779572E-07   # C9 e+e-
 03051111 4233   00   2     1.33664845E-05   # C9' e+e-
 03051111 4137   00   2     3.96243300E-06   # C10 e+e-
 03051111 4237   00   2    -1.00225866E-04   # C10' e+e-
 03051313 4133   00   2     6.36771779E-07   # C9 mu+mu-
 03051313 4233   00   2     1.33664780E-05   # C9' mu+mu-
 03051313 4137   00   2     3.96244156E-06   # C10 mu+mu-
 03051313 4237   00   2    -1.00225886E-04   # C10' mu+mu-
 03051212 4137   00   2    -8.24052352E-07   # C11 nu_1 nu_1
 03051212 4237   00   2     2.17169751E-05   # C11' nu_1 nu_1
 03051414 4137   00   2    -8.24051966E-07   # C11 nu_2 nu_2
 03051414 4237   00   2     2.17169751E-05   # C11' nu_2 nu_2
 03051616 4137   00   2    -8.23945032E-07   # C11 nu_3 nu_3
 03051616 4237   00   2     2.17169750E-05   # C11' nu_3 nu_3
