BLOCK SPINFO
   1   SPheno
   2   v4.0.5be

BLOCK SPHENOINFO
   1   2
   2   2

BLOCK MODSEL
   1   0

BLOCK MINPAR
   3    31.539106
   4   -1

BLOCK EXTPAR
   0    1626.1707
   1   -631.86116
   2   -3171.9853
   3    4978.8982
   11   -2848.9567
   12    2314.3699
   13   -7483.7307
   23   -2329.6026
   25    30.744795
   26    4844.4226
   31    4951.5847
   32    4951.5847
   33    3205.5549
   34    2282.0505
   35    2282.0505
   36    3322.9443
   41    4939.5649
   42    4939.5649
   43    3335.6056
   44    2267.3877
   45    2267.3877
   46    1097.8062
   47    4391.2139
   48    4391.2139
   49    2748.1196

BLOCK SMINPUTS
   1    127.90897
   2    1.1663787e-05
   3    0.1184
   4    91.1876
   5    4.18
   6    173.2
   7    1.777
   8    0
   11    0.00051099893
   12    0
   13    0.10565837
   14    0
   21    0.005
   22    0.0025
   23    0.095
   24    1.27

BLOCK GAUGE Q=  1626.1707
   1    0.35536298
   2    0.66519887
   3    1.219778

BLOCK YU Q=  1626.1707
   1   1    8.388806e-06
   2   2    0.0042615134
   3   3    1.0134352

BLOCK YD Q=  1626.1707
   1   1    0.00051826513
   2   2    0.0098470375
   3   3    0.51395661

BLOCK YE Q=  1626.1707
   1   1    9.0441056e-05
   2   2    0.018700342
   3   3    0.31450899

BLOCK AU Q=  1626.1707
   1   1    0
   2   2    0
   3   3   -2848.9567

BLOCK AD Q=  1626.1707
   1   1    0
   2   2    0
   3   3    2314.3696

BLOCK AE Q=  1626.1707
   1   1    0
   2   2    0
   3   3   -7483.7307

BLOCK MSOFT Q=  1626.1707
   1   -631.86116
   2   -3171.9853
   3    4978.8982
   21    18029817
   22   -5476619.8
   31    4951.5847
   32    4951.5847
   33    3205.5549
   34    2282.0505
   35    2282.0505
   36    3322.9443
   41    4939.5649
   42    4939.5649
   43    3335.6056
   44    2267.3877
   45    2267.3877
   46    1097.8062
   47    4391.2139
   48    4391.2139
   49    2748.1196

BLOCK MASS
   6    173.2
   23    91.1876
   24    80.429995
   15    1.777
   25    120.40456
   35    4844.3112
   36    4844.4226
   37    4844.9828
   1000001    4957.4061
   2000001    4397.3284
   1000002    4956.9497
   2000002    2157.8767
   1000003    4957.4076
   2000003    4397.3334
   1000004    4956.951
   2000004    2157.8782
   1000005    2699.2119
   2000005    3312.2719
   1000006    797.72887
   2000006    3314.9498
   1000011    4957.6607
   2000011    2287.5948
   1000012    4956.6401
   1000013    4957.6619
   2000013    2287.6441
   1000014    4956.6411
   1000015    3223.9233
   2000015    3347.7307
   1000016    3225.1209
   1000021    4910.0606
   1000022   -631.58868
   1000023   -2333.2075
   1000025    2336.5554
   1000035   -3249.423
   1000024    2333.2938
   1000037    3248.8596

BLOCK ALPHA
      -0.031741807

BLOCK HMIX Q=  1626.1707
   1   -2329.6026
   2    30.744795
   3    243.74148
   4    23468430

BLOCK STOPMIX
   1   1    0.037681015
   1   2    0.99928982
   2   1   -0.99928982
   2   2    0.037681015

BLOCK SBOTMIX
   1   1   -0.055892923
   1   2    0.99843677
   2   1   -0.99843677
   2   2   -0.055892923

BLOCK STAUMIX
   1   1   -0.9895945
   1   2    0.14388444
   2   1   -0.14388444
   2   2   -0.9895945

BLOCK NMIX
   1   1    0.99975272
   1   2   -0.00018850513
   1   3   -0.021318093
   1   4    0.0063242874
   2   1    0.01952731
   2   2    0.061610288
   2   3    0.70600323
   2   4   -0.70525335
   3   1    0.010598994
   3   2   -0.0094908874
   3   3    0.7069272
   3   4    0.70714321
   4   1   -0.00091581193
   4   2    0.99805514
   4   3   -0.036863409
   4   4    0.050261222

BLOCK UMIX
   1   1   -0.051609764
   1   2   -0.99866733
   2   1   -0.99866733
   2   2    0.051609764

BLOCK VMIX
   1   1    0.070580711
   1   2    0.99750607
   2   1    0.99750607
   2   2   -0.070580711

BLOCK HIGGSBOUNDSINPUTHIGGSCOUPLINGSFERMIONS
       0, 945.24239,3,36,15,15

BLOCK HIGGSBOUNDSINPUTHIGGSCOUPLINGSBOSONS
       0,4,36,21,21,23

BLOCK SPHENOLOWENERGY
   1    0.00033015856
   2    1.5891795e-06
   3    3.5253803e-05
   4    2.596845e-15
   5    1.1093466e-10
   6    2.3246603e-08
   7    8.7677657e-14
   8    3.7455997e-09
   9    7.9527364e-07
   10    9.6494465e-05
   11    0.99675088
   12    0.54229403
   13    19.374834
   14    0
   15    0
   16    0.0021590941
   17    2.2816764e-15
   18    2.4802626e-11
   19    8.2908218e-11
   20    5.8624089e-16
   21    2.5062285e-11
   22    1.1869218e-08
   23    0
   24    0
   25    0
   26    0
   27    0
   28    0
   29    0
   30    0
   31    0
   39    5.9719799e-05
   40    0
   41    0
   42    0

BLOCK FWCOEF Q=  160
   305   4422   0   0   -0.18881911
   305   4422   0   2   -0.20024481
   305   4322   0   2   -0.00017799437
   305   6421   0   0   -0.095227835
   305   6421   0   2   -0.10358452
   305   6321   0   2   -0.00013457743
   3051111   4133   0   0    1.5949422
   3051111   4133   0   2    1.5951836
   3051111   4233   0   2    6.7873247e-05
   3051111   4137   0   0   -4.4176343
   3051111   4137   0   2   -4.4161109
   3051111   4237   0   2   -0.00052644593
   3051313   4133   0   0    1.5949422
   3051313   4133   0   2    1.5951833
   3051313   4233   0   2    6.7873175e-05
   3051313   4137   0   0   -4.4176343
   3051313   4137   0   2   -4.4161113
   3051313   4237   0   2   -0.00052644602
   3051212   4137   0   0    1.5053501
   3051212   4137   0   2    1.5050188
   3051212   4237   0   2    0.00011465468
   3051414   4137   0   0    1.5053501
   3051414   4137   0   2    1.5050188
   3051414   4237   0   2    0.00011465469
   3051616   4137   0   0    1.5053501
   3051616   4137   0   2    1.5050187
   3051616   4237   0   2    0.00011465587

BLOCK IMFWCOEF Q=  160
   305   4422   0   0    3.8574529e-07
   305   4422   0   2    1.6331214e-06
   305   4322   0   2   -2.2043436e-06
   305   6421   0   0    3.3041635e-07
   305   6421   0   2    3.4348433e-06
   305   6321   0   2   -1.0808399e-06
   3051111   4133   0   2   -6.5001306e-07
   3051111   4233   0   2    1.4080037e-06
   3051111   4137   0   2    5.373141e-06
   3051111   4237   0   2   -1.0921908e-05
   3051313   4133   0   2   -6.5001198e-07
   3051313   4233   0   2    1.4080028e-06
   3051313   4137   0   2    5.3731426e-06
   3051313   4237   0   2   -1.092191e-05
   3051212   4137   0   2   -1.1625121e-06
   3051212   4237   0   2    2.3786852e-06
   3051414   4137   0   2   -1.1625121e-06
   3051414   4237   0   2    2.3786852e-06
   3051616   4137   0   2   -1.1631676e-06
   3051616   4237   0   2    2.3786844e-06

DECAY 23  2.4952


DECAY 24  2.085


DECAY 2000011  9.8039036
    1   2    1000022    11

DECAY 1000011  27.393658
    0.51724408   2   -1000037    12
    0.25791717   2    1000035    11
    0.21975416   2    1000022    11
    0.0025717832   2   -1000024    12
    0.0025057292   2    1000023    11

DECAY 2000013  9.8041913
    1   2    1000022    13

DECAY 1000013  27.417552
    0.51679385   2   -1000037    14
    0.25769318   2    1000035    13
    0.21956326   2    1000022    13
    0.0028836201   2    1000023    13
    0.0025695434   2   -1000024    14
    0.00038746154   2    1000025    13
    0.0001090774   2    2000013    25

DECAY 1000015  5.5594563
    0.72012501   2    1000022    15
    0.13605914   2    1000023    15
    0.12742008   2    1000025    15
    0.016395773   2   -1000024    16

DECAY 2000015  18.872219
    0.81431876   2    1000022    15
    0.087310542   2   -1000024    16
    0.04630818   2    1000025    15
    0.044680417   2    1000023    15
    0.0044762318   2    1000016   -24
    0.0016231844   2    1000015    23
    0.0010600044   2    1000015    25
    0.00014897997   2   -1000037    16

DECAY 1000012  27.394331
    0.51560315   2    1000037    11
    0.25820359   2    1000035    12
    0.22001093   2    1000022    12
    0.0048077557   2    1000024    11
    0.0012639514   2    1000023    12
    0.00011062391   2    1000025    12

DECAY 1000014  27.415218
    0.51521193   2    1000037    13
    0.25800709   2    1000035    14
    0.21984336   2    1000022    14
    0.0055640874   2    1000024    13
    0.001262989   2    1000023    14
    0.00011053968   2    1000025    14

DECAY 1000016  5.2255399
    0.7171074   2    1000022    16
    0.28113542   2    1000024    15
    0.0016163714   2    1000023    16
    0.00014080778   2    1000025    16

DECAY 2000001  2.3542357
    0.99972395   2    1000022    1
    0.00020782363   2    1000023    1

DECAY 1000001  22.16836
    0.63903188   2   -1000037    2
    0.31906194   2    1000035    1
    0.030256112   2    1000022    1
    0.0063786613   2    1000021    1
    0.0031776286   2   -1000024    2
    0.0020162815   2    1000023    1

DECAY 2000003  2.3629575
    0.9960367   2    1000022    3
    0.0018480166   2   -1000024    4
    0.0011280726   2    1000023    3
    0.0009840512   2    1000025    3

DECAY 1000003  22.175465
    0.63882813   2   -1000037    4
    0.31896025   2    1000035    3
    0.030246619   2    1000022    3
    0.006376982   2    1000021    3
    0.0032250442   2   -1000024    4
    0.0021456016   2    1000023    3
    0.00020746345   2    1000025    3

DECAY 1000005  3.0271355
    0.45037044   2    1000022    5
    0.23727377   2   -1000024    6
    0.15053417   2    1000023    5
    0.14696863   2    1000025    5
    0.014852995   2    1000006   -24

DECAY 2000005  53.568905
    0.54494071   2    1000006   -24
    0.31065647   2   -1000024    6
    0.041060053   2    1000025    5
    0.041041919   2    1000023    5
    0.027696537   2    1000005    25
    0.026334844   2    1000005    23
    0.0078881635   2    1000022    5
    0.00038129694   2    1000035    5

DECAY 2000002  4.0266347
    1   2    1000022    2

DECAY 1000002  22.189049
    0.63671697   2    1000037    1
    0.3184385   2    1000035    2
    0.030097191   2    1000022    2
    0.00625161   2    1000021    2
    0.0059370847   2    1000024    1
    0.002524256   2    1000023    2

DECAY 2000004  4.0266348
    1   2    1000022    4

DECAY 1000004  22.195867
    0.63652254   2    1000037    3
    0.31834074   2    1000035    4
    0.030087952   2    1000022    4
    0.0062472142   2    1000021    4
    0.00619476   2    1000024    3
    0.0025479709   2    1000023    4

DECAY 1000006  2.4816591e-06
    0.99883092   2    1000022    4
    0.0011690772   3    1000022    24    5

DECAY 2000006  61.869459
    0.35858514   2    1000006    25
    0.23682121   2    1000006    23
    0.13945867   2    1000023    6
    0.13741805   2    1000025    6
    0.073265486   2    1000024    5
    0.046595255   2    1000005    24
    0.0071284318   2    1000022    6
    0.00072775541   2    1000037    5

DECAY 1000024  57.168291
    0.96614406   2    1000006   -5
    0.029750356   2    1000022    24
    0.0041022005   3    1000022   -5    6

DECAY 1000037  21.928949
    0.24756302   2    1000024    25
    0.24037722   2    1000023    24
    0.22673528   2    1000024    23
    0.22634415   2    1000025    24
    0.036343566   2    1000006   -5
    0.0080313747   3    1000024    6   -6
    0.0070526528   3    1000025   -5    6
    0.0065966492   3    1000023   -5    6
    0.00034518249   2    1000022    24
    0.0001794015   3    1000022   -5    6
    0.00014787801   2   -1000015    16
    0.00013675086   2    1000016   -15

DECAY 1000022 -1


DECAY 1000023  57.901802
    0.48453082   2    1000006   -6
    0.48453082   2   -1000006    6
    0.01997413   2    1000022    25
    0.0066808022   2    1000022    23
    0.0042694214   3    1000022    6   -6

DECAY 1000025  58.961441
    0.47802214   2    1000006   -6
    0.47802214   2   -1000006    6
    0.022451465   2    1000022    23
    0.017363315   2    1000022    25
    0.0041304249   3    1000022    6   -6

DECAY 1000035  26.469348
    0.20037989   2    1000023    25
    0.19121017   2    1000025    23
    0.1897907   2    1000024   -24
    0.1897907   2   -1000024    24
    0.17795317   2    1000025    25
    0.01534015   2    1000006   -6
    0.01534015   2   -1000006    6
    0.0051492099   3    1000024    5   -6
    0.0051492099   3   -1000024   -5    6
    0.0045131745   2    1000023    23
    0.0024112587   3    1000023    6   -6
    0.0021586423   3    1000025    6   -6
    0.00015511497   2    1000022    25
    0.00013954495   3    1000022    6   -6

DECAY 1000021  495.25995
    0.13831709   2    1000006   -6
    0.13831709   2   -1000006    6
    0.095523059   2    2000002   -2
    0.095523059   2   -2000002    2
    0.095522991   2    2000004   -4
    0.095522991   2   -2000004    4
    0.071464462   2    1000005   -5
    0.071464462   2   -1000005    5
    0.043707162   2    2000006   -6
    0.043707162   2   -2000006    6
    0.043555628   2    2000005   -5
    0.043555628   2   -2000005    5
    0.0057491656   2    2000001   -1
    0.0057491656   2   -2000001    1
    0.0057490608   2    2000003   -3
    0.0057490608   2   -2000003    3
    0.0001411776   3    1000022    6   -6

DECAY 25  0.0033607594
    0.63924757   2   -5    5
    0.15879047   2   -24    24
    0.075639026   2    21    21
    0.073181247   2   -15    15
    0.031691555   2   -4    4
    0.017523763   2    23    23
    0.0023143433   2    22    22
    0.001116739   2    22    23
    0.00025382075   2   -13    13
    0.00024063482   2   -3    3
    6.6533361e-07   2   -1    1
    1.6332933e-07   2   -2    2
    5.706237e-09   2   -11    11

DECAY 35  112.85776
    0.65089432   2   -5    5
    0.11322308   2   -2000006    1000006
    0.11322308   2   -1000006    2000006
    0.08935909   2   -15    15
    0.017380153   2    1000022    1000025
    0.011014484   2    1000022    1000023
    0.0027453829   2   -6    6
    0.0014618338   2   -1000006    1000006
    0.00030032654   2   -13    13
    0.00023306617   2   -3    3
    5.1699865e-05   2    1000023    1000025
    4.5159427e-05   2   -1000024    1000024
    3.5951891e-05   2    1000022    1000022
    1.2439485e-05   2    1000023    1000023
    1.2394322e-05   2    25    25
    5.3799391e-06   2    21    21
    8.879696e-07   2    1000025    1000025
    6.4450324e-07   2   -1    1
    2.5977074e-07   2    23    23
    8.4991568e-08   2    1000022    1000035
    8.395496e-08   2   -1000002    1000002
    8.3921512e-08   2   -1000004    1000004
    4.4402105e-08   2   -24    24
    1.8876643e-08   2   -4    4
    1.3198963e-08   2    22    22
    1.0705617e-08   2   -1000011    1000011
    1.0623585e-08   2   -1000013    1000013
    8.825283e-09   2    22    23
    6.7440953e-09   2   -11    11
    9.7232706e-14   2   -2    2

DECAY 36  111.57797
    0.64748224   2   -5    5
    0.11512877   2   -2000006    1000006
    0.11512877   2   -1000006    2000006
    0.088888485   2   -15    15
    0.017691734   2    1000022    1000023
    0.011053089   2    1000022    1000025
    0.0032028537   2   -6    6
    0.00064612038   2   -1000024    1000024
    0.00029873996   2   -13    13
    0.00023184446   2   -3    3
    0.00018382518   2    1000023    1000023
    4.0533631e-05   2    1000022    1000022
    1.0650866e-05   2    1000025    1000025
    7.0972429e-06   2    21    21
    3.2064477e-06   2    1000023    1000025
    6.9804124e-07   2    23    25
    6.4112351e-07   2   -1    1
    6.3703458e-07   2    1000022    1000035
    2.4476737e-08   2   -4    4
    1.8731758e-08   2    22    23
    1.6533498e-08   2    22    22
    6.708466e-09   2   -11    11
    1.260854e-13   2   -2    2
    9.9678139e-39   2    25    25

DECAY 37  98.429178
    0.72063242   2   -5    6
    0.14444608   2   -2000005    1000006
    0.097918001   2   -15    16
    0.032651563   2    1000022    1000024
    0.0025137995   2   -1000005    1000006
    0.0010673293   2   -5    4
    0.00034617494   2   -13    14
    0.00025799758   2   -3    4
    0.00012943805   2    1000024    1000025
    1.214652e-05   2   -3    2
    1.1908935e-05   2    1000023    1000024
    7.6218313e-06   2   -5    2
    3.0350797e-06   2   -3    6
    8.0896427e-07   2    1000022    1000037
    7.9175304e-07   2    24    25
    7.160857e-07   2   -1    2
    1.2151909e-07   2   -1    6
    3.4723673e-08   2   -1    4
    8.0970679e-09   2   -11    12

DECAY 6  2.43
    1   2    5    24

DECAY 15 -1
