BLOCK SPINFO
   1   SPheno
   2   v4.0.5be

BLOCK SPHENOINFO
   1   2
   2   2

BLOCK MODSEL
   1   0

BLOCK MINPAR
   3    43.374118
   4    1

BLOCK EXTPAR
   0    3107.8023
   1   -94.007528
   2    3016.1041
   3    4587.0453
   11   -6647.2281
   12    2144.4304
   13   -476.79161
   23    2713.9735
   25    42.49892
   26    670.40409
   31    4832.4711
   32    4832.4711
   33    636.29897
   34    3599.0768
   35    3599.0768
   36    2084.6226
   41    3010.8317
   42    3010.8317
   43    3946.19
   44    4469.1198
   45    4469.1198
   46    2361.4039
   47    1327.341
   48    1327.341
   49    4377.1321

BLOCK SMINPUTS
   1    127.90897
   2    1.1663787e-05
   3    0.1184
   4    91.1876
   5    4.18
   6    173.2
   7    1.777
   8    0
   11    0.00051099893
   12    0
   13    0.10565837
   14    0
   21    0.005
   22    0.0025
   23    0.095
   24    1.27

BLOCK GAUGE Q=  3107.8023
   1    0.35536298
   2    0.66519887
   3    1.219778

BLOCK YU Q=  3107.8023
   1   1    8.3866929e-06
   2   2    0.00426044
   3   3    1.0131799

BLOCK YD Q=  3107.8023
   1   1    0.00071622401
   2   2    0.013608256
   3   3    0.71026979

BLOCK YE Q=  3107.8023
   1   1    0.00012498633
   2   2    0.025843208
   3   3    0.43464025

BLOCK AU Q=  3107.8023
   1   1    0
   2   2    0
   3   3   -6647.2283

BLOCK AD Q=  3107.8023
   1   1    0
   2   2    0
   3   3    2144.4295

BLOCK AE Q=  3107.8023
   1   1    0
   2   2    0
   3   3   -476.79158

BLOCK MSOFT Q=  3107.8023
   1   -94.007528
   2    3016.1041
   3    4587.0453
   21   -6935141.9
   22   -7314146.6
   31    4832.4711
   32    4832.4711
   33    636.29897
   34    3599.0768
   35    3599.0768
   36    2084.6226
   41    3010.8317
   42    3010.8317
   43    3946.19
   44    4469.1198
   45    4469.1198
   46    2361.4039
   47    1327.341
   48    1327.341
   49    4377.1321

BLOCK MASS
   6    173.2
   23    91.1876
   24    80.429995
   15    1.777
   25    125.79799
   35    670.23578
   36    670.40409
   37    675.54102
   1000001    3152.4791
   2000001    1440.7048
   1000002    3151.4664
   2000002    4576.7293
   1000003    3152.478
   2000003    1440.7035
   1000004    3151.4651
   2000004    4576.7286
   1000005    3995.8434
   2000005    4464.8122
   1000006    2407.9467
   2000006    4011.0667
   1000011    4847.4907
   2000011    3599.5825
   1000012    4846.4348
   1000013    4847.4725
   2000013    3599.5666
   1000014    4846.4182
   1000015    691.25008
   2000015    2076.3369
   1000016    696.36234
   1000021    4628.2149
   1000022   -93.475005
   1000023    2702.6845
   1000025   -2713.1778
   1000035    3045.4285
   1000024    2703.4979
   1000037    3045.6661

BLOCK ALPHA
      -0.024403301

BLOCK HMIX Q=  3107.8023
   1    2713.9735
   2    42.49892
   3    243.19984
   4    449441.64

BLOCK STOPMIX
   1   1    0.092500114
   1   2    0.99571267
   2   1   -0.99571267
   2   2    0.092500114

BLOCK SBOTMIX
   1   1    0.99808367
   1   2    0.061878759
   2   1   -0.061878759
   2   2    0.99808367

BLOCK STAUMIX
   1   1    0.99828014
   1   2    0.058623843
   2   1   -0.058623843
   2   2    0.99828014

BLOCK NMIX
   1   1    0.99986196
   1   2   -1.275907e-05
   1   3    0.016614629
   1   4    8.3793184e-05
   2   1    0.011538088
   2   2    0.17161414
   2   3   -0.69773301
   2   4    0.69540212
   3   1   -0.011805502
   3   2    0.0092950563
   3   3    0.70689124
   3   4    0.70716264
   4   1    0.0018856668
   4   2   -0.98512039
   4   3   -0.11487983
   4   4    0.1278158

BLOCK UMIX
   1   1   -0.15708627
   1   2    0.98758488
   2   1    0.98758488
   2   2    0.15708627

BLOCK VMIX
   1   1   -0.17542371
   1   2    0.98449303
   2   1    0.98449303
   2   2    0.17542371

BLOCK HIGGSBOUNDSINPUTHIGGSCOUPLINGSFERMIONS
       0, 1806.1582,3,36,15,15

BLOCK HIGGSBOUNDSINPUTHIGGSCOUPLINGSBOSONS
       0,4,36,21,21,23

BLOCK SPHENOLOWENERGY
   1    0.00036600381
   2    1.5881306e-06
   3    3.5274592e-05
   4    2.9891752e-15
   5    1.2768664e-10
   6    2.6298253e-08
   7    1.0025419e-13
   8    4.2826125e-09
   9    8.9424847e-07
   10    8.3262675e-05
   11    0.86007156
   12    0.541504
   13    19.283201
   14    0
   15    0
   16    0.0021562688
   17    2.2816753e-15
   18    2.4814846e-11
   19    8.2939143e-11
   20    7.8027351e-16
   21    3.3357899e-11
   22    6.3085972e-09
   23    0
   24    0
   25    0
   26    0
   27    0
   28    0
   29    0
   30    0
   31    0
   39    6.8728934e-05
   40    0
   41    0
   42    0

BLOCK FWCOEF Q=  160
   305   4422   0   0   -0.18881911
   305   4422   0   2   -0.23268073
   305   4322   0   2   -0.00081855691
   305   6421   0   0   -0.095227835
   305   6421   0   2   -0.15234713
   305   6321   0   2   -0.0010970684
   3051111   4133   0   0    1.6182919
   3051111   4133   0   2    1.6185875
   3051111   4233   0   2   -9.6590675e-05
   3051111   4137   0   0   -4.440984
   3051111   4137   0   2   -4.4414481
   3051111   4237   0   2    0.0007240388
   3051313   4133   0   0    1.6182919
   3051313   4133   0   2    1.6185868
   3051313   4233   0   2   -9.6660239e-05
   3051313   4137   0   0   -4.440984
   3051313   4137   0   2   -4.4414488
   3051313   4237   0   2    0.00072410768
   3051212   4137   0   0    1.5053501
   3051212   4137   0   2    1.5054518
   3051212   4237   0   2   -0.00015685834
   3051414   4137   0   0    1.5053501
   3051414   4137   0   2    1.5054518
   3051414   4237   0   2   -0.0001568433
   3051616   4137   0   0    1.5053501
   3051616   4137   0   2    1.5054513
   3051616   4237   0   2   -0.00015260499

BLOCK IMFWCOEF Q=  160
   305   4422   0   0    3.8591467e-07
   305   4422   0   2    9.5773361e-06
   305   4322   0   2    6.3190272e-06
   305   6421   0   0    3.3056143e-07
   305   6421   0   2   -2.1968533e-06
   305   6321   0   2    3.7729774e-06
   3051111   4133   0   2    2.9003782e-08
   3051111   4233   0   2    5.6150602e-06
   3051111   4137   0   2    7.375357e-07
   3051111   4237   0   2   -4.2086576e-05
   3051313   4133   0   2    2.8997587e-08
   3051313   4233   0   2    5.6150566e-06
   3051313   4137   0   2    7.3753161e-07
   3051313   4237   0   2   -4.2086585e-05
   3051212   4137   0   2   -1.3978077e-07
   3051212   4237   0   2    9.1179481e-06
   3051414   4137   0   2   -1.3978079e-07
   3051414   4237   0   2    9.1179481e-06
   3051616   4137   0   2   -1.4863461e-07
   3051616   4237   0   2    9.1179715e-06

DECAY 23  2.4952


DECAY 24  2.085


DECAY 2000011  18.05815
    0.99994828   2    1000022    11

DECAY 1000011  29.720011
    0.51298965   2   -1000037    12
    0.25474642   2    1000035    11
    0.20466748   2    1000022    11
    0.016817598   2   -1000024    12
    0.010775813   2    1000023    11

DECAY 2000013  18.075981
    0.99895816   2    1000022    13
    0.00049034923   2   -1000024    14
    0.00027260592   2    1000025    13
    0.00027050444   2    1000023    13

DECAY 1000013  29.754574
    0.51238682   2   -1000037    14
    0.25445767   2    1000035    13
    0.20442956   2    1000022    13
    0.016797886   2   -1000024    14
    0.011263482   2    1000023    13
    0.00051312283   2    1000025    13
    0.00015130943   2    2000013    25

DECAY 1000015  0.84887525
    1   2    1000022    15

DECAY 2000015  38.493508
    0.37773841   2    1000016   -24
    0.26898738   2    1000022    15
    0.18893271   2    1000015    23
    0.15237815   2    1000015    25
    0.005990112   2    1000016   -37
    0.0030246854   2    1000015    36
    0.0029485522   2    1000015    35

DECAY 1000012  29.719535
    0.50939006   2    1000037    11
    0.25559361   2    1000035    12
    0.20464566   2    1000022    12
    0.020960712   2    1000024    11
    0.0093276001   2    1000023    12

DECAY 1000014  29.749607
    0.50888868   2    1000037    13
    0.25533208   2    1000035    14
    0.20443809   2    1000022    14
    0.021940645   2    1000024    13
    0.0093180817   2    1000023    14

DECAY 1000016  0.84330985
    0.99999999   2    1000022    16

DECAY 2000001  0.79735727
    1   2    1000022    1

DECAY 1000001  0.69542348
    0.63151432   2    1000022    1
    0.17272191   2   -1000037    2
    0.086365444   2    1000035    1
    0.068922124   2   -1000024    2
    0.040286866   2    1000023    1
    0.00017580892   2    1000025    1

DECAY 2000003  0.79735787
    1   2    1000022    3

DECAY 1000003  0.6996517
    0.62770221   2    1000022    3
    0.17166471   2   -1000037    4
    0.085843886   2    1000035    3
    0.068599366   2   -1000024    4
    0.040604727   2    1000023    3
    0.0048488735   2    2000003    25
    0.000731144   2    1000025    3

DECAY 1000005  159.09302
    0.59828871   2    1000006   -24
    0.14228125   2   -1000024    6
    0.12045321   2    1000006   -37
    0.041971263   2   -1000037    6
    0.03770844   2    1000023    5
    0.036516638   2    1000025    5
    0.018986801   2    1000035    5
    0.0037936902   2    1000022    5

DECAY 2000005  42.932842
    0.40469441   2   -1000024    6
    0.20790737   2    1000025    5
    0.20008486   2    1000023    5
    0.057356897   2    1000022    5
    0.036648365   2    2000006   -24
    0.035072742   2    1000005    25
    0.020017769   2    1000005    23
    0.016438437   2    1000006   -24
    0.01378782   2   -1000037    6
    0.0071930785   2    1000035    5
    0.00079824352   2    1000006   -37

DECAY 1000002  0.70384205
    0.62358094   2    1000022    2
    0.16649489   2    1000037    1
    0.084596898   2    1000024    1
    0.083664839   2    1000035    2
    0.041594122   2    1000023    2

DECAY 2000002  10.210462
    0.99988369   2    1000022    2

DECAY 1000004  0.70469089
    0.6228293   2    1000022    4
    0.16629418   2    1000037    3
    0.085603036   2    1000024    3
    0.083557197   2    1000035    4
    0.041589484   2    1000023    4
    0.0001219435   2    1000025    4

DECAY 2000004  10.212385
    0.9996951   2    1000022    4

DECAY 1000006  5.2711529
    0.99840903   2    1000022    6
    0.0012661906   3    1000016   -15    5
    0.00028837759   3    1000022    24    5

DECAY 2000006  184.0801
    0.38386343   2    1000006    25
    0.26336832   2    1000006    23
    0.065751101   2    1000025    6
    0.063037498   2    1000024    5
    0.062590177   2    1000023    6
    0.052240892   2    1000006    36
    0.050235371   2    1000006    35
    0.035740291   2    1000037    5
    0.019762031   2    1000035    6
    0.00341088   2    1000022    6

DECAY 1000024  12.704047
    0.36537544   2    1000016   -15
    0.27511629   2    1000006   -5
    0.14200535   2    1000022    24
    0.11574207   2    37    1000022
    0.063528794   2   -2000015    16
    0.030999081   2   -1000015    16
    0.0066411851   3    1000022   -5    6
    0.0005880333   2   -2000003    4

DECAY 1000037  33.317685
    0.35398432   2    1000016   -15
    0.34754483   2   -1000015    16
    0.077917934   2    1000023    24
    0.076192094   2    1000025    24
    0.066452625   2    1000024    23
    0.06632352   2    1000024    25
    0.0052428029   2    1000006   -5
    0.0029641016   2   -2000015    16
    0.0019331122   2    1000022    24
    0.00066740807   2    37    1000022
    0.00028234031   3    1000023   -5    6
    0.00027048131   3    1000025   -5    6

DECAY 1000022 -1


DECAY 1000023  12.404415
    0.19268238   2    1000015   -15
    0.19268238   2   -1000015    15
    0.12760717   2    1000006   -6
    0.12760717   2   -1000006    6
    0.073904829   2    1000022    25
    0.073249266   2    1000022    23
    0.060820336   2    1000022    35
    0.057703689   2    1000022    36
    0.03247133   2    2000015   -15
    0.03247133   2   -2000015    15
    0.01144093   2    1000016   -16
    0.01144093   2   -1000016    16
    0.0052518035   3    1000022    6   -6
    0.00031280727   2    2000003   -3
    0.00031280727   2   -2000003    3

DECAY 1000025  12.206874
    0.18201412   2    1000015   -15
    0.18201412   2   -1000015    15
    0.14384635   2    1000006   -6
    0.14384635   2   -1000006    6
    0.075755295   2    1000022    23
    0.070667438   2    1000022    25
    0.069113257   2    1000022    35
    0.054213108   2    1000022    36
    0.03592775   2    2000015   -15
    0.03592775   2   -2000015    15
    0.0057640317   3    1000022    6   -6
    0.00032980739   2    2000003   -3
    0.00032980739   2   -2000003    3
    0.00010389801   2    1000016   -16
    0.00010389801   2   -1000016    16

DECAY 1000035  35.029868
    0.16711111   2    1000016   -16
    0.16711111   2   -1000016    16
    0.1659117   2    1000015   -15
    0.1659117   2   -1000015    15
    0.078430054   2    1000025    23
    0.062367787   2    1000023    25
    0.060399065   2    1000024   -24
    0.060399065   2   -1000024    24
    0.060018077   2    1000025    25
    0.0028750131   2    1000006   -6
    0.0028750131   2   -1000006    6
    0.0014711871   2    2000015   -15
    0.0014711871   2   -2000015    15
    0.0010078959   2    1000022    23
    0.00097573929   2    1000022    25
    0.00035154191   2    1000022    36
    0.00034569202   2    1000022    35
    0.0002695873   3    1000024    5   -6
    0.0002695873   3   -1000024   -5    6
    0.0002203216   2    1000023    23

DECAY 1000021  470.82406
    0.1186557   2    2000003   -3
    0.1186557   2   -2000003    3
    0.11865565   2    2000001   -1
    0.11865565   2   -2000001    1
    0.075813853   2    1000006   -6
    0.075813853   2   -1000006    6
    0.041850406   2    1000004   -4
    0.041850406   2   -1000004    4
    0.041850357   2    1000002   -2
    0.041850357   2   -1000002    2
    0.041803911   2    1000003   -3
    0.041803911   2   -1000003    3
    0.041803861   2    1000001   -1
    0.041803861   2   -1000001    1
    0.0094219639   2    1000005   -5
    0.0094219639   2   -1000005    5
    0.0091773497   2    2000006   -6
    0.0091773497   2   -2000006    6
    0.00070202928   2    2000005   -5
    0.00070202928   2   -2000005    5

DECAY 25  0.0043134739
    0.58556517   2   -5    5
    0.22335313   2   -24    24
    0.068092046   2   -15    15
    0.065937308   2    21    21
    0.027464796   2    23    23
    0.0255242   2   -4    4
    0.0021719166   2    22    22
    0.0014464736   2    22    23
    0.00023345701   2   -13    13
    0.00021079029   2   -3    3
    5.8279594e-07   2   -1    1
    1.3152977e-07   2   -2    2
    5.2483631e-09   2   -11    11

DECAY 35  21.235415
    0.83119673   2   -5    5
    0.16764816   2   -15    15
    0.00047943855   2   -13    13
    0.00036665193   2   -6    6
    0.00015485778   2   -3    3
    0.00011090261   2    21    21
    1.6483853e-05   2    1000022    1000022
    1.358094e-05   2    25    25
    8.2783289e-06   2   -24    24
    4.3641606e-06   2    23    23
    4.2799195e-07   2   -1    1
    7.1221014e-08   2    22    22
    3.5295698e-08   2    22    23
    1.0772864e-08   2   -11    11
    9.3346896e-09   2   -4    4
    4.8139736e-14   2   -2    2

DECAY 36  20.652063
    0.83118825   2   -5    5
    0.16764359   2   -15    15
    0.0004794131   2   -13    13
    0.00036619844   2   -6    6
    0.00015485188   2   -3    3
    0.00014133687   2    21    21
    1.8383388e-05   2    1000022    1000022
    7.3851576e-06   2    23    25
    4.2797562e-07   2   -1    1
    9.9707869e-08   2    22    22
    4.063236e-08   2    22    23
    1.0772289e-08   2   -11    11
    7.0506358e-09   2   -4    4
    3.6323076e-14   2   -2    2
    6.7276919e-36   2    25    25

DECAY 37  19.708661
    0.86897294   2   -5    6
    0.12895715   2   -15    16
    0.0014375249   2   -5    4
    0.00045591553   2   -13    14
    0.00014953022   2   -3    4
    1.0265481e-05   2   -5    2
    8.0498726e-06   2    24    25
    6.8679715e-06   2   -3    2
    1.2611107e-06   2   -3    6
    4.1467791e-07   2   -1    2
    4.9093629e-08   2   -1    6
    1.950227e-08   2   -1    4
    1.0663912e-08   2   -11    12
    2.8774356e-10   2    24    35
    2.4496109e-10   2    24    36

DECAY 6  2.43
    1   2    5    24

DECAY 15 -1
