BLOCK DCINFO
   1   SDECAY/HDECAY
   2   1.3b /3.4

BLOCK SPINFO
   1   SOFTSUSY
   2   3.4.0

BLOCK MODSEL
   1   0

BLOCK SMINPUTS
   1    127.90897
   2    1.1663787e-05
   3    0.1184
   4    91.1876
   5    4.18
   6    173.2
   7    1.777

BLOCK MINPAR
   3    19.03

BLOCK EXTPAR
   0   -1
   1   -3933.59
   2    535.48
   3    3687.64
   11    2168.48
   12   -1109.02
   13    3264.44
   23   -164.94
   26    2492.22
   31    787.32
   32    787.32
   33    877.69
   34    3968.88
   35    3968.88
   36    1668.37
   41    3488.3
   42    3488.3
   43    1673.49
   44    1554
   45    1554
   46    3895.76
   47    2801.23
   48    2801.23
   49    2831.7

BLOCK MASS
   24    80.384405
   25    124.12841
   35    2492.2442
   36    2492.22
   37    2493.9102
   5    4.8187603
   1000001    3577.7349
   2000001    2890.9504
   1000002    3576.9769
   2000002    1651.0797
   1000003    3577.7349
   2000003    2890.9504
   1000004    3576.9769
   2000004    1651.0797
   1000005    1753.9122
   2000005    2917.6894
   1000006    1756.1892
   2000006    3943.2254
   1000011    798.50927
   2000011    3975.8902
   1000012    794.17246
   1000013    798.50927
   2000013    3975.8902
   1000014    794.17246
   1000015    885.43322
   2000015    1671.9762
   1000016    881.52944
   1000021    3731.8135
   1000022    166.32021
   1000023   -177.60599
   1000025    572.27942
   1000035   -3895.3763
   1000024    171.0351
   1000037    572.57481

BLOCK NMIX
   1   1    0.0067465519
   1   2    0.13134758
   1   3    0.71640015
   1   4    0.68518109
   2   1    0.0085752411
   2   2    0.082029627
   2   3   -0.69668567
   2   4    0.7126196
   3   1   -0.0014054606
   3   2    0.9879367
   3   3   -0.037399502
   3   4   -0.15026772
   4   1    0.99993948
   4   2   -0.00020107316
   4   3    0.0010885191
   4   4   -0.010945352

BLOCK UMIX
   1   1    0.053724151
   1   2    0.99855582
   2   1   -0.99855582
   2   2    0.053724151

BLOCK VMIX
   1   1    0.21466429
   1   2   -0.97668789
   2   1   -0.97668789
   2   2   -0.21466429

BLOCK STOPMIX
   1   1    0.99970586
   1   2   -0.024252824
   2   1    0.024252824
   2   2    0.99970586

BLOCK SBOTMIX
   1   1    0.99999966
   1   2   -0.00082340748
   2   1    0.00082340748
   2   2    0.99999966

BLOCK STAUMIX
   1   1    0.99998504
   1   2   -0.0054706285
   2   1    0.0054706285
   2   2    0.99998504

BLOCK ALPHA
      -0.054982982

BLOCK HMIX Q=  2556.709
   1   -167.48422
   2    18.234585
   3    241.85072
   4    6152326.2

BLOCK GAUGE Q=  2556.709
   1    0.36480531
   2    0.64200617
   3    1.0099161

BLOCK AU Q=  2556.709
   1   1    0
   2   2    0
   3   3    2168.48

BLOCK AD Q=  2556.709
   1   1    0
   2   2    0
   3   3   -1109.02

BLOCK AE Q=  2556.709
   1   1    0
   2   2    0
   3   3    3264.44

BLOCK YU Q=  2556.709
   1   1    0
   2   2    0
   3   3    0.83486269

BLOCK YD Q=  2556.709
   1   1    0
   2   2    0
   3   3    0.24695958

BLOCK YE Q=  2556.709
   1   1    0
   2   2    0
   3   3    0.18381201

BLOCK MSOFT Q=  2556.709
   1   -3933.59
   2    535.48
   3    3687.64
   21    6173443.1
   22    61608.27
   31    787.32
   32    787.32
   33    877.69
   34    3968.88
   35    3968.88
   36    1668.37
   41    3488.3
   42    3488.3
   43    1673.49
   44    1554
   45    1554
   46    3895.76
   47    2801.23
   48    2801.23
   49    2831.7

BLOCK HIGGSBOUNDSINPUTHIGGSCOUPLINGSFERMIONS
       0, 332.50011,3,36,15,15

BLOCK HIGGSBOUNDSINPUTHIGGSCOUPLINGSBOSONS
       0,4,36,21,21,23

DECAY 6  1.4518563
    1   2    5    24

DECAY 1000021  209.64719
    0.10800505   2    2000002   -2
    0.10800505   2   -2000002    2
    0.10800504   2    2000004   -4
    0.10800504   2   -2000004    4
    0.10059605   2    1000006   -6
    0.10059605   2   -1000006    6
    0.10037772   2    1000005   -5
    0.10037772   2   -1000005    5
    0.026699834   2    2000001   -1
    0.026699834   2   -2000001    1
    0.026699834   2    2000003   -3
    0.026699834   2   -2000003    3
    0.025227228   2    2000005   -5
    0.025227228   2   -2000005    5
    0.0011025995   2    1000002   -2
    0.0011025995   2   -1000002    2
    0.0011025384   2    1000004   -4
    0.0011025384   2   -1000004    4
    0.001092057   2    1000001   -1
    0.001092057   2   -1000001    1
    0.001092057   2    1000003   -3
    0.001092057   2   -1000003    3

DECAY 1000006  42.832705
    0.27803578   2    1000023    6
    0.25965429   2    1000037    5
    0.25776993   2    1000022    6
    0.14473312   2    1000025    6
    0.059806878   2    1000024    5

DECAY 2000006  134.41026
    0.38956204   2    1000024    5
    0.2055716   2    1000023    6
    0.19047191   2    1000022    6
    0.087671279   2    1000005    24
    0.049351118   2    1000006    25
    0.044919858   2    1000006    23
    0.01503454   2    1000037    5
    0.010109616   2    1000021    6
    0.007308026   2    1000025    6
    1.0594893e-08   2    2000005    24

DECAY 1000005  42.668138
    0.52294886   2   -1000024    6
    0.29287192   2   -1000037    6
    0.1314391   2    1000025    5
    0.027961355   2    1000022    5
    0.024778766   2    1000023    5

DECAY 2000005  7.0114454
    0.49636395   2   -1000024    6
    0.25732308   2    1000022    5
    0.24335284   2    1000023    5
    0.001446394   2   -1000037    6
    0.00070665171   2    1000025    5
    0.00039197111   2    1000006   -24
    0.00021306688   2    1000005    25
    0.00020204567   2    1000005    23

DECAY 1000002  40.630327
    0.63477082   2    1000037    1
    0.32458056   2    1000025    2
    0.032087511   2    1000024    1
    0.0061254354   2    1000022    2
    0.0024356683   2    1000023    2

DECAY 2000002  0.0005857821
    0.48586134   2    1000023    2
    0.30157878   2    1000022    2
    0.072368207   3    2    24   -1000024
    0.026246961   3    2    23    1000022
    0.025297803   3    2    25    1000023
    0.018476154   3    2    23    1000023
    0.014457082   3    2    25    1000022
    0.0082779929   3    2   -24    1000024
    0.0080724557   3    2   -12    1000012
    0.0079947817   3    2   -14    1000014
    0.0077359824   3    2   -11    1000011
    0.0076277511   3    2   -13    1000013
    0.0049363066   3    2   -16    1000016
    0.004769521   3    2   -15    1000015
    0.001248075   3    2    24   -1000037
    0.00078413117   3    2    12   -1000012
    0.00077813918   3    2    14   -1000014
    0.00077737098   3    2    13   -1000013
    0.0007726764   3    2    11   -1000011
    0.00052528065   3    2    25    1000025
    0.0005181961   3    2    15   -1000015
    0.00051624999   3    2    16   -1000016
    0.00023245845   3    2    23    1000025
    0.00014630355   3    2   -24    1000037

DECAY 1000001  40.581575
    0.66444685   2   -1000037    2
    0.32538746   2    1000025    1
    0.0058997963   2    1000022    1
    0.0022532949   2    1000023    1
    0.0020125972   2   -1000024    2

DECAY 2000001  0.040947139
    0.21180723   3    1    4   -2000004
    0.21138962   3    1    2   -2000002
    0.14552665   3    1   -5    1000005
    0.13584099   3    1   -6    1000006
    0.081707784   3    1   -4    2000004
    0.081082588   3    1   -2    2000002
    0.059723342   3    1    5   -1000005
    0.056218824   3    1    6   -1000006
    0.0029951671   2    1000023    1
    0.0019050659   3    1    24   -1000024
    0.0018555327   2    1000022    1
    0.00092265298   3    1   -12    1000012
    0.00091737789   3    1   -14    1000014
    0.00091349483   3    1   -13    1000013
    0.00090597294   3    1   -11    1000011
    0.00079080006   3    1   -16    1000016
    0.00077944395   3    1   -15    1000015
    0.00076474207   3    1    25    1000023
    0.00069501803   3    1    23    1000022
    0.00045314521   3    1    23    1000023
    0.00045106937   3    1    15   -2000015
    0.00042711165   3    1    25    1000022
    0.00039211531   3    1   -24    1000024
    0.00022386179   3    1    14   -1000014
    0.00022053311   3    1    11   -1000011
    0.00021947077   3    1    12   -1000012
    0.00021806407   3    1    13   -1000013
    0.00019993827   3    1    16   -1000016
    0.0001981506   3    1    15   -1000015
    0.00016066324   3    1   -15    2000015
    5.6853789e-05   3    1    24   -1000037
    1.5871194e-05   3    1    23    1000025
    1.4725327e-05   3    1    25    1000025
    5.1691035e-06   3    1   -24    1000037
    3.2532187e-07   3    1   -37    1000024
    2.0775322e-07   3    1    36    1000022
    1.7731886e-07   3    1    35    1000023
    1.5419392e-07   3    1    37   -1000024
    5.5718178e-08   3    1    35    1000022
    4.4572101e-08   3    1    36    1000023

DECAY 1000004  41.851196
    0.63472024   2    1000037    3
    0.32455499   2    1000025    4
    0.03214758   2    1000024    3
    0.0061370598   2    1000022    4
    0.0024401388   2    1000023    4

DECAY 2000004  0.00057678467
    0.48399097   2    1000023    4
    0.30044061   2    1000022    4
    0.073372269   3    4    24   -1000024
    0.026424073   3    4    23    1000022
    0.02569243   3    4    25    1000023
    0.018734895   3    4    23    1000023
    0.014682429   3    4    25    1000022
    0.0084248078   3    4   -24    1000024
    0.0081718538   3    4   -14    1000014
    0.0080901942   3    4   -12    1000012
    0.0078587387   3    4   -11    1000011
    0.0077580078   3    4   -13    1000013
    0.0050550927   3    4   -16    1000016
    0.0048773834   3    4   -15    1000015
    0.0012737683   3    4    24   -1000037
    0.0008010095   3    4    14   -1000014
    0.00079950114   3    4    13   -1000013
    0.00079632838   3    4    12   -1000012
    0.00078764229   3    4    11   -1000011
    0.00053279849   3    4    16   -1000016
    0.00053082201   3    4    25    1000025
    0.00051983004   3    4    15   -1000015
    0.00023611931   3    4    23    1000025
    0.00014842627   3    4   -24    1000037

DECAY 1000003  41.799734
    0.6644333   2   -1000037    4
    0.32538131   2    1000025    3
    0.0059113471   2    1000022    3
    0.0022575661   2    1000023    3
    0.0020164846   2   -1000024    4

DECAY 2000003  0.040889323
    0.21170563   3    3    2   -2000002
    0.21060754   3    3    4   -2000004
    0.14573242   3    3   -5    1000005
    0.13603307   3    3   -6    1000006
    0.081820869   3    3   -4    2000004
    0.081214354   3    3   -2    2000002
    0.059805342   3    3    5   -1000005
    0.056298315   3    3    6   -1000006
    0.0030358397   2    1000023    3
    0.0019077596   3    3    24   -1000024
    0.0018808524   2    1000022    3
    0.00092395757   3    3   -12    1000012
    0.00091867502   3    3   -14    1000014
    0.00091478647   3    3   -13    1000013
    0.00090725394   3    3   -11    1000011
    0.00079191821   3    3   -16    1000016
    0.00078054605   3    3   -15    1000015
    0.00076582338   3    3    25    1000023
    0.00069600075   3    3    23    1000022
    0.00045381039   3    3    15   -2000015
    0.00045378594   3    3    23    1000023
    0.00042162595   3    3    25    1000022
    0.00039340343   3    3   -24    1000024
    0.00022417832   3    3    14   -1000014
    0.00022084493   3    3    11   -1000011
    0.00021978109   3    3    12   -1000012
    0.00021837241   3    3    13   -1000013
    0.00020022097   3    3    16   -1000016
    0.00019843077   3    3    15   -1000015
    0.00016089041   3    3   -15    2000015
    5.6956188e-05   3    3    24   -1000037
    1.5893635e-05   3    3    23    1000025
    1.4746148e-05   3    3    25    1000025
    5.1414399e-06   3    3   -24    1000037
    3.2600197e-07   3    3   -37    1000024
    2.0849697e-07   3    3    36    1000022
    1.7756958e-07   3    3    35    1000023
    1.5469564e-07   3    3    37   -1000024
    5.5840982e-08   3    3    35    1000022
    4.4053064e-08   3    3    36    1000023

DECAY 1000011  2.3899361
    0.64479282   2   -1000037    12
    0.31575412   2    1000025    11
    0.022907607   2    1000022    11
    0.0093468471   2    1000023    11
    0.0071986088   2   -1000024    12

DECAY 2000011  0.12090038
    0.094267691   3    11    4   -2000004
    0.093746601   3    11    2   -2000002
    0.073296707   3    11   -4    2000004
    0.07221317   3    11   -2    2000002
    0.069754121   3    11    15   -2000015
    0.052740114   3    11   -15    2000015
    0.040830309   3    11    24   -1000024
    0.033814615   3    11   -12    1000012
    0.033190135   3    11   -11    1000011
    0.033085916   3    11   -14    1000014
    0.032804693   3    11   -13    1000013
    0.031559867   3    11   -16    1000016
    0.031474673   3    11   -15    1000015
    0.0243407   3    11   -24    1000024
    0.022008202   3    11    13   -1000013
    0.021929624   3    11    12   -1000012
    0.021903156   3    11    11   -1000011
    0.021804728   3    11    14   -1000014
    0.021569824   3    11    16   -1000016
    0.0213953   3    11    15   -1000015
    0.021276194   3    11    25    1000023
    0.019124836   3    11    23    1000022
    0.01330186   3    11    23    1000023
    0.012754013   2    1000023    11
    0.012690613   3    11    25    1000022
    0.0078982627   2    1000022    11
    0.0059046959   3    11   -37    1000024
    0.0054113972   3    11   -6    1000006
    0.0053869143   3    11   -5    1000005
    0.0050618532   3    11    37   -1000024
    0.004162766   3    11    6   -1000006
    0.0041589612   3    11    5   -1000005
    0.0036836111   3    11    1   -2000001
    0.0036521803   3    11    3   -2000003
    0.0034675655   3    11    5   -2000005
    0.0033180209   3    11   -3    2000003
    0.0033128927   3    11   -1    2000001
    0.0031018926   3    11   -5    2000005
    0.0030737702   3    11    36    1000022
    0.0028810496   3    11    35    1000023
    0.0025917205   3    11    35    1000022
    0.0024294381   3    11    36    1000023
    0.0013999956   3    11    24   -1000037
    0.00074225571   3    11   -24    1000037
    0.00066970838   3    11    23    1000025
    0.00037172752   3    11    25    1000025
    5.221158e-05   3    11   -1    1000001
    5.1398513e-05   3    11   -4    1000004
    5.1198349e-05   3    11   -3    1000003
    5.0327384e-05   3    11   -2    1000002
    5.0081727e-05   3    11    2   -1000002
    4.9983299e-05   3    11    4   -1000004
    4.9495294e-05   3    11    1   -1000001
    4.9251291e-05   3    11    3   -1000003
    1.3571504e-05   3    11   -37    1000037
    1.1735281e-05   3    11    37   -1000037
    7.85043e-06   3    11    36    1000025
    4.5530046e-06   3    11    35    1000025

DECAY 1000013  2.389936
    0.64479285   2   -1000037    14
    0.31575409   2    1000025    13
    0.022907608   2    1000022    13
    0.0093468472   2    1000023    13
    0.0071986092   2   -1000024    14

DECAY 2000013  0.12088021
    0.094283419   3    13    4   -2000004
    0.093762242   3    13    2   -2000002
    0.073313073   3    13   -4    2000004
    0.072151592   3    13   -2    2000002
    0.069765759   3    13    15   -2000015
    0.052748913   3    13   -15    2000015
    0.040837121   3    13    24   -1000024
    0.033820257   3    13   -12    1000012
    0.033235381   3    13   -11    1000011
    0.033091437   3    13   -14    1000014
    0.032810167   3    13   -13    1000013
    0.031565133   3    13   -16    1000016
    0.031479924   3    13   -15    1000015
    0.024344761   3    13   -24    1000024
    0.02194652   3    13    11   -1000011
    0.021933283   3    13    12   -1000012
    0.021907638   3    13    13   -1000013
    0.021853039   3    13    14   -1000014
    0.021573423   3    13    16   -1000016
    0.02139887   3    13    15   -1000015
    0.021279744   3    13    25    1000023
    0.019128027   3    13    23    1000022
    0.01330408   3    13    23    1000023
    0.012756141   2    1000023    13
    0.012693558   3    13    25    1000022
    0.0078995804   2    1000022    13
    0.0059056811   3    13   -37    1000024
    0.0054123001   3    13   -6    1000006
    0.0053690341   3    13   -5    1000005
    0.0050382108   3    13    37   -1000024
    0.0041686723   3    13    6   -1000006
    0.004122759   3    13    5   -1000005
    0.0036527897   3    13    3   -2000003
    0.0036417043   3    13    1   -2000001
    0.0034681441   3    13    5   -2000005
    0.0033185745   3    13   -3    2000003
    0.0033134455   3    13   -1    2000001
    0.0031025756   3    13   -5    2000005
    0.0030742831   3    13    36    1000022
    0.0028815303   3    13    35    1000023
    0.0025921529   3    13    35    1000022
    0.0024298435   3    13    36    1000023
    0.0014002291   3    13    24   -1000037
    0.00074237955   3    13   -24    1000037
    0.00066960503   3    13    23    1000025
    0.00037178954   3    13    25    1000025
    5.1538624e-05   3    13   -2    1000002
    5.1206891e-05   3    13   -3    1000003
    5.1036474e-05   3    13   -4    1000004
    5.0696468e-05   3    13   -1    1000001
    5.0165364e-05   3    13    2   -1000002
    4.9991638e-05   3    13    4   -1000004
    4.9503552e-05   3    13    1   -1000001
    4.9369535e-05   3    13    3   -1000003
    1.3573768e-05   3    13   -37    1000037
    1.1726485e-05   3    13    37   -1000037
    7.8517398e-06   3    13    36    1000025
    4.5536815e-06   3    13    35    1000025

DECAY 1000015  4.3082671
    0.56873834   2   -1000037    16
    0.27833645   2    1000025    15
    0.08067982   2    1000022    15
    0.067471369   2    1000023    15
    0.0047740173   2   -1000024    16

DECAY 2000015  2.2670767
    0.48299541   2   -1000024    16
    0.24838317   2    1000022    15
    0.23619326   2    1000023    15
    0.01448649   2    1000016   -24
    0.0075611154   2    1000015    25
    0.00733208   2    1000015    23
    0.0020473581   2   -1000037    16
    0.0010011125   2    1000025    15

DECAY 1000012  2.5068957
    0.57140781   2    1000037    11
    0.29344991   2    1000025    12
    0.10885702   2    1000024    11
    0.01930708   2    1000022    12
    0.0069781801   2    1000023    12

DECAY 1000014  2.5068955
    0.57140778   2    1000037    13
    0.29344993   2    1000025    14
    0.10885703   2    1000024    13
    0.019307082   2    1000022    14
    0.0069781807   2    1000023    14

DECAY 1000016  4.4182148
    0.52164923   2    1000037    15
    0.26767971   2    1000025    16
    0.19381761   2    1000024    15
    0.012370897   2    1000022    16
    0.00448255   2    1000023    16

DECAY 1000024  2.68038e-09
    0.3526497   3    1000022    2   -1
    0.3526497   3    1000022    4   -3
    0.11758993   3    1000022   -11    12
    0.11758993   3    1000022   -13    14
    0.059520748   3    1000022   -15    16

DECAY 1000037  4.0711869
    0.26445892   2    1000023    24
    0.25852905   2    1000024    23
    0.25092474   2    1000022    24
    0.2260873   2    1000024    25

DECAY 1000022 -1


DECAY 1000023  1.7525649e-07
    0.14708764   3    1000022   -1    1
    0.14708764   3    1000022   -3    3
    0.11341333   3    1000022   -2    2
    0.11341333   3    1000022   -4    4
    0.067407012   3    1000022   -12    12
    0.067407012   3    1000022   -14    14
    0.067404273   3    1000022   -16    16
    0.033706994   3    1000022   -11    11
    0.033706994   3    1000022   -13    13
    0.029111583   3    1000022   -15    15
    0.027101818   3    1000024   -2    1
    0.027101818   3   -1000024   -1    2
    0.027101818   3    1000024   -4    3
    0.027101818   3   -1000024   -3    4
    0.012199105   2    1000022    22
    0.010769252   3    1000022   -5    5
    0.0090351695   3    1000024   -12    11
    0.0090351695   3   -1000024    12   -11
    0.0090351695   3    1000024   -14    13
    0.0090351695   3   -1000024    14   -13
    0.0063689387   3    1000024   -16    15
    0.0063689387   3   -1000024    16   -15

DECAY 1000025  4.0766717
    0.26830917   2    1000024   -24
    0.26830917   2   -1000024    24
    0.1846139   2    1000023    23
    0.15318946   2    1000022    25
    0.069982049   2    1000022    23
    0.055596259   2    1000023    25

DECAY 1000035  96.833601
    0.091798471   2    2000002   -2
    0.091798471   2   -2000002    2
    0.091798463   2    2000004   -4
    0.091798463   2   -2000004    4
    0.070868246   2    2000015   -15
    0.070868246   2   -2000015    15
    0.024473473   2    1000012   -12
    0.024473473   2   -1000012    12
    0.024473473   2    1000014   -14
    0.024473473   2   -1000014    14
    0.024415646   2    1000011   -11
    0.024415646   2   -1000011    11
    0.024415646   2    1000013   -13
    0.024415646   2   -1000013    13
    0.02398328   2    1000016   -16
    0.02398328   2   -1000016    16
    0.023927904   2    1000015   -15
    0.023927904   2   -1000015    15
    0.022475718   2    1000024   -24
    0.022475718   2   -1000024    24
    0.016375569   2    1000023    25
    0.013569858   2    1000022    23
    0.010187881   2    1000022    25
    0.0098108449   2    1000023    23
    0.009045209   2    1000024   -37
    0.009045209   2   -1000024    37
    0.0069892621   2    2000001   -1
    0.0069892621   2   -2000001    1
    0.0069892621   2    2000003   -3
    0.0069892621   2   -2000003    3
    0.0068403449   2    2000005   -5
    0.0068403449   2   -2000005    5
    0.0056528707   2    1000005   -5
    0.0056528707   2   -1000005    5
    0.0056521323   2    1000006   -6
    0.0056521323   2   -1000006    6
    0.0048593468   2    1000022    36
    0.0046000517   2    1000023    35
    0.0044895965   2    1000022    35
    0.0042267791   2    1000023    36
    0.00079971059   2    1000037   -24
    0.00079971059   2   -1000037    24
    0.00052942038   2    1000025    23
    0.0003142753   2    1000025    25
    0.00022095689   2    1000002   -2
    0.00022095689   2   -1000002    2
    0.00022095437   2    1000004   -4
    0.00022095437   2   -1000004    4
    0.00022090785   2    1000001   -1
    0.00022090785   2   -1000001    1
    0.00022090785   2    1000003   -3
    0.00022090785   2   -1000003    3
    2.3775016e-05   2    1000037   -37
    2.3775016e-05   2   -1000037    37
    1.3317776e-05   2    1000025    36
    9.8295944e-06   2    1000025    35

DECAY 25  0.003914462
    0.60815683   2    5   -5
    0.19528378   2    24   -24
    0.080119593   2    21    21
    0.066114251   2   -15    15
    0.024010302   2    23    23
    0.022031643   2    4   -4
    0.002319392   2    22    22
    0.0014743934   2    22    23
    0.00025579859   2    3   -3
    0.00023402527   2   -13    13

DECAY 35  40.03219
    0.24509358   2    5   -5
    0.22176832   2    1000024   -1000037
    0.22176832   2    1000037   -1000024
    0.12381385   2    1000022    1000025
    0.10321693   2    1000023    1000025
    0.043613732   2   -15    15
    0.024146555   2    1000024   -1000024
    0.0077577441   2    6   -6
    0.004754798   2    1000022    1000022
    0.0015236179   2    1000037   -1000037
    0.0013232019   2    1000023    1000023
    0.00075236491   2    1000025    1000025
    0.00017064619   2    1000022    1000023
    0.00015440661   2   -13    13
    9.9040131e-05   2    3   -3
    1.9740065e-05   2    25    25
    5.5150921e-06   2    1000015   -1000015
    4.8133086e-06   2    24   -24
    2.8868739e-06   2    21    21
    2.3999245e-06   2    23    23
    2.1031621e-06   2    1000012   -1000012
    2.1031621e-06   2    1000014   -1000014
    1.9290146e-06   2    1000016   -1000016
    6.4349591e-07   2    1000011   -1000011
    6.4349591e-07   2    1000013   -1000013
    7.9345401e-08   2    4   -4
    2.5406922e-08   2    22    22
    3.913342e-09   2    23    22

DECAY 36  40.035736
    0.24509612   2    5   -5
    0.22255128   2    1000024   -1000037
    0.22255128   2    1000037   -1000024
    0.12001842   2    1000023    1000025
    0.1075506   2    1000022    1000025
    0.04361047   2   -15    15
    0.023319424   2    1000024   -1000024
    0.0078019308   2    6   -6
    0.0039223713   2    1000022    1000022
    0.0016913809   2    1000023    1000023
    0.00077510947   2    1000037   -1000037
    0.00043864163   2    1000022    1000023
    0.0003886342   2    1000025    1000025
    0.00015439474   2   -13    13
    9.905363e-05   2    3   -3
    2.5918421e-05   2    21    21
    4.8688267e-06   2    23    25
    7.9498124e-08   2    4   -4
    2.2382947e-08   2    23    22
    6.2061141e-09   2    22    22

DECAY 37  39.884266
    0.25098839   2    6   -5
    0.24371709   2    1000037    1000022
    0.22933048   2    1000024    1000025
    0.22474009   2    1000037    1000023
    0.043805781   2   -15    16
    0.0050479116   2    1000024    1000023
    0.0016812677   2    1000024    1000022
    0.00040990563   2    4   -5
    0.0001550862   2   -13    14
    9.7941121e-05   2    4   -3
    6.9994512e-06   2   -1000015    1000016
    4.9720284e-06   2    2   -3
    4.901763e-06   2    24    25
    4.0990482e-06   2    2   -5
    2.5351051e-06   2   -1000011    1000012
    2.5351051e-06   2   -1000013    1000014
    1.9653948e-08   2    1000037    1000025
    4.5495831e-13   2    24    36

DECAY 5 -1


DECAY 15 -1


DECAY 23  2.4952


DECAY 24  2.085
