BLOCK SPINFO
   1   SPheno
   2   v4.0.5be

BLOCK SPHENOINFO
   1   2
   2   2

BLOCK MODSEL
   1   0

BLOCK MINPAR
   3    17.877892
   4    1

BLOCK EXTPAR
   0    1813.6545
   1   -3262.0983
   2    739.1449
   3    2598.9017
   11    4701.9533
   12   -6618.1204
   13    6674.6111
   23    478.45152
   25    17.15307
   26    3187.5354
   31    1236.2909
   32    1236.2909
   33    3448.5793
   34    3014.5857
   35    3014.5857
   36    2781.3948
   41    4877.4533
   42    4877.4533
   43    1020.595
   44    2808.375
   45    2808.375
   46    3005.6168
   47    1539.5785
   48    1539.5785
   49    4769.3568

BLOCK SMINPUTS
   1    127.90897
   2    1.1663787e-05
   3    0.1184
   4    91.1876
   5    4.18
   6    173.2
   7    1.777
   8    0
   11    0.00051099893
   12    0
   13    0.10565837
   14    0
   21    0.005
   22    0.0025
   23    0.095
   24    1.27

BLOCK GAUGE Q=  1813.6545
   1    0.35536298
   2    0.66519887
   3    1.219778

BLOCK YU Q=  1813.6545
   1   1    8.3986081e-06
   2   2    0.0042664929
   3   3    1.0146193

BLOCK YD Q=  1813.6545
   1   1    0.00028948724
   2   2    0.0055002577
   3   3    0.28708063

BLOCK YE Q=  1813.6545
   1   1    5.0517641e-05
   2   2    0.010445446
   3   3    0.17567522

BLOCK AU Q=  1813.6545
   1   1    0
   2   2    0
   3   3    4701.9537

BLOCK AD Q=  1813.6545
   1   1    0
   2   2    0
   3   3   -6618.1206

BLOCK AE Q=  1813.6545
   1   1    0
   2   2    0
   3   3    6674.6111

BLOCK MSOFT Q=  1813.6545
   1   -3262.0983
   2    739.1449
   3    2598.9017
   21    9842013
   22   -339743.72
   31    1236.2909
   32    1236.2909
   33    3448.5793
   34    3014.5857
   35    3014.5857
   36    2781.3948
   41    4877.4533
   42    4877.4533
   43    1020.595
   44    2808.375
   45    2808.375
   46    3005.6168
   47    1539.5785
   48    1539.5785
   49    4769.3568

BLOCK MASS
   6    173.2
   23    91.1876
   24    80.429995
   15    1.777
   25    126.64064
   35    3187.1217
   36    3187.5354
   37    3188.4055
   1000001    4921.2323
   2000001    1616.6948
   1000002    4920.767
   2000002    2859.4687
   1000003    4921.2323
   2000003    1616.6967
   1000004    4920.767
   2000004    2859.4692
   1000005    1118.6091
   2000005    4800.6444
   1000006    1097.4156
   2000006    2997.3536
   1000011    1231.7732
   2000011    3028.2383
   1000012    1228.9665
   1000013    1231.7731
   2000013    3028.2361
   1000014    1228.9665
   1000015    2799.2566
   2000015    3452.6819
   1000016    3451.5495
   1000021    2776.2427
   1000022    477.40722
   1000023   -490.28692
   1000025    787.67198
   1000035   -3253.623
   1000024    479.50822
   1000037    787.95926

BLOCK ALPHA
      -0.056005863

BLOCK HMIX Q=  1813.6545
   1    478.45152
   2    17.15307
   3    243.82711
   4    10160382

BLOCK STOPMIX
   1   1   -0.99588579
   1   2    0.090617295
   2   1   -0.090617295
   2   2   -0.99588579

BLOCK SBOTMIX
   1   1    0.99999906
   1   2    0.001369894
   2   1   -0.001369894
   2   2    0.99999906

BLOCK STAUMIX
   1   1    0.00069167969
   1   2    0.99999976
   2   1   -0.99999976
   2   2    0.00069167969

BLOCK NMIX
   1   1    0.0084538693
   1   2    0.19636596
   1   3   -0.70056454
   1   4    0.68598708
   2   1   -0.010487662
   2   2   -0.042789248
   2   3   -0.70511595
   2   4   -0.70772211
   3   1    0.0018934037
   3   2   -0.97959656
   3   3   -0.1096322
   3   4    0.16842735
   4   1    0.99990747
   4   2   -0.00025406313
   4   3   -0.0012650759
   4   4   -0.013541749

BLOCK UMIX
   1   1   -0.15578486
   1   2    0.98779101
   2   1    0.98779101
   2   2    0.15578486

BLOCK VMIX
   1   1   -0.23944302
   1   2    0.97091042
   2   1    0.97091042
   2   2    0.23944302

BLOCK HIGGSBOUNDSINPUTHIGGSCOUPLINGSFERMIONS
       0, 294.22782,3,36,15,15

BLOCK HIGGSBOUNDSINPUTHIGGSCOUPLINGSBOSONS
       0,4,36,21,21,23

BLOCK SPHENOLOWENERGY
   1    0.00034060829
   2    1.5874736e-06
   3    3.5235978e-05
   4    2.5414327e-15
   5    1.085672e-10
   6    2.2731574e-08
   7    8.5416901e-14
   8    3.6490098e-09
   9    7.7413761e-07
   10    9.6604114e-05
   11    0.99788351
   12    0.5423514
   13    19.377918
   14    0
   15    0
   16    0.0021591233
   17    2.281677e-15
   18    2.479781e-11
   19    8.2895222e-11
   20    3.1867776e-15
   21    1.3624646e-10
   22    1.2882718e-08
   23    0
   24    0
   25    0
   26    0
   27    0
   28    0
   29    0
   30    0
   31    0
   39    5.1696686e-05
   40    0
   41    0
   42    0

BLOCK FWCOEF Q=  160
   305   4422   0   0   -0.18881911
   305   4422   0   2   -0.21160534
   305   4322   0   2   -0.00019072698
   305   6421   0   0   -0.095227835
   305   6421   0   2   -0.11263271
   305   6321   0   2   -0.00019534031
   3051111   4133   0   0    1.5985454
   3051111   4133   0   2    1.5990181
   3051111   4233   0   2    8.4710173e-05
   3051111   4137   0   0   -4.4212375
   3051111   4137   0   2   -4.4178498
   3051111   4237   0   2   -0.00065452441
   3051313   4133   0   0    1.5985454
   3051313   4133   0   2    1.5990178
   3051313   4233   0   2    8.4710135e-05
   3051313   4137   0   0   -4.4212375
   3051313   4137   0   2   -4.4178501
   3051313   4237   0   2   -0.00065452454
   3051212   4137   0   0    1.5053501
   3051212   4137   0   2    1.5046398
   3051212   4237   0   2    0.00014243263
   3051414   4137   0   0    1.5053501
   3051414   4137   0   2    1.5046398
   3051414   4237   0   2    0.00014243263
   3051616   4137   0   0    1.5053501
   3051616   4137   0   2    1.5046384
   3051616   4237   0   2    0.00014243348

BLOCK IMFWCOEF Q=  160
   305   4422   0   0    3.8579192e-07
   305   4422   0   2    2.4444163e-05
   305   4322   0   2   -1.3825086e-06
   305   6421   0   0    3.3045629e-07
   305   6421   0   2    1.7074384e-06
   305   6321   0   2   -8.4617711e-07
   3051111   4133   0   2   -1.2120067e-06
   3051111   4233   0   2    1.6371579e-06
   3051111   4137   0   2    1.2513584e-05
   3051111   4237   0   2   -1.2648571e-05
   3051313   4133   0   2   -1.2120332e-06
   3051313   4233   0   2    1.6371574e-06
   3051313   4137   0   2    1.2513616e-05
   3051313   4237   0   2   -1.2648573e-05
   3051212   4137   0   2   -2.2259111e-06
   3051212   4237   0   2    2.7524877e-06
   3051414   4137   0   2   -2.2259109e-06
   3051414   4237   0   2    2.7524877e-06
   3051616   4137   0   2   -2.2521924e-06
   3051616   4237   0   2    2.7524926e-06

DECAY 23  2.4952


DECAY 24  2.085


DECAY 1000011  5.8633425
    0.62981837   2   -1000037    12
    0.30937902   2    1000025    11
    0.03232335   2   -1000024    12
    0.026945646   2    1000022    11
    0.0015336146   2    1000023    11

DECAY 2000011  0.0026687779
    0.59468511   2    1000023    11
    0.38749179   2    1000022    11
    0.017767854   2    1000025    11

DECAY 1000013  5.8652422
    0.6296143   2   -1000037    14
    0.30928096   2    1000025    13
    0.032312878   2   -1000024    14
    0.027098149   2    1000022    13
    0.0016937147   2    1000023    13

DECAY 2000013  0.015206955
    0.40089658   2   -1000024    14
    0.30814617   2    1000023    13
    0.26973001   2    1000022    13
    0.0091177513   2   -1000037    14
    0.0076343041   2    1000025    13
    0.0044751814   2    1000013    25

DECAY 1000015  3.233676
    0.48904504   2   -1000024    16
    0.24868365   2    1000023    15
    0.24644384   2    1000022    15
    0.010575448   2   -1000037    16
    0.0052520244   2    1000025    15

DECAY 2000015  43.149789
    0.61759931   2   -1000037    16
    0.30363174   2    1000025    15
    0.036843709   2    1000022    15
    0.024248427   2    1000023    15
    0.016404328   2   -1000024    16
    0.0012589211   2    1000035    15

DECAY 1000012  5.9377461
    0.59569095   2    1000037    11
    0.30413437   2    1000025    12
    0.075109441   2    1000024    11
    0.024174561   2    1000022    12
    0.00089068579   2    1000023    12

DECAY 1000014  5.9396388
    0.59550546   2    1000037    13
    0.30403746   2    1000025    14
    0.075399818   2    1000024    13
    0.024166858   2    1000022    14
    0.00089040197   2    1000023    14

DECAY 1000016  43.184067
    0.59700712   2    1000037    15
    0.30396875   2    1000025    16
    0.084840327   2    1000024    15
    0.012457694   2    1000022    16
    0.0012469218   2    1000035    16
    0.00046704581   2    1000023    16

DECAY 2000001  0.00014193601
    0.58448419   2    1000023    1
    0.38643994   2    1000022    1
    0.015416041   2   -1000024    2
    0.013391909   2    1000025    1
    0.0002679168   2   -1000037    2

DECAY 1000001  242.51671
    0.74446473   2    1000021    1
    0.16547693   2   -1000037    2
    0.081430554   2    1000025    1
    0.0042534382   2   -1000024    2
    0.0033279166   2    1000022    1
    0.0008997992   2    1000035    1
    0.00014663132   2    1000023    1

DECAY 2000003  0.0017446903
    0.45274557   2   -1000024    4
    0.27552439   2    1000023    3
    0.25888375   2    1000022    3
    0.0078683085   2   -1000037    4
    0.0049779857   2    1000025    3

DECAY 1000003  242.52136
    0.74445045   2    1000021    3
    0.16547417   2   -1000037    4
    0.081429134   2    1000025    3
    0.0042601331   2   -1000024    4
    0.0033337157   2    1000022    3
    0.00089978195   2    1000035    3
    0.00015256476   2    1000023    3

DECAY 1000005  18.482576
    0.70586381   2   -1000024    6
    0.15696514   2   -1000037    6
    0.065401499   2    1000025    5
    0.039260258   2    1000022    5
    0.032509295   2    1000023    5

DECAY 2000005  196.20494
    0.85550675   2    1000021    5
    0.038230236   2   -1000024    6
    0.030448216   2    1000006   -37
    0.019537766   2    1000023    5
    0.019278764   2    1000022    5
    0.015042237   2    1000005    35
    0.015027098   2    1000005    36
    0.0039923284   2    1000035    5
    0.00095690246   2   -1000037    6
    0.00060728445   2    1000006   -24
    0.00059185801   2    1000005    25
    0.00047512663   2    1000025    5
    0.0003040969   2    1000005    23

DECAY 2000002  0.74382149
    0.99850432   2    1000021    2
    0.00088956743   2    1000023    2
    0.00057982394   2    1000022    2

DECAY 1000002  242.51021
    0.74428283   2    1000021    2
    0.15985708   2    1000037    1
    0.081312202   2    1000025    2
    0.010047647   2    1000024    1
    0.0034312899   2    1000022    2
    0.00089435485   2    1000035    2
    0.00017458853   2    1000023    2

DECAY 2000004  0.74566971
    0.9958965   2    1000021    4
    0.001542892   2    1000023    4
    0.0012365864   2    1000024    3
    0.0011961584   2    1000022    4

DECAY 1000004  242.51479
    0.74426853   2    1000021    4
    0.15985435   2    1000037    3
    0.081310875   2    1000025    4
    0.01005911   2    1000024    3
    0.0034346054   2    1000022    4
    0.00089433878   2    1000035    4
    0.00017818996   2    1000023    4

DECAY 1000006  17.948156
    0.37781242   2    1000023    6
    0.35091836   2    1000022    6
    0.12707618   2    1000037    5
    0.074634234   2    1000025    6
    0.067239489   2    1000024    5
    0.0017454697   2    1000022    4
    0.00048719629   3    1000022    24    5

DECAY 2000006  324.791
    0.29440432   2    1000005    24
    0.19133395   2    1000006    25
    0.17286958   2    1000024    5
    0.14853933   2    1000006    23
    0.08913299   2    1000023    6
    0.085590838   2    1000022    6
    0.010154131   2    1000021    6
    0.0053548206   2    1000037    5
    0.0026200452   2    1000025    6

DECAY 1000024  1.7093518e-11
    0.58044409   3    1000022   -1    2
    0.19355908   3    1000022   -11    12
    0.19033073   3    1000022   -13    14
    0.035664626   3    1000022   -3    4

DECAY 1000037  5.8909122
    0.29038187   2    1000023    24
    0.25159488   2    1000022    24
    0.24396797   2    1000024    23
    0.21302063   2    1000024    25
    0.00058981699   3    1000022   -5    6
    0.00044123985   3    1000023   -5    6

DECAY 1000022 -1


DECAY 1000023  2.7677059e-06
    0.17230689   2    1000022    22
    0.085130186   3    1000022    12   -12
    0.080486205   3    1000024    1   -2
    0.080486205   3   -1000024   -1    2
    0.075477259   3    1000024    3   -4
    0.075477259   3   -1000024   -3    4
    0.063655285   3    1000022    1   -1
    0.063615267   3    1000022    3   -3
    0.049645883   3    1000022    2   -2
    0.043621659   3    1000022    4   -4
    0.026828904   3    1000024    11   -12
    0.026828904   3   -1000024   -11    12
    0.026816854   3    1000024    13   -14
    0.026816854   3   -1000024   -13    14
    0.023703003   3    1000024    15   -16
    0.023703003   3   -1000024   -15    16
    0.01581006   3    1000022    5   -5
    0.014363696   3    1000022    11   -11
    0.014349492   3    1000022    13   -13
    0.010877134   3    1000022    15   -15

DECAY 1000025  6.9678352
    0.23763848   2    1000023    23
    0.21707236   2    1000024   -24
    0.21707236   2   -1000024    24
    0.16715203   2    1000022    25
    0.15004097   2    1000023    25
    0.01008204   2    1000022    23
    0.00045489359   3    1000024    5   -6
    0.00045489359   3   -1000024   -5    6

DECAY 1000035  33.924673
    0.057106101   2    1000024   -24
    0.057106101   2   -1000024    24
    0.045543811   2    2000001   -1
    0.045543811   2   -2000001    1
    0.045543743   2    2000003   -3
    0.045543743   2   -2000003    3
    0.044308847   2    1000012   -12
    0.044308847   2   -1000012    12
    0.044308846   2    1000014   -14
    0.044308846   2   -1000014    14
    0.044157348   2    1000013   -13
    0.044157348   2   -1000013    13
    0.044157347   2    1000011   -11
    0.044157347   2   -1000011    11
    0.041102421   2    1000022    25
    0.034720991   2    1000023    25
    0.033528142   2    1000022    23
    0.024374469   2    1000023    23
    0.017432338   2    1000006   -6
    0.017432338   2   -1000006    6
    0.016640637   2    2000002   -2
    0.016640637   2   -2000002    2
    0.016640538   2    2000004   -4
    0.016640538   2   -2000004    4
    0.016259509   2    1000015   -15
    0.016259509   2   -1000015    15
    0.015654267   2    1000005   -5
    0.015654267   2   -1000005    5
    0.0056569297   2    2000006   -6
    0.0056569297   2   -2000006    6
    0.0043093372   2    2000013   -13
    0.0043093372   2   -2000013    13
    0.0043092559   2    2000011   -11
    0.0043092559   2   -2000011    11
    0.0037756709   3    1000024    5   -6
    0.0037756709   3   -1000024   -5    6
    0.0026841302   3    1000022    6   -6
    0.0026130495   3    1000023    6   -6
    0.0025011749   2    1000037   -24
    0.0025011749   2   -1000037    24
    0.0019545656   2    1000025    25
    0.0016890443   2    1000025    23
    0.00015954875   3    1000037    5   -6
    0.00015954875   3   -1000037   -5    6
    0.00011052232   3    1000025    6   -6

DECAY 1000021  204.30225
    0.14672332   2    1000006   -6
    0.14672332   2   -1000006    6
    0.14111413   2    1000005   -5
    0.14111413   2   -1000005    5
    0.087842301   2    2000001   -1
    0.087842301   2   -2000001    1
    0.087842094   2    2000003   -3
    0.087842094   2   -2000003    3
    0.03608202   2    1000006   -4
    0.03608202   2   -1000006    4
    0.00017391717   3    1000024    5   -6
    0.00017391717   3   -1000024   -5    6
    0.00017194647   3    1000023    6   -6
    0.00016611783   3    1000022    6   -6

DECAY 25  0.0041027402
    0.5466666   2   -5    5
    0.25614006   2   -24    24
    0.070646075   2    21    21
    0.063087716   2   -15    15
    0.032009975   2    23    23
    0.027034137   2   -4    4
    0.0023520312   2    22    22
    0.0016384196   2    22    23
    0.0002188538   2   -13    13
    0.00020542356   2   -3    3
    5.6797469e-07   2   -1    1
    1.3930845e-07   2   -2    2
    4.9200569e-09   2   -11    11

DECAY 35  46.351487
    0.22268328   2   -5    5
    0.2225415   2   -1000024    1000037
    0.2225415   2   -1000037    1000024
    0.13693877   2    1000023    1000025
    0.085557206   2    1000022    1000025
    0.04479288   2   -15    15
    0.029045408   2   -1000024    1000024
    0.0092243146   2    1000022    1000022
    0.008723652   2   -1000037    1000037
    0.006948968   2   -6    6
    0.004455113   2    1000022    1000023
    0.0044235649   2    1000025    1000025
    0.0014485839   2   -1000006    1000006
    0.00039870348   2    1000023    1000023
    0.00015954692   2   -13    13
    8.7524962e-05   2   -3    3
    1.3878313e-05   2    25    25
    8.4404887e-06   2   -1000005    1000005
    2.2283169e-06   2    23    23
    6.6643585e-07   2    21    21
    6.2186252e-07   2   -24    24
    3.5763898e-07   2   -1000011    1000011
    3.5706748e-07   2   -1000013    1000013
    2.4198509e-07   2   -1    1
    1.2387086e-07   2    22    23
    1.015097e-07   2   -4    4
    6.3250227e-08   2    22    22
    3.1527406e-08   2   -1000001    1000001
    3.149828e-08   2   -1000003    1000003
    3.5832728e-09   2   -11    11
    5.2333559e-13   2   -2    2

DECAY 36  45.79654
    0.21773585   2   -1000024    1000037
    0.21773585   2   -1000037    1000024
    0.21665954   2   -5    5
    0.12472508   2    1000022    1000025
    0.095102084   2    1000023    1000025
    0.043581519   2   -15    15
    0.037244025   2   -1000024    1000024
    0.016055469   2   -1000037    1000037
    0.012707957   2    1000022    1000022
    0.0080844497   2    1000025    1000025
    0.0067894844   2   -6    6
    0.0029688232   2    1000022    1000023
    0.00035440598   2    1000023    1000023
    0.00015523241   2   -13    13
    8.5156265e-05   2   -3    3
    1.0564843e-05   2    21    21
    3.8390815e-06   2    23    25
    2.3543685e-07   2   -1    1
    2.0307444e-07   2    22    23
    1.3091119e-07   2    22    22
    9.7856728e-08   2   -4    4
    3.4863693e-09   2   -11    11
    5.0452861e-13   2   -2    2
    1.1524223e-37   2    25    25

DECAY 37  45.886741
    0.24888851   2    1000022    1000037
    0.23848583   2    1000024    1000025
    0.23001903   2    1000023    1000037
    0.2241775   2   -5    6
    0.044413419   2   -15    16
    0.012497722   2    1000023    1000024
    0.00050822154   2    1000022    1000024
    0.00042607759   2   -1000005    1000006
    0.00031983997   2   -5    4
    0.00015701728   2   -13    14
    8.0931283e-05   2   -3    4
    1.2242488e-05   2   -3    6
    3.8367978e-06   2    24    25
    3.7881819e-06   2   -3    2
    2.2839862e-06   2   -5    2
    1.4198651e-06   2   -1000011    1000012
    1.419055e-06   2   -1000013    1000014
    5.5600036e-07   2   -1    6
    2.242907e-07   2   -1    2
    1.1276415e-07   2    1000025    1000037
    1.5559909e-08   2   -1    4
    3.6726505e-09   2   -11    12
    1.9156671e-12   2   -1000003    1000006
    1.034499e-13   2    24    35
    2.4340938e-16   2   -1000001    1000006

DECAY 6  2.43
    1   2    5    24

DECAY 15 -1
