BLOCK SPINFO
   1   SPheno
   2   v4.0.5be

BLOCK SPHENOINFO
   1   2
   2   2

BLOCK MODSEL
   1   0

BLOCK MINPAR
   3    36.693601
   4    1

BLOCK EXTPAR
   0    1516.7811
   1    960.65408
   2    4128.8283
   3    2588.2988
   11    4217.3992
   12    3921.2636
   13   -699.90871
   23    1949.433
   25    35.393708
   26    1978.2038
   31    4809.2496
   32    4809.2496
   33    4106.3701
   34    1187.6114
   35    1187.6114
   36    4479.2132
   41    3275.2258
   42    3275.2258
   43    1711.3909
   44    2638.3901
   45    2638.3901
   46    1425.6008
   47    1778.4746
   48    1778.4746
   49    1684.8708

BLOCK SMINPUTS
   1    127.90897
   2    1.1663787e-05
   3    0.1184
   4    91.1876
   5    4.18
   6    173.2
   7    1.777
   8    0
   11    0.00051099893
   12    0
   13    0.10565837
   14    0
   21    0.005
   22    0.0025
   23    0.095
   24    1.27

BLOCK GAUGE Q=  1516.7811
   1    0.35536298
   2    0.66519887
   3    1.219778

BLOCK YU Q=  1516.7811
   1   1    8.3877179e-06
   2   2    0.0042609607
   3   3    1.0133037

BLOCK YD Q=  1516.7811
   1   1    0.0005965545
   2   2    0.011334535
   3   3    0.59159513

BLOCK YE Q=  1516.7811
   1   1    0.00010410312
   2   2    0.021525224
   3   3    0.36201886

BLOCK AU Q=  1516.7811
   1   1    0
   2   2    0
   3   3    4217.3993

BLOCK AD Q=  1516.7811
   1   1    0
   2   2    0
   3   3    3921.2631

BLOCK AE Q=  1516.7811
   1   1    0
   2   2    0
   3   3   -699.90871

BLOCK MSOFT Q=  1516.7811
   1    960.65408
   2    4128.8283
   3    2588.2988
   21    201184.11
   22   -3552603.3
   31    4809.2496
   32    4809.2496
   33    4106.3701
   34    1187.6114
   35    1187.6114
   36    4479.2132
   41    3275.2258
   42    3275.2258
   43    1711.3909
   44    2638.3901
   45    2638.3901
   46    1425.6008
   47    1778.4746
   48    1778.4746
   49    1684.8708

BLOCK MASS
   6    173.2
   23    91.1876
   24    80.429995
   15    1.777
   25    123.55699
   35    1977.425
   36    1978.2038
   37    1980.1153
   1000001    3308.7952
   2000001    1829.6754
   1000002    3308.0573
   2000002    2694.8507
   1000003    3308.7943
   2000003    1829.6766
   1000004    3308.0564
   2000004    2694.8509
   1000005    1663.3074
   2000005    1743.9243
   1000006    1296.586
   2000006    1774.3712
   1000011    4811.7057
   2000011    1174.6537
   1000012    4810.7129
   1000013    4811.7041
   2000013    1174.743
   1000014    4810.7138
   1000015    4111.4663
   2000015    4480.3618
   1000016    4110.4761
   1000021    2669.6043
   1000022    960.44408
   1000023   -1947.4228
   1000025    1947.9926
   1000035    4112.1996
   1000024    1946.5297
   1000037    4112.2984

BLOCK ALPHA
      -0.027233308

BLOCK HMIX Q=  1516.7811
   1    1949.433
   2    35.393708
   3    243.98148
   4    3913290.3

BLOCK STOPMIX
   1   1   -0.48065262
   1   2    0.87691109
   2   1   -0.87691109
   2   2   -0.48065262

BLOCK SBOTMIX
   1   1    0.93212916
   1   2    0.36212598
   2   1   -0.36212598
   2   2    0.93212916

BLOCK STAUMIX
   1   1    0.99922045
   1   2    0.039477757
   2   1   -0.039477757
   2   2    0.99922045

BLOCK NMIX
   1   1    0.99941449
   1   2   -0.0003384553
   1   3    0.030543606
   1   4   -0.015415957
   2   1   -0.01069752
   2   2    0.0087047342
   2   3    0.70700378
   2   4    0.70707527
   3   1    0.03249768
   3   2    0.024866658
   3   3   -0.70645747
   3   4    0.70657158
   4   1    0.00037686333
   4   2   -0.99965282
   4   3   -0.011427261
   4   4    0.023738435

BLOCK UMIX
   1   1   -0.016059151
   1   2    0.99987104
   2   1    0.99987104
   2   2    0.016059151

BLOCK VMIX
   1   1   -0.033630665
   1   2    0.99943433
   2   1    0.99943433
   2   2    0.033630665

BLOCK HIGGSBOUNDSINPUTHIGGSCOUPLINGSFERMIONS
       0, 1252.7145,3,36,15,15

BLOCK HIGGSBOUNDSINPUTHIGGSCOUPLINGSBOSONS
       0,4,36,21,21,23

BLOCK SPHENOLOWENERGY
   1    0.00036122091
   2    1.587777e-06
   3    3.5259223e-05
   4    4.5267197e-15
   5    1.9337607e-10
   6    4.0467107e-08
   7    1.5146805e-13
   8    6.4706995e-09
   9    1.371879e-06
   10    9.2784095e-05
   11    0.95842418
   12    0.54410337
   13    19.424213
   14    0
   15    0
   16    0.0021750374
   17    2.2818415e-15
   18    2.4810962e-11
   19    8.2924315e-11
   20    2.8434351e-16
   21    1.2146599e-11
   22    1.0663513e-08
   23    0
   24    0
   25    0
   26    0
   27    0
   28    0
   29    0
   30    0
   31    0
   39    7.2272977e-05
   40    0
   41    0
   42    0

BLOCK FWCOEF Q=  160
   305   4422   0   0   -0.18881911
   305   4422   0   2   -0.23301349
   305   4322   0   2   -0.0006149842
   305   6421   0   0   -0.095227835
   305   6421   0   2   -0.13141181
   305   6321   0   2   -0.00053131241
   3051111   4133   0   0    1.5925814
   3051111   4133   0   2    1.5932844
   3051111   4233   0   2    0.00010677537
   3051111   4137   0   0   -4.4152735
   3051111   4137   0   2   -4.4142954
   3051111   4237   0   2   -0.00083081052
   3051313   4133   0   0    1.5925814
   3051313   4133   0   2    1.5932837
   3051313   4233   0   2    0.00010677417
   3051313   4137   0   0   -4.4152735
   3051313   4137   0   2   -4.4142961
   3051313   4237   0   2   -0.00083081021
   3051212   4137   0   0    1.5053501
   3051212   4137   0   2    1.5051371
   3051212   4237   0   2    0.00018104032
   3051414   4137   0   0    1.5053501
   3051414   4137   0   2    1.5051371
   3051414   4237   0   2    0.00018104051
   3051616   4137   0   0    1.5053501
   3051616   4137   0   2    1.5051371
   3051616   4237   0   2    0.00018109325

BLOCK IMFWCOEF Q=  160
   305   4422   0   0    3.8552938e-07
   305   4422   0   2    1.376887e-05
   305   4322   0   2   -6.7759691e-06
   305   6421   0   0    3.3023141e-07
   305   6421   0   2   -1.2823836e-05
   305   6321   0   2   -4.1485586e-06
   3051111   4133   0   2   -1.2761529e-06
   3051111   4233   0   2    2.9760996e-06
   3051111   4137   0   2    1.1770674e-05
   3051111   4237   0   2   -2.3165995e-05
   3051313   4133   0   2   -1.2761489e-06
   3051313   4233   0   2    2.9760937e-06
   3051313   4137   0   2    1.1770678e-05
   3051313   4237   0   2   -2.3166005e-05
   3051212   4137   0   2   -2.5625677e-06
   3051212   4237   0   2    5.0480574e-06
   3051414   4137   0   2   -2.5625677e-06
   3051414   4237   0   2    5.0480574e-06
   3051616   4137   0   2   -2.5634411e-06
   3051616   4237   0   2    5.0480574e-06

DECAY 23  2.4952


DECAY 24  2.085


DECAY 2000011  0.6477088
    1   2    1000022    11

DECAY 1000011  10.208242
    0.54452536   2    1000022    11
    0.3014761   2   -1000037    12
    0.15065079   2    1000035    11
    0.0025862306   2    1000025    11
    0.00074851317   2   -1000024    12

DECAY 2000013  0.64815525
    1   2    1000022    13

DECAY 1000013  10.242657
    0.54269931   2    1000022    13
    0.30046194   2   -1000037    14
    0.15014406   2    1000035    13
    0.0040881998   2    1000025    13
    0.0015263948   2    1000023    13
    0.00074599773   2   -1000024    14
    0.00033369153   2    2000013    25

DECAY 1000015  11.139789
    0.41759251   2    1000022    15
    0.29086744   2    1000025    15
    0.28878556   2    1000023    15
    0.0027544914   2   -1000024    16

DECAY 2000015  36.480177
    0.56015625   2    1000022    15
    0.2098704   2   -1000024    16
    0.10556789   2    1000023    15
    0.1054283   2    1000025    15
    0.0096421517   2    1000016   -24
    0.0046729234   2    1000015    23
    0.0045684684   2    1000015    25

DECAY 1000012  10.211536
    0.54560042   2    1000022    12
    0.30038044   2    1000037    11
    0.15035561   2    1000035    12
    0.0032804594   2    1000024    11
    0.00030142057   2    1000023    12

DECAY 1000014  10.242556
    0.54394819   2    1000022    14
    0.29947152   2    1000037    13
    0.1499006   2    1000035    14
    0.0062973569   2    1000024    13
    0.00030050782   2    1000023    14

DECAY 1000016  11.090344
    0.58357309   2    1000024    15
    0.41616763   2    1000022    16
    0.0002040163   2    1000023    16

DECAY 2000001  0.53548515
    1   2    1000022    1

DECAY 1000001  32.213139
    0.98775397   2    1000021    1
    0.012053909   2    1000022    1

DECAY 2000003  0.53548791
    1   2    1000022    3

DECAY 1000003  32.21819
    0.98759686   2    1000021    3
    0.012052216   2    1000022    3
    0.00012616509   2    1000025    3
    0.00011548174   2   -1000024    4

DECAY 1000005  35.406125
    0.99455181   2    1000006   -24
    0.0054481936   2    1000022    5

DECAY 2000005  9.6790996
    0.96076209   2    1000006   -24
    0.039237908   2    1000022    5

DECAY 2000002  4.6565359
    0.9837683   2    1000022    2
    0.015886766   2    1000021    2
    0.00031117453   2    1000025    2

DECAY 1000002  32.164089
    0.98739442   2    1000021    2
    0.01197715   2    1000022    2
    0.00043797631   2    1000024    1
    0.00018151603   2    1000025    2

DECAY 2000004  4.6568635
    0.98369838   2    1000022    4
    0.015861125   2    1000021    4
    0.00033521497   2    1000025    4

DECAY 1000004  32.168026
    0.98726825   2    1000021    4
    0.011975687   2    1000022    4
    0.00054986462   2    1000024    3
    0.00018934842   2    1000025    4

DECAY 1000006  0.30898045
    0.98595546   2    1000022    6
    0.014040275   2    1000022    4

DECAY 2000006  47.495276
    0.67967245   2    1000006    23
    0.27539013   2    1000006    25
    0.03124776   2    1000005    24
    0.013689651   2    1000022    6

DECAY 1000024  21.692225
    0.70165376   2    1000006   -5
    0.19231564   2   -1000005    6
    0.058234927   2    1000022    24
    0.041231235   2    2000006   -5
    0.0048390633   2   -2000005    6
    0.0015522099   3    1000022   -5    6
    0.00016712998   2   -2000013    14

DECAY 1000037  146.89532
    0.22025061   2   -1000005    6
    0.17766094   2    2000006   -5
    0.08274195   2    1000006   -5
    0.060689072   2    1000024    25
    0.052293265   2    1000025    24
    0.052109697   2    1000024    23
    0.05207317   2    1000023    24
    0.045982646   2    1000004   -3
    0.045982549   2    1000002   -1
    0.045947479   2   -1000003    4
    0.045947467   2   -1000001    2
    0.034737714   2   -2000005    6
    0.019084388   2    37    1000023
    0.017307396   2    1000024    35
    0.017269277   2    1000024    36
    0.017107236   2    37    1000025
    0.005530812   3    1000024    6   -6
    0.003625684   3    1000025   -5    6
    0.0033900147   3    1000023   -5    6
    0.00015323764   3    1000024    5   -5

DECAY 1000022 -1


DECAY 1000023  17.749309
    0.37101144   2    1000006   -6
    0.37101144   2   -1000006    6
    0.065508221   2    1000022    23
    0.054462147   2    1000022    25
    0.041888462   2    1000005   -5
    0.041888462   2   -1000005    5
    0.022380746   2    2000005   -5
    0.022380746   2   -2000005    5
    0.0091935052   3    1000022    6   -6
    0.00011503108   2    2000013   -13
    0.00011503108   2   -2000013    13

DECAY 1000025  16.878101
    0.38841893   2    1000006   -6
    0.38841893   2   -1000006    6
    0.063754185   2    1000022    25
    0.044920643   2    1000005   -5
    0.044920643   2   -1000005    5
    0.023225076   2    2000005   -5
    0.023225076   2   -2000005    5
    0.0074596915   2    1000022    23
    0.0069672189   2    2000006   -6
    0.0069672189   2   -2000006    6
    0.00098873759   3    1000022    6   -6
    0.00023145136   2    2000013   -13
    0.00023145136   2   -2000013    13
    0.00012401887   2    2000011   -11
    0.00012401887   2   -2000011    11

DECAY 1000035  153.40329
    0.1063311   2    1000005   -5
    0.1063311   2   -1000005    5
    0.084308097   2    2000006   -6
    0.084308097   2   -2000006    6
    0.052153291   2    1000025    25
    0.049968312   2    1000024   -24
    0.049968312   2   -1000024    24
    0.046810629   2    1000023    25
    0.044606938   2    1000023    23
    0.039330767   2    1000006   -6
    0.039330767   2   -1000006    6
    0.022018164   2    1000004   -4
    0.022018164   2   -1000004    4
    0.022018155   2    1000002   -2
    0.022018155   2   -1000002    2
    0.021988083   2    1000003   -3
    0.021988083   2   -1000003    3
    0.02198804   2    1000001   -1
    0.02198804   2   -1000001    1
    0.01800417   2    1000023    35
    0.016780972   2    2000005   -5
    0.016780972   2   -2000005    5
    0.01643358   2    37   -1000024
    0.01643358   2   -37    1000024
    0.016088685   2    1000025    35
    0.0054586196   2    1000025    23
    0.0039296319   3    1000024    5   -6
    0.0039296319   3   -1000024   -5    6
    0.0029181621   3    1000025    6   -6
    0.0026986983   3    1000023    6   -6
    0.00042120307   2    1000025    36
    0.00037881518   2    1000023    36

DECAY 1000021  177.60844
    0.14785995   2    1000006   -6
    0.14785995   2   -1000006    6
    0.082978174   2    1000005   -5
    0.082978174   2   -1000005    5
    0.073374814   2    2000005   -5
    0.073374814   2   -2000005    5
    0.062550168   2    2000001   -1
    0.062550168   2   -2000001    1
    0.062550021   2    2000003   -3
    0.062550021   2   -2000003    3
    0.055156743   2    2000006   -6
    0.055156743   2   -2000006    6
    0.015364305   2    1000006   -4
    0.015364305   2   -1000006    4

DECAY 25  0.0036794133
    0.59497727   2   -5    5
    0.20652779   2   -24    24
    0.072336861   2    21    21
    0.068117593   2   -15    15
    0.029537797   2   -4    4
    0.024288418   2    23    23
    0.0023687806   2    22    22
    0.0013856018   2    22    23
    0.00023626218   2   -13    13
    0.00022285822   2   -3    3
    6.161799e-07   2   -1    1
    1.5221991e-07   2   -2    2
    5.3114551e-09   2   -11    11

DECAY 35  21.19032
    0.7170535   2   -5    5
    0.28153571   2   -15    15
    0.00097726197   2   -13    13
    0.0003934729   2   -3    3
    2.4013143e-05   2   -6    6
    1.0966878e-05   2    25    25
    2.5485639e-06   2    1000022    1000022
    1.3874129e-06   2    21    21
    1.087997e-06   2   -1    1
    2.1951592e-08   2   -11    11
    1.3991971e-08   2    23    23
    7.5396322e-09   2   -24    24
    4.2321061e-09   2   -4    4
    2.4616519e-09   2    22    23
    8.7357483e-10   2    22    22
    2.1857306e-14   2   -2    2

DECAY 36  20.5769
    0.71705015   2   -5    5
    0.28149555   2   -15    15
    0.00097712334   2   -13    13
    0.00039336895   2   -3    3
    4.8766772e-05   2    1000022    1000022
    2.7446277e-05   2    21    21
    6.4077276e-06   2   -6    6
    1.0877083e-06   2   -1    1
    4.1833306e-08   2    22    22
    2.1948408e-08   2   -11    11
    1.9419547e-08   2    23    25
    1.2288893e-08   2    22    23
    6.4459914e-09   2   -4    4
    3.3280632e-14   2   -2    2
    6.8826474e-39   2    25    25

DECAY 37  17.651826
    0.69538692   2   -5    6
    0.30204826   2   -15    16
    0.0010678494   2   -13    14
    0.0010302645   2   -5    4
    0.00043218857   2   -3    4
    2.0141563e-05   2   -3    2
    7.3571546e-06   2   -5    2
    5.4841792e-06   2   -3    6
    1.1999345e-06   2   -1    2
    2.2258061e-07   2   -1    6
    5.781518e-08   2   -1    4
    2.4977109e-08   2   -11    12
    2.2736699e-08   2    24    25
    1.0860357e-11   2    24    35
    1.9669201e-12   2    24    36

DECAY 6  2.43
    1   2    5    24

DECAY 15 -1
