# SUSY Les Houches Accord 2 - MSSM spectrum + Decays
# SPheno v4.0.5be
# W. Porod, Comput. Phys. Commun. 153 (2003) 275-315, hep-ph/0301101;
# W. Porod, F.~Staub, Comput. Phys. Commun. 183 (2012) 2458
#                     arXiv:1104.1573 [hep-ph] 
# in case of problems send email to porod@physik.uni-wuerzburg.de
# Created: 07.09.2021,  15:26
Block SPINFO         # Program information
     1   SPheno      # spectrum calculator
     2   v4.0.5be    # version number
#
Block SPhenoINFO     # SPheno specific information
    1      2         # using 2-loop RGEs
    2      2         # using pole masses for boundary conditions at mZ
Block MODSEL  # Model selection
    1    0    # general MSSM
Block MINPAR  # Input parameters
    3    4.49425498E+01  # tanb at m_Z    
    4   -1.00000000E+00  # Sign(mu)
Block EXTPAR  # non-universal input parameters
    0    4.62392871E+03  # scale for input parameters
    1    1.26003805E+02  # M_1
    2   -2.28170510E+02  # M_2
    3    1.10276774E+03  # M_3
   11    7.64384031E+03  # A_t
   12   -1.90593140E+03  # A_b
   13   -8.27802091E+02  # A_tau
   23   -1.06462246E+02  # mu
   25    4.39671289E+01  # tan(beta)
   26    3.17880381E+03  # m_A, pole mass
   31    1.00000000E+04  # M_L11
   32    1.00000000E+04  # M_L22
   33    1.00000000E+04  # M_L33
   34    1.00000000E+04  # M_E11
   35    1.00000000E+04  # M_E22
   36    1.00000000E+04  # M_E33
   41    1.00000000E+04  # M_Q11
   42    1.00000000E+04  # M_Q22
   43    4.51153028E+03  # M_Q33
   44    1.00000000E+04  # M_U11
   45    1.00000000E+04  # M_U22
   46    4.92676662E+03  # M_U33
   47    1.00000000E+04  # M_D11
   48    1.00000000E+04  # M_D22
   49    4.50854783E+03  # M_D33
Block SMINPUTS  # SM parameters
         1     1.27908970E+02  # alpha_em^-1(MZ)^MSbar
         2     1.16637870E-05  # G_mu [GeV^-2]
         3     1.18400000E-01  # alpha_s(MZ)^MSbar
         4     9.11876000E+01  # m_Z(pole)
         5     4.18000000E+00  # m_b(m_b), MSbar
         6     1.73200000E+02  # m_t(pole)
         7     1.77700000E+00  # m_tau(pole)
         8     0.00000000E+00  # m_nu_3
        11     5.10998930E-04  # m_e(pole)
        12     0.00000000E+00  # m_nu_1
        13     1.05658372E-01  # m_muon(pole)
        14     0.00000000E+00  # m_nu_2
        21     5.00000000E-03  # m_d(2 GeV), MSbar
        22     2.50000000E-03  # m_u(2 GeV), MSbar
        23     9.50000000E-02  # m_s(2 GeV), MSbar
        24     1.27000000E+00  # m_c(m_c), MSbar
Block gauge Q=  4.62392871E+03  # (SUSY scale)
   1    3.55362975E-01  # g'(Q)^DRbar
   2    6.65198874E-01  # g(Q)^DRbar
   3    1.21977796E+00  # g3(Q)^DRbar
Block Yu Q=  4.62392871E+03  # (SUSY scale)
  1  1     8.38654048E-06   # Y_u(Q)^DRbar
  2  2     4.26036256E-03   # Y_c(Q)^DRbar
  3  3     1.01316145E+00   # Y_t(Q)^DRbar
Block Yd Q=  4.62392871E+03  # (SUSY scale)
  1  1     7.40953923E-04   # Y_d(Q)^DRbar
  2  2     1.40781245E-02   # Y_s(Q)^DRbar
  3  3     7.34794110E-01   # Y_b(Q)^DRbar
Block Ye Q=  4.62392871E+03  # (SUSY scale)
  1  1     1.29301878E-04   # Y_e(Q)^DRbar
  2  2     2.67355274E-02   # Y_mu(Q)^DRbar
  3  3     4.49647589E-01   # Y_tau(Q)^DRbar
Block Au Q=  4.62392871E+03  # (SUSY scale)
  1  1     0.00000000E+00   # A_u(Q)^DRbar
  2  2     0.00000000E+00   # A_c(Q)^DRbar
  3  3     7.64384036E+03   # A_t(Q)^DRbar
Block Ad Q=  4.62392871E+03  # (SUSY scale)
  1  1     0.00000000E+00   # A_d(Q)^DRbar
  2  2     0.00000000E+00   # A_s(Q)^DRbar
  3  3    -1.90593138E+03   # A_b(Q)^DRbar
Block Ae Q=  4.62392871E+03  # (SUSY scale)
  1  1     0.00000000E+00   # A_e(Q)^DRbar
  2  2     0.00000000E+00   # A_mu(Q)^DRbar
  3  3    -8.27802087E+02   # A_tau(Q)^DRbar
Block MSOFT Q=  4.62392871E+03  # soft SUSY breaking masses at Q
   1    1.26003805E+02  # M_1
   2   -2.28170510E+02  # M_2
   3    1.10276774E+03  # M_3
  21    1.04391561E+07  # M^2_(H,d)
  22    4.56837627E+05  # M^2_(H,u)
  31    1.00000000E+04  # M_(L,11)
  32    1.00000000E+04  # M_(L,22)
  33    1.00000000E+04  # M_(L,33)
  34    1.00000000E+04  # M_(E,11)
  35    1.00000000E+04  # M_(E,22)
  36    1.00000000E+04  # M_(E,33)
  41    1.00000000E+04  # M_(Q,11)
  42    1.00000000E+04  # M_(Q,22)
  43    4.51153028E+03  # M_(Q,33)
  44    1.00000000E+04  # M_(U,11)
  45    1.00000000E+04  # M_(U,22)
  46    4.92676662E+03  # M_(U,33)
  47    1.00000000E+04  # M_(D,11)
  48    1.00000000E+04  # M_(D,22)
  49    4.50854783E+03  # M_(D,33)
Block MASS  # Mass spectrum
#   PDG code      mass          particle
         6     1.73200000E+02  # m_t(pole)
        23     9.11876000E+01  # m_Z(pole)
        24     8.04299946E+01  # W+
        15     1.77700000E+00  # m_tau(pole)
        25     1.30407530E+02  # h0
        35     3.17749284E+03  # H0
        36     3.17880381E+03  # A0
        37     3.18175025E+03  # H+
   1000001     1.01239360E+04  # ~d_L
   2000001     1.00984109E+04  # ~d_R
   1000002     1.01235734E+04  # ~u_L
   2000002     1.01011328E+04  # ~u_R
   1000003     1.01239352E+04  # ~s_L
   2000003     1.00984093E+04  # ~s_R
   1000004     1.01235726E+04  # ~c_L
   2000004     1.01011328E+04  # ~c_R
   1000005     4.46768742E+03  # ~b_1
   2000005     4.51685781E+03  # ~b_2
   1000006     4.43459316E+03  # ~t_1
   2000006     4.82134797E+03  # ~t_2
   1000011     1.00214203E+04  # ~e_L-
   2000011     1.00094541E+04  # ~e_R-
   1000012     1.00206463E+04  # ~nu_eL
   1000013     1.00214159E+04  # ~mu_L-
   2000013     1.00094452E+04  # ~mu_R-
   1000014     1.00206418E+04  # ~nu_muL
   1000015     1.00069508E+04  # ~tau_1-
   2000015     1.00201601E+04  # ~tau_2-
   1000016     1.00193918E+04  # ~nu_tauL
   1000021     1.42453224E+03  # ~g
   1000022     1.03947389E+02  # ~chi_10
   1000023     1.13981340E+02  # ~chi_20
   1000025     1.66704259E+02  # ~chi_30
   1000035     2.84305942E+02  # ~chi_40
   1000024     1.17219774E+02  # ~chi_1+
   1000037     2.85121358E+02  # ~chi_2+
# Higgs mixing
Block alpha # Effective Higgs mixing angle
          -2.23067437E-02   # alpha
Block Hmix Q=  4.62392871E+03  # Higgs mixing parameters
   1   -1.06462246E+02  # mu
   2    4.39671289E+01  # tan[beta](Q)
   3    2.42749325E+02  # v(Q)
   4    1.01047937E+07  # m^2_A(Q)
Block stopmix # stop mixing matrix
   1  1    -9.59008689E-01   # Re[R_st(1,1)]
   1  2     2.83376664E-01   # Re[R_st(1,2)]
   2  1    -2.83376664E-01   # Re[R_st(2,1)]
   2  2    -9.59008689E-01   # Re[R_st(2,2)]
Block sbotmix # sbottom mixing matrix
   1  1     9.99984782E-01   # Re[R_sb(1,1)]
   1  2     5.51687612E-03   # Re[R_sb(1,2)]
   2  1    -5.51687612E-03   # Re[R_sb(2,1)]
   2  2     9.99984782E-01   # Re[R_sb(2,2)]
Block staumix # stau mixing matrix
   1  1    -2.33893228E-02   # Re[R_sta(1,1)]
   1  2     9.99726432E-01   # Re[R_sta(1,2)]
   2  1    -9.99726432E-01   # Re[R_sta(2,1)]
   2  2    -2.33893228E-02   # Re[R_sta(2,2)]
Block Nmix # neutralino mixing matrix
   1  1     7.55954456E-01   # Re[N(1,1)]
   1  2     8.72976555E-02   # Re[N(1,2)]
   1  3    -5.12407588E-01   # Re[N(1,3)]
   1  4    -3.97932713E-01   # Re[N(1,4)]
   2  1     1.14394006E-01   # Re[N(2,1)]
   2  2     3.57241794E-01   # Re[N(2,2)]
   2  3     7.00822661E-01   # Re[N(2,3)]
   2  4    -6.06745342E-01   # Re[N(2,4)]
   3  1     6.43449789E-01   # Re[N(3,1)]
   3  2    -1.12023767E-01   # Re[N(3,2)]
   3  3     4.67687410E-01   # Re[N(3,3)]
   3  4     5.95559847E-01   # Re[N(3,4)]
   4  1     3.76728135E-02   # Re[N(4,1)]
   4  2    -9.23151177E-01   # Re[N(4,2)]
   4  3     1.65995626E-01   # Re[N(4,3)]
   4  4    -3.44700037E-01   # Re[N(4,4)]
Block Umix # chargino mixing matrix
   1  1    -2.38960276E-01   # Re[U(1,1)]
   1  2    -9.71029344E-01   # Re[U(1,2)]
   2  1    -9.71029344E-01   # Re[U(2,1)]
   2  2     2.38960276E-01   # Re[U(2,2)]
Block Vmix # chargino mixing matrix
   1  1     4.98897970E-01   # Re[V(1,1)]
   1  2     8.66660727E-01   # Re[V(1,2)]
   2  1     8.66660727E-01   # Re[V(2,1)]
   2  2    -4.98897970E-01   # Re[V(2,2)]
DECAY        23     2.49520000E+00   # Z
DECAY        24     2.08500000E+00   # W
DECAY   2000011     5.02758224E+01   # ~e^-_R
#    BR                NDA      ID1      ID2
     5.71548778E-01    2     1000022        11   # BR(~e^-_R -> chi^0_1 e^-)
     1.30873188E-02    2     1000023        11   # BR(~e^-_R -> chi^0_2 e^-)
     4.13946375E-01    2     1000025        11   # BR(~e^-_R -> chi^0_3 e^-)
     1.41746171E-03    2     1000035        11   # BR(~e^-_R -> chi^0_4 e^-)
DECAY   1000011     1.44717626E+02   # ~e^-_L
#    BR                NDA      ID1      ID2
     7.35081537E-02    2     1000022        11   # BR(~e^-_L -> chi^0_1 e^-)
     5.33316974E-02    2     1000023        11   # BR(~e^-_L -> chi^0_2 e^-)
     1.63568355E-02    2     1000025        11   # BR(~e^-_L -> chi^0_3 e^-)
     2.48148556E-01    2     1000035        11   # BR(~e^-_L -> chi^0_4 e^-)
     3.47995460E-02    2    -1000024        12   # BR(~e^-_L -> chi^-_1 nu_e)
     5.73855211E-01    2    -1000037        12   # BR(~e^-_L -> chi^-_2 nu_e)
#    BR                NDA      ID1      ID2       ID3
DECAY   2000013     5.05603449E+01   # ~mu^-_R
#    BR                NDA      ID1      ID2
     5.69070941E-01    2     1000022        13   # BR(~mu^-_R -> chi^0_1 mu^-)
     1.43959540E-02    2     1000023        13   # BR(~mu^-_R -> chi^0_2 mu^-)
     4.12231977E-01    2     1000025        13   # BR(~mu^-_R -> chi^0_3 mu^-)
     1.48692781E-03    2     1000035        13   # BR(~mu^-_R -> chi^0_4 mu^-)
     2.65370848E-03    2    -1000024        14   # BR(~mu^-_R -> chi^-_1 nu_mu)
     1.60492223E-04    2    -1000037        14   # BR(~mu^-_R -> chi^-_2 nu_mu)
DECAY   1000013     1.44860016E+02   # ~mu^-_L
#    BR                NDA      ID1      ID2
     7.36941000E-02    2     1000022        13   # BR(~mu^-_L -> chi^0_1 mu^-)
     5.37622927E-02    2     1000023        13   # BR(~mu^-_L -> chi^0_2 mu^-)
     1.65558064E-02    2     1000025        13   # BR(~mu^-_L -> chi^0_3 mu^-)
     2.47931589E-01    2     1000035        13   # BR(~mu^-_L -> chi^0_4 mu^-)
     3.47653245E-02    2    -1000024        14   # BR(~mu^-_L -> chi^-_1 nu_mu)
     5.73290887E-01    2    -1000037        14   # BR(~mu^-_L -> chi^-_2 nu_mu)
#    BR                NDA      ID1      ID2       ID3
DECAY   1000015     1.30767865E+02   # ~tau^-_1
#    BR                NDA      ID1      ID2
     3.02853588E-01    2     1000022        15   # BR(~tau^-_1 -> chi^0_1 tau^-)
     1.59323749E-01    2     1000023        15   # BR(~tau^-_1 -> chi^0_2 tau^-)
     2.23111451E-01    2     1000025        15   # BR(~tau^-_1 -> chi^0_3 tau^-)
     6.80826776E-03    2     1000035        15   # BR(~tau^-_1 -> chi^0_4 tau^-)
     2.94951159E-01    2    -1000024        16   # BR(~tau^-_1 -> chi^-_1 nu_tau)
     1.29517848E-02    2    -1000037        16   # BR(~tau^-_1 -> chi^-_2 nu_tau)
DECAY   2000015     1.84958346E+02   # ~tau^-_2
#    BR                NDA      ID1      ID2
     1.13034703E-01    2     1000022        15   # BR(~tau^-_2 -> chi^0_1 tau^-)
     1.46489976E-01    2     1000023        15   # BR(~tau^-_2 -> chi^0_2 tau^-)
     6.27596918E-02    2     1000025        15   # BR(~tau^-_2 -> chi^0_3 tau^-)
     2.01689797E-01    2     1000035        15   # BR(~tau^-_2 -> chi^0_4 tau^-)
     2.38251688E-02    2    -1000024        16   # BR(~tau^-_2 -> chi^-_1 nu_tau)
     4.52200664E-01    2    -1000037        16   # BR(~tau^-_2 -> chi^-_2 nu_tau)
#    BR                NDA      ID1      ID2       ID3
DECAY   1000012     1.44722472E+02   # ~nu_e
#    BR                NDA      ID1      ID2
     3.05316914E-02    2     1000022        12   # BR(~nu_e -> chi^0_1 nu_e)
     2.67187291E-02    2     1000023        12   # BR(~nu_e -> chi^0_2 nu_e)
     6.32717763E-02    2     1000025        12   # BR(~nu_e -> chi^0_3 nu_e)
     2.70733333E-01    2     1000035        12   # BR(~nu_e -> chi^0_4 nu_e)
     1.51669267E-01    2     1000024        11   # BR(~nu_e -> chi^+_1 e^-)
     4.57075203E-01    2     1000037        11   # BR(~nu_e -> chi^+_2 e^-)
#    BR                NDA      ID1      ID2       ID3
DECAY   1000014     1.44864850E+02   # ~nu_mu
#    BR                NDA      ID1      ID2
     3.05016702E-02    2     1000022        14   # BR(~nu_mu -> chi^0_1 nu_mu)
     2.66924571E-02    2     1000023        14   # BR(~nu_mu -> chi^0_2 nu_mu)
     6.32095624E-02    2     1000025        14   # BR(~nu_mu -> chi^0_3 nu_mu)
     2.70467126E-01    2     1000035        14   # BR(~nu_mu -> chi^0_4 nu_mu)
     1.52447333E-01    2     1000024        13   # BR(~nu_mu -> chi^+_1 mu^-)
     4.56681852E-01    2     1000037        13   # BR(~nu_mu -> chi^+_2 mu^-)
#    BR                NDA      ID1      ID2       ID3
DECAY   1000016     1.84991199E+02   # ~nu_tau
#    BR                NDA      ID1      ID2
     2.38825872E-02    2     1000022        16   # BR(~nu_tau -> chi^0_1 nu_tau)
     2.09000007E-02    2     1000023        16   # BR(~nu_tau -> chi^0_2 nu_tau)
     4.94926260E-02    2     1000025        16   # BR(~nu_tau -> chi^0_3 nu_tau)
     2.11773730E-01    2     1000035        16   # BR(~nu_tau -> chi^0_4 nu_tau)
     3.23995438E-01    2     1000024        15   # BR(~nu_tau -> chi^+_1 tau^-)
     3.69955618E-01    2     1000037        15   # BR(~nu_tau -> chi^+_2 tau^-)
#    BR                NDA      ID1      ID2       ID3
DECAY   2000001     7.71329413E+02   # ~d_R
#    BR                NDA      ID1      ID2
     4.17617089E-03    2     1000022         1   # BR(~d_R -> chi^0_1 d)
     3.02462968E-03    2     1000025         1   # BR(~d_R -> chi^0_3 d)
     9.92693000E-01    2     1000021         1   # BR(~d_R -> ~g d)
DECAY   1000001     9.02683197E+02   # ~d_L
#    BR                NDA      ID1      ID2
     1.10535499E-04    2     1000022         1   # BR(~d_L -> chi^0_1 d)
     5.60066557E-03    2     1000023         1   # BR(~d_L -> chi^0_2 d)
     2.53352860E-03    2     1000025         1   # BR(~d_L -> chi^0_3 d)
     4.26154247E-02    2     1000035         1   # BR(~d_L -> chi^0_4 d)
     5.63614503E-03    2    -1000024         2   # BR(~d_L -> chi^-_1 u)
     9.29442856E-02    2    -1000037         2   # BR(~d_L -> chi^-_2 u)
     8.50559415E-01    2     1000021         1   # BR(~d_L -> ~g d)
DECAY   2000003     7.71408667E+02   # ~s_R
#    BR                NDA      ID1      ID2
     4.18925348E-03    2     1000022         3   # BR(~s_R -> chi^0_1 s)
     1.20960100E-04    2     1000023         3   # BR(~s_R -> chi^0_2 s)
     3.03557091E-03    2     1000025         3   # BR(~s_R -> chi^0_3 s)
     9.92590841E-01    2     1000021         3   # BR(~s_R -> ~g s)
DECAY   1000003     9.02726567E+02   # ~s_L
#    BR                NDA      ID1      ID2
     1.22105925E-04    2     1000022         3   # BR(~s_L -> chi^0_1 s)
     5.62204922E-03    2     1000023         3   # BR(~s_L -> chi^0_2 s)
     2.54304660E-03    2     1000025         3   # BR(~s_L -> chi^0_3 s)
     4.26145865E-02    2     1000035         3   # BR(~s_L -> chi^0_4 s)
     5.63891360E-03    2    -1000024         4   # BR(~s_L -> chi^-_1 c)
     9.29408204E-02    2    -1000037         4   # BR(~s_L -> chi^-_2 c)
     8.50518478E-01    2     1000021         3   # BR(~s_L -> ~g s)
DECAY   1000005     4.82462291E+02   # ~b_1
#    BR                NDA      ID1      ID2
     2.60655471E-02    2     1000022         5   # BR(~b_1 -> chi^0_1 b)
     5.32650905E-02    2     1000023         5   # BR(~b_1 -> chi^0_2 b)
     2.39315607E-02    2     1000025         5   # BR(~b_1 -> chi^0_3 b)
     3.77810909E-02    2     1000035         5   # BR(~b_1 -> chi^0_4 b)
     1.45716796E-01    2    -1000024         6   # BR(~b_1 -> chi^-_1 t)
     1.23368887E-01    2    -1000037         6   # BR(~b_1 -> chi^-_2 t)
     5.89871028E-01    2     1000021         5   # BR(~b_1 -> ~g b)
DECAY   2000005     3.88375079E+02   # ~b_2
#    BR                NDA      ID1      ID2
     3.66159506E-02    2     1000022         5   # BR(~b_2 -> chi^0_1 b)
     6.15463134E-02    2     1000023         5   # BR(~b_2 -> chi^0_2 b)
     2.97426349E-02    2     1000025         5   # BR(~b_2 -> chi^0_3 b)
     3.28837990E-03    2     1000035         5   # BR(~b_2 -> chi^0_4 b)
     1.17572594E-01    2    -1000024         6   # BR(~b_2 -> chi^-_1 t)
     6.77270970E-03    2    -1000037         6   # BR(~b_2 -> chi^-_2 t)
     7.44461416E-01    2     1000021         5   # BR(~b_2 -> ~g b)
DECAY   2000002     7.88466065E+02   # ~u_R
#    BR                NDA      ID1      ID2
     1.63458808E-02    2     1000022         2   # BR(~u_R -> chi^0_1 u)
     3.74287216E-04    2     1000023         2   # BR(~u_R -> chi^0_2 u)
     1.18386388E-02    2     1000025         2   # BR(~u_R -> chi^0_3 u)
     9.71400654E-01    2     1000021         2   # BR(~u_R -> ~g u)
DECAY   1000002     9.02673364E+02   # ~u_L
#    BR                NDA      ID1      ID2
     2.43041739E-03    2     1000022         2   # BR(~u_L -> chi^0_1 u)
     7.03701721E-03    2     1000023         2   # BR(~u_L -> chi^0_2 u)
     4.13934509E-02    2     1000035         2   # BR(~u_L -> chi^0_4 u)
     2.45666206E-02    2     1000024         1   # BR(~u_L -> chi^+_1 d)
     7.40364159E-02    2     1000037         1   # BR(~u_L -> chi^+_2 d)
     8.50535755E-01    2     1000021         2   # BR(~u_L -> ~g u)
DECAY   2000004     7.88473324E+02   # ~c_R
#    BR                NDA      ID1      ID2
     1.63464614E-02    2     1000022         4   # BR(~c_R -> chi^0_1 c)
     3.75986174E-04    2     1000023         4   # BR(~c_R -> chi^0_2 c)
     1.18401705E-02    2     1000025         4   # BR(~c_R -> chi^0_3 c)
     9.71391671E-01    2     1000021         4   # BR(~c_R -> ~g c)
DECAY   1000004     9.02716700E+02   # ~c_L
#    BR                NDA      ID1      ID2
     2.43094176E-03    2     1000022         4   # BR(~c_L -> chi^0_1 c)
     7.03816962E-03    2     1000023         4   # BR(~c_L -> chi^0_2 c)
     4.13919371E-02    2     1000035         4   # BR(~c_L -> chi^0_4 c)
     2.46070049E-02    2     1000024         3   # BR(~c_L -> chi^+_1 s)
     7.40353708E-02    2     1000037         3   # BR(~c_L -> chi^+_2 s)
     8.50494817E-01    2     1000021         4   # BR(~c_L -> ~g c)
DECAY   1000006     5.87680636E+02   # ~t_1
#    BR                NDA      ID1      ID2
     6.19256755E-04    2     1000022         4   # BR(~t_1 -> chi^0_1 c)
     2.17277851E-02    2     1000022         6   # BR(~t_1 -> chi^0_1 t)
     1.79267019E-03    2     1000023         4   # BR(~t_1 -> chi^0_2 c)
     6.79120898E-02    2     1000023         6   # BR(~t_1 -> chi^0_2 t)
     6.54817141E-02    2     1000025         6   # BR(~t_1 -> chi^0_3 t)
     3.08149943E-02    2     1000035         6   # BR(~t_1 -> chi^0_4 t)
     1.18393653E-01    2     1000024         5   # BR(~t_1 -> chi^+_1 b)
     2.92065461E-02    2     1000037         5   # BR(~t_1 -> chi^+_2 b)
     1.81568428E-01    2     1000021         4   # BR(~t_1 -> ~g c)
     4.69947917E-01    2     1000021         6   # BR(~t_1 -> ~g t)
#    BR                NDA      ID1      ID2       ID3
     1.25349455E-02    3     1000022        24         5   # BR(~t_1 -> chi^0_1 W^+ b)
DECAY   2000006     5.65272982E+02   # ~t_2
#    BR                NDA      ID1      ID2
     4.30580327E-02    2     1000022         6   # BR(~t_2 -> chi^0_1 t)
     5.66086156E-02    2     1000023         6   # BR(~t_2 -> chi^0_2 t)
     5.68363436E-02    2     1000025         6   # BR(~t_2 -> chi^0_3 t)
     3.71128428E-02    2     1000035         6   # BR(~t_2 -> chi^0_4 t)
     1.01765165E-01    2     1000024         5   # BR(~t_2 -> chi^+_1 b)
     7.11960188E-02    2     1000037         5   # BR(~t_2 -> chi^+_2 b)
     5.66170033E-01    2     1000021         6   # BR(~t_2 -> ~g t)
     2.82322681E-02    2     1000005        24   # BR(~t_2 -> ~b_1 W^+)
     1.66952501E-02    2     1000006        23   # BR(~t_2 -> ~t_1 Z)
     2.23248892E-02    2     1000006        25   # BR(~t_2 -> ~t_1 h^0)
DECAY   1000024     1.89882903E-07   # chi^+_1
#    BR                NDA      ID1      ID2       ID3
     3.39112385E-01    3     1000022        -1         2   # BR(chi^+_1 -> chi^0_1 d_bar u)
     3.24226441E-01    3     1000022        -3         4   # BR(chi^+_1 -> chi^0_1 s_bar c)
     1.13033245E-01    3     1000022       -11        12   # BR(chi^+_1 -> chi^0_1 e^+ nu_e)
     1.12997802E-01    3     1000022       -13        14   # BR(chi^+_1 -> chi^0_1 mu^+ nu_mu)
     1.03594916E-01    3     1000022       -15        16   # BR(chi^+_1 -> chi^0_1 tau^+ nu_tau)
     3.17817422E-03    3     1000023        -1         2   # BR(chi^+_1 -> chi^0_2 d_bar u)
     1.50920756E-03    3     1000023        -3         4   # BR(chi^+_1 -> chi^0_2 s_bar c)
     1.05940143E-03    3     1000023       -11        12   # BR(chi^+_1 -> chi^0_2 e^+ nu_e)
     1.05380098E-03    3     1000023       -13        14   # BR(chi^+_1 -> chi^0_2 mu^+ nu_mu)
     2.34626879E-04    3     1000023       -15        16   # BR(chi^+_1 -> chi^0_2 tau^+ nu_tau)
DECAY   1000037     1.57903283E+00   # chi^+_2
#    BR                NDA      ID1      ID2
     1.81937315E-01    2     1000022        24   # BR(chi^+_2 -> chi^0_1 W^+)
     4.10017456E-01    2     1000023        24   # BR(chi^+_2 -> chi^0_2 W^+)
     6.40043121E-02    2     1000025        24   # BR(chi^+_2 -> chi^0_3 W^+)
     2.36541506E-01    2     1000024        23   # BR(chi^+_2 -> chi^+_1 Z)
     1.07499352E-01    2     1000024        25   # BR(chi^+_2 -> chi^+_1 h^0)
#    BR                NDA      ID1      ID2       ID3
DECAY   1000022     0.00000000E+00   # chi^0_1
DECAY   1000023     1.21135397E-07   # chi^0_2
#    BR                NDA      ID1      ID2
     2.37247869E-01    2     1000022        22   # BR(chi^0_2 -> chi^0_1 photon)
#    BR                NDA      ID1      ID2       ID3
     1.10248394E-01    3     1000022         2        -2   # BR(chi^0_2 -> chi^0_1 u u_bar)
     8.89952611E-02    3     1000022         4        -4   # BR(chi^0_2 -> chi^0_1 c c_bar)
     1.41357353E-01    3     1000022         1        -1   # BR(chi^0_2 -> chi^0_1 d d_bar)
     1.41210254E-01    3     1000022         3        -3   # BR(chi^0_2 -> chi^0_1 s s_bar)
     8.12581689E-03    3     1000022         5        -5   # BR(chi^0_2 -> chi^0_1 b b_bar)
     3.18980971E-02    3     1000022        11       -11   # BR(chi^0_2 -> chi^0_1 e^- e^+)
     3.18458431E-02    3     1000022        13       -13   # BR(chi^0_2 -> chi^0_1 mu^- mu^+)
     2.00401706E-02    3     1000022        15       -15   # BR(chi^0_2 -> chi^0_1 tau^- tau^+)
     1.89030941E-01    3     1000022        12       -12   # BR(chi^0_2 -> chi^0_1 nu_e nu_bar_e)
DECAY   1000025     9.54420045E-04   # chi^0_3
#    BR                NDA      ID1      ID2
     2.54505433E-04    2     1000022        22   # BR(chi^0_3 -> chi^0_1 photon)
     4.49251081E-03    2     1000023        22   # BR(chi^0_3 -> chi^0_2 photon)
#    BR                NDA      ID1      ID2       ID3
     7.09482791E-02    3     1000023         2        -2   # BR(chi^0_3 -> chi^0_2 u u_bar)
     7.04706569E-02    3     1000023         4        -4   # BR(chi^0_3 -> chi^0_2 c c_bar)
     9.09690247E-02    3     1000023         1        -1   # BR(chi^0_3 -> chi^0_2 d d_bar)
     9.09661163E-02    3     1000023         3        -3   # BR(chi^0_3 -> chi^0_2 s s_bar)
     8.55574747E-02    3     1000023         5        -5   # BR(chi^0_3 -> chi^0_2 b b_bar)
     2.05299585E-02    3     1000023        11       -11   # BR(chi^0_3 -> chi^0_2 e^- e^+)
     2.05288963E-02    3     1000023        13       -13   # BR(chi^0_3 -> chi^0_2 mu^- mu^+)
     2.02324730E-02    3     1000023        15       -15   # BR(chi^0_3 -> chi^0_2 tau^- tau^+)
     1.21655786E-01    3     1000023        12       -12   # BR(chi^0_3 -> chi^0_2 nu_e nu_bar_e)
     6.73378570E-02    3     1000024         1        -2   # BR(chi^0_3 -> chi^+_1 d u_bar)
     6.73378570E-02    3    -1000024        -1         2   # BR(chi^0_3 -> chi^-_1 d_bar u)
     6.71488811E-02    3     1000024         3        -4   # BR(chi^0_3 -> chi^+_1 s c_bar)
     6.71488811E-02    3    -1000024        -3         4   # BR(chi^0_3 -> chi^-_1 s_bar c)
     2.24465974E-02    3     1000024        11       -12   # BR(chi^0_3 -> chi^+_1 e^- nu_bar_e)
     2.24465974E-02    3    -1000024       -11        12   # BR(chi^0_3 -> chi^-_1 e^+ nu_e)
     2.24464560E-02    3     1000024        13       -14   # BR(chi^0_3 -> chi^+_1 mu^- nu_bar_mu)
     2.24464560E-02    3    -1000024       -13        14   # BR(chi^0_3 -> chi^-_1 mu^+ nu_mu)
     2.23056479E-02    3     1000024        15       -16   # BR(chi^0_3 -> chi^+_1 tau^- nu_bar_tau)
     2.23056479E-02    3    -1000024       -15        16   # BR(chi^0_3 -> chi^-_1 tau^+ nu_tau)
DECAY   1000035     2.33905198E+00   # chi^0_4
#    BR                NDA      ID1      ID2
     3.19820446E-01    2     1000024       -24   # BR(chi^0_4 -> chi^+_1 W^-)
     3.19820446E-01    2    -1000024        24   # BR(chi^0_4 -> chi^-_1 W^+)
     1.28513176E-01    2     1000022        23   # BR(chi^0_4 -> chi^0_1 Z)
     2.08616326E-02    2     1000023        23   # BR(chi^0_4 -> chi^0_2 Z)
     9.87542997E-02    2     1000025        23   # BR(chi^0_4 -> chi^0_3 Z)
     5.62278958E-02    2     1000022        25   # BR(chi^0_4 -> chi^0_1 h^0)
     5.59584705E-02    2     1000023        25   # BR(chi^0_4 -> chi^0_2 h^0)
#    BR                NDA      ID1      ID2       ID3
DECAY   1000021     2.11756252E-03   # ~g
#    BR                NDA      ID1      ID2
     3.97949838E-03    2     1000022        21   # BR(~g -> chi^0_1 g)
     7.46188282E-03    2     1000023        21   # BR(~g -> chi^0_2 g)
     8.19111993E-03    2     1000025        21   # BR(~g -> chi^0_3 g)
     2.18163506E-03    2     1000035        21   # BR(~g -> chi^0_4 g)
#    BR                NDA      ID1      ID2       ID3
     3.44128316E-04    3     1000022         2        -2   # BR(~g -> chi^0_1 u u_bar)
     3.44163117E-04    3     1000022         4        -4   # BR(~g -> chi^0_1 c c_bar)
     3.92922900E-02    3     1000022         6        -6   # BR(~g -> chi^0_1 t t_bar)
     4.94453375E-02    3     1000022         5        -5   # BR(~g -> chi^0_1 b b_bar)
     1.50542529E-04    3     1000023         2        -2   # BR(~g -> chi^0_2 u u_bar)
     1.50622780E-04    3     1000023         4        -4   # BR(~g -> chi^0_2 c c_bar)
     1.09532310E-01    3     1000023         6        -6   # BR(~g -> chi^0_2 t t_bar)
     1.16111627E-04    3     1000023         1        -1   # BR(~g -> chi^0_2 d d_bar)
     1.17277418E-04    3     1000023         3        -3   # BR(~g -> chi^0_2 s s_bar)
     9.11218347E-02    3     1000023         5        -5   # BR(~g -> chi^0_2 b b_bar)
     2.11761841E-04    3     1000025         2        -2   # BR(~g -> chi^0_3 u u_bar)
     2.11859698E-04    3     1000025         4        -4   # BR(~g -> chi^0_3 c c_bar)
     1.06256445E-01    3     1000025         6        -6   # BR(~g -> chi^0_3 t t_bar)
     1.04293022E-04    3     1000025         1        -1   # BR(~g -> chi^0_3 d d_bar)
     1.04784467E-04    3     1000025         3        -3   # BR(~g -> chi^0_3 s s_bar)
     3.94685734E-02    3     1000025         5        -5   # BR(~g -> chi^0_3 b b_bar)
     7.47904095E-04    3     1000035         2        -2   # BR(~g -> chi^0_4 u u_bar)
     7.47882650E-04    3     1000035         4        -4   # BR(~g -> chi^0_4 c c_bar)
     2.06158416E-02    3     1000035         6        -6   # BR(~g -> chi^0_4 t t_bar)
     7.69348892E-04    3     1000035         1        -1   # BR(~g -> chi^0_4 d d_bar)
     7.69400299E-04    3     1000035         3        -3   # BR(~g -> chi^0_4 s s_bar)
     2.54047033E-02    3     1000035         5        -5   # BR(~g -> chi^0_4 b b_bar)
     2.37946678E-04    3     1000024         1        -2   # BR(~g -> chi^+_1 d u_bar)
     2.37946678E-04    3    -1000024        -1         2   # BR(~g -> chi^-_1 d_bar u)
     2.39144261E-04    3     1000024         3        -4   # BR(~g -> chi^+_1 s c_bar)
     2.39144261E-04    3    -1000024        -3         4   # BR(~g -> chi^-_1 s_bar c)
     2.02824446E-01    3     1000024         5        -6   # BR(~g -> chi^+_1 b t_bar)
     2.02824446E-01    3    -1000024        -5         6   # BR(~g -> chi^-_1 b_bar t)
     8.28616857E-04    3     1000037         1        -2   # BR(~g -> chi^+_2 d u_bar)
     8.28616857E-04    3    -1000037        -1         2   # BR(~g -> chi^-_2 d_bar u)
     8.28670813E-04    3     1000037         3        -4   # BR(~g -> chi^+_2 s c_bar)
     8.28670813E-04    3    -1000037        -3         4   # BR(~g -> chi^-_2 s_bar c)
     4.10441123E-02    3     1000037         5        -6   # BR(~g -> chi^+_2 b t_bar)
     4.10441123E-02    3    -1000037        -5         6   # BR(~g -> chi^-_2 b_bar t)
DECAY        25     4.48113776E-03   # Gamma(h0)
     2.49118032E-03   2        22        22   # BR(h0 -> photon photon)
     2.07518010E-03   2        22        23   # BR(h0 -> photon Z)
     4.56132026E-02   2        23        23   # BR(h0 -> Z Z)
     3.42034687E-01   2       -24        24   # BR(h0 -> W W)
     7.11082466E-02   2        21        21   # BR(h0 -> gluon gluon)
     4.16290379E-09   2       -11        11   # BR(h0 -> Electron electron)
     1.85175785E-04   2       -13        13   # BR(h0 -> Muon muon)
     5.33982941E-02   2       -15        15   # BR(h0 -> Tau tau)
     1.17242477E-07   2        -2         2   # BR(h0 -> Up up)
     2.27565019E-02   2        -4         4   # BR(h0 -> Charm charm)
     4.78235259E-07   2        -1         1   # BR(h0 -> Down down)
     1.72966893E-04   2        -3         3   # BR(h0 -> Strange strange)
     4.60163965E-01   2        -5         5   # BR(h0 -> Bottom bottom)
DECAY        35     1.18647976E+02   # Gamma(HH)
     1.02231505E-08   2        22        22   # BR(HH -> photon photon)
     5.02337506E-08   2        22        23   # BR(HH -> photon Z)
     1.85488924E-07   2        23        23   # BR(HH -> Z Z)
     5.19669776E-08   2       -24        24   # BR(HH -> W W)
     6.31145767E-06   2        21        21   # BR(HH -> gluon gluon)
     7.70088437E-09   2       -11        11   # BR(HH -> Electron electron)
     3.42885751E-04   2       -13        13   # BR(HH -> Muon muon)
     9.90304617E-02   2       -15        15   # BR(HH -> Tau tau)
     3.30333880E-14   2        -2         2   # BR(HH -> Up up)
     6.40818113E-09   2        -4         4   # BR(HH -> Charm charm)
     4.76888437E-04   2        -6         6   # BR(HH -> Top top)
     5.63666495E-07   2        -1         1   # BR(HH -> Down down)
     2.03884562E-04   2        -3         3   # BR(HH -> Strange strange)
     5.44167344E-01   2        -5         5   # BR(HH -> Bottom bottom)
     5.41981622E-02   2  -1000024   1000024   # BR(HH -> Chargino1 chargino1)
     7.78731098E-02   2  -1000024   1000037   # BR(HH -> Chargino1 chargino2)
     7.78731098E-02   2  -1000037   1000024   # BR(HH -> Chargino2 chargino1)
     6.54807486E-03   2  -1000037   1000037   # BR(HH -> Chargino2 chargino2)
     8.70167237E-03   2   1000022   1000022   # BR(HH -> neutralino1 neutralino1)
     1.09580895E-02   2   1000022   1000023   # BR(HH -> neutralino1 neutralino2)
     7.45915095E-03   2   1000022   1000025   # BR(HH -> neutralino1 neutralino3)
     4.08995297E-02   2   1000022   1000035   # BR(HH -> neutralino1 neutralino4)
     3.37376476E-03   2   1000023   1000023   # BR(HH -> neutralino2 neutralino2)
     6.25555742E-03   2   1000023   1000025   # BR(HH -> neutralino2 neutralino3)
     3.13998402E-02   2   1000023   1000035   # BR(HH -> neutralino2 neutralino4)
     7.65281015E-03   2   1000025   1000025   # BR(HH -> neutralino3 neutralino3)
     1.86898966E-02   2   1000025   1000035   # BR(HH -> neutralino3 neutralino4)
     3.88768627E-03   2   1000035   1000035   # BR(HH -> neutralino4 neutralino4)
     8.93713658E-07   2        25        25   # BR(HH -> h0 h0)
DECAY        36     1.12666505E+02   # Gamma(A0)
     6.88398344E-08   2        22        22   # BR(A0 -> photon photon)
     1.22649546E-07   2        22        23   # BR(A0 -> photon Z)
     1.11806719E-05   2        21        21   # BR(A0 -> gluon gluon)
     7.47357296E-09   2       -11        11   # BR(A0 -> Electron electron)
     3.32762928E-04   2       -13        13   # BR(A0 -> Muon muon)
     9.61069808E-02   2       -15        15   # BR(A0 -> Tau tau)
     3.04498919E-14   2        -2         2   # BR(A0 -> Up up)
     5.90668777E-09   2        -4         4   # BR(A0 -> Charm charm)
     4.45264621E-04   2        -6         6   # BR(A0 -> Top top)
     5.46997814E-07   2        -1         1   # BR(A0 -> Down down)
     1.97855214E-04   2        -3         3   # BR(A0 -> Strange strange)
     5.28087341E-01   2        -5         5   # BR(A0 -> Bottom bottom)
     5.92299816E-02   2  -1000024   1000024   # BR(A0 -> Chargino1 chargino1)
     7.99247439E-02   2  -1000024   1000037   # BR(A0 -> Chargino1 chargino2)
     7.99247439E-02   2  -1000037   1000024   # BR(A0 -> Chargino2 chargino1)
     9.00386864E-03   2  -1000037   1000037   # BR(A0 -> Chargino2 chargino2)
     9.90901649E-03   2   1000022   1000022   # BR(A0 -> neutralino1 neutralino1)
     1.14380769E-02   2   1000022   1000023   # BR(A0 -> neutralino1 neutralino2)
     9.08479636E-03   2   1000022   1000025   # BR(A0 -> neutralino1 neutralino3)
     4.64263848E-02   2   1000022   1000035   # BR(A0 -> neutralino1 neutralino4)
     3.30454412E-03   2   1000023   1000023   # BR(A0 -> neutralino2 neutralino2)
     6.24499113E-03   2   1000023   1000025   # BR(A0 -> neutralino2 neutralino3)
     2.98531691E-02   2   1000023   1000035   # BR(A0 -> neutralino2 neutralino4)
     7.13800147E-03   2   1000025   1000025   # BR(A0 -> neutralino3 neutralino3)
     1.81539925E-02   2   1000025   1000035   # BR(A0 -> neutralino3 neutralino4)
     5.18121989E-03   2   1000035   1000035   # BR(A0 -> neutralino4 neutralino4)
     3.31896979E-07   2        23        25   # BR(A0 -> Z h0)
     3.77586611E-14   2        23        35   # BR(A0 -> Z HH)
     4.31100513E-39   2        25        25   # BR(A0 -> h0 h0)
DECAY        37     1.26203332E+02   # Gamma(Hp)
     8.42114894E-09   2       -11        12   # BR(Hp -> Electron nu_e)
     3.60030419E-04   2       -13        14   # BR(Hp -> Muon nu_mu)
     1.01837083E-01   2       -15        16   # BR(Hp -> Tau nu_tau)
     5.35351804E-07   2        -1         2   # BR(Hp -> Down up)
     9.04289698E-06   2        -3         2   # BR(Hp -> Strange up)
     5.94919714E-06   2        -5         2   # BR(Hp -> Bottom up)
     2.53098301E-08   2        -1         4   # BR(Hp -> Down charm)
     1.92945631E-04   2        -3         4   # BR(Hp -> Strange charm)
     8.33100493E-04   2        -5         4   # BR(Hp -> Bottom charm)
     3.19648132E-08   2        -1         6   # BR(Hp -> Down top)
     9.83014462E-07   2        -3         6   # BR(Hp -> Strange top)
     5.62202274E-01   2        -5         6   # BR(Hp -> Bottom top)
     3.60493687E-03   2   1000022   1000024   # BR(Hp -> neutralino1 chargino1)
     1.17016454E-01   2   1000022   1000037   # BR(Hp -> neutralino1 chargino2)
     4.02619098E-02   2   1000023   1000024   # BR(Hp -> neutralino2 chargino1)
     5.21235530E-02   2   1000023   1000037   # BR(Hp -> neutralino2 chargino2)
     3.87467570E-03   2   1000024   1000025   # BR(Hp -> chargino1 neutralino3)
     3.05706834E-02   2   1000025   1000037   # BR(Hp -> neutralino3 chargino2)
     8.70893615E-02   2   1000024   1000035   # BR(Hp -> chargino1 neutralino4)
     1.61183414E-05   2   1000035   1000037   # BR(Hp -> neutralino4 chargino2)
     2.97290053E-07   2        24        25   # BR(Hp -> W h0)
     1.50892972E-11   2        24        35   # BR(Hp -> W HH)
     2.39515517E-12   2        24        36   # BR(Hp -> W A0)
DECAY         6     2.43000000E+00   # top
#    BR                NDA      ID1      ID2
     1.00000000E+00    2           5        24   # BR(t -> b W)
Block HiggsBoundsInputHiggsCouplingsFermions
# ScalarNormEffCoupSq PseudoSNormEffCoupSq NP IP1 IP2 IP2
    9.62234970E-01    0.00000000E+00        3  25   5   5  # h0-b-b eff. coupling^2, normalised to SM
    1.93314619E+03    0.00000000E+00        3  35   5   5  # H0-b-b eff. coupling^2, normalised to SM
    0.00000000E+00    1.93310842E+03        3  36   5   5  # A0-b-b eff. coupling^2, normalised to SM
#
    1.00001954E+00    0.00000000E+00        3  25   6   6  # h0-t-t eff. coupling^2, normalised to SM
    4.97765650E-04    0.00000000E+00        3  35   6   6  # H0-t-t eff. coupling^2, normalised to SM
    0.00000000E+00    5.17301558E-04        3  36   6   6  # A0-t-t eff. coupling^2, normalised to SM
#
    9.62234970E-01    0.00000000E+00        3  25  15  15  # h0-tau-tau eff. coupling^2, normalised to SM
    1.93314619E+03    0.00000000E+00        3  35  15  15  # H0-tau-tau eff. coupling^2, normalised to SM
    0.00000000E+00    1.93310842E+03        3  36  15  15  # A0-tau-tau eff. coupling^2, normalised to SM
#
Block HiggsBoundsInputHiggsCouplingsBosons
    9.99999812E-01        3  25  24  24  # h0-W-W eff. coupling^2, normalised to SM
    1.88008888E-07        3  35  24  24  # H0-W-W eff. coupling^2, normalised to SM
    0.00000000E+00        3  36  24  24  # A0-W-W eff. coupling^2, normalised to SM
#
    9.99999812E-01        3  25  23  23  # h0-Z-Z eff. coupling^2, normalised to SM
    1.88008888E-07        3  35  23  23  # H0-Z-Z eff. coupling^2, normalised to SM
    0.00000000E+00        3  36  23  23  # A0-Z-Z eff. coupling^2, normalised to SM
#
    1.26759183E+00        3  25  21  21  # h0-g-g eff. coupling^2, normalised to SM
    9.20295858E-03        3  35  21  21  # H0-g-g eff. coupling^2, normalised to SM
    1.29025802E-01        3  36  21  21  # A0-g-g eff. coupling^2, normalised to SM
#
    0.00000000E+00        3  25  25  23  # h0-h0-Z eff. coupling^2, normalised to SM
    0.00000000E+00        3  35  25  23  # H0-h0-Z eff. coupling^2, normalised to SM
    1.88008888E-07        3  36  25  23  # A0-h0-Z eff. coupling^2, normalised to SM
    0.00000000E+00        3  35  35  23  # H0-H0-Z eff. coupling^2, normalised to SM
    9.99999812E-01        3  36  35  23  # A0-H0-Z eff. coupling^2, normalised to SM
    0.00000000E+00        3  36  36  23  # A0-A0-Z eff. coupling^2, normalised to SM
#
    0.00000000E+00        4  25  21  21  23  # h0-g-g-Z eff. coupling^2, normalised to SM
    0.00000000E+00        4  35  21  21  23  # H0-g-g-Z eff. coupling^2, normalised to SM
    0.00000000E+00        4  36  21  21  23  # A0-g-g-Z eff. coupling^2, normalised to SM
Block SPhenoLowEnergy  # low energy observables
    1    3.13675857E-04   # BR(b -> s gamma)
    2    1.59147713E-06   # BR(b -> s mu+ mu-)
    3    3.52575625E-05   # BR(b -> s nu nu)
    4    4.90843274E-15   # BR(Bd -> e+ e-)
    5    2.09673769E-10   # BR(Bd -> mu+ mu-)
    6    4.33798716E-08   # BR(Bd -> tau+ tau-)
    7    1.68553356E-13   # BR(Bs -> e+ e-)
    8    7.20028281E-09   # BR(Bs -> mu+ mu-)
    9    1.50907095E-06   # BR(Bs -> tau+ tau-)
   10    9.57224495E-05   # BR(B_u -> tau nu)
   11    9.88776257E-01   # BR(B_u -> tau nu)/BR(B_u -> tau nu)_SM
   12    5.41822679E-01   # |Delta(M_Bd)| [ps^-1] 
   13    1.93604519E+01   # |Delta(M_Bs)| [ps^-1] 
   14    0.00000000E+00   # neutron EDM according to the chiral quark model
   15    0.00000000E+00   # neutron EDM according to the relativistic quark-parton model
   16    2.15688028E-03   # epsilon_K
   17    2.28165503E-15   # Delta(M_K)
   18    2.48037844E-11   # BR(K^0 -> pi^0 nu nu)
   19    8.29137280E-11   # BR(K^+ -> pi^+ nu nu)
   20    1.86745926E-16   # Delta(g-2)_electron/2
   21    7.98406995E-12   # Delta(g-2)_muon/2
   22    2.26570390E-09   # Delta(g-2)_tau/2
   23    0.00000000E+00   # electric dipole moment of the electron
   24    0.00000000E+00   # electric dipole moment of the muon
   25    0.00000000E+00   # electric dipole moment of the tau
   26    0.00000000E+00   # Br(mu -> e gamma)
   27    0.00000000E+00   # Br(tau -> e gamma)
   28    0.00000000E+00   # Br(tau -> mu gamma)
   29    0.00000000E+00   # Br(mu -> 3 e)
   30    0.00000000E+00   # Br(tau -> 3 e)
   31    0.00000000E+00   # Br(tau -> 3 mu)
   39    6.76033231E-05   # Delta(rho_parameter)
   40    0.00000000E+00   # BR(Z -> e mu)
   41    0.00000000E+00   # BR(Z -> e tau)
   42    0.00000000E+00   # BR(Z -> mu tau)
Block FWCOEF Q=  1.60000000E+02  # Wilson coefficients at scale Q
#    id        order  M        value         comment
     0305 4422   00   0    -1.88819110E-01   # C7
     0305 4422   00   2    -1.80777769E-01   # C7
     0305 4322   00   2    -2.10991815E-05   # C7'
     0305 6421   00   0    -9.52278348E-02   # C8
     0305 6421   00   2    -9.25918886E-02   # C8
     0305 6321   00   2    -7.09784950E-05   # C8'
 03051111 4133   00   0     1.63234675E+00   # C9 e+e-
 03051111 4133   00   2     1.63260850E+00   # C9 e+e-
 03051111 4233   00   2     5.96048390E-04   # C9' e+e-
 03051111 4137   00   0    -4.45503885E+00   # C10 e+e-
 03051111 4137   00   2    -4.45401764E+00   # C10 e+e-
 03051111 4237   00   2    -4.37588695E-03   # C10' e+e-
 03051313 4133   00   0     1.63234675E+00   # C9 mu+mu-
 03051313 4133   00   2     1.63260830E+00   # C9 mu+mu-
 03051313 4233   00   2     5.96047840E-04   # C9' mu+mu-
 03051313 4137   00   0    -4.45503885E+00   # C10 mu+mu-
 03051313 4137   00   2    -4.45401783E+00   # C10 mu+mu-
 03051313 4237   00   2    -4.37588709E-03   # C10' mu+mu-
 03051212 4137   00   0     1.50535012E+00   # C11 nu_1 nu_1
 03051212 4137   00   2     1.50513193E+00   # C11 nu_1 nu_1
 03051212 4237   00   2     9.45029059E-04   # C11' nu_1 nu_1
 03051414 4137   00   0     1.50535012E+00   # C11 nu_2 nu_2
 03051414 4137   00   2     1.50513193E+00   # C11 nu_2 nu_2
 03051414 4237   00   2     9.45029141E-04   # C11' nu_2 nu_2
 03051616 4137   00   0     1.50535012E+00   # C11 nu_3 nu_3
 03051616 4137   00   2     1.50513194E+00   # C11 nu_3 nu_3
 03051616 4237   00   2     9.45052209E-04   # C11' nu_3 nu_3
Block IMFWCOEF Q=  1.60000000E+02  # Im(Wilson coefficients) at scale Q
#    id        order  M        value         comment
     0305 4422   00   0     3.85823870E-07   # C7
     0305 4422   00   2     1.07997031E-06   # C7
     0305 4322   00   2     1.81140847E-06   # C7'
     0305 6421   00   0     3.30483660E-07   # C8
     0305 6421   00   2     5.27805005E-05   # C8
     0305 6321   00   2     1.56637821E-06   # C8'
 03051111 4133   00   2     1.21567207E-06   # C9 e+e-
 03051111 4233   00   2     1.14827475E-05   # C9' e+e-
 03051111 4137   00   2     1.87656369E-06   # C10 e+e-
 03051111 4237   00   2    -8.43033667E-05   # C10' e+e-
 03051313 4133   00   2     1.21566474E-06   # C9 mu+mu-
 03051313 4233   00   2     1.14827444E-05   # C9' mu+mu-
 03051313 4137   00   2     1.87657126E-06   # C10 mu+mu-
 03051313 4237   00   2    -8.43033758E-05   # C10' mu+mu-
 03051212 4137   00   2    -3.63186784E-07   # C11 nu_1 nu_1
 03051212 4237   00   2     1.82063972E-05   # C11' nu_1 nu_1
 03051414 4137   00   2    -3.63186396E-07   # C11 nu_2 nu_2
 03051414 4237   00   2     1.82063972E-05   # C11' nu_2 nu_2
 03051616 4137   00   2    -3.63078626E-07   # C11 nu_3 nu_3
 03051616 4237   00   2     1.82063972E-05   # C11' nu_3 nu_3
