# SUSY Les Houches Accord 2 - MSSM spectrum + Decays
# SPheno v4.0.5be
# W. Porod, Comput. Phys. Commun. 153 (2003) 275-315, hep-ph/0301101;
# W. Porod, F.~Staub, Comput. Phys. Commun. 183 (2012) 2458
#                     arXiv:1104.1573 [hep-ph] 
# in case of problems send email to porod@physik.uni-wuerzburg.de
# Created: 20.12.2022,  15:58
Block SPINFO         # Program information
     1   SPheno      # spectrum calculator
     2   v4.0.5be    # version number
#
Block SPhenoINFO     # SPheno specific information
    1      2         # using 2-loop RGEs
    2      2         # using pole masses for boundary conditions at mZ
Block MODSEL  # Model selection
    1    0    # general MSSM
Block MINPAR  # Input parameters
    3    1.14635423E+01  # tanb at m_Z    
    4    1.00000000E+00  # Sign(mu)
Block EXTPAR  # non-universal input parameters
    0    3.21876760E+03  # scale for input parameters
    1    1.44654573E+03  # M_1
    2    4.77833624E+02  # M_2
    3    1.30818946E+03  # M_3
   11   -2.12960358E+03  # A_t
   12   -3.02752811E+02  # A_b
   13    3.45041510E+02  # A_tau
   23    1.48060503E+02  # mu
   25    1.09248991E+01  # tan(beta)
   26    2.91758436E+03  # m_A, pole mass
   31    1.00000000E+04  # M_L11
   32    1.00000000E+04  # M_L22
   33    1.00000000E+04  # M_L33
   34    1.00000000E+04  # M_E11
   35    1.00000000E+04  # M_E22
   36    1.00000000E+04  # M_E33
   41    1.00000000E+04  # M_Q11
   42    1.00000000E+04  # M_Q22
   43    2.68497768E+03  # M_Q33
   44    1.00000000E+04  # M_U11
   45    1.00000000E+04  # M_U22
   46    3.82739016E+03  # M_U33
   47    1.00000000E+04  # M_D11
   48    1.00000000E+04  # M_D22
   49    4.90662267E+03  # M_D33
Block SMINPUTS  # SM parameters
         1     1.27908970E+02  # alpha_em^-1(MZ)^MSbar
         2     1.16637870E-05  # G_mu [GeV^-2]
         3     1.18400000E-01  # alpha_s(MZ)^MSbar
         4     9.11876000E+01  # m_Z(pole)
         5     4.18000000E+00  # m_b(m_b), MSbar
         6     1.73200000E+02  # m_t(pole)
         7     1.77700000E+00  # m_tau(pole)
         8     0.00000000E+00  # m_nu_3
        11     5.10998930E-04  # m_e(pole)
        12     0.00000000E+00  # m_nu_1
        13     1.05658372E-01  # m_muon(pole)
        14     0.00000000E+00  # m_nu_2
        21     5.00000000E-03  # m_d(2 GeV), MSbar
        22     2.50000000E-03  # m_u(2 GeV), MSbar
        23     9.50000000E-02  # m_s(2 GeV), MSbar
        24     1.27000000E+00  # m_c(m_c), MSbar
Block gauge Q=  3.21876760E+03  # (SUSY scale)
   1    3.55362975E-01  # g'(Q)^DRbar
   2    6.65198874E-01  # g(Q)^DRbar
   3    1.21977796E+00  # g3(Q)^DRbar
Block Yu Q=  3.21876760E+03  # (SUSY scale)
  1  1     8.41942301E-06   # Y_u(Q)^DRbar
  2  2     4.27706689E-03   # Y_c(Q)^DRbar
  3  3     1.01713393E+00   # Y_t(Q)^DRbar
Block Yd Q=  3.21876760E+03  # (SUSY scale)
  1  1     1.84833213E-04   # Y_d(Q)^DRbar
  2  2     3.51183104E-03   # Y_s(Q)^DRbar
  3  3     1.83296628E-01   # Y_b(Q)^DRbar
Block Ye Q=  3.21876760E+03  # (SUSY scale)
  1  1     3.22547472E-05   # Y_e(Q)^DRbar
  2  2     6.66925873E-03   # Y_mu(Q)^DRbar
  3  3     1.12165960E-01   # Y_tau(Q)^DRbar
Block Au Q=  3.21876760E+03  # (SUSY scale)
  1  1     0.00000000E+00   # A_u(Q)^DRbar
  2  2     0.00000000E+00   # A_c(Q)^DRbar
  3  3    -2.12960410E+03   # A_t(Q)^DRbar
Block Ad Q=  3.21876760E+03  # (SUSY scale)
  1  1     0.00000000E+00   # A_d(Q)^DRbar
  2  2     0.00000000E+00   # A_s(Q)^DRbar
  3  3    -3.02752777E+02   # A_b(Q)^DRbar
Block Ae Q=  3.21876760E+03  # (SUSY scale)
  1  1     0.00000000E+00   # A_e(Q)^DRbar
  2  2     0.00000000E+00   # A_mu(Q)^DRbar
  3  3     3.45041483E+02   # A_tau(Q)^DRbar
Block MSOFT Q=  3.21876760E+03  # soft SUSY breaking masses at Q
   1    1.44654573E+03  # M_1
   2    4.77833624E+02  # M_2
   3    1.30818946E+03  # M_3
  21    8.39829684E+06  # M^2_(H,d)
  22    2.66928751E+05  # M^2_(H,u)
  31    1.00000000E+04  # M_(L,11)
  32    1.00000000E+04  # M_(L,22)
  33    1.00000000E+04  # M_(L,33)
  34    1.00000000E+04  # M_(E,11)
  35    1.00000000E+04  # M_(E,22)
  36    1.00000000E+04  # M_(E,33)
  41    1.00000000E+04  # M_(Q,11)
  42    1.00000000E+04  # M_(Q,22)
  43    2.68497768E+03  # M_(Q,33)
  44    1.00000000E+04  # M_(U,11)
  45    1.00000000E+04  # M_(U,22)
  46    3.82739016E+03  # M_(U,33)
  47    1.00000000E+04  # M_(D,11)
  48    1.00000000E+04  # M_(D,22)
  49    4.90662267E+03  # M_(D,33)
Block MASS  # Mass spectrum
#   PDG code      mass          particle
         6     1.73200000E+02  # m_t(pole)
        23     9.11876000E+01  # m_Z(pole)
        24     8.04299946E+01  # W+
        15     1.77700000E+00  # m_tau(pole)
        25     1.21808143E+02  # h0
        35     2.91729256E+03  # H0
        36     2.91758436E+03  # A0
        37     2.91887502E+03  # H+
   1000001     1.01221706E+04  # ~d_L
   2000001     1.00968525E+04  # ~d_R
   1000002     1.01218078E+04  # ~u_L
   2000002     1.00995645E+04  # ~u_R
   1000003     1.01221716E+04  # ~s_L
   2000003     1.00968533E+04  # ~s_R
   1000004     1.01218089E+04  # ~c_L
   2000004     1.00995658E+04  # ~c_R
   1000005     2.71173303E+03  # ~b_1
   2000005     4.95705215E+03  # ~b_2
   1000006     2.71203495E+03  # ~t_1
   2000006     3.82018118E+03  # ~t_2
   1000011     1.00211318E+04  # ~e_L-
   2000011     1.00087924E+04  # ~e_R-
   1000012     1.00203629E+04  # ~nu_eL
   1000013     1.00211339E+04  # ~mu_L-
   2000013     1.00087965E+04  # ~mu_R-
   1000014     1.00203650E+04  # ~nu_muL
   1000015     1.00099611E+04  # ~tau_1-
   2000015     1.00217326E+04  # ~tau_2-
   1000016     1.00209618E+04  # ~nu_tauL
   1000021     1.64029623E+03  # ~g
   1000022     1.52231354E+02  # ~chi_10
   1000023     1.67729760E+02  # ~chi_20
   1000025     5.34012947E+02  # ~chi_30
   1000035     1.46213727E+03  # ~chi_40
   1000024     1.56951822E+02  # ~chi_1+
   1000037     5.34332088E+02  # ~chi_2+
# Higgs mixing
Block alpha # Effective Higgs mixing angle
          -8.72485007E-02   # alpha
Block Hmix Q=  3.21876760E+03  # Higgs mixing parameters
   1    1.48060503E+02  # mu
   2    1.09248991E+01  # tan[beta](Q)
   3    2.43164334E+02  # v(Q)
   4    8.51229850E+06  # m^2_A(Q)
Block stopmix # stop mixing matrix
   1  1     9.99070045E-01   # Re[R_st(1,1)]
   1  2     4.31166521E-02   # Re[R_st(1,2)]
   2  1    -4.31166521E-02   # Re[R_st(2,1)]
   2  2     9.99070045E-01   # Re[R_st(2,2)]
Block sbotmix # sbottom mixing matrix
   1  1     9.99999969E-01   # Re[R_sb(1,1)]
   1  2     2.50375046E-04   # Re[R_sb(1,2)]
   2  1    -2.50375046E-04   # Re[R_sb(2,1)]
   2  2     9.99999969E-01   # Re[R_sb(2,2)]
Block staumix # stau mixing matrix
   1  1     9.05404778E-03   # Re[R_sta(1,1)]
   1  2     9.99959011E-01   # Re[R_sta(1,2)]
   2  1    -9.99959011E-01   # Re[R_sta(2,1)]
   2  2     9.05404778E-03   # Re[R_sta(2,2)]
Block Nmix # neutralino mixing matrix
   1  1    -2.50336279E-02   # Re[N(1,1)]
   1  2     1.62015630E-01   # Re[N(1,2)]
   1  3    -7.17659298E-01   # Re[N(1,3)]
   1  4     6.76823009E-01   # Re[N(1,4)]
   2  1    -1.77046116E-02   # Re[N(2,1)]
   2  2     7.70403758E-02   # Re[N(2,2)]
   2  3     6.93431432E-01   # Re[N(2,3)]
   2  4     7.16173287E-01   # Re[N(2,4)]
   3  1     8.23550707E-03   # Re[N(3,1)]
   3  2     9.83772593E-01   # Re[N(3,2)]
   3  3     6.38695577E-02   # Re[N(3,3)]
   3  4    -1.67464446E-01   # Re[N(3,4)]
   4  1     9.99495893E-01   # Re[N(4,1)]
   4  2    -2.68340994E-03   # Re[N(4,2)]
   4  3    -6.21781424E-03   # Re[N(4,3)]
   4  4     3.10176961E-02   # Re[N(4,4)]
Block Umix # chargino mixing matrix
   1  1    -9.13611798E-02   # Re[U(1,1)]
   1  2     9.95817822E-01   # Re[U(1,2)]
   2  1     9.95817822E-01   # Re[U(2,1)]
   2  2     9.13611798E-02   # Re[U(2,2)]
Block Vmix # chargino mixing matrix
   1  1    -2.40637326E-01   # Re[V(1,1)]
   1  2     9.70615103E-01   # Re[V(1,2)]
   2  1     9.70615103E-01   # Re[V(2,1)]
   2  2     2.40637326E-01   # Re[V(2,2)]
DECAY        23     2.49520000E+00   # Z
DECAY        24     2.08500000E+00   # W
DECAY   2000011     4.81690367E+01   # ~e^-_R
#    BR                NDA      ID1      ID2
     6.53982776E-04    2     1000022        11   # BR(~e^-_R -> chi^0_1 e^-)
     3.27076844E-04    2     1000023        11   # BR(~e^-_R -> chi^0_2 e^-)
     9.98948528E-01    2     1000035        11   # BR(~e^-_R -> chi^0_4 e^-)
DECAY   1000011     1.43646591E+02   # ~e^-_L
#    BR                NDA      ID1      ID2
     6.78122484E-03    2     1000022        11   # BR(~e^-_L -> chi^0_1 e^-)
     1.40167134E-03    2     1000023        11   # BR(~e^-_L -> chi^0_2 e^-)
     2.98139708E-01    2     1000025        11   # BR(~e^-_L -> chi^0_3 e^-)
     8.30159047E-02    2     1000035        11   # BR(~e^-_L -> chi^0_4 e^-)
     5.12347844E-03    2    -1000024        12   # BR(~e^-_L -> chi^-_1 nu_e)
     6.05538013E-01    2    -1000037        12   # BR(~e^-_L -> chi^-_2 nu_e)
#    BR                NDA      ID1      ID2       ID3
DECAY   2000013     4.81867615E+01   # ~mu^-_R
#    BR                NDA      ID1      ID2
     7.48358397E-04    2     1000022        13   # BR(~mu^-_R -> chi^0_1 mu^-)
     4.15283552E-04    2     1000023        13   # BR(~mu^-_R -> chi^0_2 mu^-)
     9.98581531E-01    2     1000035        13   # BR(~mu^-_R -> chi^0_4 mu^-)
     1.82173654E-04    2    -1000024        14   # BR(~mu^-_R -> chi^-_1 nu_mu)
DECAY   1000013     1.43655484E+02   # ~mu^-_L
#    BR                NDA      ID1      ID2
     6.81258265E-03    2     1000022        13   # BR(~mu^-_L -> chi^0_1 mu^-)
     1.43124927E-03    2     1000023        13   # BR(~mu^-_L -> chi^0_2 mu^-)
     2.98121565E-01    2     1000025        13   # BR(~mu^-_L -> chi^0_3 mu^-)
     8.30107866E-02    2     1000035        13   # BR(~mu^-_L -> chi^0_4 mu^-)
     5.12316234E-03    2    -1000024        14   # BR(~mu^-_L -> chi^-_1 nu_mu)
     6.05500654E-01    2    -1000037        14   # BR(~mu^-_L -> chi^-_2 nu_mu)
#    BR                NDA      ID1      ID2       ID3
DECAY   1000015     5.31912135E+01   # ~tau^-_1
#    BR                NDA      ID1      ID2
     2.52919468E-02    2     1000022        15   # BR(~tau^-_1 -> chi^0_1 tau^-)
     2.27185608E-02    2     1000023        15   # BR(~tau^-_1 -> chi^0_2 tau^-)
     9.04680244E-01    2     1000035        15   # BR(~tau^-_1 -> chi^0_4 tau^-)
     4.71437315E-02    2    -1000024        16   # BR(~tau^-_1 -> chi^-_1 nu_tau)
DECAY   2000015     1.46154566E+02   # ~tau^-_2
#    BR                NDA      ID1      ID2
     1.53359418E-02    2     1000022        15   # BR(~tau^-_2 -> chi^0_1 tau^-)
     9.70371878E-03    2     1000023        15   # BR(~tau^-_2 -> chi^0_2 tau^-)
     2.93168277E-01    2     1000025        15   # BR(~tau^-_2 -> chi^0_3 tau^-)
     8.16216426E-02    2     1000035        15   # BR(~tau^-_2 -> chi^0_4 tau^-)
     4.86925143E-03    2    -1000024        16   # BR(~tau^-_2 -> chi^-_1 nu_tau)
     5.95301168E-01    2    -1000037        16   # BR(~tau^-_2 -> chi^-_2 nu_tau)
#    BR                NDA      ID1      ID2       ID3
DECAY   1000012     1.43651491E+02   # ~nu_e
#    BR                NDA      ID1      ID2
     9.44020077E-03    2     1000022        12   # BR(~nu_e -> chi^0_1 nu_e)
     2.29588787E-03    2     1000023        12   # BR(~nu_e -> chi^0_2 nu_e)
     2.92821077E-01    2     1000025        12   # BR(~nu_e -> chi^0_3 nu_e)
     8.46916612E-02    2     1000035        12   # BR(~nu_e -> chi^0_4 nu_e)
     3.55401575E-02    2     1000024        11   # BR(~nu_e -> chi^+_1 e^-)
     5.75211015E-01    2     1000037        11   # BR(~nu_e -> chi^+_2 e^-)
#    BR                NDA      ID1      ID2       ID3
DECAY   1000014     1.43660383E+02   # ~nu_mu
#    BR                NDA      ID1      ID2
     9.43961841E-03    2     1000022        14   # BR(~nu_mu -> chi^0_1 nu_mu)
     2.29574623E-03    2     1000023        14   # BR(~nu_mu -> chi^0_2 nu_mu)
     2.92803014E-01    2     1000025        14   # BR(~nu_mu -> chi^0_3 nu_mu)
     8.46864381E-02    2     1000035        14   # BR(~nu_mu -> chi^0_4 nu_mu)
     3.55991382E-02    2     1000024        13   # BR(~nu_mu -> chi^+_1 mu^-)
     5.75176045E-01    2     1000037        13   # BR(~nu_mu -> chi^+_2 mu^-)
#    BR                NDA      ID1      ID2       ID3
DECAY   1000016     1.46167088E+02   # ~nu_tau
#    BR                NDA      ID1      ID2
     9.27828597E-03    2     1000022        16   # BR(~nu_tau -> chi^0_1 nu_tau)
     2.25650968E-03    2     1000023        16   # BR(~nu_tau -> chi^0_2 nu_tau)
     2.87798900E-01    2     1000025        16   # BR(~nu_tau -> chi^0_3 nu_tau)
     8.32394897E-02    2     1000035        16   # BR(~nu_tau -> chi^0_4 nu_tau)
     5.19385283E-02    2     1000024        15   # BR(~nu_tau -> chi^+_1 tau^-)
     5.65488287E-01    2     1000037        15   # BR(~nu_tau -> chi^+_2 tau^-)
#    BR                NDA      ID1      ID2       ID3
DECAY   2000001     7.60868931E+02   # ~d_R
#    BR                NDA      ID1      ID2
     7.09401208E-03    2     1000035         1   # BR(~d_R -> chi^0_4 d)
     9.92898508E-01    2     1000021         1   # BR(~d_R -> ~g d)
DECAY   1000001     8.91845007E+02   # ~d_L
#    BR                NDA      ID1      ID2
     1.38382823E-03    2     1000022         1   # BR(~d_L -> chi^0_1 d)
     3.21090830E-04    2     1000023         1   # BR(~d_L -> chi^0_2 d)
     4.79358229E-02    2     1000025         1   # BR(~d_L -> chi^0_3 d)
     1.56325820E-03    2     1000035         1   # BR(~d_L -> chi^0_4 d)
     8.33550605E-04    2    -1000024         2   # BR(~d_L -> chi^-_1 u)
     9.85265828E-02    2    -1000037         2   # BR(~d_L -> chi^-_2 u)
     8.49435866E-01    2     1000021         1   # BR(~d_L -> ~g d)
DECAY   2000003     7.60873936E+02   # ~s_R
#    BR                NDA      ID1      ID2
     7.09396616E-03    2     1000035         3   # BR(~s_R -> chi^0_4 s)
     9.92892064E-01    2     1000021         3   # BR(~s_R -> ~g s)
DECAY   1000003     8.91851259E+02   # ~s_L
#    BR                NDA      ID1      ID2
     1.38524821E-03    2     1000022         3   # BR(~s_L -> chi^0_1 s)
     3.22423215E-04    2     1000023         3   # BR(~s_L -> chi^0_2 s)
     4.79355030E-02    2     1000025         3   # BR(~s_L -> chi^0_3 s)
     1.56324751E-03    2     1000035         3   # BR(~s_L -> chi^0_4 s)
     8.37433759E-04    2    -1000024         4   # BR(~s_L -> chi^-_1 c)
     9.85261405E-02    2    -1000037         4   # BR(~s_L -> chi^-_2 c)
     8.49430004E-01    2     1000021         3   # BR(~s_L -> ~g s)
DECAY   1000005     1.76114430E+02   # ~b_1
#    BR                NDA      ID1      ID2
     7.13416236E-03    2     1000022         5   # BR(~b_1 -> chi^0_1 b)
     5.34326097E-03    2     1000023         5   # BR(~b_1 -> chi^0_2 b)
     6.04615703E-02    2     1000025         5   # BR(~b_1 -> chi^0_3 b)
     1.11310290E-03    2     1000035         5   # BR(~b_1 -> chi^0_4 b)
     2.94974827E-01    2    -1000024         6   # BR(~b_1 -> chi^-_1 t)
     1.42279515E-01    2    -1000037         6   # BR(~b_1 -> chi^-_2 t)
     4.88693561E-01    2     1000021         5   # BR(~b_1 -> ~g b)
DECAY   2000005     3.19196339E+02   # ~b_2
#    BR                NDA      ID1      ID2
     5.33979430E-03    2     1000022         5   # BR(~b_2 -> chi^0_1 b)
     4.98337105E-03    2     1000023         5   # BR(~b_2 -> chi^0_2 b)
     7.22028216E-03    2     1000035         5   # BR(~b_2 -> chi^0_4 b)
     1.02461181E-02    2    -1000024         6   # BR(~b_2 -> chi^-_1 t)
     9.72068719E-01    2     1000021         5   # BR(~b_2 -> ~g b)
DECAY   2000002     7.77310008E+02   # ~u_R
#    BR                NDA      ID1      ID2
     2.77839592E-02    2     1000035         2   # BR(~u_R -> chi^0_4 u)
     9.72186819E-01    2     1000021         2   # BR(~u_R -> ~g u)
DECAY   1000002     8.91834678E+02   # ~u_L
#    BR                NDA      ID1      ID2
     1.23953910E-03    2     1000022         2   # BR(~u_L -> chi^0_1 u)
     2.72572536E-04    2     1000023         2   # BR(~u_L -> chi^0_2 u)
     4.82213226E-02    2     1000025         2   # BR(~u_L -> chi^0_3 u)
     1.47172253E-03    2     1000035         2   # BR(~u_L -> chi^0_4 u)
     5.78261892E-03    2     1000024         1   # BR(~u_L -> chi^+_1 d)
     9.36002504E-02    2     1000037         1   # BR(~u_L -> chi^+_2 d)
     8.49411974E-01    2     1000021         2   # BR(~u_L -> ~g u)
DECAY   2000004     7.77317433E+02   # ~c_R
#    BR                NDA      ID1      ID2
     2.77837018E-02    2     1000035         4   # BR(~c_R -> chi^0_4 c)
     9.72177631E-01    2     1000021         4   # BR(~c_R -> ~g c)
DECAY   1000004     8.91840909E+02   # ~c_L
#    BR                NDA      ID1      ID2
     1.24142135E-03    2     1000022         4   # BR(~c_L -> chi^0_1 c)
     2.74687761E-04    2     1000023         4   # BR(~c_L -> chi^0_2 c)
     4.82211065E-02    2     1000025         4   # BR(~c_L -> chi^0_3 c)
     1.47171598E-03    2     1000035         4   # BR(~c_L -> chi^0_4 c)
     5.78533139E-03    2     1000024         3   # BR(~c_L -> chi^+_1 s)
     9.35996299E-02    2     1000037         3   # BR(~c_L -> chi^+_2 s)
     8.49406107E-01    2     1000021         4   # BR(~c_L -> ~g c)
DECAY   1000006     1.75730815E+02   # ~t_1
#    BR                NDA      ID1      ID2
     1.46232376E-01    2     1000022         6   # BR(~t_1 -> chi^0_1 t)
     1.61250092E-01    2     1000023         6   # BR(~t_1 -> chi^0_2 t)
     6.76786024E-02    2     1000025         6   # BR(~t_1 -> chi^0_3 t)
     1.06757448E-03    2     1000035         6   # BR(~t_1 -> chi^0_4 t)
     2.26422997E-02    2     1000024         5   # BR(~t_1 -> chi^+_1 b)
     1.14278448E-01    2     1000037         5   # BR(~t_1 -> chi^+_2 b)
     4.85074023E-01    2     1000021         6   # BR(~t_1 -> ~g t)
#    BR                NDA      ID1      ID2       ID3
     1.76088099E-03    3     1000022        24         5   # BR(~t_1 -> chi^0_1 W^+ b)
DECAY   2000006     3.79574015E+02   # ~t_2
#    BR                NDA      ID1      ID2
     9.32638402E-02    2     1000022         6   # BR(~t_2 -> chi^0_1 t)
     1.04928784E-01    2     1000023         6   # BR(~t_2 -> chi^0_2 t)
     6.93843802E-03    2     1000025         6   # BR(~t_2 -> chi^0_3 t)
     1.65906890E-02    2     1000035         6   # BR(~t_2 -> chi^0_4 t)
     1.91434764E-01    2     1000024         5   # BR(~t_2 -> chi^+_1 b)
     1.42784488E-02    2     1000037         5   # BR(~t_2 -> chi^+_2 b)
     5.23059092E-01    2     1000021         6   # BR(~t_2 -> ~g t)
     2.25029052E-02    2     1000005        24   # BR(~t_2 -> ~b_1 W^+)
     1.11967092E-02    2     1000006        23   # BR(~t_2 -> ~t_1 Z)
     1.58063288E-02    2     1000006        25   # BR(~t_2 -> ~t_1 h^0)
DECAY   1000024     2.81969033E-09   # chi^+_1
#    BR                NDA      ID1      ID2       ID3
     3.93609585E-01    3     1000022        -1         2   # BR(chi^+_1 -> chi^0_1 d_bar u)
     2.77784508E-01    3     1000022        -3         4   # BR(chi^+_1 -> chi^0_1 s_bar c)
     1.31203229E-01    3     1000022       -11        12   # BR(chi^+_1 -> chi^0_1 e^+ nu_e)
     1.30875601E-01    3     1000022       -13        14   # BR(chi^+_1 -> chi^0_1 mu^+ nu_mu)
     6.65270763E-02    3     1000022       -15        16   # BR(chi^+_1 -> chi^0_1 tau^+ nu_tau)
DECAY   1000037     4.73041207E+00   # chi^+_2
#    BR                NDA      ID1      ID2
     2.47289589E-01    2     1000022        24   # BR(chi^+_2 -> chi^0_1 W^+)
     2.81725162E-01    2     1000023        24   # BR(chi^+_2 -> chi^0_2 W^+)
     2.51467897E-01    2     1000024        23   # BR(chi^+_2 -> chi^+_1 Z)
     2.17868562E-01    2     1000024        25   # BR(chi^+_2 -> chi^+_1 h^0)
#    BR                NDA      ID1      ID2       ID3
     9.03812909E-04    3     1000022        -5         6   # BR(chi^+_2 -> chi^0_1 b_bar t)
     7.11561223E-04    3     1000023        -5         6   # BR(chi^+_2 -> chi^0_2 b_bar t)
DECAY   1000022     0.00000000E+00   # chi^0_1
DECAY   1000023     3.85664444E-06   # chi^0_2
#    BR                NDA      ID1      ID2
     1.00878693E-01    2     1000022        22   # BR(chi^0_2 -> chi^0_1 photon)
#    BR                NDA      ID1      ID2       ID3
     8.22180443E-02    3     1000022         2        -2   # BR(chi^0_2 -> chi^0_1 u u_bar)
     7.52105043E-02    3     1000022         4        -4   # BR(chi^0_2 -> chi^0_1 c c_bar)
     1.05419621E-01    3     1000022         1        -1   # BR(chi^0_2 -> chi^0_1 d d_bar)
     1.05373997E-01    3     1000022         3        -3   # BR(chi^0_2 -> chi^0_1 s s_bar)
     4.29871370E-02    3     1000022         5        -5   # BR(chi^0_2 -> chi^0_1 b b_bar)
     2.37902246E-02    3     1000022        11       -11   # BR(chi^0_2 -> chi^0_1 e^- e^+)
     2.37739885E-02    3     1000022        13       -13   # BR(chi^0_2 -> chi^0_1 mu^- mu^+)
     1.96526718E-02    3     1000022        15       -15   # BR(chi^0_2 -> chi^0_1 tau^- tau^+)
     1.40976839E-01    3     1000022        12       -12   # BR(chi^0_2 -> chi^0_1 nu_e nu_bar_e)
     4.83351452E-02    3     1000024         1        -2   # BR(chi^0_2 -> chi^+_1 d u_bar)
     4.83351452E-02    3    -1000024        -1         2   # BR(chi^0_2 -> chi^-_1 d_bar u)
     4.51694287E-02    3     1000024         3        -4   # BR(chi^0_2 -> chi^+_1 s c_bar)
     4.51694287E-02    3    -1000024        -3         4   # BR(chi^0_2 -> chi^-_1 s_bar c)
     1.61117196E-02    3     1000024        11       -12   # BR(chi^0_2 -> chi^+_1 e^- nu_bar_e)
     1.61117196E-02    3    -1000024       -11        12   # BR(chi^0_2 -> chi^-_1 e^+ nu_e)
     1.61040807E-02    3     1000024        13       -14   # BR(chi^0_2 -> chi^+_1 mu^- nu_bar_mu)
     1.61040807E-02    3    -1000024       -13        14   # BR(chi^0_2 -> chi^-_1 mu^+ nu_mu)
     1.41387658E-02    3     1000024        15       -16   # BR(chi^0_2 -> chi^+_1 tau^- nu_bar_tau)
     1.41387658E-02    3    -1000024       -15        16   # BR(chi^0_2 -> chi^-_1 tau^+ nu_tau)
DECAY   1000025     5.27708318E+00   # chi^0_3
#    BR                NDA      ID1      ID2
     2.44142711E-01    2     1000024       -24   # BR(chi^0_3 -> chi^+_1 W^-)
     2.44142711E-01    2    -1000024        24   # BR(chi^0_3 -> chi^-_1 W^+)
     3.65453053E-02    2     1000022        23   # BR(chi^0_3 -> chi^0_1 Z)
     2.05731543E-01    2     1000023        23   # BR(chi^0_3 -> chi^0_2 Z)
     1.45883026E-01    2     1000022        25   # BR(chi^0_3 -> chi^0_1 h^0)
     1.21831628E-01    2     1000023        25   # BR(chi^0_3 -> chi^0_2 h^0)
#    BR                NDA      ID1      ID2       ID3
     8.50247787E-04    3     1000024         5        -6   # BR(chi^0_3 -> chi^+_1 b t_bar)
     8.50247787E-04    3    -1000024        -5         6   # BR(chi^0_3 -> chi^-_1 b_bar t)
DECAY   1000035     4.25236665E+00   # chi^0_4
#    BR                NDA      ID1      ID2
     2.13921833E-01    2     1000024       -24   # BR(chi^0_4 -> chi^+_1 W^-)
     2.13921833E-01    2    -1000024        24   # BR(chi^0_4 -> chi^-_1 W^+)
     2.31479724E-02    2     1000037       -24   # BR(chi^0_4 -> chi^+_2 W^-)
     2.31479724E-02    2    -1000037        24   # BR(chi^0_4 -> chi^-_2 W^+)
     6.63028853E-02    2     1000022        23   # BR(chi^0_4 -> chi^0_1 Z)
     1.69555198E-01    2     1000023        23   # BR(chi^0_4 -> chi^0_2 Z)
     3.78755478E-03    2     1000025        23   # BR(chi^0_4 -> chi^0_3 Z)
     1.36917571E-01    2     1000022        25   # BR(chi^0_4 -> chi^0_1 h^0)
     1.10758077E-01    2     1000023        25   # BR(chi^0_4 -> chi^0_2 h^0)
     1.83198621E-02    2     1000025        25   # BR(chi^0_4 -> chi^0_3 h^0)
#    BR                NDA      ID1      ID2       ID3
     3.44684320E-03    3     1000022         6        -6   # BR(chi^0_4 -> chi^0_1 t t_bar)
     3.64549759E-03    3     1000023         6        -6   # BR(chi^0_4 -> chi^0_2 t t_bar)
     2.53229107E-04    3     1000025         6        -6   # BR(chi^0_4 -> chi^0_3 t t_bar)
     5.89808111E-03    3     1000024         5        -6   # BR(chi^0_4 -> chi^+_1 b t_bar)
     5.89808111E-03    3    -1000024        -5         6   # BR(chi^0_4 -> chi^-_1 b_bar t)
     5.34792162E-04    3     1000037         5        -6   # BR(chi^0_4 -> chi^+_2 b t_bar)
     5.34792162E-04    3    -1000037        -5         6   # BR(chi^0_4 -> chi^-_2 b_bar t)
DECAY   1000021     1.75479450E-02   # ~g
#    BR                NDA      ID1      ID2
     7.10343571E-03    2     1000022        21   # BR(~g -> chi^0_1 g)
     8.21370501E-03    2     1000023        21   # BR(~g -> chi^0_2 g)
     2.86744659E-04    2     1000025        21   # BR(~g -> chi^0_3 g)
#    BR                NDA      ID1      ID2       ID3
     1.58516218E-01    3     1000022         6        -6   # BR(~g -> chi^0_1 t t_bar)
     7.72908363E-03    3     1000022         5        -5   # BR(~g -> chi^0_1 b b_bar)
     1.79447017E-01    3     1000023         6        -6   # BR(~g -> chi^0_2 t t_bar)
     5.94183045E-03    3     1000023         5        -5   # BR(~g -> chi^0_2 b b_bar)
     1.42338546E-04    3     1000025         2        -2   # BR(~g -> chi^0_3 u u_bar)
     1.42339762E-04    3     1000025         4        -4   # BR(~g -> chi^0_3 c c_bar)
     4.46547948E-02    3     1000025         6        -6   # BR(~g -> chi^0_3 t t_bar)
     1.41467998E-04    3     1000025         1        -1   # BR(~g -> chi^0_3 d d_bar)
     1.41468014E-04    3     1000025         3        -3   # BR(~g -> chi^0_3 s s_bar)
     3.98598859E-02    3     1000025         5        -5   # BR(~g -> chi^0_3 b b_bar)
     1.86871499E-01    3     1000024         5        -6   # BR(~g -> chi^+_1 b t_bar)
     1.86871499E-01    3    -1000024        -5         6   # BR(~g -> chi^-_1 b_bar t)
     2.83267385E-04    3     1000037         1        -2   # BR(~g -> chi^+_2 d u_bar)
     2.83267385E-04    3    -1000037        -1         2   # BR(~g -> chi^-_2 d_bar u)
     2.83268701E-04    3     1000037         3        -4   # BR(~g -> chi^+_2 s c_bar)
     2.83268701E-04    3    -1000037        -3         4   # BR(~g -> chi^-_2 s_bar c)
     8.63538322E-02    3     1000037         5        -6   # BR(~g -> chi^+_2 b t_bar)
     8.63538322E-02    3    -1000037        -5         6   # BR(~g -> chi^-_2 b_bar t)
DECAY        25     3.50919234E-03   # Gamma(h0)
     2.36243310E-03   2        22        22   # BR(h0 -> photon photon)
     1.23681060E-03   2        22        23   # BR(h0 -> photon Z)
     2.02688549E-02   2        23        23   # BR(h0 -> Z Z)
     1.78564711E-01   2       -24        24   # BR(h0 -> W W)
     7.44788475E-02   2        21        21   # BR(h0 -> gluon gluon)
     5.54465123E-09   2       -11        11   # BR(h0 -> Electron electron)
     2.46634076E-04   2       -13        13   # BR(h0 -> Muon muon)
     7.11089324E-02   2       -15        15   # BR(h0 -> Tau tau)
     1.57991703E-07   2        -2         2   # BR(h0 -> Up up)
     3.06567464E-02   2        -4         4   # BR(h0 -> Charm charm)
     6.44824091E-07   2        -1         1   # BR(h0 -> Down down)
     2.33217854E-04   2        -3         3   # BR(h0 -> Strange strange)
     6.20842003E-01   2        -5         5   # BR(h0 -> Bottom bottom)
DECAY        35     4.17239305E+01   # Gamma(HH)
     1.31064368E-07   2        22        22   # BR(HH -> photon photon)
     1.93926432E-07   2        22        23   # BR(HH -> photon Z)
     6.74768544E-06   2        23        23   # BR(HH -> Z Z)
     2.11412984E-06   2       -24        24   # BR(HH -> W W)
     2.45996877E-06   2        21        21   # BR(HH -> gluon gluon)
     1.47097121E-09   2       -11        11   # BR(HH -> Electron electron)
     6.54940784E-05   2       -13        13   # BR(HH -> Muon muon)
     1.89154127E-02   2       -15        15   # BR(HH -> Tau tau)
     1.44890901E-12   2        -2         2   # BR(HH -> Up up)
     2.81070960E-07   2        -4         4   # BR(HH -> Charm charm)
     2.07845023E-02   2        -6         6   # BR(HH -> Top top)
     1.08601763E-07   2        -1         1   # BR(HH -> Down down)
     3.92817609E-05   2        -3         3   # BR(HH -> Strange strange)
     1.03114108E-01   2        -5         5   # BR(HH -> Bottom bottom)
     3.44952729E-02   2  -1000024   1000024   # BR(HH -> Chargino1 chargino1)
     2.51847706E-01   2  -1000024   1000037   # BR(HH -> Chargino1 chargino2)
     2.51847706E-01   2  -1000037   1000024   # BR(HH -> Chargino2 chargino1)
     2.38594130E-03   2  -1000037   1000037   # BR(HH -> Chargino2 chargino2)
     8.40464910E-03   2   1000022   1000022   # BR(HH -> neutralino1 neutralino1)
     1.72937575E-03   2   1000022   1000023   # BR(HH -> neutralino1 neutralino2)
     1.06167589E-01   2   1000022   1000025   # BR(HH -> neutralino1 neutralino3)
     1.89154028E-02   2   1000022   1000035   # BR(HH -> neutralino1 neutralino4)
     2.74085912E-03   2   1000023   1000023   # BR(HH -> neutralino2 neutralino2)
     1.49063566E-01   2   1000023   1000025   # BR(HH -> neutralino2 neutralino3)
     2.81117559E-02   2   1000023   1000035   # BR(HH -> neutralino2 neutralino4)
     1.22044032E-03   2   1000025   1000025   # BR(HH -> neutralino3 neutralino3)
     1.06776849E-04   2   1000025   1000035   # BR(HH -> neutralino3 neutralino4)
     2.71898705E-09   2   1000035   1000035   # BR(HH -> neutralino4 neutralino4)
     3.21196703E-05   2        25        25   # BR(HH -> h0 h0)
DECAY        36     4.14675473E+01   # Gamma(A0)
     1.48058659E-07   2        22        22   # BR(A0 -> photon photon)
     1.78744799E-07   2        22        23   # BR(A0 -> photon Z)
     1.46702898E-05   2        21        21   # BR(A0 -> gluon gluon)
     1.42221340E-09   2       -11        11   # BR(A0 -> Electron electron)
     6.33227734E-05   2       -13        13   # BR(A0 -> Muon muon)
     1.82883457E-02   2       -15        15   # BR(A0 -> Tau tau)
     1.33524937E-12   2        -2         2   # BR(A0 -> Up up)
     2.59012257E-07   2        -4         4   # BR(A0 -> Charm charm)
     1.94295321E-02   2        -6         6   # BR(A0 -> Top top)
     1.05000202E-07   2        -1         1   # BR(A0 -> Down down)
     3.79789482E-05   2        -3         3   # BR(A0 -> Strange strange)
     9.96948515E-02   2        -5         5   # BR(A0 -> Bottom bottom)
     3.98017503E-02   2  -1000024   1000024   # BR(A0 -> Chargino1 chargino1)
     2.48503238E-01   2  -1000024   1000037   # BR(A0 -> Chargino1 chargino2)
     2.48503238E-01   2  -1000037   1000024   # BR(A0 -> Chargino2 chargino1)
     7.21055255E-03   2  -1000037   1000037   # BR(A0 -> Chargino2 chargino2)
     1.18336181E-02   2   1000022   1000022   # BR(A0 -> neutralino1 neutralino1)
     5.47214356E-04   2   1000022   1000023   # BR(A0 -> neutralino1 neutralino2)
     1.51423613E-01   2   1000022   1000025   # BR(A0 -> neutralino1 neutralino3)
     2.97543013E-02   2   1000022   1000035   # BR(A0 -> neutralino1 neutralino4)
     1.93801377E-03   2   1000023   1000023   # BR(A0 -> neutralino2 neutralino2)
     1.01711513E-01   2   1000023   1000025   # BR(A0 -> neutralino2 neutralino3)
     1.71690684E-02   2   1000023   1000035   # BR(A0 -> neutralino2 neutralino4)
     3.55805049E-03   2   1000025   1000025   # BR(A0 -> neutralino3 neutralino3)
     5.04201012E-04   2   1000025   1000035   # BR(A0 -> neutralino3 neutralino4)
     1.40553796E-06   2   1000035   1000035   # BR(A0 -> neutralino4 neutralino4)
     1.08291219E-05   2        23        25   # BR(A0 -> Z h0)
     1.03509631E-40   2        25        25   # BR(A0 -> h0 h0)
DECAY        37     4.15544089E+01   # Gamma(Hp)
     1.52649962E-09   2       -11        12   # BR(Hp -> Electron nu_e)
     6.52626264E-05   2       -13        14   # BR(Hp -> Muon nu_mu)
     1.84599811E-02   2       -15        16   # BR(Hp -> Tau nu_tau)
     9.78067216E-08   2        -1         2   # BR(Hp -> Down up)
     1.65043182E-06   2        -3         2   # BR(Hp -> Strange up)
     1.06192583E-06   2        -5         2   # BR(Hp -> Bottom up)
     1.71720358E-08   2        -1         4   # BR(Hp -> Down charm)
     3.55177279E-05   2        -3         4   # BR(Hp -> Strange charm)
     1.48708025E-04   2        -5         4   # BR(Hp -> Bottom charm)
     1.37861056E-06   2        -1         6   # BR(Hp -> Down top)
     3.01104241E-05   2        -3         6   # BR(Hp -> Strange top)
     1.21428074E-01   2        -5         6   # BR(Hp -> Bottom top)
     1.04647714E-03   2   1000022   1000024   # BR(Hp -> neutralino1 chargino1)
     2.86086049E-01   2   1000022   1000037   # BR(Hp -> neutralino1 chargino2)
     8.07219910E-03   2   1000023   1000024   # BR(Hp -> neutralino2 chargino1)
     2.52333772E-01   2   1000023   1000037   # BR(Hp -> neutralino2 chargino2)
     2.65783823E-01   2   1000024   1000025   # BR(Hp -> chargino1 neutralino3)
     1.74406224E-07   2   1000025   1000037   # BR(Hp -> neutralino3 chargino2)
     4.58791547E-02   2   1000024   1000035   # BR(Hp -> chargino1 neutralino4)
     6.15661855E-04   2   1000035   1000037   # BR(Hp -> neutralino4 chargino2)
     1.08280195E-05   2        24        25   # BR(Hp -> W h0)
     3.25061318E-13   2        24        35   # BR(Hp -> W HH)
     1.17326355E-13   2        24        36   # BR(Hp -> W A0)
DECAY         6     2.43000000E+00   # top
#    BR                NDA      ID1      ID2
     1.00000000E+00    2           5        24   # BR(t -> b W)
Block HiggsBoundsInputHiggsCouplingsFermions
# ScalarNormEffCoupSq PseudoSNormEffCoupSq NP IP1 IP2 IP2
    9.13844094E-01    0.00000000E+00        3  25   5   5  # h0-b-b eff. coupling^2, normalised to SM
    1.19439576E+02    0.00000000E+00        3  35   5   5  # H0-b-b eff. coupling^2, normalised to SM
    0.00000000E+00    1.19353420E+02        3  36   5   5  # A0-b-b eff. coupling^2, normalised to SM
#
    1.00072186E+00    0.00000000E+00        3  25   6   6  # h0-t-t eff. coupling^2, normalised to SM
    7.65662258E-03    0.00000000E+00        3  35   6   6  # H0-t-t eff. coupling^2, normalised to SM
    0.00000000E+00    8.37847794E-03        3  36   6   6  # A0-t-t eff. coupling^2, normalised to SM
#
    9.13844094E-01    0.00000000E+00        3  25  15  15  # h0-tau-tau eff. coupling^2, normalised to SM
    1.19439576E+02    0.00000000E+00        3  35  15  15  # H0-tau-tau eff. coupling^2, normalised to SM
    0.00000000E+00    1.19353420E+02        3  36  15  15  # A0-tau-tau eff. coupling^2, normalised to SM
#
Block HiggsBoundsInputHiggsCouplingsBosons
    9.99983750E-01        3  25  24  24  # h0-W-W eff. coupling^2, normalised to SM
    1.62501978E-05        3  35  24  24  # H0-W-W eff. coupling^2, normalised to SM
    0.00000000E+00        3  36  24  24  # A0-W-W eff. coupling^2, normalised to SM
#
    9.99983750E-01        3  25  23  23  # h0-Z-Z eff. coupling^2, normalised to SM
    1.62501978E-05        3  35  23  23  # H0-Z-Z eff. coupling^2, normalised to SM
    0.00000000E+00        3  36  23  23  # A0-Z-Z eff. coupling^2, normalised to SM
#
    1.26936845E+00        3  25  21  21  # h0-g-g eff. coupling^2, normalised to SM
    4.34052615E-03        3  35  21  21  # H0-g-g eff. coupling^2, normalised to SM
    1.15866386E-01        3  36  21  21  # A0-g-g eff. coupling^2, normalised to SM
#
    0.00000000E+00        3  25  25  23  # h0-h0-Z eff. coupling^2, normalised to SM
    0.00000000E+00        3  35  25  23  # H0-h0-Z eff. coupling^2, normalised to SM
    1.62501978E-05        3  36  25  23  # A0-h0-Z eff. coupling^2, normalised to SM
    0.00000000E+00        3  35  35  23  # H0-H0-Z eff. coupling^2, normalised to SM
    9.99983750E-01        3  36  35  23  # A0-H0-Z eff. coupling^2, normalised to SM
    0.00000000E+00        3  36  36  23  # A0-A0-Z eff. coupling^2, normalised to SM
#
    0.00000000E+00        4  25  21  21  23  # h0-g-g-Z eff. coupling^2, normalised to SM
    0.00000000E+00        4  35  21  21  23  # H0-g-g-Z eff. coupling^2, normalised to SM
    0.00000000E+00        4  36  21  21  23  # A0-g-g-Z eff. coupling^2, normalised to SM
Block SPhenoLowEnergy  # low energy observables
    1    3.22771248E-04   # BR(b -> s gamma)
    2    1.58951976E-06   # BR(b -> s mu+ mu-)
    3    3.52421098E-05   # BR(b -> s nu nu)
    4    2.62162861E-15   # BR(Bd -> e+ e-)
    5    1.11992988E-10   # BR(Bd -> mu+ mu-)
    6    2.34440750E-08   # BR(Bd -> tau+ tau-)
    7    8.83132661E-14   # BR(Bs -> e+ e-)
    8    3.77273961E-09   # BR(Bs -> mu+ mu-)
    9    8.00212797E-07   # BR(Bs -> tau+ tau-)
   10    9.67152644E-05   # BR(B_u -> tau nu)
   11    9.99031654E-01   # BR(B_u -> tau nu)/BR(B_u -> tau nu)_SM
   12    5.42254544E-01   # |Delta(M_Bd)| [ps^-1] 
   13    1.93748663E+01   # |Delta(M_Bs)| [ps^-1] 
   14    0.00000000E+00   # neutron EDM according to the chiral quark model
   15    0.00000000E+00   # neutron EDM according to the relativistic quark-parton model
   16    2.15839008E-03   # epsilon_K
   17    2.28166913E-15   # Delta(M_K)
   18    2.47901240E-11   # BR(K^0 -> pi^0 nu nu)
   19    8.28817598E-11   # BR(K^+ -> pi^+ nu nu)
   20    8.31552837E-17   # Delta(g-2)_electron/2
   21    3.55515096E-12   # Delta(g-2)_muon/2
   22    1.00575361E-09   # Delta(g-2)_tau/2
   23    0.00000000E+00   # electric dipole moment of the electron
   24    0.00000000E+00   # electric dipole moment of the muon
   25    0.00000000E+00   # electric dipole moment of the tau
   26    0.00000000E+00   # Br(mu -> e gamma)
   27    0.00000000E+00   # Br(tau -> e gamma)
   28    0.00000000E+00   # Br(tau -> mu gamma)
   29    0.00000000E+00   # Br(mu -> 3 e)
   30    0.00000000E+00   # Br(tau -> 3 e)
   31    0.00000000E+00   # Br(tau -> 3 mu)
   39    1.28540848E-06   # Delta(rho_parameter)
   40    0.00000000E+00   # BR(Z -> e mu)
   41    0.00000000E+00   # BR(Z -> e tau)
   42    0.00000000E+00   # BR(Z -> mu tau)
Block FWCOEF Q=  1.60000000E+02  # Wilson coefficients at scale Q
#    id        order  M        value         comment
     0305 4422   00   0    -1.88819110E-01   # C7
     0305 4422   00   2    -1.90484513E-01   # C7
     0305 4322   00   2    -1.15196063E-04   # C7'
     0305 6421   00   0    -9.52278348E-02   # C8
     0305 6421   00   2    -1.02272242E-01   # C8
     0305 6321   00   2    -1.77901423E-04   # C8'
 03051111 4133   00   0     1.61864871E+00   # C9 e+e-
 03051111 4133   00   2     1.61919789E+00   # C9 e+e-
 03051111 4233   00   2     3.90585491E-05   # C9' e+e-
 03051111 4137   00   0    -4.44134081E+00   # C10 e+e-
 03051111 4137   00   2    -4.43863922E+00   # C10 e+e-
 03051111 4237   00   2    -2.91875408E-04   # C10' e+e-
 03051313 4133   00   0     1.61864871E+00   # C9 mu+mu-
 03051313 4133   00   2     1.61919788E+00   # C9 mu+mu-
 03051313 4233   00   2     3.90585457E-05   # C9' mu+mu-
 03051313 4137   00   0    -4.44134081E+00   # C10 mu+mu-
 03051313 4137   00   2    -4.43863923E+00   # C10 mu+mu-
 03051313 4237   00   2    -2.91875409E-04   # C10' mu+mu-
 03051212 4137   00   0     1.50535012E+00   # C11 nu_1 nu_1
 03051212 4137   00   2     1.50476709E+00   # C11 nu_1 nu_1
 03051212 4237   00   2     6.32283661E-05   # C11' nu_1 nu_1
 03051414 4137   00   0     1.50535012E+00   # C11 nu_2 nu_2
 03051414 4137   00   2     1.50476709E+00   # C11 nu_2 nu_2
 03051414 4237   00   2     6.32283666E-05   # C11' nu_2 nu_2
 03051616 4137   00   0     1.50535012E+00   # C11 nu_3 nu_3
 03051616 4137   00   2     1.50476709E+00   # C11 nu_3 nu_3
 03051616 4237   00   2     6.32285048E-05   # C11' nu_3 nu_3
Block IMFWCOEF Q=  1.60000000E+02  # Im(Wilson coefficients) at scale Q
#    id        order  M        value         comment
     0305 4422   00   0     3.85823518E-07   # C7
     0305 4422   00   2     7.14186241E-06   # C7
     0305 4322   00   2     4.16116205E-07   # C7'
     0305 6421   00   0     3.30483359E-07   # C8
     0305 6421   00   2    -4.25298233E-06   # C8
     0305 6321   00   2     6.91753505E-09   # C8'
 03051111 4133   00   2     1.41932489E-06   # C9 e+e-
 03051111 4233   00   2     7.59901177E-07   # C9' e+e-
 03051111 4137   00   2     6.64745921E-07   # C10 e+e-
 03051111 4237   00   2    -5.67971449E-06   # C10' e+e-
 03051313 4133   00   2     1.41932446E-06   # C9 mu+mu-
 03051313 4233   00   2     7.59901158E-07   # C9' mu+mu-
 03051313 4137   00   2     6.64746355E-07   # C10 mu+mu-
 03051313 4237   00   2    -5.67971455E-06   # C10' mu+mu-
 03051212 4137   00   2    -1.04476757E-07   # C11 nu_1 nu_1
 03051212 4237   00   2     1.23038536E-06   # C11' nu_1 nu_1
 03051414 4137   00   2    -1.04476737E-07   # C11 nu_2 nu_2
 03051414 4237   00   2     1.23038536E-06   # C11' nu_2 nu_2
 03051616 4137   00   2    -1.04471098E-07   # C11 nu_3 nu_3
 03051616 4237   00   2     1.23038536E-06   # C11' nu_3 nu_3
