# SUSY Les Houches Accord 2 - MSSM spectrum + Decays
# SPheno v4.0.5be
# W. Porod, Comput. Phys. Commun. 153 (2003) 275-315, hep-ph/0301101;
# W. Porod, F.~Staub, Comput. Phys. Commun. 183 (2012) 2458
#                     arXiv:1104.1573 [hep-ph] 
# in case of problems send email to porod@physik.uni-wuerzburg.de
# Created: 15.05.2022,  08:28
Block SPINFO         # Program information
     1   SPheno      # spectrum calculator
     2   v4.0.5be    # version number
#
Block SPhenoINFO     # SPheno specific information
    1      2         # using 2-loop RGEs
    2      2         # using pole masses for boundary conditions at mZ
Block MODSEL  # Model selection
    1    0    # general MSSM
Block MINPAR  # Input parameters
    3    2.00005866E+01  # tanb at m_Z    
    4    1.00000000E+00  # Sign(mu)
Block EXTPAR  # non-universal input parameters
    0    3.36491576E+03  # scale for input parameters
    1    1.69441830E+02  # M_1
    2    7.04544407E+02  # M_2
    3    2.97410065E+03  # M_3
   11   -8.79127665E+01  # A_t
   12    5.38073666E+02  # A_b
   13    2.62735142E+02  # A_tau
   23    1.65338466E+02  # mu
   25    1.91334831E+01  # tan(beta)
   26    2.83070642E+03  # m_A, pole mass
   31    6.96509736E+02  # M_L11
   32    6.96509736E+02  # M_L22
   33    4.17400394E+02  # M_L33
   34    6.07377274E+02  # M_E11
   35    6.07377274E+02  # M_E22
   36    1.11556260E+03  # M_E33
   41    1.00000000E+04  # M_Q11
   42    1.00000000E+04  # M_Q22
   43    2.70492571E+03  # M_Q33
   44    1.00000000E+04  # M_U11
   45    1.00000000E+04  # M_U22
   46    3.96976786E+03  # M_U33
   47    1.00000000E+04  # M_D11
   48    1.00000000E+04  # M_D22
   49    4.44822628E+03  # M_D33
Block SMINPUTS  # SM parameters
         1     1.27908970E+02  # alpha_em^-1(MZ)^MSbar
         2     1.16637870E-05  # G_mu [GeV^-2]
         3     1.18400000E-01  # alpha_s(MZ)^MSbar
         4     9.11876000E+01  # m_Z(pole)
         5     4.18000000E+00  # m_b(m_b), MSbar
         6     1.73200000E+02  # m_t(pole)
         7     1.77700000E+00  # m_tau(pole)
         8     0.00000000E+00  # m_nu_3
        11     5.10998930E-04  # m_e(pole)
        12     0.00000000E+00  # m_nu_1
        13     1.05658372E-01  # m_muon(pole)
        14     0.00000000E+00  # m_nu_2
        21     5.00000000E-03  # m_d(2 GeV), MSbar
        22     2.50000000E-03  # m_u(2 GeV), MSbar
        23     9.50000000E-02  # m_s(2 GeV), MSbar
        24     1.27000000E+00  # m_c(m_c), MSbar
Block gauge Q=  3.36491576E+03  # (SUSY scale)
   1    3.55362975E-01  # g'(Q)^DRbar
   2    6.65198874E-01  # g(Q)^DRbar
   3    1.21977796E+00  # g3(Q)^DRbar
Block Yu Q=  3.36491576E+03  # (SUSY scale)
  1  1     8.39581556E-06   # Y_u(Q)^DRbar
  2  2     4.26507431E-03   # Y_c(Q)^DRbar
  3  3     1.01428196E+00   # Y_t(Q)^DRbar
Block Yd Q=  3.36491576E+03  # (SUSY scale)
  1  1     3.22802712E-04   # Y_d(Q)^DRbar
  2  2     6.13325152E-03   # Y_s(Q)^DRbar
  3  3     3.20119138E-01   # Y_b(Q)^DRbar
Block Ye Q=  3.36491576E+03  # (SUSY scale)
  1  1     5.63314337E-05   # Y_e(Q)^DRbar
  2  2     1.16475539E-02   # Y_mu(Q)^DRbar
  3  3     1.95892695E-01   # Y_tau(Q)^DRbar
Block Au Q=  3.36491576E+03  # (SUSY scale)
  1  1     0.00000000E+00   # A_u(Q)^DRbar
  2  2     0.00000000E+00   # A_c(Q)^DRbar
  3  3    -8.79127672E+01   # A_t(Q)^DRbar
Block Ad Q=  3.36491576E+03  # (SUSY scale)
  1  1     0.00000000E+00   # A_d(Q)^DRbar
  2  2     0.00000000E+00   # A_s(Q)^DRbar
  3  3     5.38073665E+02   # A_b(Q)^DRbar
Block Ae Q=  3.36491576E+03  # (SUSY scale)
  1  1     0.00000000E+00   # A_e(Q)^DRbar
  2  2     0.00000000E+00   # A_mu(Q)^DRbar
  3  3     2.62735141E+02   # A_tau(Q)^DRbar
Block MSOFT Q=  3.36491576E+03  # soft SUSY breaking masses at Q
   1    1.69441830E+02  # M_1
   2    7.04544407E+02  # M_2
   3    2.97410065E+03  # M_3
  21    7.99587220E+06  # M^2_(H,d)
  22    2.25849111E+05  # M^2_(H,u)
  31    6.96509736E+02  # M_(L,11)
  32    6.96509736E+02  # M_(L,22)
  33    4.17400394E+02  # M_(L,33)
  34    6.07377274E+02  # M_(E,11)
  35    6.07377274E+02  # M_(E,22)
  36    1.11556260E+03  # M_(E,33)
  41    1.00000000E+04  # M_(Q,11)
  42    1.00000000E+04  # M_(Q,22)
  43    2.70492571E+03  # M_(Q,33)
  44    1.00000000E+04  # M_(U,11)
  45    1.00000000E+04  # M_(U,22)
  46    3.96976786E+03  # M_(U,33)
  47    1.00000000E+04  # M_(D,11)
  48    1.00000000E+04  # M_(D,22)
  49    4.44822628E+03  # M_(D,33)
Block MASS  # Mass spectrum
#   PDG code      mass          particle
         6     1.73200000E+02  # m_t(pole)
        23     9.11876000E+01  # m_Z(pole)
        24     8.04299946E+01  # W+
        15     1.77700000E+00  # m_tau(pole)
        25     1.21050331E+02  # h0
        35     2.83030338E+03  # H0
        36     2.83070642E+03  # A0
        37     2.83213344E+03  # H+
   1000001     1.01056869E+04  # ~d_L
   2000001     1.00807372E+04  # ~d_R
   1000002     1.01053213E+04  # ~u_L
   2000002     1.00838189E+04  # ~u_R
   1000003     1.01056887E+04  # ~s_L
   2000003     1.00807395E+04  # ~s_R
   1000004     1.01053231E+04  # ~c_L
   2000004     1.00838201E+04  # ~c_R
   1000005     2.81679274E+03  # ~b_1
   2000005     4.51811459E+03  # ~b_2
   1000006     2.81948244E+03  # ~t_1
   2000006     4.01586402E+03  # ~t_2
   1000011     7.08719284E+02  # ~e_L-
   2000011     6.16567476E+02  # ~e_R-
   1000012     7.03765671E+02  # ~nu_eL
   1000013     7.08711530E+02  # ~mu_L-
   2000013     6.16547958E+02  # ~mu_R-
   1000014     7.03757599E+02  # ~nu_muL
   1000015     4.32019417E+02  # ~tau_1-
   2000015     1.11763898E+03  # ~tau_2-
   1000016     4.24302544E+02  # ~nu_tauL
   1000021     3.41977164E+03  # ~g
   1000022     1.40357648E+02  # ~chi_10
   1000023     1.86404053E+02  # ~chi_20
   1000025     2.04242515E+02  # ~chi_30
   1000035     7.52045138E+02  # ~chi_40
   1000024     1.77939202E+02  # ~chi_1+
   1000037     7.52246389E+02  # ~chi_2+
# Higgs mixing
Block alpha # Effective Higgs mixing angle
          -5.01021461E-02   # alpha
Block Hmix Q=  3.36491576E+03  # Higgs mixing parameters
   1    1.65338466E+02  # mu
   2    1.91334831E+01  # tan[beta](Q)
   3    2.43139153E+02  # v(Q)
   4    8.01289884E+06  # m^2_A(Q)
Block stopmix # stop mixing matrix
   1  1     9.99987608E-01   # Re[R_st(1,1)]
   1  2     4.97834770E-03   # Re[R_st(1,2)]
   2  1    -4.97834770E-03   # Re[R_st(2,1)]
   2  2     9.99987608E-01   # Re[R_st(2,2)]
Block sbotmix # sbottom mixing matrix
   1  1     9.99999894E-01   # Re[R_sb(1,1)]
   1  2     4.60069274E-04   # Re[R_sb(1,2)]
   2  1    -4.60069274E-04   # Re[R_sb(2,1)]
   2  2     9.99999894E-01   # Re[R_sb(2,2)]
Block staumix # stau mixing matrix
   1  1     9.99986522E-01   # Re[R_sta(1,1)]
   1  2     5.19186950E-03   # Re[R_sta(1,2)]
   2  1    -5.19186950E-03   # Re[R_sta(2,1)]
   2  2     9.99986522E-01   # Re[R_sta(2,2)]
Block Nmix # neutralino mixing matrix
   1  1     7.30631211E-01   # Re[N(1,1)]
   1  2    -5.94286191E-02   # Re[N(1,2)]
   1  3     5.32047566E-01   # Re[N(1,3)]
   1  4    -4.23758965E-01   # Re[N(1,4)]
   2  1     8.39795878E-02   # Re[N(2,1)]
   2  2    -5.88131887E-02   # Re[N(2,2)]
   2  3    -6.91454433E-01   # Re[N(2,3)]
   2  4    -7.15107828E-01   # Re[N(2,4)]
   3  1    -6.77531509E-01   # Re[N(3,1)]
   3  2    -8.41955450E-02   # Re[N(3,2)]
   3  3     4.87623845E-01   # Re[N(3,3)]
   3  4    -5.44137069E-01   # Re[N(3,4)]
   4  1     8.74742199E-03   # Re[N(4,1)]
   4  2    -9.92935224E-01   # Re[N(4,2)]
   4  3    -3.22357056E-02   # Re[N(4,3)]
   4  4     1.13859491E-01   # Re[N(4,4)]
Block Umix # chargino mixing matrix
   1  1    -4.55678470E-02   # Re[U(1,1)]
   1  2     9.98961246E-01   # Re[U(1,2)]
   2  1     9.98961246E-01   # Re[U(2,1)]
   2  2     4.55678470E-02   # Re[U(2,2)]
Block Vmix # chargino mixing matrix
   1  1    -1.61188813E-01   # Re[V(1,1)]
   1  2     9.86923587E-01   # Re[V(1,2)]
   2  1     9.86923587E-01   # Re[V(2,1)]
   2  2     1.61188813E-01   # Re[V(2,2)]
DECAY        23     2.49520000E+00   # Z
DECAY        24     2.08500000E+00   # W
DECAY   2000011     2.63203033E+00   # ~e^-_R
#    BR                NDA      ID1      ID2
     5.64898945E-01    2     1000022        11   # BR(~e^-_R -> chi^0_1 e^-)
     6.85309686E-03    2     1000023        11   # BR(~e^-_R -> chi^0_2 e^-)
     4.28247946E-01    2     1000025        11   # BR(~e^-_R -> chi^0_3 e^-)
DECAY   1000011     8.49238362E-01   # ~e^-_L
#    BR                NDA      ID1      ID2
     3.71245172E-01    2     1000022        11   # BR(~e^-_L -> chi^0_1 e^-)
     6.19324398E-04    2     1000023        11   # BR(~e^-_L -> chi^0_2 e^-)
     6.14743672E-01    2     1000025        11   # BR(~e^-_L -> chi^0_3 e^-)
     1.33918262E-02    2    -1000024        12   # BR(~e^-_L -> chi^-_1 nu_e)
#    BR                NDA      ID1      ID2       ID3
DECAY   2000013     2.63470947E+00   # ~mu^-_R
#    BR                NDA      ID1      ID2
     5.64461877E-01    2     1000022        13   # BR(~mu^-_R -> chi^0_1 mu^-)
     7.09540318E-03    2     1000023        13   # BR(~mu^-_R -> chi^0_2 mu^-)
     4.27913067E-01    2     1000025        13   # BR(~mu^-_R -> chi^0_3 mu^-)
     5.29653588E-04    2    -1000024        14   # BR(~mu^-_R -> chi^-_1 nu_mu)
DECAY   1000013     8.50899928E-01   # ~mu^-_L
#    BR                NDA      ID1      ID2
     3.71104706E-01    2     1000022        13   # BR(~mu^-_L -> chi^0_1 mu^-)
     1.54942833E-03    2     1000023        13   # BR(~mu^-_L -> chi^0_2 mu^-)
     6.13980369E-01    2     1000025        13   # BR(~mu^-_L -> chi^0_3 mu^-)
     1.33654902E-02    2    -1000024        14   # BR(~mu^-_L -> chi^-_1 nu_mu)
#    BR                NDA      ID1      ID2       ID3
DECAY   1000015     6.27460386E-01   # ~tau^-_1
#    BR                NDA      ID1      ID2
     3.88102346E-01    2     1000022        15   # BR(~tau^-_1 -> chi^0_1 tau^-)
     1.66271740E-01    2     1000023        15   # BR(~tau^-_1 -> chi^0_2 tau^-)
     4.36357083E-01    2     1000025        15   # BR(~tau^-_1 -> chi^0_3 tau^-)
     9.26875561E-03    2    -1000024        16   # BR(~tau^-_1 -> chi^-_1 nu_tau)
#    BR                NDA      ID1      ID2       ID3
DECAY   2000015     6.99749237E+00   # ~tau^-_2
#    BR                NDA      ID1      ID2
     4.47627705E-01    2     1000022        15   # BR(~tau^-_2 -> chi^0_1 tau^-)
     6.06736723E-02    2     1000023        15   # BR(~tau^-_2 -> chi^0_2 tau^-)
     3.71788248E-01    2     1000025        15   # BR(~tau^-_2 -> chi^0_3 tau^-)
     1.15401601E-01    2    -1000024        16   # BR(~tau^-_2 -> chi^-_1 nu_tau)
     1.45618326E-04    2    -1000037        16   # BR(~tau^-_2 -> chi^-_2 nu_tau)
     2.23873406E-03    2     1000016       -24   # BR(~tau^-_2 -> ~nu_tau W^-)
     1.09042867E-03    2     1000015        23   # BR(~tau^-_2 -> ~tau^-_1 Z)
     9.42557972E-04    2     1000015        25   # BR(~tau^-_2 -> ~tau^-_1 h^0)
DECAY   1000012     9.47962827E-01   # ~nu_e
#    BR                NDA      ID1      ID2
     6.09427186E-01    2     1000022        12   # BR(~nu_e -> chi^0_1 nu_e)
     3.03686155E-02    2     1000023        12   # BR(~nu_e -> chi^0_2 nu_e)
     2.11419285E-01    2     1000025        12   # BR(~nu_e -> chi^0_3 nu_e)
     1.48784913E-01    2     1000024        11   # BR(~nu_e -> chi^+_1 e^-)
DECAY   1000014     9.49607818E-01   # ~nu_mu
#    BR                NDA      ID1      ID2
     6.08363351E-01    2     1000022        14   # BR(~nu_mu -> chi^0_1 nu_mu)
     3.03155557E-02    2     1000023        14   # BR(~nu_mu -> chi^0_2 nu_mu)
     2.11049736E-01    2     1000025        14   # BR(~nu_mu -> chi^0_3 nu_mu)
     1.50271358E-01    2     1000024        13   # BR(~nu_mu -> chi^+_1 mu^-)
DECAY   1000016     6.82150632E-01   # ~nu_tau
#    BR                NDA      ID1      ID2
     4.39212610E-01    2     1000022        16   # BR(~nu_tau -> chi^0_1 nu_tau)
     1.91649588E-02    2     1000023        16   # BR(~nu_tau -> chi^0_2 nu_tau)
     1.24674415E-01    2     1000025        16   # BR(~nu_tau -> chi^0_3 nu_tau)
     4.16948017E-01    2     1000024        15   # BR(~nu_tau -> chi^+_1 tau^-)
DECAY   2000001     6.28725393E+02   # ~d_R
#    BR                NDA      ID1      ID2
     4.77663627E-03    2     1000022         1   # BR(~d_R -> chi^0_1 d)
     4.10578764E-03    2     1000025         1   # BR(~d_R -> chi^0_3 d)
     9.91053762E-01    2     1000021         1   # BR(~d_R -> ~g d)
DECAY   1000001     7.58828184E+02   # ~d_L
#    BR                NDA      ID1      ID2
     2.10492734E-03    2     1000022         1   # BR(~d_L -> chi^0_1 d)
     3.18772470E-04    2     1000023         1   # BR(~d_L -> chi^0_2 d)
     5.73330805E-02    2     1000035         1   # BR(~d_L -> chi^0_4 d)
     2.43278236E-04    2    -1000024         2   # BR(~d_L -> chi^-_1 u)
     1.15698195E-01    2    -1000037         2   # BR(~d_L -> chi^-_2 u)
     8.24223904E-01    2     1000021         1   # BR(~d_L -> ~g d)
DECAY   2000003     6.28740646E+02   # ~s_R
#    BR                NDA      ID1      ID2
     4.77990711E-03    2     1000022         3   # BR(~s_R -> chi^0_1 s)
     4.10853193E-03    2     1000025         3   # BR(~s_R -> chi^0_3 s)
     9.91030062E-01    2     1000021         3   # BR(~s_R -> ~g s)
DECAY   1000003     7.58839567E+02   # ~s_L
#    BR                NDA      ID1      ID2
     2.10770831E-03    2     1000022         3   # BR(~s_L -> chi^0_1 s)
     3.23516288E-04    2     1000023         3   # BR(~s_L -> chi^0_2 s)
     5.73322412E-02    2     1000035         3   # BR(~s_L -> chi^0_4 s)
     2.47965611E-04    2    -1000024         4   # BR(~s_L -> chi^-_1 c)
     1.15696605E-01    2    -1000037         4   # BR(~s_L -> chi^-_2 c)
     8.24211761E-01    2     1000021         3   # BR(~s_L -> ~g s)
DECAY   1000005     9.49079664E+01   # ~b_1
#    BR                NDA      ID1      ID2
     2.17292209E-02    2     1000022         5   # BR(~b_1 -> chi^0_1 b)
     2.93766660E-02    2     1000023         5   # BR(~b_1 -> chi^0_2 b)
     1.43977420E-02    2     1000025         5   # BR(~b_1 -> chi^0_3 b)
     1.11491989E-01    2     1000035         5   # BR(~b_1 -> chi^0_4 b)
     5.82728830E-01    2    -1000024         6   # BR(~b_1 -> chi^-_1 t)
     2.40275552E-01    2    -1000037         6   # BR(~b_1 -> chi^-_2 t)
DECAY   2000005     8.59115648E+01   # ~b_2
#    BR                NDA      ID1      ID2
     4.58974376E-02    2     1000022         5   # BR(~b_2 -> chi^0_1 b)
     5.13036784E-02    2     1000023         5   # BR(~b_2 -> chi^0_2 b)
     3.88350667E-02    2     1000025         5   # BR(~b_2 -> chi^0_3 b)
     1.11910644E-04    2     1000035         5   # BR(~b_2 -> chi^0_4 b)
     1.06338699E-01    2    -1000024         6   # BR(~b_2 -> chi^-_1 t)
     2.18720305E-04    2    -1000037         6   # BR(~b_2 -> chi^-_2 t)
     7.57211246E-01    2     1000021         5   # BR(~b_2 -> ~g b)
DECAY   2000002     6.45895853E+02   # ~u_R
#    BR                NDA      ID1      ID2
     1.86042712E-02    2     1000022         2   # BR(~u_R -> chi^0_1 u)
     2.45716973E-04    2     1000023         2   # BR(~u_R -> chi^0_2 u)
     1.59914228E-02    2     1000025         2   # BR(~u_R -> chi^0_3 u)
     9.65155951E-01    2     1000021         2   # BR(~u_R -> ~g u)
DECAY   1000002     7.58813305E+02   # ~u_L
#    BR                NDA      ID1      ID2
     2.92693324E-04    2     1000022         2   # BR(~u_L -> chi^0_1 u)
     1.12676466E-04    2     1000023         2   # BR(~u_L -> chi^0_2 u)
     2.45764062E-03    2     1000025         2   # BR(~u_L -> chi^0_3 u)
     5.69734475E-02    2     1000035         2   # BR(~u_L -> chi^0_4 u)
     3.04405651E-03    2     1000024         1   # BR(~u_L -> chi^+_1 d)
     1.12924665E-01    2     1000037         1   # BR(~u_L -> chi^+_2 d)
     8.24194820E-01    2     1000021         2   # BR(~u_L -> ~g u)
DECAY   2000004     6.45903230E+02   # ~c_R
#    BR                NDA      ID1      ID2
     1.86050733E-02    2     1000022         4   # BR(~c_R -> chi^0_1 c)
     2.48601168E-04    2     1000023         4   # BR(~c_R -> chi^0_2 c)
     1.59929148E-02    2     1000025         4   # BR(~c_R -> chi^0_3 c)
     9.65145055E-01    2     1000021         4   # BR(~c_R -> ~g c)
DECAY   1000004     7.58824658E+02   # ~c_L
#    BR                NDA      ID1      ID2
     2.93554198E-04    2     1000022         4   # BR(~c_L -> chi^0_1 c)
     1.15137474E-04    2     1000023         4   # BR(~c_L -> chi^0_2 c)
     2.45902930E-03    2     1000025         4   # BR(~c_L -> chi^0_3 c)
     5.69726675E-02    2     1000035         4   # BR(~c_L -> chi^0_4 c)
     3.05392284E-03    2     1000024         3   # BR(~c_L -> chi^+_1 s)
     1.12923017E-01    2     1000037         3   # BR(~c_L -> chi^+_2 s)
     8.24182671E-01    2     1000021         4   # BR(~c_L -> ~g c)
DECAY   1000006     9.55969016E+01   # ~t_1
#    BR                NDA      ID1      ID2
     1.08302437E-01    2     1000022         6   # BR(~t_1 -> chi^0_1 t)
     3.03946368E-01    2     1000023         6   # BR(~t_1 -> chi^0_2 t)
     1.79878308E-01    2     1000025         6   # BR(~t_1 -> chi^0_3 t)
     1.17448280E-01    2     1000035         6   # BR(~t_1 -> chi^0_4 t)
     6.68449646E-02    2     1000024         5   # BR(~t_1 -> chi^+_1 b)
     2.17734146E-01    2     1000037         5   # BR(~t_1 -> chi^+_2 b)
#    BR                NDA      ID1      ID2       ID3
     5.84314674E-03    3     1000022        24         5   # BR(~t_1 -> chi^0_1 W^+ b)
DECAY   2000006     1.95030346E+02   # ~t_2
#    BR                NDA      ID1      ID2
     9.89794313E-02    2     1000022         6   # BR(~t_2 -> chi^0_1 t)
     2.13900487E-01    2     1000023         6   # BR(~t_2 -> chi^0_2 t)
     1.45335254E-01    2     1000025         6   # BR(~t_2 -> chi^0_3 t)
     5.28212953E-03    2     1000035         6   # BR(~t_2 -> chi^0_4 t)
     4.08423379E-01    2     1000024         5   # BR(~t_2 -> chi^+_1 b)
     1.06059672E-02    2     1000037         5   # BR(~t_2 -> chi^+_2 b)
     1.16321788E-01    2     1000021         6   # BR(~t_2 -> ~g t)
     7.29078249E-04    2     1000005        24   # BR(~t_2 -> ~b_1 W^+)
     3.61773590E-04    2     1000006        23   # BR(~t_2 -> ~t_1 Z)
DECAY   1000024     4.23548326E-05   # chi^+_1
#    BR                NDA      ID1      ID2       ID3
     3.34174339E-01    3     1000022        -1         2   # BR(chi^+_1 -> chi^0_1 d_bar u)
     3.32427552E-01    3     1000022        -3         4   # BR(chi^+_1 -> chi^0_1 s_bar c)
     1.11449606E-01    3     1000022       -11        12   # BR(chi^+_1 -> chi^0_1 e^+ nu_e)
     1.11449843E-01    3     1000022       -13        14   # BR(chi^+_1 -> chi^0_1 mu^+ nu_mu)
     1.10498660E-01    3     1000022       -15        16   # BR(chi^+_1 -> chi^0_1 tau^+ nu_tau)
DECAY   1000037     9.80180408E+00   # chi^+_2
#    BR                NDA      ID1      ID2
     4.25709830E-03    2    -1000011        12   # BR(chi^+_2 -> ~e^+_L nu_e)
     4.25856996E-03    2    -1000013        14   # BR(chi^+_2 -> ~mu^+_L nu_mu)
     1.51375642E-01    2    -1000015        16   # BR(chi^+_2 -> ~tau^+_1 nu_tau)
     5.11978702E-03    2     1000012       -11   # BR(chi^+_2 -> ~nu_e e^+)
     5.12140860E-03    2     1000014       -13   # BR(chi^+_2 -> ~nu_mu mu^+)
     1.52967076E-01    2     1000016       -15   # BR(chi^+_2 -> ~nu_tau tau^+)
     4.98779082E-02    2     1000022        24   # BR(chi^+_2 -> chi^0_1 W^+)
     1.75561002E-01    2     1000023        24   # BR(chi^+_2 -> chi^0_2 W^+)
     1.18777115E-01    2     1000025        24   # BR(chi^+_2 -> chi^0_3 W^+)
     1.67960491E-01    2     1000024        23   # BR(chi^+_2 -> chi^+_1 Z)
     1.60556906E-01    2     1000024        25   # BR(chi^+_2 -> chi^+_1 h^0)
#    BR                NDA      ID1      ID2       ID3
     9.24110573E-04    3     1000024         6        -6   # BR(chi^+_2 -> chi^+_1 t t_bar)
     5.47650368E-04    3     1000022        -5         6   # BR(chi^+_2 -> chi^0_1 b_bar t)
     1.55828688E-03    3     1000023        -5         6   # BR(chi^+_2 -> chi^0_2 b_bar t)
     1.13633316E-03    3     1000025        -5         6   # BR(chi^+_2 -> chi^0_3 b_bar t)
DECAY   1000022     0.00000000E+00   # chi^0_1
DECAY   1000023     2.83590980E-04   # chi^0_2
#    BR                NDA      ID1      ID2
     1.32014106E-02    2     1000022        22   # BR(chi^0_2 -> chi^0_1 photon)
#    BR                NDA      ID1      ID2       ID3
     1.18512807E-01    3     1000022         2        -2   # BR(chi^0_2 -> chi^0_1 u u_bar)
     1.17440710E-01    3     1000022         4        -4   # BR(chi^0_2 -> chi^0_1 c c_bar)
     1.51956437E-01    3     1000022         1        -1   # BR(chi^0_2 -> chi^0_1 d d_bar)
     1.51949853E-01    3     1000022         3        -3   # BR(chi^0_2 -> chi^0_1 s s_bar)
     1.39773895E-01    3     1000022         5        -5   # BR(chi^0_2 -> chi^0_1 b b_bar)
     3.41987711E-02    3     1000022        11       -11   # BR(chi^0_2 -> chi^0_1 e^- e^+)
     3.41970118E-02    3     1000022        13       -13   # BR(chi^0_2 -> chi^0_1 mu^- mu^+)
     3.38419711E-02    3     1000022        15       -15   # BR(chi^0_2 -> chi^0_1 tau^- tau^+)
     2.03781807E-01    3     1000022        12       -12   # BR(chi^0_2 -> chi^0_1 nu_e nu_bar_e)
     2.02142122E-04    3     1000024         1        -2   # BR(chi^0_2 -> chi^+_1 d u_bar)
     2.02142122E-04    3    -1000024        -1         2   # BR(chi^0_2 -> chi^-_1 d_bar u)
     1.81174972E-04    3     1000024         3        -4   # BR(chi^0_2 -> chi^+_1 s c_bar)
     1.81174972E-04    3    -1000024        -3         4   # BR(chi^0_2 -> chi^-_1 s_bar c)
DECAY   1000025     2.37688339E-05   # chi^0_3
#    BR                NDA      ID1      ID2
     4.71858807E-03    2     1000022        22   # BR(chi^0_3 -> chi^0_1 photon)
     1.60544284E-02    2     1000023        22   # BR(chi^0_3 -> chi^0_2 photon)
#    BR                NDA      ID1      ID2       ID3
     1.67229740E-02    3     1000022         2        -2   # BR(chi^0_3 -> chi^0_1 u u_bar)
     1.66553684E-02    3     1000022         4        -4   # BR(chi^0_3 -> chi^0_1 c c_bar)
     2.14309135E-02    3     1000022         1        -1   # BR(chi^0_3 -> chi^0_1 d d_bar)
     2.14305121E-02    3     1000022         3        -3   # BR(chi^0_3 -> chi^0_1 s s_bar)
     2.07322130E-02    3     1000022         5        -5   # BR(chi^0_3 -> chi^0_1 b b_bar)
     2.77972300E-03    3     1000022        11       -11   # BR(chi^0_3 -> chi^0_1 e^- e^+)
     2.78092634E-03    3     1000022        13       -13   # BR(chi^0_3 -> chi^0_1 mu^- mu^+)
     3.48011627E-03    3     1000022        15       -15   # BR(chi^0_3 -> chi^0_1 tau^- tau^+)
     3.31171555E-02    3     1000022        12       -12   # BR(chi^0_3 -> chi^0_1 nu_e nu_bar_e)
     1.49872134E-02    3     1000023         2        -2   # BR(chi^0_3 -> chi^0_2 u u_bar)
     1.40152130E-02    3     1000023         4        -4   # BR(chi^0_3 -> chi^0_2 c c_bar)
     1.92166393E-02    3     1000023         1        -1   # BR(chi^0_3 -> chi^0_2 d d_bar)
     1.92103884E-02    3     1000023         3        -3   # BR(chi^0_3 -> chi^0_2 s s_bar)
     9.98050372E-03    3     1000023         5        -5   # BR(chi^0_3 -> chi^0_2 b b_bar)
     4.34818628E-03    3     1000023        11       -11   # BR(chi^0_3 -> chi^0_2 e^- e^+)
     4.34602134E-03    3     1000023        13       -13   # BR(chi^0_3 -> chi^0_2 mu^- mu^+)
     3.77907366E-03    3     1000023        15       -15   # BR(chi^0_3 -> chi^0_2 tau^- tau^+)
     2.56488953E-02    3     1000023        12       -12   # BR(chi^0_3 -> chi^0_2 nu_e nu_bar_e)
     1.21547007E-01    3     1000024         1        -2   # BR(chi^0_3 -> chi^+_1 d u_bar)
     1.21547007E-01    3    -1000024        -1         2   # BR(chi^0_3 -> chi^-_1 d_bar u)
     1.20195449E-01    3     1000024         3        -4   # BR(chi^0_3 -> chi^+_1 s c_bar)
     1.20195449E-01    3    -1000024        -3         4   # BR(chi^0_3 -> chi^-_1 s_bar c)
     4.04884856E-02    3     1000024        11       -12   # BR(chi^0_3 -> chi^+_1 e^- nu_bar_e)
     4.04884856E-02    3    -1000024       -11        12   # BR(chi^0_3 -> chi^-_1 e^+ nu_e)
     4.04882691E-02    3     1000024        13       -14   # BR(chi^0_3 -> chi^+_1 mu^- nu_bar_mu)
     4.04882691E-02    3    -1000024       -13        14   # BR(chi^0_3 -> chi^-_1 mu^+ nu_mu)
     3.95632632E-02    3     1000024        15       -16   # BR(chi^0_3 -> chi^+_1 tau^- nu_bar_tau)
     3.95632632E-02    3    -1000024       -15        16   # BR(chi^0_3 -> chi^-_1 tau^+ nu_tau)
DECAY   1000035     1.04820242E+01   # chi^0_4
#    BR                NDA      ID1      ID2
     1.93105772E-03    2     1000011       -11   # BR(chi^0_4 -> ~e^-_L e^+)
     1.93105772E-03    2    -1000011        11   # BR(chi^0_4 -> ~e^+_L e^-)
     1.93171649E-03    2     1000013       -13   # BR(chi^0_4 -> ~mu^-_L mu^+)
     1.93171649E-03    2    -1000013        13   # BR(chi^0_4 -> ~mu^+_L mu^-)
     6.92119790E-02    2     1000015       -15   # BR(chi^0_4 -> ~tau^-_1 tau^+)
     6.92119790E-02    2    -1000015        15   # BR(chi^0_4 -> ~tau^+_1 tau^-)
     2.42689610E-03    2     1000012       -12   # BR(chi^0_4 -> ~nu_e nu_bar_e)
     2.42689610E-03    2    -1000012        12   # BR(chi^0_4 -> ~nu^*_e nu_e)
     2.42768077E-03    2     1000014       -14   # BR(chi^0_4 -> ~nu_mu nu_bar_mu)
     2.42768077E-03    2    -1000014        14   # BR(chi^0_4 -> ~nu^*_mu nu_mu)
     7.30219701E-02    2     1000016       -16   # BR(chi^0_4 -> ~nu_tau nu_bar_tau)
     7.30219701E-02    2    -1000016        16   # BR(chi^0_4 -> ~nu^*_tau nu_tau)
     1.61001809E-01    2     1000024       -24   # BR(chi^0_4 -> chi^+_1 W^-)
     1.61001809E-01    2    -1000024        24   # BR(chi^0_4 -> chi^-_1 W^+)
     1.22030032E-02    2     1000022        23   # BR(chi^0_4 -> chi^0_1 Z)
     1.25654036E-01    2     1000023        23   # BR(chi^0_4 -> chi^0_2 Z)
     2.40733216E-02    2     1000025        23   # BR(chi^0_4 -> chi^0_3 Z)
     3.22297535E-02    2     1000022        25   # BR(chi^0_4 -> chi^0_1 h^0)
     9.75004834E-02    2     1000023        25   # BR(chi^0_4 -> chi^0_2 h^0)
     8.06481141E-02    2     1000025        25   # BR(chi^0_4 -> chi^0_3 h^0)
#    BR                NDA      ID1      ID2       ID3
     1.10724884E-04    3     1000022         6        -6   # BR(chi^0_4 -> chi^0_1 t t_bar)
     2.67829909E-04    3     1000023         6        -6   # BR(chi^0_4 -> chi^0_2 t t_bar)
     1.73850369E-04    3     1000025         6        -6   # BR(chi^0_4 -> chi^0_3 t t_bar)
     1.60908229E-03    3     1000024         5        -6   # BR(chi^0_4 -> chi^+_1 b t_bar)
     1.60908229E-03    3    -1000024        -5         6   # BR(chi^0_4 -> chi^-_1 b_bar t)
DECAY   1000021     2.06259264E+01   # ~g
#    BR                NDA      ID1      ID2
     6.62290593E-04    2     1000006        -4   # BR(~g -> ~t_1 c_bar)
     6.62290593E-04    2    -1000006         4   # BR(~g -> ~t^*_1 c)
     2.42051357E-01    2     1000006        -6   # BR(~g -> ~t_1 t_bar)
     2.42051357E-01    2    -1000006         6   # BR(~g -> ~t^*_1 t)
     2.53711661E-01    2     1000005        -5   # BR(~g -> ~b_1 b_bar)
     2.53711661E-01    2    -1000005         5   # BR(~g -> ~b^*_1 b)
     1.68546022E-04    2     1000023        21   # BR(~g -> chi^0_2 g)
#    BR                NDA      ID1      ID2       ID3
     6.63538546E-04    3     1000022         6        -6   # BR(~g -> chi^0_1 t t_bar)
     1.52380539E-03    3     1000023         6        -6   # BR(~g -> chi^0_2 t t_bar)
     1.12672913E-03    3     1000025         6        -6   # BR(~g -> chi^0_3 t t_bar)
     1.55778893E-03    3     1000024         5        -6   # BR(~g -> chi^+_1 b t_bar)
     1.55778893E-03    3    -1000024        -5         6   # BR(~g -> chi^-_1 b_bar t)
DECAY        25     2.98214500E-03   # Gamma(h0)
     2.67462426E-03   2        22        22   # BR(h0 -> photon photon)
     1.34320999E-03   2        22        23   # BR(h0 -> photon Z)
     2.15537065E-02   2        23        23   # BR(h0 -> Z Z)
     1.92805808E-01   2       -24        24   # BR(h0 -> W W)
     8.60804409E-02   2        21        21   # BR(h0 -> gluon gluon)
     5.34498120E-09   2       -11        11   # BR(h0 -> Electron electron)
     2.37752010E-04   2       -13        13   # BR(h0 -> Muon muon)
     6.85371629E-02   2       -15        15   # BR(h0 -> Tau tau)
     1.52309029E-07   2        -2         2   # BR(h0 -> Up up)
     2.95588362E-02   2        -4         4   # BR(h0 -> Charm charm)
     6.21498331E-07   2        -1         1   # BR(h0 -> Down down)
     2.24780616E-04   2        -3         3   # BR(h0 -> Strange strange)
     5.96982899E-01   2        -5         5   # BR(h0 -> Bottom bottom)
DECAY        35     4.62280573E+01   # Gamma(HH)
     5.36520554E-08   2        22        22   # BR(HH -> photon photon)
     9.94280500E-08   2        22        23   # BR(HH -> photon Z)
     2.15268640E-06   2        23        23   # BR(HH -> Z Z)
     7.02285289E-07   2       -24        24   # BR(HH -> W W)
     1.30922592E-06   2        21        21   # BR(HH -> gluon gluon)
     3.31635813E-09   2       -11        11   # BR(HH -> Electron electron)
     1.47656901E-04   2       -13        13   # BR(HH -> Muon muon)
     4.32642318E-02   2       -15        15   # BR(HH -> Tau tau)
     3.37365853E-13   2        -2         2   # BR(HH -> Up up)
     6.54446618E-08   2        -4         4   # BR(HH -> Charm charm)
     4.78167427E-03   2        -6         6   # BR(HH -> Top top)
     2.37414693E-07   2        -1         1   # BR(HH -> Down down)
     8.58741706E-05   2        -3         3   # BR(HH -> Strange strange)
     2.22701350E-01   2        -5         5   # BR(HH -> Bottom bottom)
     1.36897382E-02   2  -1000024   1000024   # BR(HH -> Chargino1 chargino1)
     2.12375990E-01   2  -1000024   1000037   # BR(HH -> Chargino1 chargino2)
     2.12375990E-01   2  -1000037   1000024   # BR(HH -> Chargino2 chargino1)
     4.62238737E-04   2  -1000037   1000037   # BR(HH -> Chargino2 chargino2)
     2.71918856E-02   2   1000022   1000022   # BR(HH -> neutralino1 neutralino1)
     1.37278240E-02   2   1000022   1000023   # BR(HH -> neutralino1 neutralino2)
     2.91270174E-04   2   1000022   1000025   # BR(HH -> neutralino1 neutralino3)
     6.66345598E-02   2   1000022   1000035   # BR(HH -> neutralino1 neutralino4)
     3.03532113E-03   2   1000023   1000023   # BR(HH -> neutralino2 neutralino2)
     2.01004029E-02   2   1000023   1000025   # BR(HH -> neutralino2 neutralino3)
     1.18369901E-01   2   1000023   1000035   # BR(HH -> neutralino2 neutralino4)
     8.04782161E-03   2   1000025   1000025   # BR(HH -> neutralino3 neutralino3)
     3.20908805E-02   2   1000025   1000035   # BR(HH -> neutralino3 neutralino4)
     2.38768296E-04   2   1000035   1000035   # BR(HH -> neutralino4 neutralino4)
     1.01191483E-05   2        25        25   # BR(HH -> h0 h0)
     2.99551710E-07   2  -1000011   1000011   # BR(HH -> Selectron1 selectron1)
     1.49342575E-14   2  -2000011   1000011   # BR(HH -> Selectron2 selectron1)
     1.49342575E-14   2  -1000011   2000011   # BR(HH -> Selectron1 selectron2)
     4.46105124E-07   2  -2000011   2000011   # BR(HH -> Selectron2 selectron2)
     2.98661505E-07   2  -1000013   1000013   # BR(HH -> Smuon1 smuon1)
     6.38463248E-10   2  -2000013   1000013   # BR(HH -> Smuon2 smuon1)
     6.38463248E-10   2  -1000013   2000013   # BR(HH -> Smuon1 smuon2)
     4.45441546E-07   2  -2000013   2000013   # BR(HH -> Smuon2 smuon2)
     1.29389400E-07   2  -1000015   1000015   # BR(HH -> Stau1 stau1)
     1.82788559E-04   2  -2000015   1000015   # BR(HH -> Stau2 stau1)
     1.82788559E-04   2  -1000015   2000015   # BR(HH -> Stau1 stau2)
     1.73333275E-07   2  -2000015   2000015   # BR(HH -> Stau2 stau2)
DECAY        36     4.57220038E+01   # Gamma(A0)
     1.07406488E-07   2        22        22   # BR(A0 -> photon photon)
     1.44976889E-07   2        22        23   # BR(A0 -> photon Z)
     1.20891869E-05   2        21        21   # BR(A0 -> gluon gluon)
     3.21727677E-09   2       -11        11   # BR(A0 -> Electron electron)
     1.43245587E-04   2       -13        13   # BR(A0 -> Muon muon)
     4.19718903E-02   2       -15        15   # BR(A0 -> Tau tau)
     3.15846991E-13   2        -2         2   # BR(A0 -> Up up)
     6.12670336E-08   2        -4         4   # BR(A0 -> Charm charm)
     4.54575043E-03   2        -6         6   # BR(A0 -> Top top)
     2.30317256E-07   2        -1         1   # BR(A0 -> Down down)
     8.33068221E-05   2        -3         3   # BR(A0 -> Strange strange)
     2.16045106E-01   2        -5         5   # BR(A0 -> Bottom bottom)
     1.48186790E-02   2  -1000024   1000024   # BR(A0 -> Chargino1 chargino1)
     2.13856031E-01   2  -1000024   1000037   # BR(A0 -> Chargino1 chargino2)
     2.13856031E-01   2  -1000037   1000024   # BR(A0 -> Chargino2 chargino1)
     1.31454950E-03   2  -1000037   1000037   # BR(A0 -> Chargino2 chargino2)
     3.27329649E-02   2   1000022   1000022   # BR(A0 -> neutralino1 neutralino1)
     9.96318965E-03   2   1000022   1000023   # BR(A0 -> neutralino1 neutralino2)
     2.47151715E-04   2   1000022   1000025   # BR(A0 -> neutralino1 neutralino3)
     8.25805626E-02   2   1000022   1000035   # BR(A0 -> neutralino1 neutralino4)
     2.52911451E-03   2   1000023   1000023   # BR(A0 -> neutralino2 neutralino2)
     1.74268967E-02   2   1000023   1000025   # BR(A0 -> neutralino2 neutralino3)
     9.14713199E-02   2   1000023   1000035   # BR(A0 -> neutralino2 neutralino4)
     1.04997329E-02   2   1000025   1000025   # BR(A0 -> neutralino3 neutralino3)
     4.48578547E-02   2   1000025   1000035   # BR(A0 -> neutralino3 neutralino4)
     6.71043890E-04   2   1000035   1000035   # BR(A0 -> neutralino4 neutralino4)
     3.40338684E-06   2        23        25   # BR(A0 -> Z h0)
     9.81841365E-39   2        25        25   # BR(A0 -> h0 h0)
     1.54836655E-14   2  -2000011   1000011   # BR(A0 -> Selectron2 selectron1)
     1.54836655E-14   2  -1000011   2000011   # BR(A0 -> Selectron1 selectron2)
     6.61975063E-10   2  -2000013   1000013   # BR(A0 -> Smuon2 smuon1)
     6.61975063E-10   2  -1000013   2000013   # BR(A0 -> Smuon1 smuon2)
     1.84769339E-04   2  -2000015   1000015   # BR(A0 -> Stau2 stau1)
     1.84769339E-04   2  -1000015   2000015   # BR(A0 -> Stau1 stau2)
DECAY        37     4.84747055E+01   # Gamma(Hp)
     3.86495698E-09   2       -11        12   # BR(Hp -> Electron nu_e)
     1.65238982E-04   2       -13        14   # BR(Hp -> Muon nu_mu)
     4.67389763E-02   2       -15        16   # BR(Hp -> Tau nu_tau)
     2.48164089E-07   2        -1         2   # BR(Hp -> Down up)
     4.18622553E-06   2        -3         2   # BR(Hp -> Strange up)
     2.67060674E-06   2        -5         2   # BR(Hp -> Bottom up)
     1.50377339E-08   2        -1         4   # BR(Hp -> Down charm)
     8.95098712E-05   2        -3         4   # BR(Hp -> Strange charm)
     3.73980590E-04   2        -5         4   # BR(Hp -> Bottom charm)
     3.77790978E-07   2        -1         6   # BR(Hp -> Down top)
     8.36931487E-06   2        -3         6   # BR(Hp -> Strange top)
     2.57892551E-01   2        -5         6   # BR(Hp -> Bottom top)
     2.16649983E-02   2   1000022   1000024   # BR(Hp -> neutralino1 chargino1)
     1.44422736E-01   2   1000022   1000037   # BR(Hp -> neutralino1 chargino2)
     9.29277406E-04   2   1000023   1000024   # BR(Hp -> neutralino2 chargino1)
     1.97524014E-01   2   1000023   1000037   # BR(Hp -> neutralino2 chargino2)
     5.09319912E-02   2   1000024   1000025   # BR(Hp -> chargino1 neutralino3)
     7.50597119E-02   2   1000025   1000037   # BR(Hp -> neutralino3 chargino2)
     2.03834131E-01   2   1000024   1000035   # BR(Hp -> chargino1 neutralino4)
     6.34513073E-08   2   1000035   1000037   # BR(Hp -> neutralino4 chargino2)
     3.21725006E-06   2        24        25   # BR(Hp -> W h0)
     5.76361826E-13   2        24        35   # BR(Hp -> W HH)
     1.66174658E-13   2        24        36   # BR(Hp -> W A0)
     2.31252375E-14   2  -1000011   1000012   # BR(Hp -> Selectron1 snu_e1)
     1.66910902E-06   2  -2000011   1000012   # BR(Hp -> Selectron2 snu_e1)
     9.88754721E-10   2  -1000013   1000014   # BR(Hp -> Smuon1 snu_mu1)
     1.66820845E-06   2  -2000013   1000014   # BR(Hp -> Smuon2 snu_mu1)
     1.25112141E-06   2  -1000015   1000016   # BR(Hp -> Stau1 snu_tau1)
     3.49142541E-04   2  -2000015   1000016   # BR(Hp -> Stau2 snu_tau1)
DECAY         6     2.43000000E+00   # top
#    BR                NDA      ID1      ID2
     1.00000000E+00    2           5        24   # BR(t -> b W)
Block HiggsBoundsInputHiggsCouplingsFermions
# ScalarNormEffCoupSq PseudoSNormEffCoupSq NP IP1 IP2 IP2
    9.20708170E-01    0.00000000E+00        3  25   5   5  # h0-b-b eff. coupling^2, normalised to SM
    3.66169467E+02    0.00000000E+00        3  35   5   5  # H0-b-b eff. coupling^2, normalised to SM
    0.00000000E+00    3.66090176E+02        3  36   5   5  # A0-b-b eff. coupling^2, normalised to SM
#
    1.00021659E+00    0.00000000E+00        3  25   6   6  # h0-t-t eff. coupling^2, normalised to SM
    2.51497645E-03    0.00000000E+00        3  35   6   6  # H0-t-t eff. coupling^2, normalised to SM
    0.00000000E+00    2.73156743E-03        3  36   6   6  # A0-t-t eff. coupling^2, normalised to SM
#
    9.20708170E-01    0.00000000E+00        3  25  15  15  # h0-tau-tau eff. coupling^2, normalised to SM
    3.66169467E+02    0.00000000E+00        3  35  15  15  # H0-tau-tau eff. coupling^2, normalised to SM
    0.00000000E+00    3.66090176E+02        3  36  15  15  # A0-tau-tau eff. coupling^2, normalised to SM
#
Block HiggsBoundsInputHiggsCouplingsBosons
    9.99995528E-01        3  25  24  24  # h0-W-W eff. coupling^2, normalised to SM
    4.47213168E-06        3  35  24  24  # H0-W-W eff. coupling^2, normalised to SM
    0.00000000E+00        3  36  24  24  # A0-W-W eff. coupling^2, normalised to SM
#
    9.99995528E-01        3  25  23  23  # h0-Z-Z eff. coupling^2, normalised to SM
    4.47213168E-06        3  35  23  23  # H0-Z-Z eff. coupling^2, normalised to SM
    0.00000000E+00        3  36  23  23  # A0-Z-Z eff. coupling^2, normalised to SM
#
    1.26955382E+00        3  25  21  21  # h0-g-g eff. coupling^2, normalised to SM
    1.00101559E-03        3  35  21  21  # H0-g-g eff. coupling^2, normalised to SM
    9.71315255E-02        3  36  21  21  # A0-g-g eff. coupling^2, normalised to SM
#
    0.00000000E+00        3  25  25  23  # h0-h0-Z eff. coupling^2, normalised to SM
    0.00000000E+00        3  35  25  23  # H0-h0-Z eff. coupling^2, normalised to SM
    4.47213168E-06        3  36  25  23  # A0-h0-Z eff. coupling^2, normalised to SM
    0.00000000E+00        3  35  35  23  # H0-H0-Z eff. coupling^2, normalised to SM
    9.99995528E-01        3  36  35  23  # A0-H0-Z eff. coupling^2, normalised to SM
    0.00000000E+00        3  36  36  23  # A0-A0-Z eff. coupling^2, normalised to SM
#
    0.00000000E+00        4  25  21  21  23  # h0-g-g-Z eff. coupling^2, normalised to SM
    0.00000000E+00        4  35  21  21  23  # H0-g-g-Z eff. coupling^2, normalised to SM
    0.00000000E+00        4  36  21  21  23  # A0-g-g-Z eff. coupling^2, normalised to SM
Block SPhenoLowEnergy  # low energy observables
    1    3.24795752E-04   # BR(b -> s gamma)
    2    1.58917845E-06   # BR(b -> s mu+ mu-)
    3    3.52417742E-05   # BR(b -> s nu nu)
    4    2.59260257E-15   # BR(Bd -> e+ e-)
    5    1.10753044E-10   # BR(Bd -> mu+ mu-)
    6    2.31855822E-08   # BR(Bd -> tau+ tau-)
    7    8.71942683E-14   # BR(Bs -> e+ e-)
    8    3.72493663E-09   # BR(Bs -> mu+ mu-)
    9    7.90113526E-07   # BR(Bs -> tau+ tau-)
   10    9.65085084E-05   # BR(B_u -> tau nu)
   11    9.96895944E-01   # BR(B_u -> tau nu)/BR(B_u -> tau nu)_SM
   12    5.42078113E-01   # |Delta(M_Bd)| [ps^-1] 
   13    1.93673247E+01   # |Delta(M_Bs)| [ps^-1] 
   14    0.00000000E+00   # neutron EDM according to the chiral quark model
   15    0.00000000E+00   # neutron EDM according to the relativistic quark-parton model
   16    2.15769840E-03   # epsilon_K
   17    2.28166228E-15   # Delta(M_K)
   18    2.47906408E-11   # BR(K^0 -> pi^0 nu nu)
   19    8.28830035E-11   # BR(K^+ -> pi^+ nu nu)
   20    9.22347607E-15   # Delta(g-2)_electron/2
   21    3.94395406E-10   # Delta(g-2)_muon/2
   22    1.39884985E-07   # Delta(g-2)_tau/2
   23    0.00000000E+00   # electric dipole moment of the electron
   24    0.00000000E+00   # electric dipole moment of the muon
   25    0.00000000E+00   # electric dipole moment of the tau
   26    0.00000000E+00   # Br(mu -> e gamma)
   27    0.00000000E+00   # Br(tau -> e gamma)
   28    0.00000000E+00   # Br(tau -> mu gamma)
   29    0.00000000E+00   # Br(mu -> 3 e)
   30    0.00000000E+00   # Br(tau -> 3 e)
   31    0.00000000E+00   # Br(tau -> 3 mu)
   39    6.72581681E-05   # Delta(rho_parameter)
   40    0.00000000E+00   # BR(Z -> e mu)
   41    0.00000000E+00   # BR(Z -> e tau)
   42    0.00000000E+00   # BR(Z -> mu tau)
Block FWCOEF Q=  1.60000000E+02  # Wilson coefficients at scale Q
#    id        order  M        value         comment
     0305 4422   00   0    -1.88819110E-01   # C7
     0305 4422   00   2    -1.92856798E-01   # C7
     0305 4322   00   2    -1.25615628E-04   # C7'
     0305 6421   00   0    -9.52278348E-02   # C8
     0305 6421   00   2    -1.03650574E-01   # C8
     0305 6321   00   2    -1.86587987E-04   # C8'
 03051111 4133   00   0     1.62033403E+00   # C9 e+e-
 03051111 4133   00   2     1.62067676E+00   # C9 e+e-
 03051111 4233   00   2     1.02949129E-04   # C9' e+e-
 03051111 4137   00   0    -4.44302614E+00   # C10 e+e-
 03051111 4137   00   2    -4.44023545E+00   # C10 e+e-
 03051111 4237   00   2    -7.68522977E-04   # C10' e+e-
 03051313 4133   00   0     1.62033403E+00   # C9 mu+mu-
 03051313 4133   00   2     1.62067630E+00   # C9 mu+mu-
 03051313 4233   00   2     1.02949040E-04   # C9' mu+mu-
 03051313 4137   00   0    -4.44302614E+00   # C10 mu+mu-
 03051313 4137   00   2    -4.44023591E+00   # C10 mu+mu-
 03051313 4237   00   2    -7.68523143E-04   # C10' mu+mu-
 03051212 4137   00   0     1.50535012E+00   # C11 nu_1 nu_1
 03051212 4137   00   2     1.50476414E+00   # C11 nu_1 nu_1
 03051212 4237   00   2     1.66414018E-04   # C11' nu_1 nu_1
 03051414 4137   00   0     1.50535012E+00   # C11 nu_2 nu_2
 03051414 4137   00   2     1.50476414E+00   # C11 nu_2 nu_2
 03051414 4237   00   2     1.66414023E-04   # C11' nu_2 nu_2
 03051616 4137   00   0     1.50535012E+00   # C11 nu_3 nu_3
 03051616 4137   00   2     1.50476387E+00   # C11 nu_3 nu_3
 03051616 4237   00   2     1.66415203E-04   # C11' nu_3 nu_3
Block IMFWCOEF Q=  1.60000000E+02  # Im(Wilson coefficients) at scale Q
#    id        order  M        value         comment
     0305 4422   00   0     3.85822036E-07   # C7
     0305 4422   00   2     9.04219995E-06   # C7
     0305 4322   00   2     3.62238766E-07   # C7'
     0305 6421   00   0     3.30482090E-07   # C8
     0305 6421   00   2    -1.98324053E-06   # C8
     0305 6321   00   2     1.30940630E-08   # C8'
 03051111 4133   00   2    -3.90494519E-07   # C9 e+e-
 03051111 4233   00   2     2.03812236E-06   # C9' e+e-
 03051111 4137   00   2     1.24350801E-06   # C10 e+e-
 03051111 4237   00   2    -1.52162824E-05   # C10' e+e-
 03051313 4133   00   2    -3.90509569E-07   # C9 mu+mu-
 03051313 4233   00   2     2.03812120E-06   # C9' mu+mu-
 03051313 4137   00   2     1.24352327E-06   # C10 mu+mu-
 03051313 4237   00   2    -1.52162858E-05   # C10' mu+mu-
 03051212 4137   00   2     5.64699612E-08   # C11 nu_1 nu_1
 03051212 4237   00   2     3.29490946E-06   # C11' nu_1 nu_1
 03051414 4137   00   2     5.64698668E-08   # C11 nu_2 nu_2
 03051414 4237   00   2     3.29490946E-06   # C11' nu_2 nu_2
 03051616 4137   00   2     5.15608247E-08   # C11 nu_3 nu_3
 03051616 4237   00   2     3.29490516E-06   # C11' nu_3 nu_3
