BLOCK DCINFO
   1   SDECAY/HDECAY
   2   1.3b /3.4

BLOCK SPINFO
   1   SOFTSUSY
   2   3.4.0

BLOCK MODSEL
   1   0

BLOCK SMINPUTS
   1    127.90897
   2    1.1663787e-05
   3    0.1184
   4    91.1876
   5    4.18
   6    173.2
   7    1.777

BLOCK MINPAR
   3    40.99

BLOCK EXTPAR
   0   -1
   1   -2300.44
   2   -3207.77
   3    3770.47
   11   -5100.21
   12   -1448.87
   13   -3979.8
   23    675.33
   26    1466.46
   31    1181.04
   32    1181.04
   33    2947.68
   34    3157.24
   35    3157.24
   36    3569.8
   41    2338.94
   42    2338.94
   43    3997.86
   44    736.82
   45    736.82
   46    3678.4
   47    745.72
   48    745.72
   49    1345.84

BLOCK MASS
   24    80.380993
   25    127.33986
   35    1466.4772
   36    1466.46
   37    1468.6275
   5    4.8187603
   1000001    2538.4775
   2000001    1052.6628
   1000002    2537.3521
   2000002    1060.8428
   1000003    2538.4775
   2000003    1052.6628
   1000004    2537.3521
   2000004    1060.8428
   1000005    1540.1754
   2000005    4076.8239
   1000006    3703.0043
   2000006    4100.2822
   1000011    1244.0543
   2000011    3162.3066
   1000012    1241.2589
   1000013    1244.0543
   2000013    3162.3066
   1000014    1241.2589
   1000015    2972.2159
   2000015    3552.7766
   1000016    2970.979
   1000021    3848.8803
   1000022   -702.13703
   1000023    704.86386
   1000025   -2252.4933
   1000035   -3184.7515
   1000024    703.80591
   1000037    3184.9156

BLOCK NMIX
   1   1    0.019605472
   1   2   -0.021282413
   1   3    0.7076712
   1   4    0.70594912
   2   1    0.010798162
   2   2   -0.014459091
   2   3   -0.70649765
   2   4    0.70748527
   3   1    0.99974863
   3   2    0.0018756507
   3   3   -0.006240593
   3   4   -0.021452449
   4   1   -0.0013022293
   4   2    0.99966718
   4   3    0.0048589589
   4   4    0.025302553

BLOCK UMIX
   1   1   -0.0068702925
   1   2    0.9999764
   2   1   -0.9999764
   2   2   -0.0068702925

BLOCK VMIX
   1   1    0.035766825
   1   2    0.99936016
   2   1    0.99936016
   2   2   -0.035766825

BLOCK STOPMIX
   1   1    0.23493511
   1   2    0.97201106
   2   1   -0.97201106
   2   2    0.23493511

BLOCK SBOTMIX
   1   1    0.0042656787
   1   2    0.9999909
   2   1   -0.9999909
   2   2    0.0042656787

BLOCK STAUMIX
   1   1    0.99989977
   1   2    0.014157964
   2   1   -0.014157964
   2   2    0.99989977

BLOCK ALPHA
      -0.025291874

BLOCK HMIX Q=  3834.836
   1    689.67003
   2    39.904152
   3    242.58371
   4    1131919.6

BLOCK GAUGE Q=  3834.836
   1    0.3658414
   2    0.63631196
   3    1.003026

BLOCK AU Q=  3834.836
   1   1    0
   2   2    0
   3   3   -5100.21

BLOCK AD Q=  3834.836
   1   1    0
   2   2    0
   3   3   -1448.87

BLOCK AE Q=  3834.836
   1   1    0
   2   2    0
   3   3   -3979.8

BLOCK YU Q=  3834.836
   1   1    0
   2   2    0
   3   3    0.80560657

BLOCK YD Q=  3834.836
   1   1    0
   2   2    0
   3   3    0.49300255

BLOCK YE Q=  3834.836
   1   1    0
   2   2    0
   3   3    0.39586973

BLOCK MSOFT Q=  3834.836
   1   -2300.44
   2   -3207.77
   3    3770.47
   21    1694626.3
   22   -219144.29
   31    1181.04
   32    1181.04
   33    2947.68
   34    3157.24
   35    3157.24
   36    3569.8
   41    2338.94
   42    2338.94
   43    3997.86
   44    736.81992
   45    736.81992
   46    3678.3999
   47    745.71992
   48    745.71992
   49    1345.8399

BLOCK HIGGSBOUNDSINPUTHIGGSCOUPLINGSFERMIONS
       0, 1592.3414,3,36,15,15

BLOCK HIGGSBOUNDSINPUTHIGGSCOUPLINGSBOSONS
       0,4,36,21,21,23

DECAY 6  1.4263674
    1   2    5    24

DECAY 1000021  421.49055
    0.079225982   2    2000001   -1
    0.079225982   2   -2000001    1
    0.079225982   2    2000003   -3
    0.079225982   2   -2000003    3
    0.079026236   2    2000002   -2
    0.079026236   2   -2000002    2
    0.079026234   2    2000004   -4
    0.079026234   2   -2000004    4
    0.065227218   2    1000005   -5
    0.065227218   2   -1000005    5
    0.029587263   2    1000002   -2
    0.029587263   2   -1000002    2
    0.029587249   2    1000004   -4
    0.029587249   2   -1000004    4
    0.029546918   2    1000001   -1
    0.029546918   2   -1000001    1
    0.029546918   2    1000003   -3
    0.029546918   2   -1000003    3

DECAY 1000006  89.595691
    0.47161684   2    1000024    5
    0.24510747   2    1000022    6
    0.24307416   2    1000023    6
    0.037073468   2    1000025    6
    0.0017524452   2    1000037    5
    0.00084210366   2    1000035    6
    0.00033331222   2    1000005    37
    0.00020019495   2    1000005    24

DECAY 2000006  94.890588
    0.26584482   2    1000023    6
    0.26221743   2    1000022    6
    0.22214553   2    1000024    5
    0.070552909   2    1000006    23
    0.060139798   2    1000006    25
    0.050545619   2    1000037    5
    0.025134825   2    1000035    6
    0.017128216   2    1000005    37
    0.016064264   2    1000021    6
    0.0053024433   2    1000025    6
    0.0049241396   2    1000005    24

DECAY 1000005  9.1308334
    0.48916501   2   -1000024    6
    0.25645844   2    1000022    5
    0.25437655   2    1000023    5

DECAY 2000005  91.949251
    0.53604958   2   -1000024    6
    0.12650142   2    1000006   -24
    0.10116203   2    1000022    5
    0.10077853   2    1000023    5
    0.053868885   2   -1000037    6
    0.027948656   2    1000021    5
    0.027121273   2    1000035    5
    0.0089197142   2    1000005    36
    0.0089170275   2    1000005    35
    0.0031088667   2    1000025    5
    0.0029081686   2    1000005    25
    0.0027158529   2    1000005    23

DECAY 1000002  0.044129231
    0.50509479   2    1000024    1
    0.40393665   2    1000025    2
    0.060679566   2    1000022    2
    0.03028899   2    1000023    2

DECAY 2000002  0.00041881683
    0.76335854   2    1000022    2
    0.22878822   2    1000023    2
    0.0035024858   3    2    24   -1000024
    0.0015838427   3    2    23    1000023
    0.0012738743   3    2    25    1000022
    0.00072604532   3    2    23    1000022
    0.00048777887   3    2   -24    1000024
    0.00027921514   3    2    25    1000023
    1.2897285e-09   3    2    1   -2000001
    1.2760232e-09   3    2    3   -2000003
    1.0002463e-10   3    2   -1    2000001
    9.9597239e-11   3    2   -3    2000003

DECAY 1000001  0.025932005
    0.66556351   2    1000025    1
    0.21091971   2    1000022    1
    0.091784708   2    1000023    1
    0.031732071   2   -1000024    2

DECAY 2000001  0.00010129721
    0.76443289   2    1000022    1
    0.22903264   2    1000023    1
    0.0032714624   3    1    24   -1000024
    0.0011658762   3    1    23    1000023
    0.0011507721   3    1    25    1000022
    0.00044769251   3    1   -24    1000024
    0.00025218859   3    1    25    1000023
    0.00024648261   3    1    23    1000022

DECAY 1000004  0.043470752
    0.51247871   2    1000024    3
    0.39522268   2    1000025    4
    0.061566992   2    1000022    4
    0.030731623   2    1000023    4

DECAY 2000004  0.00039935307
    0.7630881   2    1000022    4
    0.22868306   2    1000023    4
    0.0036679323   3    4    24   -1000024
    0.0016635405   3    4    23    1000023
    0.001334308   3    4    25    1000022
    0.00075922793   3    4    23    1000022
    0.00051197804   3    4   -24    1000024
    0.00029184701   3    4    25    1000023
    1.1807597e-09   3    4    1   -2000001
    1.1594502e-09   3    4    3   -2000003
    9.0881986e-11   3    4   -1    2000001
    9.077932e-11   3    4   -3    2000003

DECAY 1000003  0.025305964
    0.65745857   2    1000025    3
    0.21603207   2    1000022    3
    0.094008393   2    1000023    3
    0.032500971   2   -1000024    4

DECAY 2000003  9.6532697e-05
    0.7642064   2    1000022    3
    0.22893966   2    1000023    3
    0.0034217422   3    3    24   -1000024
    0.0012330537   3    3    23    1000023
    0.0012077773   3    3    25    1000022
    0.00046969578   3    3   -24    1000024
    0.00026598242   3    3    25    1000023
    0.00025569575   3    3    23    1000022

DECAY 1000011  0.00060909222
    0.38280918   2    1000022    11
    0.35902296   2   -1000024    12
    0.25816786   2    1000023    11

DECAY 2000011  4.0925567
    0.99813715   2    1000025    11
    0.0014295451   2    1000022    11
    0.00043330364   2    1000023    11

DECAY 1000013  0.0006090922
    0.38280918   2    1000022    13
    0.35902297   2   -1000024    14
    0.25816786   2    1000023    13

DECAY 2000013  4.0925567
    0.99813715   2    1000025    13
    0.0014295451   2    1000022    13
    0.00043330364   2    1000023    13

DECAY 1000015  8.9876645
    0.46112173   2    1000022    15
    0.45801453   2    1000023    15
    0.080280383   2    1000025    15
    0.00058335905   2   -1000024    16

DECAY 2000015  27.515576
    0.37137026   2   -1000024    16
    0.24577719   2    1000025    15
    0.18612797   2    1000022    15
    0.18567473   2    1000023    15
    0.0053778403   2    1000016   -24
    0.0029119434   2    1000015    25
    0.0027396009   2    1000015    23
    1.3623723e-05   2   -1000037    16
    6.850491e-06   2    1000035    15

DECAY 1000012  0.0093186018
    0.63189119   2    1000024    11
    0.26291659   2    1000022    12
    0.10519223   2    1000023    12

DECAY 1000014  0.0093186016
    0.63189118   2    1000024    13
    0.26291659   2    1000022    14
    0.10519223   2    1000023    14

DECAY 1000016  9.0052522
    0.9193916   2    1000024    15
    0.07884765   2    1000025    16
    0.0012552857   2    1000022    16
    0.00050546931   2    1000023    16

DECAY 1000024  8.5142141e-12
    0.59999839   3    1000022    2   -1
    0.20000081   3    1000022   -11    12
    0.20000081   3    1000022   -13    14

DECAY 1000037  97.202003
    0.094800711   2    1000012   -11
    0.094800711   2    1000014   -13
    0.094764418   2   -1000011    12
    0.094764418   2   -1000013    14
    0.064106636   2    1000024    25
    0.061023429   2    1000024    23
    0.059133177   2    1000023    24
    0.058870107   2    1000022    24
    0.053130569   2    1000002   -1
    0.053130561   2    1000004   -3
    0.053034667   2   -1000001    2
    0.053034539   2   -1000003    4
    0.040276605   2    1000022    37
    0.040232541   2    1000024    36
    0.04021948   2    1000024    35
    0.04012392   2    1000023    37
    0.0022217435   2    1000016   -15
    0.002198883   2   -1000015    16
    0.00013260257   2    1000025    24
    2.81222e-07   2   -1000005    6

DECAY 1000022 -1


DECAY 1000023  1.2314798e-10
    0.18618213   3    1000022   -1    1
    0.18618213   3    1000022   -3    3
    0.1433019   3    1000022   -2    2
    0.12710406   2    1000022    22
    0.085765514   3    1000022   -12    12
    0.085765514   3    1000022   -14    14
    0.085764911   3    1000022   -16    16
    0.042884035   3    1000022   -11    11
    0.042884035   3    1000022   -13    13
    0.0042497272   3    1000024   -2    1
    0.0042497272   3   -1000024   -1    2
    0.0014165812   3    1000024   -12    11
    0.0014165812   3   -1000024    12   -11
    0.0014165812   3    1000024   -14    13
    0.0014165812   3   -1000024    14   -13

DECAY 1000025  37.845403
    0.12906887   2    2000002   -2
    0.12906887   2   -2000002    2
    0.12906882   2    2000004   -4
    0.12906882   2   -2000004    4
    0.034721957   2    1000024   -24
    0.034721957   2   -1000024    24
    0.03254848   2    2000001   -1
    0.03254848   2   -2000001    1
    0.03254848   2    2000003   -3
    0.03254848   2   -2000003    3
    0.028634146   2    1000022    25
    0.027298353   2    1000023    23
    0.019250487   2    1000011   -11
    0.019250487   2   -1000011    11
    0.019250487   2    1000013   -13
    0.019250487   2   -1000013    13
    0.019075799   2    1000012   -12
    0.019075799   2   -1000012    12
    0.019075799   2    1000014   -14
    0.019075799   2   -1000014    14
    0.014974309   2    1000005   -5
    0.014974309   2   -1000005    5
    0.008693158   2    1000023    25
    0.0082724681   2    1000022    23
    0.0069697967   2    1000024   -37
    0.0069697967   2   -1000024    37
    0.0068176754   2    1000022    35
    0.0067152207   2    1000023    36
    0.00023725513   2    1000022    36
    0.00022514845   2    1000023    35

DECAY 1000035  97.182975
    0.05904574   2    1000024   -24
    0.05904574   2   -1000024    24
    0.047505655   2    1000012   -12
    0.047505655   2   -1000012    12
    0.047505655   2    1000014   -14
    0.047505655   2   -1000014    14
    0.047287072   2    1000011   -11
    0.047287072   2   -1000011    11
    0.047287072   2    1000013   -13
    0.047287072   2   -1000013    13
    0.044047567   2    1000022    25
    0.041878701   2    1000023    23
    0.040122351   2    1000024   -37
    0.040122351   2   -1000024    37
    0.031540747   2    1000022    35
    0.031475481   2    1000023    36
    0.026562887   2    1000002   -2
    0.026562887   2   -1000002    2
    0.026562823   2    1000004   -4
    0.026562823   2   -1000004    4
    0.026508706   2    1000001   -1
    0.026508706   2   -1000001    1
    0.026508706   2    1000003   -3
    0.026508706   2   -1000003    3
    0.019907102   2    1000023    25
    0.01921168   2    1000022    23
    0.008835345   2    1000022    36
    0.0087688253   2    1000023    35
    0.0011117767   2    1000016   -16
    0.0011117767   2   -1000016    16
    0.0010958143   2    1000015   -15
    0.0010958143   2   -1000015    15
    0.00012139247   2    1000025    25
    3.5597011e-06   2    1000025    23
    1.5706215e-07   2    1000005   -5
    1.5706215e-07   2   -1000005    5
    1.5393299e-07   2    2000002   -2
    1.5393299e-07   2   -2000002    2
    1.5393298e-07   2    2000004   -4
    1.5393298e-07   2   -2000004    4
    3.8629685e-08   2    2000001   -1
    3.8629685e-08   2   -2000001    1
    3.8629685e-08   2    2000003   -3
    3.8629685e-08   2   -2000003    3
    2.9191507e-11   2    2000011   -11
    2.9191507e-11   2   -2000011    11
    2.9191507e-11   2    2000013   -13
    2.9191507e-11   2   -2000013    13

DECAY 25  0.0046604326
    0.58490032   2    5   -5
    0.23215677   2    24   -24
    0.072172171   2    21    21
    0.057663718   2   -15    15
    0.029963308   2    23    23
    0.018888846   2    4   -4
    0.0021869039   2    22    22
    0.0016424701   2    22    23
    0.0002213091   2    3   -3
    0.0002041868   2   -13    13

DECAY 35  33.431989
    0.84577536   2    5   -5
    0.15211293   2   -15    15
    0.0012012807   2    6   -6
    0.00056203761   2   -13    13
    0.00027122121   2    3   -3
    4.7420235e-05   2    21    21
    1.0596182e-05   2    1000024   -1000024
    7.6500496e-06   2    25    25
    4.7306625e-06   2    1000022    1000022
    2.7163683e-06   2    1000022    1000023
    1.6794071e-06   2    24   -24
    1.5105662e-06   2    1000023    1000023
    8.3440746e-07   2    23    23
    2.0573604e-08   2    23    22
    1.2724763e-08   2    4   -4
    2.7251573e-09   2    22    22

DECAY 36  33.440753
    0.84558052   2    5   -5
    0.15207394   2   -15    15
    0.0012278082   2    6   -6
    0.00056189011   2   -13    13
    0.0002711632   2    3   -3
    0.00013205948   2    1000024   -1000024
    7.6974268e-05   2    21    21
    5.1505895e-05   2    1000022    1000022
    2.2006345e-05   2    1000023    1000023
    1.6801394e-06   2    23    25
    3.4098518e-07   2    1000022    1000023
    5.6980406e-08   2    22    22
    3.8339202e-08   2    23    22
    1.2598492e-08   2    4   -4

DECAY 37  30.094092
    0.82840294   2    6   -5
    0.16923535   2   -15    16
    0.0014014524   2    4   -5
    0.00062529889   2   -13    14
    0.00029630604   2    4   -3
    1.5053209e-05   2    2   -3
    1.4014459e-05   2    2   -5
    7.0725441e-06   2    1000024    1000023
    1.880438e-06   2    24    25
    6.3988504e-07   2    1000024    1000022
    2.089122e-12   2    24    36

DECAY 5 -1


DECAY 15 -1


DECAY 23  2.4952


DECAY 24  2.085
