BLOCK SPINFO
   1   SPheno
   2   v4.0.5be

BLOCK SPHENOINFO
   1   2
   2   2

BLOCK MODSEL
   1   0

BLOCK MINPAR
   3    4.1934214
   4    1

BLOCK EXTPAR
   0    2213.2988
   1   -142.81539
   2    1243.5308
   3    3935.5577
   11    7788.3844
   12   -6450.3422
   13    5101.1265
   23    1086.6305
   25    3.9900725
   26    4273.6971
   31    2428.8651
   32    2428.8651
   33    4685.9603
   34    1640.4953
   35    1640.4953
   36    3199.4041
   41    4514.194
   42    4514.194
   43    4277.7097
   44    3932.9868
   45    3932.9868
   46    921.32005
   47    1554.4223
   48    1554.4223
   49    1641.1373

BLOCK SMINPUTS
   1    127.90897
   2    1.1663787e-05
   3    0.1184
   4    91.1876
   5    4.18
   6    173.2
   7    1.777
   8    0
   11    0.00051099893
   12    0
   13    0.10565837
   14    0
   21    0.005
   22    0.0025
   23    0.095
   24    1.27

BLOCK GAUGE Q=  2213.2988
   1    0.35536298
   2    0.66519887
   3    1.219778

BLOCK YU Q=  2213.2988
   1   1    8.6436793e-06
   2   2    0.0043909891
   3   3    1.0442259

BLOCK YD Q=  2213.2988
   1   1    6.930422e-05
   2   2    0.0013167802
   3   3    0.068728069

BLOCK YE Q=  2213.2988
   1   1    1.2094093e-05
   2   2    0.0025006749
   3   3    0.042057238

BLOCK AU Q=  2213.2988
   1   1    0
   2   2    0
   3   3    7788.3847

BLOCK AD Q=  2213.2988
   1   1    0
   2   2    0
   3   3   -6450.3421

BLOCK AE Q=  2213.2988
   1   1    0
   2   2    0
   3   3    5101.1265

BLOCK MSOFT Q=  2213.2988
   1   -142.81539
   2    1243.5308
   3    3935.5577
   21    16031478
   22   -838966.46
   31    2428.8651
   32    2428.8651
   33    4685.9603
   34    1640.4953
   35    1640.4953
   36    3199.4041
   41    4514.194
   42    4514.194
   43    4277.7097
   44    3932.9868
   45    3932.9868
   46    921.32005
   47    1554.4223
   48    1554.4223
   49    1641.1373

BLOCK MASS
   6    173.2
   23    91.1876
   24    80.429995
   15    1.777
   25    120.61711
   35    4273.497
   36    4273.6971
   37    4274.1448
   1000001    4563.0828
   2000001    1549.0778
   1000002    4562.6538
   2000002    3986.1132
   1000003    4563.0828
   2000003    1549.078
   1000004    4562.6538
   2000004    3986.1134
   1000005    1643.2308
   2000005    4301.693
   1000006    1136.0129
   2000006    4312.1796
   1000011    2437.9424
   2000011    1637.3047
   1000012    2436.4516
   1000013    2437.9424
   2000013    1637.3048
   1000014    2436.4516
   1000015    3199.9179
   2000015    4695.9031
   1000016    4694.9232
   1000021    4045.3753
   1000022   -144.59033
   1000023    1074.2606
   1000025   -1091.7208
   1000035    1322.5358
   1000024    1073.3682
   1000037    1322.4856

BLOCK ALPHA
      -0.23435418

BLOCK HMIX Q=  2213.2988
   1    1086.6305
   2    3.9900725
   3    243.69715
   4    18264487

BLOCK STOPMIX
   1   1   -0.068112802
   1   2    0.99767763
   2   1   -0.99767763
   2   2   -0.068112802

BLOCK SBOTMIX
   1   1    0.001455732
   1   2    0.99999894
   2   1   -0.99999894
   2   2    0.001455732

BLOCK STAUMIX
   1   1   -0.00010597746
   1   2    0.99999999
   2   1   -0.99999999
   2   2   -0.00010597746

BLOCK NMIX
   1   1    0.99917163
   1   2   -0.0006856555
   1   3    0.040466632
   1   4   -0.0042456139
   2   1   -0.030589206
   2   2   -0.28991852
   2   3    0.67976437
   2   4   -0.67300219
   3   1    0.02558546
   3   2   -0.016624753
   3   3   -0.7062287
   3   4   -0.70732597
   4   1    0.0081073087
   4   2   -0.95690668
   4   3   -0.19371079
   4   4    0.21619436

BLOCK UMIX
   1   1   -0.26168091
   1   2    0.96515444
   2   1    0.96515444
   2   2    0.26168091

BLOCK VMIX
   1   1   -0.29342851
   1   2    0.95598102
   2   1    0.95598102
   2   2    0.29342851

BLOCK HIGGSBOUNDSINPUTHIGGSCOUPLINGSFERMIONS
       0, 15.920678,3,36,15,15

BLOCK HIGGSBOUNDSINPUTHIGGSCOUPLINGSBOSONS
       0,4,36,21,21,23

BLOCK SPHENOLOWENERGY
   1    0.00032538601
   2    1.5897062e-06
   3    3.5255647e-05
   4    2.5774424e-15
   5    1.1010541e-10
   6    2.3049668e-08
   7    8.6771521e-14
   8    3.7068767e-09
   9    7.8626796e-07
   10    9.6802954e-05
   11    0.99993746
   12    0.54291091
   13    19.398653
   14    0
   15    0
   16    0.0021613662
   17    2.2816997e-15
   18    2.4807784e-11
   19    8.2913321e-11
   20    2.1254998e-16
   21    9.0871623e-12
   22    1.2640602e-09
   23    0
   24    0
   25    0
   26    0
   27    0
   28    0
   29    0
   30    0
   31    0
   39   -0.00060854802
   40    0
   41    0
   42    0

BLOCK FWCOEF Q=  160
   305   4422   0   0   -0.18881911
   305   4422   0   2   -0.19436602
   305   4322   0   2   -0.0001114085
   305   6421   0   0   -0.095227835
   305   6421   0   2   -0.10140895
   305   6321   0   2   -0.00012284142
   3051111   4133   0   0    1.6055123
   3051111   4133   0   2    1.6056029
   3051111   4233   0   2    2.8732941e-06
   3051111   4137   0   0   -4.4282044
   3051111   4137   0   2   -4.4268174
   3051111   4237   0   2   -2.1957445e-05
   3051313   4133   0   0    1.6055123
   3051313   4133   0   2    1.6056028
   3051313   4233   0   2    2.873294e-06
   3051313   4137   0   0   -4.4282044
   3051313   4137   0   2   -4.4268174
   3051313   4237   0   2   -2.1957445e-05
   3051212   4137   0   0    1.5053501
   3051212   4137   0   2    1.5050538
   3051212   4237   0   2    4.7709263e-06
   3051414   4137   0   0    1.5053501
   3051414   4137   0   2    1.5050538
   3051414   4237   0   2    4.7709263e-06
   3051616   4137   0   0    1.5053501
   3051616   4137   0   2    1.5050535
   3051616   4237   0   2    4.7709127e-06

BLOCK IMFWCOEF Q=  160
   305   4422   0   0    3.8580899e-07
   305   4422   0   2    2.1235598e-06
   305   4322   0   2   -7.9984606e-07
   305   6421   0   0    3.3047092e-07
   305   6421   0   2   -1.5465622e-06
   305   6321   0   2   -5.6688573e-07
   3051111   4133   0   2   -2.1770791e-06
   3051111   4233   0   2    5.5696611e-08
   3051111   4137   0   2    1.7325645e-05
   3051111   4237   0   2   -4.2561202e-07
   3051313   4133   0   2   -2.177079e-06
   3051313   4233   0   2    5.569661e-08
   3051313   4137   0   2    1.7325645e-05
   3051313   4237   0   2   -4.2561202e-07
   3051212   4137   0   2   -3.6722701e-06
   3051212   4237   0   2    9.2476927e-08
   3051414   4137   0   2   -3.6722701e-06
   3051414   4237   0   2    9.2476927e-08
   3051616   4137   0   2   -3.6776375e-06
   3051616   4237   0   2    9.2476674e-08

DECAY 23  2.4952


DECAY 24  2.085


DECAY 2000011  8.0898526
    0.99947794   2    1000022    11
    0.00030862904   2    1000023    11
    0.00020535264   2    1000025    11

DECAY 1000011  19.443367
    0.51211209   2   -1000037    12
    0.2494094   2    1000035    11
    0.15573979   2    1000022    11
    0.049121118   2   -1000024    12
    0.033614523   2    1000023    11

DECAY 2000013  8.0899799
    0.99946234   2    1000022    13
    0.00031240789   2    1000023    13
    0.00020923193   2    1000025    13

DECAY 1000013  19.443576
    0.51210658   2   -1000037    14
    0.24940704   2    1000035    13
    0.15573814   2    1000022    13
    0.049120589   2   -1000024    14
    0.033618804   2    1000023    13

DECAY 1000015  16.182924
    0.98786063   2    1000022    15
    0.0051004903   2   -1000024    16
    0.0032619574   2    1000023    15
    0.0032186242   2    1000025    15
    0.00033166734   2   -1000037    16
    0.00022663108   2    1000035    15

DECAY 2000015  58.834
    0.55480465   2   -1000037    16
    0.2703066   2    1000035    15
    0.099654242   2    1000022    15
    0.043219528   2   -1000024    16
    0.03075724   2    1000023    15
    0.0012561601   2    1000025    15

DECAY 1000012  19.451211
    0.50140155   2    1000037    11
    0.25344939   2    1000035    12
    0.15638189   2    1000022    12
    0.061664078   2    1000024    11
    0.026779915   2    1000023    12
    0.00032317591   2    1000025    12

DECAY 1000014  19.451404
    0.50139715   2    1000037    13
    0.25344687   2    1000035    14
    0.15638034   2    1000022    14
    0.06167282   2    1000024    13
    0.026779649   2    1000023    14
    0.00032317269   2    1000025    14

DECAY 1000016  58.840584
    0.54426388   2    1000037    15
    0.27504488   2    1000035    16
    0.10013065   2    1000022    16
    0.056665109   2    1000024    15
    0.023605063   2    1000023    16
    0.00028837465   2    1000025    16

DECAY 2000001  0.84879344
    0.99956913   2    1000022    1
    0.00025690751   2    1000023    1
    0.0001689924   2    1000025    1

DECAY 1000001  67.926782
    0.46220817   2   -1000037    2
    0.24292039   2    1000021    1
    0.22785396   2    1000035    1
    0.036137029   2   -1000024    2
    0.021348678   2    1000023    1
    0.0094138593   2    1000022    1
    0.00011790144   2    1000025    1

DECAY 2000003  0.84882083
    0.99953704   2    1000022    3
    0.00026475069   2    1000023    3
    0.00017694925   2    1000025    3

DECAY 1000003  67.928475
    0.46219877   2   -1000037    4
    0.2429143   2    1000021    3
    0.22784836   2    1000035    3
    0.036156867   2   -1000024    4
    0.021349091   2    1000023    3
    0.0094136283   2    1000022    3
    0.00011892341   2    1000025    3

DECAY 1000005  0.99571935
    0.90592074   2    1000022    5
    0.044148744   2   -1000024    6
    0.024328555   2    1000025    5
    0.023997363   2    1000023    5
    0.00093906663   2   -1000037    6
    0.00066145566   2    1000035    5

DECAY 2000005  335.77235
    0.60165226   2    1000006   -24
    0.22761242   2   -1000024    6
    0.107588   2   -1000037    6
    0.042504314   2    1000035    5
    0.013515629   2    1000021    5
    0.0044954683   2    1000023    5
    0.0017963302   2    1000022    5
    0.00054831117   2    1000025    5
    0.0001810231   2    1000005    25
    0.00010625418   2    1000005    23

DECAY 2000002  8.8761723
    0.99857907   2    1000022    2
    0.00080702665   2    1000023    2
    0.00056170183   2    1000025    2

DECAY 1000002  67.938555
    0.45332685   2    1000037    1
    0.24252012   2    1000021    2
    0.22641469   2    1000035    2
    0.045424206   2    1000024    1
    0.023008484   2    1000023    2
    0.0092673809   2    1000022    2

DECAY 2000004  8.8787837
    0.99828517   2    1000022    4
    0.00087396391   2    1000023    4
    0.00063516727   2    1000025    4
    0.00013538421   2    1000024    3

DECAY 1000004  67.940181
    0.45331615   2    1000037    3
    0.24251334   2    1000021    4
    0.22641042   2    1000035    4
    0.045425025   2    1000024    3
    0.023018188   2    1000023    4
    0.0092671579   2    1000022    4

DECAY 1000006  2.5666982
    0.90239106   2    1000022    6
    0.097609529   2    1000024    5

DECAY 2000006  358.23986
    0.34371374   2    1000006    25
    0.28291641   2    1000006    23
    0.11393906   2    1000025    6
    0.10910312   2    1000023    6
    0.074057968   2    1000037    5
    0.047658445   2    1000035    6
    0.01546394   2    1000024    5
    0.011131949   2    1000021    6
    0.0018150648   2    1000022    6
    0.00020030468   2    1000005    24

DECAY 1000024  0.64016534
    0.97190959   2    1000022    24
    0.028086555   3    1000022   -5    6

DECAY 1000037  8.2154078
    0.2780916   2    1000025    24
    0.27297512   2    1000023    24
    0.21928521   2    1000024    23
    0.18041449   2    1000024    25
    0.040188325   2    1000006   -5
    0.0086171505   2    1000022    24
    0.00021550078   3    1000022   -5    6
    0.00015807822   3    1000023   -5    6

DECAY 1000022 -1


DECAY 1000023  0.8088358
    0.69226937   2    1000022    25
    0.30168812   2    1000022    23
    0.00602608   3    1000022    6   -6

DECAY 1000025  0.65963282
    0.63824347   2    1000022    23
    0.35294545   2    1000022    25
    0.0087206782   3    1000022    6   -6

DECAY 1000035  8.2871067
    0.31004894   2    1000025    23
    0.20616309   2    1000024   -24
    0.20616309   2   -1000024    24
    0.17280648   2    1000023    25
    0.07790288   2    1000025    25
    0.007373606   2    1000006   -6
    0.007373606   2   -1000006    6
    0.00640622   2    1000022    25
    0.0044011708   2    1000022    23
    0.00084186968   2    1000023    23
    0.00016991535   3    1000024    5   -6
    0.00016991535   3   -1000024   -5    6
    0.00012490427   3    1000022    6   -6

DECAY 1000021  362.20604
    0.14197403   2    1000006   -6
    0.14197403   2   -1000006    6
    0.12037534   2    2000001   -1
    0.12037534   2   -2000001    1
    0.12037533   2    2000003   -3
    0.12037533   2   -2000003    3
    0.11524874   2    1000005   -5
    0.11524874   2   -1000005    5
    0.0010488969   3    1000023    6   -6
    0.0010305243   3    1000025    6   -6
    0.00017054554   3    1000024    5   -6
    0.00017054554   3   -1000024   -5    6
    0.00016064784   3    1000037    5   -6
    0.00016064784   3   -1000037   -5    6
    0.00013982212   2    2000002   -2
    0.00013982212   2   -2000002    2
    0.00013978968   2    2000004   -4
    0.00013978968   2   -2000004    4

DECAY 25  0.0033714723
    0.63733668   2   -5    5
    0.16224092   2   -24    24
    0.074050078   2    21    21
    0.072855169   2   -15    15
    0.03156285   2   -4    4
    0.017980405   2    23    23
    0.0023437407   2    22    22
    0.0011372564   2    22    23
    0.00025270545   2   -13    13
    0.00023936665   2   -3    3
    6.6182489e-07   2   -1    1
    1.6266499e-07   2   -2    2
    5.6811605e-09   2   -11    11

DECAY 35  54.474103
    0.22370714   2   -1000024    1000037
    0.22370714   2   -1000037    1000024
    0.17353341   2    1000025    1000035
    0.1482588   2   -6    6
    0.056919382   2    1000022    1000025
    0.031607175   2    1000023    1000035
    0.029516889   2   -1000024    1000024
    0.022122563   2    1000022    1000023
    0.02036327   2    1000023    1000025
    0.016414271   2   -1000037    1000037
    0.015775341   2   -1000006    1000006
    0.013596503   2   -5    5
    0.011651162   2    1000023    1000023
    0.008513921   2    1000035    1000035
    0.0027681426   2   -15    15
    0.00088512543   2    1000022    1000035
    0.00028263044   2    1000025    1000025
    0.00023742266   2    1000022    1000022
    7.9359558e-05   2    25    25
    1.8734868e-05   2    21    21
    1.3673746e-05   2    23    23
    9.6320229e-06   2   -13    13
    5.3390451e-06   2   -3    3
    2.6778731e-06   2   -24    24
    2.4403264e-06   2   -1000011    1000011
    2.4399529e-06   2   -1000013    1000013
    2.0591532e-06   2   -4    4
    1.0483915e-06   2   -1000005    1000005
    8.7134202e-07   2   -1000001    1000001
    8.7129355e-07   2   -1000003    1000003
    3.0389306e-07   2    22    23
    2.2878114e-07   2    22    22
    1.4761355e-08   2   -1    1
    5.375483e-09   2   -2000013    1000013
    5.375483e-09   2   -1000013    2000013
    2.1630486e-10   2   -11    11
    1.0613849e-11   2   -2    2
    1.2573312e-13   2   -2000011    1000011
    1.2573312e-13   2   -1000011    2000011

DECAY 36  53.170003
    0.16611573   2   -1000024    1000037
    0.16611573   2   -1000037    1000024
    0.14423792   2   -6    6
    0.11807402   2    1000023    1000035
    0.095723732   2   -1000024    1000024
    0.07749514   2   -1000037    1000037
    0.055370456   2    1000022    1000023
    0.047832873   2    1000025    1000035
    0.041377059   2    1000023    1000023
    0.039552909   2    1000035    1000035
    0.022739781   2    1000022    1000025
    0.013434564   2   -5    5
    0.0048463424   2    1000023    1000025
    0.0038405998   2    1000022    1000035
    0.002735161   2   -15    15
    0.00027144416   2    1000022    1000022
    0.00014746953   2    1000025    1000025
    3.9715607e-05   2    21    21
    3.1834799e-05   2    23    25
    9.5172688e-06   2   -13    13
    5.2754839e-06   2   -3    3
    1.9901158e-06   2   -4    4
    3.9061116e-07   2    22    22
    3.2904366e-07   2    22    23
    1.458569e-08   2   -1    1
    5.5035633e-09   2   -2000013    1000013
    5.5035633e-09   2   -1000013    2000013
    2.1372777e-10   2   -11    11
    1.0258228e-11   2   -2    2
    1.2872892e-13   2   -2000011    1000011
    1.2872892e-13   2   -1000011    2000011
    4.7076298e-36   2    25    25

DECAY 37  54.776162
    0.24976254   2    1000023    1000037
    0.240291   2    1000024    1000035
    0.21461933   2    1000025    1000037
    0.18216881   2   -5    6
    0.0753768   2    1000022    1000024
    0.029817494   2    1000024    1000025
    0.0045559334   2    1000022    1000037
    0.0027440373   2   -15    16
    0.00024045372   2   -3    6
    0.00021579716   2    1000023    1000024
    0.0001251788   2   -1000005    1000006
    3.0920506e-05   2    24    25
    1.9844463e-05   2   -5    4
    1.1027975e-05   2   -1    6
    9.7011481e-06   2   -13    14
    7.0383934e-06   2   -3    4
    3.5864488e-06   2    1000035    1000037
    2.3037384e-07   2   -3    2
    1.4168612e-07   2   -5    2
    1.010972e-07   2   -1    4
    1.3606658e-08   2   -1    2
    1.0643519e-08   2   -1000013    1000014
    2.2691086e-10   2   -11    12
    6.882315e-12   2   -1000003    1000006
    2.4895298e-13   2   -1000011    1000012
    8.7444712e-16   2   -1000001    1000006

DECAY 6  2.43
    1   2    5    24

DECAY 15 -1
