# SUSY Les Houches Accord 2 - MSSM spectrum + Decays
# SPheno v4.0.5be
# W. Porod, Comput. Phys. Commun. 153 (2003) 275-315, hep-ph/0301101;
# W. Porod, F.~Staub, Comput. Phys. Commun. 183 (2012) 2458
#                     arXiv:1104.1573 [hep-ph] 
# in case of problems send email to porod@physik.uni-wuerzburg.de
# Created: 12.05.2022,  16:27
Block SPINFO         # Program information
     1   SPheno      # spectrum calculator
     2   v4.0.5be    # version number
#
Block SPhenoINFO     # SPheno specific information
    1      2         # using 2-loop RGEs
    2      2         # using pole masses for boundary conditions at mZ
Block MODSEL  # Model selection
    1    0    # general MSSM
Block MINPAR  # Input parameters
    3    1.63265897E+01  # tanb at m_Z    
    4   -1.00000000E+00  # Sign(mu)
Block EXTPAR  # non-universal input parameters
    0    3.30809297E+03  # scale for input parameters
    1    1.52670870E+03  # M_1
    2    2.28397534E+02  # M_2
    3    1.65916695E+03  # M_3
   11   -1.28248960E+03  # A_t
   12   -1.98347119E+03  # A_b
   13   -2.03678302E+02  # A_tau
   23   -1.03277099E+02  # mu
   25    1.55898190E+01  # tan(beta)
   26    4.95777930E+03  # m_A, pole mass
   31    1.00000000E+04  # M_L11
   32    1.00000000E+04  # M_L22
   33    1.00000000E+04  # M_L33
   34    1.00000000E+04  # M_E11
   35    1.00000000E+04  # M_E22
   36    1.00000000E+04  # M_E33
   41    1.00000000E+04  # M_Q11
   42    1.00000000E+04  # M_Q22
   43    4.02815284E+03  # M_Q33
   44    1.00000000E+04  # M_U11
   45    1.00000000E+04  # M_U22
   46    2.67207287E+03  # M_U33
   47    1.00000000E+04  # M_D11
   48    1.00000000E+04  # M_D22
   49    4.41323461E+03  # M_D33
Block SMINPUTS  # SM parameters
         1     1.27908970E+02  # alpha_em^-1(MZ)^MSbar
         2     1.16637870E-05  # G_mu [GeV^-2]
         3     1.18400000E-01  # alpha_s(MZ)^MSbar
         4     9.11876000E+01  # m_Z(pole)
         5     4.18000000E+00  # m_b(m_b), MSbar
         6     1.73200000E+02  # m_t(pole)
         7     1.77700000E+00  # m_tau(pole)
         8     0.00000000E+00  # m_nu_3
        11     5.10998930E-04  # m_e(pole)
        12     0.00000000E+00  # m_nu_1
        13     1.05658372E-01  # m_muon(pole)
        14     0.00000000E+00  # m_nu_2
        21     5.00000000E-03  # m_d(2 GeV), MSbar
        22     2.50000000E-03  # m_u(2 GeV), MSbar
        23     9.50000000E-02  # m_s(2 GeV), MSbar
        24     1.27000000E+00  # m_c(m_c), MSbar
Block gauge Q=  3.30809297E+03  # (SUSY scale)
   1    3.55362975E-01  # g'(Q)^DRbar
   2    6.65198874E-01  # g(Q)^DRbar
   3    1.21977796E+00  # g3(Q)^DRbar
Block Yu Q=  3.30809297E+03  # (SUSY scale)
  1  1     8.40160321E-06   # Y_u(Q)^DRbar
  2  2     4.26801443E-03   # Y_c(Q)^DRbar
  3  3     1.01498115E+00   # Y_t(Q)^DRbar
Block Yd Q=  3.30809297E+03  # (SUSY scale)
  1  1     2.63198547E-04   # Y_d(Q)^DRbar
  2  2     5.00077239E-03   # Y_s(Q)^DRbar
  3  3     2.61010484E-01   # Y_b(Q)^DRbar
Block Ye Q=  3.30809297E+03  # (SUSY scale)
  1  1     4.59300711E-05   # Y_e(Q)^DRbar
  2  2     9.49688199E-03   # Y_mu(Q)^DRbar
  3  3     1.59721932E-01   # Y_tau(Q)^DRbar
Block Au Q=  3.30809297E+03  # (SUSY scale)
  1  1     0.00000000E+00   # A_u(Q)^DRbar
  2  2     0.00000000E+00   # A_c(Q)^DRbar
  3  3    -1.28248970E+03   # A_t(Q)^DRbar
Block Ad Q=  3.30809297E+03  # (SUSY scale)
  1  1     0.00000000E+00   # A_d(Q)^DRbar
  2  2     0.00000000E+00   # A_s(Q)^DRbar
  3  3    -1.98347112E+03   # A_b(Q)^DRbar
Block Ae Q=  3.30809297E+03  # (SUSY scale)
  1  1     0.00000000E+00   # A_e(Q)^DRbar
  2  2     0.00000000E+00   # A_mu(Q)^DRbar
  3  3    -2.03678296E+02   # A_tau(Q)^DRbar
Block MSOFT Q=  3.30809297E+03  # soft SUSY breaking masses at Q
   1    1.52670870E+03  # M_1
   2    2.28397534E+02  # M_2
   3    1.65916695E+03  # M_3
  21    2.43985161E+07  # M^2_(H,d)
  22    3.25913462E+05  # M^2_(H,u)
  31    1.00000000E+04  # M_(L,11)
  32    1.00000000E+04  # M_(L,22)
  33    1.00000000E+04  # M_(L,33)
  34    1.00000000E+04  # M_(E,11)
  35    1.00000000E+04  # M_(E,22)
  36    1.00000000E+04  # M_(E,33)
  41    1.00000000E+04  # M_(Q,11)
  42    1.00000000E+04  # M_(Q,22)
  43    4.02815284E+03  # M_(Q,33)
  44    1.00000000E+04  # M_(U,11)
  45    1.00000000E+04  # M_(U,22)
  46    2.67207287E+03  # M_(U,33)
  47    1.00000000E+04  # M_(D,11)
  48    1.00000000E+04  # M_(D,22)
  49    4.41323461E+03  # M_(D,33)
Block MASS  # Mass spectrum
#   PDG code      mass          particle
         6     1.73200000E+02  # m_t(pole)
        23     9.11876000E+01  # m_Z(pole)
        24     8.04299946E+01  # W+
        15     1.77700000E+00  # m_tau(pole)
        25     1.22711626E+02  # h0
        35     4.95709419E+03  # H0
        36     4.95777930E+03  # A0
        37     4.95831945E+03  # H+
   1000001     1.01193404E+04  # ~d_L
   2000001     1.00937871E+04  # ~d_R
   1000002     1.01189737E+04  # ~u_L
   2000002     1.00969118E+04  # ~u_R
   1000003     1.01193418E+04  # ~s_L
   2000003     1.00937887E+04  # ~s_R
   1000004     1.01189751E+04  # ~c_L
   2000004     1.00969130E+04  # ~c_R
   1000005     4.06435435E+03  # ~b_1
   2000005     4.46247238E+03  # ~b_2
   1000006     2.69092488E+03  # ~t_1
   2000006     4.06680959E+03  # ~t_2
   1000011     1.00215166E+04  # ~e_L-
   2000011     1.00083789E+04  # ~e_R-
   1000012     1.00207423E+04  # ~nu_eL
   1000013     1.00215207E+04  # ~mu_L-
   2000013     1.00083869E+04  # ~mu_R-
   1000014     1.00207464E+04  # ~nu_muL
   1000015     1.00106492E+04  # ~tau_1-
   2000015     1.00226826E+04  # ~tau_2-
   1000016     1.00219058E+04  # ~nu_tauL
   1000021     2.03737629E+03  # ~g
   1000022     1.04287669E+02  # ~chi_10
   1000023     1.31960939E+02  # ~chi_20
   1000025     2.82010160E+02  # ~chi_30
   1000035     1.54225173E+03  # ~chi_40
   1000024     1.12850938E+02  # ~chi_1+
   1000037     2.83498793E+02  # ~chi_2+
# Higgs mixing
Block alpha # Effective Higgs mixing angle
          -6.12281235E-02   # alpha
Block Hmix Q=  3.30809297E+03  # Higgs mixing parameters
   1   -1.03277099E+02  # mu
   2    1.55898190E+01  # tan[beta](Q)
   3    2.43139505E+02  # v(Q)
   4    2.45795756E+07  # m^2_A(Q)
Block stopmix # stop mixing matrix
   1  1     2.18931126E-02   # Re[R_st(1,1)]
   1  2     9.99760317E-01   # Re[R_st(1,2)]
   2  1    -9.99760317E-01   # Re[R_st(2,1)]
   2  2     2.18931126E-02   # Re[R_st(2,2)]
Block sbotmix # sbottom mixing matrix
   1  1     9.99999747E-01   # Re[R_sb(1,1)]
   1  2     7.10958928E-04   # Re[R_sb(1,2)]
   2  1    -7.10958928E-04   # Re[R_sb(2,1)]
   2  2     9.99999747E-01   # Re[R_sb(2,2)]
Block staumix # stau mixing matrix
   1  1    -9.44899644E-03   # Re[R_sta(1,1)]
   1  2     9.99955357E-01   # Re[R_sta(1,2)]
   2  1    -9.99955357E-01   # Re[R_sta(2,1)]
   2  2    -9.44899644E-03   # Re[R_sta(2,2)]
Block Nmix # neutralino mixing matrix
   1  1    -1.77016995E-02   # Re[N(1,1)]
   1  2     3.00159828E-01   # Re[N(1,2)]
   1  3     7.30537513E-01   # Re[N(1,3)]
   1  4     6.13111466E-01   # Re[N(1,4)]
   2  1    -2.04577635E-02   # Re[N(2,1)]
   2  2     1.59650517E-01   # Re[N(2,2)]
   2  3    -6.72421247E-01   # Re[N(2,3)]
   2  4     7.22456129E-01   # Re[N(2,4)]
   3  1     1.10490634E-02   # Re[N(3,1)]
   3  2     9.40432085E-01   # Re[N(3,2)]
   3  3    -1.19014150E-01   # Re[N(3,3)]
   3  4    -3.18278250E-01   # Re[N(3,4)]
   4  1     9.99572933E-01   # Re[N(4,1)]
   4  2    -1.81223606E-03   # Re[N(4,2)]
   4  3     4.90725141E-04   # Re[N(4,3)]
   4  4     2.91620822E-02   # Re[N(4,4)]
Block Umix # chargino mixing matrix
   1  1    -1.78688065E-01   # Re[U(1,1)]
   1  2    -9.83905776E-01   # Re[U(1,2)]
   2  1     9.83905776E-01   # Re[U(2,1)]
   2  2    -1.78688065E-01   # Re[U(2,2)]
Block Vmix # chargino mixing matrix
   1  1    -4.72174945E-01   # Re[V(1,1)]
   1  2     8.81504862E-01   # Re[V(1,2)]
   2  1     8.81504862E-01   # Re[V(2,1)]
   2  2     4.72174945E-01   # Re[V(2,2)]
DECAY        23     2.49520000E+00   # Z
DECAY        24     2.08500000E+00   # W
DECAY   2000011     4.79305408E+01   # ~e^-_R
#    BR                NDA      ID1      ID2
     3.28698481E-04    2     1000022        11   # BR(~e^-_R -> chi^0_1 e^-)
     4.38960172E-04    2     1000023        11   # BR(~e^-_R -> chi^0_2 e^-)
     1.27884336E-04    2     1000025        11   # BR(~e^-_R -> chi^0_3 e^-)
     9.99104448E-01    2     1000035        11   # BR(~e^-_R -> chi^0_4 e^-)
DECAY   1000011     1.44132716E+02   # ~e^-_L
#    BR                NDA      ID1      ID2
     2.58570912E-02    2     1000022        11   # BR(~e^-_L -> chi^0_1 e^-)
     6.76661325E-03    2     1000023        11   # BR(~e^-_L -> chi^0_2 e^-)
     2.73637425E-01    2     1000025        11   # BR(~e^-_L -> chi^0_3 e^-)
     8.26176694E-02    2     1000035        11   # BR(~e^-_L -> chi^0_4 e^-)
     1.95382191E-02    2    -1000024        12   # BR(~e^-_L -> chi^-_1 nu_e)
     5.91582982E-01    2    -1000037        12   # BR(~e^-_L -> chi^-_2 nu_e)
#    BR                NDA      ID1      ID2       ID3
DECAY   2000013     4.79664872E+01   # ~mu^-_R
#    BR                NDA      ID1      ID2
     5.28208130E-04    2     1000022        13   # BR(~mu^-_R -> chi^0_1 mu^-)
     6.07846889E-04    2     1000023        13   # BR(~mu^-_R -> chi^0_2 mu^-)
     1.33083017E-04    2     1000025        13   # BR(~mu^-_R -> chi^0_3 mu^-)
     9.98356588E-01    2     1000035        13   # BR(~mu^-_R -> chi^0_4 mu^-)
     3.62338916E-04    2    -1000024        14   # BR(~mu^-_R -> chi^-_1 nu_mu)
DECAY   1000013     1.44150752E+02   # ~mu^-_L
#    BR                NDA      ID1      ID2
     2.59204236E-02    2     1000022        13   # BR(~mu^-_L -> chi^0_1 mu^-)
     6.82214985E-03    2     1000023        13   # BR(~mu^-_L -> chi^0_2 mu^-)
     2.73605064E-01    2     1000025        13   # BR(~mu^-_L -> chi^0_3 mu^-)
     8.26073699E-02    2     1000035        13   # BR(~mu^-_L -> chi^0_4 mu^-)
     1.95357826E-02    2    -1000024        14   # BR(~mu^-_L -> chi^-_1 nu_mu)
     5.91509210E-01    2    -1000037        14   # BR(~mu^-_L -> chi^-_2 nu_mu)
#    BR                NDA      ID1      ID2       ID3
DECAY   1000015     5.81090469E+01   # ~tau^-_1
#    BR                NDA      ID1      ID2
     4.80290334E-02    2     1000022        15   # BR(~tau^-_1 -> chi^0_1 tau^-)
     3.93250088E-02    2     1000023        15   # BR(~tau^-_1 -> chi^0_2 tau^-)
     8.62196022E-04    2     1000025        15   # BR(~tau^-_1 -> chi^0_3 tau^-)
     8.24247255E-01    2     1000035        15   # BR(~tau^-_1 -> chi^0_4 tau^-)
     8.58265135E-02    2    -1000024        16   # BR(~tau^-_1 -> chi^-_1 nu_tau)
     1.70999309E-03    2    -1000037        16   # BR(~tau^-_1 -> chi^-_2 nu_tau)
DECAY   2000015     1.49226673E+02   # ~tau^-_2
#    BR                NDA      ID1      ID2
     4.27344175E-02    2     1000022        15   # BR(~tau^-_2 -> chi^0_1 tau^-)
     2.21606231E-02    2     1000023        15   # BR(~tau^-_2 -> chi^0_2 tau^-)
     2.64996350E-01    2     1000025        15   # BR(~tau^-_2 -> chi^0_3 tau^-)
     7.98298639E-02    2     1000035        15   # BR(~tau^-_2 -> chi^0_4 tau^-)
     1.84031852E-02    2    -1000024        16   # BR(~tau^-_2 -> chi^-_1 nu_tau)
     5.71875560E-01    2    -1000037        16   # BR(~tau^-_2 -> chi^-_2 nu_tau)
#    BR                NDA      ID1      ID2       ID3
DECAY   1000012     1.44137492E+02   # ~nu_e
#    BR                NDA      ID1      ID2
     2.93278375E-02    2     1000022        12   # BR(~nu_e -> chi^0_1 nu_e)
     8.90079928E-03    2     1000023        12   # BR(~nu_e -> chi^0_2 nu_e)
     2.66823374E-01    2     1000025        12   # BR(~nu_e -> chi^0_3 nu_e)
     8.37369820E-02    2     1000035        12   # BR(~nu_e -> chi^0_4 nu_e)
     1.36411758E-01    2     1000024        11   # BR(~nu_e -> chi^+_1 e^-)
     4.74799249E-01    2     1000037        11   # BR(~nu_e -> chi^+_2 e^-)
#    BR                NDA      ID1      ID2       ID3
DECAY   1000014     1.44155526E+02   # ~nu_mu
#    BR                NDA      ID1      ID2
     2.93241806E-02    2     1000022        14   # BR(~nu_mu -> chi^0_1 nu_mu)
     8.89968943E-03    2     1000023        14   # BR(~nu_mu -> chi^0_2 nu_mu)
     2.66790104E-01    2     1000025        14   # BR(~nu_mu -> chi^0_3 nu_mu)
     8.37265440E-02    2     1000035        14   # BR(~nu_mu -> chi^0_4 nu_mu)
     1.36515462E-01    2     1000024        13   # BR(~nu_mu -> chi^+_1 mu^-)
     4.74744020E-01    2     1000037        13   # BR(~nu_mu -> chi^+_2 mu^-)
#    BR                NDA      ID1      ID2       ID3
DECAY   1000016     1.49239291E+02   # ~nu_tau
#    BR                NDA      ID1      ID2
     2.83285451E-02    2     1000022        16   # BR(~nu_tau -> chi^0_1 nu_tau)
     8.59752109E-03    2     1000023        16   # BR(~nu_tau -> chi^0_2 nu_tau)
     2.57731938E-01    2     1000025        16   # BR(~nu_tau -> chi^0_3 nu_tau)
     8.08847047E-02    2     1000035        16   # BR(~nu_tau -> chi^0_4 nu_tau)
     1.64749807E-01    2     1000024        15   # BR(~nu_tau -> chi^+_1 tau^-)
     4.59707484E-01    2     1000037        15   # BR(~nu_tau -> chi^+_2 tau^-)
#    BR                NDA      ID1      ID2       ID3
DECAY   2000001     7.38514171E+02   # ~d_R
#    BR                NDA      ID1      ID2
     7.27224033E-03    2     1000035         1   # BR(~d_R -> chi^0_4 d)
     9.92721209E-01    2     1000021         1   # BR(~d_R -> ~g d)
DECAY   1000001     8.70079290E+02   # ~d_L
#    BR                NDA      ID1      ID2
     4.70851919E-03    2     1000022         1   # BR(~d_L -> chi^0_1 d)
     1.36454837E-03    2     1000023         1   # BR(~d_L -> chi^0_2 d)
     4.50150170E-02    2     1000025         1   # BR(~d_L -> chi^0_3 d)
     1.57909995E-03    2     1000035         1   # BR(~d_L -> chi^0_4 d)
     3.26820727E-03    2    -1000024         2   # BR(~d_L -> chi^-_1 u)
     9.89581464E-02    2    -1000037         2   # BR(~d_L -> chi^-_2 u)
     8.45106462E-01    2     1000021         1   # BR(~d_L -> ~g d)
DECAY   2000003     7.38524320E+02   # ~s_R
#    BR                NDA      ID1      ID2
     7.27214165E-03    2     1000035         3   # BR(~s_R -> chi^0_4 s)
     9.92707750E-01    2     1000021         3   # BR(~s_R -> ~g s)
DECAY   1000003     8.70088111E+02   # ~s_L
#    BR                NDA      ID1      ID2
     4.71155101E-03    2     1000022         3   # BR(~s_L -> chi^0_1 s)
     1.36714275E-03    2     1000023         3   # BR(~s_L -> chi^0_2 s)
     4.50146483E-02    2     1000025         3   # BR(~s_L -> chi^0_3 s)
     1.57908418E-03    2     1000035         3   # BR(~s_L -> chi^0_4 s)
     3.27144806E-03    2    -1000024         4   # BR(~s_L -> chi^-_1 c)
     9.89580960E-02    2    -1000037         4   # BR(~s_L -> chi^-_2 c)
     8.45098030E-01    2     1000021         3   # BR(~s_L -> ~g s)
DECAY   1000005     3.25631252E+02   # ~b_1
#    BR                NDA      ID1      ID2
     1.40546247E-02    2     1000022         5   # BR(~b_1 -> chi^0_1 b)
     9.09898729E-03    2     1000023         5   # BR(~b_1 -> chi^0_2 b)
     4.81604767E-02    2     1000025         5   # BR(~b_1 -> chi^0_3 b)
     1.30153270E-03    2     1000035         5   # BR(~b_1 -> chi^0_4 b)
     2.01100528E-01    2    -1000024         6   # BR(~b_1 -> chi^-_1 t)
     1.62149725E-01    2    -1000037         6   # BR(~b_1 -> chi^-_2 t)
     5.52284631E-01    2     1000021         5   # BR(~b_1 -> ~g b)
     1.18494949E-02    2     1000006       -24   # BR(~b_1 -> ~t_1 W^-)
DECAY   2000005     2.34689377E+02   # ~b_2
#    BR                NDA      ID1      ID2
     1.37567213E-02    2     1000022         5   # BR(~b_2 -> chi^0_1 b)
     1.16287408E-02    2     1000023         5   # BR(~b_2 -> chi^0_2 b)
     3.56158599E-04    2     1000025         5   # BR(~b_2 -> chi^0_3 b)
     8.22406281E-03    2     1000035         5   # BR(~b_2 -> chi^0_4 b)
     2.48570882E-02    2    -1000024         6   # BR(~b_2 -> chi^-_1 t)
     7.97565875E-04    2    -1000037         6   # BR(~b_2 -> chi^-_2 t)
     9.40378719E-01    2     1000021         5   # BR(~b_2 -> ~g b)
DECAY   2000002     7.54913329E+02   # ~u_R
#    BR                NDA      ID1      ID2
     2.84667066E-02    2     1000035         2   # BR(~u_R -> chi^0_4 u)
     9.71507799E-01    2     1000021         2   # BR(~u_R -> ~g u)
DECAY   1000002     8.70067906E+02   # ~u_L
#    BR                NDA      ID1      ID2
     4.51470532E-03    2     1000022         2   # BR(~u_L -> chi^0_1 u)
     1.24546026E-03    2     1000023         2   # BR(~u_L -> chi^0_2 u)
     4.53922586E-02    2     1000025         2   # BR(~u_L -> chi^0_3 u)
     1.51604057E-03    2     1000035         2   # BR(~u_L -> chi^0_4 u)
     2.28199457E-02    2     1000024         1   # BR(~u_L -> chi^+_1 d)
     7.94298703E-02    2     1000037         1   # BR(~u_L -> chi^+_2 d)
     8.45081719E-01    2     1000021         2   # BR(~u_L -> ~g u)
DECAY   2000004     7.54920717E+02   # ~c_R
#    BR                NDA      ID1      ID2
     2.84664354E-02    2     1000035         4   # BR(~c_R -> chi^0_4 c)
     9.71498386E-01    2     1000021         4   # BR(~c_R -> ~g c)
DECAY   1000004     8.70076696E+02   # ~c_L
#    BR                NDA      ID1      ID2
     4.51624364E-03    2     1000022         4   # BR(~c_L -> chi^0_1 c)
     1.24764647E-03    2     1000023         4   # BR(~c_L -> chi^0_2 c)
     4.53922330E-02    2     1000025         4   # BR(~c_L -> chi^0_3 c)
     1.51602864E-03    2     1000035         4   # BR(~c_L -> chi^0_4 c)
     2.28253031E-02    2     1000024         3   # BR(~c_L -> chi^+_1 s)
     7.94292624E-02    2     1000037         3   # BR(~c_L -> chi^+_2 s)
     8.45073283E-01    2     1000021         4   # BR(~c_L -> ~g c)
DECAY   1000006     1.49070736E+02   # ~t_1
#    BR                NDA      ID1      ID2
     1.38881893E-01    2     1000022         6   # BR(~t_1 -> chi^0_1 t)
     1.91425897E-01    2     1000023         6   # BR(~t_1 -> chi^0_2 t)
     3.41885061E-02    2     1000025         6   # BR(~t_1 -> chi^0_3 t)
     1.82772631E-02    2     1000035         6   # BR(~t_1 -> chi^0_4 t)
     2.90759961E-01    2     1000024         5   # BR(~t_1 -> chi^+_1 b)
     7.63605091E-02    2     1000037         5   # BR(~t_1 -> chi^+_2 b)
     2.50103948E-01    2     1000021         6   # BR(~t_1 -> ~g t)
#    BR                NDA      ID1      ID2       ID3
DECAY   2000006     3.24707595E+02   # ~t_2
#    BR                NDA      ID1      ID2
     9.97815268E-02    2     1000022         6   # BR(~t_2 -> chi^0_1 t)
     1.33846306E-01    2     1000023         6   # BR(~t_2 -> chi^0_2 t)
     7.59014657E-02    2     1000025         6   # BR(~t_2 -> chi^0_3 t)
     1.43420208E-03    2     1000035         6   # BR(~t_2 -> chi^0_4 t)
     3.79682771E-02    2     1000024         5   # BR(~t_2 -> chi^+_1 b)
     8.83986052E-02    2     1000037         5   # BR(~t_2 -> chi^+_2 b)
     5.49672212E-01    2     1000021         6   # BR(~t_2 -> ~g t)
     5.95734944E-03    2     1000006        23   # BR(~t_2 -> ~t_1 Z)
     7.04005565E-03    2     1000006        25   # BR(~t_2 -> ~t_1 h^0)
DECAY   1000024     6.53387099E-08   # chi^+_1
#    BR                NDA      ID1      ID2       ID3
     3.52670111E-01    3     1000022        -1         2   # BR(chi^+_1 -> chi^0_1 d_bar u)
     3.16784332E-01    3     1000022        -3         4   # BR(chi^+_1 -> chi^0_1 s_bar c)
     1.17556719E-01    3     1000022       -11        12   # BR(chi^+_1 -> chi^0_1 e^+ nu_e)
     1.17467367E-01    3     1000022       -13        14   # BR(chi^+_1 -> chi^0_1 mu^+ nu_mu)
     9.55214709E-02    3     1000022       -15        16   # BR(chi^+_1 -> chi^0_1 tau^+ nu_tau)
DECAY   1000037     1.51863939E+00   # chi^+_2
#    BR                NDA      ID1      ID2
     2.52286425E-01    2     1000022        24   # BR(chi^+_2 -> chi^0_1 W^+)
     3.91727350E-01    2     1000023        24   # BR(chi^+_2 -> chi^0_2 W^+)
     2.27045030E-01    2     1000024        23   # BR(chi^+_2 -> chi^+_1 Z)
     1.28941170E-01    2     1000024        25   # BR(chi^+_2 -> chi^+_1 h^0)
#    BR                NDA      ID1      ID2       ID3
DECAY   1000022     0.00000000E+00   # chi^0_1
DECAY   1000023     5.51660980E-05   # chi^0_2
#    BR                NDA      ID1      ID2
     2.88227483E-02    2     1000022        22   # BR(chi^0_2 -> chi^0_1 photon)
#    BR                NDA      ID1      ID2       ID3
     8.24182269E-02    3     1000022         2        -2   # BR(chi^0_2 -> chi^0_1 u u_bar)
     8.01996312E-02    3     1000022         4        -4   # BR(chi^0_2 -> chi^0_1 c c_bar)
     1.05675152E-01    3     1000022         1        -1   # BR(chi^0_2 -> chi^0_1 d d_bar)
     1.05661241E-01    3     1000022         3        -3   # BR(chi^0_2 -> chi^0_1 s s_bar)
     8.18276109E-02    3     1000022         5        -5   # BR(chi^0_2 -> chi^0_1 b b_bar)
     2.38479040E-02    3     1000022        11       -11   # BR(chi^0_2 -> chi^0_1 e^- e^+)
     2.38429398E-02    3     1000022        13       -13   # BR(chi^0_2 -> chi^0_1 mu^- mu^+)
     2.24946389E-02    3     1000022        15       -15   # BR(chi^0_2 -> chi^0_1 tau^- tau^+)
     1.41320024E-01    3     1000022        12       -12   # BR(chi^0_2 -> chi^0_1 nu_e nu_bar_e)
     5.12392091E-02    3     1000024         1        -2   # BR(chi^0_2 -> chi^+_1 d u_bar)
     5.12392091E-02    3    -1000024        -1         2   # BR(chi^0_2 -> chi^-_1 d_bar u)
     5.01582194E-02    3     1000024         3        -4   # BR(chi^0_2 -> chi^+_1 s c_bar)
     5.01582194E-02    3    -1000024        -3         4   # BR(chi^0_2 -> chi^-_1 s_bar c)
     1.70797480E-02    3     1000024        11       -12   # BR(chi^0_2 -> chi^+_1 e^- nu_bar_e)
     1.70797480E-02    3    -1000024       -11        12   # BR(chi^0_2 -> chi^-_1 e^+ nu_e)
     1.70780140E-02    3     1000024        13       -14   # BR(chi^0_2 -> chi^+_1 mu^- nu_bar_mu)
     1.70780140E-02    3    -1000024       -13        14   # BR(chi^0_2 -> chi^-_1 mu^+ nu_mu)
     1.63897509E-02    3     1000024        15       -16   # BR(chi^0_2 -> chi^+_1 tau^- nu_bar_tau)
     1.63897509E-02    3    -1000024       -15        16   # BR(chi^0_2 -> chi^-_1 tau^+ nu_tau)
DECAY   1000025     1.85473673E+00   # chi^0_3
#    BR                NDA      ID1      ID2
     2.67828266E-01    2     1000024       -24   # BR(chi^0_3 -> chi^+_1 W^-)
     2.67828266E-01    2    -1000024        24   # BR(chi^0_3 -> chi^-_1 W^+)
     3.72464249E-02    2     1000022        23   # BR(chi^0_3 -> chi^0_1 Z)
     2.41336726E-01    2     1000023        23   # BR(chi^0_3 -> chi^0_2 Z)
     6.29625961E-02    2     1000022        25   # BR(chi^0_3 -> chi^0_1 h^0)
     1.22759706E-01    2     1000023        25   # BR(chi^0_3 -> chi^0_2 h^0)
#    BR                NDA      ID1      ID2       ID3
DECAY   1000035     4.33062443E+00   # chi^0_4
#    BR                NDA      ID1      ID2
     1.70157543E-01    2     1000024       -24   # BR(chi^0_4 -> chi^+_1 W^-)
     1.70157543E-01    2    -1000024        24   # BR(chi^0_4 -> chi^-_1 W^+)
     6.84818375E-02    2     1000037       -24   # BR(chi^0_4 -> chi^+_2 W^-)
     6.84818375E-02    2    -1000037        24   # BR(chi^0_4 -> chi^-_2 W^+)
     8.73790919E-02    2     1000022        23   # BR(chi^0_4 -> chi^0_1 Z)
     1.29302900E-01    2     1000023        23   # BR(chi^0_4 -> chi^0_2 Z)
     2.22262554E-02    2     1000025        23   # BR(chi^0_4 -> chi^0_3 Z)
     7.64307618E-02    2     1000022        25   # BR(chi^0_4 -> chi^0_1 h^0)
     1.47479014E-01    2     1000023        25   # BR(chi^0_4 -> chi^0_2 h^0)
     3.92241482E-02    2     1000025        25   # BR(chi^0_4 -> chi^0_3 h^0)
#    BR                NDA      ID1      ID2       ID3
     2.86947260E-03    3     1000022         6        -6   # BR(chi^0_4 -> chi^0_1 t t_bar)
     4.10654082E-03    3     1000023         6        -6   # BR(chi^0_4 -> chi^0_2 t t_bar)
     9.99129358E-04    3     1000025         6        -6   # BR(chi^0_4 -> chi^0_3 t t_bar)
     4.54110304E-03    3     1000024         5        -6   # BR(chi^0_4 -> chi^+_1 b t_bar)
     4.54110304E-03    3    -1000024        -5         6   # BR(chi^0_4 -> chi^-_1 b_bar t)
     1.80721026E-03    3     1000037         5        -6   # BR(chi^0_4 -> chi^+_2 b t_bar)
     1.80721026E-03    3    -1000037        -5         6   # BR(chi^0_4 -> chi^-_2 b_bar t)
DECAY   1000021     5.44391059E-02   # ~g
#    BR                NDA      ID1      ID2
     4.23320292E-03    2     1000022        21   # BR(~g -> chi^0_1 g)
     5.62837445E-03    2     1000023        21   # BR(~g -> chi^0_2 g)
     1.03705567E-03    2     1000025        21   # BR(~g -> chi^0_3 g)
#    BR                NDA      ID1      ID2       ID3
     1.63875562E-01    3     1000022         6        -6   # BR(~g -> chi^0_1 t t_bar)
     5.08932869E-03    3     1000022         5        -5   # BR(~g -> chi^0_1 b b_bar)
     2.29495900E-01    3     1000023         6        -6   # BR(~g -> chi^0_2 t t_bar)
     3.67640963E-03    3     1000023         5        -5   # BR(~g -> chi^0_2 b b_bar)
     2.06703264E-04    3     1000025         2        -2   # BR(~g -> chi^0_3 u u_bar)
     2.06707926E-04    3     1000025         4        -4   # BR(~g -> chi^0_3 c c_bar)
     6.05690648E-02    3     1000025         6        -6   # BR(~g -> chi^0_3 t t_bar)
     2.04939662E-04    3     1000025         1        -1   # BR(~g -> chi^0_3 d d_bar)
     2.04940462E-04    3     1000025         3        -3   # BR(~g -> chi^0_3 s s_bar)
     9.57676323E-03    3     1000025         5        -5   # BR(~g -> chi^0_3 b b_bar)
     1.76769167E-04    3     1000035         6        -6   # BR(~g -> chi^0_4 t t_bar)
     1.80039420E-01    3     1000024         5        -6   # BR(~g -> chi^+_1 b t_bar)
     1.80039420E-01    3    -1000024        -5         6   # BR(~g -> chi^-_1 b_bar t)
     4.05347197E-04    3     1000037         1        -2   # BR(~g -> chi^+_2 d u_bar)
     4.05347197E-04    3    -1000037        -1         2   # BR(~g -> chi^-_2 d_bar u)
     4.05353250E-04    3     1000037         3        -4   # BR(~g -> chi^+_2 s c_bar)
     4.05353250E-04    3    -1000037        -3         4   # BR(~g -> chi^-_2 s_bar c)
     7.68759207E-02    3     1000037         5        -6   # BR(~g -> chi^+_2 b t_bar)
     7.68759207E-02    3    -1000037        -5         6   # BR(~g -> chi^-_2 b_bar t)
DECAY        25     3.29665141E-03   # Gamma(h0)
     2.50199335E-03   2        22        22   # BR(h0 -> photon photon)
     1.40950478E-03   2        22        23   # BR(h0 -> photon Z)
     2.42989549E-02   2        23        23   # BR(h0 -> Z Z)
     2.10185880E-01   2       -24        24   # BR(h0 -> W W)
     8.10430865E-02   2        21        21   # BR(h0 -> gluon gluon)
     5.23252970E-09   2       -11        11   # BR(h0 -> Electron electron)
     2.32750980E-04   2       -13        13   # BR(h0 -> Muon muon)
     6.71074277E-02   2       -15        15   # BR(h0 -> Tau tau)
     1.49485762E-07   2        -2         2   # BR(h0 -> Up up)
     2.90102187E-02   2        -4         4   # BR(h0 -> Charm charm)
     6.07662542E-07   2        -1         1   # BR(h0 -> Down down)
     2.19776873E-04   2        -3         3   # BR(h0 -> Strange strange)
     5.83989644E-01   2        -5         5   # BR(h0 -> Bottom bottom)
DECAY        35     8.01544660E+01   # Gamma(HH)
     1.80881189E-08   2        22        22   # BR(HH -> photon photon)
     8.53331358E-08   2        22        23   # BR(HH -> photon Z)
     5.44506164E-07   2        23        23   # BR(HH -> Z Z)
     9.08702423E-08   2       -24        24   # BR(HH -> W W)
     2.31673302E-07   2        21        21   # BR(HH -> gluon gluon)
     2.28287075E-09   2       -11        11   # BR(HH -> Electron electron)
     1.01659034E-04   2       -13        13   # BR(HH -> Muon muon)
     2.93626797E-02   2       -15        15   # BR(HH -> Tau tau)
     5.27192834E-13   2        -2         2   # BR(HH -> Up up)
     1.02282388E-07   2        -4         4   # BR(HH -> Charm charm)
     7.70827325E-03   2        -6         6   # BR(HH -> Top top)
     1.58463166E-07   2        -1         1   # BR(HH -> Down down)
     5.73166434E-05   2        -3         3   # BR(HH -> Strange strange)
     1.48476350E-01   2        -5         5   # BR(HH -> Bottom bottom)
     1.27898987E-01   2  -1000024   1000024   # BR(HH -> Chargino1 chargino1)
     1.79399212E-01   2  -1000024   1000037   # BR(HH -> Chargino1 chargino2)
     1.79399212E-01   2  -1000037   1000024   # BR(HH -> Chargino2 chargino1)
     1.67612072E-02   2  -1000037   1000037   # BR(HH -> Chargino2 chargino2)
     3.07366371E-02   2   1000022   1000022   # BR(HH -> neutralino1 neutralino1)
     5.93333795E-04   2   1000022   1000023   # BR(HH -> neutralino1 neutralino2)
     1.14586091E-01   2   1000022   1000025   # BR(HH -> neutralino1 neutralino3)
     3.54012881E-02   2   1000022   1000035   # BR(HH -> neutralino1 neutralino4)
     6.93283689E-03   2   1000023   1000023   # BR(HH -> neutralino2 neutralino2)
     9.01425099E-02   2   1000023   1000025   # BR(HH -> neutralino2 neutralino3)
     2.30762968E-02   2   1000023   1000035   # BR(HH -> neutralino2 neutralino4)
     8.21054214E-03   2   1000025   1000025   # BR(HH -> neutralino3 neutralino3)
     1.14998946E-03   2   1000025   1000035   # BR(HH -> neutralino3 neutralino4)
     2.58930295E-07   2   1000035   1000035   # BR(HH -> neutralino4 neutralino4)
     4.08375184E-06   2        25        25   # BR(HH -> h0 h0)
DECAY        36     7.92805767E+01   # Gamma(A0)
     1.23163961E-08   2        22        22   # BR(A0 -> photon photon)
     1.09908916E-07   2        22        23   # BR(A0 -> photon Z)
     5.18923123E-06   2        21        21   # BR(A0 -> gluon gluon)
     2.17617902E-09   2       -11        11   # BR(A0 -> Electron electron)
     9.69100036E-05   2       -13        13   # BR(A0 -> Muon muon)
     2.79910107E-02   2       -15        15   # BR(A0 -> Tau tau)
     4.71328114E-13   2        -2         2   # BR(A0 -> Up up)
     9.14423825E-08   2        -4         4   # BR(A0 -> Charm charm)
     6.92248423E-03   2        -6         6   # BR(A0 -> Top top)
     1.51057457E-07   2        -1         1   # BR(A0 -> Down down)
     5.46379982E-05   2        -3         3   # BR(A0 -> Strange strange)
     1.41536903E-01   2        -5         5   # BR(A0 -> Bottom bottom)
     1.20030790E-01   2  -1000024   1000024   # BR(A0 -> Chargino1 chargino1)
     1.90680819E-01   2  -1000024   1000037   # BR(A0 -> Chargino1 chargino2)
     1.90680819E-01   2  -1000037   1000024   # BR(A0 -> Chargino2 chargino1)
     7.69500548E-03   2  -1000037   1000037   # BR(A0 -> Chargino2 chargino2)
     2.55343118E-02   2   1000022   1000022   # BR(A0 -> neutralino1 neutralino1)
     2.09707974E-03   2   1000022   1000023   # BR(A0 -> neutralino1 neutralino2)
     9.82425236E-02   2   1000022   1000025   # BR(A0 -> neutralino1 neutralino3)
     3.02401136E-02   2   1000022   1000035   # BR(A0 -> neutralino1 neutralino4)
     9.20158315E-03   2   1000023   1000023   # BR(A0 -> neutralino2 neutralino2)
     1.14798059E-01   2   1000023   1000025   # BR(A0 -> neutralino2 neutralino3)
     2.95023320E-02   2   1000023   1000035   # BR(A0 -> neutralino2 neutralino4)
     4.13266233E-03   2   1000025   1000025   # BR(A0 -> neutralino3 neutralino3)
     5.54613240E-04   2   1000025   1000035   # BR(A0 -> neutralino3 neutralino4)
     2.77743233E-07   2   1000035   1000035   # BR(A0 -> neutralino4 neutralino4)
     1.50860161E-06   2        23        25   # BR(A0 -> Z h0)
     1.16847718E-38   2        25        25   # BR(A0 -> h0 h0)
DECAY        37     8.21499215E+01   # Gamma(Hp)
     2.66059624E-09   2       -11        12   # BR(Hp -> Electron nu_e)
     1.13748799E-04   2       -13        14   # BR(Hp -> Muon nu_mu)
     3.21746429E-02   2       -15        16   # BR(Hp -> Tau nu_tau)
     1.60326252E-07   2        -1         2   # BR(Hp -> Down up)
     2.72115640E-06   2        -3         2   # BR(Hp -> Strange up)
     1.74536097E-06   2        -5         2   # BR(Hp -> Bottom up)
     1.25760659E-08   2        -1         4   # BR(Hp -> Down charm)
     5.78866107E-05   2        -3         4   # BR(Hp -> Strange charm)
     2.44413204E-04   2        -5         4   # BR(Hp -> Bottom charm)
     5.54564059E-07   2        -1         6   # BR(Hp -> Down top)
     1.21777188E-05   2        -3         6   # BR(Hp -> Strange top)
     1.73046964E-01   2        -5         6   # BR(Hp -> Bottom top)
     2.98872116E-03   2   1000022   1000024   # BR(Hp -> neutralino1 chargino1)
     2.87879601E-01   2   1000022   1000037   # BR(Hp -> neutralino1 chargino2)
     2.72378653E-02   2   1000023   1000024   # BR(Hp -> neutralino2 chargino1)
     1.94975026E-01   2   1000023   1000037   # BR(Hp -> neutralino2 chargino2)
     2.23808673E-01   2   1000024   1000025   # BR(Hp -> chargino1 neutralino3)
     5.06925283E-06   2   1000025   1000037   # BR(Hp -> neutralino3 chargino2)
     5.55979839E-02   2   1000024   1000035   # BR(Hp -> chargino1 neutralino4)
     1.85057370E-03   2   1000035   1000037   # BR(Hp -> neutralino4 chargino2)
     1.45671589E-06   2        24        25   # BR(Hp -> W h0)
     4.57737718E-14   2        24        35   # BR(Hp -> W HH)
DECAY         6     2.43000000E+00   # top
#    BR                NDA      ID1      ID2
     1.00000000E+00    2           5        24   # BR(t -> b W)
Block HiggsBoundsInputHiggsCouplingsFermions
# ScalarNormEffCoupSq PseudoSNormEffCoupSq NP IP1 IP2 IP2
    9.13743946E-01    0.00000000E+00        3  25   5   5  # h0-b-b eff. coupling^2, normalised to SM
    2.43128713E+02    0.00000000E+00        3  35   5   5  # H0-b-b eff. coupling^2, normalised to SM
    0.00000000E+00    2.43042456E+02        3  36   5   5  # A0-b-b eff. coupling^2, normalised to SM
#
    1.00035490E+00    0.00000000E+00        3  25   6   6  # h0-t-t eff. coupling^2, normalised to SM
    3.75960628E-03    0.00000000E+00        3  35   6   6  # H0-t-t eff. coupling^2, normalised to SM
    0.00000000E+00    4.11450746E-03        3  36   6   6  # A0-t-t eff. coupling^2, normalised to SM
#
    9.13743946E-01    0.00000000E+00        3  25  15  15  # h0-tau-tau eff. coupling^2, normalised to SM
    2.43128713E+02    0.00000000E+00        3  35  15  15  # H0-tau-tau eff. coupling^2, normalised to SM
    0.00000000E+00    2.43042456E+02        3  36  15  15  # A0-tau-tau eff. coupling^2, normalised to SM
#
Block HiggsBoundsInputHiggsCouplingsBosons
    9.99991999E-01        3  25  24  24  # h0-W-W eff. coupling^2, normalised to SM
    8.00064757E-06        3  35  24  24  # H0-W-W eff. coupling^2, normalised to SM
    0.00000000E+00        3  36  24  24  # A0-W-W eff. coupling^2, normalised to SM
#
    9.99991999E-01        3  25  23  23  # h0-Z-Z eff. coupling^2, normalised to SM
    8.00064757E-06        3  35  23  23  # H0-Z-Z eff. coupling^2, normalised to SM
    0.00000000E+00        3  36  23  23  # A0-Z-Z eff. coupling^2, normalised to SM
#
    1.26943748E+00        3  25  21  21  # h0-g-g eff. coupling^2, normalised to SM
    1.14611940E-03        3  35  21  21  # H0-g-g eff. coupling^2, normalised to SM
    9.66290400E-02        3  36  21  21  # A0-g-g eff. coupling^2, normalised to SM
#
    0.00000000E+00        3  25  25  23  # h0-h0-Z eff. coupling^2, normalised to SM
    0.00000000E+00        3  35  25  23  # H0-h0-Z eff. coupling^2, normalised to SM
    8.00064757E-06        3  36  25  23  # A0-h0-Z eff. coupling^2, normalised to SM
    0.00000000E+00        3  35  35  23  # H0-H0-Z eff. coupling^2, normalised to SM
    9.99991999E-01        3  36  35  23  # A0-H0-Z eff. coupling^2, normalised to SM
    0.00000000E+00        3  36  36  23  # A0-A0-Z eff. coupling^2, normalised to SM
#
    0.00000000E+00        4  25  21  21  23  # h0-g-g-Z eff. coupling^2, normalised to SM
    0.00000000E+00        4  35  21  21  23  # H0-g-g-Z eff. coupling^2, normalised to SM
    0.00000000E+00        4  36  21  21  23  # A0-g-g-Z eff. coupling^2, normalised to SM
Block SPhenoLowEnergy  # low energy observables
    1    3.26197951E-04   # BR(b -> s gamma)
    2    1.58782584E-06   # BR(b -> s mu+ mu-)
    3    3.52144297E-05   # BR(b -> s nu nu)
    4    2.45553765E-15   # BR(Bd -> e+ e-)
    5    1.04897802E-10   # BR(Bd -> mu+ mu-)
    6    2.19605900E-08   # BR(Bd -> tau+ tau-)
    7    8.28041004E-14   # BR(Bs -> e+ e-)
    8    3.53738926E-09   # BR(Bs -> mu+ mu-)
    9    7.50354212E-07   # BR(Bs -> tau+ tau-)
   10    9.67430379E-05   # BR(B_u -> tau nu)
   11    9.99318544E-01   # BR(B_u -> tau nu)/BR(B_u -> tau nu)_SM
   12    5.42612624E-01   # |Delta(M_Bd)| [ps^-1] 
   13    1.93876907E+01   # |Delta(M_Bs)| [ps^-1] 
   14    0.00000000E+00   # neutron EDM according to the chiral quark model
   15    0.00000000E+00   # neutron EDM according to the relativistic quark-parton model
   16    2.15984547E-03   # epsilon_K
   17    2.28168383E-15   # Delta(M_K)
   18    2.47714657E-11   # BR(K^0 -> pi^0 nu nu)
   19    8.28373777E-11   # BR(K^+ -> pi^+ nu nu)
   20   -1.31189597E-16   # Delta(g-2)_electron/2
   21   -5.60877712E-12   # Delta(g-2)_muon/2
   22   -1.58739516E-09   # Delta(g-2)_tau/2
   23    0.00000000E+00   # electric dipole moment of the electron
   24    0.00000000E+00   # electric dipole moment of the muon
   25    0.00000000E+00   # electric dipole moment of the tau
   26    0.00000000E+00   # Br(mu -> e gamma)
   27    0.00000000E+00   # Br(tau -> e gamma)
   28    0.00000000E+00   # Br(tau -> mu gamma)
   29    0.00000000E+00   # Br(mu -> 3 e)
   30    0.00000000E+00   # Br(tau -> 3 e)
   31    0.00000000E+00   # Br(tau -> 3 mu)
   39    3.16379855E-05   # Delta(rho_parameter)
   40    0.00000000E+00   # BR(Z -> e mu)
   41    0.00000000E+00   # BR(Z -> e tau)
   42    0.00000000E+00   # BR(Z -> mu tau)
Block FWCOEF Q=  1.60000000E+02  # Wilson coefficients at scale Q
#    id        order  M        value         comment
     0305 4422   00   0    -1.88819110E-01   # C7
     0305 4422   00   2    -1.95749239E-01   # C7
     0305 4322   00   2    -8.34642374E-05   # C7'
     0305 6421   00   0    -9.52278348E-02   # C8
     0305 6421   00   2    -1.00552775E-01   # C8
     0305 6321   00   2    -8.03242013E-05   # C8'
 03051111 4133   00   0     1.61967059E+00   # C9 e+e-
 03051111 4133   00   2     1.62011877E+00   # C9 e+e-
 03051111 4233   00   2     5.73440258E-05   # C9' e+e-
 03051111 4137   00   0    -4.44236269E+00   # C10 e+e-
 03051111 4137   00   2    -4.43694018E+00   # C10 e+e-
 03051111 4237   00   2    -4.28036608E-04   # C10' e+e-
 03051313 4133   00   0     1.61967059E+00   # C9 mu+mu-
 03051313 4133   00   2     1.62011874E+00   # C9 mu+mu-
 03051313 4233   00   2     5.73440214E-05   # C9' mu+mu-
 03051313 4137   00   0    -4.44236269E+00   # C10 mu+mu-
 03051313 4137   00   2    -4.43694021E+00   # C10 mu+mu-
 03051313 4237   00   2    -4.28036616E-04   # C10' mu+mu-
 03051212 4137   00   0     1.50535012E+00   # C11 nu_1 nu_1
 03051212 4137   00   2     1.50417721E+00   # C11 nu_1 nu_1
 03051212 4237   00   2     9.27034854E-05   # C11' nu_1 nu_1
 03051414 4137   00   0     1.50535012E+00   # C11 nu_2 nu_2
 03051414 4137   00   2     1.50417721E+00   # C11 nu_2 nu_2
 03051414 4237   00   2     9.27034857E-05   # C11' nu_2 nu_2
 03051616 4137   00   0     1.50535012E+00   # C11 nu_3 nu_3
 03051616 4137   00   2     1.50417722E+00   # C11 nu_3 nu_3
 03051616 4237   00   2     9.27035686E-05   # C11' nu_3 nu_3
Block IMFWCOEF Q=  1.60000000E+02  # Im(Wilson coefficients) at scale Q
#    id        order  M        value         comment
     0305 4422   00   0     3.85821630E-07   # C7
     0305 4422   00   2    -3.49571063E-06   # C7
     0305 4322   00   2    -4.70105452E-07   # C7'
     0305 6421   00   0     3.30481742E-07   # C8
     0305 6421   00   2     4.56738243E-06   # C8
     0305 6321   00   2    -6.98509580E-08   # C8'
 03051111 4133   00   2     9.16577502E-07   # C9 e+e-
 03051111 4233   00   2     1.07720562E-06   # C9' e+e-
 03051111 4137   00   2     2.81868861E-07   # C10 e+e-
 03051111 4237   00   2    -8.04147270E-06   # C10' e+e-
 03051313 4133   00   2     9.16576881E-07   # C9 mu+mu-
 03051313 4233   00   2     1.07720557E-06   # C9' mu+mu-
 03051313 4137   00   2     2.81869468E-07   # C10 mu+mu-
 03051313 4237   00   2    -8.04147286E-06   # C10' mu+mu-
 03051212 4137   00   2    -3.42414984E-08   # C11 nu_1 nu_1
 03051212 4237   00   2     1.74160967E-06   # C11' nu_1 nu_1
 03051414 4137   00   2    -3.42414679E-08   # C11 nu_2 nu_2
 03051414 4237   00   2     1.74160967E-06   # C11' nu_2 nu_2
 03051616 4137   00   2    -3.42328831E-08   # C11 nu_3 nu_3
 03051616 4237   00   2     1.74160967E-06   # C11' nu_3 nu_3
