BLOCK DCINFO
   1   SDECAY/HDECAY
   2   1.3b /3.4

BLOCK SPINFO
   1   SOFTSUSY
   2   3.4.0

BLOCK MODSEL
   1   0

BLOCK SMINPUTS
   1    127.90897
   2    1.1663787e-05
   3    0.1184
   4    91.1876
   5    4.18
   6    173.2
   7    1.777

BLOCK MINPAR
   3    14.38

BLOCK EXTPAR
   0   -1
   1   -402.76
   2    805.93
   3    2713.57
   11   -3127.62
   12   -1384.88
   13   -1511.45
   23    1780.57
   26    811.79
   31    666.92
   32    666.92
   33    554.28
   34    1564.14
   35    1564.14
   36    511.46
   41    3577.13
   42    3577.13
   43    1663.16
   44    2493.52
   45    2493.52
   46    1204.55
   47    3145.27
   48    3145.27
   49    1037.8

BLOCK MASS
   24    80.383374
   25    126.70127
   35    811.31957
   36    811.79002
   37    815.93185
   5    4.8187603
   1000001    3602.7814
   2000001    3172.2726
   1000002    3602.0747
   2000002    2524.6767
   1000003    3602.7814
   2000003    3172.2726
   1000004    3602.0747
   2000004    2524.6767
   1000005    1040.7353
   2000005    1657.6207
   1000006    1114.5555
   2000006    1704.947
   1000011    669.71132
   2000011    1574.2448
   1000012    664.90343
   1000013    669.71132
   2000013    1574.2448
   1000014    664.90343
   1000015    497.54528
   2000015    589.71788
   1000016    549.3682
   1000021    2784.4027
   1000022   -400.6463
   1000023    831.71566
   1000025   -1787.9707
   1000035    1790.178
   1000024    831.88048
   1000037    1791.1173

BLOCK NMIX
   1   1    0.99966254
   1   2    6.9446442e-05
   1   3    0.025706191
   1   4    0.0037408531
   2   1    0.0012857986
   2   2    0.99793437
   2   3   -0.057004705
   2   4    0.029593835
   3   1   -0.02081244
   3   2    0.019403157
   3   3    0.70637871
   3   4    0.70726196
   4   1   -0.015491809
   4   2    0.061241305
   4   3    0.7050665
   4   4   -0.70632198

BLOCK UMIX
   1   1    0.99674441
   1   2   -0.080626119
   2   1    0.080626119
   2   2    0.99674441

BLOCK VMIX
   1   1    0.99911718
   1   2   -0.042010266
   2   1    0.042010266
   2   2    0.99911718

BLOCK STOPMIX
   1   1    0.29671553
   1   2    0.95496591
   2   1   -0.95496591
   2   2    0.29671553

BLOCK SBOTMIX
   1   1    0.034764911
   1   2    0.99939552
   2   1   -0.99939552
   2   2    0.034764911

BLOCK STAUMIX
   1   1    0.63294256
   1   2    0.77419876
   2   1   -0.77419876
   2   2    0.63294256

BLOCK ALPHA
      -0.074774472

BLOCK HMIX Q=  1403.114
   1    1798.4717
   2    13.863407
   3    243.44931
   4    627300.73

BLOCK GAUGE Q=  1403.114
   1    0.36281668
   2    0.63768281
   3    1.0283296

BLOCK AU Q=  1403.114
   1   1    0
   2   2    0
   3   3   -3127.62

BLOCK AD Q=  1403.114
   1   1    0
   2   2    0
   3   3   -1384.88

BLOCK AE Q=  1403.114
   1   1    0
   2   2    0
   3   3   -1511.45

BLOCK YU Q=  1403.114
   1   1    0
   2   2    0
   3   3    0.83204161

BLOCK YD Q=  1403.114
   1   1    0
   2   2    0
   3   3    0.1774007

BLOCK YE Q=  1403.114
   1   1    0
   2   2    0
   3   3    0.149631

BLOCK MSOFT Q=  1403.114
   1   -402.76
   2    805.93
   3    2713.57
   21   -2578315.6
   22   -3227390.4
   31    666.92
   32    666.92
   33    554.28
   34    1564.14
   35    1564.14
   36    511.46
   41    3577.13
   42    3577.13
   43    1663.16
   44    2493.52
   45    2493.52
   46    1204.55
   47    3145.27
   48    3145.27
   49    1037.8

BLOCK HIGGSBOUNDSINPUTHIGGSCOUPLINGSFERMIONS
       0, 192.19405,3,36,15,15

BLOCK HIGGSBOUNDSINPUTHIGGSCOUPLINGSBOSONS
       0,4,36,21,21,23

DECAY 6  1.4324139
    1   2    5    24

DECAY 1000021  124.00864
    0.16097458   2    1000005   -5
    0.16097458   2   -1000005    5
    0.14186407   2    1000006   -6
    0.14186407   2   -1000006    6
    0.093338239   2    2000006   -6
    0.093338239   2   -2000006    6
    0.091008671   2    2000005   -5
    0.091008671   2   -2000005    5
    0.0064072864   2    2000002   -2
    0.0064072864   2   -2000002    2
    0.0064071581   2    2000004   -4
    0.0064071581   2   -2000004    4

DECAY 1000006  1.9361697
    0.84951632   2    1000022    6
    0.11110456   2    1000024    5
    0.039379118   2    1000023    6

DECAY 2000006  51.209414
    0.4523806   2    1000006    23
    0.31790795   2    1000006    25
    0.13757865   2    1000024    5
    0.065460855   2    1000023    6
    0.016108418   2    1000005    24
    0.010563532   2    1000022    6

DECAY 1000005  0.44395673
    0.9920444   2    1000022    5
    0.0040342938   2    1000023    5
    0.0039213026   2   -1000024    6

DECAY 2000005  51.61475
    0.77186674   2    1000006   -24
    0.13672762   2   -1000024    6
    0.072214665   2    1000023    5
    0.0077099947   2    1000005    25
    0.0073638584   2    1000005    23
    0.0041171259   2    1000022    5

DECAY 1000002  80.375929
    0.52869753   2    1000021    2
    0.30987787   2    1000024    1
    0.15465462   2    1000023    2
    0.0060619708   2    1000022    2
    0.00034850711   2    1000037    1
    0.00033585471   2    1000035    2
    2.3640354e-05   2    1000025    2

DECAY 2000002  5.4494577
    0.99982016   2    1000022    2
    0.00011502936   2    1000025    2
    6.3421189e-05   2    1000035    2
    1.3867e-06   2    1000023    2

DECAY 1000001  80.395365
    0.52928936   2    1000021    1
    0.30840875   2   -1000024    2
    0.15450401   2    1000023    1
    0.0060529099   2    1000022    1
    0.0012839411   2   -1000037    2
    0.00040705211   2    1000035    1
    5.3968135e-05   2    1000025    1

DECAY 2000001  13.877975
    0.8775117   2    1000021    1
    0.12244807   2    1000022    1
    2.5792186e-05   2    1000025    1
    1.4258036e-05   2    1000035    1
    1.8191419e-07   2    1000023    1

DECAY 1000004  72.38232
    0.45222317   2    1000021    4
    0.36015113   2    1000024    3
    0.17974521   2    1000023    4
    0.0070625979   2    1000022    4
    0.00040259464   2    1000037    3
    0.00038798158   2    1000035    4
    2.7310023e-05   2    1000025    4

DECAY 2000004  5.5819702
    0.99982284   2    1000022    4
    0.00011331009   2    1000025    4
    6.2469046e-05   2    1000035    4
    1.3833508e-06   2    1000023    4

DECAY 1000003  72.386044
    0.45281668   2    1000021    3
    0.3585102   2   -1000024    4
    0.17960361   2    1000023    3
    0.0070533502   2    1000022    3
    0.0014834852   2   -1000037    4
    0.00047031835   2    1000035    3
    6.2357364e-05   2    1000025    3

DECAY 2000003  11.167713
    0.83997787   2    1000021    3
    0.15997012   2    1000022    3
    3.3337266e-05   2    1000025    3
    1.8428439e-05   2    1000035    3
    2.370207e-07   2    1000023    3

DECAY 1000011  0.36140727
    1   2    1000022    11

DECAY 2000011  7.2069332
    0.99999902   2    1000022    11
    9.8291781e-07   2    1000023    11

DECAY 1000013  0.36140723
    1   2    1000022    13

DECAY 2000013  7.2069331
    0.99999902   2    1000022    13
    9.829178e-07   2    1000023    13

DECAY 1000015  0.22379399
    1   2    1000022    15

DECAY 2000015  0.49385466
    0.99764378   2    1000022    15
    0.002356225   2    1000015    23

DECAY 1000012  0.3528585
    1   2    1000022    12

DECAY 1000014  0.3528585
    1   2    1000022    14

DECAY 1000016  0.15750531
    1   2    1000022    16

DECAY 1000024  3.8321528
    0.27887527   2    1000016   -15
    0.15094114   2   -1000015    16
    0.12541241   2   -2000015    16
    0.11432693   2    1000012   -11
    0.11432693   2    1000014   -13
    0.10801695   2   -1000011    12
    0.10801695   2   -1000013    14
    8.342978e-05   2    1000022    24

DECAY 1000037  30.54759
    0.40810315   2    1000006   -5
    0.12251488   2    1000024    25
    0.11892193   2    1000024    23
    0.1164287   2    1000023    24
    0.041225962   2    1000024    36
    0.040849938   2    1000023    37
    0.04056462   2    1000024    35
    0.033831246   2    1000022    24
    0.025968445   2   -1000005    6
    0.024438614   2    1000022    37
    0.010982488   2    1000016   -15
    0.0083505667   2   -2000015    16
    0.0034155947   2   -1000015    16
    0.0015000056   2    2000006   -5
    0.0011407763   2   -1000011    12
    0.0011407763   2   -1000013    14
    0.00031115528   2    1000012   -11
    0.00031115528   2    1000014   -13

DECAY 1000022 -1


DECAY 1000023  3.8274209
    0.13887484   2    1000016   -16
    0.13887484   2   -1000016    16
    0.075837579   2    1000015   -15
    0.075837579   2   -1000015    15
    0.06301446   2    2000015   -15
    0.06301446   2   -2000015    15
    0.056923819   2    1000012   -12
    0.056923819   2   -1000012    12
    0.056923819   2    1000014   -14
    0.056923819   2   -1000014    14
    0.05419397   2    1000011   -11
    0.05419397   2   -1000011    11
    0.05419397   2    1000013   -13
    0.05419397   2   -1000013    13
    5.1250646e-05   2    1000022    23
    2.3842506e-05   2    1000022    25

DECAY 1000025  28.848056
    0.19448208   2    1000006   -6
    0.19448208   2   -1000006    6
    0.12257176   2    1000024   -24
    0.12257176   2   -1000024    24
    0.11360013   2    1000023    23
    0.0422234   2    1000024   -37
    0.0422234   2   -1000024    37
    0.040467683   2    1000023    36
    0.024332066   2    1000022    25
    0.021418116   2    1000022    35
    0.013203198   2    1000022    23
    0.01260666   2    1000005   -5
    0.01260666   2   -1000005    5
    0.011608126   2    1000023    25
    0.0062243737   2    2000015   -15
    0.0062243737   2   -2000015    15
    0.005124086   2    1000015   -15
    0.005124086   2   -1000015    15
    0.0048843974   2    1000022    36
    0.002248711   2    1000023    35
    0.0005866446   2    2000005   -5
    0.0005866446   2   -2000005    5
    0.00010035517   2    1000016   -16
    0.00010035517   2   -1000016    16
    9.0864558e-05   2    1000012   -12
    9.0864558e-05   2   -1000012    12
    9.0864558e-05   2    1000014   -14
    9.0864558e-05   2   -1000014    14
    5.297316e-06   2    1000011   -11
    5.297316e-06   2   -1000011    11
    5.297316e-06   2    1000013   -13
    5.297316e-06   2   -1000013    13
    3.552371e-06   2    2000011   -11
    3.552371e-06   2   -2000011    11
    3.552371e-06   2    2000013   -13
    3.552371e-06   2   -2000013    13

DECAY 1000035  33.255188
    0.23208077   2    1000006   -6
    0.23208077   2   -1000006    6
    0.10596513   2    1000024   -24
    0.10596513   2   -1000024    24
    0.10243684   2    1000023    25
    0.037067228   2    1000024   -37
    0.037067228   2   -1000024    37
    0.034844199   2    1000023    35
    0.020452066   2    1000022    23
    0.01837036   2    1000022    36
    0.011392383   2    1000022    25
    0.010829383   2    1000005   -5
    0.010829383   2   -1000005    5
    0.010080652   2    1000023    23
    0.0062658703   2    2000015   -15
    0.0062658703   2   -2000015    15
    0.0041945565   2    1000022    35
    0.00371285   2    1000015   -15
    0.00371285   2   -1000015    15
    0.001955358   2    1000023    36
    0.00053683959   2    2000005   -5
    0.00053683959   2   -2000005    5
    0.00043841983   2    1000016   -16
    0.00043841983   2   -1000016    16
    0.0003970684   2    1000012   -12
    0.0003970684   2   -1000012    12
    0.0003970684   2    1000014   -14
    0.0003970684   2   -1000014    14
    0.00022134602   2    1000011   -11
    0.00022134602   2   -1000011    11
    0.00022134602   2    1000013   -13
    0.00022134602   2   -1000013    13
    1.7386853e-06   2    2000011   -11
    1.7386853e-06   2   -2000011    11
    1.7386853e-06   2    2000013   -13
    1.7386853e-06   2   -2000013    13

DECAY 25  0.0049702886
    0.62727235   2    5   -5
    0.20331726   2    24   -24
    0.065129798   2    21    21
    0.056730048   2   -15    15
    0.026018165   2    23    23
    0.017632921   2    4   -4
    0.0020217824   2    22    22
    0.0014585524   2    22    23
    0.00021815468   2    3   -3
    0.00020096905   2   -13    13

DECAY 35  2.5064513
    0.80441196   2    5   -5
    0.11900555   2   -15    15
    0.073102714   2    6   -6
    0.0017697455   2    25    25
    0.00049537252   2    24   -24
    0.00043094085   2   -13    13
    0.00030934115   2    3   -3
    0.00024318075   2    23    23
    0.00022760606   2    21    21
    2.0344403e-06   2    1000022    1000022
    9.0021529e-07   2    4   -4
    5.1541205e-07   2    22    22
    1.3261628e-07   2    23    22

DECAY 36  2.5205713
    0.80081539   2    5   -5
    0.1184599   2   -15    15
    0.07895243   2    6   -6
    0.00047750633   2    21    21
    0.00047525896   2    23    25
    0.0004289546   2   -13    13
    0.00030800677   2    3   -3
    8.0779818e-05   2    1000022    1000022
    8.3825162e-07   2    4   -4
    6.5618678e-07   2    22    22
    2.7433793e-07   2    23    22

DECAY 37  2.0571272
    0.85126535   2    6   -5
    0.14588794   2   -15    16
    0.0013166908   2    4   -5
    0.00059741469   2    24    25
    0.00052827412   2   -13    14
    0.00037229573   2    4   -3
    1.8864546e-05   2    2   -3
    1.3166707e-05   2    2   -5
    7.7516861e-10   2    24    36

DECAY 5 -1


DECAY 15 -1


DECAY 23  2.4952


DECAY 24  2.085
