BLOCK SPINFO
   1   SPheno
   2   v4.0.5be

BLOCK SPHENOINFO
   1   2
   2   2

BLOCK MODSEL
   1   0

BLOCK MINPAR
   3    34.213724
   4    1

BLOCK EXTPAR
   0    4659.6633
   1   -355.572
   2   -344.41311
   3    3114.1502
   11    1626.0573
   12   -3338.4259
   13   -2883.4507
   23    3089.3933
   25    32.860211
   26    4112.789
   31    1160.4638
   32    1160.4638
   33    1991.9566
   34    3728.9258
   35    3728.9258
   36    3969.1292
   41    3020.0123
   42    3020.0123
   43    4308.7652
   44    4539.6384
   45    4539.6384
   46    4880.0795
   47    3154.0125
   48    3154.0125
   49    4143.9547

BLOCK SMINPUTS
   1    127.90897
   2    1.1663787e-05
   3    0.1184
   4    91.1876
   5    4.18
   6    173.2
   7    1.777
   8    0
   11    0.00051099893
   12    0
   13    0.10565837
   14    0
   21    0.005
   22    0.0025
   23    0.095
   24    1.27

BLOCK GAUGE Q=  4659.6633
   1    0.35536298
   2    0.66519887
   3    1.219778

BLOCK YU Q=  4659.6633
   1   1    8.3882536e-06
   2   2    0.0042612328
   3   3    1.0133684

BLOCK YD Q=  4659.6633
   1   1    0.00055388824
   2   2    0.010523876
   3   3    0.54928357

BLOCK YE Q=  4659.6633
   1   1    9.6657548e-05
   2   2    0.019985715
   3   3    0.33612685

BLOCK AU Q=  4659.6633
   1   1    0
   2   2    0
   3   3    1626.0573

BLOCK AD Q=  4659.6633
   1   1    0
   2   2    0
   3   3   -3338.4255

BLOCK AE Q=  4659.6633
   1   1    0
   2   2    0
   3   3   -2883.4506

BLOCK MSOFT Q=  4659.6633
   1   -355.572
   2   -344.41311
   3    3114.1502
   21    7406151.4
   22   -9135709.4
   31    1160.4638
   32    1160.4638
   33    1991.9566
   34    3728.9258
   35    3728.9258
   36    3969.1292
   41    3020.0123
   42    3020.0123
   43    4308.7652
   44    4539.6384
   45    4539.6384
   46    4880.0795
   47    3154.0125
   48    3154.0125
   49    4143.9547

BLOCK MASS
   6    173.2
   23    91.1876
   24    80.429995
   15    1.777
   25    121.51042
   35    4112.3028
   36    4112.789
   37    4113.3102
   1000001    3186.2389
   2000001    3303.773
   1000002    3185.2387
   2000002    4642.7298
   1000003    3186.2342
   2000003    3303.771
   1000004    3185.2366
   2000004    4642.7292
   1000005    4238.4142
   2000005    4404.0231
   1000006    4402.1121
   2000006    4932.2828
   1000011    1165.3835
   2000011    3732.0927
   1000012    1162.3235
   1000013    1165.3553
   2000013    3732.0606
   1000014    1162.3146
   1000015    1990.9864
   2000015    3960.0404
   1000016    1991.4592
   1000021    3419.3256
   1000022   -352.1614
   1000023   -370.45418
   1000025    3110.944
   1000035   -3111.0556
   1000024    370.64864
   1000037    3111.716

BLOCK ALPHA
      -0.029254862

BLOCK HMIX Q=  4659.6633
   1    3089.3933
   2    32.860211
   3    242.79963
   4    16915033

BLOCK STOPMIX
   1   1   -0.99946808
   1   2    0.03261215
   2   1   -0.03261215
   2   2   -0.99946808

BLOCK SBOTMIX
   1   1    0.13582034
   1   2    0.99073348
   2   1   -0.99073348
   2   2    0.13582034

BLOCK STAUMIX
   1   1    0.99987586
   1   2    0.015756191
   2   1   -0.015756191
   2   2    0.99987586

BLOCK NMIX
   1   1   -0.99988812
   1   2    0.0033884046
   1   3   -0.014516188
   1   4   -0.0012406362
   2   1   -0.0037562685
   2   2   -0.99967293
   2   3    0.025203211
   2   4    0.002174234
   3   1    0.0093292444
   3   2   -0.016317831
   3   3   -0.70684971
   3   4    0.70711398
   4   1   -0.0110723
   4   2    0.019398087
   4   3    0.70676557
   4   4    0.70709515

BLOCK UMIX
   1   1   -0.99936235
   1   2    0.035705539
   2   1   -0.035705539
   2   2   -0.99936235

BLOCK VMIX
   1   1    0.99999525
   1   2    0.0030822456
   2   1    0.0030822456
   2   2   -0.99999525

BLOCK HIGGSBOUNDSINPUTHIGGSCOUPLINGSFERMIONS
       0, 1079.7934,3,36,15,15

BLOCK HIGGSBOUNDSINPUTHIGGSCOUPLINGSBOSONS
       0,4,36,21,21,23

BLOCK SPHENOLOWENERGY
   1    0.00032431451
   2    1.589918e-06
   3    3.5257791e-05
   4    2.6851684e-15
   5    1.1470741e-10
   6    2.4016347e-08
   7    9.0156524e-14
   8    3.8514865e-09
   9    8.1707987e-07
   10    9.6381725e-05
   11    0.99558632
   12    0.54184484
   13    19.358232
   14    0
   15    0
   16    0.0021567042
   17    2.2816524e-15
   18    2.4802531e-11
   19    8.2911237e-11
   20   -4.4723067e-15
   21   -1.912338e-10
   22   -2.8259648e-08
   23    0
   24    0
   25    0
   26    0
   27    0
   28    0
   29    0
   30    0
   31    0
   39    6.7490913e-05
   40    0
   41    0
   42    0

BLOCK FWCOEF Q=  160
   305   4422   0   0   -0.18881911
   305   4422   0   2   -0.19299073
   305   4322   0   2   -8.398472e-05
   305   6421   0   0   -0.095227835
   305   6421   0   2   -0.10107554
   305   6321   0   2   -0.00011694343
   3051111   4133   0   0    1.6321266
   3051111   4133   0   2    1.6321932
   3051111   4233   0   2    0.00011214514
   3051111   4137   0   0   -4.4548188
   3051111   4137   0   2   -4.4536286
   3051111   4237   0   2   -0.00082398987
   3051313   4133   0   0    1.6321266
   3051313   4133   0   2    1.6321925
   3051313   4233   0   2    0.00011214504
   3051313   4137   0   0   -4.4548188
   3051313   4137   0   2   -4.4536294
   3051313   4237   0   2   -0.00082399005
   3051212   4137   0   0    1.5053501
   3051212   4137   0   2    1.5051067
   3051212   4237   0   2    0.00017796144
   3051414   4137   0   0    1.5053501
   3051414   4137   0   2    1.5051067
   3051414   4237   0   2    0.00017796145
   3051616   4137   0   0    1.5053501
   3051616   4137   0   2    1.5051059
   3051616   4237   0   2    0.00017796442

BLOCK IMFWCOEF Q=  160
   305   4422   0   0    3.8580489e-07
   305   4422   0   2   -1.0541733e-06
   305   4322   0   2   -1.0248357e-07
   305   6421   0   0    3.304674e-07
   305   6421   0   2   -9.0126356e-06
   305   6321   0   2   -2.1976072e-07
   3051111   4133   0   2   -3.1400448e-08
   3051111   4233   0   2    2.324726e-06
   3051111   4137   0   2    8.0291353e-07
   3051111   4237   0   2   -1.7080835e-05
   3051313   4133   0   2   -3.1486126e-08
   3051313   4233   0   2    2.3247251e-06
   3051313   4137   0   2    8.0299971e-07
   3051313   4237   0   2   -1.7080839e-05
   3051212   4137   0   2    7.4348852e-08
   3051212   4237   0   2    3.6890343e-06
   3051414   4137   0   2    7.4351972e-08
   3051414   4237   0   2    3.6890343e-06
   3051616   4137   0   2    6.1359052e-08
   3051616   4237   0   2    3.6890324e-06

DECAY 23  2.4952


DECAY 24  2.085


DECAY 1000011  13.630181
    0.60731786   2   -1000024    12
    0.3051408   2    1000023    11
    0.08754134   2    1000022    11

DECAY 2000011  18.416456
    0.99996602   2    1000022    11

DECAY 1000013  13.62971
    0.60731753   2   -1000024    14
    0.30514094   2    1000023    13
    0.087541524   2    1000022    13

DECAY 2000013  18.431013
    0.99916764   2    1000022    13
    0.00049641056   2    1000013    25
    0.00014930623   2   -1000037    14

DECAY 1000015  26.837959
    0.60799595   2   -1000024    16
    0.30552539   2    1000023    15
    0.086478652   2    1000022    15

DECAY 2000015  30.855216
    0.63441497   2    1000022    15
    0.14137545   2    1000016   -24
    0.070648231   2    1000015    23
    0.068964845   2    1000015    25
    0.042246724   2   -1000037    16
    0.021165965   2    1000025    15
    0.021164973   2    1000035    15

DECAY 1000012  13.586284
    0.60772832   2    1000024    11
    0.30252224   2    1000023    12
    0.089749431   2    1000022    12

DECAY 1000014  13.586144
    0.60772861   2    1000024    13
    0.302522   2    1000023    14
    0.089749392   2    1000022    14

DECAY 1000016  26.85089
    0.6086478   2    1000024    15
    0.30282899   2    1000023    16
    0.088523208   2    1000022    16

DECAY 1000001  41.330966
    0.65955003   2   -1000024    2
    0.32954806   2    1000023    1
    0.01089948   2    1000022    1

DECAY 2000001  1.8024235
    0.99998286   2    1000022    1

DECAY 1000003  41.330914
    0.65954956   2   -1000024    4
    0.32954806   2    1000023    3
    0.010899511   2    1000022    3

DECAY 2000003  1.8026229
    0.99987244   2    1000022    3

DECAY 1000005  55.192353
    0.73990691   2    1000021    5
    0.09323272   2   -1000037    6
    0.048619175   2    1000025    5
    0.048536099   2    1000035    5
    0.042608035   2    1000022    5
    0.018049662   2   -1000024    6
    0.0090474044   2    1000023    5

DECAY 2000005  140.72918
    0.38928244   2    1000021    5
    0.26325717   2   -1000024    6
    0.1602892   2   -1000037    6
    0.13207277   2    1000023    5
    0.023780157   2    1000035    5
    0.023753318   2    1000025    5
    0.0044182054   2    1000022    5
    0.0022729375   2    1000005    25
    0.00087380253   2    1000005    23

DECAY 1000002  41.355203
    0.6597801   2    1000024    1
    0.33012826   2    1000023    2
    0.010091255   2    1000022    2

DECAY 2000002  86.97871
    0.88218315   2    1000021    2
    0.11780761   2    1000022    2

DECAY 1000004  41.355194
    0.65977999   2    1000024    3
    0.33012796   2    1000023    4
    0.010091246   2    1000022    4

DECAY 2000004  86.979599
    0.88217268   2    1000021    4
    0.11780637   2    1000022    4

DECAY 1000006  140.60696
    0.37729967   2    1000021    6
    0.27174108   2    1000024    5
    0.13543174   2    1000023    6
    0.0799727   2    1000025    6
    0.079430581   2    1000035    6
    0.047097972   2    1000037    5
    0.0042120603   2    1000022    6
    0.0028600759   3    1000022    24    5
    0.0019541202   2    1000005    24

DECAY 2000006  190.24686
    0.55036408   2    1000021    6
    0.1918039   2    1000037    5
    0.094939775   2    1000035    6
    0.094897354   2    1000025    6
    0.057091911   2    1000022    6
    0.0050527124   2    1000006    25
    0.0036034493   2    2000005    24
    0.0018342294   2    1000006    23
    0.00017610101   2    1000024    5
    0.00014762861   2    1000005    24

DECAY 1000024  4.5600497e-10
    0.33425229   3    1000022   -1    2
    0.32670053   3    1000022   -3    4
    0.11617529   3    1000022   -11    12
    0.11616062   3    1000022   -13    14
    0.10670984   3    1000022   -15    16

DECAY 1000037  23.715732
    0.28347376   2    1000024    25
    0.26687948   2    1000023    24
    0.26555229   2    1000024    23
    0.086089223   2    1000022    24
    0.051340294   2    1000016   -15
    0.02507149   3    1000024    6   -6
    0.014802023   3    1000023   -5    6
    0.0047401449   3    1000022   -5    6
    0.00054422387   2   -1000013    14
    0.00054421527   2   -1000011    12
    0.00038957087   2    1000014   -13
    0.00036017807   3    1000024    5   -5
    0.00015506858   2   -1000015    16

DECAY 1000022 -1


DECAY 1000023  1.3467139e-11
    0.41605687   3    1000022    12   -12
    0.22497607   3    1000022    11   -11
    0.22495018   3    1000022    13   -13
    0.042627066   2    1000022    22
    0.018958587   3    1000022    1   -1
    0.018952743   3    1000022    3   -3
    0.016361899   3    1000022    15   -15
    0.015132229   3    1000022    2   -2
    0.014258377   3    1000022    4   -4
    0.0077259781   3    1000022    5   -5

DECAY 1000025  25.546187
    0.24681694   2    1000024   -24
    0.24681694   2   -1000024    24
    0.17381864   2    1000023    25
    0.14395238   2    1000023    23
    0.050001945   2    1000022    25
    0.04788063   2    1000022    23
    0.023815524   2    1000015   -15
    0.023815524   2   -1000015    15
    0.013896511   3    1000024    5   -6
    0.013896511   3   -1000024   -5    6
    0.010866225   3    1000023    6   -6
    0.0032670608   3    1000022    6   -6
    0.00020409337   2    1000013   -13
    0.00020409337   2   -1000013    13
    0.00016212072   3    1000023    5   -5

DECAY 1000035  23.588599
    0.26732219   2    1000024   -24
    0.26732219   2   -1000024    24
    0.16741668   2    1000023    25
    0.11027748   2    1000023    23
    0.048159826   2    1000022    25
    0.036798715   2    1000022    23
    0.025787805   2    1000015   -15
    0.025787805   2   -1000015    15
    0.017125066   3    1000024    5   -6
    0.017125066   3   -1000024   -5    6
    0.011799114   3    1000023    6   -6
    0.0035701006   3    1000022    6   -6
    0.00023243656   2    1000013   -13
    0.00023243656   2   -1000013    13
    0.00018023056   3    1000023    5   -5
    0.00013768574   2    1000014   -14
    0.00013768574   2   -1000014    14
    0.00013768506   2    1000012   -12
    0.00013768506   2   -1000012    12

DECAY 1000021  7.9979606
    0.11063825   2    1000004   -4
    0.11063825   2   -1000004    4
    0.1106378   2    1000002   -2
    0.1106378   2   -1000002    2
    0.10973188   2    1000003   -3
    0.10973188   2   -1000003    3
    0.10972761   2    1000001   -1
    0.10972761   2   -1000001    1
    0.027936651   2    2000003   -3
    0.027936651   2   -2000003    3
    0.027935714   2    2000001   -1
    0.027935714   2   -2000001    1
    0.0015797992   3    1000024    5   -6
    0.0015797992   3   -1000024   -5    6
    0.0010918963   3    1000023    5   -5
    0.0010369478   3    1000023    6   -6
    0.00041084779   3    1000022    4   -4
    0.00041084749   3    1000022    2   -2
    0.00031523127   3    1000022    6   -6
    0.00020915527   3    1000022    5   -5
    0.00014723548   2    1000022    21

DECAY 25  0.0034700176
    0.62445363   2   -5    5
    0.17461334   2   -24    24
    0.074701234   2    21    21
    0.071554272   2   -15    15
    0.030955764   2   -4    4
    0.019701512   2    23    23
    0.0023299266   2    22    22
    0.0012067   2    22    23
    0.00024818142   2   -13    13
    0.00023463209   2   -3    3
    6.4873496e-07   2   -1    1
    1.5953388e-07   2   -2    2
    5.5794414e-09   2   -11    11

DECAY 35  53.210679
    0.64257661   2   -5    5
    0.17498815   2   -15    15
    0.054303976   2   -1000024    1000037
    0.054303976   2   -1000037    1000024
    0.033838846   2    1000022    1000025
    0.020742978   2    1000022    1000035
    0.0094711099   2    1000023    1000025
    0.0056805241   2    1000023    1000035
    0.0017366344   2   -6    6
    0.00083745385   2   -1000024    1000024
    0.00059684064   2   -13    13
    0.00042352514   2    1000022    1000022
    0.00023641664   2    1000022    1000023
    0.00021018777   2   -3    3
    3.2992054e-05   2    1000023    1000023
    1.1311969e-05   2   -1000015    1000015
    3.3747069e-06   2    21    21
    3.32864e-06   2    25    25
    5.8113436e-07   2   -1    1
    2.4264739e-07   2    23    23
    8.6612394e-08   2   -1000011    1000011
    8.5749464e-08   2   -1000013    1000013
    4.9639218e-08   2   -24    24
    3.6383453e-08   2    22    23
    1.8429079e-08   2   -4    4
    1.3403249e-08   2   -11    11
    7.7717244e-09   2    22    22
    9.4958822e-14   2   -2    2

DECAY 36  51.375337
    0.63748551   2   -5    5
    0.17360637   2   -15    15
    0.056284703   2   -1000024    1000037
    0.056284703   2   -1000037    1000024
    0.035046839   2    1000022    1000035
    0.021523587   2    1000022    1000025
    0.0098092283   2    1000023    1000035
    0.0058944273   2    1000023    1000025
    0.0016369564   2   -6    6
    0.00088394068   2   -1000024    1000024
    0.00059212674   2   -13    13
    0.0004470309   2    1000022    1000022
    0.00024971962   2    1000022    1000023
    0.00020852178   2   -3    3
    3.4874974e-05   2    1000023    1000023
    1.0301081e-05   2    21    21
    5.7653147e-07   2   -1    1
    5.4657628e-07   2    23    25
    1.7089409e-08   2   -4    4
    1.3297376e-08   2   -11    11
    8.6295874e-09   2    22    23
    6.5630705e-09   2    22    22
    8.8056327e-14   2   -2    2
    2.3232203e-36   2    25    25

DECAY 37  53.474294
    0.6395873   2   -5    6
    0.18007045   2   -15    16
    0.054214975   2    1000024    1000025
    0.054195543   2    1000024    1000035
    0.053926799   2    1000022    1000037
    0.01571672   2    1000023    1000037
    0.00094530477   2   -5    4
    0.00063661313   2   -13    14
    0.00048249093   2    1000023    1000024
    0.00019535157   2   -3    4
    9.1804547e-06   2   -3    2
    6.7504503e-06   2   -5    2
    6.6902346e-06   2   -1000015    1000016
    3.8661759e-06   2   -3    6
    5.4199741e-07   2   -1    2
    5.2549564e-07   2    24    25
    3.3864441e-07   2   -1000011    1000012
    3.3743912e-07   2   -1000013    1000014
    1.6396846e-07   2   -1    6
    2.6894419e-08   2   -1    4
    1.4890447e-08   2   -11    12
    1.3831316e-08   2    1000022    1000024
    2.6419374e-14   2    24    35

DECAY 6  2.43
    1   2    5    24

DECAY 15 -1
