BLOCK SPINFO
   1   SPheno
   2   v4.0.5be

BLOCK SPHENOINFO
   1   2
   2   2

BLOCK MODSEL
   1   0

BLOCK MINPAR
   3    39.317321
   4   -1

BLOCK EXTPAR
   0    1789.2067
   1   -922.63799
   2    2506.8215
   3    1816.9683
   11   -4241.7395
   12   -4876.3999
   13   -5715.4247
   23   -2100.2241
   25    38.399145
   26    4857.089
   31    1507.9351
   32    1507.9351
   33    1586.8348
   34    1502.9118
   35    1502.9118
   36    4064.2874
   41    4514.0023
   42    4514.0023
   43    2552.6647
   44    4142.5256
   45    4142.5256
   46    1128.8192
   47    1453.9933
   48    1453.9933
   49    3491.808

BLOCK SMINPUTS
   1    127.90897
   2    1.1663787e-05
   3    0.1184
   4    91.1876
   5    4.18
   6    173.2
   7    1.777
   8    0
   11    0.00051099893
   12    0
   13    0.10565837
   14    0
   21    0.005
   22    0.0025
   23    0.095
   24    1.27

BLOCK GAUGE Q=  1789.2067
   1    0.35536298
   2    0.66519887
   3    1.219778

BLOCK YU Q=  1789.2067
   1   1    8.3872148e-06
   2   2    0.0042607051
   3   3    1.0132429

BLOCK YD Q=  1789.2067
   1   1    0.00064717177
   2   2    0.012296264
   3   3    0.6417916

BLOCK YE Q=  1789.2067
   1   1    0.00011293621
   2   2    0.023351626
   3   3    0.39273593

BLOCK AU Q=  1789.2067
   1   1    0
   2   2    0
   3   3   -4241.7398

BLOCK AD Q=  1789.2067
   1   1    0
   2   2    0
   3   3   -4876.4058

BLOCK AE Q=  1789.2067
   1   1    0
   2   2    0
   3   3   -5715.4248

BLOCK MSOFT Q=  1789.2067
   1   -922.63799
   2    2506.8215
   3    1816.9683
   21    19062069
   22   -4413716.2
   31    1507.9351
   32    1507.9351
   33    1586.8348
   34    1502.9118
   35    1502.9118
   36    4064.2874
   41    4514.0023
   42    4514.0023
   43    2552.6647
   44    4142.5256
   45    4142.5256
   46    1128.8192
   47    1453.9933
   48    1453.9933
   49    3491.808

BLOCK MASS
   6    173.2
   23    91.1876
   24    80.429995
   15    1.777
   25    123.80364
   35    4855.266
   36    4857.089
   37    4856.282
   1000001    4557.6168
   2000001    1527.9697
   1000002    4557.0915
   2000002    4181.0823
   1000003    4557.6187
   2000003    1528.0033
   1000004    4557.0934
   2000004    4181.0828
   1000005    2605.7195
   2000005    3548.2709
   1000006    1220.5845
   2000006    2622.7275
   1000011    1525.4472
   2000011    1500.1202
   1000012    1523.032
   1000013    1525.7185
   2000013    1499.8981
   1000014    1523.0493
   1000015    1632.5244
   2000015    4075.374
   1000016    1630.5955
   1000021    2031.5203
   1000022   -921.65966
   1000023    2098.4033
   1000025   -2106.8918
   1000035    2554.503
   1000024    2099.5332
   1000037    2554.6707

BLOCK ALPHA
      -0.025452582

BLOCK HMIX Q=  1789.2067
   1   -2100.2241
   2    38.399145
   3    243.87738
   4    23591313

BLOCK STOPMIX
   1   1    0.11325029
   1   2    0.99356649
   2   1   -0.99356649
   2   2    0.11325029

BLOCK SBOTMIX
   1   1   -0.99963242
   1   2    0.027111477
   2   1   -0.027111477
   2   2   -0.99963242

BLOCK STAUMIX
   1   1   -0.99996137
   1   2    0.0087898169
   2   1   -0.0087898169
   2   2   -0.99996137

BLOCK NMIX
   1   1   -0.99956635
   1   2   -0.000271325
   1   3    0.026847347
   1   4   -0.012093671
   2   1    0.010371456
   2   2    0.12109834
   2   3    0.70301269
   2   4    0.70071448
   3   1   -0.027533598
   3   2    0.012140667
   3   3   -0.70647327
   3   4    0.70709973
   4   1    0.0012018313
   4   2   -0.99256623
   4   3    0.077122642
   4   4    0.094143144

BLOCK UMIX
   1   1   -0.10928161
   1   2   -0.99401083
   2   1    0.99401083
   2   2   -0.10928161

BLOCK VMIX
   1   1   -0.13344276
   1   2    0.99105652
   2   1    0.99105652
   2   2    0.13344276

BLOCK HIGGSBOUNDSINPUTHIGGSCOUPLINGSFERMIONS
       0, 1474.4943,3,36,15,15

BLOCK HIGGSBOUNDSINPUTHIGGSCOUPLINGSBOSONS
       0,4,36,21,21,23

BLOCK SPHENOLOWENERGY
   1    0.00036966716
   2    1.5900103e-06
   3    3.5306457e-05
   4    2.455597e-15
   5    1.0490123e-10
   6    2.2013984e-08
   7    8.2509403e-14
   8    3.5248304e-09
   9    7.4952173e-07
   10    9.6084903e-05
   11    0.99252026
   12    0.5441451
   13    19.437859
   14    0
   15    0
   16    0.0021743511
   17    2.2818325e-15
   18    2.4833818e-11
   19    8.2986854e-11
   20   -1.4979603e-15
   21   -6.4031125e-11
   22   -2.3220074e-08
   23    0
   24    0
   25    0
   26    0
   27    0
   28    0
   29    0
   30    0
   31    0
   39    8.7742638e-05
   40    0
   41    0
   42    0

BLOCK FWCOEF Q=  160
   305   4422   0   0   -0.18881911
   305   4422   0   2   -0.24293461
   305   4322   0   2   -0.00057506303
   305   6421   0   0   -0.095227835
   305   6421   0   2   -0.13457409
   305   6321   0   2   -0.00037785418
   3051111   4133   0   0    1.5985588
   3051111   4133   0   2    1.5994356
   3051111   4233   0   2    0.00019671057
   3051111   4137   0   0   -4.4212509
   3051111   4137   0   2   -4.4249213
   3051111   4237   0   2   -0.0015197585
   3051313   4133   0   0    1.5985588
   3051313   4133   0   2    1.5994312
   3051313   4233   0   2    0.00019671021
   3051313   4137   0   0   -4.4212509
   3051313   4137   0   2   -4.4249256
   3051313   4237   0   2   -0.0015197594
   3051212   4137   0   0    1.5053501
   3051212   4137   0   2    1.5061509
   3051212   4237   0   2    0.00033072159
   3051414   4137   0   0    1.5053501
   3051414   4137   0   2    1.5061509
   3051414   4237   0   2    0.00033072159
   3051616   4137   0   0    1.5053501
   3051616   4137   0   2    1.5061509
   3051616   4237   0   2    0.00033072447

BLOCK IMFWCOEF Q=  160
   305   4422   0   0    3.8557336e-07
   305   4422   0   2   -1.4803373e-05
   305   4322   0   2   -9.3693205e-06
   305   6421   0   0    3.3026909e-07
   305   6421   0   2    2.0273726e-05
   305   6321   0   2   -5.4807188e-06
   3051111   4133   0   2   -6.260936e-07
   3051111   4233   0   2    3.8070872e-06
   3051111   4137   0   2    6.3694763e-06
   3051111   4237   0   2   -2.9410664e-05
   3051313   4133   0   2   -6.2614257e-07
   3051313   4233   0   2    3.8070817e-06
   3051313   4137   0   2    6.3694303e-06
   3051313   4237   0   2   -2.9410682e-05
   3051212   4137   0   2   -1.3547853e-06
   3051212   4237   0   2    6.4001865e-06
   3051414   4137   0   2   -1.3547858e-06
   3051414   4237   0   2    6.4001865e-06
   3051616   4137   0   2   -1.3548759e-06
   3051616   4237   0   2    6.4001865e-06

DECAY 23  2.4952


DECAY 24  2.085


DECAY 2000011  2.9185451
    1   2    1000022    11

DECAY 1000011  0.77266565
    1   2    1000022    11

DECAY 2000013  2.9170702
    1   2    1000022    13

DECAY 1000013  0.77312341
    1   2    1000022    13

DECAY 1000015  0.95432547
    1   2    1000022    15

DECAY 2000015  36.223945
    0.5086152   2    1000022    15
    0.18345257   2   -1000024    16
    0.092806144   2    1000025    15
    0.091854034   2    1000023    15
    0.058089891   2    1000016   -24
    0.033260082   2    1000015    25
    0.0289874   2    1000015    23
    0.0019585331   2   -1000037    16
    0.00097615147   2    1000035    15

DECAY 1000012  0.76706879
    1   2    1000022    12

DECAY 1000014  0.76709754
    1   2    1000022    14

DECAY 1000016  0.94678121
    0.99999998   2    1000022    16

DECAY 2000001  0.34493026
    1   2    1000022    1

DECAY 1000001  260.00209
    0.88843803   2    1000021    1
    0.071710416   2   -1000037    2
    0.035770788   2    1000035    1
    0.0022417848   2    1000022    1
    0.0011436867   2   -1000024    2
    0.00068138231   2    1000023    1

DECAY 2000003  0.34495693
    1   2    1000022    3

DECAY 1000003  260.01309
    0.88840122   2    1000021    3
    0.071707558   2   -1000037    4
    0.035769454   2    1000035    3
    0.0022417263   2    1000022    3
    0.0011474497   2   -1000024    4
    0.00069750293   2    1000023    3

DECAY 1000005  113.17999
    0.64461489   2    1000006   -24
    0.27937102   2    1000021    5
    0.050149294   2   -1000024    6
    0.011797857   2    1000023    5
    0.01127469   2    1000025    5
    0.0026434126   2    1000022    5
    0.0001488327   2    1000035    5

DECAY 2000005  157.99642
    0.80107488   2    1000021    5
    0.076119931   2   -1000024    6
    0.038555256   2    1000025    5
    0.038202576   2    1000023    5
    0.01300382   2    1000005    25
    0.012881831   2    2000006   -24
    0.010913358   2    1000022    5
    0.0068099375   2    1000005    23
    0.001240243   2    1000006   -24
    0.00079769705   2   -1000037    6
    0.000400466   2    1000035    5

DECAY 2000002  201.04229
    0.95797459   2    1000021    2
    0.042002993   2    1000022    2

DECAY 1000002  259.97885
    0.88831351   2    1000021    2
    0.071267889   2    1000037    1
    0.035731479   2    1000035    2
    0.0022553927   2    1000022    2
    0.0017051429   2    1000024    1
    0.0007240905   2    1000023    2

DECAY 2000004  201.04394
    0.95796658   2    1000021    4
    0.042002646   2    1000022    4

DECAY 1000004  259.98848
    0.88828108   2    1000021    4
    0.071265604   2    1000037    3
    0.035730241   2    1000035    4
    0.0022553102   2    1000022    4
    0.0017373455   2    1000024    3
    0.0007259669   2    1000023    4

DECAY 1000006  0.40921486
    0.99935382   2    1000022    6
    0.00064530706   2    1000022    4

DECAY 2000006  126.81358
    0.39898865   2    1000006    25
    0.29251642   2    1000006    23
    0.23247019   2    1000021    6
    0.026213661   2    1000025    6
    0.025236356   2    1000023    6
    0.021346375   2    1000024    5
    0.0027453113   2    1000022    6
    0.00048302844   2    1000037    5

DECAY 1000024  30.146551
    0.92902252   2    1000006   -5
    0.047179455   2    1000022    24
    0.017451966   2    1000016   -15
    0.0013943559   3    1000022   -5    6
    0.0013088159   2    1000014   -13
    0.0012252392   2    1000012   -11
    0.00081593721   2   -1000011    12
    0.00081528817   2   -1000013    14
    0.00062757891   2   -1000015    16

DECAY 1000037  37.334792
    0.12320595   2   -1000011    12
    0.12315738   2   -1000013    14
    0.12290452   2    1000012   -11
    0.12290341   2    1000014   -13
    0.1043544   2    1000016   -15
    0.104036   2   -1000015    16
    0.077293371   2    1000025    24
    0.072602465   2    1000023    24
    0.071670854   2    1000024    23
    0.070435649   2    1000024    25
    0.0044031287   2    1000006   -5
    0.0012534672   2    1000022    24
    0.00077693707   3    1000025   -5    6
    0.00067574787   3    1000023   -5    6
    0.0002073952   3    1000024    6   -6

DECAY 1000022 -1


DECAY 1000023  32.224459
    0.45428731   2    1000006   -6
    0.45428731   2   -1000006    6
    0.038647325   2    1000022    23
    0.031286875   2    1000022    25
    0.0080639079   2    1000015   -15
    0.0080639079   2   -1000015    15
    0.00070705515   3    1000022    6   -6
    0.00054933673   2    1000013   -13
    0.00054933673   2   -1000013    13
    0.00051102187   2    1000011   -11
    0.00051102187   2   -1000011    11
    0.00042852504   2    1000012   -12
    0.00042852504   2   -1000012    12
    0.00042850344   2    1000014   -14
    0.00042850344   2   -1000014    14
    0.00030035702   2    1000016   -16
    0.00030035702   2   -1000016    16

DECAY 1000025  31.924861
    0.47039904   2    1000006   -6
    0.47039904   2   -1000006    6
    0.035966935   2    1000022    25
    0.0080627771   2    1000015   -15
    0.0080627771   2   -1000015    15
    0.0057595435   2    1000022    23
    0.00082198852   3    1000022    6   -6

DECAY 1000035  40.37027
    0.073263313   2    1000025    25
    0.071308113   2    1000025    23
    0.067490338   2    1000024   -24
    0.067490338   2   -1000024    24
    0.064328176   2    1000023    25
    0.057066646   2    1000012   -12
    0.057066646   2   -1000012    12
    0.057065221   2    1000014   -14
    0.057065221   2   -1000014    14
    0.056720075   2    1000011   -11
    0.056720075   2   -1000011    11
    0.05669861   2    1000013   -13
    0.05669861   2   -1000013    13
    0.048232668   2    1000016   -16
    0.048232668   2   -1000016    16
    0.0481097   2    1000015   -15
    0.0481097   2   -1000015    15
    0.0022603136   2    1000006   -6
    0.0022603136   2   -1000006    6
    0.00095548397   2    1000022    23
    0.00085446539   2    1000022    25
    0.00070537967   2    1000023    23
    0.00054766185   3    1000024    5   -6
    0.00054766185   3   -1000024   -5    6

DECAY 1000021  45.676561
    0.24944811   2    1000006   -6
    0.24944811   2   -1000006    6
    0.12415567   2    2000001   -1
    0.12415567   2   -2000001    1
    0.12414143   2    2000003   -3
    0.12414143   2   -2000003    3
    0.0022502148   2    1000006   -4
    0.0022502148   2   -1000006    4

DECAY 25  0.003708967
    0.59010683   2   -5    5
    0.21040943   2   -24    24
    0.073268937   2    21    21
    0.067843665   2   -15    15
    0.029280379   2   -4    4
    0.024868452   2    23    23
    0.0023592242   2    22    22
    0.0014050345   2    22    23
    0.00023527948   2   -13    13
    0.00022199687   2   -3    3
    6.1380082e-07   2   -1    1
    1.5089211e-07   2   -2    2
    5.289357e-09   2   -11    11

DECAY 35  128.6284
    0.57433569   2   -5    5
    0.11119107   2   -2000006    1000006
    0.11119107   2   -1000006    2000006
    0.090544248   2   -15    15
    0.025143829   2   -1000024    1000037
    0.025143829   2   -1000037    1000024
    0.022196697   2    1000025    1000035
    0.016684919   2    1000022    1000023
    0.00969788   2    1000022    1000025
    0.0082236557   2   -1000006    1000006
    0.0023749539   2    1000023    1000035
    0.00093295206   2   -6    6
    0.00086652508   2   -1000024    1000024
    0.00036246031   2    1000023    1000025
    0.00033658383   2    1000023    1000023
    0.00031759109   2   -3    3
    0.00030922167   2   -13    13
    4.4944527e-05   2    1000022    1000022
    4.2985707e-05   2    1000022    1000035
    2.3803216e-05   2   -1000015    1000015
    1.5089632e-05   2    25    25
    1.3189853e-05   2    1000025    1000025
    5.4123587e-06   2    21    21
    8.7851793e-07   2   -1    1
    6.9227659e-08   2    22    23
    6.2844184e-08   2    23    23
    6.0867206e-08   2   -2000013    2000013
    2.1821804e-08   2   -2000011    2000011
    1.6699163e-08   2    22    22
    1.4148342e-08   2   -1000011    1000011
    1.2147346e-08   2   -4    4
    1.0716476e-08   2   -24    24
    6.9439887e-09   2   -11    11
    6.8035208e-09   2   -2000013    1000013
    6.8035208e-09   2   -1000013    2000013
    4.810053e-09   2   -1000001    1000001
    4.7735909e-09   2   -1000003    1000003
    3.4895096e-10   2   -1000013    1000013
    3.5888555e-13   2   -2000011    1000011
    3.5888555e-13   2   -1000011    2000011
    6.2614523e-14   2   -2    2

DECAY 36  123.62953
    0.56042058   2   -5    5
    0.12137786   2   -2000006    1000006
    0.12137786   2   -1000006    2000006
    0.088339022   2   -15    15
    0.024828472   2   -1000024    1000037
    0.024828472   2   -1000037    1000024
    0.022421192   2    1000023    1000035
    0.017187822   2    1000022    1000025
    0.010255325   2    1000022    1000023
    0.0032392618   2   -1000024    1000024
    0.0024939884   2    1000025    1000035
    0.0012348815   2    1000023    1000023
    0.0011292717   2   -6    6
    0.00030990543   2   -3    3
    0.00030169053   2   -13    13
    0.00011213796   2    1000023    1000025
    6.0766251e-05   2    1000025    1000025
    5.7286863e-05   2    1000022    1000022
    1.7814497e-05   2    1000022    1000035
    5.0683526e-06   2    21    21
    8.5725867e-07   2   -1    1
    1.8303203e-07   2    22    23
    1.7439345e-07   2    23    25
    4.0171644e-08   2    22    22
    2.03707e-08   2   -2000013    1000013
    2.03707e-08   2   -1000013    2000013
    1.0679377e-08   2   -4    4
    6.7747138e-09   2   -11    11
    4.7647259e-13   2   -2000011    1000011
    4.7647259e-13   2   -1000011    2000011
    1.7892212e-13   2    23    35
    5.5059621e-14   2   -2    2
    5.8825178e-37   2    25    25

DECAY 37  106.84794
    0.55170541   2   -5    6
    0.18186623   2   -1000005    1000006
    0.14050797   2   -15    16
    0.031975211   2    1000022    1000024
    0.030747049   2    1000023    1000037
    0.030427963   2    1000024    1000035
    0.029526018   2    1000025    1000037
    0.00081761415   2   -5    4
    0.00079294231   2    1000024    1000025
    0.00065401878   2   -2000005    1000006
    0.00049674562   2   -13    14
    0.00035273896   2   -3    4
    7.2885257e-05   2    1000022    1000037
    1.8259655e-05   2    1000023    1000024
    1.6608204e-05   2   -3    2
    1.2836835e-05   2   -1000015    1000016
    5.8386075e-06   2   -5    2
    2.1018862e-06   2   -3    6
    9.7978237e-07   2   -1    2
    2.0173066e-07   2    24    25
    1.4555403e-07   2   -2000013    1000014
    1.0323844e-07   2   -2000011    1000012
    7.2222689e-08   2   -1    6
    4.6655611e-08   2   -1    4
    1.1618932e-08   2   -11    12
    4.4879287e-09   2   -1000013    1000014
    4.8062924e-10   2   -1000003    1000006
    5.4941494e-11   2   -1000003    2000006
    6.1128626e-14   2   -1000001    1000006
    3.216367e-14   2   -1000011    1000012
    1.3796527e-14   2    24    35
    6.9877041e-15   2   -1000001    2000006

DECAY 6  2.43
    1   2    5    24

DECAY 15 -1
