BLOCK SPINFO
   1   SPheno
   2   v4.0.5be

BLOCK SPHENOINFO
   1   2
   2   2

BLOCK MODSEL
   1   0

BLOCK MINPAR
   3    50.310158
   4   -1

BLOCK EXTPAR
   0    3762.0226
   1    4084.5141
   2    845.50242
   3    2710.3313
   11   -1750.7914
   12   -7517.0003
   13   -2435.1384
   23   -902.90427
   25    50.22267
   26    1808.794
   31    4082.6698
   32    4082.6698
   33    2875.9752
   34    910.93695
   35    910.93695
   36    4672.6722
   41    2833.6574
   42    2833.6574
   43    3008.1942
   44    2219.9437
   45    2219.9437
   46    4699.235
   47    2594.1734
   48    2594.1734
   49    1252.7519

BLOCK SMINPUTS
   1    127.90897
   2    1.1663787e-05
   3    0.1184
   4    91.1876
   5    4.18
   6    173.2
   7    1.777
   8    0
   11    0.00051099893
   12    0
   13    0.10565837
   14    0
   21    0.005
   22    0.0025
   23    0.095
   24    1.27

BLOCK GAUGE Q=  3762.0226
   1    0.35536298
   2    0.66519887
   3    1.219778

BLOCK YU Q=  3762.0226
   1   1    8.386034e-06
   2   2    0.0042601053
   3   3    1.0131003

BLOCK YD Q=  3762.0226
   1   1    0.00084632402
   2   2    0.016080156
   3   3    0.83928823

BLOCK YE Q=  3762.0226
   1   1    0.00014768973
   2   2    0.030537552
   3   3    0.51359139

BLOCK AU Q=  3762.0226
   1   1    0
   2   2    0
   3   3   -1750.7914

BLOCK AD Q=  3762.0226
   1   1    0
   2   2    0
   3   3   -7516.9992

BLOCK AE Q=  3762.0226
   1   1    0
   2   2    0
   3   3   -2435.1382

BLOCK MSOFT Q=  3762.0226
   1    4084.5141
   2    845.50242
   3    2710.3313
   21    3525840.7
   22   -551755.25
   31    4082.6698
   32    4082.6698
   33    2875.9752
   34    910.93695
   35    910.93695
   36    4672.6722
   41    2833.6574
   42    2833.6574
   43    3008.1942
   44    2219.9437
   45    2219.9437
   46    4699.235
   47    2594.1734
   48    2594.1734
   49    1252.7519

BLOCK MASS
   6    173.2
   23    91.1876
   24    80.429995
   15    1.777
   25    121.57296
   35    1806.9855
   36    1808.794
   37    1809.7373
   1000001    2968.6811
   2000001    2732.3962
   1000002    2967.606
   2000002    2374.9328
   1000003    2968.6715
   2000003    2732.3752
   1000004    2967.5958
   2000004    2374.932
   1000005    1267.8236
   2000005    2992.7119
   1000006    2994.274
   2000006    4726.6264
   1000011    4092.7141
   2000011    955.25938
   1000012    4091.5226
   1000013    4092.6826
   2000013    955.11579
   1000014    4091.4906
   1000015    2872.0311
   2000015    4661.7694
   1000016    2870.5296
   1000021    2919.9462
   1000022    841.54859
   1000023   -908.65916
   1000025    953.9249
   1000035    4020.0677
   1000024    842.29241
   1000037    954.77751

BLOCK ALPHA
      -0.019992387

BLOCK HMIX Q=  3762.0226
   1   -902.90427
   2    50.22267
   3    242.99797
   4    3271735.8

BLOCK STOPMIX
   1   1    0.99980479
   1   2    0.01975818
   2   1   -0.01975818
   2   2    0.99980479

BLOCK SBOTMIX
   1   1   -0.01265153
   1   2    0.99991997
   2   1   -0.99991997
   2   2   -0.01265153

BLOCK STAUMIX
   1   1   -0.99998462
   1   2    0.0055470385
   2   1   -0.0055470385
   2   2   -0.99998462

BLOCK NMIX
   1   1    0.005957558
   1   2   -0.77543609
   1   3   -0.46418316
   1   4   -0.42801561
   2   1    0.0064783211
   2   2   -0.032088605
   2   3    0.70601084
   2   4   -0.70744402
   3   1    0.0080339191
   3   2    0.63061012
   3   3   -0.53486119
   3   4   -0.5623076
   4   1   -0.99992899
   4   2    0.00023870188
   4   3   -0.0024888414
   4   4   -0.011651338

BLOCK UMIX
   1   1   -0.76098865
   1   2   -0.64876519
   2   1    0.64876519
   2   2   -0.76098865

BLOCK VMIX
   1   1   -0.80102224
   1   2    0.59863459
   2   1    0.59863459
   2   2    0.80102224

BLOCK HIGGSBOUNDSINPUTHIGGSCOUPLINGSFERMIONS
       0, 2522.3166,3,36,15,15

BLOCK HIGGSBOUNDSINPUTHIGGSCOUPLINGSBOSONS
       0,4,36,21,21,23

BLOCK SPHENOLOWENERGY
   1    0.00034332444
   2    1.5882056e-06
   3    3.5254289e-05
   4    1.2451859e-15
   5    5.3163035e-11
   6    9.4207827e-09
   7    4.7947722e-14
   8    2.0478837e-09
   9    4.0884074e-07
   10    9.2347095e-05
   11    0.95391014
   12    0.54178679
   13    19.292016
   14    0
   15    0
   16    0.0021571376
   17    2.2816621e-15
   18    2.4798753e-11
   19    8.2903134e-11
   20   -1.7699068e-15
   21   -7.5661665e-11
   22   -4.0732786e-08
   23    0
   24    0
   25    0
   26    0
   27    0
   28    0
   29    0
   30    0
   31    0
   39    8.2084763e-05
   40    0
   41    0
   42    0

BLOCK FWCOEF Q=  160
   305   4422   0   0   -0.18881911
   305   4422   0   2   -0.21467849
   305   4322   0   2   -0.00052752136
   305   6421   0   0   -0.095227835
   305   6421   0   2   -0.11443018
   305   6321   0   2   -0.00041630229
   3051111   4133   0   0    1.6253959
   3051111   4133   0   2    1.6257298
   3051111   4233   0   2    0.0004801222
   3051111   4137   0   0   -4.448088
   3051111   4137   0   2   -4.4466933
   3051111   4237   0   2   -0.0035558431
   3051313   4133   0   0    1.6253959
   3051313   4133   0   2    1.6257292
   3051313   4233   0   2    0.00048011554
   3051313   4137   0   0   -4.448088
   3051313   4137   0   2   -4.4466939
   3051313   4237   0   2   -0.0035558424
   3051212   4137   0   0    1.5053501
   3051212   4137   0   2    1.505055
   3051212   4237   0   2    0.00076913358
   3051414   4137   0   0    1.5053501
   3051414   4137   0   2    1.505055
   3051414   4237   0   2    0.00076913456
   3051616   4137   0   0    1.5053501
   3051616   4137   0   2    1.5050553
   3051616   4237   0   2    0.00076941183

BLOCK IMFWCOEF Q=  160
   305   4422   0   0    3.8580224e-07
   305   4422   0   2   -5.8838381e-05
   305   4322   0   2   -4.2155929e-06
   305   6421   0   0    3.3046513e-07
   305   6421   0   2    4.3526784e-05
   305   6321   0   2   -9.1522337e-07
   3051111   4133   0   2    1.5778575e-06
   3051111   4233   0   2    1.112592e-05
   3051111   4137   0   2   -5.0877741e-06
   3051111   4237   0   2   -8.24305e-05
   3051313   4133   0   2    1.5778394e-06
   3051313   4233   0   2    1.1125883e-05
   3051313   4137   0   2   -5.0877632e-06
   3051313   4237   0   2   -8.2430569e-05
   3051212   4137   0   2    1.2195019e-06
   3051212   4237   0   2    1.7829811e-05
   3051414   4137   0   2    1.2195022e-06
   3051414   4237   0   2    1.7829811e-05
   3051616   4137   0   2    1.2255094e-06
   3051616   4237   0   2    1.7829813e-05

DECAY 23  2.4952


DECAY 24  2.085


DECAY 2000011  1.0383052e-05
    0.82297467   2    1000022    11
    0.17596051   2    1000023    11
    0.00083211367   2   -1000024    12
    0.00023268244   2    1000025    11

DECAY 1000011  49.060412
    0.3900129   2   -1000024    12
    0.27636457   2   -1000037    12
    0.20085385   2    1000022    11
    0.13236707   2    1000025    11
    0.00027200565   2    1000023    11
    0.00012959764   2    1000035    11

DECAY 2000013  0.00064951746
    0.56742234   2   -1000024    14
    0.30730281   2    1000022    13
    0.12521359   2    1000023    13

DECAY 1000013  49.130336
    0.3894543   2   -1000024    14
    0.27596863   2   -1000037    14
    0.20087177   2    1000022    13
    0.13257262   2    1000025    13
    0.00096785168   2    1000023    13
    0.00012930292   2    1000035    13

DECAY 1000015  43.208584
    0.28513078   2   -1000024    16
    0.2097504   2    1000022    15
    0.19289257   2   -1000037    16
    0.17130954   2    1000025    15
    0.14091671   2    1000023    15

DECAY 2000015  47.831549
    0.27518692   2   -1000037    16
    0.23606764   2    1000023    15
    0.19805417   2   -1000024    16
    0.13594928   2    1000025    15
    0.10140056   2    1000022    15
    0.032178306   2    1000035    15
    0.010577364   2    1000016   -24
    0.0053122342   2    1000015    25
    0.0052735305   2    1000015    23

DECAY 1000012  49.090803
    0.43171188   2    1000024    11
    0.23507498   2    1000037    11
    0.20398227   2    1000022    12
    0.12868626   2    1000025    12
    0.00041900743   2    1000023    12
    0.00012560073   2    1000035    12

DECAY 1000014  49.158937
    0.4317059   2    1000024    13
    0.235546   2    1000037    13
    0.20369767   2    1000022    14
    0.12850666   2    1000025    14
    0.00041842274   2    1000023    14
    0.00012531635   2    1000035    14

DECAY 1000016  43.23496
    0.43585349   2    1000024    15
    0.32511258   2    1000037    15
    0.14802052   2    1000022    16
    0.090714399   2    1000025    16
    0.00029901006   2    1000023    16

DECAY 2000001  0.00023253959
    0.36343359   2    1000025    1
    0.28380079   2    1000023    1
    0.22031911   2    1000022    1
    0.07473023   2   -1000037    2
    0.057716286   2   -1000024    2

DECAY 1000001  32.720328
    0.39105549   2   -1000024    2
    0.27021873   2   -1000037    2
    0.20364152   2    1000022    1
    0.12712745   2    1000025    1
    0.0075937822   2    1000021    1
    0.00036301047   2    1000023    1

DECAY 2000003  0.022413149
    0.279893   2   -1000037    4
    0.24952772   2    1000023    3
    0.21616958   2   -1000024    4
    0.14172584   2    1000025    3
    0.11268387   2    1000022    3

DECAY 1000003  32.733564
    0.39090422   2   -1000024    4
    0.27012639   2   -1000037    4
    0.20364346   2    1000022    3
    0.12718207   2    1000025    3
    0.0075877208   2    1000021    3
    0.00055331696   2    1000023    3

DECAY 1000005  7.8244305
    0.26753843   2    1000023    5
    0.26607584   2   -1000024    6
    0.18929612   2   -1000037    6
    0.15679515   2    1000022    5
    0.12029447   2    1000025    5

DECAY 2000005  119.74753
    0.35053326   2   -1000037    6
    0.24905492   2   -1000024    6
    0.14405983   2    1000023    5
    0.11882366   2    1000022    5
    0.11723927   2    1000025    5
    0.0090388028   2    1000005    25
    0.0066995585   2    1000005    23
    0.0045506802   2    1000021    5

DECAY 2000002  0.00054690161
    0.44024901   2    1000025    2
    0.29656184   2    1000023    2
    0.26318475   2    1000022    2

DECAY 1000002  32.761313
    0.43252937   2    1000024    1
    0.22966324   2    1000037    1
    0.20217767   2    1000022    2
    0.12805778   2    1000025    2
    0.0072585865   2    1000021    2
    0.00031335766   2    1000023    2

DECAY 2000004  0.0017913616
    0.26496586   2    1000023    4
    0.24072566   2    1000025    4
    0.21587733   2    1000037    3
    0.14733184   2    1000022    4
    0.13109931   2    1000024    3

DECAY 1000004  32.774331
    0.43252163   2    1000024    3
    0.22978627   2    1000037    3
    0.2021008   2    1000022    4
    0.12801522   2    1000025    4
    0.007249462   2    1000021    4
    0.00032662726   2    1000023    4

DECAY 1000006  125.91026
    0.23815138   2    1000024    5
    0.21123031   2    1000037    5
    0.19834498   2    1000023    6
    0.15896244   2    1000025    6
    0.12560135   2    1000022    6
    0.026575847   2    1000022    4
    0.026057511   3    1000022    24    5
    0.012783003   2    1000005    24
    0.0022519787   2    1000021    4

DECAY 2000006  333.7725
    0.4231799   2    1000021    6
    0.17400011   2    1000037    5
    0.13377259   2    1000023    6
    0.093795435   2    1000024    5
    0.085650936   2    1000025    6
    0.047907437   2    1000022    6
    0.018006793   2    2000005    24
    0.011574404   2    1000006    25
    0.0089736934   2    1000006    23
    0.0023703156   2    1000035    6
    0.00075764292   2    1000005    37

DECAY 1000024  9.3821264e-13
    0.81276665   2    1000022    211
    0.098210916   3    1000022   -11    12
    0.089022432   3    1000022   -13    14

DECAY 1000037  0.41923206
    0.63028569   2    1000022    24
    0.36797301   2    1000024    23
    0.00058104135   3    1000023   -1    2
    0.00057923998   3    1000023   -3    4
    0.00019373559   3    1000023   -13    14
    0.0001936797   3    1000023   -11    12
    0.00019254476   3    1000023   -15    16

DECAY 1000022 -1


DECAY 1000023  0.014218226
    0.12507853   3    1000024    1   -2
    0.12507853   3   -1000024   -1    2
    0.12494449   3    1000024    3   -4
    0.12494449   3   -1000024   -3    4
    0.049172938   3    1000022    12   -12
    0.041695067   3    1000024    13   -14
    0.041695067   3   -1000024   -13    14
    0.041692955   3    1000024    11   -12
    0.041692955   3   -1000024   -11    12
    0.0416153   3    1000024    15   -16
    0.0416153   3   -1000024   -15    16
    0.036767546   3    1000022    1   -1
    0.036767025   3    1000022    3   -3
    0.036315229   3    1000022    5   -5
    0.028678272   3    1000022    2   -2
    0.028575556   3    1000022    4   -4
    0.0088335607   2    1000022    22
    0.0082986257   3    1000022    13   -13
    0.0082976084   3    1000022    11   -11
    0.0082409448   3    1000022    15   -15

DECAY 1000025  0.54210274
    0.49929905   2    1000024   -24
    0.49929905   2   -1000024    24
    0.00046230137   2    1000022    23
    0.00018093799   3    1000023    12   -12
    0.00013531202   3    1000023    1   -1
    0.00013530607   3    1000023    3   -3
    0.00012735858   3    1000023    5   -5
    0.00010552192   3    1000023    2   -2
    0.00010452783   3    1000023    4   -4

DECAY 1000035  91.032689
    0.098759959   2    2000013   -13
    0.098759959   2   -2000013    13
    0.098756402   2    2000011   -11
    0.098756402   2   -2000011    11
    0.062681359   2    2000004   -4
    0.062681359   2   -2000004    4
    0.062681343   2    2000002   -2
    0.062681343   2   -2000002    2
    0.029974711   2    1000005   -5
    0.029974711   2   -1000005    5
    0.020760368   2    1000023    23
    0.020526702   2    1000023    25
    0.019451032   2    1000037   -24
    0.019451032   2   -1000037    24
    0.012783967   2    1000025    25
    0.012426017   2    1000023    35
    0.010703858   2    2000003   -3
    0.010703858   2   -2000003    3
    0.010703574   2    2000001   -1
    0.010703574   2   -2000001    1
    0.010061316   2    37   -1000037
    0.010061316   2   -37    1000037
    0.0099276183   2    1000024   -24
    0.0099276183   2   -1000024    24
    0.0079019837   2    1000025    35
    0.0071700413   2    37   -1000024
    0.0071700413   2   -37    1000024
    0.0066681272   2    1000016   -16
    0.0066681272   2   -1000016    16
    0.0066422845   2    1000015   -15
    0.0066422845   2   -1000015    15
    0.0062545947   2    1000022    25
    0.0056123961   2    1000022    35
    0.0055655066   2    1000025    23
    0.0040997308   2    1000023    36
    0.0031184592   2    1000022    23
    0.0020691687   2    1000025    36
    0.0019161447   2    1000003   -3
    0.0019161447   2   -1000003    3
    0.0019161145   2    1000001   -1
    0.0019161145   2   -1000001    1
    0.0019092136   2    1000004   -4
    0.0019092136   2   -1000004    4
    0.0019091794   2    1000002   -2
    0.0019091794   2   -1000002    2
    0.0018678736   2    1000006   -6
    0.0018678736   2   -1000006    6
    0.0018484831   2    2000005   -5
    0.0018484831   2   -2000005    5
    0.0017516251   2    1000022    36
    0.0012560915   3    1000023    6   -6
    0.0010411141   3    1000037    5   -6
    0.0010411141   3   -1000037   -5    6
    0.00080446644   3    1000025    6   -6
    0.00051316967   3    1000024    5   -6
    0.00051316967   3   -1000024   -5    6
    0.00041397776   3    1000022    6   -6

DECAY 1000021  80.380381
    0.35405889   2    1000005   -5
    0.35405889   2   -1000005    5
    0.061590505   2    2000004   -4
    0.061590505   2   -2000004    4
    0.061590484   2    2000002   -2
    0.061590484   2   -2000002    2
    0.0083132808   2    2000003   -3
    0.0083132808   2   -2000003    3
    0.0083114813   2    2000001   -1
    0.0083114813   2   -2000001    1
    0.0011089211   3    1000037    5   -6
    0.0011089211   3   -1000037   -5    6
    0.00085106739   3    1000024    5   -6
    0.00085106739   3   -1000024   -5    6
    0.00071631005   3    1000023    6   -6
    0.00063795329   3    1000025    6   -6
    0.00054765965   3    1000024    3   -4
    0.00054765965   3   -1000024   -3    4
    0.00054753444   3    1000024    1   -2
    0.00054753444   3   -1000024   -1    2
    0.00049916516   3    1000023    5   -5
    0.00046410454   3    1000022    5   -5
    0.00042347122   3    1000025    5   -5
    0.00038930729   3    1000022    6   -6
    0.00031914293   3    1000037    3   -4
    0.00031914293   3   -1000037   -3    4
    0.00031900297   3    1000037    1   -2
    0.00031900297   3   -1000037   -1    2
    0.00026999642   3    1000022    3   -3
    0.00026988907   3    1000022    1   -1
    0.000269867   3    1000022    4   -4
    0.00026984767   3    1000022    2   -2
    0.00016423798   3    1000025    4   -4
    0.00016422066   3    1000025    2   -2
    0.00016197708   3    1000025    3   -3
    0.00016185609   3    1000025    1   -1

DECAY 25  0.0035050039
    0.6260429   2   -5    5
    0.17409843   2   -24    24
    0.074018485   2    21    21
    0.071519134   2   -15    15
    0.030655574   2   -4    4
    0.019668219   2    23    23
    0.0023110849   2    22    22
    0.0012021829   2    22    23
    0.00024804907   2   -13    13
    0.00023512617   2   -3    3
    6.5010126e-07   2   -1    1
    1.5798671e-07   2   -2    2
    5.5764648e-09   2   -11    11

DECAY 35  81.240216
    0.8601351   2   -5    5
    0.10279394   2   -15    15
    0.010694063   2   -1000024    1000037
    0.010694063   2   -1000037    1000024
    0.0092793712   2    1000022    1000023
    0.0035384369   2   -1000024    1000024
    0.0017569754   2    1000022    1000022
    0.00035588701   2   -13    13
    0.00030464217   2   -3    3
    0.00029674243   2   -6    6
    0.00012896359   2    1000022    1000025
    1.8054464e-05   2    21    21
    2.4106439e-06   2    25    25
    8.4230191e-07   2   -1    1
    2.4568984e-07   2    23    23
    1.5068985e-07   2   -24    24
    8.0616173e-08   2    22    23
    2.0331345e-08   2    22    22
    7.9942913e-09   2   -11    11
    6.8017543e-09   2   -4    4
    3.5087288e-14   2   -2    2

DECAY 36  76.316372
    0.85903839   2   -5    5
    0.10266003   2   -15    15
    0.018668921   2   -1000024    1000024
    0.0091890868   2    1000022    1000022
    0.0031713   2   -1000024    1000037
    0.0031713   2   -1000037    1000024
    0.0020438989   2    1000022    1000025
    0.0010657446   2    1000022    1000023
    0.00035545845   2   -13    13
    0.00030422876   2   -3    3
    0.00029602507   2   -6    6
    3.3529154e-05   2    21    21
    8.4115857e-07   2   -1    1
    6.5486912e-07   2    22    23
    3.4862811e-07   2    23    25
    2.277748e-07   2    22    22
    7.9846432e-09   2   -11    11
    6.5721871e-09   2   -4    4
    2.7827493e-13   2    23    35
    3.3917421e-14   2   -2    2
    9.1844992e-39   2    25    25

DECAY 37  78.970505
    0.84657746   2   -5    6
    0.11599964   2   -15    16
    0.012330763   2    1000022    1000037
    0.011831009   2    1000024    1000025
    0.011271213   2    1000023    1000024
    0.0012623233   2   -5    4
    0.00041010065   2   -13    14
    0.00029266493   2   -3    4
    1.3625261e-05   2   -3    2
    9.0142972e-06   2   -5    2
    9.5788407e-07   2   -3    6
    8.1214143e-07   2   -1    2
    3.3802847e-07   2    24    25
    3.792535e-08   2   -1    4
    2.4408667e-08   2   -1    6
    9.5922969e-09   2   -11    12
    1.5440825e-09   2    1000022    1000024
    2.7168508e-12   2    24    35

DECAY 6  2.43
    1   2    5    24

DECAY 15 -1
