BLOCK DCINFO
   1   SDECAY/HDECAY
   2   1.3b /3.4

BLOCK SPINFO
   1   SOFTSUSY
   2   3.4.0

BLOCK MODSEL
   1   0

BLOCK SMINPUTS
   1    127.90897
   2    1.1663787e-05
   3    0.1184
   4    91.1876
   5    4.18
   6    173.2
   7    1.777

BLOCK MINPAR
   3    59.63

BLOCK EXTPAR
   0   -1
   1    694.25
   2   -3530.01
   3    3684.77
   11    3392
   12    2209.72
   13   -2954.42
   23    1293.35
   26    3971.23
   31    2516.17
   32    2516.17
   33    3269.13
   34    1076.8
   35    1076.8
   36    3052.9
   41    2741.75
   42    2741.75
   43    3889.88
   44    2236.27
   45    2236.27
   46    1190.85
   47    736.66
   48    736.66
   49    638.3

BLOCK MASS
   24    80.406093
   25    125.55374
   35    3971.2353
   36    3971.23
   37    3972.0628
   5    4.8187603
   1000001    2817.6734
   2000001    753.19134
   1000002    2816.6741
   2000002    2292.1007
   1000003    2817.6734
   2000003    753.19134
   1000004    2816.6741
   2000004    2292.1007
   1000005    706.86313
   2000005    3936.3012
   1000006    1261.815
   2000006    3940.3679
   1000011    2529.7461
   2000011    1086.1457
   1000012    2528.1897
   1000013    2529.7461
   2000013    1086.1457
   1000014    2528.1897
   1000015    3053.7037
   2000015    3282.4917
   1000016    3279.343
   1000021    3680.6391
   1000022    686.14112
   1000023   -1312.9963
   1000025    1316.5857
   1000035   -3528.029
   1000024    1313.2382
   1000037    3528.1937

BLOCK NMIX
   1   1    0.99851244
   1   2    0.00048269815
   1   3    0.048109755
   1   4   -0.025654076
   2   1   -0.015903095
   2   2   -0.024118836
   2   3    0.70707115
   2   4    0.70655202
   3   1   -0.052152977
   3   2    0.01146455
   3   3    0.70544724
   3   4   -0.70674806
   4   1   -0.00026772939
   4   2    0.99964324
   4   3    0.0089460674
   4   4    0.025165121

BLOCK UMIX
   1   1   -0.012669941
   1   2    0.99991973
   2   1   -0.99991973
   2   2   -0.012669941

BLOCK VMIX
   1   1    0.035627299
   1   2    0.99936515
   2   1    0.99936515
   2   2   -0.035627299

BLOCK STOPMIX
   1   1   -0.035455679
   1   2    0.99937125
   2   1   -0.99937125
   2   2   -0.035455679

BLOCK SBOTMIX
   1   1    0.0086245353
   1   2    0.99996281
   2   1   -0.99996281
   2   2    0.0086245353

BLOCK STAUMIX
   1   1    0.092327981
   1   2    0.99572865
   2   1   -0.99572865
   2   2    0.092327981

BLOCK ALPHA
      -0.017066982

BLOCK HMIX Q=  2154.396
   1    1305.8124
   2    58.712953
   3    243.7605
   4    15105592

BLOCK GAUGE Q=  2154.396
   1    0.36393668
   2    0.63406426
   3    1.0149345

BLOCK AU Q=  2154.396
   1   1    0
   2   2    0
   3   3    3392

BLOCK AD Q=  2154.396
   1   1    0
   2   2    0
   3   3    2209.72

BLOCK AE Q=  2154.396
   1   1    0
   2   2    0
   3   3   -2954.42

BLOCK YU Q=  2154.396
   1   1    0
   2   2    0
   3   3    0.83745648

BLOCK YD Q=  2154.396
   1   1    0
   2   2    0
   3   3    0.59521693

BLOCK YE Q=  2154.396
   1   1    0
   2   2    0
   3   3    0.56024285

BLOCK MSOFT Q=  2154.396
   1    694.25
   2   -3530.01
   3    3684.77
   21    14266425
   22   -1772875.8
   31    2516.17
   32    2516.17
   33    3269.13
   34    1076.8
   35    1076.8
   36    3052.9
   41    2741.75
   42    2741.75
   43    3889.88
   44    2236.27
   45    2236.27
   46    1190.85
   47    736.65997
   48    736.65997
   49    638.29996

BLOCK HIGGSBOUNDSINPUTHIGGSCOUPLINGSFERMIONS
       0, 3447.2108,3,36,15,15

BLOCK HIGGSBOUNDSINPUTHIGGSCOUPLINGSBOSONS
       0,4,36,21,21,23

DECAY 6  1.4152049
    1   2    5    24

DECAY 1000021  358.38205
    0.092583922   2    1000005   -5
    0.092583922   2   -1000005    5
    0.09229581   2    2000001   -1
    0.09229581   2   -2000001    1
    0.09229581   2    2000003   -3
    0.09229581   2   -2000003    3
    0.078483866   2    1000006   -6
    0.078483866   2   -1000006    6
    0.037679792   2    2000002   -2
    0.037679792   2   -2000002    2
    0.037679777   2    2000004   -4
    0.037679777   2   -2000004    4
    0.017262567   2    1000002   -2
    0.017262567   2   -1000002    2
    0.017262544   2    1000004   -4
    0.017262544   2   -1000004    4
    0.017227956   2    1000001   -1
    0.017227956   2   -1000001    1
    0.017227956   2    1000003   -3
    0.017227956   2   -1000003    3

DECAY 1000006  1.3085819
    0.99997228   2    1000022    6
    2.7722051e-05   2    1000005    24

DECAY 2000006  108.29443
    0.20238439   2    1000024    5
    0.19942462   2    1000023    6
    0.19824703   2    1000025    6
    0.16555147   2    1000006    25
    0.16354861   2    1000006    23
    0.024809869   2    1000021    6
    0.023501891   2    1000005    24
    0.011446744   2    1000037    5
    0.0057310253   2    1000022    6
    0.0053543547   2    1000035    6

DECAY 1000005  0.0012762213
    1   2    1000022    5

DECAY 2000005  107.58578
    0.40057497   2   -1000024    6
    0.31785007   2    1000006   -24
    0.10185813   2    1000023    5
    0.10136226   2    1000025    5
    0.031566757   2    1000021    5
    0.012918935   2    1000005    25
    0.01219572   2    1000005    23
    0.010547598   2   -1000037    6
    0.0056562931   2    1000035    5
    0.0054692661   2    1000022    5

DECAY 1000002  0.38485446
    0.94156432   2    1000022    2
    0.045245056   2    1000024    1
    0.013151363   2    1000023    2
    3.92662e-05   2    1000025    2

DECAY 2000002  4.460958
    0.99837925   2    1000022    2
    0.0014821961   2    1000025    2
    0.00013855311   2    1000023    2

DECAY 1000001  0.36727258
    0.9771269   2    1000022    1
    0.008569097   2    1000025    1
    0.0083036509   2    1000023    1
    0.006000348   2   -1000024    2

DECAY 2000001  0.013979785
    1   2    1000022    1

DECAY 1000004  0.38822334
    0.94173207   2    1000022    4
    0.045115163   2    1000024    3
    0.013113615   2    1000023    4
    3.9152545e-05   2    1000025    4

DECAY 2000004  4.4435007
    0.99838661   2    1000022    4
    0.0014754574   2    1000025    4
    0.00013792963   2    1000023    4

DECAY 1000003  0.370537
    0.97719521   2    1000022    3
    0.0085433839   2    1000025    3
    0.0082789352   2    1000023    3
    0.0059824745   2   -1000024    4

DECAY 2000003  0.012725738
    1   2    1000022    3

DECAY 1000011  2.8664475
    0.99667273   2    1000022    11
    0.0020824611   2    1000023    11
    0.00064010638   2    1000025    11
    0.00060469754   2   -1000024    12

DECAY 2000011  2.0608787
    1   2    1000022    11

DECAY 1000013  2.8664474
    0.99667273   2    1000022    13
    0.0020824611   2    1000023    13
    0.00064010638   2    1000025    13
    0.00060469754   2   -1000024    14

DECAY 2000013  2.0608786
    1   2    1000022    13

DECAY 1000015  39.694692
    0.36485929   2    1000022    15
    0.3171917   2   -1000024    16
    0.16015224   2    1000023    15
    0.15779676   2    1000025    15

DECAY 2000015  18.941599
    0.38266718   2    1000025    15
    0.38105319   2    1000023    15
    0.21212281   2    1000022    15
    0.010031346   2    1000015    25
    0.0094757406   2    1000015    23
    0.0046497407   2   -1000024    16

DECAY 1000012  2.8690938
    0.99159993   2    1000022    12
    0.0047697106   2    1000024    11
    0.003208016   2    1000025    12
    0.00042234551   2    1000023    12

DECAY 1000014  2.8690938
    0.99159993   2    1000022    14
    0.0047697106   2    1000024    13
    0.003208016   2    1000025    14
    0.00042234551   2    1000023    14

DECAY 1000016  18.763678
    0.7705218   2    1000024    15
    0.20956246   2    1000022    16
    0.018962151   2   -1000015   -24
    0.0008428459   2    1000025    16
    0.00011074643   2    1000023    16

DECAY 1000024  7.8586147
    0.87965646   2   -1000005    6
    0.099910502   2    1000022    24
    0.020433035   2    1000006   -5

DECAY 1000037  61.474971
    0.10948731   2    1000024    25
    0.1041363   2    1000024    23
    0.10048105   2    1000023    24
    0.10038477   2    1000025    24
    0.089997769   2    1000002   -1
    0.089997758   2    1000004   -3
    0.08987672   2   -1000001    2
    0.089876539   2   -1000003    4
    0.05426124   2    1000012   -11
    0.05426124   2    1000014   -13
    0.054180354   2   -1000011    12
    0.054180354   2   -1000013    14
    0.0042465248   2    1000016   -15
    0.0041202506   2   -2000015    16
    0.00033912104   2    1000022    24
    9.5191167e-05   2   -1000015    16
    7.045788e-05   2    1000006   -5
    7.0557519e-06   2   -1000005    6

DECAY 1000022 -1


DECAY 1000023  7.801561
    0.44876241   2    1000005   -5
    0.44876241   2   -1000005    5
    0.094102887   2    1000022    23
    0.0082578775   2    1000022    25
    1.7425439e-05   2    2000001   -1
    1.7425439e-05   2   -2000001    1
    1.7425439e-05   2    2000003   -3
    1.7425439e-05   2   -2000003    3
    1.1178018e-05   2    2000011   -11
    1.1178018e-05   2   -2000011    11
    1.1178018e-05   2    2000013   -13
    1.1178018e-05   2   -2000013    13

DECAY 1000025  7.8245968
    0.44821542   2    1000005   -5
    0.44821542   2   -1000005    5
    0.093069404   2    1000022    25
    0.0092542459   2    1000022    23
    0.00018833473   2    2000001   -1
    0.00018833473   2   -2000001    1
    0.00018833473   2    2000003   -3
    0.00018833473   2   -2000003    3
    0.00012304301   2    2000011   -11
    0.00012304301   2   -2000011    11
    0.00012304301   2    2000013   -13
    0.00012304301   2   -2000013    13

DECAY 1000035  61.494188
    0.10103663   2    1000024   -24
    0.10103663   2   -1000024    24
    0.089353738   2    1000023    25
    0.084359957   2    1000025    23
    0.044988866   2    1000002   -2
    0.044988866   2   -1000002    2
    0.044988776   2    1000004   -4
    0.044988776   2   -1000004    4
    0.044887702   2    1000001   -1
    0.044887702   2   -1000001    1
    0.044887702   2    1000003   -3
    0.044887702   2   -1000003    3
    0.027138965   2    1000012   -12
    0.027138965   2   -1000012    12
    0.027138965   2    1000014   -14
    0.027138965   2   -1000014    14
    0.027051806   2    1000011   -11
    0.027051806   2   -1000011    11
    0.027051806   2    1000013   -13
    0.027051806   2   -1000013    13
    0.019869699   2    1000025    25
    0.019191783   2    1000023    23
    0.0021212485   2    1000016   -16
    0.0021212485   2   -1000016    16
    0.0020556889   2    2000015   -15
    0.0020556889   2   -2000015    15
    0.00023523694   2    1000022    23
    0.00011874539   2    1000022    25
    4.7531219e-05   2    1000015   -15
    4.7531219e-05   2   -1000015    15
    3.6341338e-05   2    1000006   -6
    3.6341338e-05   2   -1000006    6
    3.3577757e-06   2    1000005   -5
    3.3577757e-06   2   -1000005    5
    8.8793514e-09   2    2000011   -11
    8.8793514e-09   2   -2000011    11
    8.8793514e-09   2    2000013   -13
    8.8793514e-09   2   -2000013    13
    4.7377808e-09   2    2000002   -2
    4.7377808e-09   2   -2000002    2
    4.7377783e-09   2    2000004   -4
    4.7377783e-09   2   -2000004    4
    3.1961471e-09   2    2000001   -1
    3.1961471e-09   2   -2000001    1
    3.1961471e-09   2    2000003   -3
    3.1961471e-09   2   -2000003    3

DECAY 25  0.0049788172
    0.66000571   2    5   -5
    0.17883241   2    24   -24
    0.065038848   2    21    21
    0.052438207   2   -15    15
    0.022572106   2    23    23
    0.017481642   2    4   -4
    0.001924688   2    22    22
    0.0013186288   2    22    23
    0.00020213048   2    3   -3
    0.00018562828   2   -13    13

DECAY 35  142.96123
    0.7503258   2    5   -5
    0.22300218   2   -15    15
    0.014494361   2    1000022    1000023
    0.010153356   2    1000022    1000025
    0.00082299385   2   -13    13
    0.00031607521   2    6   -6
    0.00025267815   2    1000006   -1000006
    0.00021501982   2    3   -3
    0.00012774174   2    1000024   -1000024
    0.00012604166   2    1000022    1000022
    7.3640586e-05   2    1000025    1000025
    3.2437654e-05   2    1000005   -1000005
    2.6987455e-05   2    1000023    1000025
    1.7145895e-05   2    21    21
    1.2539683e-05   2    1000023    1000023
    6.7480332e-07   2    25    25
    1.8904985e-07   2    24   -24
    9.4367938e-08   2    23    23
    8.7227436e-09   2    23    22
    7.6988785e-09   2    2000011   -2000011
    7.6988785e-09   2    2000013   -2000013
    5.441744e-09   2    22    22
    3.201449e-09   2    4   -4
    2.836481e-09   2    2000001   -2000001
    2.836481e-09   2    2000003   -2000003

DECAY 36  142.93813
    0.75045614   2    5   -5
    0.22303837   2   -15    15
    0.014216514   2    1000022    1000025
    0.010370401   2    1000022    1000023
    0.00082312673   2   -13    13
    0.00031627986   2    6   -6
    0.00022166055   2    1000024   -1000024
    0.00021505908   2    3   -3
    0.00014845835   2    1000022    1000022
    0.00014073595   2    1000025    1000025
    2.0818303e-05   2    1000023    1000023
    1.9270257e-05   2    21    21
    1.2947219e-05   2    1000023    1000025
    1.9185142e-07   2    23    25
    1.4571406e-08   2    23    22
    1.0514234e-08   2    22    22
    3.2178964e-09   2    4   -4

DECAY 37  105.81829
    0.6592335   2    6   -5
    0.30134086   2   -15    16
    0.033691438   2    1000024    1000022
    0.0031629362   2    1000006   -1000005
    0.0011121033   2   -13    14
    0.001108247   2    4   -5
    0.00028622661   2    4   -3
    3.7220997e-05   2    1000024    1000023
    1.4541578e-05   2    2   -3
    1.1082462e-05   2    2   -5
    1.5890876e-06   2    1000024    1000025
    2.5940582e-07   2    24    25
    4.9817462e-15   2    24    36

DECAY 5 -1


DECAY 15 -1


DECAY 23  2.4952


DECAY 24  2.085
