BLOCK SPINFO
   1   SPheno
   2   v4.0.5be

BLOCK SPHENOINFO
   1   2
   2   2

BLOCK MODSEL
   1   0

BLOCK MINPAR
   3    28.15589
   4   -1

BLOCK EXTPAR
   0    3638.9896
   1   -453.5622
   2   -846.19017
   3    4095.9191
   11   -7734.8268
   12    6574.9523
   13    4126.8074
   23   -4811.0104
   25    27.290021
   26    4987.6764
   31    543.72684
   32    543.72684
   33    4428.8155
   34    4785.2914
   35    4785.2914
   36    1383.3845
   41    4187.597
   42    4187.597
   43    2728.0882
   44    174.67541
   45    174.67541
   46    4603.537
   47    4002.301
   48    4002.301
   49    4460.0028

BLOCK SMINPUTS
   1    127.90897
   2    1.1663787e-05
   3    0.1184
   4    91.1876
   5    4.18
   6    173.2
   7    1.777
   8    0
   11    0.00051099893
   12    0
   13    0.10565837
   14    0
   21    0.005
   22    0.0025
   23    0.095
   24    1.27

BLOCK GAUGE Q=  3638.9896
   1    0.35536298
   2    0.66519887
   3    1.219778

BLOCK YU Q=  3638.9896
   1   1    8.3899993e-06
   2   2    0.0042621196
   3   3    1.0135793

BLOCK YD Q=  3638.9896
   1   1    0.00046009344
   2   2    0.0087417754
   3   3    0.45626852

BLOCK YE Q=  3638.9896
   1   1    8.028967e-05
   2   2    0.016601357
   3   3    0.27920752

BLOCK AU Q=  3638.9896
   1   1    0
   2   2    0
   3   3   -7734.8269

BLOCK AD Q=  3638.9896
   1   1    0
   2   2    0
   3   3    6574.9524

BLOCK AE Q=  3638.9896
   1   1    0
   2   2    0
   3   3    4126.8074

BLOCK MSOFT Q=  3638.9896
   1   -453.5622
   2   -846.19017
   3    4095.9191
   21    1797530.4
   22   -22985812
   31    543.72684
   32    543.72684
   33    4428.8155
   34    4785.2914
   35    4785.2914
   36    1383.3845
   41    4187.597
   42    4187.597
   43    2728.0882
   44    174.67541
   45    174.67541
   46    4603.537
   47    4002.301
   48    4002.301
   49    4460.0028

BLOCK MASS
   6    173.2
   23    91.1876
   24    80.429995
   15    1.777
   25    126.12733
   35    4987.2021
   36    4987.6764
   37    4988.6793
   1000001    4324.7657
   2000001    4132.3711
   1000002    4324.0372
   2000002    713.15429
   1000003    4324.7663
   2000003    4132.3604
   1000004    4324.0334
   2000004    713.15652
   1000005    2880.5643
   2000005    4556.8811
   1000006    2870.0768
   2000006    4613.8993
   1000011    587.67659
   2000011    4784.9218
   1000012    582.10792
   1000013    587.65706
   2000013    4784.91
   1000014    582.09546
   1000015    1366.4816
   2000015    4438.3254
   1000016    4436.5295
   1000021    4292.5561
   1000022   -443.54507
   1000023   -887.34923
   1000025    4785.5431
   1000035   -4785.9719
   1000024    887.47937
   1000037    4786.4378

BLOCK ALPHA
      -0.035536896

BLOCK HMIX Q=  3638.9896
   1   -4811.0104
   2    27.290021
   3    243.0415
   4    24876916

BLOCK STOPMIX
   1   1    0.9967193
   1   2    0.080935973
   2   1   -0.080935973
   2   2    0.9967193

BLOCK SBOTMIX
   1   1   -0.9995225
   1   2    0.030899351
   2   1   -0.030899351
   2   2   -0.9995225

BLOCK STAUMIX
   1   1   -0.013338293
   1   2    0.99991104
   2   1   -0.99991104
   2   2   -0.013338293

BLOCK NMIX
   1   1    0.9999564
   1   2   -0.00021867178
   1   3   -0.0092668814
   1   4    0.0011303835
   2   1    0.00037809017
   2   2    0.99985309
   2   3    0.016781735
   2   4   -0.0034675648
   3   1    0.005750761
   3   2   -0.0094166422
   3   3    0.70702015
   3   4    0.70710732
   4   1    0.0073475486
   4   2   -0.014320357
   4   3    0.70693353
   4   4   -0.70709683

BLOCK UMIX
   1   1   -0.99971915
   1   2   -0.023698338
   2   1   -0.023698338
   2   2    0.99971915

BLOCK VMIX
   1   1    0.99998794
   1   2    0.0049107142
   2   1    0.0049107142
   2   2   -0.99998794

BLOCK HIGGSBOUNDSINPUTHIGGSCOUPLINGSFERMIONS
       0, 744.74526,3,36,15,15

BLOCK HIGGSBOUNDSINPUTHIGGSCOUPLINGSBOSONS
       0,4,36,21,21,23

BLOCK SPHENOLOWENERGY
   1    0.00032767331
   2    1.5897093e-06
   3    3.5262099e-05
   4    2.3873335e-15
   5    1.0198503e-10
   6    2.1399369e-08
   7    8.2237476e-14
   8    3.5132106e-09
   9    7.4686102e-07
   10    9.651295e-05
   11    0.99694183
   12    0.54201508
   13    19.36176
   14    0
   15    0
   16    0.0021571689
   17    2.281657e-15
   18    2.4809759e-11
   19    8.2923535e-11
   20    2.9307549e-15
   21    1.2531786e-10
   22    7.5829523e-09
   23    0
   24    0
   25    0
   26    0
   27    0
   28    0
   29    0
   30    0
   31    0
   39    6.0448713e-05
   40    0
   41    0
   42    0

BLOCK FWCOEF Q=  160
   305   4422   0   0   -0.18881911
   305   4422   0   2   -0.19731447
   305   4322   0   2   -0.00014654828
   305   6421   0   0   -0.095227835
   305   6421   0   2   -0.10204695
   305   6321   0   2   -0.00011632917
   3051111   4133   0   0    1.6232881
   3051111   4133   0   2    1.6232717
   3051111   4233   0   2    0.00016936634
   3051111   4137   0   0   -4.4459802
   3051111   4137   0   2   -4.4451878
   3051111   4237   0   2   -0.0012602516
   3051313   4133   0   0    1.6232881
   3051313   4133   0   2    1.6232712
   3051313   4233   0   2    0.0001693663
   3051313   4137   0   0   -4.4459802
   3051313   4137   0   2   -4.4451883
   3051313   4237   0   2   -0.0012602518
   3051212   4137   0   0    1.5053501
   3051212   4137   0   2    1.5052025
   3051212   4237   0   2    0.00027272267
   3051414   4137   0   0    1.5053501
   3051414   4137   0   2    1.5052025
   3051414   4237   0   2    0.00027272267
   3051616   4137   0   0    1.5053501
   3051616   4137   0   2    1.5052014
   3051616   4237   0   2    0.00027272334

BLOCK IMFWCOEF Q=  160
   305   4422   0   0    3.8568715e-07
   305   4422   0   2    2.0975123e-06
   305   4322   0   2   -1.616244e-06
   305   6421   0   0    3.3036655e-07
   305   6421   0   2    1.7708109e-05
   305   6321   0   2   -7.3601674e-07
   3051111   4133   0   2   -1.8535472e-06
   3051111   4233   0   2    3.1797769e-06
   3051111   4137   0   2    1.1018289e-05
   3051111   4237   0   2   -2.3660693e-05
   3051313   4133   0   2   -1.8536626e-06
   3051313   4233   0   2    3.1797765e-06
   3051313   4137   0   2    1.1018412e-05
   3051313   4237   0   2   -2.3660695e-05
   3051212   4137   0   2   -1.9530187e-06
   3051212   4237   0   2    5.1202527e-06
   3051414   4137   0   2   -1.9530234e-06
   3051414   4237   0   2    5.1202527e-06
   3051616   4137   0   2   -1.9737867e-06
   3051616   4237   0   2    5.1202516e-06

DECAY 23  2.4952


DECAY 24  2.085


DECAY 1000011  0.13660224
    0.99999993   2    1000022    11

DECAY 2000011  23.629026
    0.99999985   2    1000022    11

DECAY 1000013  0.13657357
    0.99999993   2    1000022    13

DECAY 2000013  23.642024
    0.99944763   2    1000022    13
    0.00055136159   2    1000013    25

DECAY 1000015  5.4980377
    0.99940492   2    1000022    15
    0.00039643668   2   -1000024    16
    0.00019863853   2    1000023    15

DECAY 2000015  67.227674
    0.53508808   2   -1000024    16
    0.26775773   2    1000023    15
    0.081238798   2    1000022    15
    0.058274759   2    1000015    23
    0.057640636   2    1000015    25

DECAY 1000012  0.12872002
    1   2    1000022    12

DECAY 1000014  0.12870201
    1   2    1000022    14

DECAY 1000016  67.272615
    0.53505378   2    1000024    15
    0.26732776   2    1000023    16
    0.11636501   2    1000015    24
    0.081253454   2    1000022    16

DECAY 2000001  2.2540248
    0.99999986   2    1000022    1

DECAY 1000001  53.039283
    0.6582409   2   -1000024    2
    0.3291728   2    1000023    1
    0.011168903   2    1000022    1
    0.001417384   2    1000021    1

DECAY 2000003  2.2540241
    0.99999773   2    1000022    3

DECAY 1000003  53.039553
    0.6582375   2   -1000024    4
    0.32917121   2    1000023    3
    0.011168858   2    1000022    3
    0.0014174039   2    1000021    3

DECAY 1000005  31.342602
    0.65619614   2   -1000024    6
    0.33136656   2    1000023    5
    0.012437295   2    1000022    5

DECAY 2000005  33.941286
    0.39368417   2    1000006   -24
    0.20312618   2    1000005    25
    0.19489502   2    1000005    23
    0.13458618   2    1000021    5
    0.073357501   2    1000022    5
    0.00023378134   2   -1000024    6
    0.00011716668   2    1000023    5

DECAY 2000002  0.59874787
    1   2    1000022    2

DECAY 1000002  53.046038
    0.65838059   2    1000024    1
    0.32915433   2    1000023    2
    0.011110807   2    1000022    2
    0.0013542732   2    1000021    2

DECAY 2000004  0.59874219
    1   2    1000022    4

DECAY 1000004  53.045894
    0.65838175   2    1000024    3
    0.32915481   2    1000023    4
    0.011110824   2    1000022    4
    0.0013525964   2    1000021    4

DECAY 1000006  36.266446
    0.5655004   2    1000024    5
    0.28033966   2    1000023    6
    0.13506931   2    1000023    4
    0.011500326   2    1000022    6
    0.0049772604   2    1000022    4
    0.0026127216   3    1000022    24    5

DECAY 2000006  239.73754
    0.41312837   2    1000005    24
    0.31419628   2    1000006    25
    0.20808901   2    1000006    23
    0.041812425   2    1000022    6
    0.020934248   2    1000021    6
    0.0012278517   2    1000024    5
    0.00061180407   2    1000023    6

DECAY 1000024  4.9983706
    0.2537263   2    1000014   -13
    0.2537097   2    1000012   -11
    0.2462908   2   -1000013    14
    0.24626525   2   -1000011    12

DECAY 1000037  111.94428
    0.53128859   2   -1000005    6
    0.111875   2    1000006   -5
    0.096177266   2    1000024    25
    0.087810845   2    1000024    23
    0.08764781   2    1000023    24
    0.028242245   2    1000022    24
    0.027908909   2   -1000015    16
    0.011532882   3    1000024    6   -6
    0.0065418908   2    2000006   -5
    0.0065082559   3    1000023   -5    6
    0.0019132929   3    1000022   -5    6
    0.0013951408   2   -2000005    6
    0.00065753943   2    1000016   -15
    0.00011811654   2    1000014   -13
    0.00010253138   2   -1000013    14
    0.00010253117   2   -1000011    12

DECAY 1000022 -1


DECAY 1000023  4.995337
    0.12677981   2    1000014   -14
    0.12677981   2   -1000014    14
    0.12677161   2    1000012   -12
    0.12677161   2   -1000012    12
    0.12322843   2    1000013   -13
    0.12322843   2   -1000013    13
    0.12321567   2    1000011   -11
    0.12321567   2   -1000011    11

DECAY 1000025  115.83591
    0.2631038   2    1000006   -6
    0.2631038   2   -1000006    6
    0.085109923   2    1000024   -24
    0.085109923   2   -1000024    24
    0.059428376   2    1000023    23
    0.057201724   2    1000023    25
    0.052118646   2    1000005   -5
    0.052118646   2   -1000005    5
    0.016953109   2    1000022    23
    0.014260263   2    1000022    25
    0.013501443   2    1000015   -15
    0.013501443   2   -1000015    15
    0.0067335239   3    1000024    5   -6
    0.0067335239   3   -1000024   -5    6
    0.0052775534   3    1000023    6   -6
    0.0024286994   3    1000022    6   -6
    0.0011188441   2    2000005   -5
    0.0011188441   2   -2000005    5
    0.00031360321   2    2000015   -15
    0.00031360321   2   -2000015    15
    0.0001231275   3    1000021    6   -6

DECAY 1000035  112.97118
    0.27156036   2    1000006   -6
    0.27156036   2   -1000006    6
    0.087323423   2    1000024   -24
    0.087323423   2   -1000024    24
    0.067596444   2    1000023    25
    0.053432692   2    1000005   -5
    0.053432692   2   -1000005    5
    0.026340595   2    1000023    23
    0.016853722   2    1000022    25
    0.013839002   2    1000015   -15
    0.013839002   2   -1000015    15
    0.010644727   2    1000022    23
    0.0070368785   3    1000024    5   -6
    0.0070368785   3   -1000024   -5    6
    0.0058487282   3    1000023    6   -6
    0.0027874802   3    1000022    6   -6
    0.0011516729   2    2000005   -5
    0.0011516729   2   -2000005    5
    0.0003224892   2    2000015   -15
    0.0003224892   2   -2000015    15
    0.00015434157   3    1000021    6   -6

DECAY 1000021  336.97224
    0.17826742   2    2000002   -2
    0.17826742   2   -2000002    2
    0.17826736   2    2000004   -4
    0.17826736   2   -2000004    4
    0.056976274   2    1000005   -5
    0.056976274   2   -1000005    5
    0.056020352   2    1000006   -6
    0.056020352   2   -1000006    6
    0.027331176   2    1000006   -4
    0.027331176   2   -1000006    4
    0.0010114682   2    2000003   -3
    0.0010114682   2   -2000003    3
    0.0010113356   2    2000001   -1
    0.0010113356   2   -2000001    1
    0.00031761699   3    1000024    3   -4
    0.00031761699   3   -1000024   -3    4
    0.00031761441   3    1000024    1   -2
    0.00031761441   3   -1000024   -1    2
    0.00020931686   3    1000023    4   -4
    0.0002093135   3    1000023    2   -2
    0.00020859395   3    1000023    1   -1
    0.00020859346   3    1000023    3   -3

DECAY 25  0.0040052036
    0.55564298   2   -5    5
    0.24888642   2   -24    24
    0.068662008   2    21    21
    0.064053182   2   -15    15
    0.030800139   2    23    23
    0.027540075   2   -4    4
    0.0023876057   2    22    22
    0.0015958259   2    22    23
    0.00022211459   2   -13    13
    0.00020893141   2   -3    3
    5.7767518e-07   2   -1    1
    1.4191792e-07   2   -2    2
    4.9933696e-09   2   -11    11

DECAY 35  74.733126
    0.8861219   2   -5    5
    0.10794618   2   -15    15
    0.0045272369   2   -6    6
    0.00042030258   2   -3    3
    0.00040057024   2   -13    13
    0.00026879778   2   -1000024    1000024
    0.00013426355   2    1000023    1000023
    8.1323033e-05   2    1000022    1000023
    2.742237e-05   2   -2000004    1000004
    2.742237e-05   2   -1000004    2000004
    2.240953e-05   2   -1000015    1000015
    1.2107032e-05   2    1000022    1000022
    3.5617903e-06   2    25    25
    3.2682208e-06   2    21    21
    1.1626686e-06   2   -1    1
    4.3758487e-07   2   -1000004    1000004
    4.3750727e-07   2   -1000002    1000002
    2.4465504e-07   2    23    23
    1.2626406e-07   2   -4    4
    8.8695254e-08   2   -1000011    1000011
    8.800627e-08   2   -1000013    1000013
    4.0575293e-08   2   -24    24
    1.635165e-08   2    22    23
    8.9951933e-09   2   -11    11
    4.5228272e-09   2    22    22
    1.0626206e-10   2   -2000002    1000002
    1.0626206e-10   2   -1000002    2000002
    6.5088502e-13   2   -2    2

DECAY 36  71.214155
    0.88541967   2   -5    5
    0.10785154   2   -15    15
    0.0052400812   2   -6    6
    0.00041997112   2   -3    3
    0.00040022228   2   -13    13
    0.00032844969   2   -1000024    1000024
    0.00016406065   2    1000023    1000023
    9.3227525e-05   2    1000022    1000023
    2.8788674e-05   2   -2000004    1000004
    2.8788674e-05   2   -1000004    2000004
    1.3385048e-05   2    1000022    1000022
    9.7122151e-06   2    21    21
    1.161756e-06   2   -1    1
    7.0920153e-07   2    23    25
    1.3955257e-07   2   -4    4
    5.4681958e-08   2    22    23
    2.8470508e-08   2    22    22
    8.9873726e-09   2   -11    11
    1.1155651e-10   2   -2000002    1000002
    1.1155651e-10   2   -1000002    2000002
    7.1938812e-13   2   -2    2
    1.5442762e-35   2    25    25

DECAY 37  67.158974
    0.87985563   2   -5    6
    0.11776478   2   -15    16
    0.0013015284   2   -5    4
    0.00042572796   2   -3    4
    0.00041634037   2   -13    14
    0.0001892292   2    1000022    1000024
    2.0049145e-05   2   -3    2
    9.2942537e-06   2   -5    2
    8.2947437e-06   2   -2000003    1000004
    5.6387333e-06   2   -3    6
    1.1821045e-06   2   -1    2
    7.5264754e-07   2    24    25
    4.437923e-07   2   -2000001    1000004
    3.8772163e-07   2   -1000011    1000012
    3.8664623e-07   2   -1000013    1000014
    2.294253e-07   2   -1    6
    5.760045e-08   2   -1    4
    3.4699971e-08   2   -1000005    1000004
    9.7382447e-09   2   -11    12
    3.21289e-10   2   -1000003    1000004
    4.3583483e-11   2   -2000001    1000002
    4.0731912e-11   2    1000023    1000024
    2.3304564e-12   2   -2000003    1000002
    2.0086732e-12   2   -2000005    1000004
    1.4264614e-13   2    24    35
    4.7654252e-14   2   -1000001    1000004
    2.0572878e-14   2    24    36
    1.2997051e-15   2   -1000005    1000002
    9.0267967e-17   2   -1000003    1000002
    4.6799761e-18   2   -1000001    1000002
    7.5236184e-20   2   -2000005    1000002

DECAY 6  2.43
    1   2    5    24

DECAY 15 -1
