BLOCK SPINFO
   1   SPheno
   2   v4.0.5be

BLOCK SPHENOINFO
   1   2
   2   2

BLOCK MODSEL
   1   0

BLOCK MINPAR
   3    30.797769
   4   -1

BLOCK EXTPAR
   0    2497.5456
   1   -4429.3023
   2   -3716.431
   3    3565.8949
   11   -6230.3426
   12    2644.2356
   13    7902.5118
   23   -826.50715
   25    29.913585
   26    1380.0189
   31    2801.9165
   32    2801.9165
   33    4490.9021
   34    3094.0252
   35    3094.0252
   36    3429.6664
   41    2425.6303
   42    2425.6303
   43    1649.1116
   44    4691.3112
   45    4691.3112
   46    3651.3206
   47    2206.5405
   48    2206.5405
   49    1352.7988

BLOCK SMINPUTS
   1    127.90897
   2    1.1663787e-05
   3    0.1184
   4    91.1876
   5    4.18
   6    173.2
   7    1.777
   8    0
   11    0.00051099893
   12    0
   13    0.10565837
   14    0
   21    0.005
   22    0.0025
   23    0.095
   24    1.27

BLOCK GAUGE Q=  2497.5456
   1    0.35536298
   2    0.66519887
   3    1.219778

BLOCK YU Q=  2497.5456
   1   1    8.3890558e-06
   2   2    0.0042616403
   3   3    1.0134653

BLOCK YD Q=  2497.5456
   1   1    0.00050426844
   2   2    0.0095811004
   3   3    0.50007628

BLOCK YE Q=  2497.5456
   1   1    8.7998531e-05
   2   2    0.018195305
   3   3    0.3060151

BLOCK AU Q=  2497.5456
   1   1    0
   2   2    0
   3   3   -6230.3436

BLOCK AD Q=  2497.5456
   1   1    0
   2   2    0
   3   3    2644.2362

BLOCK AE Q=  2497.5456
   1   1    0
   2   2    0
   3   3    7902.5117

BLOCK MSOFT Q=  2497.5456
   1   -4429.3023
   2   -3716.431
   3    3565.8949
   21    1207630
   22   -693843.56
   31    2801.9165
   32    2801.9165
   33    4490.9021
   34    3094.0252
   35    3094.0252
   36    3429.6664
   41    2425.6303
   42    2425.6303
   43    1649.1116
   44    4691.3112
   45    4691.3112
   46    3651.3206
   47    2206.5405
   48    2206.5405
   49    1352.7988

BLOCK MASS
   6    173.2
   23    91.1876
   24    80.429995
   15    1.777
   25    124.9773
   35    1379.9691
   36    1380.0189
   37    1382.7103
   1000001    2544.9419
   2000001    2301.7734
   1000002    2543.7049
   2000002    4755.7777
   1000003    2544.9398
   2000003    2301.7684
   1000004    2543.7026
   2000004    4755.7774
   1000005    1426.6441
   2000005    1733.2159
   1000006    1712.6061
   2000006    3642.2467
   1000011    2826.3778
   2000011    3092.6439
   1000012    2824.8604
   1000013    2826.3684
   2000013    3092.6272
   1000014    2824.8514
   1000015    3428.7251
   2000015    4501.5885
   1000016    4500.4826
   1000021    3616.0007
   1000022   -838.64195
   1000023    840.40858
   1000025   -3668.5627
   1000035   -4404.3538
   1000024    839.73693
   1000037    3668.6264

BLOCK ALPHA
      -0.032860418

BLOCK HMIX Q=  2497.5456
   1   -826.50715
   2    29.913585
   3    243.44103
   4    1904452.3

BLOCK STOPMIX
   1   1    0.99623026
   1   2    0.086748274
   2   1   -0.086748274
   2   2    0.99623026

BLOCK SBOTMIX
   1   1   -0.074324794
   1   2    0.99723409
   2   1   -0.99723409
   2   2   -0.074324794

BLOCK STAUMIX
   1   1   -0.0067826945
   1   2    0.999977
   2   1   -0.999977
   2   2   -0.0067826945

BLOCK NMIX
   1   1   -0.0088442953
   1   2    0.019845162
   1   3    0.70739529
   1   4   -0.70648414
   2   1    0.0056205327
   2   2   -0.011823331
   2   3    0.70679161
   2   4    0.70730067
   3   1    0.0014537165
   3   2    0.99973242
   3   3   -0.005680486
   3   4    0.022376505
   4   1    0.99994404
   4   2   -0.0012114254
   4   3    0.0022922537
   4   4   -0.010256864

BLOCK UMIX
   1   1   -0.0080401828
   1   2   -0.99996768
   2   1   -0.99996768
   2   2    0.0080401828

BLOCK VMIX
   1   1    0.031670583
   1   2    0.99949836
   2   1    0.99949836
   2   2   -0.031670583

BLOCK HIGGSBOUNDSINPUTHIGGSCOUPLINGSFERMIONS
       0, 894.82256,3,36,15,15

BLOCK HIGGSBOUNDSINPUTHIGGSCOUPLINGSBOSONS
       0,4,36,21,21,23

BLOCK SPHENOLOWENERGY
   1    0.0003600071
   2    1.5877054e-06
   3    3.5258817e-05
   4    1.7370992e-15
   5    7.4205459e-11
   6    1.5449354e-08
   7    6.1092043e-14
   8    2.6098112e-09
   9    5.5124526e-07
   10    9.311756e-05
   11    0.96186875
   12    0.54211214
   13    19.337366
   14    0
   15    0
   16    0.002158549
   17    2.2816742e-15
   18    2.4812202e-11
   19    8.2922506e-11
   20    9.7890588e-16
   21    4.1850596e-11
   22    7.9186198e-09
   23    0
   24    0
   25    0
   26    0
   27    0
   28    0
   29    0
   30    0
   31    0
   39    6.3707049e-05
   40    0
   41    0
   42    0

BLOCK FWCOEF Q=  160
   305   4422   0   0   -0.18881911
   305   4422   0   2   -0.23153895
   305   4322   0   2   -0.00078049389
   305   6421   0   0   -0.095227835
   305   6421   0   2   -0.13105782
   305   6321   0   2   -0.00067053785
   3051111   4133   0   0    1.6101302
   3051111   4133   0   2    1.6104976
   3051111   4233   0   2    0.00028011819
   3051111   4137   0   0   -4.4328223
   3051111   4137   0   2   -4.4318499
   3051111   4237   0   2   -0.0021233845
   3051313   4133   0   0    1.6101302
   3051313   4133   0   2    1.6104971
   3051313   4233   0   2    0.00028011634
   3051313   4137   0   0   -4.4328223
   3051313   4137   0   2   -4.4318504
   3051313   4237   0   2   -0.0021233836
   3051212   4137   0   0    1.5053501
   3051212   4137   0   2    1.5051394
   3051212   4237   0   2    0.00046087113
   3051414   4137   0   0    1.5053501
   3051414   4137   0   2    1.5051394
   3051414   4237   0   2    0.00046087148
   3051616   4137   0   0    1.5053501
   3051616   4137   0   2    1.50514
   3051616   4237   0   2    0.000460971

BLOCK IMFWCOEF Q=  160
   305   4422   0   0    3.8574925e-07
   305   4422   0   2    1.1673868e-06
   305   4322   0   2   -6.2729232e-06
   305   6421   0   0    3.3041974e-07
   305   6421   0   2    3.5687743e-05
   305   6321   0   2   -2.6320223e-06
   3051111   4133   0   2   -1.97346e-06
   3051111   4233   0   2    6.3892787e-06
   3051111   4137   0   2    1.8510022e-05
   3051111   4237   0   2   -4.8440647e-05
   3051313   4133   0   2   -1.973454e-06
   3051313   4233   0   2    6.3892749e-06
   3051313   4137   0   2    1.8510029e-05
   3051313   4237   0   2   -4.844066e-05
   3051212   4137   0   2   -4.0111144e-06
   3051212   4237   0   2    1.0513825e-05
   3051414   4137   0   2   -4.0111147e-06
   3051414   4237   0   2    1.0513825e-05
   3051616   4137   0   2   -4.0004484e-06
   3051616   4237   0   2    1.0513825e-05

DECAY 23  2.4952


DECAY 24  2.085


DECAY 1000011  0.0045070898
    0.52486021   2    1000022    11
    0.29663951   2   -1000024    12
    0.17850027   2    1000023    11

DECAY 2000011  0.001465216
    0.71220098   2    1000022    11
    0.28751836   2    1000023    11
    0.00027897107   2   -1000024    12

DECAY 1000013  0.019981883
    0.50610396   2    1000022    13
    0.4269867   2    1000023    13
    0.066909342   2   -1000024    14

DECAY 2000013  0.036522683
    0.47847902   2   -1000024    14
    0.26811917   2    1000022    13
    0.25050772   2    1000023    13
    0.002894083   2    1000013    25

DECAY 1000015  11.292259
    0.49991356   2   -1000024    16
    0.2505026   2    1000022    15
    0.24958383   2    1000023    15

DECAY 2000015  14.741337
    0.30317267   2   -1000037    16
    0.26536561   2    1000022    15
    0.26494751   2    1000023    15
    0.15177084   2    1000025    15
    0.0070889591   2    1000015    23
    0.0068961132   2    1000015    25
    0.00069767823   2    1000035    15

DECAY 1000012  0.029241378
    0.70891084   2    1000024    11
    0.21343738   2    1000022    12
    0.077651779   2    1000023    12

DECAY 1000014  0.04470165
    0.80958621   2    1000024    13
    0.13961846   2    1000022    14
    0.050795329   2    1000023    14

DECAY 1000016  14.762219
    0.53157015   2    1000024    15
    0.30180414   2    1000037    15
    0.15075525   2    1000025    16
    0.014153881   2    1000015    24
    0.00075478351   2    1000022    16
    0.00068705782   2    1000035    16
    0.0002747424   2    1000023    16

DECAY 2000001  0.00012360032
    0.6471502   2    1000022    1
    0.28205331   2    1000023    1
    0.070796492   2   -1000024    2

DECAY 1000001  0.0067066536
    0.60970047   2    1000022    1
    0.2188033   2    1000023    1
    0.17148045   2   -1000024    2

DECAY 2000003  0.0064245072
    0.49169609   2   -1000024    4
    0.25803898   2    1000022    3
    0.25026493   2    1000023    3

DECAY 1000003  0.01115444
    0.53183725   2    1000022    3
    0.29630565   2    1000023    3
    0.16843189   2   -1000024    4
    0.0034252069   2    2000003    25

DECAY 1000005  5.7236938
    0.46915909   2   -1000024    6
    0.2672793   2    1000022    5
    0.26356161   2    1000023    5

DECAY 2000005  25.755911
    0.77982488   2   -1000024    6
    0.098105098   2    1000023    5
    0.097842413   2    1000022    5
    0.013215351   2    1000005    25
    0.011012256   2    1000005    23

DECAY 1000002  0.021851265
    0.81650089   2    1000024    1
    0.13587252   2    1000022    2
    0.047626592   2    1000023    2

DECAY 2000002  67.030762
    0.99677439   2    1000021    2
    0.0032092281   2    1000035    2

DECAY 1000004  0.026258453
    0.81947348   2    1000024    3
    0.1269783   2    1000022    4
    0.053548224   2    1000023    4

DECAY 2000004  67.033942
    0.99672563   2    1000021    4
    0.003209039   2    1000035    4

DECAY 1000006  24.555536
    0.38770502   2    1000022    6
    0.38739359   2    1000023    6
    0.20242797   2    1000024    5
    0.019316149   2    1000005    24
    0.0031523827   3    1000022    24    5

DECAY 2000006  392.86479
    0.28901136   2    2000005    24
    0.20677896   2    1000006    25
    0.16930228   2    1000024    5
    0.14711386   2    1000006    23
    0.085013732   2    1000023    6
    0.084957464   2    1000022    6
    0.0078061527   2    2000005    37
    0.004017259   2    1000006    36
    0.0038705764   2    1000006    35
    0.0021056993   2    1000005    24

DECAY 1000024  3.6733819e-12
    0.60538632   3    1000022   -1    2
    0.20182172   3    1000022   -11    12
    0.19279196   3    1000022   -13    14

DECAY 1000037  177.0428
    0.1673298   2    1000006   -5
    0.16252173   2   -2000005    6
    0.073697878   2    1000004   -3
    0.073697628   2    1000002   -1
    0.073634189   2   -1000003    4
    0.073634028   2   -1000001    2
    0.046602465   2    1000024    25
    0.043104946   2    1000023    24
    0.043059931   2    1000022    24
    0.043038067   2    1000024    23
    0.033796881   2    37    1000022
    0.031592526   2    1000024    35
    0.031587969   2    1000024    36
    0.031531191   2    37    1000023
    0.015100336   2    1000014   -13
    0.015100058   2    1000012   -11
    0.015067262   2   -1000013    14
    0.015066966   2   -1000011    12
    0.0044778734   3    1000024    6   -6
    0.0028052289   3    1000023   -5    6
    0.0026364385   3    1000022   -5    6
    0.00091036746   2   -1000005    6

DECAY 1000022 -1


DECAY 1000023  1.4297452e-09
    0.97115369   2    1000022    22
    0.0084839629   3    1000022    12   -12
    0.0063435587   3    1000022    1   -1
    0.0061345455   3    1000022    3   -3
    0.0049477349   3    1000022    2   -2
    0.0014316955   3    1000022    11   -11
    0.0013581679   3    1000022    13   -13

DECAY 1000025  181.7907
    0.082551786   2    1000006   -6
    0.082551786   2   -1000006    6
    0.07994375   2    2000005   -5
    0.07994375   2   -2000005    5
    0.042047335   2    1000024   -24
    0.042047335   2   -1000024    24
    0.035919018   2    1000004   -4
    0.035919018   2   -1000004    4
    0.03591889   2    1000002   -2
    0.03591889   2   -1000002    2
    0.035817205   2    1000003   -3
    0.035817205   2   -1000003    3
    0.035817093   2    1000001   -1
    0.035817093   2   -1000001    1
    0.033603245   2    1000022    25
    0.032916477   2    37   -1000024
    0.032916477   2   -37    1000024
    0.030973669   2    1000023    23
    0.029561014   2    1000023    25
    0.02544141   2    1000023    35
    0.022321641   2    1000022    35
    0.010944108   2    1000022    23
    0.0084476717   2    1000022    36
    0.0073679129   2    1000023    36
    0.0073441264   2    1000014   -14
    0.0073441264   2   -1000014    14
    0.0073439907   2    1000012   -12
    0.0073439907   2   -1000012    12
    0.0073439461   2    1000013   -13
    0.0073439461   2   -1000013    13
    0.0073438012   2    1000011   -11
    0.0073438012   2   -1000011    11
    0.0027850858   3    1000024    5   -6
    0.0027850858   3   -1000024   -5    6
    0.0021735681   3    1000022    6   -6
    0.002075801   3    1000023    6   -6
    0.00044739349   2    1000005   -5
    0.00044739349   2   -1000005    5

DECAY 1000035  67.232387
    0.043695168   2    1000005   -5
    0.043695168   2   -1000005    5
    0.042292199   2    2000013   -13
    0.042292199   2   -2000013    13
    0.042291306   2    2000011   -11
    0.042291306   2   -2000011    11
    0.04224519   2    1000024   -24
    0.04224519   2   -1000024    24
    0.033792177   2    37   -1000024
    0.033792177   2   -37    1000024
    0.030481188   2    1000023    23
    0.02994029   2    1000022    25
    0.028982093   2    2000003   -3
    0.028982093   2   -2000003    3
    0.028981997   2    2000001   -1
    0.028981997   2   -2000001    1
    0.026335663   2    1000023    25
    0.025540217   2    1000015   -15
    0.025540217   2   -1000015    15
    0.024894351   2    1000023    35
    0.021844303   2    1000022    35
    0.021789821   2    2000006   -6
    0.021789821   2   -2000006    6
    0.01431957   2    1000014   -14
    0.01431957   2   -1000014    14
    0.014319443   2    1000012   -12
    0.014319443   2   -1000012    12
    0.014168964   2    1000013   -13
    0.014168964   2   -1000013    13
    0.014168831   2    1000011   -11
    0.014168831   2   -1000011    11
    0.012249806   2    1000022    23
    0.010802905   2    1000006   -6
    0.010802905   2   -1000006    6
    0.010535322   2    1000022    36
    0.010159093   2    2000005   -5
    0.010159093   2   -2000005    5
    0.0091930608   2    1000023    36
    0.0061679717   2    1000003   -3
    0.0061679717   2   -1000003    3
    0.0061679607   2    1000001   -1
    0.0061679607   2   -1000001    1
    0.0060082266   2    1000004   -4
    0.0060082266   2   -1000004    4
    0.0060082201   2    1000002   -2
    0.0060082201   2   -1000002    2
    0.0028872819   3    1000024    5   -6
    0.0028872819   3   -1000024   -5    6
    0.0023570007   3    1000022    6   -6
    0.0022669157   3    1000023    6   -6

DECAY 1000021  388.01703
    0.098367398   2    1000005   -5
    0.098367398   2   -1000005    5
    0.081792488   2    2000005   -5
    0.081792488   2   -2000005    5
    0.081080266   2    1000006   -6
    0.081080266   2   -1000006    6
    0.048796171   2    2000003   -3
    0.048796171   2   -2000003    3
    0.048795881   2    2000001   -1
    0.048795881   2   -2000001    1
    0.035194588   2    1000004   -4
    0.035194588   2   -1000004    4
    0.035194478   2    1000002   -2
    0.035194478   2   -1000002    2
    0.035127546   2    1000003   -3
    0.035127546   2   -1000003    3
    0.03512743   2    1000001   -1
    0.03512743   2   -1000001    1
    0.0002619793   3    1000022    6   -6
    0.00026191515   3    1000023    6   -6
    0.00025446535   3    1000024    5   -6
    0.00025446535   3   -1000024   -5    6

DECAY 25  0.0039258962
    0.57795467   2   -5    5
    0.22523161   2   -24    24
    0.071145192   2    21    21
    0.066274234   2   -15    15
    0.027897081   2   -4    4
    0.02725298   2    23    23
    0.0023186962   2    22    22
    0.001477696   2    22    23
    0.00022990785   2   -13    13
    0.00021717855   2   -3    3
    6.0047854e-07   2   -1    1
    1.4376015e-07   2   -2    2
    5.1685839e-09   2   -11    11

DECAY 35  24.607308
    0.88148244   2   -5    5
    0.11483081   2   -15    15
    0.0028724481   2   -6    6
    0.00040514247   2   -13    13
    0.00034477237   2   -3    3
    2.8002254e-05   2    21    21
    2.7631604e-05   2    25    25
    4.0666917e-06   2    23    23
    3.6464921e-06   2   -24    24
    9.5342516e-07   2   -1    1
    3.629815e-08   2   -4    4
    1.9952789e-08   2    22    22
    1.8014236e-08   2    22    23
    9.1014404e-09   2   -11    11
    1.8712456e-13   2   -2    2

DECAY 36  23.777781
    0.88125681   2   -5    5
    0.11479961   2   -15    15
    0.0031318927   2   -6    6
    0.00040502998   2   -13    13
    0.00034467629   2   -3    3
    5.527411e-05   2    21    21
    5.6404034e-06   2    23    25
    9.5315942e-07   2   -1    1
    4.6828003e-08   2    22    22
    3.6945218e-08   2   -4    4
    1.8503061e-08   2    22    23
    9.0989246e-09   2   -11    11
    1.9048079e-13   2   -2    2
    2.3791185e-38   2    25    25

DECAY 37  21.428195
    0.87546512   2   -5    6
    0.12239909   2   -15    16
    0.0013145635   2   -5    4
    0.0004327256   2   -13    14
    0.00035074486   2   -3    4
    1.6271731e-05   2   -3    2
    9.3873521e-06   2   -5    2
    6.3153777e-06   2    24    25
    4.5654599e-06   2   -3    6
    9.7349463e-07   2   -1    2
    1.8638454e-07   2   -1    6
    4.678124e-08   2   -1    4
    1.0121497e-08   2   -11    12
    9.8148148e-12   2    24    35
    8.9550708e-12   2    24    36

DECAY 6  2.43
    1   2    5    24

DECAY 15 -1
