BLOCK DCINFO
   1   SDECAY/HDECAY
   2   1.3b /3.4

BLOCK SPINFO
   1   SOFTSUSY
   2   3.4.0

BLOCK MODSEL
   1   0

BLOCK SMINPUTS
   1    127.90897
   2    1.1663787e-05
   3    0.1184
   4    91.1876
   5    4.18
   6    173.2
   7    1.777

BLOCK MINPAR
   3    19.72

BLOCK EXTPAR
   0   -1
   1   -800.33
   2   -2882.22
   3    3773.78
   11   -3274.53
   12   -2504.82
   13   -3740.51
   23    1912.76
   26    3796.46
   31    1944.67
   32    1944.67
   33    2954.59
   34    1601.25
   35    1601.25
   36    1586.41
   41    1930.17
   42    1930.17
   43    1947.84
   44    778.12
   45    778.12
   46    2582.21
   47    3217.59
   48    3217.59
   49    1061.86

BLOCK MASS
   24    80.391938
   25    125.36685
   35    3796.374
   36    3796.4599
   37    3797.5172
   5    4.8187603
   1000001    2005.7514
   2000001    3284.0619
   1000002    2004.2896
   2000002    806.257
   1000003    2005.7514
   2000003    3284.0619
   1000004    2004.2896
   2000004    806.257
   1000005    1097.0535
   2000005    2013.1416
   1000006    1995.3827
   2000006    2614.1042
   1000011    1965.3231
   2000011    1602.8508
   1000012    1963.4287
   1000013    1965.3231
   2000013    1602.8508
   1000014    1963.4287
   1000015    1589.3985
   2000015    2970.8547
   1000016    2969.3547
   1000021    3726.9898
   1000022   -790.16129
   1000023   -1944.5701
   1000025    1947.2393
   1000035   -2854.9431
   1000024    1944.6036
   1000037    2855.1089

BLOCK NMIX
   1   1    0.99960333
   1   2   -0.00027672419
   1   3    0.02650356
   1   4    0.0095220865
   2   1   -0.025459002
   2   2   -0.055210105
   2   3    0.70619749
   2   4    0.70539973
   3   1    0.012002191
   3   2   -0.01205013
   3   3   -0.70685976
   3   4    0.70714922
   4   1   -0.00098592727
   4   2    0.998402
   4   3    0.030527603
   4   4    0.047545045

BLOCK UMIX
   1   1   -0.043680375
   1   2    0.99904556
   2   1   -0.99904556
   2   2   -0.043680375

BLOCK VMIX
   1   1    0.067898648
   1   2    0.99769222
   2   1    0.99769222
   2   2   -0.067898648

BLOCK STOPMIX
   1   1    0.98568527
   1   2    0.16859584
   2   1   -0.16859584
   2   2    0.98568527

BLOCK SBOTMIX
   1   1    0.028816851
   1   2    0.99958471
   2   1   -0.99958471
   2   2    0.028816851

BLOCK STAUMIX
   1   1    0.011004834
   1   2    0.99993944
   2   1   -0.99993944
   2   2    0.011004834

BLOCK ALPHA
      -0.052801968

BLOCK HMIX Q=  2241.798
   1    1936.293
   2    18.941174
   3    243.60096
   4    14426839

BLOCK GAUGE Q=  2241.798
   1    0.36398694
   2    0.63479658
   3    1.0144833

BLOCK AU Q=  2241.798
   1   1    0
   2   2    0
   3   3   -3274.53

BLOCK AD Q=  2241.798
   1   1    0
   2   2    0
   3   3   -2504.82

BLOCK AE Q=  2241.798
   1   1    0
   2   2    0
   3   3   -3740.51

BLOCK YU Q=  2241.798
   1   1    0
   2   2    0
   3   3    0.81961741

BLOCK YD Q=  2241.798
   1   1    0
   2   2    0
   3   3    0.22077205

BLOCK YE Q=  2241.798
   1   1    0
   2   2    0
   3   3    0.18772708

BLOCK MSOFT Q=  2241.798
   1   -800.33
   2   -2882.22
   3    3773.78
   21    10552994
   22   -3632627.1
   31    1944.67
   32    1944.67
   33    2954.59
   34    1601.25
   35    1601.25
   36    1586.41
   41    1930.17
   42    1930.17
   43    1947.84
   44    778.11997
   45    778.11997
   46    2582.21
   47    3217.59
   48    3217.59
   49    1061.86

BLOCK HIGGSBOUNDSINPUTHIGGSCOUPLINGSFERMIONS
       0, 358.76807,3,36,15,15

BLOCK HIGGSBOUNDSINPUTHIGGSCOUPLINGSBOSONS
       0,4,36,21,21,23

DECAY 6  1.4190993
    1   2    5    24

DECAY 1000021  444.99301
    0.07535365   2    2000002   -2
    0.07535365   2   -2000002    2
    0.075353649   2    2000004   -4
    0.075353649   2   -2000004    4
    0.06890794   2    1000005   -5
    0.06890794   2   -1000005    5
    0.04190101   2    1000002   -2
    0.04190101   2   -1000002    2
    0.041901001   2    1000004   -4
    0.041901001   2   -1000004    4
    0.041851268   2    1000001   -1
    0.041851268   2   -1000001    1
    0.041851268   2    1000003   -3
    0.041851268   2   -1000003    3
    0.041603817   2    2000005   -5
    0.041603817   2   -2000005    5
    0.04047013   2    1000006   -6
    0.04047013   2   -1000006    6
    0.022516082   2    2000006   -6
    0.022516082   2   -2000006    6
    0.0041450929   2    2000001   -1
    0.0041450929   2   -2000001    1
    0.0041450929   2    2000003   -3
    0.0041450929   2   -2000003    3

DECAY 1000006  1.5909796
    0.83772397   2    1000005    24
    0.15898526   2    1000022    6
    0.0032907736   2    1000024    5

DECAY 2000006  60.913487
    0.33864559   2    2000005    24
    0.18234363   2    1000006    23
    0.17307654   2    1000006    25
    0.11294234   2    1000024    5
    0.080527422   2    1000022    6
    0.058778717   2    1000025    6
    0.051296634   2    1000023    6
    0.0023891295   2    1000005    24

DECAY 1000005  0.14937194
    1   2    1000022    5

DECAY 2000005  1.6702599
    0.44378523   2    1000005    23
    0.42509604   2    1000005    25
    0.12598165   2    1000022    5
    0.002685884   2    1000023    5
    0.0024512   2    1000025    5

DECAY 1000002  0.21160116
    0.99813959   2    1000022    2
    0.0013276205   2    1000024    1
    0.00052022901   2    1000023    2
    1.2561269e-05   2    1000025    2

DECAY 2000002  0.0034177059
    1   2    1000022    2

DECAY 1000001  0.21290391
    0.99901975   2    1000022    1
    0.00057176597   2   -1000024    2
    0.00038016407   2    1000023    1
    2.8317568e-05   2    1000025    1

DECAY 2000001  1.673518
    0.99962093   2    1000022    1
    0.00031025389   2    1000023    1
    6.8751118e-05   2    1000025    1
    6.7744552e-08   2    1000035    1

DECAY 1000004  0.20893388
    0.99828996   2    1000022    4
    0.001220441   2    1000024    3
    0.0004780758   2    1000023    4
    1.1521409e-05   2    1000025    4

DECAY 2000004  0.0029345477
    1   2    1000022    4

DECAY 1000003  0.21024409
    0.9990983   2    1000022    3
    0.00052589984   2   -1000024    4
    0.00034979555   2    1000023    3
    2.6007913e-05   2    1000025    3

DECAY 2000003  1.7065619
    0.99962358   2    1000022    3
    0.00030808617   2    1000023    3
    6.8268639e-05   2    1000025    3
    6.5369339e-08   2    1000035    3

DECAY 1000011  1.8172066
    0.99998336   2    1000022    11
    9.3232493e-06   2    1000023    11
    7.2772035e-06   2   -1000024    12
    3.8854612e-08   2    1000025    11

DECAY 2000011  4.8377888
    1   2    1000022    11

DECAY 1000013  1.8172066
    0.99998336   2    1000022    13
    9.3231273e-06   2    1000023    13
    7.2772036e-06   2   -1000024    14
    3.8853943e-08   2    1000025    13

DECAY 2000013  4.8377887
    1   2    1000022    13

DECAY 1000015  4.7455239
    1   2    1000022    15

DECAY 2000015  5.0412818
    0.6696655   2    1000022    15
    0.07548903   2    1000015    25
    0.072832022   2    1000015    23
    0.070912462   2    1000023    15
    0.067283706   2    1000025    15
    0.027529699   2   -1000037    16
    0.013765382   2    1000035    15
    0.0025222   2   -1000024    16

DECAY 1000012  1.817612
    0.99998243   2    1000022    12
    1.4540139e-05   2    1000024    11
    2.6101345e-06   2    1000023    12
    4.1858686e-07   2    1000025    12

DECAY 1000014  1.817612
    0.99998243   2    1000022    14
    1.4539908e-05   2    1000024    13
    2.6101345e-06   2    1000023    14
    4.1858686e-07   2    1000025    14

DECAY 1000016  5.0140271
    0.67395191   2    1000022    16
    0.14239448   2    1000024    15
    0.14166262   2   -1000015   -24
    0.02690659   2    1000037    15
    0.013530892   2    1000035    16
    0.0012771153   2    1000023    16
    0.00027638966   2    1000025    16

DECAY 1000024  2.5153821
    0.55344433   2   -1000005    6
    0.41665514   2    1000022    24
    0.029900531   2   -1000015    16

DECAY 1000037  79.766505
    0.11227938   2    1000006   -5
    0.11052949   2    1000002   -1
    0.11052948   2    1000004   -3
    0.11051935   2   -1000001    2
    0.11051921   2   -1000003    4
    0.10333844   2   -2000005    6
    0.049604624   2    1000024    25
    0.046131444   2    1000024    23
    0.044613631   2    1000025    24
    0.043113914   2    1000023    24
    0.039675518   2    1000012   -11
    0.039675518   2    1000014   -13
    0.03964552   2   -1000011    12
    0.03964552   2   -1000013    14
    7.5450586e-05   2    2000006   -5
    5.6737404e-05   2   -1000005    6
    4.6509061e-05   2    1000022    24
    2.5251183e-07   2   -1000015    16

DECAY 1000022 -1


DECAY 1000023  2.5443762
    0.36745965   2    1000022    25
    0.25957913   2    1000005   -5
    0.25957913   2   -1000005    5
    0.078153102   2    1000022    23
    0.014924255   2    1000015   -15
    0.014924255   2   -1000015    15
    0.0012109375   2    2000002   -2
    0.0012109375   2   -2000002    2
    0.0012109371   2    2000004   -4
    0.0012109371   2   -2000004    4
    0.00013418283   2    2000011   -11
    0.00013418283   2   -2000011    11
    0.00013418283   2    2000013   -13
    0.00013418283   2   -2000013    13

DECAY 1000025  2.4868237
    0.35675273   2    1000022    23
    0.26441153   2    1000005   -5
    0.26441153   2   -1000005    5
    0.082628647   2    1000022    25
    0.015283911   2    1000015   -15
    0.015283911   2   -1000015    15
    0.00027602823   2    2000002   -2
    0.00027602823   2   -2000002    2
    0.00027602814   2    2000004   -4
    0.00027602814   2   -2000004    4
    3.090978e-05   2    2000011   -11
    3.090978e-05   2   -2000011    11
    3.090978e-05   2    2000013   -13
    3.090978e-05   2   -2000013    13

DECAY 1000035  79.961119
    0.055172556   2    1000002   -2
    0.055172556   2   -1000002    2
    0.05517249   2    1000004   -4
    0.05517249   2   -1000004    4
    0.055059647   2    1000001   -1
    0.055059647   2   -1000001    1
    0.055059647   2    1000003   -3
    0.055059647   2   -1000003    3
    0.054137285   2    2000005   -5
    0.054137285   2   -2000005    5
    0.053391139   2    1000006   -6
    0.053391139   2   -1000006    6
    0.04737936   2    1000023    25
    0.045649451   2    1000024   -24
    0.045649451   2   -1000024    24
    0.042806045   2    1000025    23
    0.019834805   2    1000012   -12
    0.019834805   2   -1000012    12
    0.019834805   2    1000014   -14
    0.019834805   2   -1000014    14
    0.019721415   2    1000011   -11
    0.019721415   2   -1000011    11
    0.019721415   2    1000013   -13
    0.019721415   2   -1000013    13
    0.0020902447   2    1000023    23
    0.0020675579   2    1000025    25
    3.5552949e-05   2    1000022    25
    2.9563247e-05   2    1000005   -5
    2.9563247e-05   2   -1000005    5
    2.1298761e-05   2    2000006   -6
    2.1298761e-05   2   -2000006    6
    9.3377744e-06   2    1000022    23
    1.4225477e-07   2    1000015   -15
    1.4225477e-07   2   -1000015    15
    1.0241533e-07   2    2000002   -2
    1.0241533e-07   2   -2000002    2
    1.0241532e-07   2    2000004   -4
    1.0241532e-07   2   -2000004    4
    4.2897595e-08   2    2000011   -11
    4.2897595e-08   2   -2000011    11
    4.2897595e-08   2    2000013   -13
    4.2897595e-08   2   -2000013    13

DECAY 25  0.0047169442
    0.64595642   2    5   -5
    0.18535639   2    24   -24
    0.068042796   2    21    21
    0.055135565   2   -15    15
    0.023279888   2    23    23
    0.018430035   2    4   -4
    0.0020225718   2    22    22
    0.0013683152   2    22    23
    0.00021285316   2    3   -3
    0.00019516217   2   -13    13

DECAY 35  21.628752
    0.63208628   2    5   -5
    0.13766063   2   -15    15
    0.057587864   2    1000005   -2000005
    0.057587864   2    2000005   -1000005
    0.056947683   2    1000022    1000025
    0.037611088   2    1000022    1000023
    0.019249202   2    6   -6
    0.00049580454   2   -13    13
    0.00026407074   2    1000005   -1000005
    0.00023338491   2    1000022    1000022
    0.00022184359   2    3   -3
    1.9215094e-05   2    1000015   -1000015
    1.6667403e-05   2    25    25
    1.1070364e-05   2    21    21
    2.5443169e-06   2    24   -24
    1.2699594e-06   2    23    23
    1.1730077e-06   2    1000022    1000035
    7.3484697e-07   2    2000002   -2000002
    7.3484697e-07   2    2000004   -2000004
    3.2612083e-07   2    2000011   -2000011
    3.2612083e-07   2    2000013   -2000013
    1.9507867e-07   2    4   -4
    1.939716e-08   2    22    22
    5.4336523e-09   2    23    22

DECAY 36  21.638427
    0.63189633   2    5   -5
    0.13760311   2   -15    15
    0.057739602   2    1000005   -2000005
    0.057739602   2   -1000005    2000005
    0.057439756   2    1000022    1000023
    0.037241848   2    1000022    1000025
    0.019301609   2    6   -6
    0.00049559689   2   -13    13
    0.00026155543   2    1000022    1000022
    0.00022179356   2    3   -3
    4.1474906e-05   2    21    21
    1.4758513e-05   2    1000022    1000035
    2.5801731e-06   2    23    25
    1.9639159e-07   2    4   -4
    1.5067146e-07   2    22    22
    4.1568669e-08   2    23    22

DECAY 37  28.433874
    0.44023414   2    1000006   -1000005
    0.36876782   2    6   -5
    0.10474633   2   -15    16
    0.07230241   2    1000024    1000022
    0.012781364   2    2000006   -1000005
    0.000596079   2    4   -5
    0.00037725861   2   -13    14
    0.00016641756   2    4   -3
    1.1807948e-05   2    1000037    1000022
    8.4475876e-06   2    2   -3
    5.9607831e-06   2    2   -5
    1.965941e-06   2    24    25
    6.1138135e-14   2    24    36

DECAY 5 -1


DECAY 15 -1


DECAY 23  2.4952


DECAY 24  2.085
