BLOCK DCINFO
   1   SDECAY/HDECAY
   2   1.3b /3.4

BLOCK SPINFO
   1   SOFTSUSY
   2   3.4.0

BLOCK MODSEL
   1   0

BLOCK SMINPUTS
   1    127.90897
   2    1.1663787e-05
   3    0.1184
   4    91.1876
   5    4.18
   6    173.2
   7    1.777

BLOCK MINPAR
   3    30.05

BLOCK EXTPAR
   0   -1
   1   -2430.72
   2   -2544.91
   3    3721.35
   11    5104.72
   12   -3959.74
   13   -1894.51
   23    730.96
   26    2210.9
   31    2414.51
   32    2414.51
   33    1567.46
   34    1634.14
   35    1634.14
   36    3824.79
   41    401.33
   42    401.33
   43    3875.46
   44    820.74
   45    820.74
   46    3428.75
   47    1379.84
   48    1379.84
   49    2928.11

BLOCK MASS
   24    80.397192
   25    127.51039
   35    2210.9153
   36    2210.9
   37    2212.1646
   5    4.8187603
   1000001    853.18222
   2000001    1584.1252
   1000002    849.44691
   2000002    1096.5496
   1000003    853.18222
   2000003    1584.1252
   1000004    849.44691
   2000004    1096.5496
   1000005    3058.3766
   2000005    3944.593
   1000006    3454.2517
   2000006    3962.1605
   1000011    2444.2002
   2000011    1652.0374
   1000012    2442.6336
   1000013    2444.2002
   2000013    1652.0374
   1000014    2442.6336
   1000015    1602.3295
   2000015    3825.2767
   1000016    1600.1576
   1000021    3802.2784
   1000022   -759.36523
   1000023    763.02081
   1000025   -2377.5821
   1000035   -2536.2723
   1000024    761.3459
   1000037    2536.4261

BLOCK NMIX
   1   1    0.018698276
   1   2   -0.030427021
   1   3    0.70775715
   1   4    0.70555254
   2   1    0.010292258
   2   2   -0.017447759
   2   3   -0.70637046
   2   4    0.70755242
   3   1    0.9995666
   3   2    0.021015352
   3   3   -0.005776838
   3   4   -0.019788942
   4   1   -0.020274689
   4   2    0.99916371
   4   3    0.0093395728
   4   4    0.034257587

BLOCK UMIX
   1   1   -0.013065238
   1   2    0.99991465
   2   1   -0.99991465
   2   2   -0.013065238

BLOCK VMIX
   1   1    0.04792404
   1   2    0.99885098
   2   1    0.99885098
   2   2   -0.04792404

BLOCK STOPMIX
   1   1   -0.18257251
   1   2    0.98319239
   2   1   -0.98319239
   2   2   -0.18257251

BLOCK SBOTMIX
   1   1    0.0085982779
   1   2    0.99996303
   2   1   -0.99996303
   2   2    0.0085982779

BLOCK STAUMIX
   1   1    0.99999455
   1   2    0.0033027216
   2   1   -0.0033027216
   2   2    0.99999455

BLOCK ALPHA
      -0.034807204

BLOCK HMIX Q=  3645.11
   1    745.17044
   2    28.864946
   3    242.28164
   4    4012437

BLOCK GAUGE Q=  3645.11
   1    0.36583868
   2    0.63771845
   3    1.0052892

BLOCK AU Q=  3645.11
   1   1    0
   2   2    0
   3   3    5104.72

BLOCK AD Q=  3645.11
   1   1    0
   2   2    0
   3   3   -3959.74

BLOCK AE Q=  3645.11
   1   1    0
   2   2    0
   3   3   -1894.51

BLOCK YU Q=  3645.11
   1   1    0
   2   2    0
   3   3    0.82862664

BLOCK YD Q=  3645.11
   1   1    0
   2   2    0
   3   3    0.35423405

BLOCK YE Q=  3645.11
   1   1    0
   2   2    0
   3   3    0.28524493

BLOCK MSOFT Q=  3645.11
   1   -2430.72
   2   -2544.91
   3    3721.35
   21    4292511.9
   22   -324271.92
   31    2414.51
   32    2414.51
   33    1567.46
   34    1634.14
   35    1634.14
   36    3824.79
   41    401.32986
   42    401.32986
   43    3875.46
   44    820.73993
   45    820.73993
   46    3428.75
   47    1379.84
   48    1379.84
   49    2928.11

BLOCK HIGGSBOUNDSINPUTHIGGSCOUPLINGSFERMIONS
       0, 833.1851,3,36,15,15

BLOCK HIGGSBOUNDSINPUTHIGGSCOUPLINGSBOSONS
       0,4,36,21,21,23

DECAY 6  1.4319596
    1   2    5    24

DECAY 1000021  529.9358
    0.066227461   2    1000002   -2
    0.066227461   2   -1000002    2
    0.066227459   2    1000004   -4
    0.066227459   2   -1000004    4
    0.066166146   2    1000001   -1
    0.066166146   2   -1000001    1
    0.066166146   2    1000003   -3
    0.066166146   2   -1000003    3
    0.06167165   2    2000002   -2
    0.06167165   2   -2000002    2
    0.061671648   2    2000004   -4
    0.061671648   2   -2000004    4
    0.050108743   2    2000001   -1
    0.050108743   2   -2000001    1
    0.050108743   2    2000003   -3
    0.050108743   2   -2000003    3
    0.009263794   2    1000005   -5
    0.009263794   2   -1000005    5
    0.0023882087   2    1000006   -6
    0.0023882087   2   -1000006    6

DECAY 1000006  87.127365
    0.48233082   2    1000024    5
    0.24764674   2    1000023    6
    0.24345569   2    1000022    6
    0.025087124   2    1000025    6
    0.00099956612   2    1000037    5
    0.00047314936   2    1000035    6
    6.9081174e-06   2    1000005    24

DECAY 2000006  94.061491
    0.26324901   2    1000022    6
    0.26274957   2    1000023    6
    0.11715837   2    1000037    5
    0.10562571   2    1000024    5
    0.09564844   2    1000006    25
    0.090583402   2    1000006    23
    0.058514164   2    1000035    6
    0.0045419817   2    1000025    6
    0.0019293548   2    1000005    24

DECAY 1000005  13.667854
    0.48761901   2   -1000024    6
    0.24673957   2    1000022    5
    0.24493508   2    1000023    5
    0.020700546   2    1000025    5
    5.3819247e-06   2    1000035    5
    4.1494696e-07   2   -1000037    6

DECAY 2000005  92.320525
    0.53734941   2   -1000024    6
    0.1687204   2    1000006   -24
    0.11944971   2   -1000037    6
    0.059839055   2    1000035    5
    0.049667617   2    1000022    5
    0.049410411   2    1000023    5
    0.011487389   2    1000021    5
    0.0020326045   2    1000025    5
    0.0010513886   2    1000005    25
    0.00099201969   2    1000005    23

DECAY 1000002  0.00080614643
    0.82377628   2    1000024    1
    0.13475873   2    1000022    2
    0.041464984   2    1000023    2

DECAY 2000002  0.00038220675
    0.6743802   2    1000022    2
    0.20074215   2    1000023    2
    0.029070654   3    2   -4    1000004
    0.028911054   3    2   -2    1000002
    0.026990628   3    2   -1    1000001
    0.026964464   3    2   -3    1000003
    0.0025262767   3    2    24   -1000024
    0.0019227029   3    2    2   -1000002
    0.0019192754   3    2    4   -1000004
    0.0017864677   3    2    3   -1000003
    0.0017656936   3    2    1   -1000001
    0.0010950095   3    2    23    1000023
    0.00085571488   3    2    25    1000022
    0.00054263825   3    2    23    1000022
    0.00033371991   3    2   -24    1000024
    0.00019335609   3    2    25    1000023

DECAY 1000001  0.00029688459
    0.63023972   2    1000022    1
    0.19088148   2    1000023    1
    0.1788788   2   -1000024    2

DECAY 2000001  0.0051764069
    0.19953995   3    1   -4    1000004
    0.19917291   3    1   -2    1000002
    0.19868994   3    1   -3    1000003
    0.19762743   3    1   -1    1000001
    0.038523532   2    1000022    1
    0.030828334   3    1    2   -2000002
    0.030702764   3    1    4   -2000004
    0.020790483   3    1    2   -1000002
    0.020649459   3    1    4   -1000004
    0.019971382   3    1    3   -1000003
    0.019838085   3    1    1   -1000001
    0.011605251   2    1000023    1
    0.0038944002   3    1   -2    2000002
    0.0038561497   3    1   -4    2000004
    0.0018645173   3    1    24   -1000024
    0.00087319256   3    1    23    1000023
    0.00083948192   3    1    25    1000022
    0.00040390951   3    1   -24    1000024
    0.00016531351   3    1    25    1000023
    0.0001635111   3    1    23    1000022

DECAY 1000004  0.00074118958
    0.82374543   2    1000024    3
    0.134823   2    1000022    4
    0.041431566   2    1000023    4

DECAY 2000004  0.00036635974
    0.67083117   2    1000022    4
    0.19965136   2    1000023    4
    0.030314466   3    4   -4    1000004
    0.030038781   3    4   -2    1000002
    0.027898808   3    4   -1    1000001
    0.027827839   3    4   -3    1000003
    0.0026504823   3    4    24   -1000024
    0.0019901204   3    4    4   -1000004
    0.0019853983   3    4    2   -1000002
    0.0018345902   3    4    3   -1000003
    0.0018287763   3    4    1   -1000001
    0.0011376523   3    4    23    1000023
    0.00089690532   3    4    25    1000022
    0.00056463627   3    4    23    1000022
    0.00034681758   3    4   -24    1000024
    0.00020220289   3    4    25    1000023

DECAY 1000003  0.00027338622
    0.63047403   2    1000022    3
    0.190723   2    1000023    3
    0.17880297   2   -1000024    4

DECAY 2000003  0.0051696141
    0.19980215   3    3   -4    1000004
    0.19904774   3    3   -2    1000002
    0.19895102   3    3   -3    1000003
    0.19784842   3    3   -1    1000001
    0.037605803   2    1000022    3
    0.030981036   3    3    4   -2000004
    0.030758582   3    3    2   -2000002
    0.020815867   3    3    2   -1000002
    0.020653379   3    3    4   -1000004
    0.020295519   3    3    1   -1000001
    0.01982353   3    3    3   -1000003
    0.011328398   2    1000023    3
    0.0038995174   3    3   -2    2000002
    0.0038732098   3    3   -4    2000004
    0.0018669672   3    3    24   -1000024
    0.00087482352   3    3    23    1000023
    0.00084058499   3    3    25    1000022
    0.00040405337   3    3   -24    1000024
    0.00016553073   3    3    25    1000023
    0.0001638633   3    3    23    1000022

DECAY 1000011  0.017058879
    0.59211469   2    1000025    11
    0.18362429   2    1000022    11
    0.1613463   2   -1000024    12
    0.062914711   2    1000023    11

DECAY 2000011  0.0029187513
    0.65555512   2    1000022    11
    0.19759634   2    1000023    11
    0.040582422   3    11    24   -1000024
    0.018589799   3    11    23    1000023
    0.018387315   3    11    25    1000022
    0.012607103   3    11    4   -2000004
    0.012595455   3    11    2   -2000002
    0.0092645782   3    11   -24    1000024
    0.0043145162   3    11   -4    2000004
    0.0042730601   3    11   -2    2000002
    0.0039448376   3    11   -4    1000004
    0.00392154   3    11   -2    1000002
    0.0036029105   3    11   -1    1000001
    0.0035460369   3    11   -3    1000003
    0.0034925894   3    11    25    1000023
    0.0034566151   3    11    23    1000022
    0.0011627918   3    11    2   -1000002
    0.0011600509   3    11    4   -1000004
    0.00097723296   3    11    3   -1000003
    0.00096914731   3    11    1   -1000001
    1.5659779e-07   3    11    1   -2000001
    1.5537809e-07   3    11    3   -2000003
    7.3219667e-08   3    11   -1    2000001
    7.2438511e-08   3    11   -3    2000003
    3.0199558e-08   3    11   -16    1000016
    2.570517e-08   3    11   -15    1000015
    1.4224576e-08   3    11    16   -1000016
    1.1832457e-08   3    11    15   -1000015

DECAY 1000013  0.017058866
    0.59211438   2    1000025    13
    0.18362444   2    1000022    13
    0.16134643   2   -1000024    14
    0.06291476   2    1000023    13

DECAY 2000013  0.002918291
    0.65565852   2    1000022    13
    0.19762751   2    1000023    13
    0.040581971   3    13    24   -1000024
    0.018591361   3    13    23    1000023
    0.018390215   3    13    25    1000022
    0.012609092   3    13    4   -2000004
    0.012597441   3    13    2   -2000002
    0.009217381   3    13   -24    1000024
    0.0042737342   3    13   -2    2000002
    0.0042161662   3    13   -4    2000004
    0.0039320959   3    13   -4    1000004
    0.0039221585   3    13   -2    1000002
    0.0036034789   3    13   -1    1000001
    0.0035465963   3    13   -3    1000003
    0.0034931403   3    13    25    1000023
    0.0034581884   3    13    23    1000022
    0.001170788   3    13    4   -1000004
    0.0011628724   3    13    2   -1000002
    0.00097738711   3    13    3   -1000003
    0.00096936872   3    13    1   -1000001
    1.5720845e-07   3    13    3   -2000003
    1.5693089e-07   3    13    1   -2000001
    7.2487631e-08   3    13   -3    2000003
    7.2408817e-08   3    13   -1    2000001
    3.0030247e-08   3    13   -16    1000016
    2.5183575e-08   3    13   -15    1000015
    1.4180902e-08   3    13    16   -1000016
    1.1879213e-08   3    13    15   -1000015

DECAY 1000015  1.5589566
    0.50242117   2    1000022    15
    0.49652464   2    1000023    15
    0.0010541839   2   -1000024    16

DECAY 2000015  19.770547
    0.38770103   2    1000025    15
    0.28876197   2   -1000024    16
    0.14500984   2    1000022    15
    0.14423402   2    1000023    15
    0.010828849   2    1000016   -24
    0.0060592629   2    1000016   -37
    0.0057873835   2    1000015    25
    0.0055805361   2    1000015    23
    0.002922318   2    1000015    36
    0.0029198918   2    1000015    35
    0.00015377983   2    1000035    15
    4.1117706e-05   2   -1000037    16

DECAY 1000012  0.063371493
    0.58383422   2    1000024    11
    0.21550354   2    1000022    12
    0.13141655   2    1000025    12
    0.069245691   2    1000023    12

DECAY 1000014  0.063371493
    0.58383422   2    1000024    13
    0.21550354   2    1000022    14
    0.13141655   2    1000025    14
    0.069245692   2    1000023    14

DECAY 1000016  1.5768531
    0.99448997   2    1000024    15
    0.0041736947   2    1000022    16
    0.001336338   2    1000023    16

DECAY 1000024  2.0232132e-11
    0.59977703   3    1000022    2   -1
    0.19991082   3    1000022   -11    12
    0.19991082   3    1000022   -13    14
    0.00040133945   3    1000022   -15    16

DECAY 1000037  123.70528
    0.19579086   2    1000002   -1
    0.19579086   2    1000004   -3
    0.19577456   2   -1000001    2
    0.19577454   2   -1000003    4
    0.039493725   2    1000024    23
    0.039211778   2    1000024    25
    0.038314166   2    1000023    24
    0.038113093   2    1000022    24
    0.029992682   2    1000016   -15
    0.029945441   2   -1000015    16
    0.00043604978   2    1000012   -11
    0.00043604978   2    1000014   -13
    0.0004227686   2   -1000011    12
    0.0004227686   2   -1000013    14
    8.0667478e-05   2    1000025    24

DECAY 1000022 -1


DECAY 1000023  5.9180257e-10
    0.1687823   3    1000022   -1    1
    0.1687823   3    1000022   -3    3
    0.12996491   3    1000022   -2    2
    0.12996491   3    1000022   -4    4
    0.077675806   3    1000022   -16    16
    0.077675507   3    1000022   -12    12
    0.077675507   3    1000022   -14    14
    0.062107185   2    1000022    22
    0.038841144   3    1000022   -11    11
    0.038841144   3    1000022   -13    13
    0.0088560012   3    1000024   -2    1
    0.0088560012   3   -1000024   -1    2
    0.0029519356   3    1000024   -12    11
    0.0029519356   3   -1000024    12   -11
    0.0029519356   3    1000024   -14    13
    0.0029519356   3   -1000024    14   -13

DECAY 1000025  41.241623
    0.12746136   2    2000002   -2
    0.12746136   2   -2000002    2
    0.12746132   2    2000004   -4
    0.12746132   2   -2000004    4
    0.041024844   2    2000011   -11
    0.041024844   2   -2000011    11
    0.041024844   2    2000013   -13
    0.041024844   2   -2000013    13
    0.035850102   2    1000024   -24
    0.035850102   2   -1000024    24
    0.025504376   2    1000022    25
    0.024776934   2    1000023    23
    0.015993899   2    2000001   -1
    0.015993899   2   -2000001    1
    0.015993899   2    2000003   -3
    0.015993899   2   -2000003    3
    0.012275526   2    1000015   -15
    0.012275526   2   -1000015    15
    0.012033137   2    1000002   -2
    0.012033137   2   -1000002    2
    0.012033135   2    1000004   -4
    0.012033135   2   -1000004    4
    0.010648504   2    1000016   -16
    0.010648504   2   -1000016    16
    0.0077827298   2    1000023    25
    0.0077177696   2    1000001   -1
    0.0077177696   2   -1000001    1
    0.0077177696   2    1000003   -3
    0.0077177696   2   -1000003    3
    0.0074637307   2    1000022    23

DECAY 1000035  123.65435
    0.098532189   2    1000001   -1
    0.098532189   2   -1000001    1
    0.098532189   2    1000003   -3
    0.098532189   2   -1000003    3
    0.097229531   2    1000002   -2
    0.097229531   2   -1000002    2
    0.09722952   2    1000004   -4
    0.09722952   2   -1000004    4
    0.037451147   2    1000024   -24
    0.037451147   2   -1000024    24
    0.030428747   2    1000023    23
    0.029903974   2    1000022    25
    0.015359122   2    1000016   -16
    0.015359122   2   -1000016    16
    0.014607862   2    1000015   -15
    0.014607862   2   -1000015    15
    0.0099822726   2    1000023    25
    0.0099518924   2    1000022    23
    0.00022265673   2    1000012   -12
    0.00022265673   2   -1000012    12
    0.00022265673   2    1000014   -14
    0.00022265673   2   -1000014    14
    0.00020560371   2    1000011   -11
    0.00020560371   2   -1000011    11
    0.00020560371   2    1000013   -13
    0.00020560371   2   -1000013    13
    1.9822016e-05   2    2000002   -2
    1.9822016e-05   2   -2000002    2
    1.9822011e-05   2    2000004   -4
    1.9822011e-05   2   -2000004    4
    1.6657492e-05   2    1000025    25
    7.4410398e-06   2    2000011   -11
    7.4410398e-06   2   -2000011    11
    7.4410398e-06   2    2000013   -13
    7.4410398e-06   2   -2000013    13
    2.8015714e-06   2    2000001   -1
    2.8015714e-06   2   -2000001    1
    2.8015714e-06   2    2000003   -3
    2.8015714e-06   2   -2000003    3
    4.018072e-08   2    1000025    23

DECAY 25  0.0045771726
    0.57299906   2    5   -5
    0.24012848   2    24   -24
    0.073838906   2    21    21
    0.058276449   2   -15    15
    0.031135665   2    23    23
    0.019253126   2    4   -4
    0.0022405917   2    22    22
    0.0016975858   2    22    23
    0.00022387538   2    3   -3
    0.00020625263   2   -13    13

DECAY 35  23.921849
    0.82375968   2    5   -5
    0.16958989   2   -15    15
    0.0046643413   2    6   -6
    0.00069852043   2    1000024   -1000024
    0.00059137386   2   -13    13
    0.00027388937   2    3   -3
    0.00026357562   2    1000022    1000022
    7.2674475e-05   2    1000023    1000023
    3.2841533e-05   2    1000022    1000023
    1.9139008e-05   2    21    21
    1.7453022e-05   2    25    25
    4.5284536e-06   2    24   -24
    2.8567608e-06   2    1000001   -1000001
    2.8567608e-06   2    1000003   -1000003
    2.2567485e-06   2    23    23
    1.9600987e-06   2    1000002   -1000002
    1.9600987e-06   2    1000004   -1000004
    6.9182791e-08   2    2000002   -2000002
    6.9182791e-08   2    2000004   -2000004
    4.7929848e-08   2    4   -4
    1.0275519e-08   2    23    22
    3.3388475e-09   2    22    22

DECAY 36  23.943774
    0.82304485   2    5   -5
    0.16943589   2   -15    15
    0.0046907527   2    6   -6
    0.0012783069   2    1000024   -1000024
    0.00059083536   2   -13    13
    0.00043410417   2    1000022    1000022
    0.00027366401   2    3   -3
    0.00015939214   2    1000023    1000023
    5.8815266e-05   2    21    21
    2.8686942e-05   2    1000022    1000023
    4.5682688e-06   2    23    25
    4.9920749e-08   2    22    22
    4.7837196e-08   2    4   -4
    3.9842011e-08   2    23    22

DECAY 37  22.230057
    0.81490676   2    6   -5
    0.1826021   2   -15    16
    0.001365597   2    4   -5
    0.00063674692   2   -13    14
    0.00029005841   2    4   -3
    0.00014135518   2    1000024    1000023
    1.4733961e-05   2    2   -3
    1.3822376e-05   2    1000024    1000022
    1.365594e-05   2    2   -5
    5.1149538e-06   2    1000002   -1000001
    5.1149538e-06   2    1000004   -1000003
    4.9346336e-06   2    24    25
    1.9138164e-13   2    24    36

DECAY 5 -1


DECAY 15 -1


DECAY 23  2.4952


DECAY 24  2.085
