BLOCK SPINFO
   1   SPheno
   2   v4.0.5be

BLOCK SPHENOINFO
   1   2
   2   2

BLOCK MODSEL
   1   0

BLOCK MINPAR
   3    29.341466
   4    1

BLOCK EXTPAR
   0    3442.835
   1    1459.6317
   2   -3183.6591
   3    1222.828
   11   -2677.3292
   12    2431.7462
   13    7051.9768
   23    1485.5848
   25    28.232104
   26    2732.9025
   31    4642.2272
   32    4642.2272
   33    4874.6525
   34    2388.8002
   35    2388.8002
   36    2289.1582
   41    2920.0954
   42    2920.0954
   43    3873.816
   44    2043.7314
   45    2043.7314
   46    3038.6109
   47    2313.0684
   48    2313.0684
   49    3095.781

BLOCK SMINPUTS
   1    127.90897
   2    1.1663787e-05
   3    0.1184
   4    91.1876
   5    4.18
   6    173.2
   7    1.777
   8    0
   11    0.00051099893
   12    0
   13    0.10565837
   14    0
   21    0.005
   22    0.0025
   23    0.095
   24    1.27

BLOCK GAUGE Q=  3442.835
   1    0.35536298
   2    0.66519887
   3    1.219778

BLOCK YU Q=  3442.835
   1   1    8.3896301e-06
   2   2    0.0042619321
   3   3    1.0135347

BLOCK YD Q=  3442.835
   1   1    0.00047595546
   2   2    0.0090431537
   3   3    0.47199867

BLOCK YE Q=  3442.835
   1   1    8.3057708e-05
   2   2    0.0171737
   3   3    0.28883338

BLOCK AU Q=  3442.835
   1   1    0
   2   2    0
   3   3   -2677.3301

BLOCK AD Q=  3442.835
   1   1    0
   2   2    0
   3   3    2431.7445

BLOCK AE Q=  3442.835
   1   1    0
   2   2    0
   3   3    7051.9761

BLOCK MSOFT Q=  3442.835
   1    1459.6317
   2   -3183.6591
   3    1222.828
   21    5175881.2
   22   -2016899.2
   31    4642.2272
   32    4642.2272
   33    4874.6525
   34    2388.8002
   35    2388.8002
   36    2289.1582
   41    2920.0954
   42    2920.0954
   43    3873.816
   44    2043.7314
   45    2043.7314
   46    3038.6109
   47    2313.0684
   48    2313.0684
   49    3095.781

BLOCK MASS
   6    173.2
   23    91.1876
   24    80.429995
   15    1.777
   25    120.89252
   35    2732.8745
   36    2732.9025
   37    2734.4106
   1000001    2998.1391
   2000001    2363.3867
   1000002    2996.9932
   2000002    2100.843
   1000003    2998.137
   2000003    2363.3827
   1000004    2996.9907
   2000004    2100.8425
   1000005    3130.0162
   2000005    3905.882
   1000006    3030.8102
   2000006    3910.8727
   1000011    4659.6633
   2000011    2394.107
   1000012    4658.5634
   1000013    4659.6531
   2000013    2394.0862
   1000014    4658.553
   1000015    2291.0305
   2000015    4882.8355
   1000016    4881.769
   1000021    1463.1394
   1000022    1428.7582
   1000023   -1506.6469
   1000025    1522.0159
   1000035   -3213.6691
   1000024    1506.8076
   1000037    3213.873

BLOCK ALPHA
      -0.034151652

BLOCK HMIX Q=  3442.835
   1    1485.5848
   2    28.232104
   3    243.09424
   4    7468756

BLOCK STOPMIX
   1   1    0.063845961
   1   2    0.99795977
   2   1   -0.99795977
   2   2    0.063845961

BLOCK SBOTMIX
   1   1    0.015393622
   1   2    0.99988151
   2   1   -0.99988151
   2   2    0.015393622

BLOCK STAUMIX
   1   1    0.0032705654
   1   2    0.99999465
   2   1   -0.99999465
   2   2    0.0032705654

BLOCK NMIX
   1   1   -0.92104469
   1   2   -0.0046844967
   1   3   -0.28197141
   1   4    0.26860169
   2   1    0.010291664
   2   2    0.030626807
   2   3   -0.70705297
   2   4   -0.70642209
   3   1    0.3893208
   3   2   -0.011146609
   3   3   -0.64837971
   3   4    0.6541474
   4   1   -0.00029038239
   4   2    0.99945776
   4   3    0.013113757
   4   4    0.030201619

BLOCK UMIX
   1   1   -0.018522094
   1   2    0.99982845
   2   1   -0.99982845
   2   2   -0.018522094

BLOCK VMIX
   1   1    0.042684603
   1   2    0.9990886
   2   1    0.9990886
   2   2   -0.042684603

BLOCK HIGGSBOUNDSINPUTHIGGSCOUPLINGSFERMIONS
       0, 797.05171,3,36,15,15

BLOCK HIGGSBOUNDSINPUTHIGGSCOUPLINGSBOSONS
       0,4,36,21,21,23

BLOCK SPHENOLOWENERGY
   1    0.00032107006
   2    1.5899313e-06
   3    3.5247276e-05
   4    2.5642645e-15
   5    1.0954227e-10
   6    2.2919613e-08
   7    8.6110825e-14
   8    3.6786453e-09
   9    7.7989196e-07
   10    9.6192883e-05
   11    0.99363565
   12    0.54212499
   13    19.367052
   14    0
   15    0
   16    0.0021578868
   17    2.2816651e-15
   18    2.4797921e-11
   19    8.2893966e-11
   20   -8.0900555e-16
   21   -3.4588052e-11
   22   -9.8406326e-09
   23    0
   24    0
   25    0
   26    0
   27    0
   28    0
   29    0
   30    0
   31    0
   39    6.2929482e-05
   40    0
   41    0
   42    0

BLOCK FWCOEF Q=  160
   305   4422   0   0   -0.18881911
   305   4422   0   2   -0.18809741
   305   4322   0   2    6.7445355e-05
   305   6421   0   0   -0.095227835
   305   6421   0   2   -0.10236
   305   6321   0   2   -0.00011157022
   3051111   4133   0   0    1.6213732
   3051111   4133   0   2    1.6217547
   3051111   4233   0   2    8.3875428e-05
   3051111   4137   0   0   -4.4440653
   3051111   4137   0   2   -4.4418931
   3051111   4237   0   2   -0.00062627646
   3051313   4133   0   0    1.6213732
   3051313   4133   0   2    1.6217544
   3051313   4233   0   2    8.3875226e-05
   3051313   4137   0   0   -4.4440653
   3051313   4137   0   2   -4.4418934
   3051313   4237   0   2   -0.00062627651
   3051212   4137   0   0    1.5053501
   3051212   4137   0   2    1.5048803
   3051212   4237   0   2    0.00013558665
   3051414   4137   0   0    1.5053501
   3051414   4137   0   2    1.5048803
   3051414   4237   0   2    0.00013558668
   3051616   4137   0   0    1.5053501
   3051616   4137   0   2    1.5048803
   3051616   4237   0   2    0.00013559404

BLOCK IMFWCOEF Q=  160
   305   4422   0   0    3.8584261e-07
   305   4422   0   2    1.8641648e-07
   305   4322   0   2    3.8558774e-06
   305   6421   0   0    3.3049972e-07
   305   6421   0   2   -2.4400813e-05
   305   6321   0   2    1.48253e-06
   3051111   4133   0   2   -9.6524211e-07
   3051111   4233   0   2    1.9519531e-06
   3051111   4137   0   2    8.836041e-06
   3051111   4237   0   2   -1.4572183e-05
   3051313   4133   0   2   -9.6524009e-07
   3051313   4233   0   2    1.9519516e-06
   3051313   4137   0   2    8.8360435e-06
   3051313   4237   0   2   -1.4572186e-05
   3051212   4137   0   2   -1.9047466e-06
   3051212   4237   0   2    3.1548258e-06
   3051414   4137   0   2   -1.9047466e-06
   3051414   4237   0   2    3.1548258e-06
   3051616   4137   0   2   -1.9046891e-06
   3051616   4237   0   2    3.1548258e-06

DECAY 23  2.4952


DECAY 24  2.085


DECAY 2000011  4.8781978
    0.86720618   2    1000022    11
    0.13269851   2    1000025    11

DECAY 1000011  21.722717
    0.51886773   2   -1000037    12
    0.25922073   2    1000035    11
    0.19121251   2    1000022    11
    0.029191638   2    1000025    11
    0.00098797356   2    1000023    11
    0.00051941815   2   -1000024    12

DECAY 2000013  4.8883004
    0.865483   2    1000022    13
    0.13285029   2    1000025    13
    0.0010475625   2   -1000024    14
    0.00061914426   2    1000023    13

DECAY 1000013  21.745468
    0.51831962   2   -1000037    14
    0.25894698   2    1000035    13
    0.19109404   2    1000022    13
    0.029582674   2    1000025    13
    0.0014909026   2    1000023    13
    0.00051887306   2   -1000024    14

DECAY 1000015  6.6402841
    0.56618147   2    1000022    15
    0.18435933   2   -1000024    16
    0.1571557   2    1000025    15
    0.092303508   2    1000023    15

DECAY 2000015  32.882377
    0.41979089   2   -1000037    16
    0.20973173   2    1000035    15
    0.15094106   2    1000022    15
    0.10537803   2    1000025    15
    0.10151955   2    1000023    15
    0.0062282473   2    1000015    25
    0.0060975203   2    1000015    23
    0.00031298231   2   -1000024    16

DECAY 1000012  21.723576
    0.51751351   2    1000037    11
    0.2590881   2    1000035    12
    0.18399866   2    1000022    12
    0.036164367   2    1000025    12
    0.0027575003   2    1000024    11
    0.00047786375   2    1000023    12

DECAY 1000014  21.745296
    0.51699136   2    1000037    13
    0.25882665   2    1000035    14
    0.1838143   2    1000022    14
    0.036128127   2    1000025    14
    0.003762186   2    1000024    13
    0.00047738489   2    1000023    14

DECAY 1000016  32.878602
    0.41885   2    1000037    15
    0.209675   2    1000035    16
    0.20359908   2    1000024    15
    0.1297714   2    1000022    16
    0.025576982   2    1000025    16
    0.012189741   2    1000015    24
    0.00033780538   2    1000023    16

DECAY 2000001  71.475226
    0.99273539   2    1000021    1
    0.0063053853   2    1000022    1
    0.0009584611   2    1000025    1

DECAY 1000001  137.61209
    0.99812234   2    1000021    1
    0.0014542495   2    1000022    1
    0.0003422058   2    1000025    1

DECAY 2000003  71.477507
    0.99269788   2    1000021    3
    0.0063068281   2    1000022    3
    0.00096618574   2    1000025    3

DECAY 1000003  137.61541
    0.99809666   2    1000021    3
    0.0014558818   2    1000022    3
    0.00035039549   2    1000025    3

DECAY 1000005  168.24296
    0.89687611   2    1000021    5
    0.048002385   2   -1000024    6
    0.024358554   2    1000023    5
    0.020931345   2    1000025    5
    0.0098316066   2    1000022    5

DECAY 2000005  314.41033
    0.72466558   2    1000021    5
    0.18249143   2   -1000024    6
    0.032677655   2    1000006   -24
    0.019953803   2    1000023    5
    0.017083274   2    1000025    5
    0.011340878   2   -1000037    6
    0.0057030871   2    1000035    5
    0.0041493307   2    1000022    5
    0.0012497751   2    1000005    25
    0.00068518731   2    1000005    23

DECAY 2000002  45.283627
    0.97106253   2    1000021    2
    0.02538989   2    1000022    2
    0.0035449959   2    1000025    2

DECAY 1000002  137.51891
    0.99793948   2    1000021    2
    0.001630049   2    1000022    2
    0.00019521715   2    1000024    1
    0.00017881537   2    1000025    2

DECAY 2000004  45.283782
    0.97105488   2    1000021    4
    0.025389728   2    1000022    4
    0.0035468949   2    1000025    4

DECAY 1000004  137.52187
    0.99791538   2    1000021    4
    0.0016303763   2    1000022    4
    0.00021495972   2    1000024    3
    0.00018064332   2    1000025    4

DECAY 1000006  213.54119
    0.65765988   2    1000021    6
    0.16296211   2    1000024    5
    0.080091498   2    1000023    6
    0.071288291   2    1000025    6
    0.02785388   2    1000022    6
    0.0001695802   2    1000021    4

DECAY 2000006  315.89116
    0.71543835   2    1000021    6
    0.091923834   2    1000023    6
    0.079354003   2    1000025    6
    0.041173876   2    1000024    5
    0.023949305   2    1000006    25
    0.016393141   2    1000006    23
    0.013732414   2    1000022    6
    0.011326332   2    1000037    5
    0.0053191794   2    1000035    6
    0.0013895654   2    1000005    24

DECAY 1000024  0.0017375869
    0.33343458   3    1000022   -1    2
    0.33331148   3    1000022   -3    4
    0.11114214   3    1000022   -11    12
    0.11114185   3    1000022   -13    14
    0.11096996   3    1000022   -15    16

DECAY 1000037  27.711053
    0.22846488   2    1000024    25
    0.21041665   2    1000023    24
    0.20860565   2    1000024    23
    0.17451636   2    1000025    24
    0.034425335   2    1000022    24
    0.025998331   2    1000004   -3
    0.025997748   2    1000002   -1
    0.025771376   2   -1000001    2
    0.02577136   2   -1000003    4
    0.015742134   3    1000024    6   -6
    0.012383709   3    1000023   -5    6
    0.0090662966   3    1000025   -5    6
    0.0018086245   3    1000022   -5    6
    0.00042258999   3    1000021   -5    6
    0.00031070809   2    1000006   -5
    0.00024884461   3    1000024    5   -5

DECAY 1000022 -1


DECAY 1000023  0.0044855813
    0.20354627   3    1000022    12   -12
    0.15221183   3    1000022    1   -1
    0.15221041   3    1000022    3   -3
    0.14921069   3    1000022    5   -5
    0.11871423   3    1000022    2   -2
    0.11844166   3    1000022    4   -4
    0.034347265   3    1000022    11   -11
    0.03434674   3    1000022    13   -13
    0.034191434   3    1000022    15   -15
    0.0027794281   2    1000022    22

DECAY 1000025  6.754901e-05
    0.91930464   2    1000022    23
    0.014780593   2    1000023    22
    0.0077022518   3    1000023    12   -12
    0.0057595592   3    1000023    1   -1
    0.0057570294   3    1000023    3   -3
    0.004843411   3    1000024    1   -2
    0.004843411   3   -1000024   -1    2
    0.0046809711   3    1000024    3   -4
    0.0046809711   3   -1000024   -3    4
    0.0044919046   3    1000023    2   -2
    0.0041028944   3    1000023    4   -4
    0.002823726   3    1000022    5   -5
    0.0023107748   3    1000023    5   -5
    0.0016144846   3    1000024    11   -12
    0.0016144846   3   -1000024   -11    12
    0.0016142166   3    1000024    13   -14
    0.0016142166   3   -1000024   -13    14
    0.0015104846   3    1000024    15   -16
    0.0015104846   3   -1000024   -15    16
    0.0012998037   3    1000023    11   -11
    0.0012989052   3    1000023    13   -13
    0.0010712281   3    1000023    15   -15
    0.00033010113   3    1000022    15   -15
    0.00020110148   3    1000022    4   -4
    0.00013316839   2    1000022    22

DECAY 1000035  33.243905
    0.17459673   2    1000024   -24
    0.17459673   2   -1000024    24
    0.16542537   2    1000023    25
    0.1598815   2    1000025    25
    0.1270752   2    1000025    23
    0.030366496   2    1000022    25
    0.024549463   2    1000022    23
    0.023559641   2    1000023    23
    0.010823408   2    1000004   -4
    0.010823408   2   -1000004    4
    0.010823303   2    1000002   -2
    0.010823303   2   -1000002    2
    0.010715497   2    1000003   -3
    0.010715497   2   -1000003    3
    0.010715298   2    1000001   -1
    0.010715298   2   -1000001    1
    0.01032501   3    1000024    5   -6
    0.01032501   3   -1000024   -5    6
    0.0057230867   3    1000023    6   -6
    0.0054326191   3    1000025    6   -6
    0.001128783   3    1000022    6   -6
    0.00026801185   3    1000021    5   -5
    0.00023463734   3    1000021    6   -6
    0.0001037423   3    1000023    5   -5

DECAY 1000021  1.675059e-09
    0.66933657   2    1000022    21
    0.14764285   3    1000022    2   -2
    0.14536038   3    1000022    4   -4
    0.017161352   3    1000022    1   -1
    0.01715878   3    1000022    3   -3
    0.0033400668   3    1000022    5   -5

DECAY 25  0.0034146356
    0.6336344   2   -5    5
    0.16536306   2   -24    24
    0.074821649   2    21    21
    0.072483841   2   -15    15
    0.031305562   2   -4    4
    0.018427517   2    23    23
    0.0023201382   2    22    22
    0.0011536865   2    22    23
    0.00025140455   2   -13    13
    0.00023791825   2   -3    3
    6.5781997e-07   2   -1    1
    1.6133891e-07   2   -2    2
    5.6519105e-09   2   -11    11

DECAY 35  27.39287
    0.82956219   2   -5    5
    0.16553147   2   -15    15
    0.0040420492   2   -6    6
    0.00057089506   2   -13    13
    0.00027984028   2   -3    3
    8.1131625e-06   2    21    21
    3.1294683e-06   2    25    25
    1.1011695e-06   2    23    23
    7.7362068e-07   2   -1    1
    3.7662772e-07   2   -24    24
    4.8000347e-08   2   -4    4
    1.2822349e-08   2   -11    11
    6.8571357e-10   2    22    22
    9.5076803e-11   2    22    23
    2.4741119e-13   2   -2    2

DECAY 36  26.342812
    0.82974503   2   -5    5
    0.16556795   2   -15    15
    0.0038066654   2   -6    6
    0.00057101989   2   -13    13
    0.00027990521   2   -3    3
    2.6710301e-05   2    21    21
    1.7514345e-06   2    23    25
    7.7379944e-07   2   -1    1
    7.7239729e-08   2    22    22
    5.9132887e-08   2    22    23
    4.4193703e-08   2   -4    4
    1.2825073e-08   2   -11    11
    2.2780588e-13   2   -2    2
    1.3701764e-36   2    25    25

DECAY 37  28.311058
    0.83161736   2   -5    6
    0.16629009   2   -15    16
    0.001227249   2   -5    4
    0.00058789494   2   -13    14
    0.00024767517   2   -3    4
    1.1585556e-05   2   -3    2
    8.7638247e-06   2   -5    2
    6.7144961e-06   2   -3    6
    1.6336099e-06   2    24    25
    6.8699338e-07   2   -1    2
    2.9118338e-07   2   -1    6
    3.471394e-08   2   -1    4
    1.3750924e-08   2   -11    12
    4.1125253e-13   2    24    35
    3.7511769e-13   2    24    36

DECAY 6  2.43
    1   2    5    24

DECAY 15 -1
