# SUSY Les Houches Accord 2 - MSSM spectrum + Decays
# SPheno v4.0.5be
# W. Porod, Comput. Phys. Commun. 153 (2003) 275-315, hep-ph/0301101;
# W. Porod, F.~Staub, Comput. Phys. Commun. 183 (2012) 2458
#                     arXiv:1104.1573 [hep-ph] 
# in case of problems send email to porod@physik.uni-wuerzburg.de
# Created: 20.12.2022,  13:43
Block SPINFO         # Program information
     1   SPheno      # spectrum calculator
     2   v4.0.5be    # version number
#
Block SPhenoINFO     # SPheno specific information
    1      2         # using 2-loop RGEs
    2      2         # using pole masses for boundary conditions at mZ
Block MODSEL  # Model selection
    1    0    # general MSSM
Block MINPAR  # Input parameters
    3    2.19161593E+01  # tanb at m_Z    
    4   -1.00000000E+00  # Sign(mu)
Block EXTPAR  # non-universal input parameters
    0    3.50579498E+03  # scale for input parameters
    1    2.34549077E+02  # M_1
    2    3.17591114E+02  # M_2
    3    2.27707364E+03  # M_3
   11    2.08020558E+03  # A_t
   12    7.96916425E+02  # A_b
   13    3.15171802E+01  # A_tau
   23   -6.02888782E+02  # mu
   25    2.09785968E+01  # tan(beta)
   26    3.43773993E+03  # m_A, pole mass
   31    1.00000000E+04  # M_L11
   32    1.00000000E+04  # M_L22
   33    1.00000000E+04  # M_L33
   34    1.00000000E+04  # M_E11
   35    1.00000000E+04  # M_E22
   36    1.00000000E+04  # M_E33
   41    1.00000000E+04  # M_Q11
   42    1.00000000E+04  # M_Q22
   43    3.59181854E+03  # M_Q33
   44    1.00000000E+04  # M_U11
   45    1.00000000E+04  # M_U22
   46    3.35614193E+03  # M_U33
   47    1.00000000E+04  # M_D11
   48    1.00000000E+04  # M_D22
   49    4.81563034E+03  # M_D33
Block SMINPUTS  # SM parameters
         1     1.27908970E+02  # alpha_em^-1(MZ)^MSbar
         2     1.16637870E-05  # G_mu [GeV^-2]
         3     1.18400000E-01  # alpha_s(MZ)^MSbar
         4     9.11876000E+01  # m_Z(pole)
         5     4.18000000E+00  # m_b(m_b), MSbar
         6     1.73200000E+02  # m_t(pole)
         7     1.77700000E+00  # m_tau(pole)
         8     0.00000000E+00  # m_nu_3
        11     5.10998930E-04  # m_e(pole)
        12     0.00000000E+00  # m_nu_1
        13     1.05658372E-01  # m_muon(pole)
        14     0.00000000E+00  # m_nu_2
        21     5.00000000E-03  # m_d(2 GeV), MSbar
        22     2.50000000E-03  # m_u(2 GeV), MSbar
        23     9.50000000E-02  # m_s(2 GeV), MSbar
        24     1.27000000E+00  # m_c(m_c), MSbar
Block gauge Q=  3.50579498E+03  # (SUSY scale)
   1    3.55362975E-01  # g'(Q)^DRbar
   2    6.65198874E-01  # g(Q)^DRbar
   3    1.21977796E+00  # g3(Q)^DRbar
Block Yu Q=  3.50579498E+03  # (SUSY scale)
  1  1     8.39389223E-06   # Y_u(Q)^DRbar
  2  2     4.26409725E-03   # Y_c(Q)^DRbar
  3  3     1.01404960E+00   # Y_t(Q)^DRbar
Block Yd Q=  3.50579498E+03  # (SUSY scale)
  1  1     3.53850711E-04   # Y_d(Q)^DRbar
  2  2     6.72316351E-03   # Y_s(Q)^DRbar
  3  3     3.50909024E-01   # Y_b(Q)^DRbar
Block Ye Q=  3.50579498E+03  # (SUSY scale)
  1  1     6.17495366E-05   # Y_e(Q)^DRbar
  2  2     1.27678457E-02   # Y_mu(Q)^DRbar
  3  3     2.14734161E-01   # Y_tau(Q)^DRbar
Block Au Q=  3.50579498E+03  # (SUSY scale)
  1  1     0.00000000E+00   # A_u(Q)^DRbar
  2  2     0.00000000E+00   # A_c(Q)^DRbar
  3  3     2.08020555E+03   # A_t(Q)^DRbar
Block Ad Q=  3.50579498E+03  # (SUSY scale)
  1  1     0.00000000E+00   # A_d(Q)^DRbar
  2  2     0.00000000E+00   # A_s(Q)^DRbar
  3  3     7.96916352E+02   # A_b(Q)^DRbar
Block Ae Q=  3.50579498E+03  # (SUSY scale)
  1  1     0.00000000E+00   # A_e(Q)^DRbar
  2  2     0.00000000E+00   # A_mu(Q)^DRbar
  3  3     3.15171797E+01   # A_tau(Q)^DRbar
Block MSOFT Q=  3.50579498E+03  # soft SUSY breaking masses at Q
   1    2.34549077E+02  # M_1
   2    3.17591114E+02  # M_2
   3    2.27707364E+03  # M_3
  21    1.13948137E+07  # M^2_(H,d)
  22   -4.61828446E+04  # M^2_(H,u)
  31    1.00000000E+04  # M_(L,11)
  32    1.00000000E+04  # M_(L,22)
  33    1.00000000E+04  # M_(L,33)
  34    1.00000000E+04  # M_(E,11)
  35    1.00000000E+04  # M_(E,22)
  36    1.00000000E+04  # M_(E,33)
  41    1.00000000E+04  # M_(Q,11)
  42    1.00000000E+04  # M_(Q,22)
  43    3.59181854E+03  # M_(Q,33)
  44    1.00000000E+04  # M_(U,11)
  45    1.00000000E+04  # M_(U,22)
  46    3.35614193E+03  # M_(U,33)
  47    1.00000000E+04  # M_(D,11)
  48    1.00000000E+04  # M_(D,22)
  49    4.81563034E+03  # M_(D,33)
Block MASS  # Mass spectrum
#   PDG code      mass          particle
         6     1.73200000E+02  # m_t(pole)
        23     9.11876000E+01  # m_Z(pole)
        24     8.04299946E+01  # W+
        15     1.77700000E+00  # m_tau(pole)
        25     1.22488317E+02  # h0
        35     3.43716346E+03  # H0
        36     3.43773993E+03  # A0
        37     3.43929201E+03  # H+
   1000001     1.01141845E+04  # ~d_L
   2000001     1.00890919E+04  # ~d_R
   1000002     1.01138185E+04  # ~u_L
   2000002     1.00919132E+04  # ~u_R
   1000003     1.01141861E+04  # ~s_L
   2000003     1.00890941E+04  # ~s_R
   1000004     1.01138202E+04  # ~c_L
   2000004     1.00919142E+04  # ~c_R
   1000005     3.63815204E+03  # ~b_1
   2000005     4.87047544E+03  # ~b_2
   1000006     3.37159972E+03  # ~t_1
   2000006     3.64533143E+03  # ~t_2
   1000011     1.00212560E+04  # ~e_L-
   2000011     1.00092353E+04  # ~e_R-
   1000012     1.00204860E+04  # ~nu_eL
   1000013     1.00212622E+04  # ~mu_L-
   2000013     1.00092463E+04  # ~mu_R-
   1000014     1.00204918E+04  # ~nu_muL
   1000015     1.00123360E+04  # ~tau_1-
   2000015     1.00230279E+04  # ~tau_2-
   1000016     1.00221373E+04  # ~nu_tauL
   1000021     2.71316242E+03  # ~g
   1000022     2.35230089E+02  # ~chi_10
   1000023     3.43243389E+02  # ~chi_20
   1000025     6.08530589E+02  # ~chi_30
   1000035     6.17195644E+02  # ~chi_40
   1000024     3.43243879E+02  # ~chi_1+
   1000037     6.18453920E+02  # ~chi_2+
# Higgs mixing
Block alpha # Effective Higgs mixing angle
          -4.56785481E-02   # alpha
Block Hmix Q=  3.50579498E+03  # Higgs mixing parameters
   1   -6.02888782E+02  # mu
   2    2.09785968E+01  # tan[beta](Q)
   3    2.43076325E+02  # v(Q)
   4    1.18180558E+07  # m^2_A(Q)
Block stopmix # stop mixing matrix
   1  1    -1.36670800E-01   # Re[R_st(1,1)]
   1  2     9.90616521E-01   # Re[R_st(1,2)]
   2  1    -9.90616521E-01   # Re[R_st(2,1)]
   2  2    -1.36670800E-01   # Re[R_st(2,2)]
Block sbotmix # sbottom mixing matrix
   1  1    -9.99995778E-01   # Re[R_sb(1,1)]
   1  2     2.90582513E-03   # Re[R_sb(1,2)]
   2  1    -2.90582513E-03   # Re[R_sb(2,1)]
   2  2    -9.99995778E-01   # Re[R_sb(2,2)]
Block staumix # stau mixing matrix
   1  1    -1.07094893E-01   # Re[R_sta(1,1)]
   1  2     9.94248804E-01   # Re[R_sta(1,2)]
   2  1    -9.94248804E-01   # Re[R_sta(2,1)]
   2  2    -1.07094893E-01   # Re[R_sta(2,2)]
Block Nmix # neutralino mixing matrix
   1  1     9.95525747E-01   # Re[N(1,1)]
   1  2    -1.80415048E-02   # Re[N(1,2)]
   1  3    -8.75071219E-02   # Re[N(1,3)]
   1  4    -3.07489029E-02   # Re[N(1,4)]
   2  1    -3.66173448E-02   # Re[N(2,1)]
   2  2    -9.78081949E-01   # Re[N(2,2)]
   2  3    -1.81364012E-01   # Re[N(2,3)]
   2  4    -9.55089890E-02   # Re[N(2,4)]
   3  1    -3.87652944E-02   # Re[N(3,1)]
   3  2     6.26257580E-02   # Re[N(3,2)]
   3  3    -7.02618168E-01   # Re[N(3,3)]
   3  4     7.07744994E-01   # Re[N(3,4)]
   4  1    -7.80058287E-02   # Re[N(4,1)]
   4  2     1.97757984E-01   # Re[N(4,2)]
   4  3    -6.82478797E-01   # Re[N(4,3)]
   4  4    -6.99306486E-01   # Re[N(4,4)]
Block Umix # chargino mixing matrix
   1  1    -9.66106691E-01   # Re[U(1,1)]
   1  2    -2.58143102E-01   # Re[U(1,2)]
   2  1     2.58143102E-01   # Re[U(2,1)]
   2  2    -9.66106691E-01   # Re[U(2,2)]
Block Vmix # chargino mixing matrix
   1  1    -9.90782077E-01   # Re[V(1,1)]
   1  2     1.35465408E-01   # Re[V(1,2)]
   2  1     1.35465408E-01   # Re[V(2,1)]
   2  2     9.90782077E-01   # Re[V(2,2)]
DECAY        23     2.49520000E+00   # Z
DECAY        24     2.08500000E+00   # W
DECAY   2000011     5.02346705E+01   # ~e^-_R
#    BR                NDA      ID1      ID2
     9.91121655E-01    2     1000022        11   # BR(~e^-_R -> chi^0_1 e^-)
     1.33922530E-03    2     1000023        11   # BR(~e^-_R -> chi^0_2 e^-)
     1.49339152E-03    2     1000025        11   # BR(~e^-_R -> chi^0_3 e^-)
     6.04571313E-03    2     1000035        11   # BR(~e^-_R -> chi^0_4 e^-)
DECAY   1000011     1.44552453E+02   # ~e^-_L
#    BR                NDA      ID1      ID2
     8.04619556E-02    2     1000022        11   # BR(~e^-_L -> chi^0_1 e^-)
     3.02992007E-01    2     1000023        11   # BR(~e^-_L -> chi^0_2 e^-)
     5.32186669E-04    2     1000025        11   # BR(~e^-_L -> chi^0_3 e^-)
     7.37776872E-03    2     1000035        11   # BR(~e^-_L -> chi^0_4 e^-)
     5.68277451E-01    2    -1000024        12   # BR(~e^-_L -> chi^-_1 nu_e)
     4.03586316E-02    2    -1000037        12   # BR(~e^-_L -> chi^-_2 nu_e)
#    BR                NDA      ID1      ID2       ID3
DECAY   2000013     5.02991751E+01   # ~mu^-_R
#    BR                NDA      ID1      ID2
     9.89856651E-01    2     1000022        13   # BR(~mu^-_R -> chi^0_1 mu^-)
     1.35868665E-03    2     1000023        13   # BR(~mu^-_R -> chi^0_2 mu^-)
     1.80771715E-03    2     1000025        13   # BR(~mu^-_R -> chi^0_3 mu^-)
     6.33627141E-03    2     1000035        13   # BR(~mu^-_R -> chi^0_4 mu^-)
     5.97769367E-04    2    -1000037        14   # BR(~mu^-_R -> chi^-_2 nu_mu)
DECAY   1000013     1.44584807E+02   # ~mu^-_L
#    BR                NDA      ID1      ID2
     8.04457194E-02    2     1000022        13   # BR(~mu^-_L -> chi^0_1 mu^-)
     3.02931773E-01    2     1000023        13   # BR(~mu^-_L -> chi^0_2 mu^-)
     6.42217420E-04    2     1000025        13   # BR(~mu^-_L -> chi^0_3 mu^-)
     7.48002417E-03    2     1000035        13   # BR(~mu^-_L -> chi^0_4 mu^-)
     5.68150640E-01    2    -1000024        14   # BR(~mu^-_L -> chi^-_1 nu_mu)
     4.03496258E-02    2    -1000037        14   # BR(~mu^-_L -> chi^-_2 nu_mu)
#    BR                NDA      ID1      ID2       ID3
DECAY   1000015     6.94749925E+01   # ~tau^-_1
#    BR                NDA      ID1      ID2
     7.14535658E-01    2     1000022        15   # BR(~tau^-_1 -> chi^0_1 tau^-)
     2.32151999E-02    2     1000023        15   # BR(~tau^-_1 -> chi^0_2 tau^-)
     6.22794933E-02    2     1000025        15   # BR(~tau^-_1 -> chi^0_3 tau^-)
     5.56072343E-02    2     1000035        15   # BR(~tau^-_1 -> chi^0_4 tau^-)
     4.39365581E-02    2    -1000024        16   # BR(~tau^-_1 -> chi^-_1 nu_tau)
     1.00425856E-01    2    -1000037        16   # BR(~tau^-_1 -> chi^-_2 nu_tau)
DECAY   2000015     1.52716360E+02   # ~tau^-_2
#    BR                NDA      ID1      ID2
     7.81556556E-02    2     1000022        15   # BR(~tau^-_2 -> chi^0_1 tau^-)
     2.80666179E-01    2     1000023        15   # BR(~tau^-_2 -> chi^0_2 tau^-)
     3.16394652E-02    2     1000025        15   # BR(~tau^-_2 -> chi^0_3 tau^-)
     3.93118359E-02    2     1000035        15   # BR(~tau^-_2 -> chi^0_4 tau^-)
     5.21987268E-01    2    -1000024        16   # BR(~tau^-_2 -> chi^-_1 nu_tau)
     4.82395959E-02    2    -1000037        16   # BR(~tau^-_2 -> chi^-_2 nu_tau)
#    BR                NDA      ID1      ID2       ID3
DECAY   1000012     1.44557046E+02   # ~nu_e
#    BR                NDA      ID1      ID2
     9.21503467E-02    2     1000022        12   # BR(~nu_e -> chi^0_1 nu_e)
     2.79663295E-01    2     1000023        12   # BR(~nu_e -> chi^0_2 nu_e)
     2.10328482E-03    2     1000025        12   # BR(~nu_e -> chi^0_3 nu_e)
     1.73583907E-02    2     1000035        12   # BR(~nu_e -> chi^0_4 nu_e)
     5.97611851E-01    2     1000024        11   # BR(~nu_e -> chi^+_1 e^-)
     1.11128311E-02    2     1000037        11   # BR(~nu_e -> chi^+_2 e^-)
#    BR                NDA      ID1      ID2       ID3
DECAY   1000014     1.44589392E+02   # ~nu_mu
#    BR                NDA      ID1      ID2
     9.21297856E-02    2     1000022        14   # BR(~nu_mu -> chi^0_1 nu_mu)
     2.79600896E-01    2     1000023        14   # BR(~nu_mu -> chi^0_2 nu_mu)
     2.10281554E-03    2     1000025        14   # BR(~nu_mu -> chi^0_3 nu_mu)
     1.73545177E-02    2     1000035        14   # BR(~nu_mu -> chi^0_4 nu_mu)
     5.97493456E-01    2     1000024        13   # BR(~nu_mu -> chi^+_1 mu^-)
     1.13185296E-02    2     1000037        13   # BR(~nu_mu -> chi^+_2 mu^-)
#    BR                NDA      ID1      ID2       ID3
DECAY   1000016     1.53708076E+02   # ~nu_tau
#    BR                NDA      ID1      ID2
     8.66784771E-02    2     1000022        16   # BR(~nu_tau -> chi^0_1 nu_tau)
     2.63057052E-01    2     1000023        16   # BR(~nu_tau -> chi^0_2 nu_tau)
     1.97839629E-03    2     1000025        16   # BR(~nu_tau -> chi^0_3 nu_tau)
     1.63276879E-02    2     1000035        16   # BR(~nu_tau -> chi^0_4 nu_tau)
     5.66103591E-01    2     1000024        15   # BR(~nu_tau -> chi^+_1 tau^-)
     6.58547958E-02    2     1000037        15   # BR(~nu_tau -> chi^+_2 tau^-)
#    BR                NDA      ID1      ID2       ID3
DECAY   2000001     6.90973481E+02   # ~d_R
#    BR                NDA      ID1      ID2
     8.07022041E-03    2     1000022         1   # BR(~d_R -> chi^0_1 d)
     9.91857409E-01    2     1000021         1   # BR(~d_R -> ~g d)
DECAY   1000001     8.22197298E+02   # ~d_L
#    BR                NDA      ID1      ID2
     2.06335518E-03    2     1000022         1   # BR(~d_L -> chi^0_1 d)
     5.09914701E-02    2     1000023         1   # BR(~d_L -> chi^0_2 d)
     2.59874088E-04    2     1000025         1   # BR(~d_L -> chi^0_3 d)
     2.40741809E-03    2     1000035         1   # BR(~d_L -> chi^0_4 d)
     1.00841018E-01    2    -1000024         2   # BR(~d_L -> chi^-_1 u)
     7.16234621E-03    2    -1000037         2   # BR(~d_L -> chi^-_2 u)
     8.36274518E-01    2     1000021         1   # BR(~d_L -> ~g d)
DECAY   2000003     6.90991643E+02   # ~s_R
#    BR                NDA      ID1      ID2
     8.07011027E-03    2     1000022         3   # BR(~s_R -> chi^0_1 s)
     9.91831622E-01    2     1000021         3   # BR(~s_R -> ~g s)
DECAY   1000003     8.22210098E+02   # ~s_L
#    BR                NDA      ID1      ID2
     2.06340779E-03    2     1000022         3   # BR(~s_L -> chi^0_1 s)
     5.09910468E-02    2     1000023         3   # BR(~s_L -> chi^0_2 s)
     2.65276300E-04    2     1000025         3   # BR(~s_L -> chi^0_3 s)
     2.41248025E-03    2     1000035         3   # BR(~s_L -> chi^0_4 s)
     1.00839540E-01    2    -1000024         4   # BR(~s_L -> chi^-_1 c)
     7.16657705E-03    2    -1000037         4   # BR(~s_L -> chi^-_2 c)
     8.36261672E-01    2     1000021         3   # BR(~s_L -> ~g s)
DECAY   1000005     1.84105137E+02   # ~b_1
#    BR                NDA      ID1      ID2
     3.67652415E-03    2     1000022         5   # BR(~b_1 -> chi^0_1 b)
     8.22804891E-02    2     1000023         5   # BR(~b_1 -> chi^0_2 b)
     2.29540559E-02    2     1000025         5   # BR(~b_1 -> chi^0_3 b)
     2.48787725E-02    2     1000035         5   # BR(~b_1 -> chi^0_4 b)
     1.65518066E-01    2    -1000024         6   # BR(~b_1 -> chi^-_1 t)
     3.85308507E-01    2    -1000037         6   # BR(~b_1 -> chi^-_2 t)
     3.07281677E-01    2     1000021         5   # BR(~b_1 -> ~g b)
     8.10190798E-03    2     1000006       -24   # BR(~b_1 -> ~t_1 W^-)
DECAY   2000005     2.08807269E+02   # ~b_2
#    BR                NDA      ID1      ID2
     1.32603947E-02    2     1000022         5   # BR(~b_2 -> chi^0_1 b)
     1.80233231E-03    2     1000023         5   # BR(~b_2 -> chi^0_2 b)
     2.73787185E-02    2     1000025         5   # BR(~b_2 -> chi^0_3 b)
     2.59133363E-02    2     1000035         5   # BR(~b_2 -> chi^0_4 b)
     3.60712106E-03    2    -1000024         6   # BR(~b_2 -> chi^-_1 t)
     5.16551012E-02    2    -1000037         6   # BR(~b_2 -> chi^-_2 t)
     8.75758656E-01    2     1000021         5   # BR(~b_2 -> ~g b)
     2.63648022E-04    2     2000006       -24   # BR(~b_2 -> ~t_2 W^-)
     1.36117422E-04    2     1000005        23   # BR(~b_2 -> ~b_1 Z)
     2.16225372E-04    2     1000005        25   # BR(~b_2 -> ~b_1 h^0)
DECAY   2000002     7.08109935E+02   # ~u_R
#    BR                NDA      ID1      ID2
     3.15085021E-02    2     1000022         2   # BR(~u_R -> chi^0_1 u)
     1.92218026E-04    2     1000035         2   # BR(~u_R -> chi^0_4 u)
     9.68209223E-01    2     1000021         2   # BR(~u_R -> ~g u)
DECAY   1000002     8.22184190E+02   # ~u_L
#    BR                NDA      ID1      ID2
     1.37138029E-03    2     1000022         2   # BR(~u_L -> chi^0_1 u)
     5.23684932E-02    2     1000023         2   # BR(~u_L -> chi^0_2 u)
     1.66902596E-04    2     1000025         2   # BR(~u_L -> chi^0_3 u)
     1.81684157E-03    2     1000035         2   # BR(~u_L -> chi^0_4 u)
     1.06055811E-01    2     1000024         1   # BR(~u_L -> chi^+_1 d)
     1.97236958E-03    2     1000037         1   # BR(~u_L -> chi^+_2 d)
     8.36248202E-01    2     1000021         2   # BR(~u_L -> ~g u)
DECAY   2000004     7.08117242E+02   # ~c_R
#    BR                NDA      ID1      ID2
     3.15081836E-02    2     1000022         4   # BR(~c_R -> chi^0_1 c)
     1.94719060E-04    2     1000035         4   # BR(~c_R -> chi^0_4 c)
     9.68199315E-01    2     1000021         4   # BR(~c_R -> ~g c)
DECAY   1000004     8.22196969E+02   # ~c_L
#    BR                NDA      ID1      ID2
     1.37136338E-03    2     1000022         4   # BR(~c_L -> chi^0_1 c)
     5.23677257E-02    2     1000023         4   # BR(~c_L -> chi^0_2 c)
     1.69112091E-04    2     1000025         4   # BR(~c_L -> chi^0_3 c)
     1.81897553E-03    2     1000035         4   # BR(~c_L -> chi^0_4 c)
     1.06054914E-01    2     1000024         3   # BR(~c_L -> chi^+_1 s)
     1.98255747E-03    2     1000037         3   # BR(~c_L -> chi^+_2 s)
     8.36235351E-01    2     1000021         4   # BR(~c_L -> ~g c)
DECAY   1000006     1.65514358E+02   # ~t_1
#    BR                NDA      ID1      ID2
     4.30599736E-02    2     1000022         6   # BR(~t_1 -> chi^0_1 t)
     6.82154092E-04    2     1000023         6   # BR(~t_1 -> chi^0_2 t)
     1.92327439E-01    2     1000025         6   # BR(~t_1 -> chi^0_3 t)
     1.99019862E-01    2     1000035         6   # BR(~t_1 -> chi^0_4 t)
     9.00713416E-04    2     1000024         5   # BR(~t_1 -> chi^+_1 b)
     3.85005241E-01    2     1000037         5   # BR(~t_1 -> chi^+_2 b)
     1.78913381E-01    2     1000021         6   # BR(~t_1 -> ~g t)
#    BR                NDA      ID1      ID2       ID3
DECAY   2000006     1.87104752E+02   # ~t_2
#    BR                NDA      ID1      ID2
     4.13432923E-03    2     1000022         6   # BR(~t_2 -> chi^0_1 t)
     8.75041671E-02    2     1000023         6   # BR(~t_2 -> chi^0_2 t)
     1.89738058E-01    2     1000025         6   # BR(~t_2 -> chi^0_3 t)
     1.77726445E-01    2     1000035         6   # BR(~t_2 -> chi^0_4 t)
     1.74843784E-01    2     1000024         5   # BR(~t_2 -> chi^+_1 b)
     4.20836956E-02    2     1000037         5   # BR(~t_2 -> chi^+_2 b)
     3.11899928E-01    2     1000021         6   # BR(~t_2 -> ~g t)
     4.08585021E-03    2     1000006        23   # BR(~t_2 -> ~t_1 Z)
     7.98374359E-03    2     1000006        25   # BR(~t_2 -> ~t_1 h^0)
DECAY   1000024     2.28980552E-03   # chi^+_1
#    BR                NDA      ID1      ID2
     9.99999245E-01    2     1000022        24   # BR(chi^+_1 -> chi^0_1 W^+)
#    BR                NDA      ID1      ID2       ID3
DECAY   1000037     3.11519772E+00   # chi^+_2
#    BR                NDA      ID1      ID2
     1.06352455E-01    2     1000022        24   # BR(chi^+_2 -> chi^0_1 W^+)
     3.22852742E-01    2     1000023        24   # BR(chi^+_2 -> chi^0_2 W^+)
     3.00252092E-01    2     1000024        23   # BR(chi^+_2 -> chi^+_1 Z)
     2.69767331E-01    2     1000024        25   # BR(chi^+_2 -> chi^+_1 h^0)
#    BR                NDA      ID1      ID2       ID3
     3.99043743E-04    3     1000022        -5         6   # BR(chi^+_2 -> chi^0_1 b_bar t)
     3.76160243E-04    3     1000023        -5         6   # BR(chi^+_2 -> chi^0_2 b_bar t)
DECAY   1000022     0.00000000E+00   # chi^0_1
DECAY   1000023     4.29818217E-04   # chi^0_2
#    BR                NDA      ID1      ID2
     9.99851643E-01    2     1000022        23   # BR(chi^0_2 -> chi^0_1 Z)
#    BR                NDA      ID1      ID2       ID3
DECAY   1000025     5.01668273E+00   # chi^0_3
#    BR                NDA      ID1      ID2
     2.27412608E-01    2     1000024       -24   # BR(chi^0_3 -> chi^+_1 W^-)
     2.27412608E-01    2    -1000024        24   # BR(chi^0_3 -> chi^-_1 W^+)
     6.95003645E-02    2     1000022        23   # BR(chi^0_3 -> chi^0_1 Z)
     2.10970460E-01    2     1000023        23   # BR(chi^0_3 -> chi^0_2 Z)
     6.66927536E-02    2     1000022        25   # BR(chi^0_3 -> chi^0_1 h^0)
     1.97304940E-01    2     1000023        25   # BR(chi^0_3 -> chi^0_2 h^0)
#    BR                NDA      ID1      ID2       ID3
     3.04195282E-04    3     1000024         5        -6   # BR(chi^0_3 -> chi^+_1 b t_bar)
     3.04195282E-04    3    -1000024        -5         6   # BR(chi^0_3 -> chi^-_1 b_bar t)
DECAY   1000035     3.20613952E+00   # chi^0_4
#    BR                NDA      ID1      ID2
     3.12715715E-01    2     1000024       -24   # BR(chi^0_4 -> chi^+_1 W^-)
     3.12715715E-01    2    -1000024        24   # BR(chi^0_4 -> chi^-_1 W^+)
     2.41948601E-02    2     1000022        23   # BR(chi^0_4 -> chi^0_1 Z)
     3.03389124E-02    2     1000023        23   # BR(chi^0_4 -> chi^0_2 Z)
     8.24512858E-02    2     1000022        25   # BR(chi^0_4 -> chi^0_1 h^0)
     2.36858341E-01    2     1000023        25   # BR(chi^0_4 -> chi^0_2 h^0)
#    BR                NDA      ID1      ID2       ID3
     3.52117768E-04    3     1000024         5        -6   # BR(chi^0_4 -> chi^+_1 b t_bar)
     3.52117768E-04    3    -1000024        -5         6   # BR(chi^0_4 -> chi^-_1 b_bar t)
DECAY   1000021     1.69497129E-01   # ~g
#    BR                NDA      ID1      ID2
     3.36994081E-03    2     1000025        21   # BR(~g -> chi^0_3 g)
     3.53564865E-03    2     1000035        21   # BR(~g -> chi^0_4 g)
#    BR                NDA      ID1      ID2       ID3
     1.76186202E-04    3     1000022         2        -2   # BR(~g -> chi^0_1 u u_bar)
     1.76186195E-04    3     1000022         4        -4   # BR(~g -> chi^0_1 c c_bar)
     2.29353950E-02    3     1000022         6        -6   # BR(~g -> chi^0_1 t t_bar)
     2.42683526E-03    3     1000022         5        -5   # BR(~g -> chi^0_1 b b_bar)
     3.15761223E-04    3     1000023         2        -2   # BR(~g -> chi^0_2 u u_bar)
     3.15761613E-04    3     1000023         4        -4   # BR(~g -> chi^0_2 c c_bar)
     2.69014431E-02    3     1000023         6        -6   # BR(~g -> chi^0_2 t t_bar)
     3.07244637E-04    3     1000023         1        -1   # BR(~g -> chi^0_2 d d_bar)
     3.07249882E-04    3     1000023         3        -3   # BR(~g -> chi^0_2 s s_bar)
     3.12758262E-02    3     1000023         5        -5   # BR(~g -> chi^0_2 b b_bar)
     1.79769630E-01    3     1000025         6        -6   # BR(~g -> chi^0_3 t t_bar)
     1.04636460E-02    3     1000025         5        -5   # BR(~g -> chi^0_3 b b_bar)
     1.89804327E-01    3     1000035         6        -6   # BR(~g -> chi^0_4 t t_bar)
     1.08714407E-02    3     1000035         5        -5   # BR(~g -> chi^0_4 b b_bar)
     6.23225905E-04    3     1000024         1        -2   # BR(~g -> chi^+_1 d u_bar)
     6.23225905E-04    3    -1000024        -1         2   # BR(~g -> chi^-_1 d_bar u)
     6.23231615E-04    3     1000024         3        -4   # BR(~g -> chi^+_1 s c_bar)
     6.23231615E-04    3    -1000024        -3         4   # BR(~g -> chi^-_1 s_bar c)
     5.79595140E-02    3     1000024         5        -6   # BR(~g -> chi^+_1 b t_bar)
     5.79595140E-02    3    -1000024        -5         6   # BR(~g -> chi^-_1 b_bar t)
     1.99152945E-01    3     1000037         5        -6   # BR(~g -> chi^+_2 b t_bar)
     1.99152945E-01    3    -1000037        -5         6   # BR(~g -> chi^-_2 b_bar t)
DECAY        25     3.57770738E-03   # Gamma(h0)
     2.33014712E-03   2        22        22   # BR(h0 -> photon photon)
     1.28535648E-03   2        22        23   # BR(h0 -> photon Z)
     2.17459161E-02   2        23        23   # BR(h0 -> Z Z)
     1.88955911E-01   2       -24        24   # BR(h0 -> W W)
     7.42327872E-02   2        21        21   # BR(h0 -> gluon gluon)
     5.46007865E-09   2       -11        11   # BR(h0 -> Electron electron)
     2.42872577E-04   2       -13        13   # BR(h0 -> Muon muon)
     7.00254343E-02   2       -15        15   # BR(h0 -> Tau tau)
     1.55700718E-07   2        -2         2   # BR(h0 -> Up up)
     3.02126082E-02   2        -4         4   # BR(h0 -> Charm charm)
     6.34366104E-07   2        -1         1   # BR(h0 -> Down down)
     2.29435481E-04   2        -3         3   # BR(h0 -> Strange strange)
     6.10738735E-01   2        -5         5   # BR(h0 -> Bottom bottom)
DECAY        35     6.50069832E+01   # Gamma(HH)
     2.95376241E-08   2        22        22   # BR(HH -> photon photon)
     1.29319674E-07   2        22        23   # BR(HH -> photon Z)
     7.50467281E-07   2        23        23   # BR(HH -> Z Z)
     1.90314051E-07   2       -24        24   # BR(HH -> W W)
     1.15917878E-06   2        21        21   # BR(HH -> gluon gluon)
     4.01763163E-09   2       -11        11   # BR(HH -> Electron electron)
     1.78892733E-04   2       -13        13   # BR(HH -> Muon muon)
     5.16675291E-02   2       -15        15   # BR(HH -> Tau tau)
     2.98759006E-13   2        -2         2   # BR(HH -> Up up)
     5.79590258E-08   2        -4         4   # BR(HH -> Charm charm)
     4.53600985E-03   2        -6         6   # BR(HH -> Top top)
     2.93719337E-07   2        -1         1   # BR(HH -> Down down)
     1.06239931E-04   2        -3         3   # BR(HH -> Strange strange)
     2.89353405E-01   2        -5         5   # BR(HH -> Bottom bottom)
     2.50043379E-02   2  -1000024   1000024   # BR(HH -> Chargino1 chargino1)
     1.83748225E-01   2  -1000024   1000037   # BR(HH -> Chargino1 chargino2)
     1.83748225E-01   2  -1000037   1000024   # BR(HH -> Chargino2 chargino1)
     5.45527427E-03   2  -1000037   1000037   # BR(HH -> Chargino2 chargino2)
     9.94925013E-04   2   1000022   1000022   # BR(HH -> neutralino1 neutralino1)
     6.78185866E-03   2   1000022   1000023   # BR(HH -> neutralino1 neutralino2)
     2.76239929E-02   2   1000022   1000025   # BR(HH -> neutralino1 neutralino3)
     2.83706754E-02   2   1000022   1000035   # BR(HH -> neutralino1 neutralino4)
     1.14178140E-02   2   1000023   1000023   # BR(HH -> neutralino2 neutralino2)
     8.11091550E-02   2   1000023   1000025   # BR(HH -> neutralino2 neutralino3)
     8.10928181E-02   2   1000023   1000035   # BR(HH -> neutralino2 neutralino4)
     1.13098592E-03   2   1000025   1000025   # BR(HH -> neutralino3 neutralino3)
     8.80419640E-03   2   1000025   1000035   # BR(HH -> neutralino3 neutralino4)
     8.86920186E-03   2   1000035   1000035   # BR(HH -> neutralino4 neutralino4)
     3.62362960E-06   2        25        25   # BR(HH -> h0 h0)
DECAY        36     6.39650307E+01   # Gamma(A0)
     4.24895170E-09   2        22        22   # BR(A0 -> photon photon)
     7.78661991E-08   2        22        23   # BR(A0 -> photon Z)
     8.53281462E-06   2        21        21   # BR(A0 -> gluon gluon)
     3.89472005E-09   2       -11        11   # BR(A0 -> Electron electron)
     1.73420096E-04   2       -13        13   # BR(A0 -> Muon muon)
     5.00869908E-02   2       -15        15   # BR(A0 -> Tau tau)
     2.71860949E-13   2        -2         2   # BR(A0 -> Up up)
     5.27392326E-08   2        -4         4   # BR(A0 -> Charm charm)
     4.17697500E-03   2        -6         6   # BR(A0 -> Top top)
     2.84726658E-07   2        -1         1   # BR(A0 -> Down down)
     1.02987659E-04   2        -3         3   # BR(A0 -> Strange strange)
     2.80497062E-01   2        -5         5   # BR(A0 -> Bottom bottom)
     2.41156438E-02   2  -1000024   1000024   # BR(A0 -> Chargino1 chargino1)
     1.88051551E-01   2  -1000024   1000037   # BR(A0 -> Chargino1 chargino2)
     1.88051551E-01   2  -1000037   1000024   # BR(A0 -> Chargino2 chargino1)
     4.31085127E-03   2  -1000037   1000037   # BR(A0 -> Chargino2 chargino2)
     9.66908577E-04   2   1000022   1000022   # BR(A0 -> neutralino1 neutralino1)
     6.54581019E-03   2   1000022   1000023   # BR(A0 -> neutralino1 neutralino2)
     3.22684014E-02   2   1000022   1000025   # BR(A0 -> neutralino1 neutralino3)
     2.49995544E-02   2   1000022   1000035   # BR(A0 -> neutralino1 neutralino4)
     1.09877081E-02   2   1000023   1000023   # BR(A0 -> neutralino2 neutralino2)
     9.32738361E-02   2   1000023   1000025   # BR(A0 -> neutralino2 neutralino3)
     7.27258247E-02   2   1000023   1000035   # BR(A0 -> neutralino2 neutralino4)
     1.57984480E-03   2   1000025   1000025   # BR(A0 -> neutralino3 neutralino3)
     8.49706076E-03   2   1000025   1000035   # BR(A0 -> neutralino3 neutralino4)
     8.57767790E-03   2   1000035   1000035   # BR(A0 -> neutralino4 neutralino4)
     1.38442169E-06   2        23        25   # BR(A0 -> Z h0)
     5.59007871E-38   2        25        25   # BR(A0 -> h0 h0)
DECAY        37     6.46564297E+01   # Gamma(Hp)
     4.22519603E-09   2       -11        12   # BR(Hp -> Electron nu_e)
     1.80640327E-04   2       -13        14   # BR(Hp -> Muon nu_mu)
     5.10953649E-02   2       -15        16   # BR(Hp -> Tau nu_tau)
     2.67386073E-07   2        -1         2   # BR(Hp -> Down up)
     4.52046725E-06   2        -3         2   # BR(Hp -> Strange up)
     3.03295077E-06   2        -5         2   # BR(Hp -> Bottom up)
     1.50722906E-08   2        -1         4   # BR(Hp -> Down charm)
     9.64194189E-05   2        -3         4   # BR(Hp -> Strange charm)
     4.24721743E-04   2        -5         4   # BR(Hp -> Bottom charm)
     2.81178860E-07   2        -1         6   # BR(Hp -> Down top)
     6.27375667E-06   2        -3         6   # BR(Hp -> Strange top)
     2.90668752E-01   2        -5         6   # BR(Hp -> Bottom top)
     1.23399830E-02   2   1000022   1000024   # BR(Hp -> neutralino1 chargino1)
     4.33089123E-02   2   1000022   1000037   # BR(Hp -> neutralino1 chargino2)
     2.38609293E-05   2   1000023   1000024   # BR(Hp -> neutralino2 chargino1)
     2.12618908E-01   2   1000023   1000037   # BR(Hp -> neutralino2 chargino2)
     1.89979195E-01   2   1000024   1000025   # BR(Hp -> chargino1 neutralino3)
     7.49940066E-03   2   1000025   1000037   # BR(Hp -> neutralino3 chargino2)
     1.89852675E-01   2   1000024   1000035   # BR(Hp -> chargino1 neutralino4)
     1.89539951E-03   2   1000035   1000037   # BR(Hp -> neutralino4 chargino2)
     1.37212844E-06   2        24        25   # BR(Hp -> W h0)
     9.19929885E-13   2        24        35   # BR(Hp -> W HH)
     1.89642443E-13   2        24        36   # BR(Hp -> W A0)
DECAY         6     2.43000000E+00   # top
#    BR                NDA      ID1      ID2
     1.00000000E+00    2           5        24   # BR(t -> b W)
Block HiggsBoundsInputHiggsCouplingsFermions
# ScalarNormEffCoupSq PseudoSNormEffCoupSq NP IP1 IP2 IP2
    9.19731505E-01    0.00000000E+00        3  25   5   5  # h0-b-b eff. coupling^2, normalised to SM
    4.40181792E+02    0.00000000E+00        3  35   5   5  # H0-b-b eff. coupling^2, normalised to SM
    0.00000000E+00    4.40101524E+02        3  36   5   5  # A0-b-b eff. coupling^2, normalised to SM
#
    1.00018239E+00    0.00000000E+00        3  25   6   6  # h0-t-t eff. coupling^2, normalised to SM
    2.08981668E-03    0.00000000E+00        3  35   6   6  # H0-t-t eff. coupling^2, normalised to SM
    0.00000000E+00    2.27220299E-03        3  36   6   6  # A0-t-t eff. coupling^2, normalised to SM
#
    9.19731505E-01    0.00000000E+00        3  25  15  15  # h0-tau-tau eff. coupling^2, normalised to SM
    4.40181792E+02    0.00000000E+00        3  35  15  15  # H0-tau-tau eff. coupling^2, normalised to SM
    0.00000000E+00    4.40101524E+02        3  36  15  15  # A0-tau-tau eff. coupling^2, normalised to SM
#
Block HiggsBoundsInputHiggsCouplingsBosons
    9.99996186E-01        3  25  24  24  # h0-W-W eff. coupling^2, normalised to SM
    3.81431351E-06        3  35  24  24  # H0-W-W eff. coupling^2, normalised to SM
    0.00000000E+00        3  36  24  24  # A0-W-W eff. coupling^2, normalised to SM
#
    9.99996186E-01        3  25  23  23  # h0-Z-Z eff. coupling^2, normalised to SM
    3.81431351E-06        3  35  23  23  # H0-Z-Z eff. coupling^2, normalised to SM
    0.00000000E+00        3  36  23  23  # A0-Z-Z eff. coupling^2, normalised to SM
#
    1.26933443E+00        3  25  21  21  # h0-g-g eff. coupling^2, normalised to SM
    8.69914603E-04        3  35  21  21  # H0-g-g eff. coupling^2, normalised to SM
    9.53583022E-02        3  36  21  21  # A0-g-g eff. coupling^2, normalised to SM
#
    0.00000000E+00        3  25  25  23  # h0-h0-Z eff. coupling^2, normalised to SM
    0.00000000E+00        3  35  25  23  # H0-h0-Z eff. coupling^2, normalised to SM
    3.81431351E-06        3  36  25  23  # A0-h0-Z eff. coupling^2, normalised to SM
    0.00000000E+00        3  35  35  23  # H0-H0-Z eff. coupling^2, normalised to SM
    9.99996186E-01        3  36  35  23  # A0-H0-Z eff. coupling^2, normalised to SM
    0.00000000E+00        3  36  36  23  # A0-A0-Z eff. coupling^2, normalised to SM
#
    0.00000000E+00        4  25  21  21  23  # h0-g-g-Z eff. coupling^2, normalised to SM
    0.00000000E+00        4  35  21  21  23  # H0-g-g-Z eff. coupling^2, normalised to SM
    0.00000000E+00        4  36  21  21  23  # A0-g-g-Z eff. coupling^2, normalised to SM
Block SPhenoLowEnergy  # low energy observables
    1    3.23351057E-04   # BR(b -> s gamma)
    2    1.58886069E-06   # BR(b -> s mu+ mu-)
    3    3.52302337E-05   # BR(b -> s nu nu)
    4    2.56497401E-15   # BR(Bd -> e+ e-)
    5    1.09572742E-10   # BR(Bd -> mu+ mu-)
    6    2.29358717E-08   # BR(Bd -> tau+ tau-)
    7    8.66315622E-14   # BR(Bs -> e+ e-)
    8    3.70089632E-09   # BR(Bs -> mu+ mu-)
    9    7.84917608E-07   # BR(Bs -> tau+ tau-)
   10    9.65711069E-05   # BR(B_u -> tau nu)
   11    9.97542562E-01   # BR(B_u -> tau nu)/BR(B_u -> tau nu)_SM
   12    5.42195793E-01   # |Delta(M_Bd)| [ps^-1] 
   13    1.93718745E+01   # |Delta(M_Bs)| [ps^-1] 
   14    0.00000000E+00   # neutron EDM according to the chiral quark model
   15    0.00000000E+00   # neutron EDM according to the relativistic quark-parton model
   16    2.15814351E-03   # epsilon_K
   17    2.28166673E-15   # Delta(M_K)
   18    2.47838431E-11   # BR(K^0 -> pi^0 nu nu)
   19    8.28664571E-11   # BR(K^+ -> pi^+ nu nu)
   20   -1.83881727E-16   # Delta(g-2)_electron/2
   21   -7.86154471E-12   # Delta(g-2)_muon/2
   22   -2.22579680E-09   # Delta(g-2)_tau/2
   23    0.00000000E+00   # electric dipole moment of the electron
   24    0.00000000E+00   # electric dipole moment of the muon
   25    0.00000000E+00   # electric dipole moment of the tau
   26    0.00000000E+00   # Br(mu -> e gamma)
   27    0.00000000E+00   # Br(tau -> e gamma)
   28    0.00000000E+00   # Br(tau -> mu gamma)
   29    0.00000000E+00   # Br(mu -> 3 e)
   30    0.00000000E+00   # Br(tau -> 3 e)
   31    0.00000000E+00   # Br(tau -> 3 mu)
   39    5.72898030E-05   # Delta(rho_parameter)
   40    0.00000000E+00   # BR(Z -> e mu)
   41    0.00000000E+00   # BR(Z -> e tau)
   42    0.00000000E+00   # BR(Z -> mu tau)
Block FWCOEF Q=  1.60000000E+02  # Wilson coefficients at scale Q
#    id        order  M        value         comment
     0305 4422   00   0    -1.88819110E-01   # C7
     0305 4422   00   2    -1.91759631E-01   # C7
     0305 4322   00   2    -1.01219823E-04   # C7'
     0305 6421   00   0    -9.52278348E-02   # C8
     0305 6421   00   2    -1.00744458E-01   # C8
     0305 6321   00   2    -1.28990989E-04   # C8'
 03051111 4133   00   0     1.62181031E+00   # C9 e+e-
 03051111 4133   00   2     1.62216356E+00   # C9 e+e-
 03051111 4233   00   2     1.10316035E-04   # C9' e+e-
 03051111 4137   00   0    -4.44450241E+00   # C10 e+e-
 03051111 4137   00   2    -4.44065119E+00   # C10 e+e-
 03051111 4237   00   2    -8.21615358E-04   # C10' e+e-
 03051313 4133   00   0     1.62181031E+00   # C9 mu+mu-
 03051313 4133   00   2     1.62216352E+00   # C9 mu+mu-
 03051313 4233   00   2     1.10316007E-04   # C9' mu+mu-
 03051313 4137   00   0    -4.44450241E+00   # C10 mu+mu-
 03051313 4137   00   2    -4.44065123E+00   # C10 mu+mu-
 03051313 4237   00   2    -8.21615373E-04   # C10' mu+mu-
 03051212 4137   00   0     1.50535012E+00   # C11 nu_1 nu_1
 03051212 4137   00   2     1.50451811E+00   # C11 nu_1 nu_1
 03051212 4237   00   2     1.77858615E-04   # C11' nu_1 nu_1
 03051414 4137   00   0     1.50535012E+00   # C11 nu_2 nu_2
 03051414 4137   00   2     1.50451811E+00   # C11 nu_2 nu_2
 03051414 4237   00   2     1.77858619E-04   # C11' nu_2 nu_2
 03051616 4137   00   0     1.50535012E+00   # C11 nu_3 nu_3
 03051616 4137   00   2     1.50451811E+00   # C11 nu_3 nu_3
 03051616 4237   00   2     1.77859635E-04   # C11' nu_3 nu_3
Block IMFWCOEF Q=  1.60000000E+02  # Im(Wilson coefficients) at scale Q
#    id        order  M        value         comment
     0305 4422   00   0     3.85828095E-07   # C7
     0305 4422   00   2    -6.04245287E-06   # C7
     0305 4322   00   2     9.09532344E-08   # C7'
     0305 6421   00   0     3.30487279E-07   # C8
     0305 6421   00   2     4.93104676E-06   # C8
     0305 6321   00   2     1.69483402E-07   # C8'
 03051111 4133   00   2     8.97404286E-07   # C9 e+e-
 03051111 4233   00   2     2.14585755E-06   # C9' e+e-
 03051111 4137   00   2     6.55516477E-07   # C10 e+e-
 03051111 4237   00   2    -1.59835586E-05   # C10' e+e-
 03051313 4133   00   2     8.97403132E-07   # C9 mu+mu-
 03051313 4233   00   2     2.14585737E-06   # C9' mu+mu-
 03051313 4137   00   2     6.55517694E-07   # C10 mu+mu-
 03051313 4237   00   2    -1.59835591E-05   # C10' mu+mu-
 03051212 4137   00   2    -1.11831841E-07   # C11 nu_1 nu_1
 03051212 4237   00   2     3.46003069E-06   # C11' nu_1 nu_1
 03051414 4137   00   2    -1.11831780E-07   # C11 nu_2 nu_2
 03051414 4237   00   2     3.46003069E-06   # C11' nu_2 nu_2
 03051616 4137   00   2    -1.11814608E-07   # C11 nu_3 nu_3
 03051616 4237   00   2     3.46003068E-06   # C11' nu_3 nu_3
