# SUSY Les Houches Accord 2 - MSSM spectrum + Decays
# SPheno v4.0.5be
# W. Porod, Comput. Phys. Commun. 153 (2003) 275-315, hep-ph/0301101;
# W. Porod, F.~Staub, Comput. Phys. Commun. 183 (2012) 2458
#                     arXiv:1104.1573 [hep-ph] 
# in case of problems send email to porod@physik.uni-wuerzburg.de
# Created: 07.09.2021,  15:56
Block SPINFO         # Program information
     1   SPheno      # spectrum calculator
     2   v4.0.5be    # version number
#
Block SPhenoINFO     # SPheno specific information
    1      2         # using 2-loop RGEs
    2      2         # using pole masses for boundary conditions at mZ
Block MODSEL  # Model selection
    1    0    # general MSSM
Block MINPAR  # Input parameters
    3    4.75197046E+01  # tanb at m_Z    
    4   -1.00000000E+00  # Sign(mu)
Block EXTPAR  # non-universal input parameters
    0    3.41777351E+03  # scale for input parameters
    1   -2.12275547E+02  # M_1
    2    1.78448003E+03  # M_2
    3    4.83613104E+03  # M_3
   11   -5.95841703E+03  # A_t
   12   -1.48196066E+03  # A_b
   13   -8.72172704E+02  # A_tau
   23   -2.17862387E+02  # mu
   25    4.67793201E+01  # tan(beta)
   26    4.98345321E+03  # m_A, pole mass
   31    1.00000000E+04  # M_L11
   32    1.00000000E+04  # M_L22
   33    1.00000000E+04  # M_L33
   34    1.00000000E+04  # M_E11
   35    1.00000000E+04  # M_E22
   36    1.00000000E+04  # M_E33
   41    1.00000000E+04  # M_Q11
   42    1.00000000E+04  # M_Q22
   43    3.44110428E+03  # M_Q33
   44    1.00000000E+04  # M_U11
   45    1.00000000E+04  # M_U22
   46    3.33734232E+03  # M_U33
   47    1.00000000E+04  # M_D11
   48    1.00000000E+04  # M_D22
   49    4.24795968E+03  # M_D33
Block SMINPUTS  # SM parameters
         1     1.27908970E+02  # alpha_em^-1(MZ)^MSbar
         2     1.16637870E-05  # G_mu [GeV^-2]
         3     1.18400000E-01  # alpha_s(MZ)^MSbar
         4     9.11876000E+01  # m_Z(pole)
         5     4.18000000E+00  # m_b(m_b), MSbar
         6     1.73200000E+02  # m_t(pole)
         7     1.77700000E+00  # m_tau(pole)
         8     0.00000000E+00  # m_nu_3
        11     5.10998930E-04  # m_e(pole)
        12     0.00000000E+00  # m_nu_1
        13     1.05658372E-01  # m_muon(pole)
        14     0.00000000E+00  # m_nu_2
        21     5.00000000E-03  # m_d(2 GeV), MSbar
        22     2.50000000E-03  # m_u(2 GeV), MSbar
        23     9.50000000E-02  # m_s(2 GeV), MSbar
        24     1.27000000E+00  # m_c(m_c), MSbar
Block gauge Q=  3.41777351E+03  # (SUSY scale)
   1    3.55362975E-01  # g'(Q)^DRbar
   2    6.65198874E-01  # g(Q)^DRbar
   3    1.21977796E+00  # g3(Q)^DRbar
Block Yu Q=  3.41777351E+03  # (SUSY scale)
  1  1     8.38628764E-06   # Y_u(Q)^DRbar
  2  2     4.26023412E-03   # Y_c(Q)^DRbar
  3  3     1.01313091E+00   # Y_t(Q)^DRbar
Block Yd Q=  3.41777351E+03  # (SUSY scale)
  1  1     7.88322472E-04   # Y_d(Q)^DRbar
  2  2     1.49781270E-02   # Y_s(Q)^DRbar
  3  3     7.81768868E-01   # Y_b(Q)^DRbar
Block Ye Q=  3.41777351E+03  # (SUSY scale)
  1  1     1.37568036E-04   # Y_e(Q)^DRbar
  2  2     2.84447068E-02   # Y_mu(Q)^DRbar
  3  3     4.78393174E-01   # Y_tau(Q)^DRbar
Block Au Q=  3.41777351E+03  # (SUSY scale)
  1  1     0.00000000E+00   # A_u(Q)^DRbar
  2  2     0.00000000E+00   # A_c(Q)^DRbar
  3  3    -5.95841691E+03   # A_t(Q)^DRbar
Block Ad Q=  3.41777351E+03  # (SUSY scale)
  1  1     0.00000000E+00   # A_d(Q)^DRbar
  2  2     0.00000000E+00   # A_s(Q)^DRbar
  3  3    -1.48196066E+03   # A_b(Q)^DRbar
Block Ae Q=  3.41777351E+03  # (SUSY scale)
  1  1     0.00000000E+00   # A_e(Q)^DRbar
  2  2     0.00000000E+00   # A_mu(Q)^DRbar
  3  3    -8.72172709E+02   # A_tau(Q)^DRbar
Block MSOFT Q=  3.41777351E+03  # soft SUSY breaking masses at Q
   1   -2.12275547E+02  # M_1
   2    1.78448003E+03  # M_2
   3    4.83613104E+03  # M_3
  21    2.47580668E+07  # M^2_(H,d)
  22    1.68136783E+05  # M^2_(H,u)
  31    1.00000000E+04  # M_(L,11)
  32    1.00000000E+04  # M_(L,22)
  33    1.00000000E+04  # M_(L,33)
  34    1.00000000E+04  # M_(E,11)
  35    1.00000000E+04  # M_(E,22)
  36    1.00000000E+04  # M_(E,33)
  41    1.00000000E+04  # M_(Q,11)
  42    1.00000000E+04  # M_(Q,22)
  43    3.44110428E+03  # M_(Q,33)
  44    1.00000000E+04  # M_(U,11)
  45    1.00000000E+04  # M_(U,22)
  46    3.33734232E+03  # M_(U,33)
  47    1.00000000E+04  # M_(D,11)
  48    1.00000000E+04  # M_(D,22)
  49    4.24795968E+03  # M_(D,33)
Block MASS  # Mass spectrum
#   PDG code      mass          particle
         6     1.73200000E+02  # m_t(pole)
        23     9.11876000E+01  # m_Z(pole)
        24     8.04299946E+01  # W+
        15     1.77700000E+00  # m_tau(pole)
        25     1.26966909E+02  # h0
        35     4.98116295E+03  # H0
        36     4.98345321E+03  # A0
        37     4.98094525E+03  # H+
   1000001     1.00831053E+04  # ~d_L
   2000001     1.00605312E+04  # ~d_R
   1000002     1.00828356E+04  # ~u_L
   2000002     1.00636157E+04  # ~u_R
   1000003     1.00831125E+04  # ~s_L
   2000003     1.00605439E+04  # ~s_R
   1000004     1.00828427E+04  # ~c_L
   2000004     1.00636168E+04  # ~c_R
   1000005     3.50017686E+03  # ~b_1
   2000005     4.34636594E+03  # ~b_2
   1000006     3.27753383E+03  # ~t_1
   2000006     3.56401378E+03  # ~t_2
   1000011     1.00199499E+04  # ~e_L-
   2000011     1.00088551E+04  # ~e_R-
   1000012     1.00191897E+04  # ~nu_eL
   1000013     1.00199834E+04  # ~mu_L-
   2000013     1.00089197E+04  # ~mu_R-
   1000014     1.00192229E+04  # ~nu_muL
   1000015     1.00270310E+04  # ~tau_1-
   2000015     1.00296895E+04  # ~tau_2-
   1000016     1.00286506E+04  # ~nu_tauL
   1000021     5.26379261E+03  # ~g
   1000022     1.91684880E+02  # ~chi_10
   1000023     2.32595879E+02  # ~chi_20
   1000025     2.58450679E+02  # ~chi_30
   1000035     1.89784815E+03  # ~chi_40
   1000024     2.32273920E+02  # ~chi_1+
   1000037     1.89781735E+03  # ~chi_2+
# Higgs mixing
Block alpha # Effective Higgs mixing angle
          -2.10604775E-02   # alpha
Block Hmix Q=  3.41777351E+03  # Higgs mixing parameters
   1   -2.17862387E+02  # mu
   2    4.67793201E+01  # tan[beta](Q)
   3    2.43088896E+02  # v(Q)
   4    2.48348059E+07  # m^2_A(Q)
Block stopmix # stop mixing matrix
   1  1     4.78170413E-01   # Re[R_st(1,1)]
   1  2     8.78267076E-01   # Re[R_st(1,2)]
   2  1    -8.78267076E-01   # Re[R_st(2,1)]
   2  2     4.78170413E-01   # Re[R_st(2,2)]
Block sbotmix # sbottom mixing matrix
   1  1    -9.99996996E-01   # Re[R_sb(1,1)]
   1  2     2.45092211E-03   # Re[R_sb(1,2)]
   2  1    -2.45092211E-03   # Re[R_sb(2,1)]
   2  2    -9.99996996E-01   # Re[R_sb(2,2)]
Block staumix # stau mixing matrix
   1  1    -3.27028232E-01   # Re[R_sta(1,1)]
   1  2     9.45014569E-01   # Re[R_sta(1,2)]
   2  1    -9.45014569E-01   # Re[R_sta(2,1)]
   2  2    -3.27028232E-01   # Re[R_sta(2,2)]
Block Nmix # neutralino mixing matrix
   1  1    -7.93962906E-01   # Re[N(1,1)]
   1  2    -1.54439145E-02   # Re[N(1,2)]
   1  3     4.67261444E-01   # Re[N(1,3)]
   1  4    -3.88652971E-01   # Re[N(1,4)]
   2  1    -6.88055823E-02   # Re[N(2,1)]
   2  2    -3.33032249E-02   # Re[N(2,2)]
   2  3    -7.04712339E-01   # Re[N(2,3)]
   2  4    -7.05363173E-01   # Re[N(2,4)]
   3  1    -6.04059477E-01   # Re[N(3,1)]
   3  2     2.25734982E-02   # Re[N(3,2)]
   3  3    -5.33881615E-01   # Re[N(3,3)]
   3  4     5.91246993E-01   # Re[N(3,4)]
   4  1     9.18460760E-04   # Re[N(4,1)]
   4  2    -9.99070977E-01   # Re[N(4,2)]
   4  3     4.20517878E-03   # Re[N(4,3)]
   4  4     4.28795406E-02   # Re[N(4,4)]
Block Umix # chargino mixing matrix
   1  1    -5.95305694E-03   # Re[U(1,1)]
   1  2    -9.99982280E-01   # Re[U(1,2)]
   2  1     9.99982280E-01   # Re[U(2,1)]
   2  2    -5.95305694E-03   # Re[U(2,2)]
Block Vmix # chargino mixing matrix
   1  1    -6.06631985E-02   # Re[V(1,1)]
   1  2     9.98158292E-01   # Re[V(1,2)]
   2  1     9.98158292E-01   # Re[V(2,1)]
   2  2     6.06631985E-02   # Re[V(2,2)]
DECAY        23     2.49520000E+00   # Z
DECAY        24     2.08500000E+00   # W
DECAY   2000011     5.02428734E+01   # ~e^-_R
#    BR                NDA      ID1      ID2
     6.30516163E-01    2     1000022        11   # BR(~e^-_R -> chi^0_1 e^-)
     4.73364823E-03    2     1000023        11   # BR(~e^-_R -> chi^0_2 e^-)
     3.64749329E-01    2     1000025        11   # BR(~e^-_R -> chi^0_3 e^-)
DECAY   1000011     1.35570407E+02   # ~e^-_L
#    BR                NDA      ID1      ID2
     6.28191401E-02    2     1000022        11   # BR(~e^-_L -> chi^0_1 e^-)
     1.59509646E-03    2     1000023        11   # BR(~e^-_L -> chi^0_2 e^-)
     2.92642620E-02    2     1000025        11   # BR(~e^-_L -> chi^0_3 e^-)
     3.01534152E-01    2     1000035        11   # BR(~e^-_L -> chi^0_4 e^-)
     6.04764317E-01    2    -1000037        12   # BR(~e^-_L -> chi^-_2 nu_e)
#    BR                NDA      ID1      ID2       ID3
DECAY   2000013     5.05650614E+01   # ~mu^-_R
#    BR                NDA      ID1      ID2
     6.27197860E-01    2     1000022        13   # BR(~mu^-_R -> chi^0_1 mu^-)
     6.28408577E-03    2     1000023        13   # BR(~mu^-_R -> chi^0_2 mu^-)
     3.63334486E-01    2     1000025        13   # BR(~mu^-_R -> chi^0_3 mu^-)
     3.18263209E-03    2    -1000024        14   # BR(~mu^-_R -> chi^-_1 nu_mu)
DECAY   1000013     1.35732032E+02   # ~mu^-_L
#    BR                NDA      ID1      ID2
     6.30037887E-02    2     1000022        13   # BR(~mu^-_L -> chi^0_1 mu^-)
     2.18267532E-03    2     1000023        13   # BR(~mu^-_L -> chi^0_2 mu^-)
     2.95677523E-02    2     1000025        13   # BR(~mu^-_L -> chi^0_3 mu^-)
     3.01176272E-01    2     1000035        13   # BR(~mu^-_L -> chi^0_4 mu^-)
     6.04046506E-01    2    -1000037        14   # BR(~mu^-_L -> chi^-_2 nu_mu)
#    BR                NDA      ID1      ID2       ID3
DECAY   1000015     1.45820407E+02   # ~tau^-_1
#    BR                NDA      ID1      ID2
     3.05231545E-01    2     1000022        15   # BR(~tau^-_1 -> chi^0_1 tau^-)
     1.56469759E-01    2     1000023        15   # BR(~tau^-_1 -> chi^0_2 tau^-)
     1.69441713E-01    2     1000025        15   # BR(~tau^-_1 -> chi^0_3 tau^-)
     2.92677636E-02    2     1000035        15   # BR(~tau^-_1 -> chi^0_4 tau^-)
     2.80888611E-01    2    -1000024        16   # BR(~tau^-_1 -> chi^-_1 nu_tau)
     5.87006089E-02    2    -1000037        16   # BR(~tau^-_1 -> chi^-_2 nu_tau)
DECAY   2000015     1.77057109E+02   # ~tau^-_2
#    BR                NDA      ID1      ID2
     8.85307326E-02    2     1000022        15   # BR(~tau^-_2 -> chi^0_1 tau^-)
     1.29563540E-01    2     1000023        15   # BR(~tau^-_2 -> chi^0_2 tau^-)
     1.33393075E-01    2     1000025        15   # BR(~tau^-_2 -> chi^0_3 tau^-)
     2.07035638E-01    2     1000035        15   # BR(~tau^-_2 -> chi^0_4 tau^-)
     2.62502753E-02    2    -1000024        16   # BR(~tau^-_2 -> chi^-_1 nu_tau)
     4.15226739E-01    2    -1000037        16   # BR(~tau^-_2 -> chi^-_2 nu_tau)
#    BR                NDA      ID1      ID2       ID3
DECAY   1000012     1.35574315E+02   # ~nu_e
#    BR                NDA      ID1      ID2
     5.42957079E-02    2     1000022        12   # BR(~nu_e -> chi^0_1 nu_e)
     3.87265940E-02    2     1000025        12   # BR(~nu_e -> chi^0_3 nu_e)
     3.02092047E-01    2     1000035        12   # BR(~nu_e -> chi^0_4 nu_e)
     2.39153669E-03    2     1000024        11   # BR(~nu_e -> chi^+_1 e^-)
     6.02490238E-01    2     1000037        11   # BR(~nu_e -> chi^+_2 e^-)
#    BR                NDA      ID1      ID2       ID3
DECAY   1000014     1.35735922E+02   # ~nu_mu
#    BR                NDA      ID1      ID2
     5.42312433E-02    2     1000022        14   # BR(~nu_mu -> chi^0_1 nu_mu)
     3.86806146E-02    2     1000025        14   # BR(~nu_mu -> chi^0_3 nu_mu)
     3.01733524E-01    2     1000035        14   # BR(~nu_mu -> chi^0_4 nu_mu)
     3.57550512E-03    2     1000024        13   # BR(~nu_mu -> chi^+_1 mu^-)
     6.01775241E-01    2     1000037        13   # BR(~nu_mu -> chi^+_2 mu^-)
#    BR                NDA      ID1      ID2       ID3
DECAY   1000016     1.81331208E+02   # ~nu_tau
#    BR                NDA      ID1      ID2
     4.06331848E-02    2     1000022        16   # BR(~nu_tau -> chi^0_1 nu_tau)
     2.89817868E-02    2     1000025        16   # BR(~nu_tau -> chi^0_3 nu_tau)
     2.26107525E-01    2     1000035        16   # BR(~nu_tau -> chi^0_4 nu_tau)
     2.53319363E-01    2     1000024        15   # BR(~nu_tau -> chi^+_1 tau^-)
     4.50955240E-01    2     1000037        15   # BR(~nu_tau -> chi^+_2 tau^-)
#    BR                NDA      ID1      ID2       ID3
DECAY   2000001     4.24455812E+02   # ~d_R
#    BR                NDA      ID1      ID2
     8.33563704E-03    2     1000022         1   # BR(~d_R -> chi^0_1 d)
     4.82218546E-03    2     1000025         1   # BR(~d_R -> chi^0_3 d)
     9.86779149E-01    2     1000021         1   # BR(~d_R -> ~g d)
DECAY   1000001     5.46488151E+02   # ~d_L
#    BR                NDA      ID1      ID2
     1.28720016E-03    2     1000022         1   # BR(~d_L -> chi^0_1 d)
     1.37369848E-03    2     1000025         1   # BR(~d_L -> chi^0_3 d)
     7.54434927E-02    2     1000035         1   # BR(~d_L -> chi^0_4 d)
     1.51113254E-01    2    -1000037         2   # BR(~d_L -> chi^-_2 u)
     7.70740542E-01    2     1000021         1   # BR(~d_L -> ~g d)
DECAY   2000003     4.24546604E+02   # ~s_R
#    BR                NDA      ID1      ID2
     8.35687698E-03    2     1000022         3   # BR(~s_R -> chi^0_1 s)
     1.15034991E-04    2     1000023         3   # BR(~s_R -> chi^0_2 s)
     4.85118235E-03    2     1000025         3   # BR(~s_R -> chi^0_3 s)
     1.05648352E-04    2    -1000024         4   # BR(~s_R -> chi^-_1 c)
     9.86571242E-01    2     1000021         3   # BR(~s_R -> ~g s)
DECAY   1000003     5.46537471E+02   # ~s_L
#    BR                NDA      ID1      ID2
     1.30500036E-03    2     1000022         3   # BR(~s_L -> chi^0_1 s)
     1.39694915E-03    2     1000025         3   # BR(~s_L -> chi^0_3 s)
     7.54367476E-02    2     1000035         3   # BR(~s_L -> chi^0_4 s)
     1.51099765E-01    2    -1000037         4   # BR(~s_L -> chi^-_2 c)
     7.70672364E-01    2     1000021         3   # BR(~s_L -> ~g s)
DECAY   1000005     1.46247508E+02   # ~b_1
#    BR                NDA      ID1      ID2
     6.49801823E-02    2     1000022         5   # BR(~b_1 -> chi^0_1 b)
     1.43285944E-01    2     1000023         5   # BR(~b_1 -> chi^0_2 b)
     8.36444344E-02    2     1000025         5   # BR(~b_1 -> chi^0_3 b)
     5.24254505E-02    2     1000035         5   # BR(~b_1 -> chi^0_4 b)
     4.80236281E-01    2    -1000024         6   # BR(~b_1 -> chi^-_1 t)
     1.06330769E-01    2    -1000037         6   # BR(~b_1 -> chi^-_2 t)
     6.90969380E-02    2     1000006       -24   # BR(~b_1 -> ~t_1 W^-)
DECAY   2000005     1.07374786E+02   # ~b_2
#    BR                NDA      ID1      ID2
     1.20959206E-01    2     1000022         5   # BR(~b_2 -> chi^0_1 b)
     2.43129042E-01    2     1000023         5   # BR(~b_2 -> chi^0_2 b)
     1.47736418E-01    2     1000025         5   # BR(~b_2 -> chi^0_3 b)
     4.87779433E-01    2    -1000024         6   # BR(~b_2 -> chi^-_1 t)
     1.57782106E-04    2     1000005        25   # BR(~b_2 -> ~b_1 h^0)
DECAY   2000002     4.41618740E+02   # ~u_R
#    BR                NDA      ID1      ID2
     3.20563278E-02    2     1000022         2   # BR(~u_R -> chi^0_1 u)
     2.40664365E-04    2     1000023         2   # BR(~u_R -> chi^0_2 u)
     1.85444888E-02    2     1000025         2   # BR(~u_R -> chi^0_3 u)
     9.49158479E-01    2     1000021         2   # BR(~u_R -> ~g u)
DECAY   1000002     5.46480565E+02   # ~u_L
#    BR                NDA      ID1      ID2
     1.99591818E-03    2     1000022         2   # BR(~u_L -> chi^0_1 u)
     1.68358040E-04    2     1000023         2   # BR(~u_L -> chi^0_2 u)
     5.85884291E-04    2     1000025         2   # BR(~u_L -> chi^0_3 u)
     7.53928405E-02    2     1000035         2   # BR(~u_L -> chi^0_4 u)
     5.97305316E-04    2     1000024         1   # BR(~u_L -> chi^+_1 d)
     1.50559961E-01    2     1000037         1   # BR(~u_L -> chi^+_2 d)
     7.70699733E-01    2     1000021         2   # BR(~u_L -> ~g u)
DECAY   2000004     4.41626083E+02   # ~c_R
#    BR                NDA      ID1      ID2
     3.20570411E-02    2     1000022         4   # BR(~c_R -> chi^0_1 c)
     2.44750154E-04    2     1000023         4   # BR(~c_R -> chi^0_2 c)
     1.85470509E-02    2     1000025         4   # BR(~c_R -> chi^0_3 c)
     9.49142887E-01    2     1000021         4   # BR(~c_R -> ~g c)
DECAY   1000004     5.46529842E+02   # ~c_L
#    BR                NDA      ID1      ID2
     1.99674456E-03    2     1000022         4   # BR(~c_L -> chi^0_1 c)
     1.71653428E-04    2     1000023         4   # BR(~c_L -> chi^0_2 c)
     5.88157967E-04    2     1000025         4   # BR(~c_L -> chi^0_3 c)
     7.53861152E-02    2     1000035         4   # BR(~c_L -> chi^0_4 c)
     6.79274864E-04    2     1000024         3   # BR(~c_L -> chi^+_1 s)
     1.50546510E-01    2     1000037         3   # BR(~c_L -> chi^+_2 s)
     7.70631544E-01    2     1000021         4   # BR(~c_L -> ~g c)
DECAY   1000006     1.37726226E+02   # ~t_1
#    BR                NDA      ID1      ID2
     2.73292866E-04    2     1000022         4   # BR(~t_1 -> chi^0_1 c)
     6.89673119E-02    2     1000022         6   # BR(~t_1 -> chi^0_1 t)
     2.36337957E-01    2     1000023         6   # BR(~t_1 -> chi^0_2 t)
     2.17825631E-01    2     1000025         6   # BR(~t_1 -> chi^0_3 t)
     7.41781711E-03    2     1000035         6   # BR(~t_1 -> chi^0_4 t)
     4.51507975E-01    2     1000024         5   # BR(~t_1 -> chi^+_1 b)
     1.45261707E-02    2     1000037         5   # BR(~t_1 -> chi^+_2 b)
#    BR                NDA      ID1      ID2       ID3
     3.12085884E-03    3     1000022        24         5   # BR(~t_1 -> chi^0_1 W^+ b)
DECAY   2000006     1.53529364E+02   # ~t_2
#    BR                NDA      ID1      ID2
     1.09497884E-01    2     1000022         6   # BR(~t_2 -> chi^0_1 t)
     2.34592470E-01    2     1000023         6   # BR(~t_2 -> chi^0_2 t)
     1.31738981E-01    2     1000025         6   # BR(~t_2 -> chi^0_3 t)
     4.50323201E-02    2     1000035         6   # BR(~t_2 -> chi^0_4 t)
     3.07768287E-01    2     1000024         5   # BR(~t_2 -> chi^+_1 b)
     8.89440877E-02    2     1000037         5   # BR(~t_2 -> chi^+_2 b)
     5.53586885E-02    2     1000006        23   # BR(~t_2 -> ~t_1 Z)
     2.70672816E-02    2     1000006        25   # BR(~t_2 -> ~t_1 h^0)
DECAY   1000024     1.70601381E-04   # chi^+_1
#    BR                NDA      ID1      ID2       ID3
     3.34111470E-01    3     1000022        -1         2   # BR(chi^+_1 -> chi^0_1 d_bar u)
     3.32694864E-01    3     1000022        -3         4   # BR(chi^+_1 -> chi^0_1 s_bar c)
     1.11370114E-01    3     1000022       -11        12   # BR(chi^+_1 -> chi^0_1 e^+ nu_e)
     1.11367813E-01    3     1000022       -13        14   # BR(chi^+_1 -> chi^0_1 mu^+ nu_mu)
     1.10455740E-01    3     1000022       -15        16   # BR(chi^+_1 -> chi^0_1 tau^+ nu_tau)
DECAY   1000037     1.69708528E+01   # chi^+_2
#    BR                NDA      ID1      ID2
     8.09861754E-02    2     1000022        24   # BR(chi^+_2 -> chi^0_1 W^+)
     2.43273633E-01    2     1000023        24   # BR(chi^+_2 -> chi^0_2 W^+)
     1.61736795E-01    2     1000025        24   # BR(chi^+_2 -> chi^0_3 W^+)
     2.42311914E-01    2     1000024        23   # BR(chi^+_2 -> chi^+_1 Z)
     2.40400825E-01    2     1000024        25   # BR(chi^+_2 -> chi^+_1 h^0)
#    BR                NDA      ID1      ID2       ID3
     1.25300869E-02    3     1000024         6        -6   # BR(chi^+_2 -> chi^+_1 t t_bar)
     3.14638037E-03    3     1000022        -5         6   # BR(chi^+_2 -> chi^0_1 b_bar t)
     9.22589478E-03    3     1000023        -5         6   # BR(chi^+_2 -> chi^0_2 b_bar t)
     6.30494084E-03    3     1000025        -5         6   # BR(chi^+_2 -> chi^0_3 b_bar t)
DECAY   1000022     0.00000000E+00   # chi^0_1
DECAY   1000023     1.34536704E-04   # chi^0_2
#    BR                NDA      ID1      ID2
     1.37076797E-02    2     1000022        22   # BR(chi^0_2 -> chi^0_1 photon)
#    BR                NDA      ID1      ID2       ID3
     1.19147481E-01    3     1000022         2        -2   # BR(chi^0_2 -> chi^0_1 u u_bar)
     1.17737708E-01    3     1000022         4        -4   # BR(chi^0_2 -> chi^0_1 c c_bar)
     1.52770343E-01    3     1000022         1        -1   # BR(chi^0_2 -> chi^0_1 d d_bar)
     1.52761661E-01    3     1000022         3        -3   # BR(chi^0_2 -> chi^0_1 s s_bar)
     1.37023995E-01    3     1000022         5        -5   # BR(chi^0_2 -> chi^0_1 b b_bar)
     3.44753299E-02    3     1000022        11       -11   # BR(chi^0_2 -> chi^0_1 e^- e^+)
     3.44722026E-02    3     1000022        13       -13   # BR(chi^0_2 -> chi^0_1 mu^- mu^+)
     3.36058115E-02    3     1000022        15       -15   # BR(chi^0_2 -> chi^0_1 tau^- tau^+)
     2.04297788E-01    3     1000022        12       -12   # BR(chi^0_2 -> chi^0_1 nu_e nu_bar_e)
DECAY   1000025     8.91136302E-05   # chi^0_3
#    BR                NDA      ID1      ID2
     1.59512954E-03    2     1000022        22   # BR(chi^0_3 -> chi^0_1 photon)
     2.03721721E-02    2     1000023        22   # BR(chi^0_3 -> chi^0_2 photon)
#    BR                NDA      ID1      ID2       ID3
     3.12064886E-03    3     1000022         2        -2   # BR(chi^0_3 -> chi^0_1 u u_bar)
     3.11141929E-03    3     1000022         4        -4   # BR(chi^0_3 -> chi^0_1 c c_bar)
     3.99824449E-03    3     1000022         1        -1   # BR(chi^0_3 -> chi^0_1 d d_bar)
     3.99820172E-03    3     1000022         3        -3   # BR(chi^0_3 -> chi^0_1 s s_bar)
     3.98609053E-03    3     1000022         5        -5   # BR(chi^0_3 -> chi^0_1 b b_bar)
     8.99861950E-04    3     1000022        11       -11   # BR(chi^0_3 -> chi^0_1 e^- e^+)
     8.99854430E-04    3     1000022        13       -13   # BR(chi^0_3 -> chi^0_1 mu^- mu^+)
     8.97660498E-04    3     1000022        15       -15   # BR(chi^0_3 -> chi^0_1 tau^- tau^+)
     5.35094636E-03    3     1000022        12       -12   # BR(chi^0_3 -> chi^0_1 nu_e nu_bar_e)
     3.11786330E-02    3     1000023         2        -2   # BR(chi^0_3 -> chi^0_2 u u_bar)
     3.02154646E-02    3     1000023         4        -4   # BR(chi^0_3 -> chi^0_2 c c_bar)
     3.99773396E-02    3     1000023         1        -1   # BR(chi^0_3 -> chi^0_2 d d_bar)
     3.99712876E-02    3     1000023         3        -3   # BR(chi^0_3 -> chi^0_2 s s_bar)
     2.97938829E-02    3     1000023         5        -5   # BR(chi^0_3 -> chi^0_2 b b_bar)
     9.02184421E-03    3     1000023        11       -11   # BR(chi^0_3 -> chi^0_2 e^- e^+)
     9.01968529E-03    3     1000023        13       -13   # BR(chi^0_3 -> chi^0_2 mu^- mu^+)
     8.43617799E-03    3     1000023        15       -15   # BR(chi^0_3 -> chi^0_2 tau^- tau^+)
     5.34611844E-02    3     1000023        12       -12   # BR(chi^0_3 -> chi^0_2 nu_e nu_bar_e)
     1.17490715E-01    3     1000024         1        -2   # BR(chi^0_3 -> chi^+_1 d u_bar)
     1.17490715E-01    3    -1000024        -1         2   # BR(chi^0_3 -> chi^-_1 d_bar u)
     1.16197155E-01    3     1000024         3        -4   # BR(chi^0_3 -> chi^+_1 s c_bar)
     1.16197155E-01    3    -1000024        -3         4   # BR(chi^0_3 -> chi^-_1 s_bar c)
     3.91636586E-02    3     1000024        11       -12   # BR(chi^0_3 -> chi^+_1 e^- nu_bar_e)
     3.91636586E-02    3    -1000024       -11        12   # BR(chi^0_3 -> chi^-_1 e^+ nu_e)
     3.91616044E-02    3     1000024        13       -14   # BR(chi^0_3 -> chi^+_1 mu^- nu_bar_mu)
     3.91616044E-02    3    -1000024       -13        14   # BR(chi^0_3 -> chi^-_1 mu^+ nu_mu)
     3.83340025E-02    3     1000024        15       -16   # BR(chi^0_3 -> chi^+_1 tau^- nu_bar_tau)
     3.83340025E-02    3    -1000024       -15        16   # BR(chi^0_3 -> chi^-_1 tau^+ nu_tau)
DECAY   1000035     1.79948512E+01   # chi^0_4
#    BR                NDA      ID1      ID2
     2.29545945E-01    2     1000024       -24   # BR(chi^0_4 -> chi^+_1 W^-)
     2.29545945E-01    2    -1000024        24   # BR(chi^0_4 -> chi^-_1 W^+)
     4.35571065E-02    2     1000022        23   # BR(chi^0_4 -> chi^0_1 Z)
     9.20797264E-02    2     1000023        23   # BR(chi^0_4 -> chi^0_2 Z)
     9.32314894E-02    2     1000025        23   # BR(chi^0_4 -> chi^0_3 Z)
     4.77297762E-02    2     1000022        25   # BR(chi^0_4 -> chi^0_1 h^0)
     1.36116672E-01    2     1000023        25   # BR(chi^0_4 -> chi^0_2 h^0)
     1.00609127E-01    2     1000025        25   # BR(chi^0_4 -> chi^0_3 h^0)
#    BR                NDA      ID1      ID2       ID3
     1.84395851E-03    3     1000022         6        -6   # BR(chi^0_4 -> chi^0_1 t t_bar)
     5.43947285E-03    3     1000023         6        -6   # BR(chi^0_4 -> chi^0_2 t t_bar)
     3.65495719E-03    3     1000025         6        -6   # BR(chi^0_4 -> chi^0_3 t t_bar)
     8.28153051E-03    3     1000024         5        -6   # BR(chi^0_4 -> chi^+_1 b t_bar)
     8.28153051E-03    3    -1000024        -5         6   # BR(chi^0_4 -> chi^-_1 b_bar t)
DECAY   1000021     1.73740871E+02   # ~g
#    BR                NDA      ID1      ID2
     1.79560529E-02    2     1000006        -4   # BR(~g -> ~t_1 c_bar)
     1.79560529E-02    2    -1000006         4   # BR(~g -> ~t^*_1 c)
     1.52613753E-01    2     1000006        -6   # BR(~g -> ~t_1 t_bar)
     1.52613753E-01    2    -1000006         6   # BR(~g -> ~t^*_1 t)
     1.44410120E-01    2     2000006        -6   # BR(~g -> ~t_2 t_bar)
     1.44410120E-01    2    -2000006         6   # BR(~g -> ~t^*_2 t)
     1.39533453E-01    2     1000005        -5   # BR(~g -> ~b_1 b_bar)
     1.39533453E-01    2    -1000005         5   # BR(~g -> ~b^*_1 b)
     4.53996939E-02    2     2000005        -5   # BR(~g -> ~b_2 b_bar)
     4.53996939E-02    2    -2000005         5   # BR(~g -> ~b^*_2 b)
#    BR                NDA      ID1      ID2       ID3
DECAY        25     3.77625726E-03   # Gamma(h0)
     2.57175630E-03   2        22        22   # BR(h0 -> photon photon)
     1.82626497E-03   2        22        23   # BR(h0 -> photon Z)
     3.61781121E-02   2        23        23   # BR(h0 -> Z Z)
     2.87721521E-01   2       -24        24   # BR(h0 -> W W)
     7.79921210E-02   2        21        21   # BR(h0 -> gluon gluon)
     4.59059447E-09   2       -11        11   # BR(h0 -> Electron electron)
     2.04198823E-04   2       -13        13   # BR(h0 -> Muon muon)
     5.88801768E-02   2       -15        15   # BR(h0 -> Tau tau)
     1.30363936E-07   2        -2         2   # BR(h0 -> Up up)
     2.53022902E-02   2        -4         4   # BR(h0 -> Charm charm)
     5.29870423E-07   2        -1         1   # BR(h0 -> Down down)
     1.91641532E-04   2        -3         3   # BR(h0 -> Strange strange)
     5.09131252E-01   2        -5         5   # BR(h0 -> Bottom bottom)
DECAY        35     1.65823677E+02   # Gamma(HH)
     9.58701794E-09   2        22        22   # BR(HH -> photon photon)
     1.53357903E-08   2        22        23   # BR(HH -> photon Z)
     3.42633401E-08   2        23        23   # BR(HH -> Z Z)
     5.68956345E-09   2       -24        24   # BR(HH -> W W)
     3.46165238E-06   2        21        21   # BR(HH -> gluon gluon)
     8.86397755E-09   2       -11        11   # BR(HH -> Electron electron)
     3.94731220E-04   2       -13        13   # BR(HH -> Muon muon)
     1.14012189E-01   2       -15        15   # BR(HH -> Tau tau)
     2.75264825E-14   2        -2         2   # BR(HH -> Up up)
     5.34035868E-09   2        -4         4   # BR(HH -> Charm charm)
     4.23030932E-04   2        -6         6   # BR(HH -> Top top)
     6.22538998E-07   2        -1         1   # BR(HH -> Down down)
     2.25157868E-04   2        -3         3   # BR(HH -> Strange strange)
     5.71643893E-01   2        -5         5   # BR(HH -> Bottom bottom)
     1.01032749E-03   2  -1000024   1000024   # BR(HH -> Chargino1 chargino1)
     9.22900166E-02   2  -1000024   1000037   # BR(HH -> Chargino1 chargino2)
     9.22900166E-02   2  -1000037   1000024   # BR(HH -> Chargino2 chargino1)
     5.10476792E-06   2  -1000037   1000037   # BR(HH -> Chargino2 chargino2)
     8.75290808E-03   2   1000022   1000022   # BR(HH -> neutralino1 neutralino1)
     8.85501002E-03   2   1000022   1000023   # BR(HH -> neutralino1 neutralino2)
     3.01273859E-05   2   1000022   1000025   # BR(HH -> neutralino1 neutralino3)
     2.42653541E-02   2   1000022   1000035   # BR(HH -> neutralino1 neutralino4)
     3.11135631E-07   2   1000023   1000023   # BR(HH -> neutralino2 neutralino2)
     9.39226973E-03   2   1000023   1000025   # BR(HH -> neutralino2 neutralino3)
     4.62684012E-02   2   1000023   1000035   # BR(HH -> neutralino2 neutralino4)
     8.09290299E-03   2   1000025   1000025   # BR(HH -> neutralino3 neutralino3)
     2.20412128E-02   2   1000025   1000035   # BR(HH -> neutralino3 neutralino4)
     2.55414114E-06   2   1000035   1000035   # BR(HH -> neutralino4 neutralino4)
     3.17707778E-07   2        25        25   # BR(HH -> h0 h0)
DECAY        36     1.56588077E+02   # Gamma(A0)
     1.65528171E-09   2        22        22   # BR(A0 -> photon photon)
     1.92955310E-09   2        22        23   # BR(A0 -> photon Z)
     6.37169221E-06   2        21        21   # BR(A0 -> gluon gluon)
     8.62277934E-09   2       -11        11   # BR(A0 -> Electron electron)
     3.83991599E-04   2       -13        13   # BR(A0 -> Muon muon)
     1.10910283E-01   2       -15        15   # BR(A0 -> Tau tau)
     2.60017377E-14   2        -2         2   # BR(A0 -> Up up)
     5.04453664E-09   2        -4         4   # BR(A0 -> Charm charm)
     4.01650286E-04   2        -6         6   # BR(A0 -> Top top)
     6.05572985E-07   2        -1         1   # BR(A0 -> Down down)
     2.19020053E-04   2        -3         3   # BR(A0 -> Strange strange)
     5.56067295E-01   2        -5         5   # BR(A0 -> Bottom bottom)
     1.06951911E-03   2  -1000024   1000024   # BR(A0 -> Chargino1 chargino1)
     9.78066990E-02   2  -1000024   1000037   # BR(A0 -> Chargino1 chargino2)
     9.78066990E-02   2  -1000037   1000024   # BR(A0 -> Chargino2 chargino1)
     4.78698571E-06   2  -1000037   1000037   # BR(A0 -> Chargino2 chargino2)
     1.00242822E-02   2   1000022   1000022   # BR(A0 -> neutralino1 neutralino1)
     8.56315171E-03   2   1000022   1000023   # BR(A0 -> neutralino1 neutralino2)
     2.60509264E-05   2   1000022   1000025   # BR(A0 -> neutralino1 neutralino3)
     2.60721584E-02   2   1000022   1000035   # BR(A0 -> neutralino1 neutralino4)
     3.05339663E-07   2   1000023   1000023   # BR(A0 -> neutralino2 neutralino2)
     9.07165334E-03   2   1000023   1000025   # BR(A0 -> neutralino2 neutralino3)
     4.84489264E-02   2   1000023   1000035   # BR(A0 -> neutralino2 neutralino4)
     9.52730331E-03   2   1000025   1000025   # BR(A0 -> neutralino3 neutralino3)
     2.35867309E-02   2   1000025   1000035   # BR(A0 -> neutralino3 neutralino4)
     2.39854559E-06   2   1000035   1000035   # BR(A0 -> neutralino4 neutralino4)
     1.00169908E-07   2        23        25   # BR(A0 -> Z h0)
     4.42158986E-13   2        23        35   # BR(A0 -> Z HH)
     1.48084422E-38   2        25        25   # BR(A0 -> h0 h0)
DECAY        37     1.86770516E+02   # Gamma(Hp)
     9.95890477E-09   2       -11        12   # BR(Hp -> Electron nu_e)
     4.25774284E-04   2       -13        14   # BR(Hp -> Muon nu_mu)
     1.20433232E-01   2       -15        16   # BR(Hp -> Tau nu_tau)
     6.03566793E-07   2        -1         2   # BR(Hp -> Down up)
     1.02437543E-05   2        -3         2   # BR(Hp -> Strange up)
     6.35887180E-06   2        -5         2   # BR(Hp -> Bottom up)
     2.86069115E-08   2        -1         4   # BR(Hp -> Down charm)
     2.17504593E-04   2        -3         4   # BR(Hp -> Strange charm)
     8.90469773E-04   2        -5         4   # BR(Hp -> Bottom charm)
     2.89527113E-08   2        -1         6   # BR(Hp -> Down top)
     9.56473508E-07   2        -3         6   # BR(Hp -> Strange top)
     6.00024593E-01   2        -5         6   # BR(Hp -> Bottom top)
     1.88006397E-02   2   1000022   1000024   # BR(Hp -> neutralino1 chargino1)
     4.33983394E-02   2   1000022   1000037   # BR(Hp -> neutralino1 chargino2)
     4.70323353E-04   2   1000023   1000024   # BR(Hp -> neutralino2 chargino1)
     8.18204668E-02   2   1000023   1000037   # BR(Hp -> neutralino2 chargino2)
     1.21429988E-02   2   1000024   1000025   # BR(Hp -> chargino1 neutralino3)
     3.93334904E-02   2   1000025   1000037   # BR(Hp -> neutralino3 chargino2)
     8.20238530E-02   2   1000024   1000035   # BR(Hp -> chargino1 neutralino4)
     1.23903955E-12   2   1000035   1000037   # BR(Hp -> neutralino4 chargino2)
     8.38741347E-08   2        24        25   # BR(Hp -> W h0)
DECAY         6     2.43000000E+00   # top
#    BR                NDA      ID1      ID2
     1.00000000E+00    2           5        24   # BR(t -> b W)
Block HiggsBoundsInputHiggsCouplingsFermions
# ScalarNormEffCoupSq PseudoSNormEffCoupSq NP IP1 IP2 IP2
    9.70908814E-01    0.00000000E+00        3  25   5   5  # h0-b-b eff. coupling^2, normalised to SM
    2.18833388E+03    0.00000000E+00        3  35   5   5  # H0-b-b eff. coupling^2, normalised to SM
    0.00000000E+00    2.18830479E+03        3  36   5   5  # A0-b-b eff. coupling^2, normalised to SM
#
    1.00001329E+00    0.00000000E+00        3  25   6   6  # h0-t-t eff. coupling^2, normalised to SM
    4.43680798E-04    0.00000000E+00        3  35   6   6  # H0-t-t eff. coupling^2, normalised to SM
    0.00000000E+00    4.56974735E-04        3  36   6   6  # A0-t-t eff. coupling^2, normalised to SM
#
    9.70908814E-01    0.00000000E+00        3  25  15  15  # h0-tau-tau eff. coupling^2, normalised to SM
    2.18833388E+03    0.00000000E+00        3  35  15  15  # H0-tau-tau eff. coupling^2, normalised to SM
    0.00000000E+00    2.18830479E+03        3  36  15  15  # A0-tau-tau eff. coupling^2, normalised to SM
#
Block HiggsBoundsInputHiggsCouplingsBosons
    9.99999902E-01        3  25  24  24  # h0-W-W eff. coupling^2, normalised to SM
    9.81158684E-08        3  35  24  24  # H0-W-W eff. coupling^2, normalised to SM
    0.00000000E+00        3  36  24  24  # A0-W-W eff. coupling^2, normalised to SM
#
    9.99999902E-01        3  25  23  23  # h0-Z-Z eff. coupling^2, normalised to SM
    9.81158684E-08        3  35  23  23  # H0-Z-Z eff. coupling^2, normalised to SM
    0.00000000E+00        3  36  23  23  # A0-Z-Z eff. coupling^2, normalised to SM
#
    1.26060376E+00        3  25  21  21  # h0-g-g eff. coupling^2, normalised to SM
    7.75276498E-03        3  35  21  21  # H0-g-g eff. coupling^2, normalised to SM
    1.23888037E-01        3  36  21  21  # A0-g-g eff. coupling^2, normalised to SM
#
    0.00000000E+00        3  25  25  23  # h0-h0-Z eff. coupling^2, normalised to SM
    0.00000000E+00        3  35  25  23  # H0-h0-Z eff. coupling^2, normalised to SM
    9.81158684E-08        3  36  25  23  # A0-h0-Z eff. coupling^2, normalised to SM
    0.00000000E+00        3  35  35  23  # H0-H0-Z eff. coupling^2, normalised to SM
    9.99999902E-01        3  36  35  23  # A0-H0-Z eff. coupling^2, normalised to SM
    0.00000000E+00        3  36  36  23  # A0-A0-Z eff. coupling^2, normalised to SM
#
    0.00000000E+00        4  25  21  21  23  # h0-g-g-Z eff. coupling^2, normalised to SM
    0.00000000E+00        4  35  21  21  23  # H0-g-g-Z eff. coupling^2, normalised to SM
    0.00000000E+00        4  36  21  21  23  # A0-g-g-Z eff. coupling^2, normalised to SM
Block SPhenoLowEnergy  # low energy observables
    1    3.38244247E-04   # BR(b -> s gamma)
    2    1.58910805E-06   # BR(b -> s mu+ mu-)
    3    3.52652774E-05   # BR(b -> s nu nu)
    4    1.46165888E-15   # BR(Bd -> e+ e-)
    5    6.24414972E-11   # BR(Bd -> mu+ mu-)
    6    1.31350046E-08   # BR(Bd -> tau+ tau-)
    7    4.94171636E-14   # BR(Bs -> e+ e-)
    8    2.11113698E-09   # BR(Bs -> mu+ mu-)
    9    4.49994227E-07   # BR(Bs -> tau+ tau-)
   10    9.62767819E-05   # BR(B_u -> tau nu)
   11    9.94502298E-01   # BR(B_u -> tau nu)/BR(B_u -> tau nu)_SM
   12    5.41928180E-01   # |Delta(M_Bd)| [ps^-1] 
   13    1.93581105E+01   # |Delta(M_Bs)| [ps^-1] 
   14    0.00000000E+00   # neutron EDM according to the chiral quark model
   15    0.00000000E+00   # neutron EDM according to the relativistic quark-parton model
   16    2.15727330E-03   # epsilon_K
   17    2.28165819E-15   # Delta(M_K)
   18    2.48067151E-11   # BR(K^0 -> pi^0 nu nu)
   19    8.29218514E-11   # BR(K^+ -> pi^+ nu nu)
   20   -4.48563195E-16   # Delta(g-2)_electron/2
   21   -1.91776673E-11   # Delta(g-2)_muon/2
   22   -5.43903087E-09   # Delta(g-2)_tau/2
   23    0.00000000E+00   # electric dipole moment of the electron
   24    0.00000000E+00   # electric dipole moment of the muon
   25    0.00000000E+00   # electric dipole moment of the tau
   26    0.00000000E+00   # Br(mu -> e gamma)
   27    0.00000000E+00   # Br(tau -> e gamma)
   28    0.00000000E+00   # Br(tau -> mu gamma)
   29    0.00000000E+00   # Br(mu -> 3 e)
   30    0.00000000E+00   # Br(tau -> 3 e)
   31    0.00000000E+00   # Br(tau -> 3 mu)
   39    6.61420631E-05   # Delta(rho_parameter)
   40    0.00000000E+00   # BR(Z -> e mu)
   41    0.00000000E+00   # BR(Z -> e tau)
   42    0.00000000E+00   # BR(Z -> mu tau)
Block FWCOEF Q=  1.60000000E+02  # Wilson coefficients at scale Q
#    id        order  M        value         comment
     0305 4422   00   0    -1.88819110E-01   # C7
     0305 4422   00   2    -2.09938906E-01   # C7
     0305 4322   00   2    -1.86944879E-04   # C7'
     0305 6421   00   0    -9.52278348E-02   # C8
     0305 6421   00   2    -1.07732075E-01   # C8
     0305 6321   00   2    -1.22557606E-04   # C8'
 03051111 4133   00   0     1.62184018E+00   # C9 e+e-
 03051111 4133   00   2     1.62219937E+00   # C9 e+e-
 03051111 4233   00   2     5.37394460E-04   # C9' e+e-
 03051111 4137   00   0    -4.44453228E+00   # C10 e+e-
 03051111 4137   00   2    -4.44426556E+00   # C10 e+e-
 03051111 4237   00   2    -4.00555861E-03   # C10' e+e-
 03051313 4133   00   0     1.62184018E+00   # C9 mu+mu-
 03051313 4133   00   2     1.62219915E+00   # C9 mu+mu-
 03051313 4233   00   2     5.37394188E-04   # C9' mu+mu-
 03051313 4137   00   0    -4.44453228E+00   # C10 mu+mu-
 03051313 4137   00   2    -4.44426578E+00   # C10 mu+mu-
 03051313 4237   00   2    -4.00555906E-03   # C10' mu+mu-
 03051212 4137   00   0     1.50535012E+00   # C11 nu_1 nu_1
 03051212 4137   00   2     1.50529352E+00   # C11 nu_1 nu_1
 03051212 4237   00   2     8.67096965E-04   # C11' nu_1 nu_1
 03051414 4137   00   0     1.50535012E+00   # C11 nu_2 nu_2
 03051414 4137   00   2     1.50529352E+00   # C11 nu_2 nu_2
 03051414 4237   00   2     8.67096985E-04   # C11' nu_2 nu_2
 03051616 4137   00   0     1.50535012E+00   # C11 nu_3 nu_3
 03051616 4137   00   2     1.50529353E+00   # C11 nu_3 nu_3
 03051616 4237   00   2     8.67102605E-04   # C11' nu_3 nu_3
Block IMFWCOEF Q=  1.60000000E+02  # Im(Wilson coefficients) at scale Q
#    id        order  M        value         comment
     0305 4422   00   0     3.85801147E-07   # C7
     0305 4422   00   2    -1.07870580E-05   # C7
     0305 4322   00   2    -2.32676101E-06   # C7'
     0305 6421   00   0     3.30464197E-07   # C8
     0305 6421   00   2     3.43462574E-06   # C8
     0305 6321   00   2    -8.40327746E-07   # C8'
 03051111 4133   00   2     1.61798888E-07   # C9 e+e-
 03051111 4233   00   2     1.00336722E-05   # C9' e+e-
 03051111 4137   00   2     4.80238005E-07   # C10 e+e-
 03051111 4237   00   2    -7.47889039E-05   # C10' e+e-
 03051313 4133   00   2     1.61795034E-07   # C9 mu+mu-
 03051313 4233   00   2     1.00336690E-05   # C9' mu+mu-
 03051313 4137   00   2     4.80241317E-07   # C10 mu+mu-
 03051313 4237   00   2    -7.47889136E-05   # C10' mu+mu-
 03051212 4137   00   2    -8.37221125E-08   # C11 nu_1 nu_1
 03051212 4237   00   2     1.61898101E-05   # C11' nu_1 nu_1
 03051414 4137   00   2    -8.37219693E-08   # C11 nu_2 nu_2
 03051414 4237   00   2     1.61898101E-05   # C11' nu_2 nu_2
 03051616 4137   00   2    -8.36822262E-08   # C11 nu_3 nu_3
 03051616 4237   00   2     1.61898101E-05   # C11' nu_3 nu_3
