BLOCK SPINFO
   1   SPheno
   2   v4.0.5be

BLOCK SPHENOINFO
   1   2
   2   2

BLOCK MODSEL
   1   0

BLOCK MINPAR
   3    15.554982
   4   -1

BLOCK EXTPAR
   0    2393.0243
   1   -2435.6101
   2    1588.3504
   3    3771.9859
   11   -2771.5433
   12   -5446.6459
   13   -1360.4508
   23   -640.04638
   25    14.90786
   26    4530.3991
   31    4401.1139
   32    4401.1139
   33    3663.4374
   34    1875.6017
   35    1875.6017
   36    4199.5777
   41    4464.4965
   42    4464.4965
   43    2790.0374
   44    2286.8392
   45    2286.8392
   46    1967.295
   47    674.66583
   48    674.66583
   49    3614.3215

BLOCK SMINPUTS
   1    127.90897
   2    1.1663787e-05
   3    0.1184
   4    91.1876
   5    4.18
   6    173.2
   7    1.777
   8    0
   11    0.00051099893
   12    0
   13    0.10565837
   14    0
   21    0.005
   22    0.0025
   23    0.095
   24    1.27

BLOCK GAUGE Q=  2393.0243
   1    0.35536298
   2    0.66519887
   3    1.219778

BLOCK YU Q=  2393.0243
   1   1    8.4032139e-06
   2   2    0.0042688327
   3   3    1.0151757

BLOCK YD Q=  2393.0243
   1   1    0.00025173348
   2   2    0.0047829361
   3   3    0.24964073

BLOCK YE Q=  2393.0243
   1   1    4.3929333e-05
   2   2    0.0090831929
   3   3    0.15276436

BLOCK AU Q=  2393.0243
   1   1    0
   2   2    0
   3   3   -2771.546

BLOCK AD Q=  2393.0243
   1   1    0
   2   2    0
   3   3   -5446.6285

BLOCK AE Q=  2393.0243
   1   1    0
   2   2    0
   3   3   -1360.4503

BLOCK MSOFT Q=  2393.0243
   1   -2435.6101
   2    1588.3504
   3    3771.9859
   21    19975584
   22   -251401.74
   31    4401.1139
   32    4401.1139
   33    3663.4374
   34    1875.6017
   35    1875.6017
   36    4199.5777
   41    4464.4965
   42    4464.4965
   43    2790.0374
   44    2286.8392
   45    2286.8392
   46    1967.295
   47    674.66583
   48    674.66583
   49    3614.3215

BLOCK MASS
   6    173.2
   23    91.1876
   24    80.429995
   15    1.777
   25    121.00834
   35    4529.9006
   36    4530.3991
   37    4530.8836
   1000001    4535.3282
   2000001    739.24315
   1000002    4534.7053
   2000002    2370.1254
   1000003    4535.3279
   2000003    739.24495
   1000004    4534.705
   2000004    2370.1253
   1000005    2857.6695
   2000005    3694.7663
   1000006    1996.9481
   2000006    2867.6586
   1000011    4409.7224
   2000011    1888.0901
   1000012    4408.6047
   1000013    4409.7216
   2000013    1888.091
   1000014    4408.6045
   1000015    3671.7542
   2000015    4204.7928
   1000016    3670.504
   1000021    3861.6473
   1000022    651.7556
   1000023   -655.9576
   1000025    1662.0911
   1000035   -2415.7859
   1000024    653.8566
   1000037    1661.7545

BLOCK ALPHA
      -0.064270495

BLOCK HMIX Q=  2393.0243
   1   -640.04638
   2    14.90786
   3    243.5088
   4    20524516

BLOCK STOPMIX
   1   1    0.094778654
   1   2    0.99549837
   2   1   -0.99549837
   2   2    0.094778654

BLOCK SBOTMIX
   1   1   -0.99999871
   1   2    0.0016087364
   2   1   -0.0016087364
   2   2   -0.99999871

BLOCK STAUMIX
   1   1   -0.99999421
   1   2    0.0034017791
   2   1   -0.0034017791
   2   2   -0.99999421

BLOCK NMIX
   1   1    0.009462364
   1   2    0.051869674
   1   3    0.70766322
   1   4    0.70457985
   2   1    0.018792941
   2   2    0.025995014
   2   3   -0.7062804
   2   4    0.70720512
   3   1    0.00057468875
   3   2   -0.9983154
   3   3    0.018374781
   3   4    0.055030951
   4   1   -0.99977845
   4   2    0.00040570174
   4   3   -0.0065678139
   4   4    0.01999351

BLOCK UMIX
   1   1   -0.026052844
   1   2   -0.99966057
   2   1    0.99966057
   2   2   -0.026052844

BLOCK VMIX
   1   1   -0.077930799
   1   2    0.99695877
   2   1    0.99695877
   2   2    0.077930799

BLOCK HIGGSBOUNDSINPUTHIGGSCOUPLINGSFERMIONS
       0, 222.2443,3,36,15,15

BLOCK HIGGSBOUNDSINPUTHIGGSCOUPLINGSBOSONS
       0,4,36,21,21,23

BLOCK SPHENOLOWENERGY
   1    0.00032993546
   2    1.589271e-06
   3    3.5252562e-05
   4    2.4681937e-15
   5    1.0543847e-10
   6    2.2074919e-08
   7    8.3192721e-14
   8    3.5539917e-09
   9    7.5391487e-07
   10    9.6735042e-05
   11    0.99923595
   12    0.54241748
   13    19.380697
   14    0
   15    0
   16    0.0021592329
   17    2.281678e-15
   18    2.4795973e-11
   19    8.2897742e-11
   20   -6.9233944e-16
   21   -2.9600029e-11
   22   -9.1584989e-09
   23    0
   24    0
   25    0
   26    0
   27    0
   28    0
   29    0
   30    0
   31    0
   39    2.262076e-05
   40    0
   41    0
   42    0

BLOCK FWCOEF Q=  160
   305   4422   0   0   -0.18881911
   305   4422   0   2   -0.20008772
   305   4322   0   2   -0.00017064868
   305   6421   0   0   -0.095227835
   305   6421   0   2   -0.10310598
   305   6321   0   2   -0.00012895774
   3051111   4133   0   0    1.6082976
   3051111   4133   0   2    1.6090146
   3051111   4233   0   2    3.2497972e-05
   3051111   4137   0   0   -4.4309897
   3051111   4137   0   2   -4.4293212
   3051111   4237   0   2   -0.00024771111
   3051313   4133   0   0    1.6082976
   3051313   4133   0   2    1.6090146
   3051313   4233   0   2    3.249796e-05
   3051313   4137   0   0   -4.4309897
   3051313   4137   0   2   -4.4293213
   3051313   4237   0   2   -0.00024771113
   3051212   4137   0   0    1.5053501
   3051212   4137   0   2    1.5049898
   3051212   4237   0   2    5.3786095e-05
   3051414   4137   0   0    1.5053501
   3051414   4137   0   2    1.5049898
   3051414   4237   0   2    5.3786095e-05
   3051616   4137   0   0    1.5053501
   3051616   4137   0   2    1.5049899
   3051616   4237   0   2    5.3786171e-05

BLOCK IMFWCOEF Q=  160
   305   4422   0   0    3.8580928e-07
   305   4422   0   2   -4.0956844e-06
   305   4322   0   2   -1.9254251e-06
   305   6421   0   0    3.3047116e-07
   305   6421   0   2    3.9073649e-07
   305   6321   0   2   -7.765863e-07
   3051111   4133   0   2    5.3021719e-07
   3051111   4233   0   2    6.3527904e-07
   3051111   4137   0   2   -2.6915936e-06
   3051111   4237   0   2   -4.8413589e-06
   3051313   4133   0   2    5.302161e-07
   3051313   4233   0   2    6.3527886e-07
   3051313   4137   0   2   -2.6915938e-06
   3051313   4237   0   2   -4.8413592e-06
   3051212   4137   0   2    6.1985563e-07
   3051212   4237   0   2    1.0512168e-06
   3051414   4137   0   2    6.1985564e-07
   3051414   4237   0   2    1.0512168e-06
   3051616   4137   0   2    6.2054734e-07
   3051616   4237   0   2    1.0512165e-06

DECAY 23  2.4952


DECAY 24  2.085


DECAY 2000011  0.0032509728
    0.79719949   2    1000023    11
    0.20273442   2    1000022    11

DECAY 1000011  45.60432
    0.62619638   2   -1000037    12
    0.31202225   2    1000025    11
    0.059380647   2    1000035    11
    0.0013195491   2    1000022    11
    0.00055267144   2   -1000024    12
    0.00052849893   2    1000023    11

DECAY 2000013  0.0080506214
    0.47046831   2    1000023    13
    0.29806593   2   -1000024    14
    0.2314262   2    1000022    13

DECAY 1000013  45.611289
    0.6261005   2   -1000037    14
    0.31197451   2    1000025    13
    0.059371547   2    1000035    13
    0.0013953852   2    1000022    13
    0.00060411329   2    1000023    13
    0.00055258687   2   -1000024    14

DECAY 1000015  33.76814
    0.60479144   2   -1000037    16
    0.30134263   2    1000025    15
    0.043844176   2    1000035    15
    0.025202577   2    1000022    15
    0.024172914   2    1000023    15
    0.00064626334   2   -1000024    16

DECAY 2000015  13.218902
    0.716967   2    1000035    15
    0.14042922   2   -1000024    16
    0.070703335   2    1000023    15
    0.070483314   2    1000022    15
    0.00057660566   2    1000016   -24
    0.0002936905   2    1000015    25
    0.00028350596   2    1000015    23
    0.00017555835   2   -1000037    16

DECAY 1000012  45.617466
    0.6223743   2    1000037    11
    0.31218468   2    1000025    12
    0.059503197   2    1000035    12
    0.0049423118   2    1000024    11
    0.0008919553   2    1000022    12
    0.00010355609   2    1000023    12

DECAY 1000014  45.624383
    0.62227997   2    1000037    13
    0.31213732   2    1000025    14
    0.059494168   2    1000035    14
    0.0050931803   2    1000024    13
    0.00089182003   2    1000022    14
    0.00010354039   2    1000023    14

DECAY 1000016  33.782508
    0.60090381   2    1000037    15
    0.30138386   2    1000025    16
    0.052717649   2    1000024    15
    0.043897535   2    1000035    16
    0.00098304608   2    1000022    16
    0.00011410523   2    1000023    16

DECAY 2000001  8.5880797e-06
    0.77881085   2    1000023    1
    0.21599797   2    1000022    1
    0.0051911769   2   -1000024    2

DECAY 1000001  72.303568
    0.41359155   2   -1000037    2
    0.37448014   2    1000021    1
    0.20625597   2    1000025    1
    0.0045101785   2    1000035    1
    0.00066695069   2    1000022    1
    0.00035939761   2   -1000024    2
    0.00013580559   2    1000023    1

DECAY 2000003  4.0640092e-05
    0.39597273   2   -1000024    4
    0.35382279   2    1000023    3
    0.25020448   2    1000022    3

DECAY 1000003  72.307107
    0.41357137   2   -1000037    4
    0.3744615   2    1000021    3
    0.20624586   2    1000025    3
    0.0045099573   2    1000035    3
    0.000680594   2    1000022    3
    0.0003810364   2   -1000024    4
    0.00014941095   2    1000023    3

DECAY 1000005  90.683979
    0.5716486   2   -1000024    6
    0.20786488   2    1000006   -24
    0.12412621   2   -1000037    6
    0.060540737   2    1000025    5
    0.017907499   2    1000022    5
    0.017552528   2    1000023    5
    0.00035955239   2    1000035    5

DECAY 2000005  9.2672285
    0.46140684   2   -1000024    6
    0.23230032   2    1000022    5
    0.23140927   2    1000023    5
    0.072925687   2    1000035    5
    0.00060160561   2    1000005    25
    0.00058843578   2    2000006   -24
    0.0003052303   2    1000005    23
    0.00028810762   2   -1000037    6
    0.00014408474   2    1000025    5

DECAY 2000002  0.0019997283
    0.79727241   2    1000023    2
    0.20250038   2    1000022    2
    0.00022578832   2    1000025    2

DECAY 1000002  72.299926
    0.4112881   2    1000037    1
    0.37390532   2    1000021    2
    0.20613591   2    1000025    2
    0.0044678928   2    1000035    2
    0.0032155147   2    1000024    1
    0.00075941396   2    1000022    2
    0.000227846   2    1000023    2

DECAY 2000004  0.0034627295
    0.56643061   2    1000023    4
    0.22228224   2    1000022    4
    0.21057258   2    1000024    3
    0.00038955668   2    1000037    3
    0.00032501373   2    1000025    4

DECAY 1000004  72.303381
    0.41126841   2    1000037    3
    0.37388625   2    1000021    4
    0.20612609   2    1000025    4
    0.0044676858   2    1000035    4
    0.003242646   2    1000024    3
    0.00077018689   2    1000022    4
    0.00023872747   2    1000023    4

DECAY 1000006  64.172837
    0.50629327   2    1000024    5
    0.24700954   2    1000023    6
    0.24667572   2    1000022    6

DECAY 2000006  95.201801
    0.27596618   2    1000023    6
    0.27318965   2    1000022    6
    0.13727636   2    1000006    25
    0.11786217   2    1000037    5
    0.10077736   2    1000006    23
    0.060326833   2    1000025    6
    0.034294085   2    1000024    5
    0.00030736398   2    1000035    6

DECAY 1000024  9.1941738e-12
    0.59468221   3    1000022   -1    2
    0.19823902   3    1000022   -11    12
    0.19416863   3    1000022   -13    14
    0.012910144   3    1000022   -3    4

DECAY 1000037  12.974104
    0.24619452   2    1000023    24
    0.24543021   2    1000024    25
    0.24275448   2    1000022    24
    0.24261535   2    1000024    23
    0.008471353   3    1000023   -5    6
    0.0077927082   3    1000024    6   -6
    0.006735733   3    1000022   -5    6

DECAY 1000022 -1


DECAY 1000023  1.3729741e-08
    0.86358673   2    1000022    22
    0.03506541   3    1000022    12   -12
    0.026220694   3    1000022    1   -1
    0.026020156   3    1000022    3   -3
    0.020450253   3    1000022    2   -2
    0.0059173867   3    1000022    11   -11
    0.0058461296   3    1000022    13   -13
    0.0038185478   3    1000024    1   -2
    0.0038185478   3   -1000024   -1    2
    0.0031533144   3    1000022    4   -4
    0.0012728954   3    1000024    11   -12
    0.0012728954   3   -1000024   -11    12
    0.0012564157   3    1000024    13   -14
    0.0012564157   3   -1000024   -13    14
    0.00051400601   3    1000024    3   -4
    0.00051400601   3   -1000024   -3    4

DECAY 1000025  15.680846
    0.21255408   2    1000023    25
    0.20264895   2    1000024   -24
    0.20264895   2   -1000024    24
    0.16317256   2    1000023    23
    0.16191169   2    1000022    25
    0.040483742   2    1000022    23
    0.0053058734   3    1000024    5   -6
    0.0053058734   3   -1000024   -5    6
    0.0032514518   3    1000023    6   -6
    0.002703967   3    1000022    6   -6

DECAY 1000035  19.498137
    0.086678335   2    1000024   -24
    0.086678335   2   -1000024    24
    0.085197795   2    2000001   -1
    0.085197795   2   -2000001    1
    0.085197714   2    2000003   -3
    0.085197714   2   -2000003    3
    0.069010516   2    1000022    23
    0.065601519   2    1000023    25
    0.050411246   2    1000022    25
    0.047119481   2    2000011   -11
    0.047119481   2   -2000011    11
    0.047119328   2    2000013   -13
    0.047119328   2   -2000013    13
    0.039873696   2    1000006   -6
    0.039873696   2   -1000006    6
    0.017700326   2    1000023    23
    0.0036472498   3    1000024    5   -6
    0.0036472498   3   -1000024   -5    6
    0.0026840815   3    1000023    6   -6
    0.0023867301   3    1000022    6   -6
    0.0005816534   2    2000002   -2
    0.0005816534   2   -2000002    2
    0.00058144277   2    2000004   -4
    0.00058144277   2   -2000004    4

DECAY 1000021  408.8572
    0.12972816   2    2000001   -1
    0.12972816   2   -2000001    1
    0.12972811   2    2000003   -3
    0.12972811   2   -2000003    3
    0.073142838   2    1000006   -6
    0.073142838   2   -1000006    6
    0.054306867   2    2000002   -2
    0.054306867   2   -2000002    2
    0.054306859   2    2000004   -4
    0.054306859   2   -2000004    4
    0.02885341   2    2000006   -6
    0.02885341   2   -2000006    6
    0.028607157   2    1000005   -5
    0.028607157   2   -1000005    5
    0.00099919769   2    2000005   -5
    0.00099919769   2   -2000005    5
    0.00016153104   2    1000006   -4
    0.00016153104   2   -1000006    4

DECAY 25  0.0034177037
    0.63119369   2   -5    5
    0.16742654   2   -24    24
    0.075146337   2    21    21
    0.0722623   2   -15    15
    0.031291236   2   -4    4
    0.018700807   2    23    23
    0.0023246477   2    22    22
    0.0011656591   2    22    23
    0.00025064292   2   -13    13
    0.00023731268   2   -3    3
    6.5614664e-07   2   -1    1
    1.6126431e-07   2   -2    2
    5.6347865e-09   2   -11    11

DECAY 35  56.779099
    0.23254027   2   -1000024    1000037
    0.23254027   2   -1000037    1000024
    0.19896255   2   -5    5
    0.11807331   2    1000022    1000025
    0.11516711   2    1000023    1000025
    0.037589052   2   -15    15
    0.030019328   2    1000022    1000035
    0.014790292   2    1000023    1000035
    0.013252354   2   -6    6
    0.0041018222   2   -1000024    1000024
    0.0012484712   2   -1000006    1000006
    0.00083544404   2    1000022    1000022
    0.00026835751   2   -1000037    1000037
    0.00013410121   2    1000025    1000025
    0.00013110192   2   -13    13
    0.0001289411   2    1000022    1000023
    8.045782e-05   2   -3    3
    7.6095591e-05   2    1000023    1000023
    4.4678034e-05   2    1000025    1000035
    1.3714994e-05   2    25    25
    1.0998333e-06   2    23    23
    2.2244419e-07   2   -1    1
    2.0195353e-07   2   -24    24
    1.6564347e-07   2   -4    4
    1.5557234e-07   2   -1000011    1000011
    1.5533901e-07   2   -1000013    1000013
    8.8351468e-08   2   -1000001    1000001
    8.8284977e-08   2   -1000003    1000003
    4.926286e-08   2    21    21
    3.6255684e-08   2    22    23
    9.4338824e-09   2    22    22
    2.9441134e-09   2   -11    11
    8.5373699e-13   2   -2    2

DECAY 36  56.156943
    0.23519344   2   -1000024    1000037
    0.23519344   2   -1000037    1000024
    0.19351531   2   -5    5
    0.11929902   2    1000023    1000025
    0.11661609   2    1000022    1000025
    0.036560463   2   -15    15
    0.030315494   2    1000023    1000035
    0.015039074   2    1000022    1000035
    0.012518399   2   -6    6
    0.0041227146   2   -1000024    1000024
    0.0007099545   2    1000022    1000022
    0.0002528571   2   -1000037    1000037
    0.0002041461   2    1000022    1000023
    0.00012751435   2   -13    13
    0.00012660108   2    1000025    1000025
    0.00010827567   2    1000023    1000023
    7.8254135e-05   2   -3    3
    8.1525468e-06   2    1000025    1000035
    7.675725e-06   2    21    21
    2.7113938e-06   2    23    25
    2.163538e-07   2   -1    1
    1.5544168e-07   2   -4    4
    2.8308963e-08   2    22    23
    2.8634972e-09   2   -11    11
    1.88901e-09   2    22    22
    8.0116549e-13   2   -2    2
    3.9875956e-37   2    25    25

DECAY 37  56.609098
    0.23621334   2    1000022    1000037
    0.23428023   2    1000024    1000025
    0.23375723   2    1000023    1000037
    0.21001974   2   -5    6
    0.044829416   2    1000024    1000035
    0.038728536   2   -15    16
    0.0012808372   2    1000023    1000024
    0.00030542739   2    1000022    1000024
    0.00029320487   2   -5    4
    0.00013691915   2   -13    14
    7.4815419e-05   2   -3    4
    5.3023344e-05   2    1000035    1000037
    1.7933724e-05   2   -3    6
    3.5126812e-06   2   -3    2
    2.6913328e-06   2    24    25
    2.0937832e-06   2   -5    2
    8.174109e-07   2   -1    6
    2.0717488e-07   2   -1    2
    1.7162686e-08   2   -1    4
    3.2025531e-09   2   -11    12
    7.4714528e-11   2   -1000003    1000006
    3.4120947e-11   2    1000025    1000037
    7.9103318e-12   2   -1000003    2000006
    5.5483811e-13   2   -1000003    1000004
    9.4931617e-15   2   -1000001    1000006
    1.0050797e-15   2   -1000001    2000006
    8.2232608e-17   2   -1000001    1000004
    1.558848e-19   2   -1000003    1000002
    8.075803e-21   2   -1000001    1000002

DECAY 6  2.43
    1   2    5    24

DECAY 15 -1
