# SUSY Les Houches Accord 2 - MSSM spectrum + Decays
# SPheno v4.0.5be
# W. Porod, Comput. Phys. Commun. 153 (2003) 275-315, hep-ph/0301101;
# W. Porod, F.~Staub, Comput. Phys. Commun. 183 (2012) 2458
#                     arXiv:1104.1573 [hep-ph] 
# in case of problems send email to porod@physik.uni-wuerzburg.de
# Created: 07.09.2021,  17:41
Block SPINFO         # Program information
     1   SPheno      # spectrum calculator
     2   v4.0.5be    # version number
#
Block SPhenoINFO     # SPheno specific information
    1      2         # using 2-loop RGEs
    2      2         # using pole masses for boundary conditions at mZ
Block MODSEL  # Model selection
    1    0    # general MSSM
Block MINPAR  # Input parameters
    3    2.94842153E+01  # tanb at m_Z    
    4   -1.00000000E+00  # Sign(mu)
Block EXTPAR  # non-universal input parameters
    0    2.44391182E+03  # scale for input parameters
    1    2.16002947E+02  # M_1
    2   -7.53928169E+02  # M_2
    3    1.90350382E+03  # M_3
   11   -6.16985204E+03  # A_t
   12   -3.73229139E+02  # A_b
   13    1.03927024E+03  # A_tau
   23   -2.42578426E+02  # mu
   25    2.85062361E+01  # tan(beta)
   26    2.43499328E+03  # m_A, pole mass
   31    1.00000000E+04  # M_L11
   32    1.00000000E+04  # M_L22
   33    1.00000000E+04  # M_L33
   34    1.00000000E+04  # M_E11
   35    1.00000000E+04  # M_E22
   36    1.00000000E+04  # M_E33
   41    1.00000000E+04  # M_Q11
   42    1.00000000E+04  # M_Q22
   43    3.00853233E+03  # M_Q33
   44    1.00000000E+04  # M_U11
   45    1.00000000E+04  # M_U22
   46    2.04299407E+03  # M_U33
   47    1.00000000E+04  # M_D11
   48    1.00000000E+04  # M_D22
   49    3.65918696E+03  # M_D33
Block SMINPUTS  # SM parameters
         1     1.27908970E+02  # alpha_em^-1(MZ)^MSbar
         2     1.16637870E-05  # G_mu [GeV^-2]
         3     1.18400000E-01  # alpha_s(MZ)^MSbar
         4     9.11876000E+01  # m_Z(pole)
         5     4.18000000E+00  # m_b(m_b), MSbar
         6     1.73200000E+02  # m_t(pole)
         7     1.77700000E+00  # m_tau(pole)
         8     0.00000000E+00  # m_nu_3
        11     5.10998930E-04  # m_e(pole)
        12     0.00000000E+00  # m_nu_1
        13     1.05658372E-01  # m_muon(pole)
        14     0.00000000E+00  # m_nu_2
        21     5.00000000E-03  # m_d(2 GeV), MSbar
        22     2.50000000E-03  # m_u(2 GeV), MSbar
        23     9.50000000E-02  # m_s(2 GeV), MSbar
        24     1.27000000E+00  # m_c(m_c), MSbar
Block gauge Q=  2.44391182E+03  # (SUSY scale)
   1    3.55362975E-01  # g'(Q)^DRbar
   2    6.65198874E-01  # g(Q)^DRbar
   3    1.21977796E+00  # g3(Q)^DRbar
Block Yu Q=  2.44391182E+03  # (SUSY scale)
  1  1     8.38952949E-06   # Y_u(Q)^DRbar
  2  2     4.26188098E-03   # Y_c(Q)^DRbar
  3  3     1.01352255E+00   # Y_t(Q)^DRbar
Block Yd Q=  2.44391182E+03  # (SUSY scale)
  1  1     4.80571189E-04   # Y_d(Q)^DRbar
  2  2     9.13085259E-03   # Y_s(Q)^DRbar
  3  3     4.76576030E-01   # Y_b(Q)^DRbar
Block Ye Q=  2.44391182E+03  # (SUSY scale)
  1  1     8.38631866E-05   # Y_e(Q)^DRbar
  2  2     1.73402472E-02   # Y_mu(Q)^DRbar
  3  3     2.91634432E-01   # Y_tau(Q)^DRbar
Block Au Q=  2.44391182E+03  # (SUSY scale)
  1  1     0.00000000E+00   # A_u(Q)^DRbar
  2  2     0.00000000E+00   # A_c(Q)^DRbar
  3  3    -6.16985312E+03   # A_t(Q)^DRbar
Block Ad Q=  2.44391182E+03  # (SUSY scale)
  1  1     0.00000000E+00   # A_d(Q)^DRbar
  2  2     0.00000000E+00   # A_s(Q)^DRbar
  3  3    -3.73229194E+02   # A_b(Q)^DRbar
Block Ae Q=  2.44391182E+03  # (SUSY scale)
  1  1     0.00000000E+00   # A_e(Q)^DRbar
  2  2     0.00000000E+00   # A_mu(Q)^DRbar
  3  3     1.03927022E+03   # A_tau(Q)^DRbar
Block MSOFT Q=  2.44391182E+03  # soft SUSY breaking masses at Q
   1    2.16002947E+02  # M_1
   2   -7.53928169E+02  # M_2
   3    1.90350382E+03  # M_3
  21    5.71030784E+06  # M^2_(H,d)
  22    3.07660217E+04  # M^2_(H,u)
  31    1.00000000E+04  # M_(L,11)
  32    1.00000000E+04  # M_(L,22)
  33    1.00000000E+04  # M_(L,33)
  34    1.00000000E+04  # M_(E,11)
  35    1.00000000E+04  # M_(E,22)
  36    1.00000000E+04  # M_(E,33)
  41    1.00000000E+04  # M_(Q,11)
  42    1.00000000E+04  # M_(Q,22)
  43    3.00853233E+03  # M_(Q,33)
  44    1.00000000E+04  # M_(U,11)
  45    1.00000000E+04  # M_(U,22)
  46    2.04299407E+03  # M_(U,33)
  47    1.00000000E+04  # M_(D,11)
  48    1.00000000E+04  # M_(D,22)
  49    3.65918696E+03  # M_(D,33)
Block MASS  # Mass spectrum
#   PDG code      mass          particle
         6     1.73200000E+02  # m_t(pole)
        23     9.11876000E+01  # m_Z(pole)
        24     8.04299946E+01  # W+
        15     1.77700000E+00  # m_tau(pole)
        25     1.27381465E+02  # h0
        35     2.43450183E+03  # H0
        36     2.43499328E+03  # A0
        37     2.43692549E+03  # H+
   1000001     1.01139343E+04  # ~d_L
   2000001     1.00892065E+04  # ~d_R
   1000002     1.01135786E+04  # ~u_L
   2000002     1.00923470E+04  # ~u_R
   1000003     1.01139404E+04  # ~s_L
   2000003     1.00892162E+04  # ~s_R
   1000004     1.01135847E+04  # ~c_L
   2000004     1.00923492E+04  # ~c_R
   1000005     2.98006685E+03  # ~b_1
   2000005     3.69986909E+03  # ~b_2
   1000006     1.98613193E+03  # ~t_1
   2000006     3.00720455E+03  # ~t_2
   1000011     1.00209548E+04  # ~e_L-
   2000011     1.00088937E+04  # ~e_R-
   1000012     1.00201972E+04  # ~nu_eL
   1000013     1.00209797E+04  # ~mu_L-
   2000013     1.00089421E+04  # ~mu_R-
   1000014     1.00202220E+04  # ~nu_muL
   1000015     1.00225907E+04  # ~tau_1-
   2000015     1.00281191E+04  # ~tau_2-
   1000016     1.00272672E+04  # ~nu_tauL
   1000021     2.27300685E+03  # ~g
   1000022     2.01172594E+02  # ~chi_10
   1000023     2.43617103E+02  # ~chi_20
   1000025     2.68821103E+02  # ~chi_30
   1000035     8.25009703E+02  # ~chi_40
   1000024     2.43730386E+02  # ~chi_1+
   1000037     8.24900043E+02  # ~chi_2+
# Higgs mixing
Block alpha # Effective Higgs mixing angle
          -3.40437043E-02   # alpha
Block Hmix Q=  2.44391182E+03  # Higgs mixing parameters
   1   -2.42578426E+02  # mu
   2    2.85062361E+01  # tan[beta](Q)
   3    2.43425862E+02  # v(Q)
   4    5.92919227E+06  # m^2_A(Q)
Block stopmix # stop mixing matrix
   1  1     1.70479543E-01   # Re[R_st(1,1)]
   1  2     9.85361216E-01   # Re[R_st(1,2)]
   2  1    -9.85361216E-01   # Re[R_st(2,1)]
   2  2     1.70479543E-01   # Re[R_st(2,2)]
Block sbotmix # sbottom mixing matrix
   1  1    -9.99995629E-01   # Re[R_sb(1,1)]
   1  2     2.95654558E-03   # Re[R_sb(1,2)]
   2  1    -2.95654558E-03   # Re[R_sb(2,1)]
   2  2    -9.99995629E-01   # Re[R_sb(2,2)]
Block staumix # stau mixing matrix
   1  1    -1.30863367E-01   # Re[R_sta(1,1)]
   1  2     9.91400413E-01   # Re[R_sta(1,2)]
   2  1    -9.91400413E-01   # Re[R_sta(2,1)]
   2  2    -1.30863367E-01   # Re[R_sta(2,2)]
Block Nmix # neutralino mixing matrix
   1  1     8.38837383E-01   # Re[N(1,1)]
   1  2     2.60220314E-02   # Re[N(1,2)]
   1  3    -4.23470284E-01   # Re[N(1,3)]
   1  4    -3.41097666E-01   # Re[N(1,4)]
   2  1     6.98936409E-02   # Re[N(2,1)]
   2  2     1.01504044E-01   # Re[N(2,2)]
   2  3     7.06239885E-01   # Re[N(2,3)]
   2  4    -6.97163563E-01   # Re[N(2,4)]
   3  1     5.39855036E-01   # Re[N(3,1)]
   3  2    -4.46986254E-02   # Re[N(3,2)]
   3  3     5.66243442E-01   # Re[N(3,3)]
   3  4     6.21230181E-01   # Re[N(3,4)]
   4  1     4.82336338E-03   # Re[N(4,1)]
   4  2    -9.93489716E-01   # Re[N(4,2)]
   4  3     3.55880320E-02   # Re[N(4,3)]
   4  4    -1.08112956E-01   # Re[N(4,4)]
Block Umix # chargino mixing matrix
   1  1    -5.03638223E-02   # Re[U(1,1)]
   1  2    -9.98730937E-01   # Re[U(1,2)]
   2  1    -9.98730937E-01   # Re[U(2,1)]
   2  2     5.03638223E-02   # Re[U(2,2)]
Block Vmix # chargino mixing matrix
   1  1     1.53123210E-01   # Re[V(1,1)]
   1  2     9.88207105E-01   # Re[V(1,2)]
   2  1     9.88207105E-01   # Re[V(2,1)]
   2  2    -1.53123210E-01   # Re[V(2,2)]
DECAY        23     2.49520000E+00   # Z
DECAY        24     2.08500000E+00   # W
DECAY   2000011     5.02410063E+01   # ~e^-_R
#    BR                NDA      ID1      ID2
     7.03779854E-01    2     1000022        11   # BR(~e^-_R -> chi^0_1 e^-)
     4.88420706E-03    2     1000023        11   # BR(~e^-_R -> chi^0_2 e^-)
     2.91312939E-01    2     1000025        11   # BR(~e^-_R -> chi^0_3 e^-)
DECAY   1000011     1.43123768E+02   # ~e^-_L
#    BR                NDA      ID1      ID2
     6.92269331E-02    2     1000022        11   # BR(~e^-_L -> chi^0_1 e^-)
     5.93380507E-03    2     1000023        11   # BR(~e^-_L -> chi^0_2 e^-)
     1.82766812E-02    2     1000025        11   # BR(~e^-_L -> chi^0_3 e^-)
     2.98513665E-01    2     1000035        11   # BR(~e^-_L -> chi^0_4 e^-)
     1.56154278E-03    2    -1000024        12   # BR(~e^-_L -> chi^-_1 nu_e)
     6.06487373E-01    2    -1000037        12   # BR(~e^-_L -> chi^-_2 nu_e)
#    BR                NDA      ID1      ID2       ID3
DECAY   2000013     5.03608466E+01   # ~mu^-_R
#    BR                NDA      ID1      ID2
     7.02321548E-01    2     1000022        13   # BR(~mu^-_R -> chi^0_1 mu^-)
     5.46487049E-03    2     1000023        13   # BR(~mu^-_R -> chi^0_2 mu^-)
     2.91001751E-01    2     1000025        13   # BR(~mu^-_R -> chi^0_3 mu^-)
     1.18445254E-03    2    -1000024        14   # BR(~mu^-_R -> chi^-_1 nu_mu)
DECAY   1000013     1.43184003E+02   # ~mu^-_L
#    BR                NDA      ID1      ID2
     6.92729947E-02    2     1000022        13   # BR(~mu^-_L -> chi^0_1 mu^-)
     6.13988771E-03    2     1000023        13   # BR(~mu^-_L -> chi^0_2 mu^-)
     1.84030776E-02    2     1000025        13   # BR(~mu^-_L -> chi^0_3 mu^-)
     2.98389369E-01    2     1000035        13   # BR(~mu^-_L -> chi^0_4 mu^-)
     1.56088975E-03    2    -1000024        14   # BR(~mu^-_L -> chi^-_1 nu_mu)
     6.06233781E-01    2    -1000037        14   # BR(~mu^-_L -> chi^-_2 nu_mu)
#    BR                NDA      ID1      ID2       ID3
DECAY   1000015     8.54956647E+01   # ~tau^-_1
#    BR                NDA      ID1      ID2
     4.59400849E-01    2     1000022        15   # BR(~tau^-_1 -> chi^0_1 tau^-)
     1.05569984E-01    2     1000023        15   # BR(~tau^-_1 -> chi^0_2 tau^-)
     2.16882337E-01    2     1000025        15   # BR(~tau^-_1 -> chi^0_3 tau^-)
     5.91761605E-03    2     1000035        15   # BR(~tau^-_1 -> chi^0_4 tau^-)
     2.00176703E-01    2    -1000024        16   # BR(~tau^-_1 -> chi^-_1 nu_tau)
     1.20525105E-02    2    -1000037        16   # BR(~tau^-_1 -> chi^-_2 nu_tau)
DECAY   2000015     1.58865263E+02   # ~tau^-_2
#    BR                NDA      ID1      ID2
     7.63164568E-02    2     1000022        15   # BR(~tau^-_2 -> chi^0_1 tau^-)
     5.64711476E-02    2     1000023        15   # BR(~tau^-_2 -> chi^0_2 tau^-)
     6.03916243E-02    2     1000025        15   # BR(~tau^-_2 -> chi^0_3 tau^-)
     2.66219679E-01    2     1000035        15   # BR(~tau^-_2 -> chi^0_4 tau^-)
     5.40570951E-01    2    -1000037        16   # BR(~tau^-_2 -> chi^-_2 nu_tau)
#    BR                NDA      ID1      ID2       ID3
DECAY   1000012     1.43128486E+02   # ~nu_e
#    BR                NDA      ID1      ID2
     5.48578080E-02    2     1000022        12   # BR(~nu_e -> chi^0_1 nu_e)
     1.26719026E-03    2     1000023        12   # BR(~nu_e -> chi^0_2 nu_e)
     3.41411470E-02    2     1000025        12   # BR(~nu_e -> chi^0_3 nu_e)
     3.01593356E-01    2     1000035        12   # BR(~nu_e -> chi^0_4 nu_e)
     1.44328346E-02    2     1000024        11   # BR(~nu_e -> chi^+_1 e^-)
     5.93707664E-01    2     1000037        11   # BR(~nu_e -> chi^+_2 e^-)
#    BR                NDA      ID1      ID2       ID3
DECAY   1000014     1.43188715E+02   # ~nu_mu
#    BR                NDA      ID1      ID2
     5.48348693E-02    2     1000022        14   # BR(~nu_mu -> chi^0_1 nu_mu)
     1.26666039E-03    2     1000023        14   # BR(~nu_mu -> chi^0_2 nu_mu)
     3.41268710E-02    2     1000025        14   # BR(~nu_mu -> chi^0_3 nu_mu)
     3.01467264E-01    2     1000035        14   # BR(~nu_mu -> chi^0_4 nu_mu)
     1.48438413E-02    2     1000024        13   # BR(~nu_mu -> chi^+_1 mu^-)
     5.93460494E-01    2     1000037        13   # BR(~nu_mu -> chi^+_2 mu^-)
#    BR                NDA      ID1      ID2       ID3
DECAY   1000016     1.60177818E+02   # ~nu_tau
#    BR                NDA      ID1      ID2
     4.90533834E-02    2     1000022        16   # BR(~nu_tau -> chi^0_1 nu_tau)
     1.13311131E-03    2     1000023        16   # BR(~nu_tau -> chi^0_2 nu_tau)
     3.05287493E-02    2     1000025        16   # BR(~nu_tau -> chi^0_3 nu_tau)
     2.69687086E-01    2     1000035        16   # BR(~nu_tau -> chi^0_4 nu_tau)
     1.18434026E-01    2     1000024        15   # BR(~nu_tau -> chi^+_1 tau^-)
     5.31163645E-01    2     1000037        15   # BR(~nu_tau -> chi^+_2 tau^-)
#    BR                NDA      ID1      ID2       ID3
DECAY   2000001     7.23212003E+02   # ~d_R
#    BR                NDA      ID1      ID2
     5.47601254E-03    2     1000022         1   # BR(~d_R -> chi^0_1 d)
     2.26670375E-03    2     1000025         1   # BR(~d_R -> chi^0_3 d)
     9.92219006E-01    2     1000021         1   # BR(~d_R -> ~g d)
DECAY   1000001     8.52917218E+02   # ~d_L
#    BR                NDA      ID1      ID2
     7.93552188E-04    2     1000022         1   # BR(~d_L -> chi^0_1 d)
     4.13509117E-04    2     1000023         1   # BR(~d_L -> chi^0_2 d)
     1.03375077E-03    2     1000025         1   # BR(~d_L -> chi^0_3 d)
     5.09207658E-02    2     1000035         1   # BR(~d_L -> chi^0_4 d)
     2.64471712E-04    2    -1000024         2   # BR(~d_L -> chi^-_1 u)
     1.02741550E-01    2    -1000037         2   # BR(~d_L -> chi^-_2 u)
     8.43832400E-01    2     1000021         1   # BR(~d_L -> ~g d)
DECAY   2000003     7.23246182E+02   # ~s_R
#    BR                NDA      ID1      ID2
     5.47989377E-03    2     1000022         3   # BR(~s_R -> chi^0_1 s)
     2.27398620E-03    2     1000025         3   # BR(~s_R -> chi^0_3 s)
     9.92173273E-01    2     1000021         3   # BR(~s_R -> ~g s)
DECAY   1000003     8.52938185E+02   # ~s_L
#    BR                NDA      ID1      ID2
     7.97047670E-04    2     1000022         3   # BR(~s_L -> chi^0_1 s)
     4.23270617E-04    2     1000023         3   # BR(~s_L -> chi^0_2 s)
     1.04000555E-03    2     1000025         3   # BR(~s_L -> chi^0_3 s)
     5.09195699E-02    2     1000035         3   # BR(~s_L -> chi^0_4 s)
     2.68644423E-04    2    -1000024         4   # BR(~s_L -> chi^-_1 c)
     1.02739188E-01    2    -1000037         4   # BR(~s_L -> chi^-_2 c)
     8.43812274E-01    2     1000021         3   # BR(~s_L -> ~g s)
DECAY   1000005     2.36992059E+02   # ~b_1
#    BR                NDA      ID1      ID2
     1.09907476E-02    2     1000022         5   # BR(~b_1 -> chi^0_1 b)
     2.84114544E-02    2     1000023         5   # BR(~b_1 -> chi^0_2 b)
     1.89384665E-02    2     1000025         5   # BR(~b_1 -> chi^0_3 b)
     4.67043524E-02    2     1000035         5   # BR(~b_1 -> chi^0_4 b)
     2.46039405E-01    2    -1000024         6   # BR(~b_1 -> chi^-_1 t)
     9.99986413E-02    2    -1000037         6   # BR(~b_1 -> chi^-_2 t)
     1.73605765E-01    2     1000021         5   # BR(~b_1 -> ~g b)
     3.75311168E-01    2     1000006       -24   # BR(~b_1 -> ~t_1 W^-)
DECAY   2000005     1.48346079E+02   # ~b_2
#    BR                NDA      ID1      ID2
     2.97164183E-02    2     1000022         5   # BR(~b_2 -> chi^0_1 b)
     5.57601972E-02    2     1000023         5   # BR(~b_2 -> chi^0_2 b)
     3.98869979E-02    2     1000025         5   # BR(~b_2 -> chi^0_3 b)
     1.51082779E-04    2     1000035         5   # BR(~b_2 -> chi^0_4 b)
     1.10908500E-01    2    -1000024         6   # BR(~b_2 -> chi^-_1 t)
     3.00976935E-04    2    -1000037         6   # BR(~b_2 -> chi^-_2 t)
     7.63060966E-01    2     1000021         5   # BR(~b_2 -> ~g b)
DECAY   2000002     7.40371711E+02   # ~u_R
#    BR                NDA      ID1      ID2
     2.14030025E-02    2     1000022         2   # BR(~u_R -> chi^0_1 u)
     1.48536584E-04    2     1000023         2   # BR(~u_R -> chi^0_2 u)
     8.85935656E-03    2     1000025         2   # BR(~u_R -> chi^0_3 u)
     9.69588406E-01    2     1000021         2   # BR(~u_R -> ~g u)
DECAY   1000002     8.52906525E+02   # ~u_L
#    BR                NDA      ID1      ID2
     1.60437573E-03    2     1000022         2   # BR(~u_L -> chi^0_1 u)
     6.76913279E-04    2     1000023         2   # BR(~u_L -> chi^0_2 u)
     1.37884322E-04    2     1000025         2   # BR(~u_L -> chi^0_3 u)
     5.07437810E-02    2     1000035         2   # BR(~u_L -> chi^0_4 u)
     2.44468923E-03    2     1000024         1   # BR(~u_L -> chi^+_1 d)
     1.00585370E-01    2     1000037         1   # BR(~u_L -> chi^+_2 d)
     8.43806987E-01    2     1000021         2   # BR(~u_L -> ~g u)
DECAY   2000004     7.40379158E+02   # ~c_R
#    BR                NDA      ID1      ID2
     2.14033624E-02    2     1000022         4   # BR(~c_R -> chi^0_1 c)
     1.50926153E-04    2     1000023         4   # BR(~c_R -> chi^0_2 c)
     8.86116924E-03    2     1000025         4   # BR(~c_R -> chi^0_3 c)
     9.69578868E-01    2     1000021         4   # BR(~c_R -> ~g c)
DECAY   1000004     8.52927458E+02   # ~c_L
#    BR                NDA      ID1      ID2
     1.60483570E-03    2     1000022         4   # BR(~c_L -> chi^0_1 c)
     6.78977678E-04    2     1000023         4   # BR(~c_L -> chi^0_2 c)
     1.39532052E-04    2     1000025         4   # BR(~c_L -> chi^0_3 c)
     5.07426122E-02    2     1000035         4   # BR(~c_L -> chi^0_4 c)
     2.46417064E-03    2     1000024         3   # BR(~c_L -> chi^+_1 s)
     1.00583013E-01    2     1000037         3   # BR(~c_L -> chi^+_2 s)
     8.43786859E-01    2     1000021         4   # BR(~c_L -> ~g c)
DECAY   1000006     8.06415667E+01   # ~t_1
#    BR                NDA      ID1      ID2
     1.01839770E-01    2     1000022         6   # BR(~t_1 -> chi^0_1 t)
     2.28528796E-01    2     1000023         6   # BR(~t_1 -> chi^0_2 t)
     1.84611045E-01    2     1000025         6   # BR(~t_1 -> chi^0_3 t)
     1.14552874E-02    2     1000035         6   # BR(~t_1 -> chi^0_4 t)
     4.49987692E-01    2     1000024         5   # BR(~t_1 -> chi^+_1 b)
     2.35664275E-02    2     1000037         5   # BR(~t_1 -> chi^+_2 b)
#    BR                NDA      ID1      ID2       ID3
DECAY   2000006     2.58273075E+02   # ~t_2
#    BR                NDA      ID1      ID2
     2.41711413E-02    2     1000022         6   # BR(~t_2 -> chi^0_1 t)
     1.16148710E-01    2     1000023         6   # BR(~t_2 -> chi^0_2 t)
     9.78641017E-02    2     1000025         6   # BR(~t_2 -> chi^0_3 t)
     3.99296876E-02    2     1000035         6   # BR(~t_2 -> chi^0_4 t)
     6.70746761E-02    2     1000024         5   # BR(~t_2 -> chi^+_1 b)
     7.65753253E-02    2     1000037         5   # BR(~t_2 -> chi^+_2 b)
     1.51560159E-01    2     1000021         6   # BR(~t_2 -> ~g t)
     1.78901182E-01    2     1000006        23   # BR(~t_2 -> ~t_1 Z)
     2.47775017E-01    2     1000006        25   # BR(~t_2 -> ~t_1 h^0)
DECAY   1000024     5.44264058E-05   # chi^+_1
#    BR                NDA      ID1      ID2       ID3
     3.34079632E-01    3     1000022        -1         2   # BR(chi^+_1 -> chi^0_1 d_bar u)
     3.32775150E-01    3     1000022        -3         4   # BR(chi^+_1 -> chi^0_1 s_bar c)
     1.11358694E-01    3     1000022       -11        12   # BR(chi^+_1 -> chi^0_1 e^+ nu_e)
     1.11358135E-01    3     1000022       -13        14   # BR(chi^+_1 -> chi^0_1 mu^+ nu_mu)
     1.10428390E-01    3     1000022       -15        16   # BR(chi^+_1 -> chi^0_1 tau^+ nu_tau)
DECAY   1000037     7.30666823E+00   # chi^+_2
#    BR                NDA      ID1      ID2
     7.81730705E-02    2     1000022        24   # BR(chi^+_2 -> chi^0_1 W^+)
     2.58355499E-01    2     1000023        24   # BR(chi^+_2 -> chi^0_2 W^+)
     1.74016010E-01    2     1000025        24   # BR(chi^+_2 -> chi^0_3 W^+)
     2.48588559E-01    2     1000024        23   # BR(chi^+_2 -> chi^+_1 Z)
     2.33959687E-01    2     1000024        25   # BR(chi^+_2 -> chi^+_1 h^0)
#    BR                NDA      ID1      ID2       ID3
     1.58515422E-03    3     1000024         6        -6   # BR(chi^+_2 -> chi^+_1 t t_bar)
     9.08800749E-04    3     1000022        -5         6   # BR(chi^+_2 -> chi^0_1 b_bar t)
     2.59808051E-03    3     1000023        -5         6   # BR(chi^+_2 -> chi^0_2 b_bar t)
     1.81079350E-03    3     1000025        -5         6   # BR(chi^+_2 -> chi^0_3 b_bar t)
DECAY   1000022     0.00000000E+00   # chi^0_1
DECAY   1000023     1.31329857E-04   # chi^0_2
#    BR                NDA      ID1      ID2
     1.68955413E-02    2     1000022        22   # BR(chi^0_2 -> chi^0_1 photon)
#    BR                NDA      ID1      ID2       ID3
     1.18596154E-01    3     1000022         2        -2   # BR(chi^0_2 -> chi^0_1 u u_bar)
     1.17309001E-01    3     1000022         4        -4   # BR(chi^0_2 -> chi^0_1 c c_bar)
     1.52063141E-01    3     1000022         1        -1   # BR(chi^0_2 -> chi^0_1 d d_bar)
     1.52055217E-01    3     1000022         3        -3   # BR(chi^0_2 -> chi^0_1 s s_bar)
     1.37581085E-01    3     1000022         5        -5   # BR(chi^0_2 -> chi^0_1 b b_bar)
     3.43152908E-02    3     1000022        11       -11   # BR(chi^0_2 -> chi^0_1 e^- e^+)
     3.43124410E-02    3     1000022        13       -13   # BR(chi^0_2 -> chi^0_1 mu^- mu^+)
     3.35217111E-02    3     1000022        15       -15   # BR(chi^0_2 -> chi^0_1 tau^- tau^+)
     2.03350417E-01    3     1000022        12       -12   # BR(chi^0_2 -> chi^0_1 nu_e nu_bar_e)
DECAY   1000025     4.69508894E-05   # chi^0_3
#    BR                NDA      ID1      ID2
     2.36031015E-03    2     1000022        22   # BR(chi^0_3 -> chi^0_1 photon)
     3.45696352E-02    2     1000023        22   # BR(chi^0_3 -> chi^0_2 photon)
#    BR                NDA      ID1      ID2       ID3
     1.32268425E-02    3     1000022         2        -2   # BR(chi^0_3 -> chi^0_1 u u_bar)
     1.31814918E-02    3     1000022         4        -4   # BR(chi^0_3 -> chi^0_1 c c_bar)
     1.69511371E-02    3     1000022         1        -1   # BR(chi^0_3 -> chi^0_1 d d_bar)
     1.69508970E-02    3     1000022         3        -3   # BR(chi^0_3 -> chi^0_1 s s_bar)
     1.65574043E-02    3     1000022         5        -5   # BR(chi^0_3 -> chi^0_1 b b_bar)
     3.81877791E-03    3     1000022        11       -11   # BR(chi^0_3 -> chi^0_1 e^- e^+)
     3.81869110E-03    3     1000022        13       -13   # BR(chi^0_3 -> chi^0_1 mu^- mu^+)
     3.79426127E-03    3     1000022        15       -15   # BR(chi^0_3 -> chi^0_1 tau^- tau^+)
     2.26807259E-02    3     1000022        12       -12   # BR(chi^0_3 -> chi^0_1 nu_e nu_bar_e)
     5.77928493E-02    3     1000023         2        -2   # BR(chi^0_3 -> chi^0_2 u u_bar)
     5.59106602E-02    3     1000023         4        -4   # BR(chi^0_3 -> chi^0_2 c c_bar)
     7.41020554E-02    3     1000023         1        -1   # BR(chi^0_3 -> chi^0_2 d d_bar)
     7.40902109E-02    3     1000023         3        -3   # BR(chi^0_3 -> chi^0_2 s s_bar)
     5.42799431E-02    3     1000023         5        -5   # BR(chi^0_3 -> chi^0_2 b b_bar)
     1.67229487E-02    3     1000023        11       -11   # BR(chi^0_3 -> chi^0_2 e^- e^+)
     1.67187170E-02    3     1000023        13       -13   # BR(chi^0_3 -> chi^0_2 mu^- mu^+)
     1.55775230E-02    3     1000023        15       -15   # BR(chi^0_3 -> chi^0_2 tau^- tau^+)
     9.90962255E-02    3     1000023        12       -12   # BR(chi^0_3 -> chi^0_2 nu_e nu_bar_e)
     6.50757283E-02    3     1000024         1        -2   # BR(chi^0_3 -> chi^+_1 d u_bar)
     6.50757283E-02    3    -1000024        -1         2   # BR(chi^0_3 -> chi^-_1 d_bar u)
     6.42788259E-02    3     1000024         3        -4   # BR(chi^0_3 -> chi^+_1 s c_bar)
     6.42788259E-02    3    -1000024        -3         4   # BR(chi^0_3 -> chi^-_1 s_bar c)
     2.16920447E-02    3     1000024        11       -12   # BR(chi^0_3 -> chi^+_1 e^- nu_bar_e)
     2.16920447E-02    3    -1000024       -11        12   # BR(chi^0_3 -> chi^-_1 e^+ nu_e)
     2.16918757E-02    3     1000024        13       -14   # BR(chi^0_3 -> chi^+_1 mu^- nu_bar_mu)
     2.16918757E-02    3    -1000024       -13        14   # BR(chi^0_3 -> chi^-_1 mu^+ nu_mu)
     2.11608717E-02    3     1000024        15       -16   # BR(chi^0_3 -> chi^+_1 tau^- nu_bar_tau)
     2.11608717E-02    3    -1000024       -15        16   # BR(chi^0_3 -> chi^-_1 tau^+ nu_tau)
DECAY   1000035     8.30163986E+00   # chi^0_4
#    BR                NDA      ID1      ID2
     2.29505789E-01    2     1000024       -24   # BR(chi^0_4 -> chi^+_1 W^-)
     2.29505789E-01    2    -1000024        24   # BR(chi^0_4 -> chi^-_1 W^+)
     5.26662021E-02    2     1000022        23   # BR(chi^0_4 -> chi^0_1 Z)
     4.52739840E-02    2     1000023        23   # BR(chi^0_4 -> chi^0_2 Z)
     1.28874601E-01    2     1000025        23   # BR(chi^0_4 -> chi^0_3 Z)
     4.19675495E-02    2     1000022        25   # BR(chi^0_4 -> chi^0_1 h^0)
     1.61679593E-01    2     1000023        25   # BR(chi^0_4 -> chi^0_2 h^0)
     1.03818048E-01    2     1000025        25   # BR(chi^0_4 -> chi^0_3 h^0)
#    BR                NDA      ID1      ID2       ID3
     1.94137076E-04    3     1000022         6        -6   # BR(chi^0_4 -> chi^0_1 t t_bar)
     4.98604559E-04    3     1000023         6        -6   # BR(chi^0_4 -> chi^0_2 t t_bar)
     2.81829741E-04    3     1000025         6        -6   # BR(chi^0_4 -> chi^0_3 t t_bar)
     2.83928096E-03    3     1000024         5        -6   # BR(chi^0_4 -> chi^+_1 b t_bar)
     2.83928096E-03    3    -1000024        -5         6   # BR(chi^0_4 -> chi^-_1 b_bar t)
DECAY   1000021     2.50341942E+00   # ~g
#    BR                NDA      ID1      ID2
     6.96432641E-04    2     1000006        -4   # BR(~g -> ~t_1 c_bar)
     6.96432641E-04    2    -1000006         4   # BR(~g -> ~t^*_1 c)
     4.83712485E-01    2     1000006        -6   # BR(~g -> ~t_1 t_bar)
     4.83712485E-01    2    -1000006         6   # BR(~g -> ~t^*_1 t)
     7.38037481E-04    2     1000023        21   # BR(~g -> chi^0_2 g)
     9.33334360E-04    2     1000025        21   # BR(~g -> chi^0_3 g)
#    BR                NDA      ID1      ID2       ID3
     1.00655226E-03    3     1000022         6        -6   # BR(~g -> chi^0_1 t t_bar)
     7.42024686E-04    3     1000022         5        -5   # BR(~g -> chi^0_1 b b_bar)
     4.44429566E-03    3     1000023         6        -6   # BR(~g -> chi^0_2 t t_bar)
     1.76460485E-03    3     1000023         5        -5   # BR(~g -> chi^0_2 b b_bar)
     3.51964551E-03    3     1000025         6        -6   # BR(~g -> chi^0_3 t t_bar)
     1.16334313E-03    3     1000025         5        -5   # BR(~g -> chi^0_3 b b_bar)
     8.39626997E-04    3     1000035         6        -6   # BR(~g -> chi^0_4 t t_bar)
     1.18210828E-03    3     1000035         5        -5   # BR(~g -> chi^0_4 b b_bar)
     6.30932802E-03    3     1000024         5        -6   # BR(~g -> chi^+_1 b t_bar)
     6.30932802E-03    3    -1000024        -5         6   # BR(~g -> chi^-_1 b_bar t)
     1.04957935E-03    3     1000037         5        -6   # BR(~g -> chi^+_2 b t_bar)
     1.04957935E-03    3    -1000037        -5         6   # BR(~g -> chi^-_2 b_bar t)
DECAY        25     3.79328759E-03   # Gamma(h0)
     2.60695186E-03   2        22        22   # BR(h0 -> photon photon)
     1.88521766E-03   2        22        23   # BR(h0 -> photon Z)
     3.78561276E-02   2        23        23   # BR(h0 -> Z Z)
     2.98761715E-01   2       -24        24   # BR(h0 -> W W)
     7.79683299E-02   2        21        21   # BR(h0 -> gluon gluon)
     4.49550580E-09   2       -11        11   # BR(h0 -> Electron electron)
     1.99969286E-04   2       -13        13   # BR(h0 -> Muon muon)
     5.76610288E-02   2       -15        15   # BR(h0 -> Tau tau)
     1.26796964E-07   2        -2         2   # BR(h0 -> Up up)
     2.46107743E-02   2        -4         4   # BR(h0 -> Charm charm)
     5.18590221E-07   2        -1         1   # BR(h0 -> Down down)
     1.87561732E-04   2        -3         3   # BR(h0 -> Strange strange)
     4.98261674E-01   2        -5         5   # BR(h0 -> Bottom bottom)
DECAY        35     5.04123822E+01   # Gamma(HH)
     3.84529471E-08   2        22        22   # BR(HH -> photon photon)
     1.04322873E-07   2        22        23   # BR(HH -> photon Z)
     1.26820923E-06   2        23        23   # BR(HH -> Z Z)
     5.08641027E-07   2       -24        24   # BR(HH -> W W)
     5.12841210E-06   2        21        21   # BR(HH -> gluon gluon)
     5.62611535E-09   2       -11        11   # BR(HH -> Electron electron)
     2.50485199E-04   2       -13        13   # BR(HH -> Muon muon)
     7.23407581E-02   2       -15        15   # BR(HH -> Tau tau)
     1.19779215E-13   2        -2         2   # BR(HH -> Up up)
     2.32348365E-08   2        -4         4   # BR(HH -> Charm charm)
     1.82147842E-03   2        -6         6   # BR(HH -> Top top)
     4.26420733E-07   2        -1         1   # BR(HH -> Down down)
     1.54226887E-04   2        -3         3   # BR(HH -> Strange strange)
     3.96244930E-01   2        -5         5   # BR(HH -> Bottom bottom)
     1.01013073E-02   2  -1000024   1000024   # BR(HH -> Chargino1 chargino1)
     1.53115836E-01   2  -1000024   1000037   # BR(HH -> Chargino1 chargino2)
     1.53115836E-01   2  -1000037   1000024   # BR(HH -> Chargino2 chargino1)
     4.95057685E-04   2  -1000037   1000037   # BR(HH -> Chargino2 chargino2)
     1.26075680E-02   2   1000022   1000022   # BR(HH -> neutralino1 neutralino1)
     2.00861605E-02   2   1000022   1000023   # BR(HH -> neutralino1 neutralino2)
     2.05233387E-03   2   1000022   1000025   # BR(HH -> neutralino1 neutralino3)
     2.85071098E-02   2   1000022   1000035   # BR(HH -> neutralino1 neutralino4)
     9.90902699E-04   2   1000023   1000023   # BR(HH -> neutralino2 neutralino2)
     6.56477407E-03   2   1000023   1000025   # BR(HH -> neutralino2 neutralino3)
     6.69249762E-02   2   1000023   1000035   # BR(HH -> neutralino2 neutralino4)
     1.42822413E-02   2   1000025   1000025   # BR(HH -> neutralino3 neutralino3)
     6.00788675E-02   2   1000025   1000035   # BR(HH -> neutralino3 neutralino4)
     2.51816041E-04   2   1000035   1000035   # BR(HH -> neutralino4 neutralino4)
     5.83257219E-06   2        25        25   # BR(HH -> h0 h0)
DECAY        36     4.94059313E+01   # Gamma(A0)
     1.20853701E-07   2        22        22   # BR(A0 -> photon photon)
     1.83929469E-07   2        22        23   # BR(A0 -> photon Z)
     1.59410548E-05   2        21        21   # BR(A0 -> gluon gluon)
     5.49508275E-09   2       -11        11   # BR(A0 -> Electron electron)
     2.44650586E-04   2       -13        13   # BR(A0 -> Muon muon)
     7.06558744E-02   2       -15        15   # BR(A0 -> Tau tau)
     1.18235326E-13   2        -2         2   # BR(A0 -> Up up)
     2.29331354E-08   2        -4         4   # BR(A0 -> Charm charm)
     1.83669932E-03   2        -6         6   # BR(A0 -> Top top)
     4.16476473E-07   2        -1         1   # BR(A0 -> Down down)
     1.50630612E-04   2        -3         3   # BR(A0 -> Strange strange)
     3.87010752E-01   2        -5         5   # BR(A0 -> Bottom bottom)
     1.12346026E-02   2  -1000024   1000024   # BR(A0 -> Chargino1 chargino1)
     1.55442779E-01   2  -1000024   1000037   # BR(A0 -> Chargino1 chargino2)
     1.55442779E-01   2  -1000037   1000024   # BR(A0 -> Chargino2 chargino1)
     1.23992086E-03   2  -1000037   1000037   # BR(A0 -> Chargino2 chargino2)
     1.18421835E-02   2   1000022   1000022   # BR(A0 -> neutralino1 neutralino1)
     2.21572689E-02   2   1000022   1000023   # BR(A0 -> neutralino1 neutralino2)
     1.77107901E-03   2   1000022   1000025   # BR(A0 -> neutralino1 neutralino3)
     2.27333807E-02   2   1000022   1000035   # BR(A0 -> neutralino1 neutralino4)
     1.20192382E-03   2   1000023   1000023   # BR(A0 -> neutralino2 neutralino2)
     7.80654640E-03   2   1000023   1000025   # BR(A0 -> neutralino2 neutralino3)
     8.95068852E-02   2   1000023   1000035   # BR(A0 -> neutralino2 neutralino4)
     1.31786561E-02   2   1000025   1000025   # BR(A0 -> neutralino3 neutralino3)
     4.58975563E-02   2   1000025   1000035   # BR(A0 -> neutralino3 neutralino4)
     6.27277506E-04   2   1000035   1000035   # BR(A0 -> neutralino4 neutralino4)
     1.86283614E-06   2        23        25   # BR(A0 -> Z h0)
     1.82709135E-36   2        25        25   # BR(A0 -> h0 h0)
DECAY        37     5.37800359E+01   # Gamma(Hp)
     6.51419831E-09   2       -11        12   # BR(Hp -> Electron nu_e)
     2.78502323E-04   2       -13        14   # BR(Hp -> Muon nu_mu)
     7.87762653E-02   2       -15        16   # BR(Hp -> Tau nu_tau)
     4.29433584E-07   2        -1         2   # BR(Hp -> Down up)
     7.23065987E-06   2        -3         2   # BR(Hp -> Strange up)
     4.47865785E-06   2        -5         2   # BR(Hp -> Bottom up)
     2.12606301E-08   2        -1         4   # BR(Hp -> Down charm)
     1.54776176E-04   2        -3         4   # BR(Hp -> Strange charm)
     6.27172262E-04   2        -5         4   # BR(Hp -> Bottom charm)
     1.36742285E-07   2        -1         6   # BR(Hp -> Down top)
     3.20921571E-06   2        -3         6   # BR(Hp -> Strange top)
     4.24490775E-01   2        -5         6   # BR(Hp -> Bottom top)
     4.68978326E-02   2   1000022   1000024   # BR(Hp -> neutralino1 chargino1)
     4.74519263E-02   2   1000022   1000037   # BR(Hp -> neutralino1 chargino2)
     1.44843008E-03   2   1000023   1000024   # BR(Hp -> neutralino2 chargino1)
     1.49999993E-01   2   1000023   1000037   # BR(Hp -> neutralino2 chargino2)
     6.59241633E-03   2   1000024   1000025   # BR(Hp -> chargino1 neutralino3)
     9.79291502E-02   2   1000025   1000037   # BR(Hp -> neutralino3 chargino2)
     1.45335514E-01   2   1000024   1000035   # BR(Hp -> chargino1 neutralino4)
     1.77901855E-08   2   1000035   1000037   # BR(Hp -> neutralino4 chargino2)
     1.71705900E-06   2        24        25   # BR(Hp -> W h0)
     2.11589244E-12   2        24        35   # BR(Hp -> W HH)
     6.81485785E-13   2        24        36   # BR(Hp -> W A0)
DECAY         6     2.43000000E+00   # top
#    BR                NDA      ID1      ID2
     1.00000000E+00    2           5        24   # BR(t -> b W)
Block HiggsBoundsInputHiggsCouplingsFermions
# ScalarNormEffCoupSq PseudoSNormEffCoupSq NP IP1 IP2 IP2
    9.42583229E-01    0.00000000E+00        3  25   5   5  # h0-b-b eff. coupling^2, normalised to SM
    8.12662913E+02    0.00000000E+00        3  35   5   5  # H0-b-b eff. coupling^2, normalised to SM
    0.00000000E+00    8.12605497E+02        3  36   5   5  # A0-b-b eff. coupling^2, normalised to SM
#
    1.00007066E+00    0.00000000E+00        3  25   6   6  # h0-t-t eff. coupling^2, normalised to SM
    1.15995182E-03    0.00000000E+00        3  35   6   6  # H0-t-t eff. coupling^2, normalised to SM
    0.00000000E+00    1.23060945E-03        3  36   6   6  # A0-t-t eff. coupling^2, normalised to SM
#
    9.42583229E-01    0.00000000E+00        3  25  15  15  # h0-tau-tau eff. coupling^2, normalised to SM
    8.12662913E+02    0.00000000E+00        3  35  15  15  # H0-tau-tau eff. coupling^2, normalised to SM
    0.00000000E+00    8.12605497E+02        3  36  15  15  # A0-tau-tau eff. coupling^2, normalised to SM
#
Block HiggsBoundsInputHiggsCouplingsBosons
    9.99998956E-01        3  25  24  24  # h0-W-W eff. coupling^2, normalised to SM
    1.04440144E-06        3  35  24  24  # H0-W-W eff. coupling^2, normalised to SM
    0.00000000E+00        3  36  24  24  # A0-W-W eff. coupling^2, normalised to SM
#
    9.99998956E-01        3  25  23  23  # h0-Z-Z eff. coupling^2, normalised to SM
    1.04440144E-06        3  35  23  23  # H0-Z-Z eff. coupling^2, normalised to SM
    0.00000000E+00        3  36  23  23  # A0-Z-Z eff. coupling^2, normalised to SM
#
    1.24950734E+00        3  25  21  21  # h0-g-g eff. coupling^2, normalised to SM
    3.02349468E-03        3  35  21  21  # H0-g-g eff. coupling^2, normalised to SM
    1.06533776E-01        3  36  21  21  # A0-g-g eff. coupling^2, normalised to SM
#
    0.00000000E+00        3  25  25  23  # h0-h0-Z eff. coupling^2, normalised to SM
    0.00000000E+00        3  35  25  23  # H0-h0-Z eff. coupling^2, normalised to SM
    1.04440144E-06        3  36  25  23  # A0-h0-Z eff. coupling^2, normalised to SM
    0.00000000E+00        3  35  35  23  # H0-H0-Z eff. coupling^2, normalised to SM
    9.99998956E-01        3  36  35  23  # A0-H0-Z eff. coupling^2, normalised to SM
    0.00000000E+00        3  36  36  23  # A0-A0-Z eff. coupling^2, normalised to SM
#
    0.00000000E+00        4  25  21  21  23  # h0-g-g-Z eff. coupling^2, normalised to SM
    0.00000000E+00        4  35  21  21  23  # H0-g-g-Z eff. coupling^2, normalised to SM
    0.00000000E+00        4  36  21  21  23  # A0-g-g-Z eff. coupling^2, normalised to SM
Block SPhenoLowEnergy  # low energy observables
    1    3.75994486E-04   # BR(b -> s gamma)
    2    1.58843292E-06   # BR(b -> s mu+ mu-)
    3    3.52718010E-05   # BR(b -> s nu nu)
    4    1.38810864E-15   # BR(Bd -> e+ e-)
    5    5.92978313E-11   # BR(Bd -> mu+ mu-)
    6    1.23787954E-08   # BR(Bd -> tau+ tau-)
    7    4.67052132E-14   # BR(Bs -> e+ e-)
    8    1.99522584E-09   # BR(Bs -> mu+ mu-)
    9    4.22060499E-07   # BR(Bs -> tau+ tau-)
   10    9.58875647E-05   # BR(B_u -> tau nu)
   11    9.90481834E-01   # BR(B_u -> tau nu)/BR(B_u -> tau nu)_SM
   12    5.42935161E-01   # |Delta(M_Bd)| [ps^-1] 
   13    1.93934742E+01   # |Delta(M_Bs)| [ps^-1] 
   14    0.00000000E+00   # neutron EDM according to the chiral quark model
   15    0.00000000E+00   # neutron EDM according to the relativistic quark-parton model
   16    2.16187067E-03   # epsilon_K
   17    2.28170527E-15   # Delta(M_K)
   18    2.48313917E-11   # BR(K^0 -> pi^0 nu nu)
   19    8.29749315E-11   # BR(K^+ -> pi^+ nu nu)
   20    2.59831725E-16   # Delta(g-2)_electron/2
   21    1.11086594E-11   # Delta(g-2)_muon/2
   22    3.14543730E-09   # Delta(g-2)_tau/2
   23    0.00000000E+00   # electric dipole moment of the electron
   24    0.00000000E+00   # electric dipole moment of the muon
   25    0.00000000E+00   # electric dipole moment of the tau
   26    0.00000000E+00   # Br(mu -> e gamma)
   27    0.00000000E+00   # Br(tau -> e gamma)
   28    0.00000000E+00   # Br(tau -> mu gamma)
   29    0.00000000E+00   # Br(mu -> 3 e)
   30    0.00000000E+00   # Br(tau -> 3 e)
   31    0.00000000E+00   # Br(tau -> 3 mu)
   39    1.34551938E-04   # Delta(rho_parameter)
   40    0.00000000E+00   # BR(Z -> e mu)
   41    0.00000000E+00   # BR(Z -> e tau)
   42    0.00000000E+00   # BR(Z -> mu tau)
Block FWCOEF Q=  1.60000000E+02  # Wilson coefficients at scale Q
#    id        order  M        value         comment
     0305 4422   00   0    -1.88819110E-01   # C7
     0305 4422   00   2    -2.49391798E-01   # C7
     0305 4322   00   2    -3.62410199E-04   # C7'
     0305 6421   00   0    -9.52278348E-02   # C8
     0305 6421   00   2    -1.39805254E-01   # C8
     0305 6321   00   2    -3.14193140E-04   # C8'
 03051111 4133   00   0     1.60932388E+00   # C9 e+e-
 03051111 4133   00   2     1.61004023E+00   # C9 e+e-
 03051111 4233   00   2     2.04687200E-04   # C9' e+e-
 03051111 4137   00   0    -4.43201598E+00   # C10 e+e-
 03051111 4137   00   2    -4.43229160E+00   # C10 e+e-
 03051111 4237   00   2    -1.55295883E-03   # C10' e+e-
 03051313 4133   00   0     1.60932388E+00   # C9 mu+mu-
 03051313 4133   00   2     1.61004006E+00   # C9 mu+mu-
 03051313 4233   00   2     2.04686982E-04   # C9' mu+mu-
 03051313 4137   00   0    -4.43201598E+00   # C10 mu+mu-
 03051313 4137   00   2    -4.43229178E+00   # C10 mu+mu-
 03051313 4237   00   2    -1.55295875E-03   # C10' mu+mu-
 03051212 4137   00   0     1.50535012E+00   # C11 nu_1 nu_1
 03051212 4137   00   2     1.50541176E+00   # C11 nu_1 nu_1
 03051212 4237   00   2     3.37123147E-04   # C11' nu_1 nu_1
 03051414 4137   00   0     1.50535012E+00   # C11 nu_2 nu_2
 03051414 4137   00   2     1.50541176E+00   # C11 nu_2 nu_2
 03051414 4237   00   2     3.37123187E-04   # C11' nu_2 nu_2
 03051616 4137   00   0     1.50535012E+00   # C11 nu_3 nu_3
 03051616 4137   00   2     1.50541176E+00   # C11 nu_3 nu_3
 03051616 4237   00   2     3.37134457E-04   # C11' nu_3 nu_3
Block IMFWCOEF Q=  1.60000000E+02  # Im(Wilson coefficients) at scale Q
#    id        order  M        value         comment
     0305 4422   00   0     3.85799105E-07   # C7
     0305 4422   00   2     7.69643351E-06   # C7
     0305 4322   00   2    -3.26770423E-06   # C7'
     0305 6421   00   0     3.30462448E-07   # C8
     0305 6421   00   2     2.22701014E-05   # C8
     0305 6321   00   2    -1.52309843E-06   # C8'
 03051111 4133   00   2    -2.08406104E-06   # C9 e+e-
 03051111 4233   00   2     4.19007035E-06   # C9' e+e-
 03051111 4137   00   2     2.22796574E-05   # C10 e+e-
 03051111 4237   00   2    -3.17943683E-05   # C10' e+e-
 03051313 4133   00   2    -2.08406258E-06   # C9 mu+mu-
 03051313 4233   00   2     4.19006974E-06   # C9' mu+mu-
 03051313 4137   00   2     2.22796599E-05   # C10 mu+mu-
 03051313 4237   00   2    -3.17943702E-05   # C10' mu+mu-
 03051212 4137   00   2    -4.80379397E-06   # C11 nu_1 nu_1
 03051212 4237   00   2     6.90206355E-06   # C11' nu_1 nu_1
 03051414 4137   00   2    -4.80379388E-06   # C11 nu_2 nu_2
 03051414 4237   00   2     6.90206355E-06   # C11' nu_2 nu_2
 03051616 4137   00   2    -4.80376640E-06   # C11 nu_3 nu_3
 03051616 4237   00   2     6.90206354E-06   # C11' nu_3 nu_3
