# SUSY Les Houches Accord 2 - MSSM spectrum + Decays
# SPheno v4.0.5be
# W. Porod, Comput. Phys. Commun. 153 (2003) 275-315, hep-ph/0301101;
# W. Porod, F.~Staub, Comput. Phys. Commun. 183 (2012) 2458
#                     arXiv:1104.1573 [hep-ph] 
# in case of problems send email to porod@physik.uni-wuerzburg.de
# Created: 12.05.2022,  16:17
Block SPINFO         # Program information
     1   SPheno      # spectrum calculator
     2   v4.0.5be    # version number
#
Block SPhenoINFO     # SPheno specific information
    1      2         # using 2-loop RGEs
    2      2         # using pole masses for boundary conditions at mZ
Block MODSEL  # Model selection
    1    0    # general MSSM
Block MINPAR  # Input parameters
    3    2.80709481E+01  # tanb at m_Z    
    4    1.00000000E+00  # Sign(mu)
Block EXTPAR  # non-universal input parameters
    0    3.95317379E+03  # scale for input parameters
    1   -1.27945067E+03  # M_1
    2    7.62227484E+02  # M_2
    3    3.85655161E+03  # M_3
   11   -3.72285865E+03  # A_t
   12   -1.05385675E+03  # A_b
   13   -1.92568160E+03  # A_tau
   23    2.95515830E+02  # mu
   25    2.69921747E+01  # tan(beta)
   26    7.81192414E+02  # m_A, pole mass
   31    1.00000000E+04  # M_L11
   32    1.00000000E+04  # M_L22
   33    1.00000000E+04  # M_L33
   34    1.00000000E+04  # M_E11
   35    1.00000000E+04  # M_E22
   36    1.00000000E+04  # M_E33
   41    1.00000000E+04  # M_Q11
   42    1.00000000E+04  # M_Q22
   43    4.07513042E+03  # M_Q33
   44    1.00000000E+04  # M_U11
   45    1.00000000E+04  # M_U22
   46    3.67655472E+03  # M_U33
   47    1.00000000E+04  # M_D11
   48    1.00000000E+04  # M_D22
   49    4.53292399E+03  # M_D33
Block SMINPUTS  # SM parameters
         1     1.27908970E+02  # alpha_em^-1(MZ)^MSbar
         2     1.16637870E-05  # G_mu [GeV^-2]
         3     1.18400000E-01  # alpha_s(MZ)^MSbar
         4     9.11876000E+01  # m_Z(pole)
         5     4.18000000E+00  # m_b(m_b), MSbar
         6     1.73200000E+02  # m_t(pole)
         7     1.77700000E+00  # m_tau(pole)
         8     0.00000000E+00  # m_nu_3
        11     5.10998930E-04  # m_e(pole)
        12     0.00000000E+00  # m_nu_1
        13     1.05658372E-01  # m_muon(pole)
        14     0.00000000E+00  # m_nu_2
        21     5.00000000E-03  # m_d(2 GeV), MSbar
        22     2.50000000E-03  # m_u(2 GeV), MSbar
        23     9.50000000E-02  # m_s(2 GeV), MSbar
        24     1.27000000E+00  # m_c(m_c), MSbar
Block gauge Q=  3.95317379E+03  # (SUSY scale)
   1    3.55362975E-01  # g'(Q)^DRbar
   2    6.65198874E-01  # g(Q)^DRbar
   3    1.21977796E+00  # g3(Q)^DRbar
Block Yu Q=  3.95317379E+03  # (SUSY scale)
  1  1     8.39012409E-06   # Y_u(Q)^DRbar
  2  2     4.26218304E-03   # Y_c(Q)^DRbar
  3  3     1.01359438E+00   # Y_t(Q)^DRbar
Block Yd Q=  3.95317379E+03  # (SUSY scale)
  1  1     4.55078699E-04   # Y_d(Q)^DRbar
  2  2     8.64649528E-03   # Y_s(Q)^DRbar
  3  3     4.51295468E-01   # Y_b(Q)^DRbar
Block Ye Q=  3.95317379E+03  # (SUSY scale)
  1  1     7.94145608E-05   # Y_e(Q)^DRbar
  2  2     1.64204125E-02   # Y_mu(Q)^DRbar
  3  3     2.76164325E-01   # Y_tau(Q)^DRbar
Block Au Q=  3.95317379E+03  # (SUSY scale)
  1  1     0.00000000E+00   # A_u(Q)^DRbar
  2  2     0.00000000E+00   # A_c(Q)^DRbar
  3  3    -3.72286093E+03   # A_t(Q)^DRbar
Block Ad Q=  3.95317379E+03  # (SUSY scale)
  1  1     0.00000000E+00   # A_d(Q)^DRbar
  2  2     0.00000000E+00   # A_s(Q)^DRbar
  3  3    -1.05385637E+03   # A_b(Q)^DRbar
Block Ae Q=  3.95317379E+03  # (SUSY scale)
  1  1     0.00000000E+00   # A_e(Q)^DRbar
  2  2     0.00000000E+00   # A_mu(Q)^DRbar
  3  3    -1.92568124E+03   # A_tau(Q)^DRbar
Block MSOFT Q=  3.95317379E+03  # soft SUSY breaking masses at Q
   1   -1.27945067E+03  # M_1
   2    7.62227484E+02  # M_2
   3    3.85655161E+03  # M_3
  21    4.82661903E+05  # M^2_(H,d)
  22    2.53790109E+05  # M^2_(H,u)
  31    1.00000000E+04  # M_(L,11)
  32    1.00000000E+04  # M_(L,22)
  33    1.00000000E+04  # M_(L,33)
  34    1.00000000E+04  # M_(E,11)
  35    1.00000000E+04  # M_(E,22)
  36    1.00000000E+04  # M_(E,33)
  41    1.00000000E+04  # M_(Q,11)
  42    1.00000000E+04  # M_(Q,22)
  43    4.07513042E+03  # M_(Q,33)
  44    1.00000000E+04  # M_(U,11)
  45    1.00000000E+04  # M_(U,22)
  46    3.67655472E+03  # M_(U,33)
  47    1.00000000E+04  # M_(D,11)
  48    1.00000000E+04  # M_(D,22)
  49    4.53292399E+03  # M_(D,33)
Block MASS  # Mass spectrum
#   PDG code      mass          particle
         6     1.73200000E+02  # m_t(pole)
        23     9.11876000E+01  # m_Z(pole)
        24     8.04299946E+01  # W+
        15     1.77700000E+00  # m_tau(pole)
        25     1.24693386E+02  # h0
        35     7.81249811E+02  # H0
        36     7.81192414E+02  # A0
        37     7.90451831E+02  # H+
   1000001     1.01032853E+04  # ~d_L
   2000001     1.00786115E+04  # ~d_R
   1000002     1.01029204E+04  # ~u_L
   2000002     1.00817839E+04  # ~u_R
   1000003     1.01032869E+04  # ~s_L
   2000003     1.00786139E+04  # ~s_R
   1000004     1.01029220E+04  # ~c_L
   2000004     1.00817845E+04  # ~c_R
   1000005     4.16928248E+03  # ~b_1
   2000005     4.63660183E+03  # ~b_2
   1000006     3.73765578E+03  # ~t_1
   2000006     4.18111885E+03  # ~t_2
   1000011     1.00212401E+04  # ~e_L-
   2000011     1.00085741E+04  # ~e_R-
   1000012     1.00204723E+04  # ~nu_eL
   1000013     1.00212469E+04  # ~mu_L-
   2000013     1.00085869E+04  # ~mu_R-
   1000014     1.00204789E+04  # ~nu_muL
   1000015     1.00122093E+04  # ~tau_1-
   2000015     1.00232108E+04  # ~tau_2-
   1000016     1.00223731E+04  # ~nu_tauL
   1000021     4.35020923E+03  # ~g
   1000022     3.05175493E+02  # ~chi_10
   1000023     3.12805270E+02  # ~chi_20
   1000025     8.31365501E+02  # ~chi_30
   1000035     1.28799091E+03  # ~chi_40
   1000024     3.07300597E+02  # ~chi_1+
   1000037     8.31417577E+02  # ~chi_2+
# Higgs mixing
Block alpha # Effective Higgs mixing angle
          -3.70471656E-02   # alpha
Block Hmix Q=  3.95317379E+03  # Higgs mixing parameters
   1    2.95515830E+02  # mu
   2    2.69921747E+01  # tan[beta](Q)
   3    2.42960080E+02  # v(Q)
   4    6.10261588E+05  # m^2_A(Q)
Block stopmix # stop mixing matrix
   1  1     1.56391742E-01   # Re[R_st(1,1)]
   1  2     9.87695106E-01   # Re[R_st(1,2)]
   2  1    -9.87695106E-01   # Re[R_st(2,1)]
   2  2     1.56391742E-01   # Re[R_st(2,2)]
Block sbotmix # sbottom mixing matrix
   1  1     9.99989436E-01   # Re[R_sb(1,1)]
   1  2     4.59643616E-03   # Re[R_sb(1,2)]
   2  1    -4.59643616E-03   # Re[R_sb(2,1)]
   2  2     9.99989436E-01   # Re[R_sb(2,2)]
Block staumix # stau mixing matrix
   1  1     8.04681487E-02   # Re[R_sta(1,1)]
   1  2     9.96757181E-01   # Re[R_sta(1,2)]
   2  1    -9.96757181E-01   # Re[R_sta(2,1)]
   2  2     8.04681487E-02   # Re[R_sta(2,2)]
Block Nmix # neutralino mixing matrix
   1  1    -2.01084297E-02   # Re[N(1,1)]
   1  2    -1.11772264E-01   # Re[N(1,2)]
   1  3     7.08815592E-01   # Re[N(1,3)]
   1  4    -6.96191834E-01   # Re[N(1,4)]
   2  1     3.10211066E-02   # Re[N(2,1)]
   2  2     4.84188650E-02   # Re[N(2,2)]
   2  3     7.03886884E-01   # Re[N(2,3)]
   2  4     7.07980620E-01   # Re[N(2,4)]
   3  1     2.40952621E-03   # Re[N(3,1)]
   3  2    -9.92552632E-01   # Re[N(3,2)]
   3  3    -4.54730118E-02   # Re[N(3,3)]
   3  4     1.12985271E-01   # Re[N(3,4)]
   4  1     9.99313532E-01   # Re[N(4,1)]
   4  2    -1.35892276E-03   # Re[N(4,2)]
   4  3    -7.47774641E-03   # Re[N(4,3)]
   4  4    -3.62587983E-02   # Re[N(4,4)]
Block Umix # chargino mixing matrix
   1  1    -6.45420113E-02   # Re[U(1,1)]
   1  2     9.97914991E-01   # Re[U(1,2)]
   2  1     9.97914991E-01   # Re[U(2,1)]
   2  2     6.45420113E-02   # Re[U(2,2)]
Block Vmix # chargino mixing matrix
   1  1    -1.60440980E-01   # Re[V(1,1)]
   1  2     9.87045436E-01   # Re[V(1,2)]
   2  1     9.87045436E-01   # Re[V(2,1)]
   2  2     1.60440980E-01   # Re[V(2,2)]
DECAY        23     2.49520000E+00   # Z
DECAY        24     2.08500000E+00   # W
DECAY   2000011     4.86396888E+01   # ~e^-_R
#    BR                NDA      ID1      ID2
     4.17299419E-04    2     1000022        11   # BR(~e^-_R -> chi^0_1 e^-)
     9.93018235E-04    2     1000023        11   # BR(~e^-_R -> chi^0_2 e^-)
     9.98583736E-01    2     1000035        11   # BR(~e^-_R -> chi^0_4 e^-)
DECAY   1000011     1.42702639E+02   # ~e^-_L
#    BR                NDA      ID1      ID2
     4.63087292E-03    2     1000022        11   # BR(~e^-_L -> chi^0_1 e^-)
     1.30302741E-03    2     1000023        11   # BR(~e^-_L -> chi^0_2 e^-)
     2.99553135E-01    2     1000025        11   # BR(~e^-_L -> chi^0_3 e^-)
     8.47726344E-02    2     1000035        11   # BR(~e^-_L -> chi^0_4 e^-)
     2.57033930E-03    2    -1000024        12   # BR(~e^-_L -> chi^-_1 nu_e)
     6.07169990E-01    2    -1000037        12   # BR(~e^-_L -> chi^-_2 nu_e)
#    BR                NDA      ID1      ID2       ID3
DECAY   2000013     4.87469196E+01   # ~mu^-_R
#    BR                NDA      ID1      ID2
     9.68679129E-04    2     1000022        13   # BR(~mu^-_R -> chi^0_1 mu^-)
     1.53542532E-03    2     1000023        13   # BR(~mu^-_R -> chi^0_2 mu^-)
     9.96388526E-01    2     1000035        13   # BR(~mu^-_R -> chi^0_4 mu^-)
     1.09469146E-03    2    -1000024        14   # BR(~mu^-_R -> chi^-_1 nu_mu)
DECAY   1000013     1.42756390E+02   # ~mu^-_L
#    BR                NDA      ID1      ID2
     4.81796299E-03    2     1000022        13   # BR(~mu^-_L -> chi^0_1 mu^-)
     1.48873563E-03    2     1000023        13   # BR(~mu^-_L -> chi^0_2 mu^-)
     2.99441327E-01    2     1000025        13   # BR(~mu^-_L -> chi^0_3 mu^-)
     8.47407975E-02    2     1000035        13   # BR(~mu^-_L -> chi^0_4 mu^-)
     2.56937327E-03    2    -1000024        14   # BR(~mu^-_L -> chi^-_1 nu_mu)
     6.06941804E-01    2    -1000037        14   # BR(~mu^-_L -> chi^-_2 nu_mu)
#    BR                NDA      ID1      ID2       ID3
DECAY   1000015     7.94997938E+01   # ~tau^-_1
#    BR                NDA      ID1      ID2
     9.98663562E-02    2     1000022        15   # BR(~tau^-_1 -> chi^0_1 tau^-)
     9.39407639E-02    2     1000023        15   # BR(~tau^-_1 -> chi^0_2 tau^-)
     1.54471317E-03    2     1000025        15   # BR(~tau^-_1 -> chi^0_3 tau^-)
     6.08029439E-01    2     1000035        15   # BR(~tau^-_1 -> chi^0_4 tau^-)
     1.93478319E-01    2    -1000024        16   # BR(~tau^-_1 -> chi^-_1 nu_tau)
     3.14040893E-03    2    -1000037        16   # BR(~tau^-_1 -> chi^-_2 nu_tau)
DECAY   2000015     1.57392449E+02   # ~tau^-_2
#    BR                NDA      ID1      ID2
     5.07420628E-02    2     1000022        15   # BR(~tau^-_2 -> chi^0_1 tau^-)
     4.95470301E-02    2     1000023        15   # BR(~tau^-_2 -> chi^0_2 tau^-)
     2.71265269E-01    2     1000025        15   # BR(~tau^-_2 -> chi^0_3 tau^-)
     7.84864829E-02    2     1000035        15   # BR(~tau^-_2 -> chi^0_4 tau^-)
     5.37560400E-04    2    -1000024        16   # BR(~tau^-_2 -> chi^-_1 nu_tau)
     5.49421595E-01    2    -1000037        16   # BR(~tau^-_2 -> chi^-_2 nu_tau)
#    BR                NDA      ID1      ID2       ID3
DECAY   1000012     1.42707287E+02   # ~nu_e
#    BR                NDA      ID1      ID2
     3.14875785E-03    2     1000022        12   # BR(~nu_e -> chi^0_1 nu_e)
     3.12844546E-04    2     1000023        12   # BR(~nu_e -> chi^0_2 nu_e)
     3.01077593E-01    2     1000025        12   # BR(~nu_e -> chi^0_3 nu_e)
     8.56304080E-02    2     1000035        12   # BR(~nu_e -> chi^0_4 nu_e)
     1.58813996E-02    2     1000024        11   # BR(~nu_e -> chi^+_1 e^-)
     5.93948997E-01    2     1000037        11   # BR(~nu_e -> chi^+_2 e^-)
#    BR                NDA      ID1      ID2       ID3
DECAY   1000014     1.42761029E+02   # ~nu_mu
#    BR                NDA      ID1      ID2
     3.14757457E-03    2     1000022        14   # BR(~nu_mu -> chi^0_1 nu_mu)
     3.12726981E-04    2     1000023        14   # BR(~nu_mu -> chi^0_2 nu_mu)
     3.00964455E-01    2     1000025        14   # BR(~nu_mu -> chi^0_3 nu_mu)
     8.55982322E-02    2     1000035        14   # BR(~nu_mu -> chi^0_4 nu_mu)
     1.62496567E-02    2     1000024        13   # BR(~nu_mu -> chi^+_1 mu^-)
     5.93727354E-01    2     1000037        13   # BR(~nu_mu -> chi^+_2 mu^-)
#    BR                NDA      ID1      ID2       ID3
DECAY   1000016     1.57912590E+02   # ~nu_tau
#    BR                NDA      ID1      ID2
     2.84610774E-03    2     1000022        16   # BR(~nu_tau -> chi^0_1 nu_tau)
     2.82774782E-04    2     1000023        16   # BR(~nu_tau -> chi^0_2 nu_tau)
     2.72140066E-01    2     1000025        16   # BR(~nu_tau -> chi^0_3 nu_tau)
     7.74007759E-02    2     1000035        16   # BR(~nu_tau -> chi^0_4 nu_tau)
     1.10071135E-01    2     1000024        15   # BR(~nu_tau -> chi^+_1 tau^-)
     5.37259140E-01    2     1000037        15   # BR(~nu_tau -> chi^+_2 tau^-)
#    BR                NDA      ID1      ID2       ID3
DECAY   2000001     5.32173592E+02   # ~d_R
#    BR                NDA      ID1      ID2
     1.02166966E-02    2     1000035         1   # BR(~d_R -> chi^0_4 d)
     9.89768664E-01    2     1000021         1   # BR(~d_R -> ~g d)
DECAY   1000001     6.62183025E+02   # ~d_L
#    BR                NDA      ID1      ID2
     7.84690681E-04    2     1000022         1   # BR(~d_L -> chi^0_1 d)
     1.23359905E-04    2     1000023         1   # BR(~d_L -> chi^0_2 d)
     6.53234223E-02    2     1000025         1   # BR(~d_L -> chi^0_3 d)
     2.08961276E-03    2     1000035         1   # BR(~d_L -> chi^0_4 d)
     5.58468661E-04    2    -1000024         2   # BR(~d_L -> chi^-_1 u)
     1.31947991E-01    2    -1000037         2   # BR(~d_L -> chi^-_2 u)
     7.99172455E-01    2     1000021         1   # BR(~d_L -> ~g d)
DECAY   2000003     5.32203674E+02   # ~s_R
#    BR                NDA      ID1      ID2
     1.02161233E-02    2     1000035         3   # BR(~s_R -> chi^0_4 s)
     9.89713170E-01    2     1000021         3   # BR(~s_R -> ~g s)
DECAY   1000003     6.62201807E+02   # ~s_L
#    BR                NDA      ID1      ID2
     7.96017137E-04    2     1000022         3   # BR(~s_L -> chi^0_1 s)
     1.34547061E-04    2     1000023         3   # BR(~s_L -> chi^0_2 s)
     6.53216267E-02    2     1000025         3   # BR(~s_L -> chi^0_3 s)
     2.08955509E-03    2     1000035         3   # BR(~s_L -> chi^0_4 s)
     5.63814064E-04    2    -1000024         4   # BR(~s_L -> chi^-_1 c)
     1.31944411E-01    2    -1000037         4   # BR(~s_L -> chi^-_2 c)
     7.99150029E-01    2     1000021         3   # BR(~s_L -> ~g s)
DECAY   1000005     1.60587699E+02   # ~b_1
#    BR                NDA      ID1      ID2
     5.36799344E-02    2     1000022         5   # BR(~b_1 -> chi^0_1 b)
     5.17215809E-02    2     1000023         5   # BR(~b_1 -> chi^0_2 b)
     1.04054677E-01    2     1000025         5   # BR(~b_1 -> chi^0_3 b)
     3.00819593E-03    2     1000035         5   # BR(~b_1 -> chi^0_4 b)
     5.10339422E-01    2    -1000024         6   # BR(~b_1 -> chi^-_1 t)
     2.23301043E-01    2    -1000037         6   # BR(~b_1 -> chi^-_2 t)
     5.38951468E-02    2     1000006       -24   # BR(~b_1 -> ~t_1 W^-)
DECAY   2000005     4.46598305E+01   # ~b_2
#    BR                NDA      ID1      ID2
     2.09259971E-01    2     1000022         5   # BR(~b_2 -> chi^0_1 b)
     2.06671496E-01    2     1000023         5   # BR(~b_2 -> chi^0_2 b)
     9.94684117E-04    2     1000025         5   # BR(~b_2 -> chi^0_3 b)
     4.93282897E-02    2     1000035         5   # BR(~b_2 -> chi^0_4 b)
     4.13782558E-01    2    -1000024         6   # BR(~b_2 -> chi^-_1 t)
     1.99972556E-03    2    -1000037         6   # BR(~b_2 -> chi^-_2 t)
     1.17426969E-01    2     1000021         5   # BR(~b_2 -> ~g b)
     1.94596055E-04    2     2000006       -24   # BR(~b_2 -> ~t_2 W^-)
     1.06134317E-04    2     1000005        23   # BR(~b_2 -> ~b_1 Z)
     2.02148470E-04    2     1000005        25   # BR(~b_2 -> ~b_1 h^0)
DECAY   2000002     5.48832735E+02   # ~u_R
#    BR                NDA      ID1      ID2
     3.96396267E-02    2     1000035         2   # BR(~u_R -> chi^0_4 u)
     9.60304181E-01    2     1000021         2   # BR(~u_R -> ~g u)
DECAY   1000002     6.62166120E+02   # ~u_L
#    BR                NDA      ID1      ID2
     8.91966114E-04    2     1000022         2   # BR(~u_L -> chi^0_1 u)
     1.95037776E-04    2     1000023         2   # BR(~u_L -> chi^0_2 u)
     6.52098099E-02    2     1000025         2   # BR(~u_L -> chi^0_3 u)
     2.02672108E-03    2     1000035         2   # BR(~u_L -> chi^0_4 u)
     3.45102112E-03    2     1000024         1   # BR(~u_L -> chi^+_1 d)
     1.29087727E-01    2     1000037         1   # BR(~u_L -> chi^+_2 d)
     7.99137717E-01    2     1000021         2   # BR(~u_L -> ~g u)
DECAY   2000004     5.48840036E+02   # ~c_R
#    BR                NDA      ID1      ID2
     3.96391074E-02    2     1000035         4   # BR(~c_R -> chi^0_4 c)
     9.60291460E-01    2     1000021         4   # BR(~c_R -> ~g c)
DECAY   1000004     6.62184870E+02   # ~c_L
#    BR                NDA      ID1      ID2
     8.94607769E-04    2     1000022         4   # BR(~c_L -> chi^0_1 c)
     1.97790357E-04    2     1000023         4   # BR(~c_L -> chi^0_2 c)
     6.52080440E-02    2     1000025         4   # BR(~c_L -> chi^0_3 c)
     2.02667124E-03    2     1000035         4   # BR(~c_L -> chi^0_4 c)
     3.47341666E-03    2     1000024         3   # BR(~c_L -> chi^+_1 s)
     1.29084186E-01    2     1000037         3   # BR(~c_L -> chi^+_2 s)
     7.99115284E-01    2     1000021         4   # BR(~c_L -> ~g c)
DECAY   1000006     1.56139094E+02   # ~t_1
#    BR                NDA      ID1      ID2
     2.37347529E-01    2     1000022         6   # BR(~t_1 -> chi^0_1 t)
     2.41838464E-01    2     1000023         6   # BR(~t_1 -> chi^0_2 t)
     8.02235986E-04    2     1000025         6   # BR(~t_1 -> chi^0_3 t)
     4.16210510E-02    2     1000035         6   # BR(~t_1 -> chi^0_4 t)
     4.76693717E-01    2     1000024         5   # BR(~t_1 -> chi^+_1 b)
     1.45308588E-03    2     1000037         5   # BR(~t_1 -> chi^+_2 b)
#    BR                NDA      ID1      ID2       ID3
     2.43694224E-04    3     1000022        24         5   # BR(~t_1 -> chi^0_1 W^+ b)
DECAY   2000006     1.63362078E+02   # ~t_2
#    BR                NDA      ID1      ID2
     2.46465466E-01    2     1000022         6   # BR(~t_2 -> chi^0_1 t)
     2.57416921E-01    2     1000023         6   # BR(~t_2 -> chi^0_2 t)
     1.14167337E-01    2     1000025         6   # BR(~t_2 -> chi^0_3 t)
     3.27531681E-03    2     1000035         6   # BR(~t_2 -> chi^0_4 t)
     1.00976228E-01    2     1000024         5   # BR(~t_2 -> chi^+_1 b)
     2.13732350E-01    2     1000037         5   # BR(~t_2 -> chi^+_2 b)
     2.75865934E-02    2     1000006        23   # BR(~t_2 -> ~t_1 Z)
     3.63797873E-02    2     1000006        25   # BR(~t_2 -> ~t_1 h^0)
DECAY   1000024     3.76713535E-11   # chi^+_1
#    BR                NDA      ID1      ID2       ID3
     5.49256521E-01    3     1000022        -1         2   # BR(chi^+_1 -> chi^0_1 d_bar u)
     8.50493659E-02    3     1000022        -3         4   # BR(chi^+_1 -> chi^0_1 s_bar c)
     1.83091815E-01    3     1000022       -11        12   # BR(chi^+_1 -> chi^0_1 e^+ nu_e)
     1.80858453E-01    3     1000022       -13        14   # BR(chi^+_1 -> chi^0_1 mu^+ nu_mu)
     1.74384497E-03    3     1000022       -15        16   # BR(chi^+_1 -> chi^0_1 tau^+ nu_tau)
DECAY   1000037     7.24180346E+00   # chi^+_2
#    BR                NDA      ID1      ID2
     2.48900504E-01    2     1000022        24   # BR(chi^+_2 -> chi^0_1 W^+)
     2.62116845E-01    2     1000023        24   # BR(chi^+_2 -> chi^0_2 W^+)
     2.47507057E-01    2     1000024        23   # BR(chi^+_2 -> chi^+_1 Z)
     2.35330267E-01    2     1000024        25   # BR(chi^+_2 -> chi^+_1 h^0)
#    BR                NDA      ID1      ID2       ID3
     1.15738800E-03    3     1000024         6        -6   # BR(chi^+_2 -> chi^+_1 t t_bar)
     1.35040746E-04    3     1000024         5        -5   # BR(chi^+_2 -> chi^+_1 b b_bar)
     2.49624548E-03    3     1000022        -5         6   # BR(chi^+_2 -> chi^0_1 b_bar t)
     2.32334652E-03    3     1000023        -5         6   # BR(chi^+_2 -> chi^0_2 b_bar t)
DECAY   1000022     0.00000000E+00   # chi^0_1
DECAY   1000023     1.80187350E-07   # chi^0_2
#    BR                NDA      ID1      ID2
     4.19962030E-01    2     1000022        22   # BR(chi^0_2 -> chi^0_1 photon)
#    BR                NDA      ID1      ID2       ID3
     5.64954026E-02    3     1000022         2        -2   # BR(chi^0_2 -> chi^0_1 u u_bar)
     3.88764445E-02    3     1000022         4        -4   # BR(chi^0_2 -> chi^0_1 c c_bar)
     7.24383108E-02    3     1000022         1        -1   # BR(chi^0_2 -> chi^0_1 d d_bar)
     7.23077400E-02    3     1000022         3        -3   # BR(chi^0_2 -> chi^0_1 s s_bar)
     1.63472604E-02    3     1000022        11       -11   # BR(chi^0_2 -> chi^0_1 e^- e^+)
     1.63008888E-02    3     1000022        13       -13   # BR(chi^0_2 -> chi^0_1 mu^- mu^+)
     7.12451853E-03    3     1000022        15       -15   # BR(chi^0_2 -> chi^0_1 tau^- tau^+)
     9.68709185E-02    3     1000022        12       -12   # BR(chi^0_2 -> chi^0_1 nu_e nu_bar_e)
     3.84636434E-02    3     1000024         1        -2   # BR(chi^0_2 -> chi^+_1 d u_bar)
     3.84636434E-02    3    -1000024        -1         2   # BR(chi^0_2 -> chi^-_1 d_bar u)
     2.97548823E-02    3     1000024         3        -4   # BR(chi^0_2 -> chi^+_1 s c_bar)
     2.97548823E-02    3    -1000024        -3         4   # BR(chi^0_2 -> chi^-_1 s_bar c)
     1.28212104E-02    3     1000024        11       -12   # BR(chi^0_2 -> chi^+_1 e^- nu_bar_e)
     1.28212104E-02    3    -1000024       -11        12   # BR(chi^0_2 -> chi^-_1 e^+ nu_e)
     1.27977109E-02    3     1000024        13       -14   # BR(chi^0_2 -> chi^+_1 mu^- nu_bar_mu)
     1.27977109E-02    3    -1000024       -13        14   # BR(chi^0_2 -> chi^-_1 mu^+ nu_mu)
     7.80079608E-03    3     1000024        15       -16   # BR(chi^0_2 -> chi^+_1 tau^- nu_bar_tau)
     7.80079608E-03    3    -1000024       -15        16   # BR(chi^0_2 -> chi^-_1 tau^+ nu_tau)
DECAY   1000025     8.31802109E+00   # chi^0_3
#    BR                NDA      ID1      ID2
     2.22028439E-01    2     1000024       -24   # BR(chi^0_3 -> chi^+_1 W^-)
     2.22028439E-01    2    -1000024        24   # BR(chi^0_3 -> chi^-_1 W^+)
     3.39295057E-02    2     1000022        23   # BR(chi^0_3 -> chi^0_1 Z)
     1.93077090E-01    2     1000023        23   # BR(chi^0_3 -> chi^0_2 Z)
     1.69112392E-01    2     1000022        25   # BR(chi^0_3 -> chi^0_1 h^0)
     1.54705663E-01    2     1000023        25   # BR(chi^0_3 -> chi^0_2 h^0)
#    BR                NDA      ID1      ID2       ID3
     3.17628760E-04    3     1000022         6        -6   # BR(chi^0_3 -> chi^0_1 t t_bar)
     2.61836365E-04    3     1000023         6        -6   # BR(chi^0_3 -> chi^0_2 t t_bar)
     2.18577952E-03    3     1000024         5        -6   # BR(chi^0_3 -> chi^+_1 b t_bar)
     2.18577952E-03    3    -1000024        -5         6   # BR(chi^0_3 -> chi^-_1 b_bar t)
DECAY   1000035     4.77078346E+00   # chi^0_4
#    BR                NDA      ID1      ID2
     1.73818738E-01    2     1000024       -24   # BR(chi^0_4 -> chi^+_1 W^-)
     1.73818738E-01    2    -1000024        24   # BR(chi^0_4 -> chi^-_1 W^+)
     6.63598721E-04    2     1000037       -24   # BR(chi^0_4 -> chi^+_2 W^-)
     6.63598721E-04    2    -1000037        24   # BR(chi^0_4 -> chi^-_2 W^+)
     5.23150923E-02    2          37  -1000024   # BR(chi^0_4 -> H^+ chi^-_1)
     5.23150923E-02    2         -37   1000024   # BR(chi^0_4 -> H^- chi^+_1)
     1.20459829E-01    2     1000022        23   # BR(chi^0_4 -> chi^0_1 Z)
     5.33020279E-02    2     1000023        23   # BR(chi^0_4 -> chi^0_2 Z)
     6.28221793E-04    2     1000025        23   # BR(chi^0_4 -> chi^0_3 Z)
     9.78472363E-03    2     1000022        36   # BR(chi^0_4 -> chi^0_1 A^0)
     7.88986734E-03    2     1000023        36   # BR(chi^0_4 -> chi^0_2 A^0)
     1.28289195E-01    2     1000022        25   # BR(chi^0_4 -> chi^0_1 h^0)
     1.13607416E-01    2     1000023        25   # BR(chi^0_4 -> chi^0_2 h^0)
     5.88386308E-04    2     1000025        25   # BR(chi^0_4 -> chi^0_3 h^0)
     4.57621136E-02    2     1000022        35   # BR(chi^0_4 -> chi^0_1 H^0)
     5.24873057E-02    2     1000023        35   # BR(chi^0_4 -> chi^0_2 H^0)
#    BR                NDA      ID1      ID2       ID3
     2.08506196E-03    3     1000022         6        -6   # BR(chi^0_4 -> chi^0_1 t t_bar)
     1.95508543E-03    3     1000023         6        -6   # BR(chi^0_4 -> chi^0_2 t t_bar)
     4.77407392E-03    3     1000024         5        -6   # BR(chi^0_4 -> chi^+_1 b t_bar)
     4.77407392E-03    3    -1000024        -5         6   # BR(chi^0_4 -> chi^-_1 b_bar t)
DECAY   1000021     1.16585551E+01   # ~g
#    BR                NDA      ID1      ID2
     3.31043835E-01    2     1000006        -6   # BR(~g -> ~t_1 t_bar)
     3.31043835E-01    2    -1000006         6   # BR(~g -> ~t^*_1 t)
     3.66196521E-02    2     1000005        -5   # BR(~g -> ~b_1 b_bar)
     3.66196521E-02    2    -1000005         5   # BR(~g -> ~b^*_1 b)
     4.76611731E-04    2     1000022        21   # BR(~g -> chi^0_1 g)
     5.36855636E-04    2     1000023        21   # BR(~g -> chi^0_2 g)
#    BR                NDA      ID1      ID2       ID3
     6.67447284E-02    3     1000022         6        -6   # BR(~g -> chi^0_1 t t_bar)
     1.48447673E-03    3     1000022         5        -5   # BR(~g -> chi^0_1 b b_bar)
     6.99120333E-02    3     1000023         6        -6   # BR(~g -> chi^0_2 t t_bar)
     1.46463215E-03    3     1000023         5        -5   # BR(~g -> chi^0_2 b b_bar)
     3.16966618E-02    3     1000025         6        -6   # BR(~g -> chi^0_3 t t_bar)
     8.67529059E-04    3     1000035         6        -6   # BR(~g -> chi^0_4 t t_bar)
     3.36306141E-04    3     1000035         5        -5   # BR(~g -> chi^0_4 b b_bar)
     1.69522401E-02    3     1000024         5        -6   # BR(~g -> chi^+_1 b t_bar)
     1.69522401E-02    3    -1000024        -5         6   # BR(~g -> chi^-_1 b_bar t)
     1.00519665E-04    3     1000037         1        -2   # BR(~g -> chi^+_2 d u_bar)
     1.00519665E-04    3    -1000037        -1         2   # BR(~g -> chi^-_2 d_bar u)
     1.00519809E-04    3     1000037         3        -4   # BR(~g -> chi^+_2 s c_bar)
     1.00519809E-04    3    -1000037        -3         4   # BR(~g -> chi^-_2 s_bar c)
     2.82169271E-02    3     1000037         5        -6   # BR(~g -> chi^+_2 b t_bar)
     2.82169271E-02    3    -1000037        -5         6   # BR(~g -> chi^-_2 b_bar t)
DECAY        25     3.72089057E-03   # Gamma(h0)
     2.42348144E-03   2        22        22   # BR(h0 -> photon photon)
     1.51960488E-03   2        22        23   # BR(h0 -> photon Z)
     2.77486331E-02   2        23        23   # BR(h0 -> Z Z)
     2.30625556E-01   2       -24        24   # BR(h0 -> W W)
     7.48475853E-02   2        21        21   # BR(h0 -> gluon gluon)
     5.11186150E-09   2       -11        11   # BR(h0 -> Electron electron)
     2.27384573E-04   2       -13        13   # BR(h0 -> Muon muon)
     6.55624717E-02   2       -15        15   # BR(h0 -> Tau tau)
     1.34721001E-07   2        -2         2   # BR(h0 -> Up up)
     2.61458927E-02   2        -4         4   # BR(h0 -> Charm charm)
     5.91776421E-07   2        -1         1   # BR(h0 -> Down down)
     2.14032769E-04   2        -3         3   # BR(h0 -> Strange strange)
     5.70684626E-01   2        -5         5   # BR(h0 -> Bottom bottom)
DECAY        35     8.80138102E+00   # Gamma(HH)
     3.17359261E-07   2        22        22   # BR(HH -> photon photon)
     3.26369876E-07   2        22        23   # BR(HH -> photon Z)
     2.06510617E-05   2        23        23   # BR(HH -> Z Z)
     3.51955514E-05   2       -24        24   # BR(HH -> W W)
     7.93216098E-05   2        21        21   # BR(HH -> gluon gluon)
     1.02572797E-08   2       -11        11   # BR(HH -> Electron electron)
     4.56514186E-04   2       -13        13   # BR(HH -> Muon muon)
     1.31816217E-01   2       -15        15   # BR(HH -> Tau tau)
     2.98636636E-13   2        -2         2   # BR(HH -> Up up)
     5.79111741E-08   2        -4         4   # BR(HH -> Charm charm)
     3.24397348E-03   2        -6         6   # BR(HH -> Top top)
     8.88560058E-07   2        -1         1   # BR(HH -> Down down)
     3.21402473E-04   2        -3         3   # BR(HH -> Strange strange)
     8.55366232E-01   2        -5         5   # BR(HH -> Bottom bottom)
     6.30349077E-03   2  -1000024   1000024   # BR(HH -> Chargino1 chargino1)
     1.28504945E-03   2   1000022   1000022   # BR(HH -> neutralino1 neutralino1)
     7.77104316E-04   2   1000022   1000023   # BR(HH -> neutralino1 neutralino2)
     1.34480186E-04   2   1000023   1000023   # BR(HH -> neutralino2 neutralino2)
     1.58767422E-04   2        25        25   # BR(HH -> h0 h0)
DECAY        36     8.76240302E+00   # Gamma(A0)
     5.84226480E-07   2        22        22   # BR(A0 -> photon photon)
     4.06717115E-07   2        22        23   # BR(A0 -> photon Z)
     1.37426119E-04   2        21        21   # BR(A0 -> gluon gluon)
     1.01454603E-08   2       -11        11   # BR(A0 -> Electron electron)
     4.51537282E-04   2       -13        13   # BR(A0 -> Muon muon)
     1.30381964E-01   2       -15        15   # BR(A0 -> Tau tau)
     2.68807209E-13   2        -2         2   # BR(A0 -> Up up)
     5.21276765E-08   2        -4         4   # BR(A0 -> Charm charm)
     3.66448716E-03   2        -6         6   # BR(A0 -> Top top)
     8.78882140E-07   2        -1         1   # BR(A0 -> Down down)
     3.17901992E-04   2        -3         3   # BR(A0 -> Strange strange)
     8.46092931E-01   2        -5         5   # BR(A0 -> Bottom bottom)
     1.50993788E-02   2  -1000024   1000024   # BR(A0 -> Chargino1 chargino1)
     3.28555288E-03   2   1000022   1000022   # BR(A0 -> neutralino1 neutralino1)
     2.56426939E-04   2   1000022   1000023   # BR(A0 -> neutralino1 neutralino2)
     2.77771056E-04   2   1000023   1000023   # BR(A0 -> neutralino2 neutralino2)
     3.26907827E-05   2        23        25   # BR(A0 -> Z h0)
     4.22644018E-37   2        25        25   # BR(A0 -> h0 h0)
DECAY        37     8.62941611E+00   # Gamma(Hp)
     1.19362753E-08   2       -11        12   # BR(Hp -> Electron nu_e)
     5.10313031E-04   2       -13        14   # BR(Hp -> Muon nu_mu)
     1.44344191E-01   2       -15        16   # BR(Hp -> Tau nu_tau)
     9.00570227E-07   2        -1         2   # BR(Hp -> Down up)
     1.49431144E-05   2        -3         2   # BR(Hp -> Strange up)
     9.63724682E-06   2        -5         2   # BR(Hp -> Bottom up)
     4.45340281E-08   2        -1         4   # BR(Hp -> Down charm)
     3.24634565E-04   2        -3         4   # BR(Hp -> Strange charm)
     1.34955297E-03   2        -5         4   # BR(Hp -> Bottom charm)
     3.18751008E-07   2        -1         6   # BR(Hp -> Down top)
     7.38061974E-06   2        -3         6   # BR(Hp -> Strange top)
     8.49166970E-01   2        -5         6   # BR(Hp -> Bottom top)
     6.65445188E-04   2   1000022   1000024   # BR(Hp -> neutralino1 chargino1)
     3.57080752E-03   2   1000023   1000024   # BR(Hp -> neutralino2 chargino1)
     3.48277451E-05   2        24        25   # BR(Hp -> W h0)
     1.03102958E-08   2        24        35   # BR(Hp -> W HH)
     1.06357444E-08   2        24        36   # BR(Hp -> W A0)
DECAY         6     2.43000000E+00   # top
#    BR                NDA      ID1      ID2
     1.00000000E+00    2           5        24   # BR(t -> b W)
Block HiggsBoundsInputHiggsCouplingsFermions
# ScalarNormEffCoupSq PseudoSNormEffCoupSq NP IP1 IP2 IP2
    1.00088160E+00    0.00000000E+00        3  25   5   5  # h0-b-b eff. coupling^2, normalised to SM
    7.28576613E+02    0.00000000E+00        3  35   5   5  # H0-b-b eff. coupling^2, normalised to SM
    0.00000000E+00    7.28577495E+02        3  36   5   5  # A0-b-b eff. coupling^2, normalised to SM
#
    9.99998790E-01    0.00000000E+00        3  25   6   6  # h0-t-t eff. coupling^2, normalised to SM
    1.37374762E-03    0.00000000E+00        3  35   6   6  # H0-t-t eff. coupling^2, normalised to SM
    0.00000000E+00    1.37253759E-03        3  36   6   6  # A0-t-t eff. coupling^2, normalised to SM
#
    1.00088160E+00    0.00000000E+00        3  25  15  15  # h0-tau-tau eff. coupling^2, normalised to SM
    7.28576613E+02    0.00000000E+00        3  35  15  15  # H0-tau-tau eff. coupling^2, normalised to SM
    0.00000000E+00    7.28577495E+02        3  36  15  15  # A0-tau-tau eff. coupling^2, normalised to SM
#
Block HiggsBoundsInputHiggsCouplingsBosons
    1.00000000E+00        3  25  24  24  # h0-W-W eff. coupling^2, normalised to SM
    2.66572025E-10        3  35  24  24  # H0-W-W eff. coupling^2, normalised to SM
    0.00000000E+00        3  36  24  24  # A0-W-W eff. coupling^2, normalised to SM
#
    1.00000000E+00        3  25  23  23  # h0-Z-Z eff. coupling^2, normalised to SM
    2.66572025E-10        3  35  23  23  # H0-Z-Z eff. coupling^2, normalised to SM
    0.00000000E+00        3  36  23  23  # A0-Z-Z eff. coupling^2, normalised to SM
#
    1.26397073E+00        3  25  21  21  # h0-g-g eff. coupling^2, normalised to SM
    1.28591895E-02        3  35  21  21  # H0-g-g eff. coupling^2, normalised to SM
    1.24530492E-01        3  36  21  21  # A0-g-g eff. coupling^2, normalised to SM
#
    0.00000000E+00        3  25  25  23  # h0-h0-Z eff. coupling^2, normalised to SM
    0.00000000E+00        3  35  25  23  # H0-h0-Z eff. coupling^2, normalised to SM
    2.66572025E-10        3  36  25  23  # A0-h0-Z eff. coupling^2, normalised to SM
    0.00000000E+00        3  35  35  23  # H0-H0-Z eff. coupling^2, normalised to SM
    1.00000000E+00        3  36  35  23  # A0-H0-Z eff. coupling^2, normalised to SM
    0.00000000E+00        3  36  36  23  # A0-A0-Z eff. coupling^2, normalised to SM
#
    0.00000000E+00        4  25  21  21  23  # h0-g-g-Z eff. coupling^2, normalised to SM
    0.00000000E+00        4  35  21  21  23  # H0-g-g-Z eff. coupling^2, normalised to SM
    0.00000000E+00        4  36  21  21  23  # A0-g-g-Z eff. coupling^2, normalised to SM
Block SPhenoLowEnergy  # low energy observables
    1    3.63529300E-04   # BR(b -> s gamma)
    2    1.58734509E-06   # BR(b -> s mu+ mu-)
    3    3.52563705E-05   # BR(b -> s nu nu)
    4    2.93129818E-15   # BR(Bd -> e+ e-)
    5    1.25221201E-10   # BR(Bd -> mu+ mu-)
    6    2.61828609E-08   # BR(Bd -> tau+ tau-)
    7    9.84154413E-14   # BR(Bs -> e+ e-)
    8    4.20428788E-09   # BR(Bs -> mu+ mu-)
    9    8.90780024E-07   # BR(Bs -> tau+ tau-)
   10    8.96117939E-05   # BR(B_u -> tau nu)
   11    9.25655524E-01   # BR(B_u -> tau nu)/BR(B_u -> tau nu)_SM
   12    5.41972742E-01   # |Delta(M_Bd)| [ps^-1] 
   13    1.93310689E+01   # |Delta(M_Bs)| [ps^-1] 
   14    0.00000000E+00   # neutron EDM according to the chiral quark model
   15    0.00000000E+00   # neutron EDM according to the relativistic quark-parton model
   16    2.15758172E-03   # epsilon_K
   17    2.28166969E-15   # Delta(M_K)
   18    2.48008280E-11   # BR(K^0 -> pi^0 nu nu)
   19    8.29072928E-11   # BR(K^+ -> pi^+ nu nu)
   20    2.27743663E-16   # Delta(g-2)_electron/2
   21    9.73678501E-12   # Delta(g-2)_muon/2
   22    2.75647289E-09   # Delta(g-2)_tau/2
   23    0.00000000E+00   # electric dipole moment of the electron
   24    0.00000000E+00   # electric dipole moment of the muon
   25    0.00000000E+00   # electric dipole moment of the tau
   26    0.00000000E+00   # Br(mu -> e gamma)
   27    0.00000000E+00   # Br(tau -> e gamma)
   28    0.00000000E+00   # Br(tau -> mu gamma)
   29    0.00000000E+00   # Br(mu -> 3 e)
   30    0.00000000E+00   # Br(tau -> 3 e)
   31    0.00000000E+00   # Br(tau -> 3 mu)
   39    6.16780220E-05   # Delta(rho_parameter)
   40    0.00000000E+00   # BR(Z -> e mu)
   41    0.00000000E+00   # BR(Z -> e tau)
   42    0.00000000E+00   # BR(Z -> mu tau)
Block FWCOEF Q=  1.60000000E+02  # Wilson coefficients at scale Q
#    id        order  M        value         comment
     0305 4422   00   0    -1.88819110E-01   # C7
     0305 4422   00   2    -2.30633008E-01   # C7
     0305 4322   00   2    -9.27560593E-04   # C7'
     0305 6421   00   0    -9.52278348E-02   # C8
     0305 6421   00   2    -1.48654155E-01   # C8
     0305 6321   00   2    -1.10704178E-03   # C8'
 03051111 4133   00   0     1.62617506E+00   # C9 e+e-
 03051111 4133   00   2     1.62646809E+00   # C9 e+e-
 03051111 4233   00   2     4.66102190E-05   # C9' e+e-
 03051111 4137   00   0    -4.44886717E+00   # C10 e+e-
 03051111 4137   00   2    -4.44757445E+00   # C10 e+e-
 03051111 4237   00   2    -3.44487280E-04   # C10' e+e-
 03051313 4133   00   0     1.62617506E+00   # C9 mu+mu-
 03051313 4133   00   2     1.62646802E+00   # C9 mu+mu-
 03051313 4233   00   2     4.66026860E-05   # C9' mu+mu-
 03051313 4137   00   0    -4.44886717E+00   # C10 mu+mu-
 03051313 4137   00   2    -4.44757452E+00   # C10 mu+mu-
 03051313 4237   00   2    -3.44479836E-04   # C10' mu+mu-
 03051212 4137   00   0     1.50535012E+00   # C11 nu_1 nu_1
 03051212 4137   00   2     1.50507197E+00   # C11 nu_1 nu_1
 03051212 4237   00   2     7.44993419E-05   # C11' nu_1 nu_1
 03051414 4137   00   0     1.50535012E+00   # C11 nu_2 nu_2
 03051414 4137   00   2     1.50507197E+00   # C11 nu_2 nu_2
 03051414 4237   00   2     7.45009666E-05   # C11' nu_2 nu_2
 03051616 4137   00   0     1.50535012E+00   # C11 nu_3 nu_3
 03051616 4137   00   2     1.50507197E+00   # C11 nu_3 nu_3
 03051616 4237   00   2     7.49588267E-05   # C11' nu_3 nu_3
Block IMFWCOEF Q=  1.60000000E+02  # Im(Wilson coefficients) at scale Q
#    id        order  M        value         comment
     0305 4422   00   0     3.85827160E-07   # C7
     0305 4422   00   2     6.75602951E-06   # C7
     0305 4322   00   2     1.04160185E-06   # C7'
     0305 6421   00   0     3.30486479E-07   # C8
     0305 6421   00   2    -2.70313137E-06   # C8
     0305 6321   00   2     2.99150179E-07   # C8'
 03051111 4133   00   2     3.47048762E-07   # C9 e+e-
 03051111 4233   00   2     3.41741375E-06   # C9' e+e-
 03051111 4137   00   2     6.40824688E-07   # C10 e+e-
 03051111 4237   00   2    -2.53074798E-05   # C10' e+e-
 03051313 4133   00   2     3.47047202E-07   # C9 mu+mu-
 03051313 4233   00   2     3.41741334E-06   # C9' mu+mu-
 03051313 4137   00   2     6.40826187E-07   # C10 mu+mu-
 03051313 4237   00   2    -2.53074811E-05   # C10' mu+mu-
 03051212 4137   00   2    -1.13357138E-07   # C11 nu_1 nu_1
 03051212 4237   00   2     5.47305521E-06   # C11' nu_1 nu_1
 03051414 4137   00   2    -1.13357062E-07   # C11 nu_2 nu_2
 03051414 4237   00   2     5.47305521E-06   # C11' nu_2 nu_2
 03051616 4137   00   2    -1.13335603E-07   # C11 nu_3 nu_3
 03051616 4237   00   2     5.47305521E-06   # C11' nu_3 nu_3
