BLOCK DCINFO
   1   SDECAY/HDECAY
   2   1.3b /3.4

BLOCK SPINFO
   1   SOFTSUSY
   2   3.4.0

BLOCK MODSEL
   1   0

BLOCK SMINPUTS
   1    127.90897
   2    1.1663787e-05
   3    0.1184
   4    91.1876
   5    4.18
   6    173.2
   7    1.777

BLOCK MINPAR
   3    17.86

BLOCK EXTPAR
   0   -1
   1   -61.97
   2    3421.49
   3    3498.32
   11    2944.75
   12    1460.73
   13    1788.3
   23   -514.15
   26    2114.48
   31    3223.28
   32    3223.28
   33    1662.85
   34    3154.12
   35    3154.12
   36    669.83
   41    2655.79
   42    2655.79
   43    1915.94
   44    2538.43
   45    2538.43
   46    2061.62
   47    3755.35
   48    3755.35
   49    2303.41

BLOCK MASS
   24    80.408481
   25    125.53575
   35    2114.5037
   36    2114.4798
   37    2116.3896
   5    4.8187603
   1000001    2722.5671
   2000001    3804.1408
   1000002    2721.5299
   2000002    2590.1605
   1000003    2722.5671
   2000003    3804.1408
   1000004    2721.5299
   2000004    2590.1605
   1000005    1942.1789
   2000005    2353.1825
   1000006    1873.7747
   2000006    2110.9698
   1000011    3234.6283
   2000011    3159.6656
   1000012    3233.3352
   1000013    3234.6283
   2000013    3159.6656
   1000014    3233.3352
   1000015    681.95321
   2000015    1669.5986
   1000016    1667.3696
   1000021    3493.4952
   1000022   -60.763973
   1000023    534.11578
   1000025   -536.35343
   1000035    3391.6194
   1000024    533.61197
   1000037    3391.784

BLOCK NMIX
   1   1    0.99630423
   1   2    0.00046094471
   1   3   -0.084652749
   1   4    0.014545565
   2   1    0.049625336
   2   2    0.017821098
   2   3    0.70557712
   2   4    0.70666871
   3   1    0.070107802
   3   2   -0.014749426
   3   3    0.70355538
   3   4   -0.70701992
   4   1   -0.00030965219
   4   2    0.99973229
   4   3   -0.0021586785
   4   4   -0.023034622

BLOCK UMIX
   1   1    0.0030606404
   1   2    0.99999532
   2   1   -0.99999532
   2   2    0.0030606404

BLOCK VMIX
   1   1    0.032609017
   1   2   -0.99946819
   2   1   -0.99946819
   2   2   -0.032609017

BLOCK STOPMIX
   1   1    0.84344031
   1   2   -0.5372229
   2   1    0.5372229
   2   2    0.84344031

BLOCK SBOTMIX
   1   1    0.9999011
   1   2   -0.014063436
   2   1    0.014063436
   2   2    0.9999011

BLOCK STAUMIX
   1   1   -0.008107441
   1   2    0.99996713
   2   1   -0.99996713
   2   2   -0.008107441

BLOCK ALPHA
      -0.058524165

BLOCK HMIX Q=  1986.32
   1   -521.77997
   2    17.150084
   3    243.69896
   4    4417511.9

BLOCK GAUGE Q=  1986.32
   1    0.36369398
   2    0.6355091
   3    1.0160786

BLOCK AU Q=  1986.32
   1   1    0
   2   2    0
   3   3    2944.75

BLOCK AD Q=  1986.32
   1   1    0
   2   2    0
   3   3    1460.73

BLOCK AE Q=  1986.32
   1   1    0
   2   2    0
   3   3    1788.3

BLOCK YU Q=  1986.32
   1   1    0
   2   2    0
   3   3    0.84433706

BLOCK YD Q=  1986.32
   1   1    0
   2   2    0
   3   3    0.24072051

BLOCK YE Q=  1986.32
   1   1    0
   2   2    0
   3   3    0.17243822

BLOCK MSOFT Q=  1986.32
   1   -61.97
   2    3421.49
   3    3498.32
   21    4170669.9
   22   -152196.86
   31    3223.28
   32    3223.28
   33    1662.85
   34    3154.12
   35    3154.12
   36    669.83
   41    2655.79
   42    2655.79
   43    1915.94
   44    2538.43
   45    2538.43
   46    2061.62
   47    3755.35
   48    3755.35
   49    2303.41

BLOCK HIGGSBOUNDSINPUTHIGGSCOUPLINGSFERMIONS
       0, 294.12539,3,36,15,15

BLOCK HIGGSBOUNDSINPUTHIGGSCOUPLINGSBOSONS
       0,4,36,21,21,23

DECAY 6  1.4215565
    1   2    5    24

DECAY 1000021  173.61814
    0.10312739   2    1000006   -6
    0.10312739   2   -1000006    6
    0.087407038   2    1000005   -5
    0.087407038   2   -1000005    5
    0.064230965   2    2000006   -6
    0.064230965   2   -2000006    6
    0.054778471   2    2000005   -5
    0.054778471   2   -2000005    5
    0.037750629   2    2000002   -2
    0.037750629   2   -2000002    2
    0.037750581   2    2000004   -4
    0.037750581   2   -2000004    4
    0.028772588   2    1000002   -2
    0.028772588   2   -1000002    2
    0.028772535   2    1000004   -4
    0.028772535   2   -1000004    4
    0.028704902   2    1000001   -1
    0.028704902   2   -1000001    1
    0.028704902   2    1000003   -3
    0.028704902   2   -1000003    3

DECAY 1000006  30.437694
    0.38205698   2    1000023    6
    0.32862061   2    1000025    6
    0.2388056   2    1000024    5
    0.05051682   2    1000022    6

DECAY 2000006  59.249889
    0.33511273   2    1000024    5
    0.23546098   2    1000025    6
    0.20773131   2    1000023    6
    0.078407661   2    1000006    23
    0.069971333   2    1000005    24
    0.05744908   2    1000022    6
    0.015866894   2    1000006    25

DECAY 1000005  25.264787
    0.91287592   2   -1000024    6
    0.037689595   2    1000023    5
    0.037491484   2    1000025    5
    0.011942998   2    1000022    5

DECAY 2000005  6.3468092
    0.38206076   2   -1000024    6
    0.21686801   2    1000022    5
    0.19203229   2    1000023    5
    0.19192473   2    1000025    5
    0.0084233227   2    1000006   -24
    0.004327527   2    1000005    25
    0.0039085431   2    1000005    23
    0.00045481937   2    2000006   -24

DECAY 1000002  0.41995241
    0.93157478   2    1000022    2
    0.050649053   2    1000024    1
    0.017731148   2    1000023    2
    4.5022e-05   2    1000025    2

DECAY 2000002  5.9885512
    0.99321019   2    1000022    2
    0.0045222852   2    1000025    2
    0.002267523   2    1000023    2

DECAY 1000001  0.39637074
    0.97781616   2    1000022    1
    0.019949278   2    1000025    1
    0.0017616315   2    1000023    1
    0.00047293257   2   -1000024    2

DECAY 2000001  8.9192555
    0.76309783   2    1000021    1
    0.23521705   2    1000022    1
    0.0011225131   2    1000025    1
    0.00056260985   2    1000023    1
    1.0090386e-09   2    1000035    1

DECAY 1000004  0.42550232
    0.93174189   2    1000022    4
    0.050525395   2    1000024    3
    0.017687805   2    1000023    4
    4.4911488e-05   2    1000025    4

DECAY 2000004  6.0482976
    0.9932281   2    1000022    4
    0.0045103393   2    1000025    4
    0.0022615562   2    1000023    4

DECAY 1000003  0.40166864
    0.97787326   2    1000022    3
    0.019897908   2    1000025    3
    0.0017571131   2    1000023    3
    0.00047172046   2   -1000024    4

DECAY 2000003  7.3358341
    0.69699413   2    1000021    3
    0.3008564   2    1000022    3
    0.0014318228   2    1000025    3
    0.00071764582   2    1000023    3
    1.2233912e-09   2    1000035    3

DECAY 1000011  4.2628106
    0.99192769   2    1000022    11
    0.0061622606   2    1000023    11
    0.0018560038   2    1000025    11
    5.4045647e-05   2   -1000024    12

DECAY 2000011  16.610124
    0.9930321   2    1000022    11
    0.0046412739   2    1000025    11
    0.0023266228   2    1000023    11

DECAY 1000013  4.2628106
    0.99192769   2    1000022    13
    0.0061622606   2    1000023    13
    0.0018560038   2    1000025    13
    5.4045648e-05   2   -1000024    14

DECAY 2000013  16.610124
    0.9930321   2    1000022    13
    0.0046412739   2    1000025    13
    0.0023266228   2    1000023    13

DECAY 1000015  3.6331768
    0.96599737   2    1000022    15
    0.016694526   2   -1000024    16
    0.0087250115   2    1000025    15
    0.0085830896   2    1000023    15

DECAY 2000015  3.1028691
    0.70379892   2    1000022    15
    0.13152392   2    1000023    15
    0.12823721   2    1000025    15
    0.018426705   2    1000015    25
    0.018010667   2    1000015    23
    2.5818055e-06   2   -1000024    16

DECAY 1000012  4.2775641
    0.98492065   2    1000022    12
    0.0086467264   2    1000025    12
    0.0061110797   2    1000024    11
    0.00032154732   2    1000023    12

DECAY 1000014  4.2775641
    0.98492065   2    1000022    14
    0.0086467264   2    1000025    14
    0.0061110797   2    1000024    13
    0.00032154732   2    1000023    14

DECAY 1000016  3.0994743
    0.69958963   2    1000022    16
    0.26012814   2    1000024    15
    0.034857464   2   -1000015   -24
    0.0052299969   2    1000025    16
    0.00019477101   2    1000023    16

DECAY 1000024  0.33261075
    1   2    1000022    24

DECAY 1000037  108.42641
    0.1677113   2   -1000005    6
    0.1365808   2    1000006   -5
    0.072194184   2    1000016   -15
    0.072143204   2   -2000015    16
    0.060305162   2    1000024    25
    0.057347519   2    1000024    23
    0.055530699   2    1000023    24
    0.055374264   2    1000025    24
    0.047489456   2    1000002   -1
    0.047489449   2    1000004   -3
    0.047410775   2   -1000001    2
    0.047410667   2   -1000003    4
    0.035433069   2    2000006   -5
    0.023345072   2    1000024    36
    0.023345053   2    1000024    35
    0.023215862   2    1000023    37
    0.023072493   2    1000025    37
    0.0010452669   2    1000012   -11
    0.0010452669   2    1000014   -13
    0.0010297626   2   -1000011    12
    0.0010297626   2   -1000013    14
    0.00032562901   2    1000022    37
    9.6201857e-05   2    1000022    24
    2.2950464e-05   2   -2000005    6
    6.1276565e-06   2   -1000015    16

DECAY 1000022 -1


DECAY 1000023  0.32960166
    0.68306953   2    1000022    23
    0.31693047   2    1000022    25

DECAY 1000025  0.33160221
    0.64557324   2    1000022    25
    0.35442676   2    1000022    23

DECAY 1000035  108.43935
    0.085079111   2    1000005   -5
    0.085079111   2   -1000005    5
    0.067346561   2    1000006   -6
    0.067346561   2   -1000006    6
    0.055716394   2    1000024   -24
    0.055716394   2   -1000024    24
    0.036140197   2    1000023    25
    0.036120578   2    1000016   -16
    0.036120578   2   -1000016    16
    0.036031661   2    2000015   -15
    0.036031661   2   -2000015    15
    0.033874472   2    1000025    23
    0.024054034   2    1000025    25
    0.023742442   2    1000002   -2
    0.023742442   2   -1000002    2
    0.023742388   2    1000004   -4
    0.023742388   2   -1000004    4
    0.023683701   2    1000001   -1
    0.023683701   2   -1000001    1
    0.023683701   2    1000003   -3
    0.023683701   2   -1000003    3
    0.023311465   2    1000023    23
    0.023281982   2    1000024   -37
    0.023281982   2   -1000024    37
    0.018361318   2    1000023    35
    0.018267084   2    1000025    36
    0.017392724   2    2000006   -6
    0.017392724   2   -2000006    6
    0.0049045771   2    1000023    36
    0.0048524739   2    1000025    35
    0.00052199639   2    1000012   -12
    0.00052199639   2   -1000012    12
    0.00052199639   2    1000014   -14
    0.00052199639   2   -1000014    14
    0.00051333878   2    1000011   -11
    0.00051333878   2   -1000011    11
    0.00051333878   2    1000013   -13
    0.00051333878   2   -1000013    13
    0.00017896157   2    1000022    36
    0.00014726701   2    1000022    35
    6.3799667e-05   2    1000022    25
    3.090078e-05   2    1000022    23
    1.1739609e-05   2    2000005   -5
    1.1739609e-05   2   -2000005    5
    3.0687413e-06   2    1000015   -15
    3.0687413e-06   2   -1000015    15
    1.8076874e-09   2    2000002   -2
    1.8076874e-09   2   -2000002    2
    1.8076847e-09   2    2000004   -4
    1.8076847e-09   2   -2000004    4
    1.3772038e-10   2    2000011   -11
    1.3772038e-10   2   -2000011    11
    1.3772038e-10   2    2000013   -13
    1.3772038e-10   2   -2000013    13

DECAY 25  0.0040128076
    0.57818723   2    5   -5
    0.22137493   2    24   -24
    0.080459316   2    21    21
    0.065393002   2   -15    15
    0.027943683   2    23    23
    0.021686844   2    4   -4
    0.0023880434   2    22    22
    0.0016335991   2    22    23
    0.00044945125   2    1000022    1000022
    0.00025245094   2    3   -3
    0.00023144818   2   -13    13

DECAY 35  11.98543
    0.67434234   2    5   -5
    0.1108527   2   -15    15
    0.10445494   2    1000022    1000023
    0.077790353   2    1000022    1000025
    0.025310697   2    6   -6
    0.0029557797   2    1000022    1000022
    0.0012915108   2    1000023    1000025
    0.001142877   2    1000025    1000025
    0.0010320732   2    1000024   -1000024
    0.00038616885   2   -13    13
    0.00026182656   2    3   -3
    8.1333058e-05   2    25    25
    4.0708098e-05   2    1000023    1000023
    1.9973651e-05   2    24   -24
    1.404019e-05   2    1000015   -1000015
    1.2439592e-05   2    21    21
    9.9516338e-06   2    23    23
    2.6063231e-07   2    4   -4
    1.8277214e-08   2    22    22
    1.5935643e-08   2    23    22

DECAY 36  11.993279
    0.67397739   2    5   -5
    0.11078279   2   -15    15
    0.10171396   2    1000022    1000025
    0.080008838   2    1000022    1000023
    0.025518059   2    6   -6
    0.0030851899   2    1000022    1000022
    0.0019458795   2    1000025    1000025
    0.0013539415   2    1000024   -1000024
    0.00081201637   2    1000023    1000025
    0.00038592433   2   -13    13
    0.00026172385   2    3   -3
    9.051396e-05   2    21    21
    4.3209467e-05   2    1000023    1000023
    2.0147965e-05   2    23    25
    2.603404e-07   2    4   -4
    7.8464763e-08   2    22    22
    7.5353301e-08   2    23    22

DECAY 37  12.190167
    0.70391206   2    6   -5
    0.18400202   2    1000024    1000022
    0.10909195   2   -15    16
    0.0011457185   2    4   -5
    0.00093982824   2    1000024    1000023
    0.0003800341   2   -13    14
    0.00025360417   2    4   -3
    0.00023055067   2    1000024    1000025
    1.990184e-05   2    24    25
    1.2871931e-05   2    2   -3
    1.1457155e-05   2    2   -5
    2.7408033e-12   2    24    36

DECAY 5 -1


DECAY 15 -1


DECAY 23  2.4952


DECAY 24  2.085
