BLOCK SPINFO
   1   SPheno
   2   v4.0.5be

BLOCK SPHENOINFO
   1   2
   2   2

BLOCK MODSEL
   1   0

BLOCK MINPAR
   3    51.596009
   4    1

BLOCK EXTPAR
   0    2652.2871
   1   -541.3585
   2    4611.2774
   3    4460.6851
   11   -3606.9115
   12    1586.3944
   13    7678.1778
   23    2849.5258
   25    50.742248
   26    4073.3288
   31    3119.9692
   32    3119.9692
   33    952.79308
   34    3452.0836
   35    3452.0836
   36    3238.9963
   41    703.03627
   42    703.03627
   43    2964.0555
   44    4761.9631
   45    4761.9631
   46    2258.8112
   47    3338.0023
   48    3338.0023
   49    3768.3205

BLOCK SMINPUTS
   1    127.90897
   2    1.1663787e-05
   3    0.1184
   4    91.1876
   5    4.18
   6    173.2
   7    1.777
   8    0
   11    0.00051099893
   12    0
   13    0.10565837
   14    0
   21    0.005
   22    0.0025
   23    0.095
   24    1.27

BLOCK GAUGE Q=  2652.2871
   1    0.35536298
   2    0.66519887
   3    1.219778

BLOCK YU Q=  2652.2871
   1   1    8.3860001e-06
   2   2    0.0042600881
   3   3    1.0130962

BLOCK YD Q=  2652.2871
   1   1    0.0008550762
   2   2    0.016246448
   3   3    0.84796765

BLOCK YE Q=  2652.2871
   1   1    0.00014921705
   2   2    0.030853353
   3   3    0.51890265

BLOCK AU Q=  2652.2871
   1   1    0
   2   2    0
   3   3   -3606.9114

BLOCK AD Q=  2652.2871
   1   1    0
   2   2    0
   3   3    1586.3946

BLOCK AE Q=  2652.2871
   1   1    0
   2   2    0
   3   3    7678.1778

BLOCK MSOFT Q=  2652.2871
   1   -541.3585
   2    4611.2774
   3    4460.6851
   21    8824228.8
   22   -7914463.4
   31    3119.9692
   32    3119.9692
   33    952.79308
   34    3452.0836
   35    3452.0836
   36    3238.9963
   41    703.03627
   42    703.03627
   43    2964.0555
   44    4761.9631
   45    4761.9631
   46    2258.8112
   47    3338.0023
   48    3338.0023
   49    3768.3205

BLOCK MASS
   6    173.2
   23    91.1876
   24    80.429995
   15    1.777
   25    121.66384
   35    4072.2346
   36    4073.3288
   37    4073.1033
   1000001    683.54953
   2000001    3420.0313
   1000002    678.86864
   2000002    4837.5815
   1000003    683.55081
   2000003    3420.0291
   1000004    678.87148
   2000004    4837.581
   1000005    3032.0595
   2000005    3837.6335
   1000006    2307.2912
   2000006    3048.8682
   1000011    3137.4774
   2000011    3451.4577
   1000012    3136.0774
   1000013    3137.4428
   2000013    3451.4268
   1000014    3136.0635
   1000015    1002.6968
   2000015    3219.1221
   1000016    1003.2855
   1000021    4468.6383
   1000022   -540.48227
   1000023    2846.1748
   1000025   -2849.1085
   1000035    4556.4982
   1000024    2846.9207
   1000037    4556.556

BLOCK ALPHA
      -0.019392536

BLOCK HMIX Q=  2652.2871
   1    2849.5258
   2    50.742248
   3    243.39264
   4    16592007

BLOCK STOPMIX
   1   1    0.13363267
   1   2    0.99103093
   2   1   -0.99103093
   2   2    0.13363267

BLOCK SBOTMIX
   1   1    0.99882795
   1   2    0.048401761
   2   1   -0.048401761
   2   2    0.99882795

BLOCK STAUMIX
   1   1    0.99958589
   1   2    0.028775708
   2   1   -0.028775708
   2   2    0.99958589

BLOCK NMIX
   1   1    0.99986404
   1   2    3.7529735e-05
   1   3    0.016266668
   1   4    0.0027001577
   2   1    0.0095907007
   2   2    0.034541835
   2   3   -0.70685723
   2   4    0.70644727
   3   1   -0.013410503
   3   2    0.0072785339
   3   3    0.70690625
   3   4    0.70714265
   4   1    0.00027136537
   4   2   -0.99937675
   4   3   -0.019282312
   4   4    0.029567476

BLOCK UMIX
   1   1   -0.026841905
   1   2    0.99963969
   2   1    0.99963969
   2   2    0.026841905

BLOCK VMIX
   1   1   -0.041510865
   1   2    0.99913805
   2   1    0.99913805
   2   2    0.041510865

BLOCK HIGGSBOUNDSINPUTHIGGSCOUPLINGSFERMIONS
       0, 2574.7758,3,36,15,15

BLOCK HIGGSBOUNDSINPUTHIGGSCOUPLINGSBOSONS
       0,4,36,21,21,23

BLOCK SPHENOLOWENERGY
   1    0.00031108993
   2    1.5925158e-06
   3    3.5271808e-05
   4    2.253727e-15
   5    9.627484e-11
   6    2.0052801e-08
   7    7.5800381e-14
   8    3.2381299e-09
   9    6.8345766e-07
   10    9.6257262e-05
   11    0.99430067
   12    0.54165262
   13    19.349781
   14    0
   15    0
   16    0.0021563493
   17    2.2816492e-15
   18    2.4811871e-11
   19    8.2935549e-11
   20    9.822421e-16
   21    4.1991421e-11
   22    2.6222275e-09
   23    0
   24    0
   25    0
   26    0
   27    0
   28    0
   29    0
   30    0
   31    0
   39    6.8549166e-05
   40    0
   41    0
   42    0

BLOCK FWCOEF Q=  160
   305   4422   0   0   -0.18881911
   305   4422   0   2   -0.17739065
   305   4322   0   2    0.00033925095
   305   6421   0   0   -0.095227835
   305   6421   0   2   -0.091757526
   305   6321   0   2    0.00015019104
   3051111   4133   0   0    1.613034
   3051111   4133   0   2    1.6133989
   3051111   4233   0   2    0.00018122625
   3051111   4137   0   0   -4.4357261
   3051111   4137   0   2   -4.4360034
   3051111   4237   0   2   -0.0013685277
   3051313   4133   0   0    1.613034
   3051313   4133   0   2    1.6133975
   3051313   4233   0   2    0.00018122574
   3051313   4137   0   0   -4.4357261
   3051313   4137   0   2   -4.4360047
   3051313   4237   0   2   -0.0013685282
   3051212   4137   0   0    1.5053501
   3051212   4137   0   2    1.5054104
   3051212   4237   0   2    0.00029683846
   3051414   4137   0   0    1.5053501
   3051414   4137   0   2    1.5054104
   3051414   4237   0   2    0.00029683852
   3051616   4137   0   0    1.5053501
   3051616   4137   0   2    1.5054102
   3051616   4237   0   2    0.00029685422

BLOCK IMFWCOEF Q=  160
   305   4422   0   0    3.8590377e-07
   305   4422   0   2    6.0074536e-06
   305   4322   0   2    7.3808377e-06
   305   6421   0   0    3.305521e-07
   305   6421   0   2   -9.2552449e-07
   305   6321   0   2    4.4686729e-06
   3051111   4133   0   2    6.6283533e-07
   3051111   4233   0   2    3.94358e-06
   3051111   4137   0   2   -4.3495799e-06
   3051111   4237   0   2   -2.9781157e-05
   3051313   4133   0   2    6.6282373e-07
   3051313   4233   0   2    3.9435757e-06
   3051313   4137   0   2   -4.3495917e-06
   3051313   4237   0   2   -2.9781172e-05
   3051212   4137   0   2    9.4501344e-07
   3051212   4237   0   2    6.4596366e-06
   3051414   4137   0   2    9.4501331e-07
   3051414   4237   0   2    6.4596366e-06
   3051616   4137   0   2    9.4135052e-07
   3051616   4237   0   2    6.4596373e-06

DECAY 23  2.4952


DECAY 24  2.085


DECAY 1000011  3.7115405
    0.99964915   2    1000022    11
    0.00018355482   2    1000023    11
    0.00016728868   2   -1000024    12

DECAY 2000011  16.498196
    0.99997089   2    1000022    11

DECAY 1000013  3.7133524
    0.99915306   2    1000022    13
    0.00043389316   2    1000023    13
    0.00024587509   2    1000025    13
    0.00016717089   2   -1000024    14

DECAY 2000013  16.514945
    0.99894787   2    1000022    13
    0.00040402045   2   -1000024    14
    0.00021990637   2    1000025    13
    0.00021583933   2    1000013    25
    0.00021236726   2    1000023    13

DECAY 1000015  0.63768457
    1   2    1000022    15

DECAY 2000015  43.02816
    0.35462687   2    1000022    15
    0.3206656   2    1000016   -24
    0.1601455   2    1000015    23
    0.12666043   2    1000015    25
    0.018957014   2   -1000024    16
    0.0095255278   2    1000023    15
    0.0094190589   2    1000025    15

DECAY 1000012  3.7092694
    0.99947933   2    1000022    12
    0.00039684885   2    1000024    11
    0.00010014356   2    1000023    12

DECAY 1000014  3.7110858
    0.99898516   2    1000022    14
    0.00089109678   2    1000024    13
    0.00010008577   2    1000023    14

DECAY 1000016  0.63467074
    1   2    1000022    16

DECAY 1000001  0.013392337
    1   2    1000022    1

DECAY 2000001  1.8147779
    0.99995885   2    1000022    1

DECAY 1000003  0.013392529
    1   2    1000022    3

DECAY 2000003  1.8241095
    0.99484506   2    1000022    3
    0.0032748607   2    1000003    25
    0.00092763714   2   -1000024    4
    0.00047837236   2    1000025    3
    0.00047407274   2    1000023    3

DECAY 1000005  26.023552
    0.95024727   2    1000006   -24
    0.016478739   2    1000022    5
    0.011755422   2    1000023    5
    0.011372022   2    1000025    5
    0.010146549   2   -1000024    6

DECAY 2000005  36.743813
    0.30058092   2   -1000024    6
    0.15085757   2    1000023    5
    0.15062143   2    1000025    5
    0.1484311   2    1000005    25
    0.11891335   2    2000006   -24
    0.063632448   2    1000005    23
    0.055614595   2    1000022    5
    0.01134859   2    1000006   -24

DECAY 1000002  0.012704379
    1   2    1000022    2

DECAY 2000002  18.752935
    0.56163271   2    1000022    2
    0.43830044   2    1000021    2

DECAY 1000004  0.012703961
    1   2    1000022    4

DECAY 2000004  18.7545
    0.56158571   2    1000022    4
    0.43825946   2    1000021    4

DECAY 1000006  4.4777029
    0.99922693   2    1000022    6
    0.00059476664   3    1000016   -15    5
    0.00017340548   3    1000022    24    5

DECAY 2000006  32.328964
    0.54491635   2    1000006    25
    0.39869822   2    1000006    23
    0.022190402   2    1000024    5
    0.015594205   2    1000022    6
    0.00946616   2    1000023    6
    0.0091346639   2    1000025    6

DECAY 1000024  18.368486
    0.56018432   2    1000006   -5
    0.31913321   2    1000016   -15
    0.10402125   2    1000022    24
    0.0052432901   3    1000022   -5    6
    0.0042222768   2    1000004   -3
    0.0031399063   2    1000002   -1
    0.0013844209   2   -1000003    4
    0.0013094198   2   -1000001    2
    0.0012706557   2   -1000015    16

DECAY 1000037  362.157
    0.15862838   2   -1000001    2
    0.15862831   2   -1000003    4
    0.15856882   2    1000002   -1
    0.15856882   2    1000004   -3
    0.050581719   2    2000006   -5
    0.050365016   2   -1000005    6
    0.050073076   2    1000016   -15
    0.050007222   2   -1000015    16
    0.025545285   2    1000023    24
    0.024563545   2    1000025    24
    0.024475515   2    1000024    23
    0.02410291   2    1000024    25
    0.015313488   2    1000014   -13
    0.015313222   2    1000012   -11
    0.01530458   2   -1000013    14
    0.015303972   2   -1000011    12
    0.0017326306   3    1000024    6   -6
    0.0011748575   3    1000023   -5    6
    0.001129186   3    1000025   -5    6
    0.00046306961   2    1000006   -5

DECAY 1000022 -1


DECAY 1000023  19.37982
    0.27646557   2    1000006   -6
    0.27646557   2   -1000006    6
    0.15153121   2    1000015   -15
    0.15153121   2   -1000015    15
    0.065229729   2    1000022    23
    0.064998235   2    1000022    25
    0.0038120494   3    1000022    6   -6
    0.0014415471   2    1000003   -3
    0.0014415471   2   -1000003    3
    0.0011689656   2    1000004   -4
    0.0011689656   2   -1000004    4
    0.001133282   2    1000002   -2
    0.001133282   2   -1000002    2
    0.00092964276   2    1000001   -1
    0.00092964276   2   -1000001    1
    0.00021452189   2    1000016   -16
    0.00021452189   2   -1000016    16
    0.00010151504   3    1000022    5   -5

DECAY 1000025  18.655574
    0.29158813   2    1000006   -6
    0.29158813   2   -1000006    6
    0.15675386   2    1000015   -15
    0.15675386   2   -1000015    15
    0.062663613   2    1000022    25
    0.034789537   2    1000022    23
    0.0039879361   3    1000022    6   -6
    0.00061756681   2    1000003   -3
    0.00061756681   2   -1000003    3
    0.00010780608   3    1000022    5   -5

DECAY 1000035  368.87217
    0.07786966   2    1000002   -2
    0.07786966   2   -1000002    2
    0.077869612   2    1000004   -4
    0.077869612   2   -1000004    4
    0.077835813   2    1000003   -3
    0.077835813   2   -1000003    3
    0.077835797   2    1000001   -1
    0.077835797   2   -1000001    1
    0.025171329   2    1000005   -5
    0.025171329   2   -1000005    5
    0.02458931   2    1000016   -16
    0.02458931   2   -1000016    16
    0.024537807   2    1000015   -15
    0.024537807   2   -1000015    15
    0.024382193   2    2000006   -6
    0.024382193   2   -2000006    6
    0.023606077   2    1000025    23
    0.023585157   2    1000024   -24
    0.023585157   2   -1000024    24
    0.022541442   2    1000023    25
    0.020913374   2    1000025    25
    0.0075226817   2    1000014   -14
    0.0075226817   2   -1000014    14
    0.0075225612   2    1000012   -12
    0.0075225612   2   -1000012    12
    0.007506425   2    1000013   -13
    0.007506425   2   -1000013    13
    0.0075061166   2    1000011   -11
    0.0075061166   2   -1000011    11
    0.0011533006   3    1000024    5   -6
    0.0011533006   3   -1000024   -5    6
    0.0010465249   2    1000023    23
    0.00078611509   3    1000023    6   -6
    0.00072533419   3    1000025    6   -6
    0.00022111223   2    1000006   -6
    0.00022111223   2   -1000006    6

DECAY 1000021  705.97657
    0.089405724   2    1000002   -2
    0.089405724   2   -1000002    2
    0.089405688   2    1000004   -4
    0.089405688   2   -1000004    4
    0.089347278   2    1000001   -1
    0.089347278   2   -1000001    1
    0.089347262   2    1000003   -3
    0.089347262   2   -1000003    3
    0.04890736   2    1000006   -6
    0.04890736   2   -1000006    6
    0.027650488   2    2000006   -6
    0.027650488   2   -2000006    6
    0.0272685   2    1000005   -5
    0.0272685   2   -1000005    5
    0.016076089   2    2000003   -3
    0.016076089   2   -2000003    3
    0.016076032   2    2000001   -1
    0.016076032   2   -2000001    1
    0.0064582436   2    2000005   -5
    0.0064582436   2   -2000005    5

DECAY 25  0.0034842158
    0.62228737   2   -5    5
    0.17694449   2   -24    24
    0.074692652   2    21    21
    0.071192539   2   -15    15
    0.03081686   2   -4    4
    0.020026453   2    23    23
    0.0023375564   2    22    22
    0.0012211115   2    22    23
    0.00024696378   2   -13    13
    0.00023319764   2   -3    3
    6.4476515e-07   2   -1    1
    1.5881796e-07   2   -2    2
    5.552066e-09   2   -11    11

DECAY 35  105.93667
    0.70309119   2   -5    5
    0.28486139   2   -15    15
    0.0067380781   2    1000022    1000023
    0.0032664565   2    1000022    1000025
    0.00087626789   2   -1000015    1000015
    0.00085777841   2   -13    13
    0.00017088003   2   -3    3
    0.00010552039   2   -6    6
    1.9816742e-05   2    1000022    1000022
    8.624992e-06   2    21    21
    2.8401015e-06   2    25    25
    4.7216835e-07   2   -1    1
    1.5555128e-07   2   -1000001    1000001
    1.5538345e-07   2   -1000003    1000003
    1.0608593e-07   2   -1000002    1000002
    1.0600589e-07   2   -1000004    1000004
    2.7698321e-08   2    22    23
    2.6673486e-08   2    22    22
    1.9263322e-08   2   -11    11
    1.796566e-08   2    23    23
    3.716878e-09   2   -24    24
    2.9440705e-09   2   -4    4
    1.3228592e-09   2   -2000003    1000003
    1.3228592e-09   2   -1000003    2000003
    3.6629358e-12   2   -2000001    1000001
    3.6629358e-12   2   -1000001    2000001
    1.5165673e-14   2   -2    2

DECAY 36  99.90601
    0.70331275   2   -5    5
    0.2849706   2   -15    15
    0.0071069651   2    1000022    1000025
    0.0035012666   2    1000022    1000023
    0.00085808364   2   -13    13
    0.00017091954   2   -3    3
    4.4751811e-05   2   -6    6
    2.2318973e-05   2    1000022    1000022
    1.1789754e-05   2    21    21
    4.7227741e-07   2   -1    1
    4.0999349e-08   2    23    25
    1.9270134e-08   2   -11    11
    1.0639094e-08   2    22    22
    4.5677776e-09   2    22    23
    1.685775e-09   2   -4    4
    1.4237273e-09   2   -2000003    1000003
    1.4237273e-09   2   -1000003    2000003
    3.9422443e-12   2   -2000001    1000001
    3.9422443e-12   2   -1000001    2000001
    1.7248909e-14   2    23    35
    8.680691e-15   2   -2    2
    1.3843689e-40   2    25    25

DECAY 37  123.15421
    0.81237208   2   -5    6
    0.17607744   2   -15    16
    0.0086395345   2    1000022    1000024
    0.0012046545   2   -5    4
    0.00062249642   2   -13    14
    0.00052097786   2   -1000003    1000006
    0.00037049124   2   -1000015    1000016
    0.00014756674   2   -3    4
    2.3894387e-05   2   -1000001    1000006
    8.602475e-06   2   -5    2
    6.9349389e-06   2   -3    2
    3.1343941e-06   2   -1000003    2000006
    8.9690826e-07   2   -3    6
    4.0931432e-07   2   -1    2
    2.1152748e-07   2   -1000001    1000002
    2.1103377e-07   2   -1000003    1000004
    1.9085554e-07   2   -1000005    1000004
    1.4375717e-07   2   -1000001    2000006
    3.3265419e-08   2    24    25
    3.105075e-08   2   -1    6
    1.9463164e-08   2   -1    4
    1.4560256e-08   2   -11    12
    1.130463e-08   2   -1000003    1000002
    1.1296873e-08   2   -1000001    1000004
    2.3463278e-09   2   -2000003    1000004
    1.3629053e-09   2   -1000005    1000002
    1.2568357e-10   2   -2000003    1000002
    6.5086403e-12   2   -2000001    1000002
    3.4761321e-13   2   -2000001    1000004

DECAY 6  2.43
    1   2    5    24

DECAY 15 -1
