# SUSY Les Houches Accord 2 - MSSM spectrum + Decays
# SPheno v4.0.5be
# W. Porod, Comput. Phys. Commun. 153 (2003) 275-315, hep-ph/0301101;
# W. Porod, F.~Staub, Comput. Phys. Commun. 183 (2012) 2458
#                     arXiv:1104.1573 [hep-ph] 
# in case of problems send email to porod@physik.uni-wuerzburg.de
# Created: 22.11.2021,  12:47
Block SPINFO         # Program information
     1   SPheno      # spectrum calculator
     2   v4.0.5be    # version number
#
Block SPhenoINFO     # SPheno specific information
    1      2         # using 2-loop RGEs
    2      2         # using pole masses for boundary conditions at mZ
Block MODSEL  # Model selection
    1    0    # general MSSM
Block MINPAR  # Input parameters
    3    3.09591404E+01  # tanb at m_Z    
    4   -1.00000000E+00  # Sign(mu)
Block EXTPAR  # non-universal input parameters
    0    3.65747785E+03  # scale for input parameters
    1   -1.15535799E+03  # M_1
    2    7.20254115E+02  # M_2
    3    2.36405520E+03  # M_3
   11    6.54741094E+03  # A_t
   12    8.56160291E+02  # A_b
   13   -1.84127889E+02  # A_tau
   23   -4.98697793E+02  # mu
   25    2.98448929E+01  # tan(beta)
   26    4.83175049E+03  # m_A, pole mass
   31    6.61586341E+02  # M_L11
   32    6.61586341E+02  # M_L22
   33    1.90178888E+03  # M_L33
   34    1.21323428E+03  # M_E11
   35    1.21323428E+03  # M_E22
   36    1.44341839E+03  # M_E33
   41    1.00000000E+04  # M_Q11
   42    1.00000000E+04  # M_Q22
   43    2.70687932E+03  # M_Q33
   44    1.00000000E+04  # M_U11
   45    1.00000000E+04  # M_U22
   46    4.90740043E+03  # M_U33
   47    1.00000000E+04  # M_D11
   48    1.00000000E+04  # M_D22
   49    3.85057979E+03  # M_D33
Block SMINPUTS  # SM parameters
         1     1.27908970E+02  # alpha_em^-1(MZ)^MSbar
         2     1.16637870E-05  # G_mu [GeV^-2]
         3     1.18400000E-01  # alpha_s(MZ)^MSbar
         4     9.11876000E+01  # m_Z(pole)
         5     4.18000000E+00  # m_b(m_b), MSbar
         6     1.73200000E+02  # m_t(pole)
         7     1.77700000E+00  # m_tau(pole)
         8     0.00000000E+00  # m_nu_3
        11     5.10998930E-04  # m_e(pole)
        12     0.00000000E+00  # m_nu_1
        13     1.05658372E-01  # m_muon(pole)
        14     0.00000000E+00  # m_nu_2
        21     5.00000000E-03  # m_d(2 GeV), MSbar
        22     2.50000000E-03  # m_u(2 GeV), MSbar
        23     9.50000000E-02  # m_s(2 GeV), MSbar
        24     1.27000000E+00  # m_c(m_c), MSbar
Block gauge Q=  3.65747785E+03  # (SUSY scale)
   1    3.55362975E-01  # g'(Q)^DRbar
   2    6.65198874E-01  # g(Q)^DRbar
   3    1.21977796E+00  # g3(Q)^DRbar
Block Yu Q=  3.65747785E+03  # (SUSY scale)
  1  1     8.38907734E-06   # Y_u(Q)^DRbar
  2  2     4.26165129E-03   # Y_c(Q)^DRbar
  3  3     1.01346793E+00   # Y_t(Q)^DRbar
Block Yd Q=  3.65747785E+03  # (SUSY scale)
  1  1     5.03111762E-04   # Y_d(Q)^DRbar
  2  2     9.55912348E-03   # Y_s(Q)^DRbar
  3  3     4.98929215E-01   # Y_b(Q)^DRbar
Block Ye Q=  3.65747785E+03  # (SUSY scale)
  1  1     8.77966815E-05   # Y_e(Q)^DRbar
  2  2     1.81535692E-02   # Y_mu(Q)^DRbar
  3  3     3.05313170E-01   # Y_tau(Q)^DRbar
Block Au Q=  3.65747785E+03  # (SUSY scale)
  1  1     0.00000000E+00   # A_u(Q)^DRbar
  2  2     0.00000000E+00   # A_c(Q)^DRbar
  3  3     6.54741095E+03   # A_t(Q)^DRbar
Block Ad Q=  3.65747785E+03  # (SUSY scale)
  1  1     0.00000000E+00   # A_d(Q)^DRbar
  2  2     0.00000000E+00   # A_s(Q)^DRbar
  3  3     8.56160277E+02   # A_b(Q)^DRbar
Block Ae Q=  3.65747785E+03  # (SUSY scale)
  1  1     0.00000000E+00   # A_e(Q)^DRbar
  2  2     0.00000000E+00   # A_mu(Q)^DRbar
  3  3    -1.84127889E+02   # A_tau(Q)^DRbar
Block MSOFT Q=  3.65747785E+03  # soft SUSY breaking masses at Q
   1   -1.15535799E+03  # M_1
   2    7.20254115E+02  # M_2
   3    2.36405520E+03  # M_3
  21    2.31994945E+07  # M^2_(H,d)
  22   -8.24181626E+04  # M^2_(H,u)
  31    6.61586341E+02  # M_(L,11)
  32    6.61586341E+02  # M_(L,22)
  33    1.90178888E+03  # M_(L,33)
  34    1.21323428E+03  # M_(E,11)
  35    1.21323428E+03  # M_(E,22)
  36    1.44341839E+03  # M_(E,33)
  41    1.00000000E+04  # M_(Q,11)
  42    1.00000000E+04  # M_(Q,22)
  43    2.70687932E+03  # M_(Q,33)
  44    1.00000000E+04  # M_(U,11)
  45    1.00000000E+04  # M_(U,22)
  46    4.90740043E+03  # M_(U,33)
  47    1.00000000E+04  # M_(D,11)
  48    1.00000000E+04  # M_(D,22)
  49    3.85057979E+03  # M_(D,33)
Block MASS  # Mass spectrum
#   PDG code      mass          particle
         6     1.73200000E+02  # m_t(pole)
        23     9.11876000E+01  # m_Z(pole)
        24     8.04299946E+01  # W+
        15     1.77700000E+00  # m_tau(pole)
        25     1.28351831E+02  # h0
        35     4.83055289E+03  # H0
        36     4.83175049E+03  # A0
        37     4.83135557E+03  # H+
   1000001     1.01140367E+04  # ~d_L
   2000001     1.00889669E+04  # ~d_R
   1000002     1.01136803E+04  # ~u_L
   2000002     1.00924072E+04  # ~u_R
   1000003     1.01140390E+04  # ~s_L
   2000003     1.00889707E+04  # ~s_R
   1000004     1.01136827E+04  # ~c_L
   2000004     1.00924080E+04  # ~c_R
   1000005     2.76608327E+03  # ~b_1
   2000005     3.90846889E+03  # ~b_2
   1000006     2.76029634E+03  # ~t_1
   2000006     4.84627103E+03  # ~t_2
   1000011     6.81088778E+02  # ~e_L-
   2000011     1.22253132E+03  # ~e_R-
   1000012     6.76005325E+02  # ~nu_eL
   1000013     6.81063283E+02  # ~mu_L-
   2000013     1.22250365E+03  # ~mu_R-
   1000014     6.75980728E+02  # ~nu_muL
   1000015     1.44047914E+03  # ~tau_1-
   2000015     1.90500911E+03  # ~tau_2-
   1000016     1.90242889E+03  # ~nu_tauL
   1000021     2.79950260E+03  # ~g
   1000022     4.95181341E+02  # ~chi_10
   1000023     5.06291332E+02  # ~chi_20
   1000025     7.78003934E+02  # ~chi_30
   1000035     1.14615966E+03  # ~chi_40
   1000024     4.97063197E+02  # ~chi_1+
   1000037     7.78189535E+02  # ~chi_2+
# Higgs mixing
Block alpha # Effective Higgs mixing angle
          -3.23193563E-02   # alpha
Block Hmix Q=  3.65747785E+03  # Higgs mixing parameters
   1   -4.98697793E+02  # mu
   2    2.98448929E+01  # tan[beta](Q)
   3    2.43005320E+02  # v(Q)
   4    2.33458128E+07  # m^2_A(Q)
Block stopmix # stop mixing matrix
   1  1    -9.98499565E-01   # Re[R_st(1,1)]
   1  2     5.47596395E-02   # Re[R_st(1,2)]
   2  1    -5.47596395E-02   # Re[R_st(2,1)]
   2  2    -9.98499565E-01   # Re[R_st(2,2)]
Block sbotmix # sbottom mixing matrix
   1  1    -9.99989103E-01   # Re[R_sb(1,1)]
   1  2     4.66846715E-03   # Re[R_sb(1,2)]
   2  1    -4.66846715E-03   # Re[R_sb(2,1)]
   2  2    -9.99989103E-01   # Re[R_sb(2,2)]
Block staumix # stau mixing matrix
   1  1    -1.66510237E-02   # Re[R_sta(1,1)]
   1  2     9.99861362E-01   # Re[R_sta(1,2)]
   2  1    -9.99861362E-01   # Re[R_sta(2,1)]
   2  2    -1.66510237E-02   # Re[R_sta(2,2)]
Block Nmix # neutralino mixing matrix
   1  1    -1.75033621E-02   # Re[N(1,1)]
   1  2    -1.98481394E-01   # Re[N(1,2)]
   1  3    -7.00613742E-01   # Re[N(1,3)]
   1  4    -6.85156298E-01   # Re[N(1,4)]
   2  1     4.95256637E-02   # Re[N(2,1)]
   2  2     4.63894475E-02   # Re[N(2,2)]
   2  3    -7.04877268E-01   # Re[N(2,3)]
   2  4     7.06075963E-01   # Re[N(2,4)]
   3  1    -3.85092059E-03   # Re[N(3,1)]
   3  2     9.79004156E-01   # Re[N(3,2)]
   3  3    -1.08595363E-01   # Re[N(3,3)]
   3  4    -1.72461820E-01   # Re[N(3,4)]
   4  1    -9.98612042E-01   # Re[N(4,1)]
   4  2     2.00427447E-03   # Re[N(4,2)]
   4  3    -2.22591211E-02   # Re[N(4,3)]
   4  4     4.76917504E-02   # Re[N(4,4)]
Block Umix # chargino mixing matrix
   1  1    -1.54695403E-01   # Re[U(1,1)]
   1  2    -9.87962212E-01   # Re[U(1,2)]
   2  1     9.87962212E-01   # Re[U(2,1)]
   2  2    -1.54695403E-01   # Re[U(2,2)]
Block Vmix # chargino mixing matrix
   1  1    -2.45532834E-01   # Re[V(1,1)]
   1  2     9.69388275E-01   # Re[V(1,2)]
   2  1     9.69388275E-01   # Re[V(2,1)]
   2  2     2.45532834E-01   # Re[V(2,2)]
DECAY        23     2.49520000E+00   # Z
DECAY        24     2.08500000E+00   # W
DECAY   1000011     6.33029869E-02   # ~e^-_L
#    BR                NDA      ID1      ID2
     4.54569887E-01    2     1000022        11   # BR(~e^-_L -> chi^0_1 e^-)
     5.03087116E-02    2     1000023        11   # BR(~e^-_L -> chi^0_2 e^-)
     4.95121314E-01    2    -1000024        12   # BR(~e^-_L -> chi^-_1 nu_e)
#    BR                NDA      ID1      ID2       ID3
DECAY   2000011     1.01432328E-01   # ~e^-_R
#    BR                NDA      ID1      ID2
     1.29658264E-02    2     1000022        11   # BR(~e^-_R -> chi^0_1 e^-)
     1.01959907E-01    2     1000023        11   # BR(~e^-_R -> chi^0_2 e^-)
     3.17963481E-04    2     1000025        11   # BR(~e^-_R -> chi^0_3 e^-)
     8.84754928E-01    2     1000035        11   # BR(~e^-_R -> chi^0_4 e^-)
DECAY   1000013     6.42232067E-02   # ~mu^-_L
#    BR                NDA      ID1      ID2
     4.55602863E-01    2     1000022        13   # BR(~mu^-_L -> chi^0_1 mu^-)
     5.64716026E-02    2     1000023        13   # BR(~mu^-_L -> chi^0_2 mu^-)
     4.87925448E-01    2    -1000024        14   # BR(~mu^-_L -> chi^-_1 nu_mu)
#    BR                NDA      ID1      ID2       ID3
DECAY   2000013     1.12850476E-01   # ~mu^-_R
#    BR                NDA      ID1      ID2
     3.60112757E-02    2     1000022        13   # BR(~mu^-_R -> chi^0_1 mu^-)
     1.15868765E-01    2     1000023        13   # BR(~mu^-_R -> chi^0_2 mu^-)
     5.82168153E-04    2     1000025        13   # BR(~mu^-_R -> chi^0_3 mu^-)
     7.94693166E-01    2     1000035        13   # BR(~mu^-_R -> chi^0_4 mu^-)
     4.82972761E-02    2    -1000024        14   # BR(~mu^-_R -> chi^-_1 nu_mu)
     6.01307093E-04    2    -1000037        14   # BR(~mu^-_R -> chi^-_2 nu_mu)
     3.94604251E-03    2     1000013        25   # BR(~mu^-_R -> ~mu^-_L h^0)
DECAY   1000015     5.11284146E+00   # ~tau^-_1
#    BR                NDA      ID1      ID2
     2.02530365E-01    2     1000022        15   # BR(~tau^-_1 -> chi^0_1 tau^-)
     2.01847320E-01    2     1000023        15   # BR(~tau^-_1 -> chi^0_2 tau^-)
     1.83334894E-03    2     1000025        15   # BR(~tau^-_1 -> chi^0_3 tau^-)
     1.89934542E-01    2     1000035        15   # BR(~tau^-_1 -> chi^0_4 tau^-)
     4.00154539E-01    2    -1000024        16   # BR(~tau^-_1 -> chi^-_1 nu_tau)
     3.69988531E-03    2    -1000037        16   # BR(~tau^-_1 -> chi^-_2 nu_tau)
DECAY   2000015     2.17187982E+01   # ~tau^-_2
#    BR                NDA      ID1      ID2
     8.29833885E-02    2     1000022        15   # BR(~tau^-_2 -> chi^0_1 tau^-)
     7.16619721E-02    2     1000023        15   # BR(~tau^-_2 -> chi^0_2 tau^-)
     2.57652323E-01    2     1000025        15   # BR(~tau^-_2 -> chi^0_3 tau^-)
     4.45098847E-02    2     1000035        15   # BR(~tau^-_2 -> chi^0_4 tau^-)
     1.45149041E-02    2    -1000024        16   # BR(~tau^-_2 -> chi^-_1 nu_tau)
     5.24227481E-01    2    -1000037        16   # BR(~tau^-_2 -> chi^-_2 nu_tau)
     2.21977039E-03    2     1000015        23   # BR(~tau^-_2 -> ~tau^-_1 Z)
     2.23027672E-03    2     1000015        25   # BR(~tau^-_2 -> ~tau^-_1 h^0)
#    BR                NDA      ID1      ID2       ID3
DECAY   1000012     9.87822521E-02   # ~nu_e
#    BR                NDA      ID1      ID2
     2.31399502E-01    2     1000022        12   # BR(~nu_e -> chi^0_1 nu_e)
     2.30704368E-03    2     1000023        12   # BR(~nu_e -> chi^0_2 nu_e)
     7.66293455E-01    2     1000024        11   # BR(~nu_e -> chi^+_1 e^-)
DECAY   1000014     9.96826457E-02   # ~nu_mu
#    BR                NDA      ID1      ID2
     2.29262378E-01    2     1000022        14   # BR(~nu_mu -> chi^0_1 nu_mu)
     2.28569683E-03    2     1000023        14   # BR(~nu_mu -> chi^0_2 nu_mu)
     7.68451926E-01    2     1000024        13   # BR(~nu_mu -> chi^+_1 mu^-)
DECAY   1000016     2.17592480E+01   # ~nu_tau
#    BR                NDA      ID1      ID2
     1.19634483E-02    2     1000022        16   # BR(~nu_tau -> chi^0_1 nu_tau)
     1.31994800E-04    2     1000023        16   # BR(~nu_tau -> chi^0_2 nu_tau)
     2.56860405E-01    2     1000025        16   # BR(~nu_tau -> chi^0_3 nu_tau)
     4.47792252E-02    2     1000035        16   # BR(~nu_tau -> chi^0_4 nu_tau)
     1.77747001E-01    2     1000024        15   # BR(~nu_tau -> chi^+_1 tau^-)
     5.04094013E-01    2     1000037        15   # BR(~nu_tau -> chi^+_2 tau^-)
     4.42391313E-03    2     1000015        24   # BR(~nu_tau -> ~tau^-_1 W^+)
DECAY   2000001     6.83932987E+02   # ~d_R
#    BR                NDA      ID1      ID2
     8.00213031E-03    2     1000035         1   # BR(~d_R -> chi^0_4 d)
     9.91974992E-01    2     1000021         1   # BR(~d_R -> ~g d)
DECAY   1000001     8.14069947E+02   # ~d_L
#    BR                NDA      ID1      ID2
     2.07720391E-03    2     1000022         1   # BR(~d_L -> chi^0_1 d)
     5.18666708E-02    2     1000025         1   # BR(~d_L -> chi^0_3 d)
     1.72332264E-03    2     1000035         1   # BR(~d_L -> chi^0_4 d)
     2.60465569E-03    2    -1000024         2   # BR(~d_L -> chi^-_1 u)
     1.05491945E-01    2    -1000037         2   # BR(~d_L -> chi^-_2 u)
     8.36159369E-01    2     1000021         1   # BR(~d_L -> ~g d)
DECAY   2000003     6.83969726E+02   # ~s_R
#    BR                NDA      ID1      ID2
     8.00171646E-03    2     1000035         3   # BR(~s_R -> chi^0_4 s)
     9.91922207E-01    2     1000021         3   # BR(~s_R -> ~g s)
DECAY   1000003     8.14092062E+02   # ~s_L
#    BR                NDA      ID1      ID2
     2.08815098E-03    2     1000022         3   # BR(~s_L -> chi^0_1 s)
     5.18655355E-02    2     1000025         3   # BR(~s_L -> chi^0_3 s)
     1.72328706E-03    2     1000035         3   # BR(~s_L -> chi^0_4 s)
     2.60878044E-03    2    -1000024         4   # BR(~s_L -> chi^-_1 c)
     1.05489374E-01    2    -1000037         4   # BR(~s_L -> chi^-_2 c)
     8.36136907E-01    2     1000021         3   # BR(~s_L -> ~g s)
DECAY   1000005     9.64607573E+01   # ~b_1
#    BR                NDA      ID1      ID2
     6.99996639E-02    2     1000022         5   # BR(~b_1 -> chi^0_1 b)
     6.60561486E-02    2     1000023         5   # BR(~b_1 -> chi^0_2 b)
     1.04014488E-01    2     1000025         5   # BR(~b_1 -> chi^0_3 b)
     2.83757355E-03    2     1000035         5   # BR(~b_1 -> chi^0_4 b)
     5.14619815E-01    2    -1000024         6   # BR(~b_1 -> chi^-_1 t)
     2.42472312E-01    2    -1000037         6   # BR(~b_1 -> chi^-_2 t)
DECAY   2000005     1.12589849E+02   # ~b_2
#    BR                NDA      ID1      ID2
     8.15100680E-02    2     1000022         5   # BR(~b_2 -> chi^0_1 b)
     8.26413423E-02    2     1000023         5   # BR(~b_2 -> chi^0_2 b)
     2.02178792E-03    2     1000025         5   # BR(~b_2 -> chi^0_3 b)
     1.62301382E-02    2     1000035         5   # BR(~b_2 -> chi^0_4 b)
     1.61487984E-01    2    -1000024         6   # BR(~b_2 -> chi^-_1 t)
     4.08746645E-03    2    -1000037         6   # BR(~b_2 -> chi^-_2 t)
     6.49784048E-01    2     1000021         5   # BR(~b_2 -> ~g b)
     9.79829940E-04    2     1000006       -24   # BR(~b_2 -> ~t_1 W^-)
     4.84145626E-04    2     1000005        23   # BR(~b_2 -> ~b_1 Z)
     7.73189851E-04    2     1000005        25   # BR(~b_2 -> ~b_1 h^0)
DECAY   2000002     7.00714695E+02   # ~u_R
#    BR                NDA      ID1      ID2
     3.12531462E-02    2     1000035         2   # BR(~u_R -> chi^0_4 u)
     9.68658080E-01    2     1000021         2   # BR(~u_R -> ~g u)
DECAY   1000002     8.14057922E+02   # ~u_L
#    BR                NDA      ID1      ID2
     2.21180080E-03    2     1000022         2   # BR(~u_L -> chi^0_1 u)
     1.65841058E-04    2     1000023         2   # BR(~u_L -> chi^0_2 u)
     5.17204507E-02    2     1000025         2   # BR(~u_L -> chi^0_3 u)
     1.64731406E-03    2     1000035         2   # BR(~u_L -> chi^0_4 u)
     6.56159839E-03    2     1000024         1   # BR(~u_L -> chi^+_1 d)
     1.01560518E-01    2     1000037         1   # BR(~u_L -> chi^+_2 d)
     8.36132477E-01    2     1000021         2   # BR(~u_L -> ~g u)
DECAY   2000004     7.00721991E+02   # ~c_R
#    BR                NDA      ID1      ID2
     3.12528325E-02    2     1000035         4   # BR(~c_R -> chi^0_4 c)
     9.68648052E-01    2     1000021         4   # BR(~c_R -> ~g c)
DECAY   1000004     8.14080016E+02   # ~c_L
#    BR                NDA      ID1      ID2
     2.21383646E-03    2     1000022         4   # BR(~c_L -> chi^0_1 c)
     1.68062692E-04    2     1000023         4   # BR(~c_L -> chi^0_2 c)
     5.17191930E-02    2     1000025         4   # BR(~c_L -> chi^0_3 c)
     1.64727991E-03    2     1000035         4   # BR(~c_L -> chi^0_4 c)
     6.58330036E-03    2     1000024         3   # BR(~c_L -> chi^+_1 s)
     1.01558318E-01    2     1000037         3   # BR(~c_L -> chi^+_2 s)
     8.36110010E-01    2     1000021         4   # BR(~c_L -> ~g c)
DECAY   1000006     9.79107297E+01   # ~t_1
#    BR                NDA      ID1      ID2
     1.18185670E-03    2     1000022         4   # BR(~t_1 -> chi^0_1 c)
     2.51369241E-01    2     1000022         6   # BR(~t_1 -> chi^0_1 t)
     2.66140733E-01    2     1000023         6   # BR(~t_1 -> chi^0_2 t)
     1.20927482E-01    2     1000025         6   # BR(~t_1 -> chi^0_3 t)
     3.22097298E-03    2     1000035         6   # BR(~t_1 -> chi^0_4 t)
     1.33500330E-01    2     1000024         5   # BR(~t_1 -> chi^+_1 b)
     2.08225372E-01    2     1000037         5   # BR(~t_1 -> chi^+_2 b)
#    BR                NDA      ID1      ID2       ID3
     1.53456434E-02    3     1000022        24         5   # BR(~t_1 -> chi^0_1 W^+ b)
DECAY   2000006     5.39865928E+02   # ~t_2
#    BR                NDA      ID1      ID2
     8.52316748E-02    2     1000022         6   # BR(~t_2 -> chi^0_1 t)
     8.93623758E-02    2     1000023         6   # BR(~t_2 -> chi^0_2 t)
     3.77594292E-03    2     1000025         6   # BR(~t_2 -> chi^0_3 t)
     1.82143664E-02    2     1000035         6   # BR(~t_2 -> chi^0_4 t)
     1.71469619E-01    2     1000024         5   # BR(~t_2 -> chi^+_1 b)
     7.70423418E-03    2     1000037         5   # BR(~t_2 -> chi^+_2 b)
     3.14893305E-01    2     1000021         6   # BR(~t_2 -> ~g t)
     1.31518550E-01    2     1000005        24   # BR(~t_2 -> ~b_1 W^+)
     6.59171681E-02    2     1000006        23   # BR(~t_2 -> ~t_1 Z)
     1.11912367E-01    2     1000006        25   # BR(~t_2 -> ~t_1 h^0)
DECAY   1000024     2.08098141E-11   # chi^+_1
#    BR                NDA      ID1      ID2       ID3
     5.73708712E-01    3     1000022        -1         2   # BR(chi^+_1 -> chi^0_1 d_bar u)
     4.58573228E-02    3     1000022        -3         4   # BR(chi^+_1 -> chi^0_1 s_bar c)
     1.91681786E-01    3     1000022       -11        12   # BR(chi^+_1 -> chi^0_1 e^+ nu_e)
     1.88704693E-01    3     1000022       -13        14   # BR(chi^+_1 -> chi^0_1 mu^+ nu_mu)
DECAY   1000037     5.53167494E+00   # chi^+_2
#    BR                NDA      ID1      ID2
     3.30896753E-02    2    -1000011        12   # BR(chi^+_2 -> ~e^+_L nu_e)
     3.31058970E-02    2    -1000013        14   # BR(chi^+_2 -> ~mu^+_L nu_mu)
     3.50347215E-02    2     1000012       -11   # BR(chi^+_2 -> ~nu_e e^+)
     3.50513907E-02    2     1000014       -13   # BR(chi^+_2 -> ~nu_mu mu^+)
     2.15818140E-01    2     1000022        24   # BR(chi^+_2 -> chi^0_1 W^+)
     2.59515784E-01    2     1000023        24   # BR(chi^+_2 -> chi^0_2 W^+)
     2.08262079E-01    2     1000024        23   # BR(chi^+_2 -> chi^+_1 Z)
     1.79474107E-01    2     1000024        25   # BR(chi^+_2 -> chi^+_1 h^0)
#    BR                NDA      ID1      ID2       ID3
     3.07756786E-04    3     1000022        -5         6   # BR(chi^+_2 -> chi^0_1 b_bar t)
     3.40235095E-04    3     1000023        -5         6   # BR(chi^+_2 -> chi^0_2 b_bar t)
DECAY   1000022     0.00000000E+00   # chi^0_1
DECAY   1000023     1.28086056E-06   # chi^0_2
#    BR                NDA      ID1      ID2
     2.39024293E-01    2     1000022        22   # BR(chi^0_2 -> chi^0_1 photon)
#    BR                NDA      ID1      ID2       ID3
     5.11235588E-02    3     1000022         2        -2   # BR(chi^0_2 -> chi^0_1 u u_bar)
     4.29472795E-02    3     1000022         4        -4   # BR(chi^0_2 -> chi^0_1 c c_bar)
     6.55504641E-02    3     1000022         1        -1   # BR(chi^0_2 -> chi^0_1 d d_bar)
     6.54949120E-02    3     1000022         3        -3   # BR(chi^0_2 -> chi^0_1 s s_bar)
     8.28012844E-03    3     1000022         5        -5   # BR(chi^0_2 -> chi^0_1 b b_bar)
     1.47776003E-02    3     1000022        11       -11   # BR(chi^0_2 -> chi^0_1 e^- e^+)
     1.47585414E-02    3     1000022        13       -13   # BR(chi^0_2 -> chi^0_1 mu^- mu^+)
     1.01728353E-02    3     1000022        15       -15   # BR(chi^0_2 -> chi^0_1 tau^- tau^+)
     8.76743486E-02    3     1000022        12       -12   # BR(chi^0_2 -> chi^0_1 nu_e nu_bar_e)
     7.00274392E-02    3     1000024         1        -2   # BR(chi^0_2 -> chi^+_1 d u_bar)
     7.00274392E-02    3    -1000024        -1         2   # BR(chi^0_2 -> chi^-_1 d_bar u)
     6.38564363E-02    3     1000024         3        -4   # BR(chi^0_2 -> chi^+_1 s c_bar)
     6.38564363E-02    3    -1000024        -3         4   # BR(chi^0_2 -> chi^-_1 s_bar c)
     2.33380304E-02    3     1000024        11       -12   # BR(chi^0_2 -> chi^+_1 e^- nu_bar_e)
     2.33380304E-02    3    -1000024       -11        12   # BR(chi^0_2 -> chi^-_1 e^+ nu_e)
     2.33228761E-02    3     1000024        13       -14   # BR(chi^0_2 -> chi^+_1 mu^- nu_bar_mu)
     2.33228761E-02    3    -1000024       -13        14   # BR(chi^0_2 -> chi^-_1 mu^+ nu_mu)
     1.95532373E-02    3     1000024        15       -16   # BR(chi^0_2 -> chi^+_1 tau^- nu_bar_tau)
     1.95532373E-02    3    -1000024       -15        16   # BR(chi^0_2 -> chi^-_1 tau^+ nu_tau)
DECAY   1000025     6.75964405E+00   # chi^0_3
#    BR                NDA      ID1      ID2
     1.31945646E-02    2     1000011       -11   # BR(chi^0_3 -> ~e^-_L e^+)
     1.31945646E-02    2    -1000011        11   # BR(chi^0_3 -> ~e^+_L e^-)
     1.32014140E-02    2     1000013       -13   # BR(chi^0_3 -> ~mu^-_L mu^+)
     1.32014140E-02    2    -1000013        13   # BR(chi^0_3 -> ~mu^+_L mu^-)
     1.46358913E-02    2     1000012       -12   # BR(chi^0_3 -> ~nu_e nu_bar_e)
     1.46358913E-02    2    -1000012        12   # BR(chi^0_3 -> ~nu^*_e nu_e)
     1.46424556E-02    2     1000014       -14   # BR(chi^0_3 -> ~nu_mu nu_bar_mu)
     1.46424556E-02    2    -1000014        14   # BR(chi^0_3 -> ~nu^*_mu nu_mu)
     1.81792521E-01    2     1000024       -24   # BR(chi^0_3 -> chi^+_1 W^-)
     1.81792521E-01    2    -1000024        24   # BR(chi^0_3 -> chi^-_1 W^+)
     1.00249762E-02    2     1000022        23   # BR(chi^0_3 -> chi^0_1 Z)
     2.04598348E-01    2     1000023        23   # BR(chi^0_3 -> chi^0_2 Z)
     1.35110716E-01    2     1000022        25   # BR(chi^0_3 -> chi^0_1 h^0)
     1.74812407E-01    2     1000023        25   # BR(chi^0_3 -> chi^0_2 h^0)
#    BR                NDA      ID1      ID2       ID3
     2.47049394E-04    3     1000024         5        -6   # BR(chi^0_3 -> chi^+_1 b t_bar)
     2.47049394E-04    3    -1000024        -5         6   # BR(chi^0_3 -> chi^-_1 b_bar t)
DECAY   1000035     5.88761320E+00   # chi^0_4
#    BR                NDA      ID1      ID2
     5.06404495E-02    2     1000011       -11   # BR(chi^0_4 -> ~e^-_L e^+)
     5.06404495E-02    2    -1000011        11   # BR(chi^0_4 -> ~e^+_L e^-)
     5.06446735E-02    2     1000013       -13   # BR(chi^0_4 -> ~mu^-_L mu^+)
     5.06446735E-02    2    -1000013        13   # BR(chi^0_4 -> ~mu^+_L mu^-)
     5.22452636E-02    2     1000012       -12   # BR(chi^0_4 -> ~nu_e nu_bar_e)
     5.22452636E-02    2    -1000012        12   # BR(chi^0_4 -> ~nu^*_e nu_e)
     5.22493197E-02    2     1000014       -14   # BR(chi^0_4 -> ~nu_mu nu_bar_mu)
     5.22493197E-02    2    -1000014        14   # BR(chi^0_4 -> ~nu^*_mu nu_mu)
     1.25975389E-01    2     1000024       -24   # BR(chi^0_4 -> chi^+_1 W^-)
     1.25975389E-01    2    -1000024        24   # BR(chi^0_4 -> chi^-_1 W^+)
     1.72652340E-03    2     1000037       -24   # BR(chi^0_4 -> chi^+_2 W^-)
     1.72652340E-03    2    -1000037        24   # BR(chi^0_4 -> chi^-_2 W^+)
     1.11721747E-01    2     1000022        23   # BR(chi^0_4 -> chi^0_1 Z)
     1.50433385E-02    2     1000023        23   # BR(chi^0_4 -> chi^0_2 Z)
     1.67494241E-03    2     1000025        23   # BR(chi^0_4 -> chi^0_3 Z)
     9.18344166E-02    2     1000022        25   # BR(chi^0_4 -> chi^0_1 h^0)
     1.06412399E-01    2     1000023        25   # BR(chi^0_4 -> chi^0_2 h^0)
     1.11842116E-03    2     1000025        25   # BR(chi^0_4 -> chi^0_3 h^0)
#    BR                NDA      ID1      ID2       ID3
     5.16352325E-04    3     1000022         6        -6   # BR(chi^0_4 -> chi^0_1 t t_bar)
     5.30124546E-04    3     1000023         6        -6   # BR(chi^0_4 -> chi^0_2 t t_bar)
     2.00484971E-03    3     1000024         5        -6   # BR(chi^0_4 -> chi^+_1 b t_bar)
     2.00484971E-03    3    -1000024        -5         6   # BR(chi^0_4 -> chi^-_1 b_bar t)
DECAY   1000021     4.88621439E-01   # ~g
#    BR                NDA      ID1      ID2
     1.64031224E-02    2     1000006        -4   # BR(~g -> ~t_1 c_bar)
     1.64031224E-02    2    -1000006         4   # BR(~g -> ~t^*_1 c)
     4.74449942E-02    2     1000005        -5   # BR(~g -> ~b_1 b_bar)
     4.74449942E-02    2    -1000005         5   # BR(~g -> ~b^*_1 b)
     2.98355900E-03    2     1000022        21   # BR(~g -> chi^0_1 g)
     2.42495272E-03    2     1000023        21   # BR(~g -> chi^0_2 g)
#    BR                NDA      ID1      ID2       ID3
     2.19306336E-01    3     1000022         6        -6   # BR(~g -> chi^0_1 t t_bar)
     3.94298448E-03    3     1000022         5        -5   # BR(~g -> chi^0_1 b b_bar)
     2.38301717E-01    3     1000023         6        -6   # BR(~g -> chi^0_2 t t_bar)
     3.96946945E-03    3     1000023         5        -5   # BR(~g -> chi^0_2 b b_bar)
     1.07304982E-01    3     1000025         6        -6   # BR(~g -> chi^0_3 t t_bar)
     2.70806753E-03    3     1000035         6        -6   # BR(~g -> chi^0_4 t t_bar)
     5.40405592E-04    3     1000035         5        -5   # BR(~g -> chi^0_4 b b_bar)
     6.96285022E-02    3     1000024         5        -6   # BR(~g -> chi^+_1 b t_bar)
     6.96285022E-02    3    -1000024        -5         6   # BR(~g -> chi^-_1 b_bar t)
     1.84118501E-04    3     1000037         1        -2   # BR(~g -> chi^+_2 d u_bar)
     1.84118501E-04    3    -1000037        -1         2   # BR(~g -> chi^-_2 d_bar u)
     1.84119912E-04    3     1000037         3        -4   # BR(~g -> chi^+_2 s c_bar)
     1.84119912E-04    3    -1000037        -3         4   # BR(~g -> chi^-_2 s_bar c)
     7.50562605E-02    3     1000037         5        -6   # BR(~g -> chi^+_2 b t_bar)
     7.50562605E-02    3    -1000037        -5         6   # BR(~g -> chi^-_2 b_bar t)
DECAY        25     3.92194257E-03   # Gamma(h0)
     2.58997434E-03   2        22        22   # BR(h0 -> photon photon)
     1.97440889E-03   2        22        23   # BR(h0 -> photon Z)
     4.10864442E-02   2        23        23   # BR(h0 -> Z Z)
     3.18653520E-01   2       -24        24   # BR(h0 -> W W)
     7.75418530E-02   2        21        21   # BR(h0 -> gluon gluon)
     4.31903067E-09   2       -11        11   # BR(h0 -> Electron electron)
     1.92119792E-04   2       -13        13   # BR(h0 -> Muon muon)
     5.54230070E-02   2       -15        15   # BR(h0 -> Tau tau)
     1.22506219E-07   2        -2         2   # BR(h0 -> Up up)
     2.37786495E-02   2        -4         4   # BR(h0 -> Charm charm)
     4.97884432E-07   2        -1         1   # BR(h0 -> Down down)
     1.80073162E-04   2        -3         3   # BR(h0 -> Strange strange)
     4.78579326E-01   2        -5         5   # BR(h0 -> Bottom bottom)
DECAY        35     1.11397906E+02   # Gamma(HH)
     2.13178364E-08   2        22        22   # BR(HH -> photon photon)
     6.41599493E-08   2        22        23   # BR(HH -> photon Z)
     1.12169618E-07   2        23        23   # BR(HH -> Z Z)
     1.92301599E-08   2       -24        24   # BR(HH -> W W)
     2.03532330E-06   2        21        21   # BR(HH -> gluon gluon)
     4.52633846E-09   2       -11        11   # BR(HH -> Electron electron)
     2.01565114E-04   2       -13        13   # BR(HH -> Muon muon)
     6.52959356E-02   2       -15        15   # BR(HH -> Tau tau)
     9.91884587E-14   2        -2         2   # BR(HH -> Up up)
     1.92437753E-08   2        -4         4   # BR(HH -> Charm charm)
     1.52265829E-03   2        -6         6   # BR(HH -> Top top)
     3.75752963E-07   2        -1         1   # BR(HH -> Down down)
     1.35915741E-04   2        -3         3   # BR(HH -> Strange strange)
     3.91925307E-01   2        -5         5   # BR(HH -> Bottom bottom)
     2.53296105E-02   2  -1000024   1000024   # BR(HH -> Chargino1 chargino1)
     1.47751223E-01   2  -1000024   1000037   # BR(HH -> Chargino1 chargino2)
     1.47751223E-01   2  -1000037   1000024   # BR(HH -> Chargino2 chargino1)
     1.02713732E-02   2  -1000037   1000037   # BR(HH -> Chargino2 chargino2)
     8.09628488E-03   2   1000022   1000022   # BR(HH -> neutralino1 neutralino1)
     3.00334656E-03   2   1000022   1000023   # BR(HH -> neutralino1 neutralino2)
     7.26282437E-02   2   1000022   1000025   # BR(HH -> neutralino1 neutralino3)
     2.36438296E-02   2   1000022   1000035   # BR(HH -> neutralino1 neutralino4)
     7.71961691E-05   2   1000023   1000023   # BR(HH -> neutralino2 neutralino2)
     7.61751420E-02   2   1000023   1000025   # BR(HH -> neutralino2 neutralino3)
     1.95464061E-02   2   1000023   1000035   # BR(HH -> neutralino2 neutralino4)
     5.18193326E-03   2   1000025   1000025   # BR(HH -> neutralino3 neutralino3)
     1.32947351E-03   2   1000025   1000035   # BR(HH -> neutralino3 neutralino4)
     2.68110249E-05   2   1000035   1000035   # BR(HH -> neutralino4 neutralino4)
     7.35590749E-07   2        25        25   # BR(HH -> h0 h0)
     5.00900302E-08   2  -1000011   1000011   # BR(HH -> Selectron1 selectron1)
     3.51683343E-14   2  -2000011   1000011   # BR(HH -> Selectron2 selectron1)
     3.51683343E-14   2  -1000011   2000011   # BR(HH -> Selectron1 selectron2)
     2.91388818E-08   2  -2000011   2000011   # BR(HH -> Selectron2 selectron2)
     4.98016311E-08   2  -1000013   1000013   # BR(HH -> Smuon1 smuon1)
     1.50354117E-09   2  -2000013   1000013   # BR(HH -> Smuon2 smuon1)
     1.50354117E-09   2  -1000013   2000013   # BR(HH -> Smuon1 smuon2)
     2.90112623E-08   2  -2000013   2000013   # BR(HH -> Smuon2 smuon2)
     5.62612991E-08   2  -1000015   1000015   # BR(HH -> Stau1 stau1)
     5.11994467E-05   2  -2000015   1000015   # BR(HH -> Stau2 stau1)
     5.11994467E-05   2  -1000015   2000015   # BR(HH -> Stau1 stau2)
     8.74572031E-08   2  -2000015   2000015   # BR(HH -> Stau2 stau2)
DECAY        36     1.08286529E+02   # Gamma(A0)
     1.40299750E-09   2        22        22   # BR(A0 -> photon photon)
     2.54940636E-08   2        22        23   # BR(A0 -> photon Z)
     5.93470987E-06   2        21        21   # BR(A0 -> gluon gluon)
     4.37227787E-09   2       -11        11   # BR(A0 -> Electron electron)
     1.94701172E-04   2       -13        13   # BR(A0 -> Muon muon)
     6.30745998E-02   2       -15        15   # BR(A0 -> Tau tau)
     8.94388214E-14   2        -2         2   # BR(A0 -> Up up)
     1.73519304E-08   2        -4         4   # BR(A0 -> Charm charm)
     1.38247464E-03   2        -6         6   # BR(A0 -> Top top)
     3.62960400E-07   2        -1         1   # BR(A0 -> Down down)
     1.31289932E-04   2        -3         3   # BR(A0 -> Strange strange)
     3.78591345E-01   2        -5         5   # BR(A0 -> Bottom bottom)
     2.50007241E-02   2  -1000024   1000024   # BR(A0 -> Chargino1 chargino1)
     1.53090115E-01   2  -1000024   1000037   # BR(A0 -> Chargino1 chargino2)
     1.53090115E-01   2  -1000037   1000024   # BR(A0 -> Chargino2 chargino1)
     9.53514097E-03   2  -1000037   1000037   # BR(A0 -> Chargino2 chargino2)
     7.65594474E-03   2   1000022   1000022   # BR(A0 -> neutralino1 neutralino1)
     3.47126023E-03   2   1000022   1000023   # BR(A0 -> neutralino1 neutralino2)
     7.04201636E-02   2   1000022   1000025   # BR(A0 -> neutralino1 neutralino3)
     1.92435990E-02   2   1000022   1000035   # BR(A0 -> neutralino1 neutralino4)
     9.44783659E-05   2   1000023   1000023   # BR(A0 -> neutralino2 neutralino2)
     8.34831657E-02   2   1000023   1000025   # BR(A0 -> neutralino2 neutralino3)
     2.54774389E-02   2   1000023   1000035   # BR(A0 -> neutralino2 neutralino4)
     4.83146906E-03   2   1000025   1000025   # BR(A0 -> neutralino3 neutralino3)
     1.07229580E-03   2   1000025   1000035   # BR(A0 -> neutralino3 neutralino4)
     4.75502212E-05   2   1000035   1000035   # BR(A0 -> neutralino4 neutralino4)
     3.05539716E-07   2        23        25   # BR(A0 -> Z h0)
     2.49989156E-14   2        23        35   # BR(A0 -> Z HH)
     8.88557132E-40   2        25        25   # BR(A0 -> h0 h0)
     3.59791778E-14   2  -2000011   1000011   # BR(A0 -> Selectron2 selectron1)
     3.59791778E-14   2  -1000011   2000011   # BR(A0 -> Selectron1 selectron2)
     1.53822224E-09   2  -2000013   1000013   # BR(A0 -> Smuon2 smuon1)
     1.53822224E-09   2  -1000013   2000013   # BR(A0 -> Smuon1 smuon2)
     5.27375424E-05   2  -2000015   1000015   # BR(A0 -> Stau2 stau1)
     5.27375424E-05   2  -1000015   2000015   # BR(A0 -> Stau1 stau2)
DECAY        37     1.23506984E+02   # Gamma(Hp)
     6.20034616E-09   2       -11        12   # BR(Hp -> Electron nu_e)
     2.65084164E-04   2       -13        14   # BR(Hp -> Muon nu_mu)
     7.49809076E-02   2       -15        16   # BR(Hp -> Tau nu_tau)
     3.77261923E-07   2        -1         2   # BR(Hp -> Down up)
     6.40189181E-06   2        -3         2   # BR(Hp -> Strange up)
     4.60944344E-06   2        -5         2   # BR(Hp -> Bottom up)
     1.86229535E-08   2        -1         4   # BR(Hp -> Down charm)
     1.35990116E-04   2        -3         4   # BR(Hp -> Strange charm)
     6.45487171E-04   2        -5         4   # BR(Hp -> Bottom charm)
     1.00237921E-07   2        -1         6   # BR(Hp -> Down top)
     2.38872778E-06   2        -3         6   # BR(Hp -> Strange top)
     4.36230882E-01   2        -5         6   # BR(Hp -> Bottom top)
     4.17985682E-04   2   1000022   1000024   # BR(Hp -> neutralino1 chargino1)
     1.53136084E-01   2   1000022   1000037   # BR(Hp -> neutralino1 chargino2)
     9.81620212E-03   2   1000023   1000024   # BR(Hp -> neutralino2 chargino1)
     1.39223875E-01   2   1000023   1000037   # BR(Hp -> neutralino2 chargino2)
     1.45383686E-01   2   1000024   1000025   # BR(Hp -> chargino1 neutralino3)
     8.90227979E-08   2   1000025   1000037   # BR(Hp -> neutralino3 chargino2)
     3.75050378E-02   2   1000024   1000035   # BR(Hp -> chargino1 neutralino4)
     2.15158533E-03   2   1000035   1000037   # BR(Hp -> neutralino4 chargino2)
     2.67884492E-07   2        24        25   # BR(Hp -> W h0)
     1.77518399E-07   2  -1000011   1000012   # BR(Hp -> Selectron1 snu_e1)
     6.47026623E-14   2  -2000011   1000012   # BR(Hp -> Selectron2 snu_e1)
     1.77153125E-07   2  -1000013   1000014   # BR(Hp -> Smuon1 snu_mu1)
     2.76617694E-09   2  -2000013   1000014   # BR(Hp -> Smuon2 snu_mu1)
     9.24034958E-05   2  -1000015   1000016   # BR(Hp -> Stau1 snu_tau1)
     1.72789797E-07   2  -2000015   1000016   # BR(Hp -> Stau2 snu_tau1)
DECAY         6     2.43000000E+00   # top
#    BR                NDA      ID1      ID2
     1.00000000E+00    2           5        24   # BR(t -> b W)
Block HiggsBoundsInputHiggsCouplingsFermions
# ScalarNormEffCoupSq PseudoSNormEffCoupSq NP IP1 IP2 IP2
    9.31111179E-01    0.00000000E+00        3  25   5   5  # h0-b-b eff. coupling^2, normalised to SM
    8.90786521E+02    0.00000000E+00        3  35   5   5  # H0-b-b eff. coupling^2, normalised to SM
    0.00000000E+00    8.90717632E+02        3  36   5   5  # A0-b-b eff. coupling^2, normalised to SM
#
    1.00007734E+00    0.00000000E+00        3  25   6   6  # h0-t-t eff. coupling^2, normalised to SM
    1.04534944E-03    0.00000000E+00        3  35   6   6  # H0-t-t eff. coupling^2, normalised to SM
    0.00000000E+00    1.12269025E-03        3  36   6   6  # A0-t-t eff. coupling^2, normalised to SM
#
    9.31111179E-01    0.00000000E+00        3  25  15  15  # h0-tau-tau eff. coupling^2, normalised to SM
    8.90786521E+02    0.00000000E+00        3  35  15  15  # H0-tau-tau eff. coupling^2, normalised to SM
    0.00000000E+00    8.90717632E+02        3  36  15  15  # A0-tau-tau eff. coupling^2, normalised to SM
#
Block HiggsBoundsInputHiggsCouplingsBosons
    9.99998620E-01        3  25  24  24  # h0-W-W eff. coupling^2, normalised to SM
    1.37988000E-06        3  35  24  24  # H0-W-W eff. coupling^2, normalised to SM
    0.00000000E+00        3  36  24  24  # A0-W-W eff. coupling^2, normalised to SM
#
    9.99998620E-01        3  25  23  23  # h0-Z-Z eff. coupling^2, normalised to SM
    1.37988000E-06        3  35  23  23  # H0-Z-Z eff. coupling^2, normalised to SM
    0.00000000E+00        3  36  23  23  # A0-Z-Z eff. coupling^2, normalised to SM
#
    1.26623788E+00        3  25  21  21  # h0-g-g eff. coupling^2, normalised to SM
    2.09204543E-03        3  35  21  21  # H0-g-g eff. coupling^2, normalised to SM
    9.82159003E-02        3  36  21  21  # A0-g-g eff. coupling^2, normalised to SM
#
    0.00000000E+00        3  25  25  23  # h0-h0-Z eff. coupling^2, normalised to SM
    0.00000000E+00        3  35  25  23  # H0-h0-Z eff. coupling^2, normalised to SM
    1.37988000E-06        3  36  25  23  # A0-h0-Z eff. coupling^2, normalised to SM
    0.00000000E+00        3  35  35  23  # H0-H0-Z eff. coupling^2, normalised to SM
    9.99998620E-01        3  36  35  23  # A0-H0-Z eff. coupling^2, normalised to SM
    0.00000000E+00        3  36  36  23  # A0-A0-Z eff. coupling^2, normalised to SM
#
    0.00000000E+00        4  25  21  21  23  # h0-g-g-Z eff. coupling^2, normalised to SM
    0.00000000E+00        4  35  21  21  23  # H0-g-g-Z eff. coupling^2, normalised to SM
    0.00000000E+00        4  36  21  21  23  # A0-g-g-Z eff. coupling^2, normalised to SM
Block SPhenoLowEnergy  # low energy observables
    1    3.13292611E-04   # BR(b -> s gamma)
    2    1.59119684E-06   # BR(b -> s mu+ mu-)
    3    3.52528949E-05   # BR(b -> s nu nu)
    4    3.26463154E-15   # BR(Bd -> e+ e-)
    5    1.39460478E-10   # BR(Bd -> mu+ mu-)
    6    2.91427576E-08   # BR(Bd -> tau+ tau-)
    7    1.11590816E-13   # BR(Bs -> e+ e-)
    8    4.76712502E-09   # BR(Bs -> mu+ mu-)
    9    1.00928866E-06   # BR(Bs -> tau+ tau-)
   10    9.65871384E-05   # BR(B_u -> tau nu)
   11    9.97708162E-01   # BR(B_u -> tau nu)/BR(B_u -> tau nu)_SM
   12    5.41830703E-01   # |Delta(M_Bd)| [ps^-1] 
   13    1.93599359E+01   # |Delta(M_Bs)| [ps^-1] 
   14    0.00000000E+00   # neutron EDM according to the chiral quark model
   15    0.00000000E+00   # neutron EDM according to the relativistic quark-parton model
   16    2.15676881E-03   # epsilon_K
   17    2.28165273E-15   # Delta(M_K)
   18    2.48028352E-11   # BR(K^0 -> pi^0 nu nu)
   19    8.29108776E-11   # BR(K^+ -> pi^+ nu nu)
   20   -2.69087917E-15   # Delta(g-2)_electron/2
   21   -1.14960568E-10   # Delta(g-2)_muon/2
   22   -2.91328034E-08   # Delta(g-2)_tau/2
   23    0.00000000E+00   # electric dipole moment of the electron
   24    0.00000000E+00   # electric dipole moment of the muon
   25    0.00000000E+00   # electric dipole moment of the tau
   26    0.00000000E+00   # Br(mu -> e gamma)
   27    0.00000000E+00   # Br(tau -> e gamma)
   28    0.00000000E+00   # Br(tau -> mu gamma)
   29    0.00000000E+00   # Br(mu -> 3 e)
   30    0.00000000E+00   # Br(tau -> 3 e)
   31    0.00000000E+00   # Br(tau -> 3 mu)
   39    7.38326992E-05   # Delta(rho_parameter)
   40    0.00000000E+00   # BR(Z -> e mu)
   41    0.00000000E+00   # BR(Z -> e tau)
   42    0.00000000E+00   # BR(Z -> mu tau)
Block FWCOEF Q=  1.60000000E+02  # Wilson coefficients at scale Q
#    id        order  M        value         comment
     0305 4422   00   0    -1.88819110E-01   # C7
     0305 4422   00   2    -1.80603375E-01   # C7
     0305 4322   00   2    -2.79288637E-05   # C7'
     0305 6421   00   0    -9.52278348E-02   # C8
     0305 6421   00   2    -9.14143880E-02   # C8
     0305 6321   00   2    -4.00256581E-05   # C8'
 03051111 4133   00   0     1.62354512E+00   # C9 e+e-
 03051111 4133   00   2     1.62369192E+00   # C9 e+e-
 03051111 4233   00   2     3.44063450E-04   # C9' e+e-
 03051111 4137   00   0    -4.44623722E+00   # C10 e+e-
 03051111 4137   00   2    -4.44456343E+00   # C10 e+e-
 03051111 4237   00   2    -2.55764803E-03   # C10' e+e-
 03051313 4133   00   0     1.62354512E+00   # C9 mu+mu-
 03051313 4133   00   2     1.62369101E+00   # C9 mu+mu-
 03051313 4233   00   2     3.44063161E-04   # C9' mu+mu-
 03051313 4137   00   0    -4.44623722E+00   # C10 mu+mu-
 03051313 4137   00   2    -4.44456432E+00   # C10 mu+mu-
 03051313 4237   00   2    -2.55764889E-03   # C10' mu+mu-
 03051212 4137   00   0     1.50535012E+00   # C11 nu_1 nu_1
 03051212 4137   00   2     1.50501716E+00   # C11 nu_1 nu_1
 03051212 4237   00   2     5.53449423E-04   # C11' nu_1 nu_1
 03051414 4137   00   0     1.50535012E+00   # C11 nu_2 nu_2
 03051414 4137   00   2     1.50501716E+00   # C11 nu_2 nu_2
 03051414 4237   00   2     5.53449427E-04   # C11' nu_2 nu_2
 03051616 4137   00   0     1.50535012E+00   # C11 nu_3 nu_3
 03051616 4137   00   2     1.50501619E+00   # C11 nu_3 nu_3
 03051616 4237   00   2     5.53450518E-04   # C11' nu_3 nu_3
Block IMFWCOEF Q=  1.60000000E+02  # Im(Wilson coefficients) at scale Q
#    id        order  M        value         comment
     0305 4422   00   0     3.85840326E-07   # C7
     0305 4422   00   2    -2.18871046E-05   # C7
     0305 4322   00   2     5.79718101E-07   # C7'
     0305 6421   00   0     3.30497756E-07   # C8
     0305 6421   00   2     2.01238704E-05   # C8
     0305 6321   00   2     7.18712941E-07   # C8'
 03051111 4133   00   2    -9.81819486E-07   # C9 e+e-
 03051111 4233   00   2     6.34330734E-06   # C9' e+e-
 03051111 4137   00   2     4.71209772E-06   # C10 e+e-
 03051111 4237   00   2    -4.71548096E-05   # C10' e+e-
 03051313 4133   00   2    -9.82017764E-07   # C9 mu+mu-
 03051313 4233   00   2     6.34330257E-06   # C9' mu+mu-
 03051313 4137   00   2     4.71230096E-06   # C10 mu+mu-
 03051313 4237   00   2    -4.71548255E-05   # C10' mu+mu-
 03051212 4137   00   2    -4.93133897E-07   # C11 nu_1 nu_1
 03051212 4237   00   2     1.02038295E-05   # C11' nu_1 nu_1
 03051414 4137   00   2    -4.93136989E-07   # C11 nu_2 nu_2
 03051414 4237   00   2     1.02038295E-05   # C11' nu_2 nu_2
 03051616 4137   00   2    -5.10524194E-07   # C11 nu_3 nu_3
 03051616 4237   00   2     1.02038282E-05   # C11' nu_3 nu_3
