BLOCK DCINFO
   1   SDECAY/HDECAY
   2   1.3b /3.4

BLOCK SPINFO
   1   SOFTSUSY
   2   3.4.0

BLOCK MODSEL
   1   0

BLOCK SMINPUTS
   1    127.90897
   2    1.1663787e-05
   3    0.1184
   4    91.1876
   5    4.18
   6    173.2
   7    1.777

BLOCK MINPAR
   3    9.29

BLOCK EXTPAR
   0   -1
   1    772.82
   2   -2188.34
   3    2981.64
   11   -4456.3
   12    741.76
   13    875.1
   23   -1593.41
   26    2865.23
   31    3534.43
   32    3534.43
   33    3046.49
   34    2617.11
   35    2617.11
   36    2674.91
   41    371.32
   42    371.32
   43    3553.78
   44    3389.76
   45    3389.76
   46    3318.49
   47    3833.16
   48    3833.16
   49    2568.88

BLOCK MASS
   24    80.385369
   25    124.7219
   35    2865.3946
   36    2865.23
   37    2866.5335
   5    4.8187603
   1000001    791.95251
   2000001    3919.2799
   1000002    788.00893
   2000002    3486.5432
   1000003    791.95251
   2000003    3919.2799
   1000004    788.00893
   2000004    3486.5432
   1000005    2697.9029
   2000005    3617.372
   1000006    3322.4916
   2000006    3643.9841
   1000011    3546.5543
   2000011    2626.3685
   1000012    3545.3834
   1000013    3546.5543
   2000013    2626.3685
   1000014    3545.3834
   1000015    2683.2642
   2000015    3060.2999
   1000016    3058.941
   1000021    3158.5251
   1000022    766.05395
   1000023   -1628.5887
   1000025    1635.9176
   1000035   -2199.9703
   1000024    1628.9572
   1000037    2200.1381

BLOCK NMIX
   1   1    0.99938108
   1   2    0.00024381654
   1   3   -0.032890486
   1   4   -0.012474766
   2   1   -0.014370737
   2   2   -0.11387134
   2   3   -0.70351164
   2   4    0.70135453
   3   1    0.032074103
   3   2   -0.012707608
   3   3    0.70630257
   3   4    0.70706891
   4   1   -0.0014822574
   4   2    0.9934142
   4   3   -0.071597908
   4   4    0.08944142

BLOCK UMIX
   1   1    0.095576115
   1   2    0.99542213
   2   1   -0.99542213
   2   2    0.095576115

BLOCK VMIX
   1   1   -0.12082068
   1   2   -0.99267435
   2   1    0.99267435
   2   2   -0.12082068

BLOCK STOPMIX
   1   1    0.28062586
   1   2    0.95981724
   2   1   -0.95981724
   2   2    0.28062586

BLOCK SBOTMIX
   1   1   -0.0060044645
   1   2    0.99998197
   2   1   -0.99998197
   2   2   -0.0060044645

BLOCK STAUMIX
   1   1   -0.012728791
   1   2    0.99991899
   2   1   -0.99991899
   2   2   -0.012728791

BLOCK ALPHA
      -0.11291922

BLOCK HMIX Q=  3434.49
   1   -1616.3222
   2    8.8454366
   3    242.60338
   4    8362385.5

BLOCK GAUGE Q=  3434.49
   1    0.36522601
   2    0.63726079
   3    1.0086672

BLOCK AU Q=  3434.49
   1   1    0
   2   2    0
   3   3   -4456.3

BLOCK AD Q=  3434.49
   1   1    0
   2   2    0
   3   3    741.76

BLOCK AE Q=  3434.49
   1   1    0
   2   2    0
   3   3    875.1

BLOCK YU Q=  3434.49
   1   1    0
   2   2    0
   3   3    0.81692147

BLOCK YD Q=  3434.49
   1   1    0
   2   2    0
   3   3    0.1244689

BLOCK YE Q=  3434.49
   1   1    0
   2   2    0
   3   3    0.09205234

BLOCK MSOFT Q=  3434.49
   1    772.82
   2   -2188.34
   3    2981.64
   21    5380220.4
   22   -2319958.3
   31    3534.43
   32    3534.43
   33    3046.49
   34    2617.11
   35    2617.11
   36    2674.91
   41    371.31991
   42    371.31991
   43    3553.78
   44    3389.76
   45    3389.76
   46    3318.49
   47    3833.16
   48    3833.16
   49    2568.88

BLOCK HIGGSBOUNDSINPUTHIGGSCOUPLINGSFERMIONS
       0, 78.241748,3,36,15,15

BLOCK HIGGSBOUNDSINPUTHIGGSCOUPLINGSBOSONS
       0,4,36,21,21,23

DECAY 6  1.4304301
    1   2    5    24

DECAY 1000021  222.7846
    0.12250296   2    1000002   -2
    0.12250296   2   -1000002    2
    0.12250296   2    1000004   -4
    0.12250296   2   -1000004    4
    0.12233984   2    1000001   -1
    0.12233984   2   -1000001    1
    0.12233984   2    1000003   -3
    0.12233984   2   -1000003    3
    0.010314401   2    1000005   -5
    0.010314401   2   -1000005    5

DECAY 1000006  55.078706
    0.39745998   2    1000024    5
    0.22354029   2    1000023    6
    0.2169393   2    1000025    6
    0.11917527   2    1000022    6
    0.028051695   2    1000037    5
    0.014787917   2    1000035    6
    4.5547995e-05   2    1000005    24

DECAY 2000006  69.868494
    0.22849142   2    1000025    6
    0.21982869   2    1000023    6
    0.14075927   2    1000037    5
    0.13210266   2    1000021    6
    0.073506505   2    1000035    6
    0.069701948   2    1000024    5
    0.068581598   2    1000006    23
    0.052003235   2    1000006    25
    0.013712734   2    1000022    6
    0.0013119323   2    1000005    24

DECAY 1000005  2.0038778
    0.67094464   2    1000022    5
    0.16227053   2   -1000024    6
    0.083591166   2    1000023    5
    0.082902612   2    1000025    5
    0.00017442281   2   -1000037    6
    0.0001166275   2    1000035    5

DECAY 2000005  67.850464
    0.43896859   2   -1000024    6
    0.17640107   2   -1000037    6
    0.16246336   2    1000021    5
    0.11697359   2    1000006   -24
    0.084497982   2    1000035    5
    0.0071486347   2    1000022    5
    0.006817976   2    1000023    5
    0.0052438185   2    1000025    5
    0.00078643261   2    1000005    25
    0.00069854931   2    1000005    23

DECAY 1000002  0.00039893026
    1   2    1000022    2

DECAY 2000002  15.550663
    0.54271436   2    1000021    2
    0.45690354   2    1000022    2
    0.00031760975   2    1000025    2
    6.407774e-05   2    1000023    2
    4.0660627e-07   2    1000035    2

DECAY 1000001  0.00054333474
    1   2    1000022    1

DECAY 2000001  38.298088
    0.94667629   2    1000021    1
    0.053274832   2    1000022    1
    4.0630803e-05   2    1000025    1
    8.1869448e-06   2    1000023    1
    5.9962283e-08   2    1000035    1

DECAY 1000004  0.00035024545
    1   2    1000022    4

DECAY 2000004  13.496927
    0.55124622   2    1000022    4
    0.44829515   2    1000021    4
    0.00038122752   2    1000025    4
    7.6917063e-05   2    1000023    4
    4.8494093e-07   2    1000035    4

DECAY 1000003  0.0004814217
    1   2    1000022    3

DECAY 2000003  28.130697
    0.92402133   2    1000021    3
    0.075909338   2    1000022    3
    5.7636739e-05   2    1000025    3
    1.161409e-05   2    1000023    3
    8.4682481e-08   2    1000035    3

DECAY 1000011  20.657285
    0.52009253   2   -1000037    12
    0.25860478   2    1000035    11
    0.2069609   2    1000022    11
    0.0078884468   2   -1000024    12
    0.0064395028   2    1000023    11
    1.3840471e-05   2    1000025    11

DECAY 2000011  11.660368
    0.9994456   2    1000022    11
    0.00046064293   2    1000025    11
    9.3523808e-05   2    1000023    11
    2.3378564e-07   2    1000035    11

DECAY 1000013  20.657285
    0.52009253   2   -1000037    14
    0.25860478   2    1000035    13
    0.2069609   2    1000022    13
    0.0078884469   2   -1000024    14
    0.0064395028   2    1000023    13
    1.3840471e-05   2    1000025    13

DECAY 2000013  11.660368
    0.9994456   2    1000022    13
    0.00046064292   2    1000025    13
    9.3523808e-05   2    1000023    13
    2.3378563e-07   2    1000035    13

DECAY 1000015  12.367528
    0.97022513   2    1000022    15
    0.014693517   2   -1000024    16
    0.0076261949   2    1000025    15
    0.0074543204   2    1000023    15
    5.9060935e-07   2    1000035    15
    2.4218049e-07   2   -1000037    16

DECAY 2000015  12.633777
    0.45273184   2   -1000037    16
    0.28237412   2    1000022    15
    0.22520644   2    1000035    15
    0.017669824   2    1000023    15
    0.010465809   2    1000025    15
    0.0088321647   2   -1000024    16
    0.001380979   2    1000015    25
    0.0013388265   2    1000015    23

DECAY 1000012  20.660873
    0.51653737   2    1000037    11
    0.25914586   2    1000035    12
    0.20649137   2    1000022    12
    0.012595142   2    1000024    11
    0.0048151852   2    1000023    12
    0.00041508359   2    1000025    12

DECAY 1000014  20.660873
    0.51653736   2    1000037    13
    0.25914586   2    1000035    14
    0.20649137   2    1000022    14
    0.012595142   2    1000024    13
    0.0048151852   2    1000023    14
    0.00041508359   2    1000025    14

DECAY 1000016  12.637239
    0.44907899   2    1000037    15
    0.28156426   2    1000022    16
    0.22527896   2    1000035    16
    0.035374307   2    1000024    15
    0.0056022248   2    1000023    16
    0.00261945   2   -1000015   -24
    0.00048181027   2    1000025    16

DECAY 1000024  1.33262
    0.58192339   2    1000022    24
    0.12887955   2    1000002   -1
    0.12887954   2    1000004   -3
    0.080158792   2   -1000001    2
    0.08015873   2   -1000003    4

DECAY 1000037  94.647427
    0.2111283   2   -1000001    2
    0.21112826   2   -1000003    4
    0.21058119   2    1000002   -1
    0.21058119   2    1000004   -3
    0.045167379   2    1000023    24
    0.037824422   2    1000024    23
    0.037053445   2    1000024    25
    0.036213939   2    1000025    24
    0.00032186417   2    1000022    24

DECAY 1000022 -1


DECAY 1000023  1.4048195
    0.46952345   2    1000022    23
    0.097308769   2    1000022    25
    0.056920153   2    1000002   -2
    0.056920153   2   -1000002    2
    0.05692011   2    1000004   -4
    0.05692011   2   -1000004    4
    0.051371815   2    1000001   -1
    0.051371815   2   -1000001    1
    0.051371815   2    1000003   -3
    0.051371815   2   -1000003    3

DECAY 1000025  0.84724921
    0.82179991   2    1000022    25
    0.16710231   2    1000022    23
    0.0024710278   2    1000001   -1
    0.0024710278   2   -1000001    1
    0.0024710278   2    1000003   -3
    0.0024710278   2   -1000003    3
    0.00030341782   2    1000002   -2
    0.00030341782   2   -1000002    2
    0.0003034176   2    1000004   -4
    0.0003034176   2   -1000004    4

DECAY 1000035  93.38432
    0.10680053   2    1000002   -2
    0.10680053   2   -1000002    2
    0.10680051   2    1000004   -4
    0.10680051   2   -1000004    4
    0.10660909   2    1000001   -1
    0.10660909   2   -1000001    1
    0.10660909   2    1000003   -3
    0.10660909   2   -1000003    3
    0.040954318   2    1000025    23
    0.036797775   2    1000023    25
    0.03360371   2    1000024   -24
    0.03360371   2   -1000024    24
    0.00053802052   2    1000023    23
    0.00049253196   2    1000025    25
    0.00029933055   2    1000022    23
    7.2184044e-05   2    1000022    25

DECAY 25  0.0039084739
    0.59114545   2    5   -5
    0.20872227   2    24   -24
    0.081168255   2    21    21
    0.066452999   2   -15    15
    0.025920788   2    23    23
    0.022148789   2    4   -4
    0.0023907776   2    22    22
    0.0015584758   2    22    23
    0.00025697287   2    3   -3
    0.00023522205   2   -13    13

DECAY 35  5.5163806
    0.46671365   2    5   -5
    0.27074136   2    6   -6
    0.11795534   2    1000022    1000023
    0.082669437   2   -15    15
    0.059182749   2    1000022    1000025
    0.00088412571   2    1000022    1000022
    0.00054857284   2    25    25
    0.00029294209   2   -13    13
    0.00020992897   2    3   -3
    0.00016261096   2    24   -24
    0.00013004675   2    1000001   -1000001
    0.00013004675   2    1000003   -1000003
    0.00011713899   2    21    21
    8.8808065e-05   2    1000002   -1000002
    8.8808065e-05   2    1000004   -1000004
    8.1115242e-05   2    23    23
    2.7579014e-06   2    4   -4
    3.7402198e-07   2    22    22
    1.898157e-07   2    23    22

DECAY 36  5.5106504
    0.46737641   2    5   -5
    0.27196311   2    6   -6
    0.11464355   2    1000022    1000025
    0.082757288   2   -15    15
    0.061250544   2    1000022    1000023
    0.001043661   2    1000022    1000022
    0.00029344985   2    21    21
    0.00029325292   2   -13    13
    0.00021034122   2    3   -3
    0.00016484129   2    23    25
    2.7692723e-06   2    4   -4
    4.3705669e-07   2    22    22
    3.48574e-07   2    23    22

DECAY 37  5.5644666
    0.73797855   2    6   -5
    0.17812147   2    1000024    1000022
    0.081994195   2   -15    16
    0.00079695346   2    4   -5
    0.00029054887   2   -13    14
    0.00021434947   2    1000002   -1000001
    0.00021434947   2    1000004   -1000003
    0.0002076184   2    4   -3
    0.00016358264   2    24    25
    1.0414471e-05   2    2   -3
    7.9694802e-06   2    2   -5
    8.8988729e-13   2    24    36

DECAY 5 -1


DECAY 15 -1


DECAY 23  2.4952


DECAY 24  2.085
