BLOCK SPINFO
   1   SPheno
   2   v4.0.5be

BLOCK SPHENOINFO
   1   2
   2   2

BLOCK MODSEL
   1   0

BLOCK MINPAR
   3    13.2757
   4   -1

BLOCK EXTPAR
   0    4013.0963
   1    928.15898
   2   -1658.1087
   3    4882.1193
   11    3030.2716
   12   -6196.7693
   13    3780.0413
   23   -3361.3225
   25    12.635047
   26    3492.3334
   31    2406.2216
   32    2406.2216
   33    4154.3813
   34    2707.7157
   35    2707.7157
   36    3828.0807
   41    1018.6126
   42    1018.6126
   43    3965.1567
   44    955.74757
   45    955.74757
   46    3794.8474
   47    4385.3203
   48    4385.3203
   49    579.10508

BLOCK SMINPUTS
   1    127.90897
   2    1.1663787e-05
   3    0.1184
   4    91.1876
   5    4.18
   6    173.2
   7    1.777
   8    0
   11    0.00051099893
   12    0
   13    0.10565837
   14    0
   21    0.005
   22    0.0025
   23    0.095
   24    1.27

BLOCK GAUGE Q=  4013.0963
   1    0.35536298
   2    0.66519887
   3    1.219778

BLOCK YU Q=  4013.0963
   1   1    8.4105907e-06
   2   2    0.0042725801
   3   3    1.0160669

BLOCK YD Q=  4013.0963
   1   1    0.00021354214
   2   2    0.0040573007
   3   3    0.21176689

BLOCK YE Q=  4013.0963
   1   1    3.7264665e-05
   2   2    0.0077051509
   3   3    0.12958796

BLOCK AU Q=  4013.0963
   1   1    0
   2   2    0
   3   3    3030.2712

BLOCK AD Q=  4013.0963
   1   1    0
   2   2    0
   3   3   -6196.7734

BLOCK AE Q=  4013.0963
   1   1    0
   2   2    0
   3   3    3780.0414

BLOCK MSOFT Q=  4013.0963
   1    928.15898
   2   -1658.1087
   3    4882.1193
   21    654966.86
   22   -10969583
   31    2406.2216
   32    2406.2216
   33    4154.3813
   34    2707.7157
   35    2707.7157
   36    3828.0807
   41    1018.6126
   42    1018.6126
   43    3965.1567
   44    955.74757
   45    955.74757
   46    3794.8474
   47    4385.3203
   48    4385.3203
   49    579.10508

BLOCK MASS
   6    173.2
   23    91.1876
   24    80.429995
   15    1.777
   25    120.93653
   35    3492.3762
   36    3492.3334
   37    3493.5003
   1000001    1309.87
   2000001    4536.3064
   1000002    1307.4389
   2000002    1223.5486
   1000003    1309.8699
   2000003    4536.3054
   1000004    1307.439
   2000004    1223.5494
   1000005    922.6907
   2000005    4109.1568
   1000006    3904.6893
   2000006    4124.5131
   1000011    2422.2918
   2000011    2711.7205
   1000012    2420.6157
   1000013    2422.2864
   2000013    2711.7172
   1000014    2420.6134
   1000015    3830.5373
   2000015    4165.4124
   1000016    4163.9353
   1000021    4952.6605
   1000022    913.03661
   1000023   -1671.0634
   1000025    3370.6793
   1000035   -3372.042
   1000024    1671.2919
   1000037    3372.7372

BLOCK ALPHA
      -0.075324279

BLOCK HMIX Q=  4013.0963
   1   -3361.3225
   2    12.635047
   3    242.96513
   4    12196393

BLOCK STOPMIX
   1   1   -0.25923992
   1   2    0.96581295
   2   1   -0.96581295
   2   2   -0.25923992

BLOCK SBOTMIX
   1   1   -0.006305713
   1   2    0.99998012
   2   1   -0.99998012
   2   2   -0.006305713

BLOCK STAUMIX
   1   1   -0.031379179
   1   2    0.99950755
   2   1   -0.99950755
   2   2   -0.031379179

BLOCK NMIX
   1   1    0.99989987
   1   2    4.8675494e-05
   1   3   -0.013890136
   1   4   -0.0027058373
   2   1    0.00033849906
   2   2    0.9993661
   2   3    0.031206404
   2   4   -0.017130152
   3   1    0.011734196
   3   2   -0.0099573356
   3   3    0.70691582
   3   4    0.70713025
   4   1    0.0079027762
   4   2   -0.034179606
   4   3    0.7064724
   4   4   -0.7068706

BLOCK UMIX
   1   1   -0.99903136
   1   2   -0.044003841
   2   1   -0.044003841
   2   2    0.99903136

BLOCK VMIX
   1   1    0.9997079
   1   2    0.0241684
   2   1    0.0241684
   2   2   -0.9997079

BLOCK HIGGSBOUNDSINPUTHIGGSCOUPLINGSFERMIONS
       0, 159.6444,3,36,15,15

BLOCK HIGGSBOUNDSINPUTHIGGSCOUPLINGSBOSONS
       0,4,36,21,21,23

BLOCK SPHENOLOWENERGY
   1    0.0003249824
   2    1.5900531e-06
   3    3.5261924e-05
   4    2.4412041e-15
   5    1.0428546e-10
   6    2.1830824e-08
   7    8.2435597e-14
   8    3.5216459e-09
   9    7.4696047e-07
   10    9.6725328e-05
   11    0.99913561
   12    0.54183392
   13    19.359712
   14    0
   15    0
   16    0.0021566991
   17    2.281652e-15
   18    2.4805262e-11
   19    8.2917854e-11
   20    4.4254398e-16
   21    1.8919998e-11
   22    3.8846559e-09
   23    0
   24    0
   25    0
   26    0
   27    0
   28    0
   29    0
   30    0
   31    0
   39    6.7954742e-06
   40    0
   41    0
   42    0

BLOCK FWCOEF Q=  160
   305   4422   0   0   -0.18881911
   305   4422   0   2   -0.19366884
   305   4322   0   2   -9.2761901e-05
   305   6421   0   0   -0.095227835
   305   6421   0   2   -0.10186066
   305   6321   0   2   -0.00012788498
   3051111   4133   0   0    1.6263682
   3051111   4133   0   2    1.6264729
   3051111   4233   0   2    7.1452807e-06
   3051111   4137   0   0   -4.4490603
   3051111   4137   0   2   -4.4483042
   3051111   4237   0   2   -5.2534806e-05
   3051313   4133   0   0    1.6263682
   3051313   4133   0   2    1.6264728
   3051313   4233   0   2    7.1452776e-06
   3051313   4137   0   0   -4.4490603
   3051313   4137   0   2   -4.4483043
   3051313   4237   0   2   -5.2534806e-05
   3051212   4137   0   0    1.5053501
   3051212   4137   0   2    1.505188
   3051212   4237   0   2    1.1359223e-05
   3051414   4137   0   0    1.5053501
   3051414   4137   0   2    1.505188
   3051414   4237   0   2    1.1359224e-05
   3051616   4137   0   0    1.5053501
   3051616   4137   0   2    1.505188
   3051616   4237   0   2    1.1359453e-05

BLOCK IMFWCOEF Q=  160
   305   4422   0   0    3.8583774e-07
   305   4422   0   2    9.1010578e-07
   305   4322   0   2    1.7166466e-07
   305   6421   0   0    3.3049554e-07
   305   6421   0   2    1.4994865e-06
   305   6321   0   2    1.2612878e-07
   3051111   4133   0   2    9.5810402e-08
   3051111   4233   0   2    1.9188576e-07
   3051111   4137   0   2   -4.5215625e-07
   3051111   4237   0   2   -1.4143952e-06
   3051313   4133   0   2    9.5810171e-08
   3051313   4233   0   2    1.9188575e-07
   3051313   4137   0   2   -4.5215612e-07
   3051313   4237   0   2   -1.4143953e-06
   3051212   4137   0   2    1.2336118e-07
   3051212   4237   0   2    3.0583901e-07
   3051414   4137   0   2    1.2336118e-07
   3051414   4237   0   2    3.0583901e-07
   3051616   4137   0   2    1.2264779e-07
   3051616   4237   0   2    3.0584076e-07

DECAY 23  2.4952


DECAY 24  2.085


DECAY 1000011  11.007773
    0.53076183   2   -1000024    12
    0.26578691   2    1000023    11
    0.20345126   2    1000022    11

DECAY 2000011  10.709034
    0.99999994   2    1000022    11

DECAY 1000013  11.007676
    0.53076105   2   -1000024    14
    0.26578662   2    1000023    13
    0.20345233   2    1000022    13

DECAY 2000013  10.709467
    0.99995768   2    1000022    13

DECAY 1000015  17.289082
    0.98953392   2    1000022    15
    0.003675049   2   -1000037    16
    0.0020371167   2   -1000024    16
    0.0018815861   2    1000025    15
    0.0018515307   2    1000035    15
    0.0010207974   2    1000023    15

DECAY 2000015  43.689113
    0.58877932   2   -1000024    16
    0.29474793   2    1000023    15
    0.10881047   2    1000022    15
    0.0019551032   2    1000035    15
    0.001906841   2    1000025    15
    0.0018123023   2    1000015    23
    0.0017382963   2    1000015    25
    0.00024974402   2   -1000037    16

DECAY 1000012  10.982055
    0.53101767   2    1000024    11
    0.26536345   2    1000023    12
    0.20361888   2    1000022    12

DECAY 1000014  10.982013
    0.53101739   2    1000024    13
    0.26536328   2    1000023    14
    0.20361933   2    1000022    14

DECAY 1000016  43.73045
    0.58958722   2    1000024    15
    0.29449695   2    1000023    16
    0.10834251   2    1000022    16
    0.0038151347   2    1000037    15
    0.0036718591   2    1000015    24

DECAY 1000001  0.048289402
    1   2    1000022    1

DECAY 2000001  2.3311862
    0.99995517   2    1000022    1

DECAY 1000003  0.048289419
    1   2    1000022    3

DECAY 2000003  2.3321517
    0.99954107   2    1000022    3
    0.00015924339   2    1000003    25
    0.00012715406   2   -1000037    4

DECAY 1000005  0.00020317603
    1   2    1000022    5

DECAY 2000005  51.173821
    0.487956   2   -1000024    6
    0.24585904   2    1000023    5
    0.17192569   2   -1000037    6
    0.044021778   2    1000006   -24
    0.016740479   2    1000005    25
    0.015676347   2    1000005    23
    0.010121006   2    1000022    5
    0.0038623745   2    1000035    5
    0.0038372852   2    1000025    5

DECAY 2000002  0.53649842
    1   2    1000022    2

DECAY 1000002  0.04791362
    1   2    1000022    2

DECAY 2000004  0.53649332
    1   2    1000022    4

DECAY 1000004  0.047913261
    1   2    1000022    4

DECAY 1000006  20.79258
    0.3472621   2    1000022    6
    0.23037019   2    1000037    5
    0.13635375   2    1000025    6
    0.1327933   2    1000035    6
    0.09587409   2    1000024    5
    0.047847143   2    1000023    6
    0.0045078105   2    1000023    4
    0.0043749514   2    1000005    24
    0.00042492764   3    1000022    24    5
    0.00019173084   2    1000022    4

DECAY 2000006  49.534662
    0.46801526   2    1000024    5
    0.23370602   2    1000023    6
    0.081848824   2    1000035    6
    0.081500161   2    1000025    6
    0.035104443   2    1000006    25
    0.030602849   2    1000005    24
    0.02541219   2    1000006    23
    0.021972027   2    1000022    6
    0.021838233   2    1000037    5

DECAY 1000024  13.200679
    0.2515544   2    1000002   -1
    0.25155431   2    1000004   -3
    0.24827295   2   -1000001    2
    0.24827227   2   -1000003    4
    0.0003307135   2   -1000005    6

DECAY 1000037  28.901235
    0.26799027   2    1000024    25
    0.24348989   2    1000023    24
    0.24322057   2    1000024    23
    0.13412594   2   -1000005    6
    0.071839512   2    1000022    24
    0.019253083   3    1000024    6   -6
    0.0096848847   3    1000023   -5    6
    0.0039900952   3    1000022   -5    6
    0.0021968483   2   -1000003    4
    0.0021515909   2   -1000001    2
    0.00069119022   2    1000004   -3
    0.000650014   2    1000002   -1
    0.00023317936   2   -1000013    14
    0.00023317715   2   -1000011    12

DECAY 1000022 -1


DECAY 1000023  13.187811
    0.1257033   2    1000002   -2
    0.1257033   2   -1000002    2
    0.12570249   2    1000004   -4
    0.12570249   2   -1000004    4
    0.12420071   2    1000003   -3
    0.12420071   2   -1000003    3
    0.12420063   2    1000001   -1
    0.12420063   2   -1000001    1
    0.00016741814   2    1000005   -5
    0.00016741814   2   -1000005    5

DECAY 1000025  32.754077
    0.2147258   2    1000024   -24
    0.2147258   2   -1000024    24
    0.20005434   2    1000023    23
    0.16176412   2    1000023    25
    0.058868378   2    1000005   -5
    0.058868378   2   -1000005    5
    0.040991835   2    1000022    25
    0.019807357   2    1000022    23
    0.010734067   3    1000024    5   -6
    0.010734067   3   -1000024   -5    6
    0.005586313   3    1000023    6   -6
    0.0023428135   3    1000022    6   -6

DECAY 1000035  30.171823
    0.23682076   2    1000023    25
    0.23661776   2    1000024   -24
    0.23661776   2   -1000024    24
    0.063796993   2    1000005   -5
    0.063796993   2   -1000005    5
    0.060209953   2    1000022    25
    0.04736811   2    1000022    23
    0.01840208   2    1000023    23
    0.009689405   3    1000024    5   -6
    0.009689405   3   -1000024   -5    6
    0.0080726759   3    1000023    6   -6
    0.003123538   3    1000022    6   -6
    0.000693508   2    1000003   -3
    0.000693508   2   -1000003    3
    0.00067379126   2    1000001   -1
    0.00067379126   2   -1000001    1
    0.00059429373   2    1000004   -4
    0.00059429373   2   -1000004    4
    0.00057213325   2    1000002   -2
    0.00057213325   2   -1000002    2

DECAY 1000021  960.03003
    0.071144614   2    1000005   -5
    0.071144614   2   -1000005    5
    0.06731565   2    2000002   -2
    0.06731565   2   -2000002    2
    0.067315637   2    2000004   -4
    0.067315637   2   -2000004    4
    0.066080232   2    1000002   -2
    0.066080232   2   -1000002    2
    0.06608023   2    1000004   -4
    0.06608023   2   -1000004    4
    0.066043387   2    1000003   -3
    0.066043387   2   -1000003    3
    0.066043385   2    1000001   -1
    0.066043385   2   -1000001    1
    0.011813967   2    1000006   -6
    0.011813967   2   -1000006    6
    0.0074136449   2    2000005   -5
    0.0074136449   2   -2000005    5
    0.0062378343   2    2000006   -6
    0.0062378343   2   -2000006    6
    0.0019807373   2    2000003   -3
    0.0019807373   2   -2000003    3
    0.0019807283   2    2000001   -1
    0.0019807283   2   -2000001    1
    0.0001171527   3    1000023    1   -1
    0.00011715269   3    1000023    3   -3
    0.00011688064   3    1000023    4   -4
    0.00011688062   3    1000023    2   -2
    0.00011152834   3    1000024    3   -4
    0.00011152834   3   -1000024   -3    4
    0.00011152833   3    1000024    1   -2
    0.00011152833   3   -1000024   -1    2

DECAY 25  0.003417272
    0.63307537   2   -5    5
    0.16607339   2   -24    24
    0.074707583   2    21    21
    0.072363037   2   -15    15
    0.03128519   2   -4    4
    0.018522991   2    23    23
    0.0023246322   2    22    22
    0.001158103   2    22    23
    0.00025100176   2   -13    13
    0.00023787168   2   -3    3
    6.5769129e-07   2   -1    1
    1.6123372e-07   2   -2    2
    5.6428547e-09   2   -11    11

DECAY 35  12.573291
    0.81984419   2   -5    5
    0.1021065   2   -15    15
    0.0754949   2   -6    6
    0.00066089339   2    1000022    1000023
    0.00036148313   2   -13    13
    0.00032508968   2   -2000004    1000004
    0.00032508968   2   -1000004    2000004
    0.00030716419   2   -3    3
    0.00016732213   2   -1000005    1000005
    0.00014005752   2   -1000024    1000024
    7.4421182e-05   2    1000022    1000022
    6.9970405e-05   2    1000023    1000023
    3.1211245e-05   2    25    25
    1.9783017e-05   2   -1000001    1000001
    1.9778626e-05   2   -1000003    1000003
    1.4618426e-05   2   -1000004    1000004
    1.3905777e-05   2   -1000002    1000002
    1.1883334e-05   2    23    23
    2.9544134e-06   2   -24    24
    2.4143485e-06   2   -2000002    2000002
    2.1280879e-06   2   -2000004    2000004
    1.6979074e-06   2    21    21
    1.5825587e-06   2   -4    4
    8.491246e-07   2   -1    1
    6.9964519e-08   2    22    23
    3.0875199e-08   2    22    22
    8.118306e-09   2   -11    11
    1.2597603e-09   2   -2000002    1000002
    1.2597603e-09   2   -1000002    2000002
    8.1623072e-12   2   -2    2

DECAY 36  12.194855
    0.8211857   2   -5    5
    0.10228149   2   -15    15
    0.07211985   2   -6    6
    0.0017013665   2   -1000024    1000024
    0.0008500676   2    1000023    1000023
    0.00036210277   2   -13    13
    0.0003442532   2    1000022    1000023
    0.00033540518   2   -2000004    1000004
    0.00033540518   2   -1000004    2000004
    0.00030767277   2   -3    3
    0.00010052647   2    1000022    1000022
    5.0724719e-05   2    21    21
    2.2552376e-05   2    23    25
    1.5298553e-06   2   -4    4
    8.505366e-07   2   -1    1
    3.4175373e-07   2    22    23
    1.4910434e-07   2    22    22
    8.1322229e-09   2   -11    11
    1.2996982e-09   2   -2000002    1000002
    1.2996982e-09   2   -1000002    2000002
    7.890035e-12   2   -2    2
    4.1303061e-35   2    25    25

DECAY 37  12.273001
    0.89332676   2   -5    6
    0.10032755   2   -15    16
    0.0031270908   2   -1000005    2000004
    0.0012318934   2   -5    4
    0.0010201012   2    1000022    1000024
    0.00035469364   2   -13    14
    0.00028403882   2   -3    4
    9.3836905e-05   2   -1000003    1000004
    8.9687358e-05   2   -3    6
    3.2065751e-05   2   -1000003    2000004
    3.2014807e-05   2   -1000001    2000002
    2.2441599e-05   2    24    25
    2.2330684e-05   2   -1000005    2000002
    1.328918e-05   2   -3    2
    8.7969805e-06   2   -5    2
    5.0202228e-06   2   -1000001    1000004
    4.0941735e-06   2   -1    6
    1.7157089e-06   2   -1000001    2000004
    1.7117662e-06   2   -1000003    2000002
    7.8589483e-07   2   -1    2
    7.4121492e-08   2   -1    4
    8.2963211e-09   2   -11    12
    4.1358891e-09   2   -1000005    1000004
    4.930206e-10   2   -1000001    1000002
    6.1887226e-11   2    1000023    1000024
    2.6364017e-11   2   -1000003    1000002
    2.4001799e-13   2    24    36
    1.9909025e-13   2    24    35
    1.5491226e-16   2   -1000005    1000002

DECAY 6  2.43
    1   2    5    24

DECAY 15 -1
