# SUSY Les Houches Accord 2 - MSSM spectrum + Decays
# SPheno v4.0.5be
# W. Porod, Comput. Phys. Commun. 153 (2003) 275-315, hep-ph/0301101;
# W. Porod, F.~Staub, Comput. Phys. Commun. 183 (2012) 2458
#                     arXiv:1104.1573 [hep-ph] 
# in case of problems send email to porod@physik.uni-wuerzburg.de
# Created: 12.05.2022,  16:42
Block SPINFO         # Program information
     1   SPheno      # spectrum calculator
     2   v4.0.5be    # version number
#
Block SPhenoINFO     # SPheno specific information
    1      2         # using 2-loop RGEs
    2      2         # using pole masses for boundary conditions at mZ
Block MODSEL  # Model selection
    1    0    # general MSSM
Block MINPAR  # Input parameters
    3    1.90283827E+00  # tanb at m_Z    
    4    1.00000000E+00  # Sign(mu)
Block EXTPAR  # non-universal input parameters
    0    3.85505362E+03  # scale for input parameters
    1    1.62850962E+02  # M_1
    2   -5.11146957E+02  # M_2
    3    2.72830500E+03  # M_3
   11    7.56563348E+03  # A_t
   12   -9.79630598E+02  # A_b
   13   -1.00241033E+03  # A_tau
   23    1.78220339E+02  # mu
   25    1.77779421E+00  # tan(beta)
   26    4.28603120E+03  # m_A, pole mass
   31    1.00000000E+04  # M_L11
   32    1.00000000E+04  # M_L22
   33    1.00000000E+04  # M_L33
   34    1.00000000E+04  # M_E11
   35    1.00000000E+04  # M_E22
   36    1.00000000E+04  # M_E33
   41    1.00000000E+04  # M_Q11
   42    1.00000000E+04  # M_Q22
   43    3.11863734E+03  # M_Q33
   44    1.00000000E+04  # M_U11
   45    1.00000000E+04  # M_U22
   46    4.80466780E+03  # M_U33
   47    1.00000000E+04  # M_D11
   48    1.00000000E+04  # M_D22
   49    2.74493395E+03  # M_D33
Block SMINPUTS  # SM parameters
         1     1.27908970E+02  # alpha_em^-1(MZ)^MSbar
         2     1.16637870E-05  # G_mu [GeV^-2]
         3     1.18400000E-01  # alpha_s(MZ)^MSbar
         4     9.11876000E+01  # m_Z(pole)
         5     4.18000000E+00  # m_b(m_b), MSbar
         6     1.73200000E+02  # m_t(pole)
         7     1.77700000E+00  # m_tau(pole)
         8     0.00000000E+00  # m_nu_3
        11     5.10998930E-04  # m_e(pole)
        12     0.00000000E+00  # m_nu_1
        13     1.05658372E-01  # m_muon(pole)
        14     0.00000000E+00  # m_nu_2
        21     5.00000000E-03  # m_d(2 GeV), MSbar
        22     2.50000000E-03  # m_u(2 GeV), MSbar
        23     9.50000000E-02  # m_s(2 GeV), MSbar
        24     1.27000000E+00  # m_c(m_c), MSbar
Block gauge Q=  3.85505362E+03  # (SUSY scale)
   1    3.55362975E-01  # g'(Q)^DRbar
   2    6.65198874E-01  # g(Q)^DRbar
   3    1.21977796E+00  # g3(Q)^DRbar
Block Yu Q=  3.85505362E+03  # (SUSY scale)
  1  1     9.61976690E-06   # Y_u(Q)^DRbar
  2  2     4.88684159E-03   # Y_c(Q)^DRbar
  3  3     1.16214511E+00   # Y_t(Q)^DRbar
Block Yd Q=  3.85505362E+03  # (SUSY scale)
  1  1     3.43657862E-05   # Y_d(Q)^DRbar
  2  2     6.52949938E-04   # Y_s(Q)^DRbar
  3  3     3.40800912E-02   # Y_b(Q)^DRbar
Block Ye Q=  3.85505362E+03  # (SUSY scale)
  1  1     5.99708099E-06   # Y_e(Q)^DRbar
  2  2     1.24000615E-03   # Y_mu(Q)^DRbar
  3  3     2.08548635E-02   # Y_tau(Q)^DRbar
Block Au Q=  3.85505362E+03  # (SUSY scale)
  1  1     0.00000000E+00   # A_u(Q)^DRbar
  2  2     0.00000000E+00   # A_c(Q)^DRbar
  3  3     7.56563346E+03   # A_t(Q)^DRbar
Block Ad Q=  3.85505362E+03  # (SUSY scale)
  1  1     0.00000000E+00   # A_d(Q)^DRbar
  2  2     0.00000000E+00   # A_s(Q)^DRbar
  3  3    -9.79630592E+02   # A_b(Q)^DRbar
Block Ae Q=  3.85505362E+03  # (SUSY scale)
  1  1     0.00000000E+00   # A_e(Q)^DRbar
  2  2     0.00000000E+00   # A_mu(Q)^DRbar
  3  3    -1.00241032E+03   # A_tau(Q)^DRbar
Block MSOFT Q=  3.85505362E+03  # soft SUSY breaking masses at Q
   1    1.62850962E+02  # M_1
   2   -5.11146957E+02  # M_2
   3    2.72830500E+03  # M_3
  21    1.40391815E+07  # M^2_(H,d)
  22    4.72636503E+06  # M^2_(H,u)
  31    1.00000000E+04  # M_(L,11)
  32    1.00000000E+04  # M_(L,22)
  33    1.00000000E+04  # M_(L,33)
  34    1.00000000E+04  # M_(E,11)
  35    1.00000000E+04  # M_(E,22)
  36    1.00000000E+04  # M_(E,33)
  41    1.00000000E+04  # M_(Q,11)
  42    1.00000000E+04  # M_(Q,22)
  43    3.11863734E+03  # M_(Q,33)
  44    1.00000000E+04  # M_(U,11)
  45    1.00000000E+04  # M_(U,22)
  46    4.80466780E+03  # M_(U,33)
  47    1.00000000E+04  # M_(D,11)
  48    1.00000000E+04  # M_(D,22)
  49    2.74493395E+03  # M_(D,33)
Block MASS  # Mass spectrum
#   PDG code      mass          particle
         6     1.73200000E+02  # m_t(pole)
        23     9.11876000E+01  # m_Z(pole)
        24     8.04299946E+01  # W+
        15     1.77700000E+00  # m_tau(pole)
        25     1.11917163E+02  # h0
        35     4.28627310E+03  # H0
        36     4.28603120E+03  # A0
        37     4.28828547E+03  # H+
   1000001     1.01124277E+04  # ~d_L
   2000001     1.00874066E+04  # ~d_R
   1000002     1.01122163E+04  # ~u_L
   2000002     1.00907034E+04  # ~u_R
   1000003     1.01124281E+04  # ~s_L
   2000003     1.00874066E+04  # ~s_R
   1000004     1.01122167E+04  # ~c_L
   2000004     1.00907042E+04  # ~c_R
   1000005     2.87333859E+03  # ~b_1
   2000005     3.17631141E+03  # ~b_2
   1000006     3.16630362E+03  # ~t_1
   2000006     4.69362391E+03  # ~t_2
   1000011     1.00213954E+04  # ~e_L-
   2000011     1.00088403E+04  # ~e_R-
   1000012     1.00207795E+04  # ~nu_eL
   1000013     1.00213954E+04  # ~mu_L-
   2000013     1.00088404E+04  # ~mu_R-
   1000014     1.00207795E+04  # ~nu_muL
   1000015     1.00088581E+04  # ~tau_1-
   2000015     1.00214062E+04  # ~tau_2-
   1000016     1.00207891E+04  # ~nu_tauL
   1000021     3.18293023E+03  # ~g
   1000022     1.38336505E+02  # ~chi_10
   1000023     2.02165755E+02  # ~chi_20
   1000025     2.35526220E+02  # ~chi_30
   1000035     5.74664992E+02  # ~chi_40
   1000024     2.09930948E+02  # ~chi_1+
   1000037     5.74577343E+02  # ~chi_2+
# Higgs mixing
Block alpha # Effective Higgs mixing angle
          -4.84299007E-01   # alpha
Block Hmix Q=  3.85505362E+03  # Higgs mixing parameters
   1    1.78220339E+02  # mu
   2    1.77779421E+00  # tan[beta](Q)
   3    2.43006305E+02  # v(Q)
   4    1.83700634E+07  # m^2_A(Q)
Block stopmix # stop mixing matrix
   1  1    -9.96713257E-01   # Re[R_st(1,1)]
   1  2     8.10103948E-02   # Re[R_st(1,2)]
   2  1    -8.10103948E-02   # Re[R_st(2,1)]
   2  2    -9.96713257E-01   # Re[R_st(2,2)]
Block sbotmix # sbottom mixing matrix
   1  1     1.74190800E-03   # Re[R_sb(1,1)]
   1  2     9.99998483E-01   # Re[R_sb(1,2)]
   2  1    -9.99998483E-01   # Re[R_sb(2,1)]
   2  2     1.74190800E-03   # Re[R_sb(2,2)]
Block staumix # stau mixing matrix
   1  1     9.30919271E-03   # Re[R_sta(1,1)]
   1  2     9.99956669E-01   # Re[R_sta(1,2)]
   2  1    -9.99956669E-01   # Re[R_sta(2,1)]
   2  2     9.30919271E-03   # Re[R_sta(2,2)]
Block Nmix # neutralino mixing matrix
   1  1    -8.65966808E-01   # Re[N(1,1)]
   1  2    -5.46523303E-02   # Re[N(1,2)]
   1  3    -3.69724758E-01   # Re[N(1,3)]
   1  4     3.32292360E-01   # Re[N(1,4)]
   2  1     3.16106671E-02   # Re[N(2,1)]
   2  2     5.98660011E-02   # Re[N(2,2)]
   2  3    -7.11496424E-01   # Re[N(2,3)]
   2  4    -6.99420951E-01   # Re[N(2,4)]
   3  1     4.99055333E-01   # Re[N(3,1)]
   3  2    -8.51252255E-02   # Re[N(3,2)]
   3  3    -5.96873003E-01   # Re[N(3,3)]
   3  4     6.22446857E-01   # Re[N(3,4)]
   4  1     6.78434364E-03   # Re[N(4,1)]
   4  2    -9.93067410E-01   # Re[N(4,2)]
   4  3     2.86192282E-02   # Re[N(4,3)]
   4  4    -1.13806994E-01   # Re[N(4,4)]
Block Umix # chargino mixing matrix
   1  1     3.91329670E-02   # Re[U(1,1)]
   1  2     9.99234012E-01   # Re[U(1,2)]
   2  1    -9.99234012E-01   # Re[U(2,1)]
   2  2     3.91329670E-02   # Re[U(2,2)]
Block Vmix # chargino mixing matrix
   1  1     1.61831105E-01   # Re[V(1,1)]
   1  2     9.86818470E-01   # Re[V(1,2)]
   2  1     9.86818470E-01   # Re[V(2,1)]
   2  2    -1.61831105E-01   # Re[V(2,2)]
DECAY        23     2.49520000E+00   # Z
DECAY        24     2.08500000E+00   # W
DECAY   2000011     5.02624351E+01   # ~e^-_R
#    BR                NDA      ID1      ID2
     7.50034564E-01    2     1000022        11   # BR(~e^-_R -> chi^0_1 e^-)
     9.98981939E-04    2     1000023        11   # BR(~e^-_R -> chi^0_2 e^-)
     2.48920704E-01    2     1000025        11   # BR(~e^-_R -> chi^0_3 e^-)
DECAY   1000011     1.44048597E+02   # ~e^-_L
#    BR                NDA      ID1      ID2
     8.19013092E-02    2     1000022        11   # BR(~e^-_L -> chi^0_1 e^-)
     1.80243789E-03    2     1000023        11   # BR(~e^-_L -> chi^0_2 e^-)
     1.00740027E-02    2     1000025        11   # BR(~e^-_L -> chi^0_3 e^-)
     2.97812588E-01    2     1000035        11   # BR(~e^-_L -> chi^0_4 e^-)
     9.37036755E-04    2    -1000024        12   # BR(~e^-_L -> chi^-_1 nu_e)
     6.07472625E-01    2    -1000037        12   # BR(~e^-_L -> chi^-_2 nu_e)
#    BR                NDA      ID1      ID2       ID3
DECAY   2000013     5.02630474E+01   # ~mu^-_R
#    BR                NDA      ID1      ID2
     7.50026266E-01    2     1000022        13   # BR(~mu^-_R -> chi^0_1 mu^-)
     1.00205084E-03    2     1000023        13   # BR(~mu^-_R -> chi^0_2 mu^-)
     2.48919842E-01    2     1000025        13   # BR(~mu^-_R -> chi^0_3 mu^-)
DECAY   1000013     1.44048904E+02   # ~mu^-_L
#    BR                NDA      ID1      ID2
     8.19014260E-02    2     1000022        13   # BR(~mu^-_L -> chi^0_1 mu^-)
     1.80351043E-03    2     1000023        13   # BR(~mu^-_L -> chi^0_2 mu^-)
     1.00747385E-02    2     1000025        13   # BR(~mu^-_L -> chi^0_3 mu^-)
     2.97811957E-01    2     1000035        13   # BR(~mu^-_L -> chi^0_4 mu^-)
     9.37034763E-04    2    -1000024        14   # BR(~mu^-_L -> chi^-_1 nu_mu)
     6.07471334E-01    2    -1000037        14   # BR(~mu^-_L -> chi^-_2 nu_mu)
#    BR                NDA      ID1      ID2       ID3
DECAY   1000015     5.04436726E+01   # ~tau^-_1
#    BR                NDA      ID1      ID2
     7.47639745E-01    2     1000022        15   # BR(~tau^-_1 -> chi^0_1 tau^-)
     1.88618147E-03    2     1000023        15   # BR(~tau^-_1 -> chi^0_2 tau^-)
     2.48467778E-01    2     1000025        15   # BR(~tau^-_1 -> chi^0_3 tau^-)
     1.41010996E-04    2     1000035        15   # BR(~tau^-_1 -> chi^0_4 tau^-)
     1.67292724E-03    2    -1000024        16   # BR(~tau^-_1 -> chi^-_1 nu_tau)
     1.92357027E-04    2    -1000037        16   # BR(~tau^-_1 -> chi^-_2 nu_tau)
DECAY   2000015     1.44127279E+02   # ~tau^-_2
#    BR                NDA      ID1      ID2
     8.19164137E-02    2     1000022        15   # BR(~tau^-_2 -> chi^0_1 tau^-)
     2.09791235E-03    2     1000023        15   # BR(~tau^-_2 -> chi^0_2 tau^-)
     1.03422190E-02    2     1000025        15   # BR(~tau^-_2 -> chi^0_3 tau^-)
     2.97617836E-01    2     1000035        15   # BR(~tau^-_2 -> chi^0_4 tau^-)
     9.50455080E-04    2    -1000024        16   # BR(~tau^-_2 -> chi^-_1 nu_tau)
     6.07075164E-01    2    -1000037        16   # BR(~tau^-_2 -> chi^-_2 nu_tau)
#    BR                NDA      ID1      ID2       ID3
DECAY   1000012     1.44045261E+02   # ~nu_e
#    BR                NDA      ID1      ID2
     5.09431740E-02    2     1000022        12   # BR(~nu_e -> chi^0_1 nu_e)
     5.65149421E-04    2     1000023        12   # BR(~nu_e -> chi^0_2 nu_e)
     3.78396185E-02    2     1000025        12   # BR(~nu_e -> chi^0_3 nu_e)
     3.02180312E-01    2     1000035        12   # BR(~nu_e -> chi^0_4 nu_e)
     1.60242752E-02    2     1000024        11   # BR(~nu_e -> chi^+_1 e^-)
     5.92447471E-01    2     1000037        11   # BR(~nu_e -> chi^+_2 e^-)
#    BR                NDA      ID1      ID2       ID3
DECAY   1000014     1.44045567E+02   # ~nu_mu
#    BR                NDA      ID1      ID2
     5.09430656E-02    2     1000022        14   # BR(~nu_mu -> chi^0_1 nu_mu)
     5.65148220E-04    2     1000023        14   # BR(~nu_mu -> chi^0_2 nu_mu)
     3.78395380E-02    2     1000025        14   # BR(~nu_mu -> chi^0_3 nu_mu)
     3.02179669E-01    2     1000035        14   # BR(~nu_mu -> chi^0_4 nu_mu)
     1.60263641E-02    2     1000024        13   # BR(~nu_mu -> chi^+_1 mu^-)
     5.92446215E-01    2     1000037        13   # BR(~nu_mu -> chi^+_2 mu^-)
#    BR                NDA      ID1      ID2       ID3
DECAY   1000016     1.44132035E+02   # ~nu_tau
#    BR                NDA      ID1      ID2
     5.09125528E-02    2     1000022        16   # BR(~nu_tau -> chi^0_1 nu_tau)
     5.64809719E-04    2     1000023        16   # BR(~nu_tau -> chi^0_2 nu_tau)
     3.78168737E-02    2     1000025        16   # BR(~nu_tau -> chi^0_3 nu_tau)
     3.01998679E-01    2     1000035        16   # BR(~nu_tau -> chi^0_4 nu_tau)
     1.66148100E-02    2     1000024        15   # BR(~nu_tau -> chi^+_1 tau^-)
     5.92092274E-01    2     1000037        15   # BR(~nu_tau -> chi^+_2 tau^-)
#    BR                NDA      ID1      ID2       ID3
DECAY   2000001     6.51204417E+02   # ~d_R
#    BR                NDA      ID1      ID2
     6.48281011E-03    2     1000022         1   # BR(~d_R -> chi^0_1 d)
     2.15153274E-03    2     1000025         1   # BR(~d_R -> chi^0_3 d)
     9.91356627E-01    2     1000021         1   # BR(~d_R -> ~g d)
DECAY   1000001     7.81967833E+02   # ~d_L
#    BR                NDA      ID1      ID2
     5.63923032E-04    2     1000022         1   # BR(~d_L -> chi^0_1 d)
     1.67306894E-04    2     1000023         1   # BR(~d_L -> chi^0_2 d)
     1.72133688E-03    2     1000025         1   # BR(~d_L -> chi^0_3 d)
     5.59079615E-02    2     1000035         1   # BR(~d_L -> chi^0_4 d)
     1.74185057E-04    2    -1000024         2   # BR(~d_L -> chi^-_1 u)
     1.12934188E-01    2    -1000037         2   # BR(~d_L -> chi^-_2 u)
     8.28531099E-01    2     1000021         1   # BR(~d_L -> ~g d)
DECAY   2000003     6.51204587E+02   # ~s_R
#    BR                NDA      ID1      ID2
     6.48282631E-03    2     1000022         3   # BR(~s_R -> chi^0_1 s)
     2.15157882E-03    2     1000025         3   # BR(~s_R -> chi^0_3 s)
     9.91356367E-01    2     1000021         3   # BR(~s_R -> ~g s)
DECAY   1000003     7.81972760E+02   # ~s_L
#    BR                NDA      ID1      ID2
     5.63934443E-04    2     1000022         3   # BR(~s_L -> chi^0_1 s)
     1.67361169E-04    2     1000023         3   # BR(~s_L -> chi^0_2 s)
     1.72136505E-03    2     1000025         3   # BR(~s_L -> chi^0_3 s)
     5.59076115E-02    2     1000035         3   # BR(~s_L -> chi^0_4 s)
     1.80162237E-04    2    -1000024         4   # BR(~s_L -> chi^-_1 c)
     1.12933640E-01    2    -1000037         4   # BR(~s_L -> chi^-_2 c)
     8.28525925E-01    2     1000021         3   # BR(~s_L -> ~g s)
DECAY   1000005     1.72437965E+00   # ~b_1
#    BR                NDA      ID1      ID2
     6.99882840E-01    2     1000022         5   # BR(~b_1 -> chi^0_1 b)
     2.02765565E-02    2     1000023         5   # BR(~b_1 -> chi^0_2 b)
     2.41765969E-01    2     1000025         5   # BR(~b_1 -> chi^0_3 b)
     1.37388506E-04    2     1000035         5   # BR(~b_1 -> chi^0_4 b)
     3.77445889E-02    2    -1000024         6   # BR(~b_1 -> chi^-_1 t)
     1.92656344E-04    2    -1000037         6   # BR(~b_1 -> chi^-_2 t)
DECAY   2000005     1.23894535E+02   # ~b_2
#    BR                NDA      ID1      ID2
     1.19047913E-03    2     1000022         5   # BR(~b_2 -> chi^0_1 b)
     6.25739846E-04    2     1000023         5   # BR(~b_2 -> chi^0_2 b)
     3.59369357E-03    2     1000025         5   # BR(~b_2 -> chi^0_3 b)
     1.04369899E-01    2     1000035         5   # BR(~b_2 -> chi^0_4 b)
     6.61526410E-01    2    -1000024         6   # BR(~b_2 -> chi^-_1 t)
     2.28690530E-01    2    -1000037         6   # BR(~b_2 -> chi^-_2 t)
DECAY   2000002     6.68401885E+02   # ~u_R
#    BR                NDA      ID1      ID2
     2.52723124E-02    2     1000022         2   # BR(~u_R -> chi^0_1 u)
     8.38744759E-03    2     1000025         2   # BR(~u_R -> chi^0_3 u)
     9.66305037E-01    2     1000021         2   # BR(~u_R -> ~g u)
DECAY   1000002     7.81959980E+02   # ~u_L
#    BR                NDA      ID1      ID2
     2.48201911E-03    2     1000022         2   # BR(~u_L -> chi^0_1 u)
     2.43968857E-04    2     1000023         2   # BR(~u_L -> chi^0_2 u)
     5.56359444E-02    2     1000035         2   # BR(~u_L -> chi^0_4 u)
     2.97882229E-03    2     1000024         1   # BR(~u_L -> chi^+_1 d)
     1.10143968E-01    2     1000037         1   # BR(~u_L -> chi^+_2 d)
     8.28514480E-01    2     1000021         2   # BR(~u_L -> ~g u)
DECAY   2000004     6.68411508E+02   # ~c_R
#    BR                NDA      ID1      ID2
     2.52727402E-02    2     1000022         4   # BR(~c_R -> chi^0_1 c)
     8.39010501E-03    2     1000025         4   # BR(~c_R -> chi^0_3 c)
     9.66291190E-01    2     1000021         4   # BR(~c_R -> ~g c)
DECAY   1000004     7.81964874E+02   # ~c_L
#    BR                NDA      ID1      ID2
     2.48268203E-03    2     1000022         4   # BR(~c_L -> chi^0_1 c)
     2.46970762E-04    2     1000023         4   # BR(~c_L -> chi^0_2 c)
     5.56356732E-02    2     1000035         4   # BR(~c_L -> chi^0_4 c)
     2.97891292E-03    2     1000024         3   # BR(~c_L -> chi^+_1 s)
     1.10143284E-01    2     1000037         3   # BR(~c_L -> chi^+_2 s)
     8.28509303E-01    2     1000021         4   # BR(~c_L -> ~g c)
DECAY   1000006     1.23820110E+02   # ~t_1
#    BR                NDA      ID1      ID2
     7.44295154E-02    2     1000022         6   # BR(~t_1 -> chi^0_1 t)
     3.33725661E-01    2     1000023         6   # BR(~t_1 -> chi^0_2 t)
     2.71775330E-01    2     1000025         6   # BR(~t_1 -> chi^0_3 t)
     1.04587512E-01    2     1000035         6   # BR(~t_1 -> chi^0_4 t)
     2.07935448E-02    2     1000024         5   # BR(~t_1 -> chi^+_1 b)
     1.94294635E-01    2     1000037         5   # BR(~t_1 -> chi^+_2 b)
#    BR                NDA      ID1      ID2       ID3
     3.91231284E-04    3     1000022        24         5   # BR(~t_1 -> chi^0_1 W^+ b)
DECAY   2000006     5.45590143E+02   # ~t_2
#    BR                NDA      ID1      ID2
     4.16174887E-02    2     1000022         6   # BR(~t_2 -> chi^0_1 t)
     1.11850242E-01    2     1000023         6   # BR(~t_2 -> chi^0_2 t)
     9.03949074E-02    2     1000025         6   # BR(~t_2 -> chi^0_3 t)
     4.78533708E-03    2     1000035         6   # BR(~t_2 -> chi^0_4 t)
     2.19339978E-01    2     1000024         5   # BR(~t_2 -> chi^+_1 b)
     9.61520768E-03    2     1000037         5   # BR(~t_2 -> chi^+_2 b)
     1.99198067E-01    2     1000021         6   # BR(~t_2 -> ~g t)
     1.34181732E-01    2     2000005        24   # BR(~t_2 -> ~b_2 W^+)
     6.76393920E-02    2     1000006        23   # BR(~t_2 -> ~t_1 Z)
     1.21377023E-01    2     1000006        25   # BR(~t_2 -> ~t_1 h^0)
DECAY   1000024     8.31763274E-04   # chi^+_1
#    BR                NDA      ID1      ID2       ID3
     3.33490610E-01    3     1000022        -1         2   # BR(chi^+_1 -> chi^0_1 d_bar u)
     3.33187928E-01    3     1000022        -3         4   # BR(chi^+_1 -> chi^0_1 s_bar c)
     1.11163033E-01    3     1000022       -11        12   # BR(chi^+_1 -> chi^0_1 e^+ nu_e)
     1.11162548E-01    3     1000022       -13        14   # BR(chi^+_1 -> chi^0_1 mu^+ nu_mu)
     1.10867944E-01    3     1000022       -15        16   # BR(chi^+_1 -> chi^0_1 tau^+ nu_tau)
DECAY   1000037     2.27042727E+00   # chi^+_2
#    BR                NDA      ID1      ID2
     1.07561487E-01    2     1000022        24   # BR(chi^+_2 -> chi^0_1 W^+)
     2.51355662E-01    2     1000023        24   # BR(chi^+_2 -> chi^0_2 W^+)
     1.62615273E-01    2     1000025        24   # BR(chi^+_2 -> chi^0_3 W^+)
     2.57265009E-01    2     1000024        23   # BR(chi^+_2 -> chi^+_1 Z)
     2.17110106E-01    2     1000024        25   # BR(chi^+_2 -> chi^+_1 h^0)
#    BR                NDA      ID1      ID2       ID3
     3.77027162E-04    3     1000022        -5         6   # BR(chi^+_2 -> chi^0_1 b_bar t)
     3.44387841E-03    3     1000023        -5         6   # BR(chi^+_2 -> chi^0_2 b_bar t)
     2.67123414E-04    3     1000025        -5         6   # BR(chi^+_2 -> chi^0_3 b_bar t)
DECAY   1000022     0.00000000E+00   # chi^0_1
DECAY   1000023     9.74313211E-04   # chi^0_2
#    BR                NDA      ID1      ID2
     4.80959489E-03    2     1000022        22   # BR(chi^0_2 -> chi^0_1 photon)
#    BR                NDA      ID1      ID2       ID3
     1.18818944E-01    3     1000022         2        -2   # BR(chi^0_2 -> chi^0_1 u u_bar)
     1.18332167E-01    3     1000022         4        -4   # BR(chi^0_2 -> chi^0_1 c c_bar)
     1.52349193E-01    3     1000022         1        -1   # BR(chi^0_2 -> chi^0_1 d d_bar)
     1.52346257E-01    3     1000022         3        -3   # BR(chi^0_2 -> chi^0_1 s s_bar)
     1.46772452E-01    3     1000022         5        -5   # BR(chi^0_2 -> chi^0_1 b b_bar)
     3.43803909E-02    3     1000022        11       -11   # BR(chi^0_2 -> chi^0_1 e^- e^+)
     3.43793162E-02    3     1000022        13       -13   # BR(chi^0_2 -> chi^0_1 mu^- mu^+)
     3.40779656E-02    3     1000022        15       -15   # BR(chi^0_2 -> chi^0_1 tau^- tau^+)
     2.03733720E-01    3     1000022        12       -12   # BR(chi^0_2 -> chi^0_1 nu_e nu_bar_e)
DECAY   1000025     3.27555168E-04   # chi^0_3
#    BR                NDA      ID1      ID2
     6.36758315E-01    2     1000022        23   # BR(chi^0_3 -> chi^0_1 Z)
     1.37873485E-04    2     1000022        22   # BR(chi^0_3 -> chi^0_1 photon)
     9.19882842E-03    2     1000023        22   # BR(chi^0_3 -> chi^0_2 photon)
#    BR                NDA      ID1      ID2       ID3
     3.30792326E-04    3     1000022         5        -5   # BR(chi^0_3 -> chi^0_1 b b_bar)
     3.52226157E-02    3     1000023         2        -2   # BR(chi^0_3 -> chi^0_2 u u_bar)
     3.45784935E-02    3     1000023         4        -4   # BR(chi^0_3 -> chi^0_2 c c_bar)
     4.51624167E-02    3     1000023         1        -1   # BR(chi^0_3 -> chi^0_2 d d_bar)
     4.51584116E-02    3     1000023         3        -3   # BR(chi^0_3 -> chi^0_2 s s_bar)
     3.80382837E-02    3     1000023         5        -5   # BR(chi^0_3 -> chi^0_2 b b_bar)
     1.01919335E-02    3     1000023        11       -11   # BR(chi^0_3 -> chi^0_2 e^- e^+)
     1.01904945E-02    3     1000023        13       -13   # BR(chi^0_3 -> chi^0_2 mu^- mu^+)
     9.79535485E-03    3     1000023        15       -15   # BR(chi^0_3 -> chi^0_2 tau^- tau^+)
     6.03953272E-02    3     1000023        12       -12   # BR(chi^0_3 -> chi^0_2 nu_e nu_bar_e)
     1.08691050E-02    3     1000024         1        -2   # BR(chi^0_3 -> chi^+_1 d u_bar)
     1.08691050E-02    3    -1000024        -1         2   # BR(chi^0_3 -> chi^-_1 d_bar u)
     1.07413763E-02    3     1000024         3        -4   # BR(chi^0_3 -> chi^+_1 s c_bar)
     1.07413763E-02    3    -1000024        -3         4   # BR(chi^0_3 -> chi^-_1 s_bar c)
     3.62304782E-03    3     1000024        11       -12   # BR(chi^0_3 -> chi^+_1 e^- nu_bar_e)
     3.62304782E-03    3    -1000024       -11        12   # BR(chi^0_3 -> chi^-_1 e^+ nu_e)
     3.62302092E-03    3     1000024        13       -14   # BR(chi^0_3 -> chi^+_1 mu^- nu_bar_mu)
     3.62302092E-03    3    -1000024       -13        14   # BR(chi^0_3 -> chi^-_1 mu^+ nu_mu)
     3.53760694E-03    3     1000024        15       -16   # BR(chi^0_3 -> chi^+_1 tau^- nu_bar_tau)
     3.53760694E-03    3    -1000024       -15        16   # BR(chi^0_3 -> chi^-_1 tau^+ nu_tau)
DECAY   1000035     3.55556811E+00   # chi^0_4
#    BR                NDA      ID1      ID2
     1.60077960E-01    2     1000024       -24   # BR(chi^0_4 -> chi^+_1 W^-)
     1.60077960E-01    2    -1000024        24   # BR(chi^0_4 -> chi^-_1 W^+)
     1.16818208E-02    2     1000022        23   # BR(chi^0_4 -> chi^0_1 Z)
     1.29809943E-01    2     1000023        23   # BR(chi^0_4 -> chi^0_2 Z)
     3.26885483E-02    2     1000025        23   # BR(chi^0_4 -> chi^0_3 Z)
     1.25504997E-01    2     1000022        25   # BR(chi^0_4 -> chi^0_1 h^0)
     4.18232810E-02    2     1000023        25   # BR(chi^0_4 -> chi^0_2 h^0)
     3.33208480E-01    2     1000025        25   # BR(chi^0_4 -> chi^0_3 h^0)
#    BR                NDA      ID1      ID2       ID3
     2.53029794E-03    3     1000024         5        -6   # BR(chi^0_4 -> chi^+_1 b t_bar)
     2.53029794E-03    3    -1000024        -5         6   # BR(chi^0_4 -> chi^-_1 b_bar t)
DECAY   1000021     3.82083418E+00   # ~g
#    BR                NDA      ID1      ID2
     4.22234571E-01    2     1000005        -5   # BR(~g -> ~b_1 b_bar)
     4.22234571E-01    2    -1000005         5   # BR(~g -> ~b^*_1 b)
     1.65434707E-04    2     2000005        -5   # BR(~g -> ~b_2 b_bar)
     1.65434707E-04    2    -2000005         5   # BR(~g -> ~b^*_2 b)
     2.84709550E-04    2     1000022        21   # BR(~g -> chi^0_1 g)
     5.61060518E-04    2     1000023        21   # BR(~g -> chi^0_2 g)
     3.09374985E-04    2     1000025        21   # BR(~g -> chi^0_3 g)
#    BR                NDA      ID1      ID2       ID3
     1.20700024E-02    3     1000022         6        -6   # BR(~g -> chi^0_1 t t_bar)
     5.36998774E-02    3     1000023         6        -6   # BR(~g -> chi^0_2 t t_bar)
     4.42000810E-02    3     1000025         6        -6   # BR(~g -> chi^0_3 t t_bar)
     1.25918889E-02    3     1000035         6        -6   # BR(~g -> chi^0_4 t t_bar)
     4.68292313E-03    3     1000024         5        -6   # BR(~g -> chi^+_1 b t_bar)
     4.68292313E-03    3    -1000024        -5         6   # BR(~g -> chi^-_1 b_bar t)
     1.08875952E-02    3     1000037         5        -6   # BR(~g -> chi^+_2 b t_bar)
     1.08875952E-02    3    -1000037        -5         6   # BR(~g -> chi^-_2 b_bar t)
DECAY        25     2.38691525E-03   # Gamma(h0)
     2.34203959E-03   2        22        22   # BR(h0 -> photon photon)
     5.57631203E-04   2        22        23   # BR(h0 -> photon Z)
     7.01577844E-03   2        23        23   # BR(h0 -> Z Z)
     7.29370710E-02   2       -24        24   # BR(h0 -> W W)
     8.53319669E-02   2        21        21   # BR(h0 -> gluon gluon)
     6.29604638E-09   2       -11        11   # BR(h0 -> Electron electron)
     2.80050012E-04   2       -13        13   # BR(h0 -> Muon muon)
     8.07240891E-02   2       -15        15   # BR(h0 -> Tau tau)
     1.82786908E-07   2        -2         2   # BR(h0 -> Up up)
     3.54663946E-02   2        -4         4   # BR(h0 -> Charm charm)
     7.43408811E-07   2        -1         1   # BR(h0 -> Down down)
     2.68872300E-04   2        -3         3   # BR(h0 -> Strange strange)
     7.15075174E-01   2        -5         5   # BR(h0 -> Bottom bottom)
DECAY        35     9.10705743E+01   # Gamma(HH)
     3.91569960E-07   2        22        22   # BR(HH -> photon photon)
     5.96576908E-08   2        22        23   # BR(HH -> photon Z)
     2.35731357E-05   2        23        23   # BR(HH -> Z Z)
     4.60113414E-06   2       -24        24   # BR(HH -> W W)
     8.94809688E-05   2        21        21   # BR(HH -> gluon gluon)
     2.33850327E-11   2       -11        11   # BR(HH -> Electron electron)
     1.04134141E-06   2       -13        13   # BR(HH -> Muon muon)
     3.00769247E-04   2       -15        15   # BR(HH -> Tau tau)
     2.70400815E-11   2        -2         2   # BR(HH -> Up up)
     5.24597951E-06   2        -4         4   # BR(HH -> Charm charm)
     3.88656693E-01   2        -6         6   # BR(HH -> Top top)
     1.64885185E-09   2        -1         1   # BR(HH -> Down down)
     5.96396151E-07   2        -3         3   # BR(HH -> Strange strange)
     1.53517331E-03   2        -5         5   # BR(HH -> Bottom bottom)
     7.62141192E-03   2  -1000024   1000024   # BR(HH -> Chargino1 chargino1)
     1.80427931E-01   2  -1000024   1000037   # BR(HH -> Chargino1 chargino2)
     1.80427931E-01   2  -1000037   1000024   # BR(HH -> Chargino2 chargino1)
     8.88819040E-04   2  -1000037   1000037   # BR(HH -> Chargino2 chargino2)
     2.02268918E-03   2   1000022   1000022   # BR(HH -> neutralino1 neutralino1)
     2.36520978E-02   2   1000022   1000023   # BR(HH -> neutralino1 neutralino2)
     9.95501291E-06   2   1000022   1000025   # BR(HH -> neutralino1 neutralino3)
     6.84038625E-03   2   1000022   1000035   # BR(HH -> neutralino1 neutralino4)
     8.48610837E-04   2   1000023   1000023   # BR(HH -> neutralino2 neutralino2)
     2.74198863E-02   2   1000023   1000025   # BR(HH -> neutralino2 neutralino3)
     1.66248004E-01   2   1000023   1000035   # BR(HH -> neutralino2 neutralino4)
     2.81937941E-03   2   1000025   1000025   # BR(HH -> neutralino3 neutralino3)
     9.51368181E-03   2   1000025   1000035   # BR(HH -> neutralino3 neutralino4)
     3.97578352E-04   2   1000035   1000035   # BR(HH -> neutralino4 neutralino4)
     2.44010726E-04   2        25        25   # BR(HH -> h0 h0)
DECAY        36     8.75975327E+01   # Gamma(A0)
     1.50272865E-07   2        22        22   # BR(A0 -> photon photon)
     1.07380738E-07   2        22        23   # BR(A0 -> photon Z)
     1.07668034E-04   2        21        21   # BR(A0 -> gluon gluon)
     2.27864976E-11   2       -11        11   # BR(A0 -> Electron electron)
     1.01467261E-06   2       -13        13   # BR(A0 -> Muon muon)
     2.93066655E-04   2       -15        15   # BR(A0 -> Tau tau)
     2.52022801E-11   2        -2         2   # BR(A0 -> Up up)
     4.88932982E-06   2        -4         4   # BR(A0 -> Charm charm)
     3.64415332E-01   2        -6         6   # BR(A0 -> Top top)
     1.60648907E-09   2        -1         1   # BR(A0 -> Down down)
     5.81064677E-07   2        -3         3   # BR(A0 -> Strange strange)
     1.49519946E-03   2        -5         5   # BR(A0 -> Bottom bottom)
     1.24399722E-02   2  -1000024   1000024   # BR(A0 -> Chargino1 chargino1)
     1.83305228E-01   2  -1000024   1000037   # BR(A0 -> Chargino1 chargino2)
     1.83305228E-01   2  -1000037   1000024   # BR(A0 -> Chargino2 chargino1)
     5.31318823E-03   2  -1000037   1000037   # BR(A0 -> Chargino2 chargino2)
     1.70938425E-02   2   1000022   1000022   # BR(A0 -> neutralino1 neutralino1)
     3.77809665E-03   2   1000022   1000023   # BR(A0 -> neutralino1 neutralino2)
     2.04811217E-04   2   1000022   1000025   # BR(A0 -> neutralino1 neutralino3)
     7.09195152E-02   2   1000022   1000035   # BR(A0 -> neutralino1 neutralino4)
     9.13078904E-05   2   1000023   1000023   # BR(A0 -> neutralino2 neutralino2)
     1.51434296E-03   2   1000023   1000025   # BR(A0 -> neutralino2 neutralino3)
     1.86931086E-02   2   1000023   1000035   # BR(A0 -> neutralino2 neutralino4)
     3.71416414E-02   2   1000025   1000025   # BR(A0 -> neutralino3 neutralino3)
     9.71236543E-02   2   1000025   1000035   # BR(A0 -> neutralino3 neutralino4)
     2.70216469E-03   2   1000035   1000035   # BR(A0 -> neutralino4 neutralino4)
     5.58885446E-05   2        23        25   # BR(A0 -> Z h0)
     1.27274616E-36   2        25        25   # BR(A0 -> h0 h0)
DECAY        37     1.00804697E+02   # Gamma(Hp)
     2.54722518E-11   2       -11        12   # BR(Hp -> Electron nu_e)
     1.08901832E-06   2       -13        14   # BR(Hp -> Muon nu_mu)
     3.08036418E-04   2       -15        16   # BR(Hp -> Tau nu_tau)
     1.58911777E-09   2        -1         2   # BR(Hp -> Down up)
     2.64274212E-08   2        -3         2   # BR(Hp -> Strange up)
     1.68746318E-08   2        -5         2   # BR(Hp -> Bottom up)
     2.65974130E-07   2        -1         4   # BR(Hp -> Down charm)
     6.22359435E-06   2        -3         4   # BR(Hp -> Strange charm)
     2.37187503E-06   2        -5         4   # BR(Hp -> Bottom charm)
     2.91899195E-05   2        -1         6   # BR(Hp -> Down top)
     6.36437831E-04   2        -3         6   # BR(Hp -> Strange top)
     4.48385883E-01   2        -5         6   # BR(Hp -> Bottom top)
     3.60453787E-02   2   1000022   1000024   # BR(Hp -> neutralino1 chargino1)
     6.99121969E-02   2   1000022   1000037   # BR(Hp -> neutralino1 chargino2)
     2.48800574E-03   2   1000023   1000024   # BR(Hp -> neutralino2 chargino1)
     1.66895098E-01   2   1000023   1000037   # BR(Hp -> neutralino2 chargino2)
     1.51528169E-02   2   1000024   1000025   # BR(Hp -> chargino1 neutralino3)
     9.60769092E-02   2   1000025   1000037   # BR(Hp -> neutralino3 chargino2)
     1.64010720E-01   2   1000024   1000035   # BR(Hp -> chargino1 neutralino4)
     6.74757087E-07   2   1000035   1000037   # BR(Hp -> neutralino4 chargino2)
     4.86577677E-05   2        24        25   # BR(Hp -> W h0)
     4.45748064E-13   2        24        35   # BR(Hp -> W HH)
     7.86298207E-13   2        24        36   # BR(Hp -> W A0)
DECAY         6     2.43000000E+00   # top
#    BR                NDA      ID1      ID2
     1.00000000E+00    2           5        24   # BR(t -> b W)
Block HiggsBoundsInputHiggsCouplingsFermions
# ScalarNormEffCoupSq PseudoSNormEffCoupSq NP IP1 IP2 IP2
    9.01892370E-01    0.00000000E+00        3  25   5   5  # h0-b-b eff. coupling^2, normalised to SM
    3.25865988E+00    0.00000000E+00        3  35   5   5  # H0-b-b eff. coupling^2, normalised to SM
    0.00000000E+00    3.16055225E+00        3  36   5   5  # A0-b-b eff. coupling^2, normalised to SM
#
    1.03104129E+00    0.00000000E+00        3  25   6   6  # h0-t-t eff. coupling^2, normalised to SM
    2.85359107E-01    0.00000000E+00        3  35   6   6  # H0-t-t eff. coupling^2, normalised to SM
    0.00000000E+00    3.16400401E-01        3  36   6   6  # A0-t-t eff. coupling^2, normalised to SM
#
    9.01892370E-01    0.00000000E+00        3  25  15  15  # h0-tau-tau eff. coupling^2, normalised to SM
    3.25865988E+00    0.00000000E+00        3  35  15  15  # H0-tau-tau eff. coupling^2, normalised to SM
    0.00000000E+00    3.16055225E+00        3  36  15  15  # A0-tau-tau eff. coupling^2, normalised to SM
#
Block HiggsBoundsInputHiggsCouplingsBosons
    9.99211356E-01        3  25  24  24  # h0-W-W eff. coupling^2, normalised to SM
    7.88644286E-04        3  35  24  24  # H0-W-W eff. coupling^2, normalised to SM
    0.00000000E+00        3  36  24  24  # A0-W-W eff. coupling^2, normalised to SM
#
    9.99211356E-01        3  25  23  23  # h0-Z-Z eff. coupling^2, normalised to SM
    7.88644286E-04        3  35  23  23  # H0-Z-Z eff. coupling^2, normalised to SM
    0.00000000E+00        3  36  23  23  # A0-Z-Z eff. coupling^2, normalised to SM
#
    1.31331102E+00        3  25  21  21  # h0-g-g eff. coupling^2, normalised to SM
    2.82530519E-01        3  35  21  21  # H0-g-g eff. coupling^2, normalised to SM
    5.65001290E-01        3  36  21  21  # A0-g-g eff. coupling^2, normalised to SM
#
    0.00000000E+00        3  25  25  23  # h0-h0-Z eff. coupling^2, normalised to SM
    0.00000000E+00        3  35  25  23  # H0-h0-Z eff. coupling^2, normalised to SM
    7.88644286E-04        3  36  25  23  # A0-h0-Z eff. coupling^2, normalised to SM
    0.00000000E+00        3  35  35  23  # H0-H0-Z eff. coupling^2, normalised to SM
    9.99211356E-01        3  36  35  23  # A0-H0-Z eff. coupling^2, normalised to SM
    0.00000000E+00        3  36  36  23  # A0-A0-Z eff. coupling^2, normalised to SM
#
    0.00000000E+00        4  25  21  21  23  # h0-g-g-Z eff. coupling^2, normalised to SM
    0.00000000E+00        4  35  21  21  23  # H0-g-g-Z eff. coupling^2, normalised to SM
    0.00000000E+00        4  36  21  21  23  # A0-g-g-Z eff. coupling^2, normalised to SM
Block SPhenoLowEnergy  # low energy observables
    1    3.24178898E-04   # BR(b -> s gamma)
    2    1.59264864E-06   # BR(b -> s mu+ mu-)
    3    3.53131896E-05   # BR(b -> s nu nu)
    4    2.52482190E-15   # BR(Bd -> e+ e-)
    5    1.07857524E-10   # BR(Bd -> mu+ mu-)
    6    2.25788458E-08   # BR(Bd -> tau+ tau-)
    7    8.49851414E-14   # BR(Bs -> e+ e-)
    8    3.63056243E-09   # BR(Bs -> mu+ mu-)
    9    7.70068033E-07   # BR(Bs -> tau+ tau-)
   10    9.68077818E-05   # BR(B_u -> tau nu)
   11    9.99987324E-01   # BR(B_u -> tau nu)/BR(B_u -> tau nu)_SM
   12    5.43778755E-01   # |Delta(M_Bd)| [ps^-1] 
   13    1.94296303E+01   # |Delta(M_Bs)| [ps^-1] 
   14    0.00000000E+00   # neutron EDM according to the chiral quark model
   15    0.00000000E+00   # neutron EDM according to the relativistic quark-parton model
   16    2.16469592E-03   # epsilon_K
   17    2.28173475E-15   # Delta(M_K)
   18    2.48393456E-11   # BR(K^0 -> pi^0 nu nu)
   19    8.29998621E-11   # BR(K^+ -> pi^+ nu nu)
   20   -2.30588612E-17   # Delta(g-2)_electron/2
   21   -9.85838216E-13   # Delta(g-2)_muon/2
   22   -2.78824903E-10   # Delta(g-2)_tau/2
   23    0.00000000E+00   # electric dipole moment of the electron
   24    0.00000000E+00   # electric dipole moment of the muon
   25    0.00000000E+00   # electric dipole moment of the tau
   26    0.00000000E+00   # Br(mu -> e gamma)
   27    0.00000000E+00   # Br(tau -> e gamma)
   28    0.00000000E+00   # Br(tau -> mu gamma)
   29    0.00000000E+00   # Br(mu -> 3 e)
   30    0.00000000E+00   # Br(tau -> 3 e)
   31    0.00000000E+00   # Br(tau -> 3 mu)
   39   -2.37010790E-03   # Delta(rho_parameter)
   40    0.00000000E+00   # BR(Z -> e mu)
   41    0.00000000E+00   # BR(Z -> e tau)
   42    0.00000000E+00   # BR(Z -> mu tau)
Block FWCOEF Q=  1.60000000E+02  # Wilson coefficients at scale Q
#    id        order  M        value         comment
     0305 4422   00   0    -1.88819110E-01   # C7
     0305 4422   00   2    -1.92952507E-01   # C7
     0305 4322   00   2    -7.70142680E-05   # C7'
     0305 6421   00   0    -9.52278348E-02   # C8
     0305 6421   00   2    -1.00593454E-01   # C8
     0305 6321   00   2    -1.01925532E-04   # C8'
 03051111 4133   00   0     1.62527336E+00   # C9 e+e-
 03051111 4133   00   2     1.62583102E+00   # C9 e+e-
 03051111 4233   00   2     2.11309509E-06   # C9' e+e-
 03051111 4137   00   0    -4.44796547E+00   # C10 e+e-
 03051111 4137   00   2    -4.45225604E+00   # C10 e+e-
 03051111 4237   00   2    -1.42678307E-05   # C10' e+e-
 03051313 4133   00   0     1.62527336E+00   # C9 mu+mu-
 03051313 4133   00   2     1.62583102E+00   # C9 mu+mu-
 03051313 4233   00   2     2.11309509E-06   # C9' mu+mu-
 03051313 4137   00   0    -4.44796547E+00   # C10 mu+mu-
 03051313 4137   00   2    -4.45225604E+00   # C10 mu+mu-
 03051313 4237   00   2    -1.42678307E-05   # C10' mu+mu-
 03051212 4137   00   0     1.50535012E+00   # C11 nu_1 nu_1
 03051212 4137   00   2     1.50628141E+00   # C11 nu_1 nu_1
 03051212 4237   00   2     3.08484569E-06   # C11' nu_1 nu_1
 03051414 4137   00   0     1.50535012E+00   # C11 nu_2 nu_2
 03051414 4137   00   2     1.50628141E+00   # C11 nu_2 nu_2
 03051414 4237   00   2     3.08484569E-06   # C11' nu_2 nu_2
 03051616 4137   00   0     1.50535012E+00   # C11 nu_3 nu_3
 03051616 4137   00   2     1.50628141E+00   # C11 nu_3 nu_3
 03051616 4237   00   2     3.08484571E-06   # C11' nu_3 nu_3
Block IMFWCOEF Q=  1.60000000E+02  # Im(Wilson coefficients) at scale Q
#    id        order  M        value         comment
     0305 4422   00   0     3.85820890E-07   # C7
     0305 4422   00   2     5.65234292E-07   # C7
     0305 4322   00   2    -7.06813067E-08   # C7'
     0305 6421   00   0     3.30481108E-07   # C8
     0305 6421   00   2    -3.03095436E-06   # C8
     0305 6321   00   2    -9.37855704E-08   # C8'
 03051111 4133   00   2     1.75600118E-06   # C9 e+e-
 03051111 4233   00   2     3.86620947E-08   # C9' e+e-
 03051111 4137   00   2    -8.13504423E-07   # C10 e+e-
 03051111 4237   00   2    -2.61686510E-07   # C10' e+e-
 03051313 4133   00   2     1.75600116E-06   # C9 mu+mu-
 03051313 4233   00   2     3.86620947E-08   # C9' mu+mu-
 03051313 4137   00   2    -8.13504401E-07   # C10 mu+mu-
 03051313 4237   00   2    -2.61686510E-07   # C10' mu+mu-
 03051212 4137   00   2     2.33380138E-07   # C11 nu_1 nu_1
 03051212 4237   00   2     5.65798871E-08   # C11' nu_1 nu_1
 03051414 4137   00   2     2.33380139E-07   # C11 nu_2 nu_2
 03051414 4237   00   2     5.65798871E-08   # C11' nu_2 nu_2
 03051616 4137   00   2     2.33380467E-07   # C11 nu_3 nu_3
 03051616 4237   00   2     5.65798870E-08   # C11' nu_3 nu_3
