BLOCK SPINFO
   1   SPheno
   2   v4.0.5be

BLOCK SPHENOINFO
   1   2
   2   2

BLOCK MODSEL
   1   0

BLOCK MINPAR
   3    33.264776
   4   -1

BLOCK EXTPAR
   0    3895.2685
   1    3269.9604
   2    3051.8697
   3    4351.1843
   11   -6685.3394
   12   -3232.3435
   13   -7354.1428
   23   -189.94183
   25    32.170327
   26    534.03709
   31    4823.6051
   32    4823.6051
   33    4763.8618
   34    809.97828
   35    809.97828
   36    2846.1611
   41    3626.0516
   42    3626.0516
   43    3224.6858
   44    1752.1773
   45    1752.1773
   46    4536.9755
   47    3090.0231
   48    3090.0231
   49    2966.7608

BLOCK SMINPUTS
   1    127.90897
   2    1.1663787e-05
   3    0.1184
   4    91.1876
   5    4.18
   6    173.2
   7    1.777
   8    0
   11    0.00051099893
   12    0
   13    0.10565837
   14    0
   21    0.005
   22    0.0025
   23    0.095
   24    1.27

BLOCK GAUGE Q=  3895.2685
   1    0.35536298
   2    0.66519887
   3    1.219778

BLOCK YU Q=  3895.2685
   1   1    8.3884219e-06
   2   2    0.0042613183
   3   3    1.0133887

BLOCK YD Q=  3895.2685
   1   1    0.00054227052
   2   2    0.01030314
   3   3    0.53776243

BLOCK YE Q=  3895.2685
   1   1    9.4630171e-05
   2   2    0.019566518
   3   3    0.32907664

BLOCK AU Q=  3895.2685
   1   1    0
   2   2    0
   3   3   -6685.3393

BLOCK AD Q=  3895.2685
   1   1    0
   2   2    0
   3   3   -3232.3435

BLOCK AE Q=  3895.2685
   1   1    0
   2   2    0
   3   3   -7354.1428

BLOCK MSOFT Q=  3895.2685
   1    3269.9604
   2    3051.8697
   3    4351.1843
   21    259966.14
   22    147786.46
   31    4823.6051
   32    4823.6051
   33    4763.8618
   34    809.97828
   35    809.97828
   36    2846.1611
   41    3626.0516
   42    3626.0516
   43    3224.6858
   44    1752.1773
   45    1752.1773
   46    4536.9755
   47    3090.0231
   48    3090.0231
   49    2966.7608

BLOCK MASS
   6    173.2
   23    91.1876
   24    80.429995
   15    1.777
   25    125.84152
   35    534.05558
   36    534.03709
   37    541.24955
   1000001    3808.9127
   2000001    3257.649
   1000002    3808.0734
   2000002    1966.8056
   1000003    3808.9096
   2000003    3257.6432
   1000004    3808.0703
   2000004    1966.8047
   1000005    3116.329
   2000005    3355.8162
   1000006    3343.9342
   2000006    4537.5045
   1000011    4842.4153
   2000011    842.58636
   1000012    4841.3372
   1000013    4842.4047
   2000013    842.53572
   1000014    4841.3268
   1000015    2843.7068
   2000015    4769.6133
   1000016    4768.576
   1000021    4440.4627
   1000022    203.16689
   1000023   -206.26789
   1000025    3094.4601
   1000035    3214.1981
   1000024    205.26789
   1000037    3094.6144

BLOCK ALPHA
      -0.032616161

BLOCK HMIX Q=  3895.2685
   1   -189.94183
   2    32.170327
   3    242.96669
   4    285195.62

BLOCK STOPMIX
   1   1    0.99509949
   1   2    0.098878724
   2   1   -0.098878724
   2   2    0.99509949

BLOCK SBOTMIX
   1   1   -0.0027163929
   1   2    0.99999631
   2   1   -0.99999631
   2   2   -0.0027163929

BLOCK STAUMIX
   1   1    0.00013508228
   1   2    0.99999999
   2   1   -0.99999999
   2   2    0.00013508228

BLOCK NMIX
   1   1    0.010032603
   1   2   -0.018677092
   1   3   -0.70945938
   1   4   -0.70442736
   2   1    0.0094436778
   2   2   -0.017630889
   2   3    0.70474569
   2   4   -0.70917803
   3   1    0.0072850715
   3   2    0.99964609
   3   3   -0.00082239018
   3   4   -0.025572461
   4   1    0.99987854
   4   2   -0.0069294546
   4   3    0.00046838137
   4   4    0.013952481

BLOCK UMIX
   1   1   -0.0011710163
   1   2   -0.99999931
   2   1    0.99999931
   2   2   -0.0011710163

BLOCK VMIX
   1   1   -0.036329616
   1   2    0.99933986
   2   1    0.99933986
   2   2    0.036329616

BLOCK HIGGSBOUNDSINPUTHIGGSCOUPLINGSFERMIONS
       0, 1034.93,3,36,15,15

BLOCK HIGGSBOUNDSINPUTHIGGSCOUPLINGSBOSONS
       0,4,36,21,21,23

BLOCK SPHENOLOWENERGY
   1    0.00041290845
   2    1.5904168e-06
   3    3.5275427e-05
   4    1.6318299e-15
   5    6.9709656e-11
   6    1.4577734e-08
   7    5.5761548e-14
   8    2.3821246e-09
   9    5.0486444e-07
   10    7.5245526e-05
   11    0.77725748
   12    0.54175402
   13    19.26243
   14    0
   15    0
   16    0.0021572564
   17    2.2816842e-15
   18    2.481371e-11
   19    8.2939243e-11
   20   -5.2138158e-16
   21   -2.2288586e-11
   22   -7.9540033e-09
   23    0
   24    0
   25    0
   26    0
   27    0
   28    0
   29    0
   30    0
   31    0
   39    6.193315e-05
   40    0
   41    0
   42    0

BLOCK FWCOEF Q=  160
   305   4422   0   0   -0.18881911
   305   4422   0   2   -0.28039427
   305   4322   0   2   -0.00179736
   305   6421   0   0   -0.095227835
   305   6421   0   2   -0.18697435
   305   6321   0   2   -0.0018027789
   3051111   4133   0   0    1.6258332
   3051111   4133   0   2    1.6262007
   3051111   4233   0   2    3.0674946e-05
   3051111   4137   0   0   -4.4485253
   3051111   4137   0   2   -4.4491075
   3051111   4237   0   2   -0.00022660695
   3051313   4133   0   0    1.6258332
   3051313   4133   0   2    1.6262005
   3051313   4233   0   2    3.062445e-05
   3051313   4137   0   0   -4.4485253
   3051313   4137   0   2   -4.4491077
   3051313   4237   0   2   -0.00022655727
   3051212   4137   0   0    1.5053501
   3051212   4137   0   2    1.5054777
   3051212   4237   0   2    4.901038e-05
   3051414   4137   0   0    1.5053501
   3051414   4137   0   2    1.5054777
   3051414   4237   0   2    4.9021245e-05
   3051616   4137   0   0    1.5053501
   3051616   4137   0   2    1.5054777
   3051616   4237   0   2    5.2083295e-05

BLOCK IMFWCOEF Q=  160
   305   4422   0   0    3.8581171e-07
   305   4422   0   2   -1.3566043e-05
   305   4322   0   2   -3.8148903e-06
   305   6421   0   0    3.3047324e-07
   305   6421   0   2    5.3933136e-06
   305   6321   0   2   -1.6781193e-06
   3051111   4133   0   2    5.0172497e-07
   3051111   4233   0   2    6.3345476e-06
   3051111   4137   0   2   -2.1543118e-06
   3051111   4237   0   2   -4.6948658e-05
   3051313   4133   0   2    5.0172138e-07
   3051313   4233   0   2    6.3345424e-06
   3051313   4137   0   2   -2.1543136e-06
   3051313   4237   0   2   -4.6948668e-05
   3051212   4137   0   2    4.9502058e-07
   3051212   4237   0   2    1.0154021e-05
   3051414   4137   0   2    4.9502053e-07
   3051414   4237   0   2    1.0154021e-05
   3051616   4137   0   2    4.9487651e-07
   3051616   4237   0   2    1.0154021e-05

DECAY 23  2.4952


DECAY 24  2.085


DECAY 2000011  0.0007121052
    0.53094742   2    1000022    11
    0.46886594   2    1000023    11
    0.00018664609   2   -1000024    12

DECAY 1000011  24.294087
    0.61410944   2   -1000037    12
    0.30927425   2    1000025    11
    0.076320344   2    1000035    11
    0.0001550699   2    1000022    11
    0.00013848886   2    1000023    11

DECAY 2000013  0.012076828
    0.47048456   2   -1000024    14
    0.26856439   2    1000022    13
    0.26095105   2    1000023    13

DECAY 1000013  24.330664
    0.61318122   2   -1000037    14
    0.30880678   2    1000025    13
    0.076204921   2    1000035    13
    0.00091512714   2    1000022    13
    0.00088842705   2    1000023    13

DECAY 1000015  12.129012
    0.49988529   2   -1000024    16
    0.25176304   2    1000022    15
    0.24835167   2    1000023    15

DECAY 2000015  48.251406
    0.29175223   2   -1000037    16
    0.15647371   2    1000015    36
    0.15647032   2    1000015    35
    0.14693143   2    1000025    15
    0.10687938   2    1000022    15
    0.10544316   2    1000023    15
    0.036037196   2    1000035    15

DECAY 1000012  24.308645
    0.61241923   2    1000037    11
    0.30405812   2    1000025    12
    0.080263097   2    1000035    12
    0.0023057478   2    1000024    11
    0.00050469268   2    1000022    12
    0.00044912148   2    1000023    12

DECAY 1000014  24.345188
    0.61149499   2    1000037    13
    0.30359925   2    1000025    14
    0.0801419   2    1000035    14
    0.0038114773   2    1000024    13
    0.00050393403   2    1000022    14
    0.00044844636   2    1000023    14

DECAY 1000016  48.245799
    0.31258645   2    1000015    37
    0.29115341   2    1000037    15
    0.2132989   2    1000024    15
    0.14455512   2    1000025    16
    0.037925366   2    1000035    16
    0.00025044048   2    1000022    16
    0.00022286406   2    1000023    16

DECAY 2000001  0.0016579947
    0.7700354   2    1000035    1
    0.11529412   2    1000022    1
    0.10271131   2    1000023    1
    0.011403714   2   -1000024    2
    0.00055545753   2    1000025    1

DECAY 1000001  5.8657862
    0.6603961   2   -1000037    2
    0.3292365   2    1000025    1
    0.0081059894   2    1000035    1
    0.001191961   2    1000022    1
    0.0010616537   2    1000023    1

DECAY 2000003  0.01527096
    0.44696073   2   -1000024    4
    0.23689223   2    1000022    3
    0.23250548   2    1000023    3
    0.083581232   2    1000035    3

DECAY 1000003  5.8750858
    0.65934516   2   -1000037    4
    0.32871302   2    1000025    3
    0.008093087   2    1000035    3
    0.0018734162   2    1000022    3
    0.0017341376   2    1000023    3
    0.00024032873   2   -1000024    4

DECAY 1000005  35.438033
    0.49841632   2   -1000024    6
    0.2525329   2    1000022    5
    0.24905078   2    1000023    5

DECAY 2000005  87.628858
    0.77140872   2   -1000024    6
    0.11013763   2    1000022    5
    0.10868279   2    1000023    5
    0.0059569746   2   -1000037    6
    0.0037641805   2    1000025    5

DECAY 2000002  0.00081588117
    0.53035548   2    1000022    2
    0.46964122   2    1000023    2

DECAY 1000002  5.8922929
    0.65529029   2    1000037    1
    0.32882498   2    1000025    2
    0.0074693189   2    1000024    1
    0.0068891018   2    1000035    2
    0.00080693049   2    1000022    2
    0.00071938218   2    1000023    2

DECAY 2000004  0.002204591
    0.3527548   2    1000022    4
    0.33231253   2    1000023    4
    0.31493267   2    1000024    3

DECAY 1000004  5.9015913
    0.65425323   2    1000037    3
    0.32830412   2    1000025    4
    0.0088086821   2    1000024    3
    0.006878147   2    1000035    4
    0.00092064759   2    1000022    4
    0.00083477655   2    1000023    4

DECAY 1000006  91.750359
    0.37025011   2    1000023    6
    0.36546127   2    1000022    6
    0.21719106   2    1000024    5
    0.038114863   3    1000022    24    5
    0.0064658281   2    1000037    5
    0.002472779   2    1000025    6

DECAY 2000006  316.75741
    0.28767948   2    1000024    5
    0.18112861   2    2000005    24
    0.14582829   2    1000023    6
    0.14386748   2    1000022    6
    0.13823454   2    1000006    25
    0.091824298   2    1000006    23
    0.0078677242   2    1000035    6
    0.00089265907   2    2000005    37
    0.00085431534   2    1000037    5
    0.00047695176   2    1000005    37
    0.00046302486   2    1000006    35
    0.00045796039   2    1000006    36
    0.00042252901   2    1000025    6

DECAY 1000024  6.5868748e-12
    0.59985016   3    1000022   -1    2
    0.19996323   3    1000022   -11    12
    0.19532131   3    1000022   -13    14
    0.0048653023   3    1000022   -3    4

DECAY 1000037  53.578748
    0.12543162   2    1000024    25
    0.12334446   2    1000023    24
    0.12252081   2    1000024    23
    0.12168769   2    1000022    24
    0.12121553   2    37    1000022
    0.1205146   2    1000024    35
    0.12046928   2    1000024    36
    0.11760573   2    37    1000023
    0.011774844   3    1000024    6   -6
    0.0077041059   3    1000023   -5    6
    0.007466945   3    1000022   -5    6
    0.00025609763   3    1000024    5   -5

DECAY 1000022 -1


DECAY 1000023  3.0854678e-09
    0.87383049   2    1000022    22
    0.035823512   3    1000022    12   -12
    0.026787153   3    1000022    1   -1
    0.026420599   3    1000022    3   -3
    0.020892366   3    1000022    2   -2
    0.0060453222   3    1000022    11   -11
    0.0059155921   3    1000022    13   -13
    0.0012511412   3    1000024    1   -2
    0.0012511412   3   -1000024   -1    2
    0.00041709035   3    1000024    11   -12
    0.00041709035   3   -1000024   -11    12
    0.00040206953   3    1000024    13   -14
    0.00040206953   3   -1000024   -13    14
    0.00014436624   3    1000022    4   -4

DECAY 1000025  54.273459
    0.12218312   2    1000024   -24
    0.12218312   2   -1000024    24
    0.11972071   2    37   -1000024
    0.11972071   2   -37    1000024
    0.075096632   2    1000023    25
    0.071189866   2    1000022    35
    0.064904184   2    1000022    25
    0.064217343   2    1000023    23
    0.061762219   2    1000023    35
    0.055724187   2    1000022    23
    0.053347577   2    1000023    36
    0.047844705   2    1000022    36
    0.0062488292   3    1000024    5   -6
    0.0062488292   3   -1000024   -5    6
    0.0047232669   3    1000023    6   -6
    0.0045880501   3    1000022    6   -6
    0.00012414159   3    1000022    5   -5
    0.00012237849   3    1000023    5   -5

DECAY 1000035  62.331556
    0.11233158   2    2000013   -13
    0.11233158   2   -2000013    13
    0.11232959   2    2000011   -11
    0.11232959   2   -2000011    11
    0.067579678   2    2000004   -4
    0.067579678   2   -2000004    4
    0.06757965   2    2000002   -2
    0.06757965   2   -2000002    2
    0.033090118   2    1000024   -24
    0.033090118   2   -1000024    24
    0.030014301   2    37   -1000024
    0.030014301   2   -37    1000024
    0.019972361   2    1000023    25
    0.019008896   2    1000022    35
    0.018721446   2    1000023    23
    0.017262472   2    1000022    25
    0.016490777   2    1000023    35
    0.016153421   2    1000022    23
    0.014399669   2    1000023    36
    0.012913046   2    1000022    36
    0.0061128091   2    1000015   -15
    0.0061128091   2   -1000015    15
    0.0018268886   3    1000024    5   -6
    0.0018268886   3   -1000024   -5    6
    0.0015276402   3    1000023    6   -6
    0.0014855548   3    1000022    6   -6
    0.00015513361   2    1000005   -5
    0.00015513361   2   -1000005    5

DECAY 1000021  356.32843
    0.11916578   2    2000004   -4
    0.11916578   2   -2000004    4
    0.11916573   2    2000002   -2
    0.11916573   2   -2000002    2
    0.047497686   2    1000005   -5
    0.047497686   2   -1000005    5
    0.039330667   2    2000003   -3
    0.039330667   2   -2000003    3
    0.03933034   2    2000001   -1
    0.03933034   2   -2000001    1
    0.033920714   2    2000005   -5
    0.033920714   2   -2000005    5
    0.033030977   2    1000006   -6
    0.033030977   2   -1000006    6
    0.016219286   2    1000006   -4
    0.016219286   2   -1000006    4
    0.012907808   2    1000004   -4
    0.012907808   2   -1000004    4
    0.012907716   2    1000002   -2
    0.012907716   2   -1000002    2
    0.012876211   2    1000003   -3
    0.012876211   2   -1000003    3
    0.012876096   2    1000001   -1
    0.012876096   2   -1000001    1
    0.00038437289   3    1000023    6   -6
    0.00037922856   3    1000022    6   -6
    0.00037331436   3    1000024    5   -6
    0.00037331436   3   -1000024   -5    6

DECAY 25  0.0044360728
    0.59392574   2   -5    5
    0.2181624   2   -24    24
    0.068111818   2   -15    15
    0.064119396   2    21    21
    0.026849208   2    23    23
    0.024853463   2   -4    4
    0.0021078324   2    22    22
    0.0014106293   2    22    23
    0.00023613171   2   -13    13
    0.00022264147   2   -3    3
    6.1557858e-07   2   -1    1
    1.2807343e-07   2   -2    2
    5.3084923e-09   2   -11    11

DECAY 35  9.9577864
    0.87235907   2   -5    5
    0.1248715   2   -15    15
    0.0013230725   2   -6    6
    0.0004305808   2   -13    13
    0.00033369061   2   -3    3
    0.0002120923   2   -1000024    1000024
    0.00019926868   2    25    25
    0.00013853933   2    21    21
    4.9185441e-05   2    1000022    1000022
    3.6470079e-05   2    1000023    1000023
    3.0728741e-05   2   -24    24
    1.4710558e-05   2    23    23
    9.2259477e-07   2   -1    1
    7.764581e-08   2    22    22
    3.589249e-08   2   -4    4
    2.6647469e-08   2    22    23
    1.2057796e-08   2    1000022    1000023
    9.6757074e-09   2   -11    11
    1.8512135e-13   2   -2    2

DECAY 36  9.8074981
    0.87168292   2   -5    5
    0.12476777   2   -15    15
    0.0019783104   2   -6    6
    0.00043415515   2   -1000024    1000024
    0.00043020394   2   -13    13
    0.00033339926   2   -3    3
    0.00017214219   2    21    21
    8.801134e-05   2    1000022    1000022
    8.6317223e-05   2    1000023    1000023
    2.5382018e-05   2    23    25
    9.2178923e-07   2   -1    1
    2.5416808e-07   2    1000022    1000023
    1.1805172e-07   2    22    22
    4.6654104e-08   2    22    23
    3.0702189e-08   2   -4    4
    9.6672378e-09   2   -11    11
    1.5840179e-13   2   -2    2
    6.344509e-37   2    25    25

DECAY 37  7.7336388
    0.84257776   2   -5    6
    0.15487061   2   -15    16
    0.0015023463   2   -5    4
    0.00054753428   2   -13    14
    0.00037664181   2   -3    4
    3.4571922e-05   2    24    25
    3.0830778e-05   2    1000023    1000024
    2.6485415e-05   2    1000022    1000024
    1.7240067e-05   2   -3    2
    1.0728418e-05   2   -5    2
    3.9704857e-06   2   -3    6
    1.0450524e-06   2   -1    2
    1.6184512e-07   2   -1    6
    4.9522922e-08   2   -1    4
    1.2806885e-08   2   -11    12
    3.3845417e-09   2    24    36
    3.3414442e-09   2    24    35

DECAY 6  2.43
    1   2    5    24

DECAY 15 -1
