BLOCK SPINFO
   1   SPheno
   2   v4.0.5be

BLOCK SPHENOINFO
   1   2
   2   2

BLOCK MODSEL
   1   0

BLOCK MINPAR
   3    16.374951
   4    1

BLOCK EXTPAR
   0    4648.6956
   1    1097.1937
   2    1261.5221
   3    2159.5246
   11   -870.91805
   12   -210.29589
   13    3600.1644
   23    1824.1539
   25    15.571622
   26    1216.8555
   31    4118.1947
   32    4118.1947
   33    1547.2529
   34    2106.5778
   35    2106.5778
   36    4575.7072
   41    3695.1274
   42    3695.1274
   43    4429.798
   44    1033.5984
   45    1033.5984
   46    4808.3438
   47    1428.45
   48    1428.45
   49    2171.0257

BLOCK SMINPUTS
   1    127.90897
   2    1.1663787e-05
   3    0.1184
   4    91.1876
   5    4.18
   6    173.2
   7    1.777
   8    0
   11    0.00051099893
   12    0
   13    0.10565837
   14    0
   21    0.005
   22    0.0025
   23    0.095
   24    1.27

BLOCK GAUGE Q=  4648.6956
   1    0.35536298
   2    0.66519887
   3    1.219778

BLOCK YU Q=  4648.6956
   1   1    8.4016435e-06
   2   2    0.0042680349
   3   3    1.014986

BLOCK YD Q=  4648.6956
   1   1    0.00026289259
   2   2    0.0049949592
   3   3    0.26070707

BLOCK YE Q=  4648.6956
   1   1    4.587668e-05
   2   2    0.0094858423
   3   3    0.15953626

BLOCK AU Q=  4648.6956
   1   1    0
   2   2    0
   3   3   -870.91806

BLOCK AD Q=  4648.6956
   1   1    0
   2   2    0
   3   3   -210.29589

BLOCK AE Q=  4648.6956
   1   1    0
   2   2    0
   3   3    3600.1644

BLOCK MSOFT Q=  4648.6956
   1    1097.1937
   2    1261.5221
   3    2159.5246
   21   -1951062.5
   22   -2873217.9
   31    4118.1947
   32    4118.1947
   33    1547.2529
   34    2106.5778
   35    2106.5778
   36    4575.7072
   41    3695.1274
   42    3695.1274
   43    4429.798
   44    1033.5984
   45    1033.5984
   46    4808.3438
   47    1428.45
   48    1428.45
   49    2171.0257

BLOCK MASS
   6    173.2
   23    91.1876
   24    80.429995
   15    1.777
   25    121.03051
   35    1216.9214
   36    1216.8555
   37    1219.76
   1000001    3787.726
   2000001    1608.3178
   1000002    3786.8636
   2000002    1261.4271
   1000003    3787.7251
   2000003    1608.3168
   1000004    3786.8628
   2000004    1261.4267
   1000005    2300.4396
   2000005    4481.5497
   1000006    4482.2877
   2000006    4821.2814
   1000011    4130.0827
   2000011    2108.0106
   1000012    4128.9039
   1000013    4130.0791
   2000013    2108.0031
   1000014    4128.9001
   1000015    1567.5851
   2000015    4575.4744
   1000016    1565.901
   1000021    2421.5075
   1000022    1072.6157
   1000023    1308.2343
   1000025   -1842.002
   1000035    1848.6555
   1000024    1308.2186
   1000037    1847.9696

BLOCK ALPHA
      -0.06194787

BLOCK HMIX Q=  4648.6956
   1    1824.1539
   2    15.571622
   3    242.79373
   4    1480737.2

BLOCK STOPMIX
   1   1    0.99865341
   1   2    0.051878325
   2   1   -0.051878325
   2   2    0.99865341

BLOCK SBOTMIX
   1   1    0.0040514247
   1   2    0.99999179
   2   1   -0.99999179
   2   2    0.0040514247

BLOCK STAUMIX
   1   1    0.99999706
   1   2    0.0024229369
   2   1   -0.0024229369
   2   2    0.99999706

BLOCK NMIX
   1   1   -0.99893402
   1   2    0.0086546993
   1   3   -0.038415059
   1   4    0.024087179
   2   1   -0.013491795
   2   2   -0.9940828
   2   3    0.08686066
   2   4   -0.063816864
   3   1   -0.009982088
   3   2    0.016486686
   3   3    0.70673022
   3   4    0.70722057
   4   1   -0.043001653
   4   2    0.1070172
   4   3    0.7010791
   4   4   -0.70369473

BLOCK UMIX
   1   1   -0.99224073
   1   2    0.12433158
   2   1    0.12433158
   2   2    0.99224073

BLOCK VMIX
   1   1   -0.99579304
   1   2    0.091630925
   2   1    0.091630925
   2   2    0.99579304

BLOCK HIGGSBOUNDSINPUTHIGGSCOUPLINGSFERMIONS
       0, 242.47541,3,36,15,15

BLOCK HIGGSBOUNDSINPUTHIGGSCOUPLINGSBOSONS
       0,4,36,21,21,23

BLOCK SPHENOLOWENERGY
   1    0.0003467419
   2    1.5881712e-06
   3    3.5261478e-05
   4    2.5706003e-15
   5    1.0981312e-10
   6    2.2987994e-08
   7    8.6360106e-14
   8    3.6893008e-09
   9    7.8252649e-07
   10    9.5708793e-05
   11    0.98863519
   12    0.54203829
   13    19.361943
   14    0
   15    0
   16    0.0021575628
   17    2.2816623e-15
   18    2.4804736e-11
   19    8.2916687e-11
   20    5.0995008e-16
   21    2.1801731e-11
   22    1.7544506e-08
   23    0
   24    0
   25    0
   26    0
   27    0
   28    0
   29    0
   30    0
   31    0
   39    3.8478592e-05
   40    0
   41    0
   42    0

BLOCK FWCOEF Q=  160
   305   4422   0   0   -0.18881911
   305   4422   0   2   -0.2148747
   305   4322   0   2   -0.00050912987
   305   6421   0   0   -0.095227835
   305   6421   0   2   -0.12849689
   305   6321   0   2   -0.00065401577
   3051111   4133   0   0    1.6315325
   3051111   4133   0   2    1.6317443
   3051111   4233   0   2    1.6224414e-05
   3051111   4137   0   0   -4.4542246
   3051111   4137   0   2   -4.4534187
   3051111   4237   0   2   -0.00012013697
   3051313   4133   0   0    1.6315325
   3051313   4133   0   2    1.6317442
   3051313   4233   0   2    1.6224201e-05
   3051313   4137   0   0   -4.4542246
   3051313   4137   0   2   -4.4534187
   3051313   4237   0   2   -0.00012013678
   3051212   4137   0   0    1.5053501
   3051212   4137   0   2    1.505179
   3051212   4237   0   2    2.5950241e-05
   3051414   4137   0   0    1.5053501
   3051414   4137   0   2    1.505179
   3051414   4237   0   2    2.5950285e-05
   3051616   4137   0   0    1.5053501
   3051616   4137   0   2    1.5051791
   3051616   4237   0   2    2.5962789e-05

BLOCK IMFWCOEF Q=  160
   305   4422   0   0    3.8582531e-07
   305   4422   0   2    7.604626e-06
   305   4322   0   2    6.3805614e-07
   305   6421   0   0    3.3048489e-07
   305   6421   0   2   -1.0354841e-05
   305   6321   0   2    1.1468265e-08
   3051111   4133   0   2    3.8750364e-07
   3051111   4233   0   2    7.8442753e-07
   3051111   4137   0   2   -8.4261274e-07
   3051111   4237   0   2   -5.7830651e-06
   3051313   4133   0   2    3.8750304e-07
   3051313   4233   0   2    7.8442739e-07
   3051313   4137   0   2   -8.4261229e-07
   3051313   4237   0   2   -5.7830654e-06
   3051212   4137   0   2    2.3540799e-07
   3051212   4237   0   2    1.2491629e-06
   3051414   4137   0   2    2.35408e-07
   3051414   4237   0   2    1.2491629e-06
   3051616   4137   0   2    2.374133e-07
   3051616   4237   0   2    1.2491626e-06

DECAY 23  2.4952


DECAY 24  2.085


DECAY 2000011  5.806763
    0.99968444   2    1000022    11
    0.00017987538   2    1000035    11
    0.00012552398   2    1000023    11

DECAY 1000011  48.524898
    0.59706979   2   -1000024    12
    0.30400364   2    1000023    11
    0.089795781   2    1000022    11
    0.0074088188   2   -1000037    12
    0.0016920642   2    1000035    11

DECAY 2000013  5.8071526
    0.9996093   2    1000022    13
    0.00019692773   2    1000035    13
    0.00012737047   2    1000023    13

DECAY 1000013  48.530118
    0.5970048   2   -1000024    14
    0.30397146   2    1000023    13
    0.08978622   2    1000022    13
    0.0074080088   2   -1000037    14
    0.0017397751   2    1000035    13

DECAY 1000015  2.427932
    0.51563722   2   -1000024    16
    0.26263643   2    1000023    15
    0.22172635   2    1000022    15

DECAY 2000015  26.705225
    0.76730723   2    1000022    15
    0.059971054   2   -1000037    16
    0.045112237   2    1000016   -37
    0.03105323   2    1000035    15
    0.030498232   2    1000025    15
    0.022559493   2    1000015    36
    0.022516498   2    1000015    35
    0.0098464854   2    1000016   -24
    0.0049171253   2    1000015    23
    0.0046643419   2    1000015    25
    0.00095577608   2   -1000024    16
    0.00059829951   2    1000023    15

DECAY 1000012  48.537361
    0.60095   2    1000024    11
    0.29511571   2    1000023    12
    0.095754764   2    1000022    12
    0.0040443785   2    1000035    12
    0.0040207839   2    1000037    11
    0.00011436174   2    1000025    12

DECAY 1000014  48.542046
    0.60089307   2    1000024    13
    0.29508683   2    1000023    14
    0.095745409   2    1000022    14
    0.0041162882   2    1000037    13
    0.0040439807   2    1000035    14
    0.00011435049   2    1000025    14

DECAY 1000016  2.4309944
    0.51320093   2    1000024    15
    0.25187315   2    1000023    16
    0.23492592   2    1000022    16

DECAY 2000001  0.27622829
    0.99993224   2    1000022    1

DECAY 1000001  143.63081
    0.72776886   2    1000021    1
    0.17728181   2   -1000024    2
    0.088540221   2    1000023    1
    0.003417158   2    1000022    1
    0.002083542   2   -1000037    2
    0.00088582499   2    1000035    1

DECAY 2000003  0.27622979
    0.99992463   2    1000022    3

DECAY 1000003  143.63302
    0.72775706   2    1000021    3
    0.17727896   2   -1000024    4
    0.0885389   2    1000023    3
    0.0034171202   2    1000022    3
    0.002089112   2   -1000037    4
    0.00088954303   2    1000035    3

DECAY 1000005  1.5628121
    0.50426382   2    1000022    5
    0.22090009   2   -1000037    6
    0.12797631   2    1000025    5
    0.12266883   2    1000035    5
    0.016053892   2   -1000024    6
    0.0081370532   2    1000023    5

DECAY 2000005  295.21165
    0.60071808   2    1000021    5
    0.21439967   2   -1000037    6
    0.11107891   2   -1000024    6
    0.05509324   2    1000023    5
    0.0075757884   2    1000035    5
    0.0071004438   2    1000025    5
    0.0020875499   2    1000022    5
    0.0012625517   2    1000005    25
    0.00067822532   2    1000005    23

DECAY 2000002  0.21561701
    1   2    1000022    2

DECAY 1000002  143.5772
    0.72741658   2    1000021    2
    0.17855742   2    1000024    1
    0.089402309   2    1000023    2
    0.0028125931   2    1000022    2
    0.0011315434   2    1000037    1
    0.00066491827   2    1000035    2

DECAY 2000004  0.21560827
    1   2    1000022    4

DECAY 1000004  143.57915
    0.72740553   2    1000021    4
    0.17855508   2    1000024    3
    0.089401034   2    1000023    4
    0.0028125595   2    1000022    4
    0.0011390021   2    1000037    3
    0.00066769532   2    1000035    4

DECAY 1000006  295.45103
    0.60057988   2    1000021    6
    0.11240645   2    1000024    5
    0.10662387   2    1000025    6
    0.10520627   2    1000035    6
    0.056606256   2    1000023    6
    0.013892576   2    1000037    5
    0.0021368185   2    1000022    6
    0.0013537444   2    1000005    24
    0.0011899486   3    1000022    24    5

DECAY 2000006  365.26529
    0.57692911   2    1000021    6
    0.19595605   2    1000037    5
    0.098493304   2    1000025    6
    0.098474302   2    1000035    6
    0.026343554   2    1000022    6
    0.0012949871   2    2000005    24
    0.0007722469   2    1000024    5
    0.00070229191   2    1000006    25
    0.00062513538   2    1000006    23
    0.00038309594   2    1000023    6

DECAY 1000024  0.011044602
    0.99934092   2    1000022    24
    0.00039042581   3    1000022   -5    6
    0.00026265382   3    1000022   -15    16

DECAY 1000037  10.586863
    0.29790137   2    1000024    25
    0.29548776   2    1000023    24
    0.28465332   2    1000024    23
    0.10861319   2    1000022    24
    0.0039697526   3    1000023   -5    6
    0.0039541033   2    1000016   -15
    0.0022313149   3    1000022   -5    6
    0.0022181322   3    1000024    6   -6
    0.00092534716   2   -1000015    16

DECAY 1000022 -1


DECAY 1000023  0.010904152
    0.988758   2    1000022    25
    0.0095250091   2    1000022    23
    0.00036131039   2    2000002   -2
    0.00036131039   2   -2000002    2
    0.00036129804   2    2000004   -4
    0.00036129804   2   -2000004    4
    0.00013693607   3    1000022    12   -12
    0.00013021858   3    1000022    15   -15

DECAY 1000025  14.07887
    0.2262582   2    1000024   -24
    0.2262582   2   -1000024    24
    0.21722249   2    1000023    23
    0.17397252   2    1000023    25
    0.086762236   2    1000022    23
    0.060702039   2    1000022    25
    0.0025895581   3    1000024    5   -6
    0.0025895581   3   -1000024   -5    6
    0.0012594655   2    1000015   -15
    0.0012594655   2   -1000015    15
    0.00055836391   3    1000022    6   -6
    0.00038136258   3    1000023    6   -6

DECAY 1000035  10.325469
    0.29479503   2    1000023    25
    0.28632858   2    1000024   -24
    0.28632858   2   -1000024    24
    0.10339365   2    1000022    25
    0.006887967   2    1000023    23
    0.0061692971   2    1000022    23
    0.0040280425   3    1000024    5   -6
    0.0040280425   3   -1000024   -5    6
    0.0019653121   2    1000015   -15
    0.0019653121   2   -1000015    15
    0.00097043566   3    1000022    6   -6
    0.00069033613   3    1000023    6   -6
    0.00053137348   2    1000016   -16
    0.00053137348   2   -1000016    16
    0.00033013517   2    2000004   -4
    0.00033013517   2   -2000004    4
    0.0003167114   2    2000002   -2
    0.0003167114   2   -2000002    2

DECAY 1000021  121.56882
    0.15651153   2    2000004   -4
    0.15651153   2   -2000004    4
    0.15651149   2    2000002   -2
    0.15651149   2   -2000002    2
    0.092074431   2    2000003   -3
    0.092074431   2   -2000003    3
    0.09207425   2    2000001   -1
    0.09207425   2   -2000001    1
    0.0027997005   2    1000005   -5
    0.0027997005   2   -1000005    5

DECAY 25  0.0034920326
    0.63664879   2   -5    5
    0.16427975   2   -24    24
    0.073211258   2    21    21
    0.072934188   2   -15    15
    0.030651235   2   -4    4
    0.018357486   2    23    23
    0.0022809275   2    22    22
    0.0011439631   2    22    23
    0.00025284915   2   -13    13
    0.0002387327   2   -3    3
    6.6007116e-07   2   -1    1
    1.5796641e-07   2   -2    2
    5.6843852e-09   2   -11    11

DECAY 35  4.7910377
    0.81214972   2   -5    5
    0.153344   2   -15    15
    0.033027613   2   -6    6
    0.00051593226   2   -13    13
    0.00048386792   2    25    25
    0.0002906864   2   -3    3
    8.2603688e-05   2   -24    24
    7.7966687e-05   2    23    23
    2.6237402e-05   2    21    21
    8.0365529e-07   2   -1    1
    4.137701e-07   2   -4    4
    8.7451329e-08   2    22    22
    5.3169654e-08   2    22    23
    1.1590762e-08   2   -11    11
    2.1333168e-12   2   -2    2

DECAY 36  4.7011864
    0.81136143   2   -5    5
    0.15318973   2   -15    15
    0.03438769   2   -6    6
    0.00051540702   2   -13    13
    0.00029039718   2   -3    3
    0.00014446823   2    21    21
    0.00010935604   2    23    25
    8.0285506e-07   2   -1    1
    3.9260949e-07   2   -4    4
    2.5416745e-07   2    22    22
    6.0974701e-08   2    22    23
    1.1578967e-08   2   -11    11
    2.0243231e-12   2   -2    2
    1.7919935e-35   2    25    25

DECAY 37  4.3818769
    0.84850043   2   -5    6
    0.14926839   2   -15    16
    0.0012208714   2   -5    4
    0.00052771893   2   -13    14
    0.00027602371   2   -3    4
    0.00011865225   2    24    25
    6.2738861e-05   2   -3    6
    1.2758335e-05   2   -3    2
    8.7182915e-06   2   -5    2
    2.8596235e-06   2   -1    6
    7.6427741e-07   2   -1    2
    6.2341097e-08   2   -1    4
    1.2343401e-08   2   -11    12
    6.4067979e-11   2    24    36
    5.7118262e-11   2    24    35

DECAY 6  2.43
    1   2    5    24

DECAY 15 -1
