BLOCK SPINFO
   1   SPheno
   2   v4.0.5be

BLOCK SPHENOINFO
   1   2
   2   2

BLOCK MODSEL
   1   0

BLOCK MINPAR
   3    45.391
   4   -1

BLOCK EXTPAR
   0    2745.809
   1   -1805.4357
   2    1682.2765
   3    1169.5332
   11    5956.439
   12    1697.2938
   13   -5299.5584
   23   -1257.0646
   25    45.038622
   26    1339.0143
   31    2905.4824
   32    2905.4824
   33    2500.2138
   34    4989.8332
   35    4989.8332
   36    2714.1073
   41    4084.3942
   42    4084.3942
   43    2829.2133
   44    1323.8739
   45    1323.8739
   46    2815.5423
   47    1472.8599
   48    1472.8599
   49    4495.465

BLOCK SMINPUTS
   1    127.90897
   2    1.1663787e-05
   3    0.1184
   4    91.1876
   5    4.18
   6    173.2
   7    1.777
   8    0
   11    0.00051099893
   12    0
   13    0.10565837
   14    0
   21    0.005
   22    0.0025
   23    0.095
   24    1.27

BLOCK GAUGE Q=  2745.809
   1    0.35536298
   2    0.66519887
   3    1.219778

BLOCK YU Q=  2745.809
   1   1    8.3864385e-06
   2   2    0.0042603108
   3   3    1.0131491

BLOCK YD Q=  2745.809
   1   1    0.00075900198
   2   2    0.014421038
   3   3    0.75269212

BLOCK YE Q=  2745.809
   1   1    0.0001324514
   2   2    0.027386748
   3   3    0.46060004

BLOCK AU Q=  2745.809
   1   1    0
   2   2    0
   3   3    5956.439

BLOCK AD Q=  2745.809
   1   1    0
   2   2    0
   3   3    1697.2939

BLOCK AE Q=  2745.809
   1   1    0
   2   2    0
   3   3   -5299.5585

BLOCK MSOFT Q=  2745.809
   1   -1805.4357
   2    1682.2765
   3    1169.5332
   21    316787.69
   22   -1500764.4
   31    2905.4824
   32    2905.4824
   33    2500.2138
   34    4989.8332
   35    4989.8332
   36    2714.1073
   41    4084.3942
   42    4084.3942
   43    2829.2133
   44    1323.8739
   45    1323.8739
   46    2815.5423
   47    1472.8599
   48    1472.8599
   49    4495.465

BLOCK MASS
   6    173.2
   23    91.1876
   24    80.429995
   15    1.777
   25    127.56847
   35    1338.6852
   36    1339.0143
   37    1342.7704
   1000001    4141.5756
   2000001    1540.304
   1000002    4140.9468
   2000002    1392.0896
   1000003    4141.5708
   2000003    1540.2978
   1000004    4140.942
   2000004    1392.0896
   1000005    2790.2032
   2000005    4510.3009
   1000006    2604.1329
   2000006    2895.193
   1000011    2914.9412
   2000011    4997.0728
   1000012    2913.4813
   1000013    2914.93
   2000013    4997.0408
   1000014    2913.4706
   1000015    2497.2404
   2000015    2699.3437
   1000016    2497.1524
   1000021    1388.9146
   1000022    1265.7192
   1000023   -1270.2797
   1000025    1740.8584
   1000035   -1786.0148
   1000024    1266.6689
   1000037    1740.9114

BLOCK ALPHA
      -0.022303443

BLOCK HMIX Q=  2745.809
   1   -1257.0646
   2    45.038622
   3    243.28141
   4    1792959.2

BLOCK STOPMIX
   1   1   -0.61092824
   1   2    0.79168598
   2   1   -0.79168598
   2   2   -0.61092824

BLOCK SBOTMIX
   1   1   -0.99993075
   1   2    0.011768132
   2   1   -0.011768132
   2   2   -0.99993075

BLOCK STAUMIX
   1   1   -0.99654637
   1   2    0.083038179
   2   1   -0.083038179
   2   2   -0.99654637

BLOCK NMIX
   1   1   -0.0099313565
   1   2   -0.11446034
   1   3   -0.70408712
   1   4   -0.70075783
   2   1    0.061988885
   2   2    0.018970273
   2   3   -0.70593095
   2   4    0.70530773
   3   1   -0.0011804037
   3   2    0.99324602
   3   3   -0.067613009
   3   4   -0.094283799
   4   1   -0.99802673
   4   2    0.0011425158
   4   3   -0.036760059
   4   4    0.050892433

BLOCK UMIX
   1   1   -0.095767789
   1   2   -0.9954037
   2   1    0.9954037
   2   2   -0.095767789

BLOCK VMIX
   1   1   -0.13351306
   1   2    0.99104705
   2   1    0.99104705
   2   2    0.13351306

BLOCK HIGGSBOUNDSINPUTHIGGSCOUPLINGSFERMIONS
       0, 2028.4774,3,36,15,15

BLOCK HIGGSBOUNDSINPUTHIGGSCOUPLINGSBOSONS
       0,4,36,21,21,23

BLOCK SPHENOLOWENERGY
   1    0.00031217607
   2    1.5910219e-06
   3    3.5243488e-05
   4    7.7489495e-15
   5    3.3095702e-10
   6    6.528393e-08
   7    2.6676368e-13
   8    1.1393776e-08
   9    2.278787e-06
   10    9.2471748e-05
   11    0.95519776
   12    0.5417167
   13    19.370294
   14    0
   15    0
   16    0.0021569694
   17    2.2816626e-15
   18    2.4805012e-11
   19    8.2904346e-11
   20   -2.2224194e-15
   21   -9.501573e-11
   22   -3.0585844e-08
   23    0
   24    0
   25    0
   26    0
   27    0
   28    0
   29    0
   30    0
   31    0
   39    7.3049074e-05
   40    0
   41    0
   42    0

BLOCK FWCOEF Q=  160
   305   4422   0   0   -0.18881911
   305   4422   0   2   -0.17685959
   305   4322   0   2   -3.6164082e-05
   305   6421   0   0   -0.095227835
   305   6421   0   2   -0.098390339
   305   6321   0   2   -0.00016427002
   3051111   4133   0   0    1.6140165
   3051111   4133   0   2    1.614308
   3051111   4233   0   2    0.00036432496
   3051111   4137   0   0   -4.4367086
   3051111   4137   0   2   -4.4342303
   3051111   4237   0   2   -0.0027502793
   3051313   4133   0   0    1.6140165
   3051313   4133   0   2    1.6143064
   3051313   4233   0   2    0.00036431596
   3051313   4137   0   0   -4.4367086
   3051313   4137   0   2   -4.4342318
   3051313   4237   0   2   -0.0027502728
   3051212   4137   0   0    1.5053501
   3051212   4137   0   2    1.5048177
   3051212   4237   0   2    0.00059641265
   3051414   4137   0   0    1.5053501
   3051414   4137   0   2    1.5048177
   3051414   4237   0   2    0.0005964145
   3051616   4137   0   0    1.5053501
   3051616   4137   0   2    1.5048177
   3051616   4237   0   2    0.00059693613

BLOCK IMFWCOEF Q=  160
   305   4422   0   0    3.8589605e-07
   305   4422   0   2   -3.3871012e-05
   305   4322   0   2    7.3568123e-06
   305   6421   0   0    3.3054549e-07
   305   6421   0   2    4.9349404e-05
   305   6321   0   2    6.8014257e-06
   3051111   4133   0   2   -2.4054093e-06
   3051111   4233   0   2    9.6959976e-06
   3051111   4137   0   2    2.2560349e-05
   3051111   4237   0   2   -7.3174129e-05
   3051313   4133   0   2   -2.4054072e-06
   3051313   4233   0   2    9.6959896e-06
   3051313   4137   0   2    2.2560382e-05
   3051313   4237   0   2   -7.3174166e-05
   3051212   4137   0   2   -4.7992692e-06
   3051212   4237   0   2    1.5868198e-05
   3051414   4137   0   2   -4.7992692e-06
   3051414   4237   0   2    1.5868198e-05
   3051616   4137   0   2   -4.799152e-06
   3051616   4237   0   2    1.5868196e-05

DECAY 23  2.4952


DECAY 24  2.085


DECAY 1000011  17.469528
    0.60230677   2   -1000037    12
    0.29948883   2    1000025    11
    0.08109585   2    1000035    11
    0.0088643417   2   -1000024    12
    0.006936622   2    1000022    11
    0.0013075882   2    1000023    11

DECAY 2000011  19.114607
    0.99546866   2    1000035    11
    0.0044163395   2    1000023    11
    0.00011350882   2    1000022    11

DECAY 1000013  17.49784
    0.60132482   2   -1000037    14
    0.29900511   2    1000025    13
    0.080964937   2    1000035    13
    0.0088499336   2   -1000024    14
    0.0077369118   2    1000022    13
    0.0021182843   2    1000023    13

DECAY 2000013  19.246406
    0.98864559   2    1000035    13
    0.0060752566   2    1000023    13
    0.0033611566   2   -1000024    14
    0.0017947062   2    1000022    13

DECAY 1000015  15.470318
    0.36533048   2   -1000037    16
    0.1970743   2    1000022    15
    0.18824772   2    1000023    15
    0.18242876   2    1000025    15
    0.048648051   2    1000035    15
    0.018270683   2   -1000024    16

DECAY 2000015  18.425093
    0.36147286   2   -1000024    16
    0.23148551   2    1000035    15
    0.18785657   2    1000023    15
    0.18172529   2    1000022    15
    0.011592717   2    1000016   -24
    0.0097328493   2   -1000037    16
    0.0059893397   2    1000015    25
    0.0052904631   2    1000015    23
    0.0048543951   2    1000025    15

DECAY 1000012  17.479481
    0.59574442   2    1000037    11
    0.29959584   2    1000025    12
    0.081608015   2    1000035    12
    0.017202373   2    1000024    11
    0.0057530627   2    1000022    12

DECAY 1000014  17.50777
    0.59478385   2    1000037    13
    0.29910821   2    1000025    14
    0.081475131   2    1000035    14
    0.018792949   2    1000024    13
    0.0057437262   2    1000022    14

DECAY 1000016  15.396815
    0.38830671   2    1000024    15
    0.37199552   2    1000037    15
    0.18629771   2    1000025    16
    0.048624985   2    1000035    16
    0.0046965981   2    1000022    16

DECAY 2000001  4.247874
    0.99991743   2    1000021    1

DECAY 1000001  295.04543
    0.87278543   2    1000021    1
    0.082990955   2   -1000037    2
    0.041334348   2    1000025    1
    0.0013098203   2    1000035    1
    0.00093120769   2   -1000024    2
    0.00064497251   2    1000022    1

DECAY 2000003  4.2488715
    0.99960757   2    1000021    3
    0.00015617611   2    1000023    3
    0.00015574906   2   -1000024    4

DECAY 1000003  295.06092
    0.87273808   2    1000021    3
    0.082986502   2   -1000037    4
    0.041332258   2    1000025    3
    0.0013097995   2    1000035    3
    0.00093521892   2   -1000024    4
    0.00066854373   2    1000022    3

DECAY 1000005  202.15152
    0.6164186   2    1000021    5
    0.17145352   2   -1000024    6
    0.049263613   2    1000022    5
    0.048736807   2    1000023    5
    0.04797942   2   -1000037    6
    0.042861078   2    1000006   -24
    0.022553298   2    1000025    5
    0.00073366183   2    1000035    5

DECAY 2000005  389.06159
    0.74974709   2    1000021    5
    0.10933984   2   -1000024    6
    0.055199347   2    1000023    5
    0.054848234   2    1000022    5
    0.0047338886   2    1000035    5
    0.0041392907   2    2000006   -37
    0.0034074368   2    1000005    36
    0.003406219   2    1000005    35
    0.0033138603   2    1000005    25
    0.0028198466   2    2000006   -24
    0.0026015965   2    1000005    23
    0.0024501239   2    1000006   -24
    0.0023989553   2    1000006   -37
    0.001063092   2   -1000037    6
    0.00053117749   2    1000025    5

DECAY 2000002  0.0026226618
    0.86893018   2    1000021    2
    0.12755794   2    1000023    2
    0.0035118547   2    1000022    2

DECAY 1000002  295.02587
    0.8726436   2    1000021    2
    0.08224832   2    1000037    1
    0.041290457   2    1000025    2
    0.0018097656   2    1000024    1
    0.0012762812   2    1000035    2
    0.00068592333   2    1000022    2

DECAY 2000004  0.0024175059
    0.84529259   2    1000021    4
    0.14171151   2    1000023    4
    0.0069490686   2    1000022    4
    0.0060468277   2    1000024    3

DECAY 1000004  295.04061
    0.87259823   2    1000021    4
    0.082244375   2    1000037    3
    0.041288346   2    1000025    4
    0.0018568355   2    1000024    3
    0.0012762253   2    1000035    4
    0.00068791592   2    1000022    4

DECAY 1000006  173.85616
    0.53742047   2    1000021    6
    0.13140426   2    1000024    5
    0.10702601   2    1000021    4
    0.095234614   2    1000023    6
    0.087177907   2    1000022    6
    0.023854707   2    1000037    5
    0.012448142   2    1000025    6
    0.0044803221   2    1000035    6
    0.00085561296   3    1000022    24    5

DECAY 2000006  233.27752
    0.61519497   2    1000021    6
    0.13247528   2    1000024    5
    0.080922418   2    1000022    6
    0.075466102   2    1000023    6
    0.049353042   2    1000006    23
    0.019732318   2    1000037    5
    0.010678127   2    1000025    6
    0.0060437107   2    1000006    25
    0.005881671   2    1000035    6
    0.0042523553   2    1000005    24

DECAY 1000024  8.7827514e-13
    0.72481847   2    1000022    211
    0.14176191   3    1000022   -11    12
    0.13341963   3    1000022   -13    14

DECAY 1000037  9.7886087
    0.26233584   2    1000023    24
    0.24553318   2    1000024    25
    0.24450824   2    1000022    24
    0.2412247   2    1000024    23
    0.0029484381   3    1000023   -5    6
    0.0024964132   3    1000022   -5    6
    0.00089935269   3    1000024    6   -6

DECAY 1000022 -1


DECAY 1000023  3.617621e-08
    0.75439124   2    1000022    22
    0.037790648   3    1000022    12   -12
    0.028258915   3    1000022    1   -1
    0.028116972   3    1000022    3   -3
    0.023556852   3    1000024    1   -2
    0.023556852   3   -1000024   -1    2
    0.022039895   3    1000022    2   -2
    0.012977153   3    1000024    3   -4
    0.012977153   3   -1000024   -3    4
    0.0078522724   3    1000024    11   -12
    0.0078522724   3   -1000024   -11    12
    0.0078188641   3    1000024    13   -14
    0.0078188641   3   -1000024   -13    14
    0.0071711338   3    1000022    4   -4
    0.0063772333   3    1000022    11   -11
    0.0063267301   3    1000022    13   -13
    0.002397198   3    1000024    15   -16
    0.002397198   3   -1000024   -15    16
    0.00032255361   3    1000022    15   -15

DECAY 1000025  12.423725
    0.21334632   2    1000023    25
    0.20294488   2    1000023    23
    0.19336806   2    1000024   -24
    0.19336806   2   -1000024    24
    0.18729608   2    1000022    25
    0.0054284725   2    1000022    23
    0.0019099506   3    1000024    5   -6
    0.0019099506   3   -1000024   -5    6
    0.00018459612   3    1000023    6   -6
    0.0001758001   3    1000022    6   -6

DECAY 1000035  8.5442337
    0.11194688   2    1000024   -24
    0.11194688   2   -1000024    24
    0.11059328   2    1000022    23
    0.10743196   2    2000004   -4
    0.10743196   2   -2000004    4
    0.10743185   2    2000002   -2
    0.10743185   2   -2000002    2
    0.095075063   2    1000023    25
    0.089256762   2    1000022    25
    0.011447514   2    2000003   -3
    0.011447514   2   -2000003    3
    0.011446833   2    2000001   -1
    0.011446833   2   -2000001    1
    0.0028269948   2    1000023    23
    0.001240439   3    1000024    5   -6
    0.001240439   3   -1000024   -5    6
    0.0001619092   3    1000023    6   -6
    0.00016180049   3    1000022    6   -6

DECAY 1000021  1.976487e-06
    0.4100824   2    1000022    21
    0.36601982   2    1000023    21
    0.079691297   3    1000023    4   -4
    0.07845116   3    1000023    2   -2
    0.028612875   3    1000022    5   -5
    0.023154937   3    1000023    5   -5
    0.0037572033   3    1000022    4   -4
    0.0023127462   3    1000022    2   -2
    0.0021547212   3    1000024    3   -4
    0.0021547212   3   -1000024   -3    4
    0.0015820475   3    1000023    3   -3
    0.00094764011   3    1000023    1   -1
    0.00082003919   3    1000022    3   -3

DECAY 25  0.0043209829
    0.53816429   2   -5    5
    0.26729053   2   -24    24
    0.068856205   2    21    21
    0.06153904   2   -15    15
    0.033984515   2    23    23
    0.025773852   2   -4    4
    0.0022961167   2    22    22
    0.0016802318   2    22    23
    0.00021346132   2   -13    13
    0.00020106194   2   -3    3
    5.5590998e-07   2   -1    1
    1.328117e-07   2   -2    2
    4.7988178e-09   2   -11    11

DECAY 35  52.695494
    0.9056668   2   -5    5
    0.09282733   2   -15    15
    0.00083944068   2   -6    6
    0.00032647505   2   -13    13
    0.00029326946   2   -3    3
    4.1755543e-05   2    21    21
    2.4932783e-06   2    25    25
    8.1263368e-07   2    23    23
    8.1054343e-07   2   -1    1
    7.5927464e-07   2   -24    24
    1.7744023e-08   2    22    22
    1.2428382e-08   2   -4    4
    1.0794742e-08   2    22    23
    7.3342697e-09   2   -11    11
    6.4070053e-14   2   -2    2

DECAY 36  49.644133
    0.90566118   2   -5    5
    0.092829282   2   -15    15
    0.000827281   2   -6    6
    0.00032647882   2   -13    13
    0.00029326308   2   -3    3
    6.042005e-05   2    21    21
    1.1612806e-06   2    23    25
    8.1052622e-07   2   -1    1
    6.0310526e-08   2    22    22
    4.7875464e-08   2    22    23
    1.1408649e-08   2   -4    4
    7.3343613e-09   2   -11    11
    5.882731e-14   2   -2    2
    2.6401019e-36   2    25    25

DECAY 37  55.554762
    0.89842759   2   -5    6
    0.099589592   2   -15    16
    0.0013547778   2   -5    4
    0.00035208575   2   -13    14
    0.00025172332   2   -3    4
    1.1674393e-05   2   -3    2
    9.6745254e-06   2   -5    2
    1.0618315e-06   2   -3    6
    1.0500696e-06   2    24    25
    6.9807132e-07   2   -1    2
    3.2583423e-08   2   -1    4
    3.2223681e-08   2   -1    6
    8.2353223e-09   2   -11    12
    2.7808149e-11   2    24    35
    1.8275888e-11   2    24    36

DECAY 6  2.43
    1   2    5    24

DECAY 15 -1
