# SUSY Les Houches Accord 2 - MSSM spectrum + Decays
# SPheno v4.0.5be
# W. Porod, Comput. Phys. Commun. 153 (2003) 275-315, hep-ph/0301101;
# W. Porod, F.~Staub, Comput. Phys. Commun. 183 (2012) 2458
#                     arXiv:1104.1573 [hep-ph] 
# in case of problems send email to porod@physik.uni-wuerzburg.de
# Created: 20.12.2022,  11:42
Block SPINFO         # Program information
     1   SPheno      # spectrum calculator
     2   v4.0.5be    # version number
#
Block SPhenoINFO     # SPheno specific information
    1      2         # using 2-loop RGEs
    2      2         # using pole masses for boundary conditions at mZ
Block MODSEL  # Model selection
    1    0    # general MSSM
Block MINPAR  # Input parameters
    3    2.55997978E+00  # tanb at m_Z    
    4   -1.00000000E+00  # Sign(mu)
Block EXTPAR  # non-universal input parameters
    0    3.25146486E+03  # scale for input parameters
    1   -4.11023091E+02  # M_1
    2    8.60814201E+02  # M_2
    3    2.31793879E+03  # M_3
   11   -6.58452589E+03  # A_t
   12   -2.66245242E+02  # A_b
   13    1.09733817E+03  # A_tau
   23   -1.12667792E+03  # mu
   25    2.41972155E+00  # tan(beta)
   26    3.08867752E+03  # m_A, pole mass
   31    1.00000000E+04  # M_L11
   32    1.00000000E+04  # M_L22
   33    1.00000000E+04  # M_L33
   34    1.00000000E+04  # M_E11
   35    1.00000000E+04  # M_E22
   36    1.00000000E+04  # M_E33
   41    1.00000000E+04  # M_Q11
   42    1.00000000E+04  # M_Q22
   43    3.10660500E+03  # M_Q33
   44    1.00000000E+04  # M_U11
   45    1.00000000E+04  # M_U22
   46    3.48620518E+03  # M_U33
   47    1.00000000E+04  # M_D11
   48    1.00000000E+04  # M_D22
   49    4.60327945E+03  # M_D33
Block SMINPUTS  # SM parameters
         1     1.27908970E+02  # alpha_em^-1(MZ)^MSbar
         2     1.16637870E-05  # G_mu [GeV^-2]
         3     1.18400000E-01  # alpha_s(MZ)^MSbar
         4     9.11876000E+01  # m_Z(pole)
         5     4.18000000E+00  # m_b(m_b), MSbar
         6     1.73200000E+02  # m_t(pole)
         7     1.77700000E+00  # m_tau(pole)
         8     0.00000000E+00  # m_nu_3
        11     5.10998930E-04  # m_e(pole)
        12     0.00000000E+00  # m_nu_1
        13     1.05658372E-01  # m_muon(pole)
        14     0.00000000E+00  # m_nu_2
        21     5.00000000E-03  # m_d(2 GeV), MSbar
        22     2.50000000E-03  # m_u(2 GeV), MSbar
        23     9.50000000E-02  # m_s(2 GeV), MSbar
        24     1.27000000E+00  # m_c(m_c), MSbar
Block gauge Q=  3.25146486E+03  # (SUSY scale)
   1    3.55362975E-01  # g'(Q)^DRbar
   2    6.65198874E-01  # g(Q)^DRbar
   3    1.21977796E+00  # g3(Q)^DRbar
Block Yu Q=  3.25146486E+03  # (SUSY scale)
  1  1     9.07215669E-06   # Y_u(Q)^DRbar
  2  2     4.60865560E-03   # Y_c(Q)^DRbar
  3  3     1.09598940E+00   # Y_t(Q)^DRbar
Block Yd Q=  3.25146486E+03  # (SUSY scale)
  1  1     4.41119425E-05   # Y_d(Q)^DRbar
  2  2     8.38126907E-04   # Y_s(Q)^DRbar
  3  3     4.37452242E-02   # Y_b(Q)^DRbar
Block Ye Q=  3.25146486E+03  # (SUSY scale)
  1  1     7.69785653E-06   # Y_e(Q)^DRbar
  2  2     1.59167259E-03   # Y_mu(Q)^DRbar
  3  3     2.67693145E-02   # Y_tau(Q)^DRbar
Block Au Q=  3.25146486E+03  # (SUSY scale)
  1  1     0.00000000E+00   # A_u(Q)^DRbar
  2  2     0.00000000E+00   # A_c(Q)^DRbar
  3  3    -6.58452573E+03   # A_t(Q)^DRbar
Block Ad Q=  3.25146486E+03  # (SUSY scale)
  1  1     0.00000000E+00   # A_d(Q)^DRbar
  2  2     0.00000000E+00   # A_s(Q)^DRbar
  3  3    -2.66245242E+02   # A_b(Q)^DRbar
Block Ae Q=  3.25146486E+03  # (SUSY scale)
  1  1     0.00000000E+00   # A_e(Q)^DRbar
  2  2     0.00000000E+00   # A_mu(Q)^DRbar
  3  3     1.09733817E+03   # A_tau(Q)^DRbar
Block MSOFT Q=  3.25146486E+03  # soft SUSY breaking masses at Q
   1   -4.11023091E+02  # M_1
   2    8.60814201E+02  # M_2
   3    2.31793879E+03  # M_3
  21    6.88410791E+06  # M^2_(H,d)
  22    3.75728226E+05  # M^2_(H,u)
  31    1.00000000E+04  # M_(L,11)
  32    1.00000000E+04  # M_(L,22)
  33    1.00000000E+04  # M_(L,33)
  34    1.00000000E+04  # M_(E,11)
  35    1.00000000E+04  # M_(E,22)
  36    1.00000000E+04  # M_(E,33)
  41    1.00000000E+04  # M_(Q,11)
  42    1.00000000E+04  # M_(Q,22)
  43    3.10660500E+03  # M_(Q,33)
  44    1.00000000E+04  # M_(U,11)
  45    1.00000000E+04  # M_(U,22)
  46    3.48620518E+03  # M_(U,33)
  47    1.00000000E+04  # M_(D,11)
  48    1.00000000E+04  # M_(D,22)
  49    4.60327945E+03  # M_(D,33)
Block MASS  # Mass spectrum
#   PDG code      mass          particle
         6     1.73200000E+02  # m_t(pole)
        23     9.11876000E+01  # m_Z(pole)
        24     8.04299946E+01  # W+
        15     1.77700000E+00  # m_tau(pole)
        25     1.14412523E+02  # h0
        35     3.08911621E+03  # H0
        36     3.08867752E+03  # A0
        37     3.09029547E+03  # H+
   1000001     1.01123312E+04  # ~d_L
   2000001     1.00878231E+04  # ~d_R
   1000002     1.01120631E+04  # ~u_L
   2000002     1.00908796E+04  # ~u_R
   1000003     1.01123319E+04  # ~s_L
   2000003     1.00878231E+04  # ~s_R
   1000004     1.01120638E+04  # ~c_L
   2000004     1.00908809E+04  # ~c_R
   1000005     3.12860373E+03  # ~b_1
   2000005     4.66330464E+03  # ~b_2
   1000006     3.07668711E+03  # ~t_1
   2000006     3.43617123E+03  # ~t_2
   1000011     1.00208363E+04  # ~e_L-
   2000011     1.00089663E+04  # ~e_R-
   1000012     1.00201681E+04  # ~nu_eL
   1000013     1.00208365E+04  # ~mu_L-
   2000013     1.00089665E+04  # ~mu_R-
   1000014     1.00201682E+04  # ~nu_muL
   1000015     1.00090174E+04  # ~tau_1-
   2000015     1.00208772E+04  # ~tau_2-
   1000016     1.00201991E+04  # ~nu_tauL
   1000021     2.74716347E+03  # ~g
   1000022     4.11293043E+02  # ~chi_10
   1000023     9.34835351E+02  # ~chi_20
   1000025     1.14978349E+03  # ~chi_30
   1000035     1.15025689E+03  # ~chi_40
   1000024     9.33575304E+02  # ~chi_1+
   1000037     1.15223295E+03  # ~chi_2+
# Higgs mixing
Block alpha # Effective Higgs mixing angle
          -3.73120363E-01   # alpha
Block Hmix Q=  3.25146486E+03  # Higgs mixing parameters
   1   -1.12667792E+03  # mu
   2    2.41972155E+00  # tan[beta](Q)
   3    2.43161257E+02  # v(Q)
   4    9.53992882E+06  # m^2_A(Q)
Block stopmix # stop mixing matrix
   1  1     9.31664452E-01   # Re[R_st(1,1)]
   1  2     3.63319898E-01   # Re[R_st(1,2)]
   2  1    -3.63319898E-01   # Re[R_st(2,1)]
   2  2     9.31664452E-01   # Re[R_st(2,2)]
Block sbotmix # sbottom mixing matrix
   1  1    -9.99999923E-01   # Re[R_sb(1,1)]
   1  2     3.92291678E-04   # Re[R_sb(1,2)]
   2  1    -3.92291678E-04   # Re[R_sb(2,1)]
   2  2    -9.99999923E-01   # Re[R_sb(2,2)]
Block staumix # stau mixing matrix
   1  1    -2.88055388E-02   # Re[R_sta(1,1)]
   1  2     9.99585034E-01   # Re[R_sta(1,2)]
   2  1    -9.99585034E-01   # Re[R_sta(2,1)]
   2  2    -2.88055388E-02   # Re[R_sta(2,2)]
Block Nmix # neutralino mixing matrix
   1  1     9.98387914E-01   # Re[N(1,1)]
   1  2     2.80568695E-03   # Re[N(1,2)]
   1  3    -4.71057186E-02   # Re[N(1,3)]
   1  4     3.15397102E-02   # Re[N(1,4)]
   2  1     7.17323013E-04   # Re[N(2,1)]
   2  2     9.89718727E-01   # Re[N(2,2)]
   2  3     1.23010388E-01   # Re[N(2,3)]
   2  4     7.29710321E-02   # Re[N(2,4)]
   3  1     1.10499531E-02   # Re[N(3,1)]
   3  2    -1.38502903E-01   # Re[N(3,2)]
   3  3     6.96980245E-01   # Re[N(3,3)]
   3  4     7.03500805E-01   # Re[N(3,4)]
   4  1    -5.56682846E-02   # Re[N(4,1)]
   4  2     3.55797092E-02   # Re[N(4,2)]
   4  3    -7.04888668E-01   # Re[N(4,3)]
   4  4     7.06234446E-01   # Re[N(4,4)]
Block Umix # chargino mixing matrix
   1  1    -9.84491933E-01   # Re[U(1,1)]
   1  2    -1.75429852E-01   # Re[U(1,2)]
   2  1     1.75429852E-01   # Re[U(2,1)]
   2  2    -9.84491933E-01   # Re[U(2,2)]
Block Vmix # chargino mixing matrix
   1  1    -9.94456914E-01   # Re[V(1,1)]
   1  2     1.05144885E-01   # Re[V(1,2)]
   2  1     1.05144885E-01   # Re[V(2,1)]
   2  2     9.94456914E-01   # Re[V(2,2)]
DECAY        23     2.49520000E+00   # Z
DECAY        24     2.08500000E+00   # W
DECAY   2000011     5.01179956E+01   # ~e^-_R
#    BR                NDA      ID1      ID2
     9.96852099E-01    2     1000022        11   # BR(~e^-_R -> chi^0_1 e^-)
     1.19311636E-04    2     1000025        11   # BR(~e^-_R -> chi^0_3 e^-)
     3.02808215E-03    2     1000035        11   # BR(~e^-_R -> chi^0_4 e^-)
DECAY   1000011     1.42547279E+02   # ~e^-_L
#    BR                NDA      ID1      ID2
     8.86504350E-02    2     1000022        11   # BR(~e^-_L -> chi^0_1 e^-)
     2.98068248E-01    2     1000023        11   # BR(~e^-_L -> chi^0_2 e^-)
     5.29813316E-03    2     1000025        11   # BR(~e^-_L -> chi^0_3 e^-)
     5.89427994E-01    2    -1000024        12   # BR(~e^-_L -> chi^-_1 nu_e)
     1.85449112E-02    2    -1000037        12   # BR(~e^-_L -> chi^-_2 nu_e)
#    BR                NDA      ID1      ID2       ID3
DECAY   2000013     5.01189792E+01   # ~mu^-_R
#    BR                NDA      ID1      ID2
     9.96832578E-01    2     1000022        13   # BR(~mu^-_R -> chi^0_1 mu^-)
     1.24070385E-04    2     1000025        13   # BR(~mu^-_R -> chi^0_3 mu^-)
     3.03289195E-03    2     1000035        13   # BR(~mu^-_R -> chi^0_4 mu^-)
DECAY   1000013     1.42547774E+02   # ~mu^-_L
#    BR                NDA      ID1      ID2
     8.86501368E-02    2     1000022        13   # BR(~mu^-_L -> chi^0_1 mu^-)
     2.98067273E-01    2     1000023        13   # BR(~mu^-_L -> chi^0_2 mu^-)
     5.29979052E-03    2     1000025        13   # BR(~mu^-_L -> chi^0_3 mu^-)
     5.89425960E-01    2    -1000024        14   # BR(~mu^-_L -> chi^-_1 nu_mu)
     1.85448472E-02    2    -1000037        14   # BR(~mu^-_L -> chi^-_2 nu_mu)
#    BR                NDA      ID1      ID2       ID3
DECAY   1000015     5.04731609E+01   # ~tau^-_1
#    BR                NDA      ID1      ID2
     9.89305884E-01    2     1000022        15   # BR(~tau^-_1 -> chi^0_1 tau^-)
     1.08227003E-03    2     1000023        15   # BR(~tau^-_1 -> chi^0_2 tau^-)
     1.18770865E-03    2     1000025        15   # BR(~tau^-_1 -> chi^0_3 tau^-)
     4.24372064E-03    2     1000035        15   # BR(~tau^-_1 -> chi^0_4 tau^-)
     2.15161494E-03    2    -1000024        16   # BR(~tau^-_1 -> chi^-_1 nu_tau)
     2.02880131E-03    2    -1000037        16   # BR(~tau^-_1 -> chi^-_2 nu_tau)
DECAY   2000015     1.42609960E+02   # ~tau^-_2
#    BR                NDA      ID1      ID2
     8.88064416E-02    2     1000022        15   # BR(~tau^-_2 -> chi^0_1 tau^-)
     2.97585078E-01    2     1000023        15   # BR(~tau^-_2 -> chi^0_2 tau^-)
     5.86459169E-03    2     1000025        15   # BR(~tau^-_2 -> chi^0_3 tau^-)
     5.41300523E-04    2     1000035        15   # BR(~tau^-_2 -> chi^0_4 tau^-)
     5.88439268E-01    2    -1000024        16   # BR(~tau^-_2 -> chi^-_1 nu_tau)
     1.87633204E-02    2    -1000037        16   # BR(~tau^-_2 -> chi^-_2 nu_tau)
#    BR                NDA      ID1      ID2       ID3
DECAY   1000012     1.42546478E+02   # ~nu_e
#    BR                NDA      ID1      ID2
     8.67992176E-02    2     1000022        12   # BR(~nu_e -> chi^0_1 nu_e)
     2.97588100E-01    2     1000023        12   # BR(~nu_e -> chi^0_2 nu_e)
     6.28318291E-03    2     1000025        12   # BR(~nu_e -> chi^0_3 nu_e)
     1.28551376E-03    2     1000035        12   # BR(~nu_e -> chi^0_4 nu_e)
     6.01382578E-01    2     1000024        11   # BR(~nu_e -> chi^+_1 e^-)
     6.66140744E-03    2     1000037        11   # BR(~nu_e -> chi^+_2 e^-)
#    BR                NDA      ID1      ID2       ID3
DECAY   1000014     1.42546972E+02   # ~nu_mu
#    BR                NDA      ID1      ID2
     8.67989181E-02    2     1000022        14   # BR(~nu_mu -> chi^0_1 nu_mu)
     2.97587073E-01    2     1000023        14   # BR(~nu_mu -> chi^0_2 nu_mu)
     6.28316122E-03    2     1000025        14   # BR(~nu_mu -> chi^0_3 nu_mu)
     1.28550932E-03    2     1000035        14   # BR(~nu_mu -> chi^0_4 nu_mu)
     6.01380611E-01    2     1000024        13   # BR(~nu_mu -> chi^+_1 mu^-)
     6.66472726E-03    2     1000037        13   # BR(~nu_mu -> chi^+_2 mu^-)
#    BR                NDA      ID1      ID2       ID3
DECAY   1000016     1.42686076E+02   # ~nu_tau
#    BR                NDA      ID1      ID2
     8.67145671E-02    2     1000022        16   # BR(~nu_tau -> chi^0_1 nu_tau)
     2.97297905E-01    2     1000023        16   # BR(~nu_tau -> chi^0_2 nu_tau)
     6.27705617E-03    2     1000025        16   # BR(~nu_tau -> chi^0_3 nu_tau)
     1.28426025E-03    2     1000035        16   # BR(~nu_tau -> chi^0_4 nu_tau)
     6.00826660E-01    2     1000024        15   # BR(~nu_tau -> chi^+_1 tau^-)
     7.59955176E-03    2     1000037        15   # BR(~nu_tau -> chi^+_2 tau^-)
#    BR                NDA      ID1      ID2       ID3
DECAY   2000001     6.88154372E+02   # ~d_R
#    BR                NDA      ID1      ID2
     8.13068524E-03    2     1000022         1   # BR(~d_R -> chi^0_1 d)
     9.91843629E-01    2     1000021         1   # BR(~d_R -> ~g d)
DECAY   1000001     8.17364539E+02   # ~d_L
#    BR                NDA      ID1      ID2
     1.66180999E-03    2     1000022         1   # BR(~d_L -> chi^0_1 d)
     5.24197777E-02    2     1000023         1   # BR(~d_L -> chi^0_2 d)
     1.04690525E-03    2     1000025         1   # BR(~d_L -> chi^0_3 d)
     1.09802555E-04    2     1000035         1   # BR(~d_L -> chi^0_4 d)
     1.03766746E-01    2    -1000024         2   # BR(~d_L -> chi^-_1 u)
     3.26531312E-03    2    -1000037         2   # BR(~d_L -> chi^-_2 u)
     8.37729645E-01    2     1000021         1   # BR(~d_L -> ~g d)
DECAY   2000003     6.88154645E+02   # ~s_R
#    BR                NDA      ID1      ID2
     8.13068246E-03    2     1000022         3   # BR(~s_R -> chi^0_1 s)
     9.91843234E-01    2     1000021         3   # BR(~s_R -> ~g s)
DECAY   1000003     8.17368911E+02   # ~s_L
#    BR                NDA      ID1      ID2
     1.66180160E-03    2     1000022         3   # BR(~s_L -> chi^0_1 s)
     5.24195037E-02    2     1000023         3   # BR(~s_L -> chi^0_2 s)
     1.04698124E-03    2     1000025         3   # BR(~s_L -> chi^0_3 s)
     1.09885410E-04    2     1000035         3   # BR(~s_L -> chi^0_4 s)
     1.03766247E-01    2    -1000024         4   # BR(~s_L -> chi^-_1 c)
     3.27034055E-03    2    -1000037         4   # BR(~s_L -> chi^-_2 c)
     8.37725240E-01    2     1000021         3   # BR(~s_L -> ~g s)
DECAY   1000005     1.03210487E+02   # ~b_1
#    BR                NDA      ID1      ID2
     3.94796217E-03    2     1000022         5   # BR(~b_1 -> chi^0_1 b)
     1.08386997E-01    2     1000023         5   # BR(~b_1 -> chi^0_2 b)
     2.38609335E-03    2     1000025         5   # BR(~b_1 -> chi^0_3 b)
     6.34351060E-04    2     1000035         5   # BR(~b_1 -> chi^0_4 b)
     2.16907469E-01    2    -1000024         6   # BR(~b_1 -> chi^-_1 t)
     5.42298307E-01    2    -1000037         6   # BR(~b_1 -> chi^-_2 t)
     1.25438821E-01    2     1000021         5   # BR(~b_1 -> ~g b)
DECAY   2000005     1.59816586E+02   # ~b_2
#    BR                NDA      ID1      ID2
     1.59885877E-02    2     1000022         5   # BR(~b_2 -> chi^0_1 b)
     4.78580928E-04    2     1000025         5   # BR(~b_2 -> chi^0_3 b)
     5.31598596E-04    2     1000035         5   # BR(~b_2 -> chi^0_4 b)
     9.48731628E-04    2    -1000037         6   # BR(~b_2 -> chi^-_2 t)
     9.81979324E-01    2     1000021         5   # BR(~b_2 -> ~g b)
DECAY   2000002     7.05272800E+02   # ~u_R
#    BR                NDA      ID1      ID2
     3.17430257E-02    2     1000022         2   # BR(~u_R -> chi^0_1 u)
     9.68156697E-01    2     1000021         2   # BR(~u_R -> ~g u)
DECAY   1000002     8.17354636E+02   # ~u_L
#    BR                NDA      ID1      ID2
     1.77007674E-03    2     1000022         2   # BR(~u_L -> chi^0_1 u)
     5.24460435E-02    2     1000023         2   # BR(~u_L -> chi^0_2 u)
     9.89051183E-04    2     1000025         2   # BR(~u_L -> chi^0_3 u)
     1.05876401E-01    2     1000024         1   # BR(~u_L -> chi^+_1 d)
     1.17297146E-03    2     1000037         1   # BR(~u_L -> chi^+_2 d)
     8.37710505E-01    2     1000021         2   # BR(~u_L -> ~g u)
DECAY   2000004     7.05281195E+02   # ~c_R
#    BR                NDA      ID1      ID2
     3.17426571E-02    2     1000022         4   # BR(~c_R -> chi^0_1 c)
     9.68145294E-01    2     1000021         4   # BR(~c_R -> ~g c)
DECAY   1000004     8.17358976E+02   # ~c_L
#    BR                NDA      ID1      ID2
     1.77007251E-03    2     1000022         4   # BR(~c_L -> chi^0_1 c)
     5.24457921E-02    2     1000023         4   # BR(~c_L -> chi^0_2 c)
     9.91569923E-04    2     1000025         4   # BR(~c_L -> chi^0_3 c)
     1.05875851E-01    2     1000024         3   # BR(~c_L -> chi^+_1 s)
     1.17312797E-03    2     1000037         3   # BR(~c_L -> chi^+_2 s)
     8.37706096E-01    2     1000021         4   # BR(~c_L -> ~g c)
DECAY   1000006     1.01290169E+02   # ~t_1
#    BR                NDA      ID1      ID2
     9.63533250E-03    2     1000022         6   # BR(~t_1 -> chi^0_1 t)
     1.07276166E-01    2     1000023         6   # BR(~t_1 -> chi^0_2 t)
     2.42613897E-01    2     1000025         6   # BR(~t_1 -> chi^0_3 t)
     2.63547009E-01    2     1000035         6   # BR(~t_1 -> chi^0_4 t)
     2.15818606E-01    2     1000024         5   # BR(~t_1 -> chi^+_1 b)
     4.96191858E-02    2     1000037         5   # BR(~t_1 -> chi^+_2 b)
     1.10605379E-01    2     1000021         6   # BR(~t_1 -> ~g t)
#    BR                NDA      ID1      ID2       ID3
     8.84423176E-04    3     1000022        24         5   # BR(~t_1 -> chi^0_1 W^+ b)
DECAY   2000006     2.01388967E+02   # ~t_2
#    BR                NDA      ID1      ID2
     3.44853586E-02    2     1000022         6   # BR(~t_2 -> chi^0_1 t)
     2.79229178E-03    2     1000023         6   # BR(~t_2 -> chi^0_2 t)
     1.71954106E-01    2     1000025         6   # BR(~t_2 -> chi^0_3 t)
     1.58949807E-01    2     1000035         6   # BR(~t_2 -> chi^0_4 t)
     5.15137282E-03    2     1000024         5   # BR(~t_2 -> chi^+_1 b)
     2.89746958E-01    2     1000037         5   # BR(~t_2 -> chi^+_2 b)
     1.42769873E-01    2     1000021         6   # BR(~t_2 -> ~g t)
     8.13436604E-02    2     1000005        24   # BR(~t_2 -> ~b_1 W^+)
     5.53955190E-02    2     1000006        23   # BR(~t_2 -> ~t_1 Z)
     5.74110537E-02    2     1000006        25   # BR(~t_2 -> ~t_1 h^0)
DECAY   1000024     1.07142328E-02   # chi^+_1
#    BR                NDA      ID1      ID2
     9.95068387E-01    2     1000022        24   # BR(chi^+_1 -> chi^0_1 W^+)
#    BR                NDA      ID1      ID2       ID3
     4.92917828E-03    3     1000022        -5         6   # BR(chi^+_1 -> chi^0_1 b_bar t)
DECAY   1000037     2.18870373E+00   # chi^+_2
#    BR                NDA      ID1      ID2
     5.07534228E-01    2     1000022        24   # BR(chi^+_2 -> chi^0_1 W^+)
     1.65011659E-01    2     1000023        24   # BR(chi^+_2 -> chi^0_2 W^+)
     1.53170222E-01    2     1000024        23   # BR(chi^+_2 -> chi^+_1 Z)
     1.71316342E-01    2     1000024        25   # BR(chi^+_2 -> chi^+_1 h^0)
#    BR                NDA      ID1      ID2       ID3
     2.94308065E-03    3     1000022        -5         6   # BR(chi^+_2 -> chi^0_1 b_bar t)
DECAY   1000022     0.00000000E+00   # chi^0_1
DECAY   1000023     1.37085151E-02   # chi^0_2
#    BR                NDA      ID1      ID2
     7.22920695E-01    2     1000022        23   # BR(chi^0_2 -> chi^0_1 Z)
     2.76465781E-01    2     1000022        25   # BR(chi^0_2 -> chi^0_1 h^0)
#    BR                NDA      ID1      ID2       ID3
     5.78813142E-04    3     1000022         6        -6   # BR(chi^0_2 -> chi^0_1 t t_bar)
DECAY   1000025     2.30920575E+00   # chi^0_3
#    BR                NDA      ID1      ID2
     1.43255785E-01    2     1000024       -24   # BR(chi^0_3 -> chi^+_1 W^-)
     1.43255785E-01    2    -1000024        24   # BR(chi^0_3 -> chi^-_1 W^+)
     4.57358342E-01    2     1000022        23   # BR(chi^0_3 -> chi^0_1 Z)
     1.26714890E-02    2     1000023        23   # BR(chi^0_3 -> chi^0_2 Z)
     8.31613624E-02    2     1000022        25   # BR(chi^0_3 -> chi^0_1 h^0)
     1.59249694E-01    2     1000023        25   # BR(chi^0_3 -> chi^0_2 h^0)
#    BR                NDA      ID1      ID2       ID3
     9.86707755E-04    3     1000022         6        -6   # BR(chi^0_3 -> chi^0_1 t t_bar)
DECAY   1000035     4.40696651E+00   # chi^0_4
#    BR                NDA      ID1      ID2
     1.13342117E-01    2     1000024       -24   # BR(chi^0_4 -> chi^+_1 W^-)
     1.13342117E-01    2    -1000024        24   # BR(chi^0_4 -> chi^-_1 W^+)
     9.47219606E-03    2     1000022        23   # BR(chi^0_4 -> chi^0_1 Z)
     1.07804376E-01    2     1000023        23   # BR(chi^0_4 -> chi^0_2 Z)
     2.10386033E-01    2     1000022        25   # BR(chi^0_4 -> chi^0_1 h^0)
     4.43992597E-01    2     1000023        25   # BR(chi^0_4 -> chi^0_2 h^0)
#    BR                NDA      ID1      ID2       ID3
     1.39574991E-03    3     1000022         6        -6   # BR(chi^0_4 -> chi^0_1 t t_bar)
DECAY   1000021     1.78049259E-01   # ~g
#    BR                NDA      ID1      ID2
     3.51501517E-03    2     1000025        21   # BR(~g -> chi^0_3 g)
     3.56862160E-03    2     1000035        21   # BR(~g -> chi^0_4 g)
#    BR                NDA      ID1      ID2       ID3
     1.75200025E-04    3     1000022         2        -2   # BR(~g -> chi^0_1 u u_bar)
     1.75200009E-04    3     1000022         4        -4   # BR(~g -> chi^0_1 c c_bar)
     2.54699844E-02    3     1000022         6        -6   # BR(~g -> chi^0_1 t t_bar)
     3.70574653E-03    3     1000022         5        -5   # BR(~g -> chi^0_1 b b_bar)
     1.84248439E-04    3     1000023         2        -2   # BR(~g -> chi^0_2 u u_bar)
     1.84248595E-04    3     1000023         4        -4   # BR(~g -> chi^0_2 c c_bar)
     4.53369559E-02    3     1000023         6        -6   # BR(~g -> chi^0_2 t t_bar)
     1.84133051E-04    3     1000023         1        -1   # BR(~g -> chi^0_2 d d_bar)
     1.84133017E-04    3     1000023         3        -3   # BR(~g -> chi^0_2 s s_bar)
     5.46352175E-02    3     1000023         5        -5   # BR(~g -> chi^0_2 b b_bar)
     1.57197903E-01    3     1000025         6        -6   # BR(~g -> chi^0_3 t t_bar)
     9.86134671E-04    3     1000025         5        -5   # BR(~g -> chi^0_3 b b_bar)
     1.52161468E-01    3     1000035         6        -6   # BR(~g -> chi^0_4 t t_bar)
     2.66908972E-04    3     1000035         5        -5   # BR(~g -> chi^0_4 b b_bar)
     3.68946065E-04    3     1000024         1        -2   # BR(~g -> chi^+_1 d u_bar)
     3.68946065E-04    3    -1000024        -1         2   # BR(~g -> chi^-_1 d_bar u)
     3.68946197E-04    3     1000024         3        -4   # BR(~g -> chi^+_1 s c_bar)
     3.68946197E-04    3    -1000024        -3         4   # BR(~g -> chi^-_1 s_bar c)
     1.00041203E-01    3     1000024         5        -6   # BR(~g -> chi^+_1 b t_bar)
     1.00041203E-01    3    -1000024        -5         6   # BR(~g -> chi^-_1 b_bar t)
     1.75136693E-01    3     1000037         5        -6   # BR(~g -> chi^+_2 b t_bar)
     1.75136693E-01    3    -1000037        -5         6   # BR(~g -> chi^-_2 b_bar t)
DECAY        25     2.89482035E-03   # Gamma(h0)
     2.19625881E-03   2        22        22   # BR(h0 -> photon photon)
     6.56873496E-04   2        22        23   # BR(h0 -> photon Z)
     8.55865549E-03   2        23        23   # BR(h0 -> Z Z)
     8.62260395E-02   2       -24        24   # BR(h0 -> W W)
     7.49920171E-02   2        21        21   # BR(h0 -> gluon gluon)
     6.27743898E-09   2       -11        11   # BR(h0 -> Electron electron)
     2.79224221E-04   2       -13        13   # BR(h0 -> Muon muon)
     8.04913084E-02   2       -15        15   # BR(h0 -> Tau tau)
     1.81075282E-07   2        -2         2   # BR(h0 -> Up up)
     3.51308908E-02   2        -4         4   # BR(h0 -> Charm charm)
     7.38339600E-07   2        -1         1   # BR(h0 -> Down down)
     2.67039770E-04   2        -3         3   # BR(h0 -> Strange strange)
     7.11200767E-01   2        -5         5   # BR(h0 -> Bottom bottom)
DECAY        35     3.95777173E+01   # Gamma(HH)
     4.37372419E-07   2        22        22   # BR(HH -> photon photon)
     4.31042522E-08   2        22        23   # BR(HH -> photon Z)
     7.55496684E-05   2        23        23   # BR(HH -> Z Z)
     2.19538309E-05   2       -24        24   # BR(HH -> W W)
     1.25222663E-04   2        21        21   # BR(HH -> gluon gluon)
     8.17988201E-11   2       -11        11   # BR(HH -> Electron electron)
     3.64210054E-06   2       -13        13   # BR(HH -> Muon muon)
     1.05188908E-03   2       -15        15   # BR(HH -> Tau tau)
     3.04716040E-11   2        -2         2   # BR(HH -> Up up)
     5.91126510E-06   2        -4         4   # BR(HH -> Charm charm)
     4.47113438E-01   2        -6         6   # BR(HH -> Top top)
     6.01685158E-09   2        -1         1   # BR(HH -> Down down)
     2.17629898E-06   2        -3         3   # BR(HH -> Strange strange)
     5.65672108E-03   2        -5         5   # BR(HH -> Bottom bottom)
     1.10570709E-02   2  -1000024   1000024   # BR(HH -> Chargino1 chargino1)
     1.51013498E-01   2  -1000024   1000037   # BR(HH -> Chargino1 chargino2)
     1.51013498E-01   2  -1000037   1000024   # BR(HH -> Chargino2 chargino1)
     3.48455046E-03   2  -1000037   1000037   # BR(HH -> Chargino2 chargino2)
     1.66977075E-04   2   1000022   1000022   # BR(HH -> neutralino1 neutralino1)
     2.71208610E-03   2   1000022   1000023   # BR(HH -> neutralino1 neutralino2)
     5.83624807E-02   2   1000022   1000025   # BR(HH -> neutralino1 neutralino3)
     8.92360009E-03   2   1000022   1000035   # BR(HH -> neutralino1 neutralino4)
     5.58852875E-03   2   1000023   1000023   # BR(HH -> neutralino2 neutralino2)
     1.11419992E-01   2   1000023   1000025   # BR(HH -> neutralino2 neutralino3)
     3.62378150E-02   2   1000023   1000035   # BR(HH -> neutralino2 neutralino4)
     2.63334161E-03   2   1000025   1000025   # BR(HH -> neutralino3 neutralino3)
     2.64300236E-03   2   1000025   1000035   # BR(HH -> neutralino3 neutralino4)
     1.40290097E-04   2   1000035   1000035   # BR(HH -> neutralino4 neutralino4)
     5.46277041E-04   2        25        25   # BR(HH -> h0 h0)
DECAY        36     3.86170993E+01   # Gamma(A0)
     5.13954139E-07   2        22        22   # BR(A0 -> photon photon)
     1.42817041E-07   2        22        23   # BR(A0 -> photon Z)
     1.55464929E-04   2        21        21   # BR(A0 -> gluon gluon)
     8.08276103E-11   2       -11        11   # BR(A0 -> Electron electron)
     3.59888156E-06   2       -13        13   # BR(A0 -> Muon muon)
     1.03940814E-03   2       -15        15   # BR(A0 -> Tau tau)
     2.91739929E-11   2        -2         2   # BR(A0 -> Up up)
     5.65931423E-06   2        -4         4   # BR(A0 -> Charm charm)
     4.33452272E-01   2        -6         6   # BR(A0 -> Top top)
     5.94527835E-09   2        -1         1   # BR(A0 -> Down down)
     2.15042165E-06   2        -3         3   # BR(A0 -> Strange strange)
     5.58936510E-03   2        -5         5   # BR(A0 -> Bottom bottom)
     7.16578896E-03   2  -1000024   1000024   # BR(A0 -> Chargino1 chargino1)
     1.58887522E-01   2  -1000024   1000037   # BR(A0 -> Chargino1 chargino2)
     1.58887522E-01   2  -1000037   1000024   # BR(A0 -> Chargino2 chargino1)
     1.61949178E-04   2  -1000037   1000037   # BR(A0 -> Chargino2 chargino2)
     5.29659180E-04   2   1000022   1000022   # BR(A0 -> neutralino1 neutralino1)
     2.33349494E-03   2   1000022   1000023   # BR(A0 -> neutralino1 neutralino2)
     8.54842016E-03   2   1000022   1000025   # BR(A0 -> neutralino1 neutralino3)
     6.06411739E-02   2   1000022   1000035   # BR(A0 -> neutralino1 neutralino4)
     3.57725947E-03   2   1000023   1000023   # BR(A0 -> neutralino2 neutralino2)
     3.59466733E-02   2   1000023   1000025   # BR(A0 -> neutralino2 neutralino3)
     1.18163951E-01   2   1000023   1000035   # BR(A0 -> neutralino2 neutralino4)
     1.09876708E-03   2   1000025   1000025   # BR(A0 -> neutralino3 neutralino3)
     2.05380972E-03   2   1000025   1000035   # BR(A0 -> neutralino3 neutralino4)
     1.62676785E-03   2   1000035   1000035   # BR(A0 -> neutralino4 neutralino4)
     1.28658842E-04   2        23        25   # BR(A0 -> Z h0)
     1.88731466E-35   2        25        25   # BR(A0 -> h0 h0)
DECAY        37     4.04684025E+01   # Gamma(Hp)
     8.27594603E-11   2       -11        12   # BR(Hp -> Electron nu_e)
     3.53822541E-06   2       -13        14   # BR(Hp -> Muon nu_mu)
     1.00081138E-03   2       -15        16   # BR(Hp -> Tau nu_tau)
     5.30495965E-09   2        -1         2   # BR(Hp -> Down up)
     8.90585001E-08   2        -3         2   # BR(Hp -> Strange up)
     5.65417738E-08   2        -5         2   # BR(Hp -> Bottom up)
     2.73349318E-07   2        -1         4   # BR(Hp -> Down charm)
     7.73676373E-06   2        -3         4   # BR(Hp -> Strange charm)
     7.92693237E-06   2        -5         4   # BR(Hp -> Bottom charm)
     2.98899149E-05   2        -1         6   # BR(Hp -> Down top)
     6.51702021E-04   2        -3         6   # BR(Hp -> Strange top)
     4.64491306E-01   2        -5         6   # BR(Hp -> Bottom top)
     4.88243678E-03   2   1000022   1000024   # BR(Hp -> neutralino1 chargino1)
     6.60127332E-02   2   1000022   1000037   # BR(Hp -> neutralino1 chargino2)
     8.62941809E-08   2   1000023   1000024   # BR(Hp -> neutralino2 chargino1)
     1.55894434E-01   2   1000023   1000037   # BR(Hp -> neutralino2 chargino2)
     1.53337447E-01   2   1000024   1000025   # BR(Hp -> chargino1 neutralino3)
     3.01001090E-04   2   1000025   1000037   # BR(Hp -> neutralino3 chargino2)
     1.50670660E-01   2   1000024   1000035   # BR(Hp -> chargino1 neutralino4)
     2.58482758E-03   2   1000035   1000037   # BR(Hp -> neutralino4 chargino2)
     1.23038978E-04   2        24        25   # BR(Hp -> W h0)
     7.67219456E-14   2        24        35   # BR(Hp -> W HH)
     3.72953369E-13   2        24        36   # BR(Hp -> W A0)
DECAY         6     2.43000000E+00   # top
#    BR                NDA      ID1      ID2
     1.00000000E+00    2           5        24   # BR(t -> b W)
Block HiggsBoundsInputHiggsCouplingsFermions
# ScalarNormEffCoupSq PseudoSNormEffCoupSq NP IP1 IP2 IP2
    9.10878248E-01    0.00000000E+00        3  25   5   5  # h0-b-b eff. coupling^2, normalised to SM
    5.94417413E+00    0.00000000E+00        3  35   5   5  # H0-b-b eff. coupling^2, normalised to SM
    0.00000000E+00    5.85505238E+00        3  36   5   5  # A0-b-b eff. coupling^2, normalised to SM
#
    1.01522134E+00    0.00000000E+00        3  25   6   6  # h0-t-t eff. coupling^2, normalised to SM
    1.55571324E-01    0.00000000E+00        3  35   6   6  # H0-t-t eff. coupling^2, normalised to SM
    0.00000000E+00    1.70792665E-01        3  36   6   6  # A0-t-t eff. coupling^2, normalised to SM
#
    9.10878248E-01    0.00000000E+00        3  25  15  15  # h0-tau-tau eff. coupling^2, normalised to SM
    5.94417413E+00    0.00000000E+00        3  35  15  15  # H0-tau-tau eff. coupling^2, normalised to SM
    0.00000000E+00    5.85505238E+00        3  36  15  15  # A0-tau-tau eff. coupling^2, normalised to SM
#
Block HiggsBoundsInputHiggsCouplingsBosons
    9.99647591E-01        3  25  24  24  # h0-W-W eff. coupling^2, normalised to SM
    3.52408924E-04        3  35  24  24  # H0-W-W eff. coupling^2, normalised to SM
    0.00000000E+00        3  36  24  24  # A0-W-W eff. coupling^2, normalised to SM
#
    9.99647591E-01        3  25  23  23  # h0-Z-Z eff. coupling^2, normalised to SM
    3.52408924E-04        3  35  23  23  # H0-Z-Z eff. coupling^2, normalised to SM
    0.00000000E+00        3  36  23  23  # A0-Z-Z eff. coupling^2, normalised to SM
#
    1.28642149E+00        3  25  21  21  # h0-g-g eff. coupling^2, normalised to SM
    1.52476396E-01        3  35  21  21  # H0-g-g eff. coupling^2, normalised to SM
    4.17594374E-01        3  36  21  21  # A0-g-g eff. coupling^2, normalised to SM
#
    0.00000000E+00        3  25  25  23  # h0-h0-Z eff. coupling^2, normalised to SM
    0.00000000E+00        3  35  25  23  # H0-h0-Z eff. coupling^2, normalised to SM
    3.52408924E-04        3  36  25  23  # A0-h0-Z eff. coupling^2, normalised to SM
    0.00000000E+00        3  35  35  23  # H0-H0-Z eff. coupling^2, normalised to SM
    9.99647591E-01        3  36  35  23  # A0-H0-Z eff. coupling^2, normalised to SM
    0.00000000E+00        3  36  36  23  # A0-A0-Z eff. coupling^2, normalised to SM
#
    0.00000000E+00        4  25  21  21  23  # h0-g-g-Z eff. coupling^2, normalised to SM
    0.00000000E+00        4  35  21  21  23  # H0-g-g-Z eff. coupling^2, normalised to SM
    0.00000000E+00        4  36  21  21  23  # A0-g-g-Z eff. coupling^2, normalised to SM
Block SPhenoLowEnergy  # low energy observables
    1    3.27711177E-04   # BR(b -> s gamma)
    2    1.59261021E-06   # BR(b -> s mu+ mu-)
    3    3.53199790E-05   # BR(b -> s nu nu)
    4    2.52798057E-15   # BR(Bd -> e+ e-)
    5    1.07992461E-10   # BR(Bd -> mu+ mu-)
    6    2.26071822E-08   # BR(Bd -> tau+ tau-)
    7    8.52250819E-14   # BR(Bs -> e+ e-)
    8    3.64081278E-09   # BR(Bs -> mu+ mu-)
    9    7.72247765E-07   # BR(Bs -> tau+ tau-)
   10    9.68046963E-05   # BR(B_u -> tau nu)
   11    9.99955451E-01   # BR(B_u -> tau nu)/BR(B_u -> tau nu)_SM
   12    5.43880290E-01   # |Delta(M_Bd)| [ps^-1] 
   13    1.94333258E+01   # |Delta(M_Bs)| [ps^-1] 
   14    0.00000000E+00   # neutron EDM according to the chiral quark model
   15    0.00000000E+00   # neutron EDM according to the relativistic quark-parton model
   16    2.16524309E-03   # epsilon_K
   17    2.28174023E-15   # Delta(M_K)
   18    2.48413476E-11   # BR(K^0 -> pi^0 nu nu)
   19    8.30052807E-11   # BR(K^+ -> pi^+ nu nu)
   20   -3.25543431E-17   # Delta(g-2)_electron/2
   21   -1.39179996E-12   # Delta(g-2)_muon/2
   22   -3.93596947E-10   # Delta(g-2)_tau/2
   23    0.00000000E+00   # electric dipole moment of the electron
   24    0.00000000E+00   # electric dipole moment of the muon
   25    0.00000000E+00   # electric dipole moment of the tau
   26    0.00000000E+00   # Br(mu -> e gamma)
   27    0.00000000E+00   # Br(tau -> e gamma)
   28    0.00000000E+00   # Br(tau -> mu gamma)
   29    0.00000000E+00   # Br(mu -> 3 e)
   30    0.00000000E+00   # Br(tau -> 3 e)
   31    0.00000000E+00   # Br(tau -> 3 mu)
   39   -1.40841031E-03   # Delta(rho_parameter)
   40    0.00000000E+00   # BR(Z -> e mu)
   41    0.00000000E+00   # BR(Z -> e tau)
   42    0.00000000E+00   # BR(Z -> mu tau)
Block FWCOEF Q=  1.60000000E+02  # Wilson coefficients at scale Q
#    id        order  M        value         comment
     0305 4422   00   0    -1.88819110E-01   # C7
     0305 4422   00   2    -1.96683483E-01   # C7
     0305 4322   00   2    -1.35269049E-04   # C7'
     0305 6421   00   0    -9.52278348E-02   # C8
     0305 6421   00   2    -1.04252641E-01   # C8
     0305 6321   00   2    -1.64528351E-04   # C8'
 03051111 4133   00   0     1.61913955E+00   # C9 e+e-
 03051111 4133   00   2     1.61985620E+00   # C9 e+e-
 03051111 4233   00   2     2.54379778E-06   # C9' e+e-
 03051111 4137   00   0    -4.44183165E+00   # C10 e+e-
 03051111 4137   00   2    -4.44678918E+00   # C10 e+e-
 03051111 4237   00   2    -1.85140082E-05   # C10' e+e-
 03051313 4133   00   0     1.61913955E+00   # C9 mu+mu-
 03051313 4133   00   2     1.61985620E+00   # C9 mu+mu-
 03051313 4233   00   2     2.54379777E-06   # C9' mu+mu-
 03051313 4137   00   0    -4.44183165E+00   # C10 mu+mu-
 03051313 4137   00   2    -4.44678918E+00   # C10 mu+mu-
 03051313 4237   00   2    -1.85140082E-05   # C10' mu+mu-
 03051212 4137   00   0     1.50535012E+00   # C11 nu_1 nu_1
 03051212 4137   00   2     1.50642624E+00   # C11 nu_1 nu_1
 03051212 4237   00   2     4.00957975E-06   # C11' nu_1 nu_1
 03051414 4137   00   0     1.50535012E+00   # C11 nu_2 nu_2
 03051414 4137   00   2     1.50642624E+00   # C11 nu_2 nu_2
 03051414 4237   00   2     4.00957975E-06   # C11' nu_2 nu_2
 03051616 4137   00   0     1.50535012E+00   # C11 nu_3 nu_3
 03051616 4137   00   2     1.50642624E+00   # C11 nu_3 nu_3
 03051616 4237   00   2     4.00958003E-06   # C11' nu_3 nu_3
Block IMFWCOEF Q=  1.60000000E+02  # Im(Wilson coefficients) at scale Q
#    id        order  M        value         comment
     0305 4422   00   0     3.85817420E-07   # C7
     0305 4422   00   2    -1.14946525E-06   # C7
     0305 4322   00   2    -1.87042073E-07   # C7'
     0305 6421   00   0     3.30478136E-07   # C8
     0305 6421   00   2     2.30136008E-06   # C8
     0305 6321   00   2    -4.93999038E-08   # C8'
 03051111 4133   00   2     8.44028395E-07   # C9 e+e-
 03051111 4233   00   2     4.82896971E-08   # C9' e+e-
 03051111 4137   00   2     7.08219195E-07   # C10 e+e-
 03051111 4237   00   2    -3.52059372E-07   # C10' e+e-
 03051313 4133   00   2     8.44028369E-07   # C9 mu+mu-
 03051313 4233   00   2     4.82896970E-08   # C9' mu+mu-
 03051313 4137   00   2     7.08219217E-07   # C10 mu+mu-
 03051313 4237   00   2    -3.52059372E-07   # C10' mu+mu-
 03051212 4137   00   2    -1.12390292E-07   # C11 nu_1 nu_1
 03051212 4237   00   2     7.62462783E-08   # C11' nu_1 nu_1
 03051414 4137   00   2    -1.12390291E-07   # C11 nu_2 nu_2
 03051414 4237   00   2     7.62462783E-08   # C11' nu_2 nu_2
 03051616 4137   00   2    -1.12389962E-07   # C11 nu_3 nu_3
 03051616 4237   00   2     7.62462782E-08   # C11' nu_3 nu_3
