BLOCK SPINFO
   1   SPheno
   2   v4.0.5be

BLOCK SPHENOINFO
   1   2
   2   2

BLOCK MODSEL
   1   0

BLOCK MINPAR
   3    57.502825
   4    1

BLOCK EXTPAR
   0    4331.6133
   1    4905.5557
   2    1906.461
   3    2430.7162
   11   -606.10679
   12   -2026.227
   13   -4797.2111
   23    1179.9337
   25    56.94703
   26    1901.8159
   31    3777.144
   32    3777.144
   33    1952.2831
   34    3128.063
   35    3128.063
   36    1651.8274
   41    1412.6995
   42    1412.6995
   43    4132.46
   44    1207.6612
   45    1207.6612
   46    4463.3292
   47    3227.1776
   48    3227.1776
   49    2808.0615

BLOCK SMINPUTS
   1    127.90897
   2    1.1663787e-05
   3    0.1184
   4    91.1876
   5    4.18
   6    173.2
   7    1.777
   8    0
   11    0.00051099893
   12    0
   13    0.10565837
   14    0
   21    0.005
   22    0.0025
   23    0.095
   24    1.27

BLOCK GAUGE Q=  4331.6133
   1    0.35536298
   2    0.66519887
   3    1.219778

BLOCK YU Q=  4331.6133
   1   1    8.3856647e-06
   2   2    0.0042599177
   3   3    1.0130557

BLOCK YD Q=  4331.6133
   1   1    0.00095959687
   2   2    0.01823234
   3   3    0.9516194

BLOCK YE Q=  4331.6133
   1   1    0.00016745667
   2   2    0.034624728
   3   3    0.58233097

BLOCK AU Q=  4331.6133
   1   1    0
   2   2    0
   3   3   -606.10679

BLOCK AD Q=  4331.6133
   1   1    0
   2   2    0
   3   3   -2026.227

BLOCK AE Q=  4331.6133
   1   1    0
   2   2    0
   3   3   -4797.2111

BLOCK MSOFT Q=  4331.6133
   1    4905.5557
   2    1906.461
   3    2430.7162
   21    2646258.6
   22   -1018128.2
   31    3777.144
   32    3777.144
   33    1952.2831
   34    3128.063
   35    3128.063
   36    1651.8274
   41    1412.6995
   42    1412.6995
   43    4132.46
   44    1207.6612
   45    1207.6612
   46    4463.3292
   47    3227.1776
   48    3227.1776
   49    2808.0615

BLOCK MASS
   6    173.2
   23    91.1876
   24    80.429995
   15    1.777
   25    120.83112
   35    1901.1661
   36    1901.8159
   37    1902.9128
   1000001    1644.3238
   2000001    3329.4056
   1000002    1642.38
   2000002    1436.8282
   1000003    1644.3144
   2000003    3329.3934
   1000004    1642.3709
   2000004    1436.8278
   1000005    2876.2971
   2000005    4175.0783
   1000006    4176.0667
   2000006    4492.9535
   1000011    3795.0413
   2000011    3145.9544
   1000012    3793.7818
   1000013    3794.9827
   2000013    3145.826
   1000014    3793.7206
   1000015    1585.1032
   2000015    1946.1685
   1000016    1940.1248
   1000021    2644.3344
   1000022    1187.2081
   1000023   -1192.7129
   1000025    1920.358
   1000035    4816.1002
   1000024    1188.3223
   1000037    1920.5926

BLOCK ALPHA
      -0.017509816

BLOCK HMIX Q=  4331.6133
   1    1179.9337
   2    56.94703
   3    242.86537
   4    3616903.8

BLOCK STOPMIX
   1   1    0.99903338
   1   2    0.043957985
   2   1   -0.043957985
   2   2    0.99903338

BLOCK SBOTMIX
   1   1    0.014797545
   1   2    0.99989051
   2   1   -0.99989051
   2   2    0.014797545

BLOCK STAUMIX
   1   1    0.10011158
   1   2    0.99497622
   2   1   -0.99497622
   2   2    0.10011158

BLOCK NMIX
   1   1   -0.0088349693
   1   2    0.075956857
   1   3   -0.70633124
   1   4    0.70373907
   2   1   -0.0051197145
   2   2    0.017510404
   2   3    0.70666467
   2   4    0.70731338
   3   1    0.0010147303
   3   2    0.99695731
   3   3    0.041402022
   3   4   -0.066037598
   4   1   -0.99994735
   4   2    0.0002509312
   4   3    0.0026646456
   4   4   -0.0099062876

BLOCK UMIX
   1   1   -0.058659652
   1   2    0.99827804
   2   1    0.99827804
   2   2    0.058659652

BLOCK VMIX
   1   1   -0.093567663
   1   2    0.99561292
   2   1    0.99561292
   2   2    0.093567663

BLOCK HIGGSBOUNDSINPUTHIGGSCOUPLINGSFERMIONS
       0, 3242.9642,3,36,15,15

BLOCK HIGGSBOUNDSINPUTHIGGSCOUPLINGSBOSONS
       0,4,36,21,21,23

BLOCK SPHENOLOWENERGY
   1    0.00032879064
   2    1.5894638e-06
   3    3.5256594e-05
   4    2.7682573e-15
   5    1.1825563e-10
   6    2.4690603e-08
   7    9.1185998e-14
   8    3.8954345e-09
   9    8.2469153e-07
   10    9.2305113e-05
   11    0.95347647
   12    0.54181952
   13    19.333838
   14    0
   15    0
   16    0.0021569542
   17    2.2816608e-15
   18    2.4801467e-11
   19    8.291077e-11
   20    2.0548676e-15
   21    8.7847911e-11
   22    4.375825e-08
   23    0
   24    0
   25    0
   26    0
   27    0
   28    0
   29    0
   30    0
   31    0
   39    7.529412e-05
   40    0
   41    0
   42    0

BLOCK FWCOEF Q=  160
   305   4422   0   0   -0.18881911
   305   4422   0   2   -0.19610266
   305   4322   0   2   -5.5010488e-05
   305   6421   0   0   -0.095227835
   305   6421   0   2   -0.11090581
   305   6321   0   2   -0.00025945031
   3051111   4133   0   0    1.6307345
   3051111   4133   0   2    1.6310396
   3051111   4233   0   2    0.00033088186
   3051111   4137   0   0   -4.4534266
   3051111   4137   0   2   -4.4522363
   3051111   4237   0   2   -0.0024337629
   3051313   4133   0   0    1.6307345
   3051313   4133   0   2    1.6310387
   3051313   4233   0   2    0.00033087484
   3051313   4137   0   0   -4.4534266
   3051313   4137   0   2   -4.4522372
   3051313   4237   0   2   -0.0024337597
   3051212   4137   0   0    1.5053501
   3051212   4137   0   2    1.5050948
   3051212   4237   0   2    0.00052579333
   3051414   4137   0   0    1.5053501
   3051414   4137   0   2    1.5050948
   3051414   4237   0   2    0.00052579462
   3051616   4137   0   0    1.5053501
   3051616   4137   0   2    1.5050945
   3051616   4237   0   2    0.0005261578

BLOCK IMFWCOEF Q=  160
   305   4422   0   0    3.8582305e-07
   305   4422   0   2    2.7663578e-05
   305   4322   0   2    3.865434e-06
   305   6421   0   0    3.3048296e-07
   305   6421   0   2   -1.889029e-05
   305   6321   0   2    1.4581142e-06
   3051111   4133   0   2    8.6520389e-07
   3051111   4233   0   2    8.8970521e-06
   3051111   4137   0   2   -4.1485103e-06
   3051111   4237   0   2   -6.5459631e-05
   3051313   4133   0   2    8.6519211e-07
   3051313   4233   0   2    8.8970339e-06
   3051313   4137   0   2   -4.1485084e-06
   3051313   4237   0   2   -6.545968e-05
   3051212   4137   0   2    9.305618e-07
   3051212   4237   0   2    1.4141982e-05
   3051414   4137   0   2    9.3056161e-07
   3051414   4237   0   2    1.4141982e-05
   3051616   4137   0   2    9.2394317e-07
   3051616   4237   0   2    1.4141984e-05

DECAY 23  2.4952


DECAY 24  2.085


DECAY 2000011  0.0012202171
    0.74420851   2    1000022    11
    0.24948469   2    1000023    11
    0.0052513448   2    1000025    11
    0.0010535112   2   -1000024    12

DECAY 1000011  27.787297
    0.66300424   2   -1000037    12
    0.33104087   2    1000025    11
    0.0033655022   2   -1000024    12
    0.0024827612   2    1000022    11
    0.00010662103   2    1000023    11

DECAY 2000013  0.11132567
    0.4936501   2   -1000024    14
    0.25543665   2    1000022    13
    0.24948857   2    1000023    13
    0.00091247768   2   -1000037    14
    0.0005122061   2    1000025    13

DECAY 1000013  27.861171
    0.661222   2   -1000037    14
    0.33015415   2    1000025    13
    0.0037951046   2    1000022    13
    0.0033565042   2   -1000024    14
    0.0014239859   2    1000023    13

DECAY 1000015  4.0973981
    0.50060874   2   -1000024    16
    0.25541461   2    1000022    15
    0.24397665   2    1000023    15

DECAY 2000015  6.8456654
    0.37540756   2    1000023    15
    0.37278808   2    1000022    15
    0.12547456   2    1000015    23
    0.12292326   2    1000015    25
    0.0017007737   2   -1000037    16
    0.00087077932   2    1000025    15
    0.00083498769   2   -1000024    16

DECAY 1000012  27.813733
    0.65832227   2    1000037    11
    0.32974736   2    1000025    12
    0.0085507804   2    1000024    11
    0.003179759   2    1000022    12
    0.00019983732   2    1000023    12

DECAY 1000014  27.886187
    0.65659297   2    1000037    13
    0.328878   2    1000025    14
    0.011158292   2    1000024    13
    0.003171424   2    1000022    14
    0.00019931349   2    1000023    14

DECAY 1000016  6.8726366
    0.7492191   2    1000024    15
    0.24591581   2    1000015    24
    0.0031646733   2    1000022    16
    0.00099631451   2    1000037    15
    0.00050702329   2    1000025    16
    0.0001970797   2    1000023    16

DECAY 1000001  0.021895437
    0.51917476   2   -1000024    2
    0.45548015   2    1000022    1
    0.025345092   2    1000023    1

DECAY 2000001  35.82015
    0.99999319   2    1000021    1

DECAY 1000003  0.024476078
    0.46964297   2   -1000024    4
    0.45797692   2    1000022    3
    0.072380104   2    1000023    3

DECAY 2000003  35.853543
    0.99903295   2    1000021    3
    0.00046600477   2   -1000024    4
    0.00023650208   2    1000022    3
    0.00023404453   2    1000023    3

DECAY 1000005  76.173022
    0.4610438   2   -1000024    6
    0.23398083   2    1000022    5
    0.23282329   2    1000023    5
    0.07143638   2    1000021    5
    0.00047251985   2   -1000037    6
    0.00024318205   2    1000025    5

DECAY 2000005  289.99613
    0.40751412   2    1000021    5
    0.24485766   2   -1000024    6
    0.10945613   2    1000022    5
    0.10931473   2    1000023    5
    0.080919113   2   -1000037    6
    0.039511733   2    1000025    5
    0.0057366052   2    1000005    25
    0.0026899023   2    1000005    23

DECAY 2000002  3.3343927e-05
    0.75613681   2    1000022    2
    0.24385723   2    1000023    2

DECAY 1000002  0.038309333
    0.75035849   2    1000024    1
    0.23802853   2    1000022    2
    0.011612975   2    1000023    2

DECAY 2000004  0.00013522405
    0.3796869   2    1000024    3
    0.37575488   2    1000022    4
    0.24455821   2    1000023    4

DECAY 1000004  0.040880003
    0.76292815   2    1000024    3
    0.2245907   2    1000022    4
    0.012480935   2    1000023    4

DECAY 1000006  304.06156
    0.38827208   2    1000021    6
    0.21045393   2    1000024    5
    0.1176706   2    1000023    6
    0.11712536   2    1000022    6
    0.073974632   2    1000037    5
    0.047487173   3    1000022    24    5
    0.037896149   2    1000025    6
    0.0051411687   2    1000005    24
    0.0019773968   2    1000021    4

DECAY 2000006  308.24005
    0.48510582   2    1000021    6
    0.2537448   2    1000024    5
    0.12828714   2    1000023    6
    0.12671669   2    1000022    6
    0.0029703299   2    1000037    5
    0.0014797324   2    1000025    6
    0.00089050698   2    2000005    24
    0.00042729686   2    1000006    23
    0.00036034544   2    1000006    25

DECAY 1000024  1.549322e-12
    0.65568189   2    1000022    211
    0.17596524   3    1000022   -11    12
    0.16835287   3    1000022   -13    14

DECAY 1000037  21.227523
    0.16845867   2    1000024    25
    0.16315205   2    1000023    24
    0.15875435   2    1000022    24
    0.15838965   2    1000024    23
    0.085527486   2    1000004   -3
    0.085522229   2    1000002   -1
    0.084880058   2   -1000003    4
    0.08487595   2   -1000001    2
    0.0034919973   3    1000022   -5    6
    0.0034456507   3    1000023   -5    6
    0.0032225615   3    1000024    6   -6

DECAY 1000022 -1


DECAY 1000023  7.2135992e-08
    0.65948509   2    1000022    22
    0.049090236   3    1000022    12   -12
    0.036708075   3    1000022    1   -1
    0.036581059   3    1000022    3   -3
    0.031745383   3    1000024    1   -2
    0.031745383   3   -1000024   -1    2
    0.028629874   3    1000022    2   -2
    0.021228766   3    1000024    3   -4
    0.021228766   3   -1000024   -3    4
    0.013653516   3    1000022    4   -4
    0.01058182   3    1000024    11   -12
    0.01058182   3   -1000024   -11    12
    0.010551363   3    1000024    13   -14
    0.010551363   3   -1000024   -13    14
    0.0082840953   3    1000022    11   -11
    0.0082390395   3    1000022    13   -13
    0.0048411758   3    1000024    15   -16
    0.0048411758   3   -1000024   -15    16
    0.0014319926   3    1000022    15   -15

DECAY 1000025  24.260621
    0.1399496   2    1000024   -24
    0.1399496   2   -1000024    24
    0.13903888   2    1000022    25
    0.13573587   2    1000023    23
    0.13209925   2    1000023    25
    0.037477011   2    1000004   -4
    0.037477011   2   -1000004    4
    0.037475297   2    1000002   -2
    0.037475297   2   -1000002    2
    0.036968915   2    1000003   -3
    0.036968915   2   -1000003    3
    0.036966536   2    1000001   -1
    0.036966536   2   -1000001    1
    0.0071018221   2    1000022    23
    0.0030308707   3    1000024    5   -6
    0.0030308707   3   -1000024   -5    6
    0.0010536278   3    1000022    6   -6
    0.00097015674   3    1000023    6   -6

DECAY 1000035  138.72394
    0.09650343   2    2000002   -2
    0.09650343   2   -2000002    2
    0.096503426   2    2000004   -4
    0.096503426   2   -2000004    4
    0.068792413   2    1000015   -15
    0.068792413   2   -1000015    15
    0.028668347   2    2000013   -13
    0.028668347   2   -2000013    13
    0.028664863   2    2000011   -11
    0.028664863   2   -2000011    11
    0.023498417   2    1000024   -24
    0.023498417   2   -1000024    24
    0.017916845   2    1000023    23
    0.016239759   2    1000022    25
    0.015733294   2    2000015   -15
    0.015733294   2   -2000015    15
    0.015360408   2    1000023    25
    0.01531501   2    1000016   -16
    0.01531501   2   -1000016    16
    0.014597813   2    37   -1000024
    0.014597813   2   -37    1000024
    0.012023359   2    1000005   -5
    0.012023359   2   -1000005    5
    0.011980764   2    1000023    35
    0.011135023   2    1000022    35
    0.0079241929   2    2000003   -3
    0.0079241929   2   -2000003    3
    0.0079240857   2    2000001   -1
    0.0079240857   2   -2000001    1
    0.005882653   2    1000022    23
    0.0056880229   2    1000003   -3
    0.0056880229   2   -1000003    3
    0.005688004   2    1000001   -1
    0.005688004   2   -1000001    1
    0.0056595804   2    1000004   -4
    0.0056595804   2   -1000004    4
    0.0056595592   2    1000002   -2
    0.0056595592   2   -1000002    2
    0.0035166769   2    1000022    36
    0.0032691994   2    1000023    36
    0.00314305   2    1000014   -14
    0.00314305   2   -1000014    14
    0.0031427187   2    1000012   -12
    0.0031427187   2   -1000012    12
    0.0031303273   2    1000013   -13
    0.0031303273   2   -1000013    13
    0.0031300099   2    1000011   -11
    0.0031300099   2   -1000011    11
    0.001634434   2    2000006   -6
    0.001634434   2   -2000006    6
    0.001503827   3    1000024    5   -6
    0.001503827   3   -1000024   -5    6
    0.0012463353   3    1000022    6   -6
    0.001212158   3    1000023    6   -6
    0.00045152736   2    2000005   -5
    0.00045152736   2   -2000005    5
    0.00042273664   2    1000006   -6
    0.00042273664   2   -1000006    6
    0.00030931706   2    1000037   -24
    0.00030931706   2   -1000037    24
    0.00026095311   2    1000025    25

DECAY 1000021  195.8093
    0.09927179   2    2000004   -4
    0.09927179   2   -2000004    4
    0.099271775   2    2000002   -2
    0.099271775   2   -2000002    2
    0.075410205   2    1000004   -4
    0.075410205   2   -1000004    4
    0.075409195   2    1000002   -2
    0.075409195   2   -1000002    2
    0.075186109   2    1000003   -3
    0.075186109   2   -1000003    3
    0.075185021   2    1000001   -1
    0.075185021   2   -1000001    1
    0.00010681191   3    1000024    5   -6
    0.00010681191   3   -1000024   -5    6

DECAY 25  0.0034309335
    0.63613166   2   -5    5
    0.16341858   2   -24    24
    0.074254727   2    21    21
    0.072903937   2   -15    15
    0.031162871   2   -4    4
    0.018188469   2    23    23
    0.0023062553   2    22    22
    0.0011411755   2    22    23
    0.00025272905   2   -13    13
    0.0002387732   2   -3    3
    6.6018233e-07   2   -1    1
    1.6060414e-07   2   -2    2
    5.6816883e-09   2   -11    11

DECAY 35  76.898483
    0.80221648   2   -5    5
    0.19656293   2   -15    15
    0.00063124447   2   -13    13
    0.00028448314   2   -3    3
    0.00028131114   2   -6    6
    2.0788954e-05   2    21    21
    1.4211145e-06   2    25    25
    7.8646088e-07   2   -1    1
    3.1551388e-07   2    23    23
    1.798955e-07   2   -24    24
    2.6435744e-08   2    22    22
    2.2274244e-08   2    22    23
    1.4179377e-08   2   -11    11
    9.5934202e-10   2   -4    4
    4.9321072e-15   2   -2    2

DECAY 36  71.74139
    0.80220463   2   -5    5
    0.19657253   2   -15    15
    0.00063125916   2   -13    13
    0.00028447614   2   -3    3
    0.00027547537   2   -6    6
    3.0356732e-05   2    21    21
    7.8644233e-07   2   -1    1
    4.5283295e-07   2    23    25
    1.7589367e-08   2    22    22
    1.417971e-08   2   -11    11
    4.4655785e-09   2    22    23
    8.5259126e-10   2   -4    4
    4.3810646e-15   2   -2    2
    1.1762996e-39   2    25    25

DECAY 37  74.596597
    0.82919235   2   -5    6
    0.16868364   2   -15    16
    0.0012350586   2   -5    4
    0.00059635752   2   -13    14
    0.00026913114   2   -3    4
    1.2537445e-05   2   -3    2
    8.8195976e-06   2   -5    2
    8.4416389e-07   2   -3    6
    7.4683959e-07   2   -1    2
    4.3694428e-07   2    24    25
    3.4881183e-08   2   -1    4
    2.0719923e-08   2   -1    6
    1.3948865e-08   2   -11    12
    2.9650466e-13   2    24    35
    2.8968501e-14   2    24    36

DECAY 6  2.43
    1   2    5    24

DECAY 15 -1
