BLOCK SPINFO
   1   SPheno
   2   v4.0.5be

BLOCK SPHENOINFO
   1   2
   2   2

BLOCK MODSEL
   1   0

BLOCK MINPAR
   3    13.25706
   4    1

BLOCK EXTPAR
   0    3122.9079
   1   -68.224191
   2   -4813.2785
   3    4832.8817
   11   -7242.5386
   12    6033.1239
   13   -4592.103
   23    107.37854
   25    12.671938
   26    2881.3607
   31    3705.6251
   32    3705.6251
   33    3784.6413
   34    716.17513
   35    716.17513
   36    4242.5417
   41    2532.94
   42    2532.94
   43    2697.0613
   44    2115.2463
   45    2115.2463
   46    3623.6515
   47    3421.5425
   48    3421.5425
   49    1997.9743

BLOCK SMINPUTS
   1    127.90897
   2    1.1663787e-05
   3    0.1184
   4    91.1876
   5    4.18
   6    173.2
   7    1.777
   8    0
   11    0.00051099893
   12    0
   13    0.10565837
   14    0
   21    0.005
   22    0.0025
   23    0.095
   24    1.27

BLOCK GAUGE Q=  3122.9079
   1    0.35536298
   2    0.66519887
   3    1.219778

BLOCK YU Q=  3122.9079
   1   1    8.4104385e-06
   2   2    0.0042725027
   3   3    1.0160485

BLOCK YD Q=  3122.9079
   1   1    0.00021416176
   2   2    0.0040690734
   3   3    0.21238135

BLOCK YE Q=  3122.9079
   1   1    3.7372793e-05
   2   2    0.0077275082
   3   3    0.12996398

BLOCK AU Q=  3122.9079
   1   1    0
   2   2    0
   3   3   -7242.5397

BLOCK AD Q=  3122.9079
   1   1    0
   2   2    0
   3   3    6033.1243

BLOCK AE Q=  3122.9079
   1   1    0
   2   2    0
   3   3   -4592.103

BLOCK MSOFT Q=  3122.9079
   1   -68.224191
   2   -4813.2785
   3    4832.8817
   21    8169500.8
   22    192597.23
   31    3705.6251
   32    3705.6251
   33    3784.6413
   34    716.17513
   35    716.17513
   36    4242.5417
   41    2532.94
   42    2532.94
   43    2697.0613
   44    2115.2463
   45    2115.2463
   46    3623.6515
   47    3421.5425
   48    3421.5425
   49    1997.9743

BLOCK MASS
   6    173.2
   23    91.1876
   24    80.429995
   15    1.777
   25    125.00578
   35    2881.383
   36    2881.3607
   37    2882.7204
   1000001    2673.0144
   2000001    3536.5119
   1000002    2671.827
   2000002    2221.7094
   1000003    2673.0136
   2000003    3536.5111
   1000004    2671.8262
   2000004    2221.7087
   1000005    2103.8896
   2000005    2768.813
   1000006    2734.2448
   2000006    3566.818
   1000011    3728.6764
   2000011    730.73924
   1000012    3727.4237
   1000013    3728.6746
   2000013    730.72884
   1000014    3727.4219
   1000015    3807.124
   2000015    4247.2869
   1000016    3805.8709
   1000021    4736.7459
   1000022   -60.563471
   1000023    129.52501
   1000025   -135.57739
   1000035   -4737.0261
   1000024    123.48956
   1000037    4737.0729

BLOCK ALPHA
      -0.07549379

BLOCK HMIX Q=  3122.9079
   1    107.37854
   2    12.671938
   3    243.17833
   4    8302239.2

BLOCK STOPMIX
   1   1    0.98168745
   1   2    0.19049866
   2   1   -0.19049866
   2   2    0.98168745

BLOCK SBOTMIX
   1   1   -0.0035957156
   1   2    0.99999353
   2   1   -0.99999353
   2   2   -0.0035957156

BLOCK STAUMIX
   1   1    0.99999575
   1   2    0.0029149165
   2   1   -0.0029149165
   2   2    0.99999575

BLOCK NMIX
   1   1   -0.89674954
   1   2    0.002298351
   1   3   -0.40653763
   1   4   -0.17482031
   2   1   -0.1703409
   2   2    0.012082848
   2   3    0.68172688
   2   4   -0.71139752
   3   1   -0.4084412
   3   2   -0.010501462
   3   3    0.60825552
   3   4    0.6805077
   4   1   -0.00017000363
   4   2    0.99986921
   4   3   -0.0009153838
   4   4    0.016145945

BLOCK UMIX
   1   1    0.0012935008
   1   2    0.99999916
   2   1   -0.99999916
   2   2    0.0012935008

BLOCK VMIX
   1   1    0.022832388
   1   2    0.99973931
   2   1    0.99973931
   2   2   -0.022832388

BLOCK HIGGSBOUNDSINPUTHIGGSCOUPLINGSFERMIONS
       0, 160.57801,3,36,15,15

BLOCK HIGGSBOUNDSINPUTHIGGSCOUPLINGSBOSONS
       0,4,36,21,21,23

BLOCK SPHENOLOWENERGY
   1    0.00032236927
   2    1.5904112e-06
   3    3.5261907e-05
   4    2.7510552e-15
   5    1.1752192e-10
   6    2.4600094e-08
   7    9.2373499e-14
   8    3.9461919e-09
   9    8.3695898e-07
   10    9.668168e-05
   11    0.99868474
   12    0.54196968
   13    19.364322
   14    0
   15    0
   16    0.0021572719
   17    2.2816579e-15
   18    2.4810881e-11
   19    8.2922114e-11
   20   -3.2020613e-16
   21   -1.3690519e-11
   22   -3.0718841e-09
   23    0
   24    0
   25    0
   26    0
   27    0
   28    0
   29    0
   30    0
   31    0
   39    2.864218e-06
   40    0
   41    0
   42    0

BLOCK FWCOEF Q=  160
   305   4422   0   0   -0.18881911
   305   4422   0   2   -0.19011724
   305   4322   0   2   -2.3454156e-05
   305   6421   0   0   -0.095227835
   305   6421   0   2   -0.10165814
   305   6321   0   2   -0.00012477854
   3051111   4133   0   0    1.6176112
   3051111   4133   0   2    1.6178713
   3051111   4233   0   2    5.1343256e-05
   3051111   4137   0   0   -4.4403033
   3051111   4137   0   2   -4.4395635
   3051111   4237   0   2   -0.00038499209
   3051313   4133   0   0    1.6176112
   3051313   4133   0   2    1.6178712
   3051313   4233   0   2    5.1343242e-05
   3051313   4137   0   0   -4.4403033
   3051313   4137   0   2   -4.4395636
   3051313   4237   0   2   -0.00038499211
   3051212   4137   0   0    1.5053501
   3051212   4137   0   2    1.5051905
   3051212   4237   0   2    8.3416741e-05
   3051414   4137   0   0    1.5053501
   3051414   4137   0   2    1.5051905
   3051414   4237   0   2    8.3416742e-05
   3051616   4137   0   0    1.5053501
   3051616   4137   0   2    1.5051905
   3051616   4237   0   2    8.3417006e-05

BLOCK IMFWCOEF Q=  160
   305   4422   0   0    3.8582552e-07
   305   4422   0   2   -1.0657456e-06
   305   4322   0   2    2.0544855e-06
   305   6421   0   0    3.3048507e-07
   305   6421   0   2   -4.1134487e-06
   305   6321   0   2    9.8562789e-07
   3051111   4133   0   2   -1.6214473e-06
   3051111   4233   0   2    1.0020434e-06
   3051111   4137   0   2    1.3879882e-05
   3051111   4237   0   2   -7.5140818e-06
   3051313   4133   0   2   -1.6214451e-06
   3051313   4233   0   2    1.0020432e-06
   3051313   4137   0   2    1.3879884e-05
   3051313   4237   0   2   -7.5140821e-06
   3051212   4137   0   2   -2.9957134e-06
   3051212   4237   0   2    1.6280914e-06
   3051414   4137   0   2   -2.9957134e-06
   3051414   4237   0   2    1.6280914e-06
   3051616   4137   0   2   -2.9955659e-06
   3051616   4237   0   2    1.6280914e-06

DECAY 23  2.4952


DECAY 24  2.085


DECAY 2000011  3.5832397
    0.81273023   2    1000022    11
    0.15937636   2    1000025    11
    0.027893404   2    1000023    11

DECAY 1000011  4.6866544
    0.79555871   2    1000022    11
    0.1826733   2    1000025    11
    0.021756302   2    1000023    11

DECAY 2000013  3.5848258
    0.81239792   2    1000022    13
    0.15938718   2    1000025    13
    0.027986375   2    1000023    13
    0.00022852258   2   -1000024    14

DECAY 1000013  4.6910736
    0.79496487   2    1000022    13
    0.18284951   2    1000025    13
    0.022173562   2    1000023    13

DECAY 1000015  6.0620974
    0.66375788   2    1000022    15
    0.22152695   2    1000025    15
    0.11471227   2    1000023    15

DECAY 2000015  24.181585
    0.71890967   2    1000022    15
    0.16887879   2    1000025    15
    0.05892244   2   -1000024    16
    0.053027396   2    1000023    15
    0.00013322403   2    1000016   -24

DECAY 1000012  4.6963163
    0.80903271   2    1000022    12
    0.15030106   2    1000025    12
    0.037031798   2    1000023    12
    0.0036344273   2    1000024    11

DECAY 1000014  4.7007324
    0.80827229   2    1000022    14
    0.15015979   2    1000025    14
    0.036996991   2    1000023    14
    0.0045709305   2    1000024    13

DECAY 1000016  6.0715313
    0.63896907   2    1000022    16
    0.21306406   2    1000024    15
    0.11871713   2    1000025    16
    0.029249742   2    1000023    16

DECAY 1000001  0.37483753
    0.82275291   2    1000022    1
    0.12093381   2    1000025    1
    0.056208683   2    1000023    1
    0.00010459489   2   -1000024    2

DECAY 2000001  1.9723631
    0.80452201   2    1000022    1
    0.16650735   2    1000025    1
    0.028969006   2    1000023    1

DECAY 1000003  0.37667788
    0.81911761   2    1000022    3
    0.12120109   2    1000025    3
    0.057012439   2    1000023    3
    0.0026688644   2   -1000024    4

DECAY 2000003  1.9746807
    0.80367473   2    1000022    3
    0.16652897   2    1000025    3
    0.029207704   2    1000023    3
    0.00058848954   2   -1000024    4

DECAY 1000005  4.8968286
    0.37791705   2   -1000024    6
    0.25495587   2    1000022    5
    0.18517733   2    1000023    5
    0.18194975   2    1000025    5

DECAY 2000005  59.04319
    0.95125535   2   -1000024    6
    0.019795246   2    1000023    5
    0.016206653   2    1000025    5
    0.012489371   2    1000022    5
    0.0001374257   2    1000005    25
    0.00011595227   2    1000005    23

DECAY 2000002  4.9483993
    0.80508385   2    1000022    2
    0.16602099   2    1000025    2
    0.028895162   2    1000023    2

DECAY 1000002  0.3881782
    0.74969189   2    1000022    2
    0.20880595   2    1000025    2
    0.031458785   2    1000024    1
    0.010043377   2    1000023    2

DECAY 2000004  4.9499953
    0.80482848   2    1000022    4
    0.16604164   2    1000025    4
    0.028967972   2    1000023    4
    0.00016190604   2    1000024    3

DECAY 1000004  0.3900176
    0.74623117   2    1000022    4
    0.20896882   2    1000025    4
    0.033551234   2    1000024    3
    0.011248774   2    1000023    4

DECAY 1000006  60.040663
    0.45476128   2    1000023    6
    0.45130471   2    1000025    6
    0.067991717   2    1000024    5
    0.022442094   2    1000022    6
    0.0026313191   3    1000022    24    5
    0.00066882319   2    1000022    4
    0.00019109238   2    1000005    24

DECAY 2000006  310.65622
    0.22827933   2    1000024    5
    0.22287044   2    2000005    24
    0.16965605   2    1000006    25
    0.12236681   2    1000023    6
    0.1196341   2    1000006    23
    0.1067438   2    1000025    6
    0.030436604   2    1000022    6

DECAY 1000024  0.0006480476
    0.33360074   3    1000022   -1    2
    0.33311708   3    1000022   -3    4
    0.11120154   3    1000022   -11    12
    0.11120086   3    1000022   -13    14
    0.11087977   3    1000022   -15    16

DECAY 1000037  245.88412
    0.11821933   2    1000004   -3
    0.11821927   2    1000002   -1
    0.11818266   2   -1000003    4
    0.11818263   2   -1000001    2
    0.11043941   2    1000006   -5
    0.10931153   2   -2000005    6
    0.041985372   2    1000024    25
    0.038643543   2    1000023    24
    0.038361211   2    1000024    23
    0.035948348   2    1000025    24
    0.017016658   2    1000024    36
    0.017007878   2    1000024    35
    0.015829516   2    37    1000023
    0.012293079   2    1000014   -13
    0.012293041   2    1000012   -11
    0.012272599   2   -1000013    14
    0.01227256   2   -1000011    12
    0.012232892   2    37    1000025
    0.010651674   2    1000016   -15
    0.010631618   2   -1000015    16
    0.0055236905   2    37    1000022
    0.0050728611   3    1000024    6   -6
    0.00302788   3    1000023   -5    6
    0.0028612115   3    1000025   -5    6
    0.0021771469   2    1000022    24
    0.0011641705   2    2000006   -5
    0.00017654277   3    1000022   -5    6

DECAY 1000022 -1


DECAY 1000023  0.00066254648
    0.20433745   3    1000022    12   -12
    0.15278373   3    1000022    1   -1
    0.15278147   3    1000022    3   -3
    0.14801855   3    1000022    5   -5
    0.11918286   3    1000022    2   -2
    0.11876396   3    1000022    4   -4
    0.034261684   3    1000022    11   -11
    0.034260853   3    1000022    13   -13
    0.034205654   3    1000022    15   -15
    0.0013758801   2    1000022    22

DECAY 1000025  0.00012485967
    0.20130188   3    1000022    12   -12
    0.15044599   3    1000022    1   -1
    0.15044453   3    1000022    3   -3
    0.14746934   3    1000022    5   -5
    0.11749902   3    1000022    2   -2
    0.11722424   3    1000022    4   -4
    0.033752956   3    1000022    15   -15
    0.032574675   3    1000022    11   -11
    0.032574452   3    1000022    13   -13
    0.0038337083   2    1000022    22
    0.0021636472   3    1000024    1   -2
    0.0021636472   3   -1000024   -1    2
    0.0020501828   3    1000024    3   -4
    0.0020501828   3   -1000024   -3    4
    0.00072121243   3    1000024    11   -12
    0.00072121243   3   -1000024   -11    12
    0.00072094117   3    1000024    13   -14
    0.00072094117   3   -1000024   -13    14
    0.00065001312   3    1000024    15   -16
    0.00065001312   3   -1000024   -15    16
    0.00013563296   2    1000023    22

DECAY 1000035  246.91111
    0.058873884   2    1000004   -4
    0.058873884   2   -1000004    4
    0.058873844   2    1000002   -2
    0.058873844   2   -1000002    2
    0.058832172   2    1000003   -3
    0.058832172   2   -1000003    3
    0.058832138   2    1000001   -1
    0.058832138   2   -1000001    1
    0.055371089   2    1000006   -6
    0.055371089   2   -1000006    6
    0.054889348   2    2000005   -5
    0.054889348   2   -2000005    5
    0.038214857   2    1000024   -24
    0.038214857   2   -1000024    24
    0.025623754   2    1000023    25
    0.019471675   2    1000025    23
    0.018032425   2    1000025    25
    0.017242357   2    1000023    23
    0.016494608   2    37   -1000024
    0.016494608   2   -37    1000024
    0.0082642886   2    1000023    36
    0.0078992854   2    1000025    35
    0.0071297089   2    1000023    35
    0.0061232237   2    1000014   -14
    0.0061232237   2   -1000014    14
    0.0061232046   2    1000012   -12
    0.0061232046   2   -1000012    12
    0.0061076256   2    1000013   -13
    0.0061076256   2   -1000013    13
    0.0061076065   2    1000011   -11
    0.0061076065   2   -1000011    11
    0.0053056063   2    1000016   -16
    0.0053056063   2   -1000016    16
    0.0052909268   2    1000015   -15
    0.0052909268   2   -1000015    15
    0.0046420069   2    1000025    36
    0.0032942055   3    1000024    5   -6
    0.0032942055   3   -1000024   -5    6
    0.0030518322   2    1000022    35
    0.002634894   3    1000023    6   -6
    0.0024770217   2    1000022    36
    0.0024442539   3    1000025    6   -6
    0.0014941496   2    1000022    23
    0.00079829171   2    1000022    25
    0.00058410729   2    2000006   -6
    0.00058410729   2   -2000006    6
    0.00015258987   3    1000022    6   -6

DECAY 1000021  733.05531
    0.061622395   2    1000005   -5
    0.061622395   2   -1000005    5
    0.058183402   2    2000004   -4
    0.058183402   2   -2000004    4
    0.058183384   2    2000002   -2
    0.058183384   2   -2000002    2
    0.044459033   2    1000004   -4
    0.044459033   2   -1000004    4
    0.044459014   2    1000002   -2
    0.044459014   2   -1000002    2
    0.044422158   2    1000003   -3
    0.044422158   2   -1000003    3
    0.044422133   2    1000001   -1
    0.044422133   2   -1000001    1
    0.041444074   2    2000005   -5
    0.041444074   2   -2000005    5
    0.040696374   2    1000006   -6
    0.040696374   2   -1000006    6
    0.018901172   2    2000006   -6
    0.018901172   2   -2000006    6
    0.018731396   2    2000003   -3
    0.018731396   2   -2000003    3
    0.018731374   2    2000001   -1
    0.018731374   2   -2000001    1
    0.0057329797   2    1000006   -4
    0.0057329797   2   -1000006    4

DECAY 25  0.0042282013
    0.52407123   2   -5    5
    0.20975596   2   -24    24
    0.08428605   2    1000022    1000022
    0.066377352   2    21    21
    0.060305819   2   -15    15
    0.025879677   2   -4    4
    0.025394758   2    23    23
    0.0021481616   2    22    22
    0.0013743111   2    22    23
    0.00020914609   2   -13    13
    0.00019685173   2   -3    3
    5.4427467e-07   2   -1    1
    1.3336384e-07   2   -2    2
    4.7018361e-09   2   -11    11

DECAY 35  10.59332
    0.52453213   2   -5    5
    0.11034727   2    1000022    1000022
    0.097516122   2   -15    15
    0.060423196   2    1000022    1000023
    0.058101937   2   -6    6
    0.055316945   2    1000023    1000025
    0.052850568   2    1000025    1000025
    0.028924707   2    1000022    1000025
    0.010083973   2    1000023    1000023
    0.001204236   2   -1000024    1000024
    0.0003363889   2   -13    13
    0.00020089331   2   -3    3
    0.00012335185   2    25    25
    1.9504655e-05   2    23    23
    6.2126524e-06   2   -24    24
    5.6113997e-06   2    21    21
    2.789262e-06   2   -1000011    1000011
    2.7862949e-06   2   -1000013    1000013
    7.7831109e-07   2   -4    4
    5.5540125e-07   2   -1    1
    3.6023515e-08   2    22    22
    7.5551843e-09   2   -11    11
    4.615277e-09   2    22    23
    4.0121873e-12   2   -2    2

DECAY 36  10.369801
    0.51995981   2   -5    5
    0.097393284   2    1000022    1000022
    0.096666243   2   -15    15
    0.092810351   2    1000022    1000023
    0.064557816   2    1000023    1000025
    0.056697634   2   -6    6
    0.038201526   2    1000025    1000025
    0.017573485   2    1000022    1000025
    0.014263286   2    1000023    1000023
    0.0012571553   2   -1000024    1000024
    0.00033345649   2   -13    13
    0.0001991424   2   -3    3
    5.3849414e-05   2    21    21
    3.1497437e-05   2    23    25
    7.4795541e-07   2   -4    4
    5.50561e-07   2   -1    1
    1.1906742e-07   2    22    22
    3.5304517e-08   2    22    23
    7.4893751e-09   2   -11    11
    3.8558413e-12   2   -2    2
    1.5419866e-39   2    25    25

DECAY 37  10.525866
    0.58184742   2   -5    6
    0.22905965   2    1000022    1000024
    0.096257442   2   -15    16
    0.083292027   2    1000024    1000025
    0.0081115038   2    1000023    1000024
    0.00077143412   2   -5    4
    0.00034030444   2   -13    14
    0.00018250252   2   -3    4
    8.8002873e-05   2   -3    6
    3.1095573e-05   2    24    25
    8.5072827e-06   2   -3    2
    5.5088273e-06   2   -5    2
    4.0238895e-06   2   -1    6
    5.0421662e-07   2   -1    2
    6.0336935e-08   2   -1    4
    7.9597563e-09   2   -11    12
    6.011385e-13   2    24    36
    5.5340184e-13   2    24    35

DECAY 6  2.43
    1   2    5    24

DECAY 15 -1
