# SUSY Les Houches Accord 2 - MSSM spectrum + Decays
# SPheno v4.0.5be
# W. Porod, Comput. Phys. Commun. 153 (2003) 275-315, hep-ph/0301101;
# W. Porod, F.~Staub, Comput. Phys. Commun. 183 (2012) 2458
#                     arXiv:1104.1573 [hep-ph] 
# in case of problems send email to porod@physik.uni-wuerzburg.de
# Created: 07.09.2021,  15:17
Block SPINFO         # Program information
     1   SPheno      # spectrum calculator
     2   v4.0.5be    # version number
#
Block SPhenoINFO     # SPheno specific information
    1      2         # using 2-loop RGEs
    2      2         # using pole masses for boundary conditions at mZ
Block MODSEL  # Model selection
    1    0    # general MSSM
Block MINPAR  # Input parameters
    3    2.78229432E+00  # tanb at m_Z    
    4    1.00000000E+00  # Sign(mu)
Block EXTPAR  # non-universal input parameters
    0    3.68297635E+03  # scale for input parameters
    1    2.27397785E+02  # M_1
    2    3.91409165E+02  # M_2
    3    1.61164998E+03  # M_3
   11   -1.32501652E+03  # A_t
   12   -1.35038019E+02  # A_b
   13   -1.26889098E+03  # A_tau
   23    2.96603304E+02  # mu
   25    2.62607824E+00  # tan(beta)
   26    3.23073956E+03  # m_A, pole mass
   31    1.00000000E+04  # M_L11
   32    1.00000000E+04  # M_L22
   33    1.00000000E+04  # M_L33
   34    1.00000000E+04  # M_E11
   35    1.00000000E+04  # M_E22
   36    1.00000000E+04  # M_E33
   41    1.00000000E+04  # M_Q11
   42    1.00000000E+04  # M_Q22
   43    3.23832209E+03  # M_Q33
   44    1.00000000E+04  # M_U11
   45    1.00000000E+04  # M_U22
   46    4.15634229E+03  # M_U33
   47    1.00000000E+04  # M_D11
   48    1.00000000E+04  # M_D22
   49    2.99470384E+03  # M_D33
Block SMINPUTS  # SM parameters
         1     1.27908970E+02  # alpha_em^-1(MZ)^MSbar
         2     1.16637870E-05  # G_mu [GeV^-2]
         3     1.18400000E-01  # alpha_s(MZ)^MSbar
         4     9.11876000E+01  # m_Z(pole)
         5     4.18000000E+00  # m_b(m_b), MSbar
         6     1.73200000E+02  # m_t(pole)
         7     1.77700000E+00  # m_tau(pole)
         8     0.00000000E+00  # m_nu_3
        11     5.10998930E-04  # m_e(pole)
        12     0.00000000E+00  # m_nu_1
        13     1.05658372E-01  # m_muon(pole)
        14     0.00000000E+00  # m_nu_2
        21     5.00000000E-03  # m_d(2 GeV), MSbar
        22     2.50000000E-03  # m_u(2 GeV), MSbar
        23     9.50000000E-02  # m_s(2 GeV), MSbar
        24     1.27000000E+00  # m_c(m_c), MSbar
Block gauge Q=  3.68297635E+03  # (SUSY scale)
   1    3.55362975E-01  # g'(Q)^DRbar
   2    6.65198874E-01  # g(Q)^DRbar
   3    1.21977796E+00  # g3(Q)^DRbar
Block Yu Q=  3.68297635E+03  # (SUSY scale)
  1  1     8.97169178E-06   # Y_u(Q)^DRbar
  2  2     4.55761942E-03   # Y_c(Q)^DRbar
  3  3     1.08385243E+00   # Y_t(Q)^DRbar
Block Yd Q=  3.68297635E+03  # (SUSY scale)
  1  1     4.73437063E-05   # Y_d(Q)^DRbar
  2  2     8.99530420E-04   # Y_s(Q)^DRbar
  3  3     4.69501213E-02   # Y_b(Q)^DRbar
Block Ye Q=  3.68297635E+03  # (SUSY scale)
  1  1     8.26182295E-06   # Y_e(Q)^DRbar
  2  2     1.70828296E-03   # Y_mu(Q)^DRbar
  3  3     2.87305091E-02   # Y_tau(Q)^DRbar
Block Au Q=  3.68297635E+03  # (SUSY scale)
  1  1     0.00000000E+00   # A_u(Q)^DRbar
  2  2     0.00000000E+00   # A_c(Q)^DRbar
  3  3    -1.32501663E+03   # A_t(Q)^DRbar
Block Ad Q=  3.68297635E+03  # (SUSY scale)
  1  1     0.00000000E+00   # A_d(Q)^DRbar
  2  2     0.00000000E+00   # A_s(Q)^DRbar
  3  3    -1.35038015E+02   # A_b(Q)^DRbar
Block Ae Q=  3.68297635E+03  # (SUSY scale)
  1  1     0.00000000E+00   # A_e(Q)^DRbar
  2  2     0.00000000E+00   # A_mu(Q)^DRbar
  3  3    -1.26889095E+03   # A_tau(Q)^DRbar
Block MSOFT Q=  3.68297635E+03  # soft SUSY breaking masses at Q
   1    2.27397785E+02  # M_1
   2    3.91409165E+02  # M_2
   3    1.61164998E+03  # M_3
  21    9.04418088E+06  # M^2_(H,d)
  22    1.59739499E+06  # M^2_(H,u)
  31    1.00000000E+04  # M_(L,11)
  32    1.00000000E+04  # M_(L,22)
  33    1.00000000E+04  # M_(L,33)
  34    1.00000000E+04  # M_(E,11)
  35    1.00000000E+04  # M_(E,22)
  36    1.00000000E+04  # M_(E,33)
  41    1.00000000E+04  # M_(Q,11)
  42    1.00000000E+04  # M_(Q,22)
  43    3.23832209E+03  # M_(Q,33)
  44    1.00000000E+04  # M_(U,11)
  45    1.00000000E+04  # M_(U,22)
  46    4.15634229E+03  # M_(U,33)
  47    1.00000000E+04  # M_(D,11)
  48    1.00000000E+04  # M_(D,22)
  49    2.99470384E+03  # M_(D,33)
Block MASS  # Mass spectrum
#   PDG code      mass          particle
         6     1.73200000E+02  # m_t(pole)
        23     9.11876000E+01  # m_Z(pole)
        24     8.04299946E+01  # W+
        15     1.77700000E+00  # m_tau(pole)
        25     1.10641459E+02  # h0
        35     3.23079900E+03  # H0
        36     3.23073956E+03  # A0
        37     3.23202147E+03  # H+
   1000001     1.01202753E+04  # ~d_L
   2000001     1.00950130E+04  # ~d_R
   1000002     1.01199868E+04  # ~u_L
   2000002     1.00981594E+04  # ~u_R
   1000003     1.01202758E+04  # ~s_L
   2000003     1.00950130E+04  # ~s_R
   1000004     1.01199873E+04  # ~c_L
   2000004     1.00981604E+04  # ~c_R
   1000005     3.05285248E+03  # ~b_1
   2000005     3.26913758E+03  # ~b_2
   1000006     3.27061839E+03  # ~t_1
   2000006     4.14732420E+03  # ~t_2
   1000011     1.00213810E+04  # ~e_L-
   2000011     1.00089791E+04  # ~e_R-
   1000012     1.00206868E+04  # ~nu_eL
   1000013     1.00213811E+04  # ~mu_L-
   2000013     1.00089793E+04  # ~mu_R-
   1000014     1.00206869E+04  # ~nu_muL
   1000015     1.00090241E+04  # ~tau_1-
   2000015     1.00214082E+04  # ~tau_2-
   1000016     1.00207112E+04  # ~nu_tauL
   1000021     1.98591254E+03  # ~g
   1000022     2.08322301E+02  # ~chi_10
   1000023     2.94829258E+02  # ~chi_20
   1000025     3.13401754E+02  # ~chi_30
   1000035     4.64863123E+02  # ~chi_40
   1000024     2.77417741E+02  # ~chi_1+
   1000037     4.63854179E+02  # ~chi_2+
# Higgs mixing
Block alpha # Effective Higgs mixing angle
          -3.45656868E-01   # alpha
Block Hmix Q=  3.68297635E+03  # Higgs mixing parameters
   1    2.96603304E+02  # mu
   2    2.62607824E+00  # tan[beta](Q)
   3    2.43062754E+02  # v(Q)
   4    1.04376781E+07  # m^2_A(Q)
Block stopmix # stop mixing matrix
   1  1     9.99447164E-01   # Re[R_st(1,1)]
   1  2     3.32470369E-02   # Re[R_st(1,2)]
   2  1    -3.32470369E-02   # Re[R_st(2,1)]
   2  2     9.99447164E-01   # Re[R_st(2,2)]
Block sbotmix # sbottom mixing matrix
   1  1     1.66971368E-03   # Re[R_sb(1,1)]
   1  2     9.99998606E-01   # Re[R_sb(1,2)]
   2  1    -9.99998606E-01   # Re[R_sb(2,1)]
   2  2     1.66971368E-03   # Re[R_sb(2,2)]
Block staumix # stau mixing matrix
   1  1     1.47455156E-02   # Re[R_sta(1,1)]
   1  2     9.99891279E-01   # Re[R_sta(1,2)]
   2  1    -9.99891279E-01   # Re[R_sta(2,1)]
   2  2     1.47455156E-02   # Re[R_sta(2,2)]
Block Nmix # neutralino mixing matrix
   1  1     8.81883076E-01   # Re[N(1,1)]
   1  2    -1.44736165E-01   # Re[N(1,2)]
   1  3     3.44381738E-01   # Re[N(1,3)]
   1  4    -2.87636754E-01   # Re[N(1,4)]
   2  1    -4.63185242E-01   # Re[N(2,1)]
   2  2    -4.34416555E-01   # Re[N(2,2)]
   2  3     5.53209016E-01   # Re[N(2,3)]
   2  4    -5.39167389E-01   # Re[N(2,4)]
   3  1     3.40952602E-02   # Re[N(3,1)]
   3  2    -4.57949757E-02   # Re[N(3,2)]
   3  3    -7.00613941E-01   # Re[N(3,3)]
   3  4    -7.11252725E-01   # Re[N(3,4)]
   4  1    -8.11121799E-02   # Re[N(4,1)]
   4  2     8.87826852E-01   # Re[N(4,2)]
   4  3     2.90690744E-01   # Re[N(4,3)]
   4  4    -3.47394856E-01   # Re[N(4,4)]
Block Umix # chargino mixing matrix
   1  1    -3.99776168E-01   # Re[U(1,1)]
   1  2     9.16612795E-01   # Re[U(1,2)]
   2  1     9.16612795E-01   # Re[U(2,1)]
   2  2     3.99776168E-01   # Re[U(2,2)]
Block Vmix # chargino mixing matrix
   1  1    -4.80723183E-01   # Re[V(1,1)]
   1  2     8.76872409E-01   # Re[V(1,2)]
   2  1     8.76872409E-01   # Re[V(2,1)]
   2  2     4.80723183E-01   # Re[V(2,2)]
DECAY        23     2.49520000E+00   # Z
DECAY        24     2.08500000E+00   # W
DECAY   2000011     5.02373277E+01   # ~e^-_R
#    BR                NDA      ID1      ID2
     7.77881436E-01    2     1000022        11   # BR(~e^-_R -> chi^0_1 e^-)
     2.14399213E-01    2     1000023        11   # BR(~e^-_R -> chi^0_2 e^-)
     1.16145876E-03    2     1000025        11   # BR(~e^-_R -> chi^0_3 e^-)
     6.55789166E-03    2     1000035        11   # BR(~e^-_R -> chi^0_4 e^-)
DECAY   1000011     1.44402821E+02   # ~e^-_L
#    BR                NDA      ID1      ID2
     3.25115230E-02    2     1000022        11   # BR(~e^-_L -> chi^0_1 e^-)
     1.41772811E-01    2     1000023        11   # BR(~e^-_L -> chi^0_2 e^-)
     2.31906080E-04    2     1000025        11   # BR(~e^-_L -> chi^0_3 e^-)
     2.16909344E-01    2     1000035        11   # BR(~e^-_L -> chi^0_4 e^-)
     9.74884078E-02    2    -1000024        12   # BR(~e^-_L -> chi^-_1 nu_e)
     5.11086008E-01    2    -1000037        12   # BR(~e^-_L -> chi^-_2 nu_e)
#    BR                NDA      ID1      ID2       ID3
DECAY   2000013     5.02384885E+01   # ~mu^-_R
#    BR                NDA      ID1      ID2
     7.77864846E-01    2     1000022        13   # BR(~mu^-_R -> chi^0_1 mu^-)
     2.14397798E-01    2     1000023        13   # BR(~mu^-_R -> chi^0_2 mu^-)
     1.16709834E-03    2     1000025        13   # BR(~mu^-_R -> chi^0_3 mu^-)
     6.55871356E-03    2     1000035        13   # BR(~mu^-_R -> chi^0_4 mu^-)
DECAY   1000013     1.44403403E+02   # ~mu^-_L
#    BR                NDA      ID1      ID2
     3.25118698E-02    2     1000022        13   # BR(~mu^-_L -> chi^0_1 mu^-)
     1.41773472E-01    2     1000023        13   # BR(~mu^-_L -> chi^0_2 mu^-)
     2.33878949E-04    2     1000025        13   # BR(~mu^-_L -> chi^0_3 mu^-)
     2.16908811E-01    2     1000035        13   # BR(~mu^-_L -> chi^0_4 mu^-)
     9.74880158E-02    2    -1000024        14   # BR(~mu^-_L -> chi^-_1 nu_mu)
     5.11083953E-01    2    -1000037        14   # BR(~mu^-_L -> chi^-_2 nu_mu)
#    BR                NDA      ID1      ID2       ID3
DECAY   1000015     5.05862291E+01   # ~tau^-_1
#    BR                NDA      ID1      ID2
     7.73089092E-01    2     1000022        15   # BR(~tau^-_1 -> chi^0_1 tau^-)
     2.14118026E-01    2     1000023        15   # BR(~tau^-_1 -> chi^0_2 tau^-)
     2.67494314E-03    2     1000025        15   # BR(~tau^-_1 -> chi^0_3 tau^-)
     6.49636953E-03    2     1000035        15   # BR(~tau^-_1 -> chi^0_4 tau^-)
     3.59719460E-03    2    -1000024        16   # BR(~tau^-_1 -> chi^-_1 nu_tau)
DECAY   2000015     1.44546849E+02   # ~tau^-_2
#    BR                NDA      ID1      ID2
     3.25494573E-02    2     1000022        15   # BR(~tau^-_2 -> chi^0_1 tau^-)
     1.41908246E-01    2     1000023        15   # BR(~tau^-_2 -> chi^0_2 tau^-)
     8.14078268E-04    2     1000025        15   # BR(~tau^-_2 -> chi^0_3 tau^-)
     2.16891259E-01    2     1000035        15   # BR(~tau^-_2 -> chi^0_4 tau^-)
     9.70861690E-02    2    -1000024        16   # BR(~tau^-_2 -> chi^-_1 nu_tau)
     5.10750790E-01    2    -1000037        16   # BR(~tau^-_2 -> chi^-_2 nu_tau)
#    BR                NDA      ID1      ID2       ID3
DECAY   1000012     1.44402981E+02   # ~nu_e
#    BR                NDA      ID1      ID2
     1.15746485E-01    2     1000022        12   # BR(~nu_e -> chi^0_1 nu_e)
     1.06593831E-02    2     1000023        12   # BR(~nu_e -> chi^0_2 nu_e)
     1.24899740E-03    2     1000025        12   # BR(~nu_e -> chi^0_3 nu_e)
     2.63694204E-01    2     1000035        12   # BR(~nu_e -> chi^0_4 nu_e)
     1.40954404E-01    2     1000024        11   # BR(~nu_e -> chi^+_1 e^-)
     4.67696527E-01    2     1000037        11   # BR(~nu_e -> chi^+_2 e^-)
#    BR                NDA      ID1      ID2       ID3
DECAY   1000014     1.44403563E+02   # ~nu_mu
#    BR                NDA      ID1      ID2
     1.15746019E-01    2     1000022        14   # BR(~nu_mu -> chi^0_1 nu_mu)
     1.06593402E-02    2     1000023        14   # BR(~nu_mu -> chi^0_2 nu_mu)
     1.24899238E-03    2     1000025        14   # BR(~nu_mu -> chi^0_3 nu_mu)
     2.63693143E-01    2     1000035        14   # BR(~nu_mu -> chi^0_4 nu_mu)
     1.40957216E-01    2     1000024        13   # BR(~nu_mu -> chi^+_1 mu^-)
     4.67695289E-01    2     1000037        13   # BR(~nu_mu -> chi^+_2 mu^-)
#    BR                NDA      ID1      ID2       ID3
DECAY   1000016     1.44567572E+02   # ~nu_tau
#    BR                NDA      ID1      ID2
     1.15614988E-01    2     1000022        16   # BR(~nu_tau -> chi^0_1 nu_tau)
     1.06472733E-02    2     1000023        16   # BR(~nu_tau -> chi^0_2 nu_tau)
     1.24757846E-03    2     1000025        16   # BR(~nu_tau -> chi^0_3 nu_tau)
     2.63394632E-01    2     1000035        16   # BR(~nu_tau -> chi^0_4 nu_tau)
     1.41748916E-01    2     1000024        15   # BR(~nu_tau -> chi^+_1 tau^-)
     4.67346611E-01    2     1000037        15   # BR(~nu_tau -> chi^+_2 tau^-)
#    BR                NDA      ID1      ID2       ID3
DECAY   2000001     7.41982181E+02   # ~d_R
#    BR                NDA      ID1      ID2
     5.90238379E-03    2     1000022         1   # BR(~d_R -> chi^0_1 d)
     1.62683566E-03    2     1000023         1   # BR(~d_R -> chi^0_2 d)
     9.92412204E-01    2     1000021         1   # BR(~d_R -> ~g d)
DECAY   1000001     8.73036255E+02   # ~d_L
#    BR                NDA      ID1      ID2
     4.64264102E-03    2     1000022         1   # BR(~d_L -> chi^0_1 d)
     6.30887494E-03    2     1000023         1   # BR(~d_L -> chi^0_2 d)
     1.36994620E-04    2     1000025         1   # BR(~d_L -> chi^0_3 d)
     4.13620840E-02    2     1000035         1   # BR(~d_L -> chi^0_4 d)
     1.62844870E-02    2    -1000024         2   # BR(~d_L -> chi^-_1 u)
     8.53765123E-02    2    -1000037         2   # BR(~d_L -> chi^-_2 u)
     8.45888406E-01    2     1000021         1   # BR(~d_L -> ~g d)
DECAY   2000003     7.41982504E+02   # ~s_R
#    BR                NDA      ID1      ID2
     5.90240708E-03    2     1000022         3   # BR(~s_R -> chi^0_1 s)
     1.62690170E-03    2     1000023         3   # BR(~s_R -> chi^0_2 s)
     9.92411771E-01    2     1000021         3   # BR(~s_R -> ~g s)
DECAY   1000003     8.73040639E+02   # ~s_L
#    BR                NDA      ID1      ID2
     4.64263997E-03    2     1000022         3   # BR(~s_L -> chi^0_1 s)
     6.30890038E-03    2     1000023         3   # BR(~s_L -> chi^0_2 s)
     1.37085116E-04    2     1000025         3   # BR(~s_L -> chi^0_3 s)
     4.13618941E-02    2     1000035         3   # BR(~s_L -> chi^0_4 s)
     1.62880795E-02    2    -1000024         4   # BR(~s_L -> chi^-_1 c)
     8.53771947E-02    2    -1000037         4   # BR(~s_L -> chi^-_2 c)
     8.45884206E-01    2     1000021         3   # BR(~s_L -> ~g s)
DECAY   1000005     8.21271258E+01   # ~b_1
#    BR                NDA      ID1      ID2
     1.61922624E-02    2     1000022         5   # BR(~b_1 -> chi^0_1 b)
     4.86569713E-03    2     1000023         5   # BR(~b_1 -> chi^0_2 b)
     8.04691361E-04    2     1000025         5   # BR(~b_1 -> chi^0_3 b)
     2.48090514E-04    2     1000035         5   # BR(~b_1 -> chi^0_4 b)
     1.36679318E-03    2    -1000024         6   # BR(~b_1 -> chi^-_1 t)
     2.21043788E-04    2    -1000037         6   # BR(~b_1 -> chi^-_2 t)
     9.76301422E-01    2     1000021         5   # BR(~b_1 -> ~g b)
DECAY   2000005     2.19538239E+02   # ~b_2
#    BR                NDA      ID1      ID2
     5.99252731E-03    2     1000022         5   # BR(~b_2 -> chi^0_1 b)
     8.18028151E-03    2     1000023         5   # BR(~b_2 -> chi^0_2 b)
     4.88848931E-04    2     1000025         5   # BR(~b_2 -> chi^0_3 b)
     5.12816412E-02    2     1000035         5   # BR(~b_2 -> chi^0_4 b)
     2.81431728E-01    2    -1000024         6   # BR(~b_2 -> chi^-_1 t)
     1.84671047E-01    2    -1000037         6   # BR(~b_2 -> chi^-_2 t)
     4.67953338E-01    2     1000021         5   # BR(~b_2 -> ~g b)
DECAY   2000002     7.59145698E+02   # ~u_R
#    BR                NDA      ID1      ID2
     2.30829517E-02    2     1000022         2   # BR(~u_R -> chi^0_1 u)
     6.36220659E-03    2     1000023         2   # BR(~u_R -> chi^0_2 u)
     1.94611534E-04    2     1000035         2   # BR(~u_R -> chi^0_4 u)
     9.70325764E-01    2     1000021         2   # BR(~u_R -> ~g u)
DECAY   1000002     8.73027405E+02   # ~u_L
#    BR                NDA      ID1      ID2
     1.36090159E-02    2     1000023         2   # BR(~u_L -> chi^0_2 u)
     3.87551948E-02    2     1000035         2   # BR(~u_L -> chi^0_4 u)
     2.35462856E-02    2     1000024         1   # BR(~u_L -> chi^+_1 d)
     7.81324257E-02    2     1000037         1   # BR(~u_L -> chi^+_2 d)
     8.45869005E-01    2     1000021         2   # BR(~u_L -> ~g u)
DECAY   2000004     7.59154082E+02   # ~c_R
#    BR                NDA      ID1      ID2
     2.30831514E-02    2     1000022         4   # BR(~c_R -> chi^0_1 c)
     6.36373359E-03    2     1000023         4   # BR(~c_R -> chi^0_2 c)
     1.95270262E-04    2     1000035         4   # BR(~c_R -> chi^0_4 c)
     9.70315119E-01    2     1000021         4   # BR(~c_R -> ~g c)
DECAY   1000004     8.73031758E+02   # ~c_L
#    BR                NDA      ID1      ID2
     1.36103362E-02    2     1000023         4   # BR(~c_L -> chi^0_2 c)
     3.87555815E-02    2     1000035         4   # BR(~c_L -> chi^0_4 c)
     2.35463253E-02    2     1000024         3   # BR(~c_L -> chi^+_1 s)
     7.81320697E-02    2     1000037         3   # BR(~c_L -> chi^+_2 s)
     8.45864800E-01    2     1000021         4   # BR(~c_L -> ~g c)
DECAY   1000006     2.19505051E+02   # ~t_1
#    BR                NDA      ID1      ID2
     3.02019769E-02    2     1000022         6   # BR(~t_1 -> chi^0_1 t)
     1.16290820E-01    2     1000023         6   # BR(~t_1 -> chi^0_2 t)
     1.72294210E-01    2     1000025         6   # BR(~t_1 -> chi^0_3 t)
     8.60035170E-02    2     1000035         6   # BR(~t_1 -> chi^0_4 t)
     3.65752702E-02    2     1000024         5   # BR(~t_1 -> chi^+_1 b)
     9.11691051E-02    2     1000037         5   # BR(~t_1 -> chi^+_2 b)
     4.65280970E-01    2     1000021         6   # BR(~t_1 -> ~g t)
#    BR                NDA      ID1      ID2       ID3
     2.18361316E-03    3     1000022        24         5   # BR(~t_1 -> chi^0_1 W^+ b)
DECAY   2000006     3.99107968E+02   # ~t_2
#    BR                NDA      ID1      ID2
     3.64114671E-02    2     1000022         6   # BR(~t_2 -> chi^0_1 t)
     7.41080092E-02    2     1000023         6   # BR(~t_2 -> chi^0_2 t)
     1.20768769E-01    2     1000025         6   # BR(~t_2 -> chi^0_3 t)
     3.09204050E-02    2     1000035         6   # BR(~t_2 -> chi^0_4 t)
     1.80746139E-01    2     1000024         5   # BR(~t_2 -> chi^+_1 b)
     5.88142874E-02    2     1000037         5   # BR(~t_2 -> chi^+_2 b)
     4.82675700E-01    2     1000021         6   # BR(~t_2 -> ~g t)
     7.20550015E-03    2     2000005        24   # BR(~t_2 -> ~b_2 W^+)
     3.56940592E-03    2     1000006        23   # BR(~t_2 -> ~t_1 Z)
     4.78028173E-03    2     1000006        25   # BR(~t_2 -> ~t_1 h^0)
DECAY   1000024     8.21509679E-04   # chi^+_1
#    BR                NDA      ID1      ID2       ID3
     3.33556055E-01    3     1000022        -1         2   # BR(chi^+_1 -> chi^0_1 d_bar u)
     3.33212977E-01    3     1000022        -3         4   # BR(chi^+_1 -> chi^0_1 s_bar c)
     1.11184643E-01    3     1000022       -11        12   # BR(chi^+_1 -> chi^0_1 e^+ nu_e)
     1.11184161E-01    3     1000022       -13        14   # BR(chi^+_1 -> chi^0_1 mu^+ nu_mu)
     1.10862164E-01    3     1000022       -15        16   # BR(chi^+_1 -> chi^0_1 tau^+ nu_tau)
DECAY   1000037     3.80081066E+00   # chi^+_2
#    BR                NDA      ID1      ID2
     1.66821275E-02    2     1000022        24   # BR(chi^+_2 -> chi^0_1 W^+)
     2.57294418E-01    2     1000023        24   # BR(chi^+_2 -> chi^0_2 W^+)
     3.66879474E-01    2     1000025        24   # BR(chi^+_2 -> chi^0_3 W^+)
     2.51565381E-01    2     1000024        23   # BR(chi^+_2 -> chi^+_1 Z)
     1.07566362E-01    2     1000024        25   # BR(chi^+_2 -> chi^+_1 h^0)
#    BR                NDA      ID1      ID2       ID3
DECAY   1000022     0.00000000E+00   # chi^0_1
DECAY   1000023     9.45555922E-05   # chi^0_2
#    BR                NDA      ID1      ID2
     5.95301375E-04    2     1000022        22   # BR(chi^0_2 -> chi^0_1 photon)
#    BR                NDA      ID1      ID2       ID3
     1.12120434E-01    3     1000022         2        -2   # BR(chi^0_2 -> chi^0_1 u u_bar)
     1.12240773E-01    3     1000022         4        -4   # BR(chi^0_2 -> chi^0_1 c c_bar)
     1.43760435E-01    3     1000022         1        -1   # BR(chi^0_2 -> chi^0_1 d d_bar)
     1.43761241E-01    3     1000022         3        -3   # BR(chi^0_2 -> chi^0_1 s s_bar)
     1.46463989E-01    3     1000022         5        -5   # BR(chi^0_2 -> chi^0_1 b b_bar)
     3.24136988E-02    3     1000022        11       -11   # BR(chi^0_2 -> chi^0_1 e^- e^+)
     3.24147857E-02    3     1000022        13       -13   # BR(chi^0_2 -> chi^0_1 mu^- mu^+)
     3.27160007E-02    3     1000022        15       -15   # BR(chi^0_2 -> chi^0_1 tau^- tau^+)
     1.92198647E-01    3     1000022        12       -12   # BR(chi^0_2 -> chi^0_1 nu_e nu_bar_e)
     8.67477750E-03    3     1000024         1        -2   # BR(chi^0_2 -> chi^+_1 d u_bar)
     8.67477750E-03    3    -1000024        -1         2   # BR(chi^0_2 -> chi^-_1 d_bar u)
     8.45222498E-03    3     1000024         3        -4   # BR(chi^0_2 -> chi^+_1 s c_bar)
     8.45222498E-03    3    -1000024        -3         4   # BR(chi^0_2 -> chi^-_1 s_bar c)
     2.89158775E-03    3     1000024        11       -12   # BR(chi^0_2 -> chi^+_1 e^- nu_bar_e)
     2.89158775E-03    3    -1000024       -11        12   # BR(chi^0_2 -> chi^-_1 e^+ nu_e)
     2.89154269E-03    3     1000024        13       -14   # BR(chi^0_2 -> chi^+_1 mu^- nu_bar_mu)
     2.89154269E-03    3    -1000024       -13        14   # BR(chi^0_2 -> chi^-_1 mu^+ nu_mu)
     2.74721471E-03    3     1000024        15       -16   # BR(chi^0_2 -> chi^+_1 tau^- nu_bar_tau)
     2.74721471E-03    3    -1000024       -15        16   # BR(chi^0_2 -> chi^-_1 tau^+ nu_tau)
DECAY   1000025     4.30776434E-01   # chi^0_3
#    BR                NDA      ID1      ID2
     9.98934020E-01    2     1000022        23   # BR(chi^0_3 -> chi^0_1 Z)
#    BR                NDA      ID1      ID2       ID3
     1.65056096E-04    3     1000024         1        -2   # BR(chi^0_3 -> chi^+_1 d u_bar)
     1.65056096E-04    3    -1000024        -1         2   # BR(chi^0_3 -> chi^-_1 d_bar u)
     1.64143590E-04    3     1000024         3        -4   # BR(chi^0_3 -> chi^+_1 s c_bar)
     1.64143590E-04    3    -1000024        -3         4   # BR(chi^0_3 -> chi^-_1 s_bar c)
DECAY   1000035     4.07216438E+00   # chi^0_4
#    BR                NDA      ID1      ID2
     2.45377482E-01    2     1000024       -24   # BR(chi^0_4 -> chi^+_1 W^-)
     2.45377482E-01    2    -1000024        24   # BR(chi^0_4 -> chi^-_1 W^+)
     1.63646259E-03    2     1000023        23   # BR(chi^0_4 -> chi^0_2 Z)
     3.73344464E-01    2     1000025        23   # BR(chi^0_4 -> chi^0_3 Z)
     3.55143149E-03    2     1000022        25   # BR(chi^0_4 -> chi^0_1 h^0)
     9.49305193E-02    2     1000023        25   # BR(chi^0_4 -> chi^0_2 h^0)
     3.57479155E-02    2     1000025        25   # BR(chi^0_4 -> chi^0_3 h^0)
#    BR                NDA      ID1      ID2       ID3
DECAY   1000021     2.79166411E-02   # ~g
#    BR                NDA      ID1      ID2
     1.45003958E-03    2     1000022        21   # BR(~g -> chi^0_1 g)
     3.28299353E-03    2     1000023        21   # BR(~g -> chi^0_2 g)
     6.28322254E-03    2     1000025        21   # BR(~g -> chi^0_3 g)
     1.26621854E-03    2     1000035        21   # BR(~g -> chi^0_4 g)
#    BR                NDA      ID1      ID2       ID3
     1.62531144E-04    3     1000022         2        -2   # BR(~g -> chi^0_1 u u_bar)
     1.62539173E-04    3     1000022         4        -4   # BR(~g -> chi^0_1 c c_bar)
     2.97958861E-02    3     1000022         6        -6   # BR(~g -> chi^0_1 t t_bar)
     1.17785789E-02    3     1000022         5        -5   # BR(~g -> chi^0_1 b b_bar)
     1.48539954E-04    3     1000023         2        -2   # BR(~g -> chi^0_2 u u_bar)
     1.48566131E-04    3     1000023         4        -4   # BR(~g -> chi^0_2 c c_bar)
     1.05239822E-01    3     1000023         6        -6   # BR(~g -> chi^0_2 t t_bar)
     8.41775401E-03    3     1000023         5        -5   # BR(~g -> chi^0_2 b b_bar)
     1.75172826E-01    3     1000025         6        -6   # BR(~g -> chi^0_3 t t_bar)
     8.44682451E-04    3     1000025         5        -5   # BR(~g -> chi^0_3 b b_bar)
     2.54892423E-04    3     1000035         2        -2   # BR(~g -> chi^0_4 u u_bar)
     2.54900979E-04    3     1000035         4        -4   # BR(~g -> chi^0_4 c c_bar)
     8.26000758E-02    3     1000035         6        -6   # BR(~g -> chi^0_4 t t_bar)
     2.71086213E-04    3     1000035         1        -1   # BR(~g -> chi^0_4 d d_bar)
     2.71086393E-04    3     1000035         3        -3   # BR(~g -> chi^0_4 s s_bar)
     3.48217846E-02    3     1000035         5        -5   # BR(~g -> chi^0_4 b b_bar)
     1.55089053E-04    3     1000024         1        -2   # BR(~g -> chi^+_1 d u_bar)
     1.55089053E-04    3    -1000024        -1         2   # BR(~g -> chi^-_1 d_bar u)
     1.55125836E-04    3     1000024         3        -4   # BR(~g -> chi^+_1 s c_bar)
     1.55125836E-04    3    -1000024        -3         4   # BR(~g -> chi^-_1 s_bar c)
     1.47596923E-01    3     1000024         5        -6   # BR(~g -> chi^+_1 b t_bar)
     1.47596923E-01    3    -1000024        -5         6   # BR(~g -> chi^-_1 b_bar t)
     5.35893876E-04    3     1000037         1        -2   # BR(~g -> chi^+_2 d u_bar)
     5.35893876E-04    3    -1000037        -1         2   # BR(~g -> chi^-_2 d_bar u)
     5.35902245E-04    3     1000037         3        -4   # BR(~g -> chi^+_2 s c_bar)
     5.35902245E-04    3    -1000037        -3         4   # BR(~g -> chi^-_2 s_bar c)
     1.19567618E-01    3     1000037         5        -6   # BR(~g -> chi^+_2 b t_bar)
     1.19567618E-01    3    -1000037        -5         6   # BR(~g -> chi^-_2 b_bar t)
DECAY        25     2.34516824E-03   # Gamma(h0)
     2.47220224E-03   2        22        22   # BR(h0 -> photon photon)
     4.95083658E-04   2        22        23   # BR(h0 -> photon Z)
     5.80051764E-03   2        23        23   # BR(h0 -> Z Z)
     6.10207228E-02   2       -24        24   # BR(h0 -> W W)
     8.42068265E-02   2        21        21   # BR(h0 -> gluon gluon)
     6.39634495E-09   2       -11        11   # BR(h0 -> Electron electron)
     2.84510326E-04   2       -13        13   # BR(h0 -> Muon muon)
     8.20066371E-02   2       -15        15   # BR(h0 -> Tau tau)
     1.85758877E-07   2        -2         2   # BR(h0 -> Up up)
     3.60418834E-02   2        -4         4   # BR(h0 -> Charm charm)
     7.56835132E-07   2        -1         1   # BR(h0 -> Down down)
     2.73727790E-04   2        -3         3   # BR(h0 -> Strange strange)
     7.27396940E-01   2        -5         5   # BR(h0 -> Bottom bottom)
DECAY        35     5.56635230E+01   # Gamma(HH)
     6.20052235E-07   2        22        22   # BR(HH -> photon photon)
     3.96422971E-07   2        22        23   # BR(HH -> photon Z)
     4.39327114E-05   2        23        23   # BR(HH -> Z Z)
     1.20480955E-05   2       -24        24   # BR(HH -> W W)
     7.25876576E-05   2        21        21   # BR(HH -> gluon gluon)
     6.17246592E-11   2       -11        11   # BR(HH -> Electron electron)
     2.74834160E-06   2       -13        13   # BR(HH -> Muon muon)
     7.93764136E-04   2       -15        15   # BR(HH -> Tau tau)
     1.66130951E-11   2        -2         2   # BR(HH -> Up up)
     3.22282641E-06   2        -4         4   # BR(HH -> Charm charm)
     2.39166097E-01   2        -6         6   # BR(HH -> Top top)
     4.49854500E-09   2        -1         1   # BR(HH -> Down down)
     1.62714304E-06   2        -3         3   # BR(HH -> Strange strange)
     4.22766738E-03   2        -5         5   # BR(HH -> Bottom bottom)
     4.55016196E-02   2  -1000024   1000024   # BR(HH -> Chargino1 chargino1)
     1.99241931E-01   2  -1000024   1000037   # BR(HH -> Chargino1 chargino2)
     1.99241931E-01   2  -1000037   1000024   # BR(HH -> Chargino2 chargino1)
     1.51378372E-02   2  -1000037   1000037   # BR(HH -> Chargino2 chargino2)
     1.23447519E-02   2   1000022   1000022   # BR(HH -> neutralino1 neutralino1)
     1.36073415E-02   2   1000022   1000023   # BR(HH -> neutralino1 neutralino2)
     7.27882520E-02   2   1000022   1000025   # BR(HH -> neutralino1 neutralino3)
     3.59774464E-03   2   1000022   1000035   # BR(HH -> neutralino1 neutralino4)
     1.30791430E-03   2   1000023   1000023   # BR(HH -> neutralino2 neutralino2)
     4.13171005E-03   2   1000023   1000025   # BR(HH -> neutralino2 neutralino3)
     1.46413016E-02   2   1000023   1000035   # BR(HH -> neutralino2 neutralino4)
     1.75687826E-03   2   1000025   1000025   # BR(HH -> neutralino3 neutralino3)
     1.61993046E-01   2   1000025   1000035   # BR(HH -> neutralino3 neutralino4)
     1.01252187E-02   2   1000035   1000035   # BR(HH -> neutralino4 neutralino4)
     2.57806467E-04   2        25        25   # BR(HH -> h0 h0)
DECAY        36     5.46133986E+01   # Gamma(A0)
     4.79768853E-07   2        22        22   # BR(A0 -> photon photon)
     2.75827458E-07   2        22        23   # BR(A0 -> photon Z)
     9.23134403E-05   2        21        21   # BR(A0 -> gluon gluon)
     5.99387820E-11   2       -11        11   # BR(A0 -> Electron electron)
     2.66880052E-06   2       -13        13   # BR(A0 -> Muon muon)
     7.70792325E-04   2       -15        15   # BR(A0 -> Tau tau)
     1.54285816E-11   2        -2         2   # BR(A0 -> Up up)
     2.99294454E-06   2        -4         4   # BR(A0 -> Charm charm)
     2.24607556E-01   2        -6         6   # BR(A0 -> Top top)
     4.36827063E-09   2        -1         1   # BR(A0 -> Down down)
     1.58001930E-06   2        -3         3   # BR(A0 -> Strange strange)
     4.10507117E-03   2        -5         5   # BR(A0 -> Bottom bottom)
     1.52952225E-01   2  -1000024   1000024   # BR(A0 -> Chargino1 chargino1)
     9.79994019E-02   2  -1000024   1000037   # BR(A0 -> Chargino1 chargino2)
     9.79994019E-02   2  -1000037   1000024   # BR(A0 -> Chargino2 chargino1)
     1.19426265E-01   2  -1000037   1000037   # BR(A0 -> Chargino2 chargino2)
     4.46596375E-02   2   1000022   1000022   # BR(A0 -> neutralino1 neutralino1)
     5.89268412E-02   2   1000022   1000023   # BR(A0 -> neutralino1 neutralino2)
     1.27680669E-02   2   1000022   1000025   # BR(A0 -> neutralino1 neutralino3)
     6.68918378E-03   2   1000022   1000035   # BR(A0 -> neutralino1 neutralino4)
     5.92116640E-03   2   1000023   1000023   # BR(A0 -> neutralino2 neutralino2)
     1.66101712E-04   2   1000023   1000025   # BR(A0 -> neutralino2 neutralino3)
     6.43291355E-02   2   1000023   1000035   # BR(A0 -> neutralino2 neutralino4)
     3.99966165E-04   2   1000025   1000025   # BR(A0 -> neutralino3 neutralino3)
     3.81165189E-02   2   1000025   1000035   # BR(A0 -> neutralino3 neutralino4)
     6.99852420E-02   2   1000035   1000035   # BR(A0 -> neutralino4 neutralino4)
     7.71120075E-05   2        23        25   # BR(A0 -> Z h0)
     1.82792478E-40   2        25        25   # BR(A0 -> h0 h0)
DECAY        37     5.87649900E+01   # Gamma(Hp)
     7.04080594E-11   2       -11        12   # BR(Hp -> Electron nu_e)
     3.01016444E-06   2       -13        14   # BR(Hp -> Muon nu_mu)
     8.51445757E-04   2       -15        16   # BR(Hp -> Tau nu_tau)
     4.47491516E-09   2        -1         2   # BR(Hp -> Down up)
     7.52863913E-08   2        -3         2   # BR(Hp -> Strange up)
     4.82326967E-08   2        -5         2   # BR(Hp -> Bottom up)
     1.65921461E-07   2        -1         4   # BR(Hp -> Down charm)
     5.14538767E-06   2        -3         4   # BR(Hp -> Strange charm)
     6.75980150E-06   2        -5         4   # BR(Hp -> Bottom charm)
     1.81463840E-05   2        -1         6   # BR(Hp -> Down top)
     3.95653692E-04   2        -3         6   # BR(Hp -> Strange top)
     2.83167270E-01   2        -5         6   # BR(Hp -> Bottom top)
     4.93189753E-02   2   1000022   1000024   # BR(Hp -> neutralino1 chargino1)
     2.99947920E-02   2   1000022   1000037   # BR(Hp -> neutralino1 chargino2)
     2.68544595E-02   2   1000023   1000024   # BR(Hp -> neutralino2 chargino1)
     2.05698751E-01   2   1000023   1000037   # BR(Hp -> neutralino2 chargino2)
     4.68360755E-02   2   1000024   1000025   # BR(Hp -> chargino1 neutralino3)
     1.67250408E-01   2   1000025   1000037   # BR(Hp -> neutralino3 chargino2)
     1.89089533E-01   2   1000024   1000035   # BR(Hp -> chargino1 neutralino4)
     4.37491876E-04   2   1000035   1000037   # BR(Hp -> neutralino4 chargino2)
     7.17882890E-05   2        24        25   # BR(Hp -> W h0)
     6.32516455E-14   2        24        35   # BR(Hp -> W HH)
     8.01964298E-14   2        24        36   # BR(Hp -> W A0)
DECAY         6     2.43000000E+00   # top
#    BR                NDA      ID1      ID2
     1.00000000E+00    2           5        24   # BR(t -> b W)
Block HiggsBoundsInputHiggsCouplingsFermions
# ScalarNormEffCoupSq PseudoSNormEffCoupSq NP IP1 IP2 IP2
    9.06457780E-01    0.00000000E+00        3  25   5   5  # h0-b-b eff. coupling^2, normalised to SM
    6.98982914E+00    0.00000000E+00        3  35   5   5  # H0-b-b eff. coupling^2, normalised to SM
    0.00000000E+00    6.89628692E+00        3  36   5   5  # A0-b-b eff. coupling^2, normalised to SM
#
    1.01356414E+00    0.00000000E+00        3  25   6   6  # h0-t-t eff. coupling^2, normalised to SM
    1.31441425E-01    0.00000000E+00        3  35   6   6  # H0-t-t eff. coupling^2, normalised to SM
    0.00000000E+00    1.45005568E-01        3  36   6   6  # A0-t-t eff. coupling^2, normalised to SM
#
    9.06457780E-01    0.00000000E+00        3  25  15  15  # h0-tau-tau eff. coupling^2, normalised to SM
    6.98982914E+00    0.00000000E+00        3  35  15  15  # H0-tau-tau eff. coupling^2, normalised to SM
    0.00000000E+00    6.89628692E+00        3  36  15  15  # A0-tau-tau eff. coupling^2, normalised to SM
#
Block HiggsBoundsInputHiggsCouplingsBosons
    9.99669324E-01        3  25  24  24  # h0-W-W eff. coupling^2, normalised to SM
    3.30675565E-04        3  35  24  24  # H0-W-W eff. coupling^2, normalised to SM
    0.00000000E+00        3  36  24  24  # A0-W-W eff. coupling^2, normalised to SM
#
    9.99669324E-01        3  25  23  23  # h0-Z-Z eff. coupling^2, normalised to SM
    3.30675565E-04        3  35  23  23  # H0-Z-Z eff. coupling^2, normalised to SM
    0.00000000E+00        3  36  23  23  # A0-Z-Z eff. coupling^2, normalised to SM
#
    1.29117549E+00        3  25  21  21  # h0-g-g eff. coupling^2, normalised to SM
    1.25983878E-01        3  35  21  21  # H0-g-g eff. coupling^2, normalised to SM
    3.85609207E-01        3  36  21  21  # A0-g-g eff. coupling^2, normalised to SM
#
    0.00000000E+00        3  25  25  23  # h0-h0-Z eff. coupling^2, normalised to SM
    0.00000000E+00        3  35  25  23  # H0-h0-Z eff. coupling^2, normalised to SM
    3.30675565E-04        3  36  25  23  # A0-h0-Z eff. coupling^2, normalised to SM
    0.00000000E+00        3  35  35  23  # H0-H0-Z eff. coupling^2, normalised to SM
    9.99669324E-01        3  36  35  23  # A0-H0-Z eff. coupling^2, normalised to SM
    0.00000000E+00        3  36  36  23  # A0-A0-Z eff. coupling^2, normalised to SM
#
    0.00000000E+00        4  25  21  21  23  # h0-g-g-Z eff. coupling^2, normalised to SM
    0.00000000E+00        4  35  21  21  23  # H0-g-g-Z eff. coupling^2, normalised to SM
    0.00000000E+00        4  36  21  21  23  # A0-g-g-Z eff. coupling^2, normalised to SM
Block SPhenoLowEnergy  # low energy observables
    1    3.25311635E-04   # BR(b -> s gamma)
    2    1.59110331E-06   # BR(b -> s mu+ mu-)
    3    3.52823142E-05   # BR(b -> s nu nu)
    4    2.56234448E-15   # BR(Bd -> e+ e-)
    5    1.09460447E-10   # BR(Bd -> mu+ mu-)
    6    2.29144647E-08   # BR(Bd -> tau+ tau-)
    7    8.63229131E-14   # BR(Bs -> e+ e-)
    8    3.68771208E-09   # BR(Bs -> mu+ mu-)
    9    7.82194921E-07   # BR(Bs -> tau+ tau-)
   10    9.68044115E-05   # BR(B_u -> tau nu)
   11    9.99952510E-01   # BR(B_u -> tau nu)/BR(B_u -> tau nu)_SM
   12    5.43505901E-01   # |Delta(M_Bd)| [ps^-1] 
   13    1.94199487E+01   # |Delta(M_Bs)| [ps^-1] 
   14    0.00000000E+00   # neutron EDM according to the chiral quark model
   15    0.00000000E+00   # neutron EDM according to the relativistic quark-parton model
   16    2.16352093E-03   # epsilon_K
   17    2.28172240E-15   # Delta(M_K)
   18    2.48200198E-11   # BR(K^0 -> pi^0 nu nu)
   19    8.29525480E-11   # BR(K^+ -> pi^+ nu nu)
   20    1.75895734E-18   # Delta(g-2)_electron/2
   21    7.52011923E-14   # Delta(g-2)_muon/2
   22    2.13306817E-11   # Delta(g-2)_tau/2
   23    0.00000000E+00   # electric dipole moment of the electron
   24    0.00000000E+00   # electric dipole moment of the muon
   25    0.00000000E+00   # electric dipole moment of the tau
   26    0.00000000E+00   # Br(mu -> e gamma)
   27    0.00000000E+00   # Br(tau -> e gamma)
   28    0.00000000E+00   # Br(tau -> mu gamma)
   29    0.00000000E+00   # Br(mu -> 3 e)
   30    0.00000000E+00   # Br(tau -> 3 e)
   31    0.00000000E+00   # Br(tau -> 3 mu)
   39   -1.15437366E-03   # Delta(rho_parameter)
   40    0.00000000E+00   # BR(Z -> e mu)
   41    0.00000000E+00   # BR(Z -> e tau)
   42    0.00000000E+00   # BR(Z -> mu tau)
Block FWCOEF Q=  1.60000000E+02  # Wilson coefficients at scale Q
#    id        order  M        value         comment
     0305 4422   00   0    -1.88819110E-01   # C7
     0305 4422   00   2    -1.93854043E-01   # C7
     0305 4322   00   2    -1.13675913E-04   # C7'
     0305 6421   00   0    -9.52278348E-02   # C8
     0305 6421   00   2    -1.02729020E-01   # C8
     0305 6321   00   2    -1.54304366E-04   # C8'
 03051111 4133   00   0     1.62346440E+00   # C9 e+e-
 03051111 4133   00   2     1.62409195E+00   # C9 e+e-
 03051111 4233   00   2     2.93044594E-06   # C9' e+e-
 03051111 4137   00   0    -4.44615650E+00   # C10 e+e-
 03051111 4137   00   2    -4.44740616E+00   # C10 e+e-
 03051111 4237   00   2    -2.01786801E-05   # C10' e+e-
 03051313 4133   00   0     1.62346440E+00   # C9 mu+mu-
 03051313 4133   00   2     1.62409195E+00   # C9 mu+mu-
 03051313 4233   00   2     2.93044593E-06   # C9' mu+mu-
 03051313 4137   00   0    -4.44615650E+00   # C10 mu+mu-
 03051313 4137   00   2    -4.44740616E+00   # C10 mu+mu-
 03051313 4237   00   2    -2.01786801E-05   # C10' mu+mu-
 03051212 4137   00   0     1.50535012E+00   # C11 nu_1 nu_1
 03051212 4137   00   2     1.50562282E+00   # C11 nu_1 nu_1
 03051212 4237   00   2     4.36533133E-06   # C11' nu_1 nu_1
 03051414 4137   00   0     1.50535012E+00   # C11 nu_2 nu_2
 03051414 4137   00   2     1.50562282E+00   # C11 nu_2 nu_2
 03051414 4237   00   2     4.36533133E-06   # C11' nu_2 nu_2
 03051616 4137   00   0     1.50535012E+00   # C11 nu_3 nu_3
 03051616 4137   00   2     1.50562282E+00   # C11 nu_3 nu_3
 03051616 4237   00   2     4.36533166E-06   # C11' nu_3 nu_3
Block IMFWCOEF Q=  1.60000000E+02  # Im(Wilson coefficients) at scale Q
#    id        order  M        value         comment
     0305 4422   00   0     3.85822444E-07   # C7
     0305 4422   00   2     1.64094364E-06   # C7
     0305 4322   00   2     7.23547183E-08   # C7'
     0305 6421   00   0     3.30482439E-07   # C8
     0305 6421   00   2    -2.02037917E-06   # C8
     0305 6321   00   2    -2.84081947E-08   # C8'
 03051111 4133   00   2     1.27878797E-06   # C9 e+e-
 03051111 4233   00   2     5.54937690E-08   # C9' e+e-
 03051111 4137   00   2     8.54250281E-07   # C10 e+e-
 03051111 4237   00   2    -3.83891692E-07   # C10' e+e-
 03051313 4133   00   2     1.27878794E-06   # C9 mu+mu-
 03051313 4233   00   2     5.54937689E-08   # C9' mu+mu-
 03051313 4137   00   2     8.54250312E-07   # C10 mu+mu-
 03051313 4237   00   2    -3.83891693E-07   # C10' mu+mu-
 03051212 4137   00   2    -1.44331817E-07   # C11 nu_1 nu_1
 03051212 4237   00   2     8.30502061E-08   # C11' nu_1 nu_1
 03051414 4137   00   2    -1.44331815E-07   # C11 nu_2 nu_2
 03051414 4237   00   2     8.30502061E-08   # C11' nu_2 nu_2
 03051616 4137   00   2    -1.44331386E-07   # C11 nu_3 nu_3
 03051616 4237   00   2     8.30502059E-08   # C11' nu_3 nu_3
