BLOCK SPINFO
   1   SPheno
   2   v4.0.5be

BLOCK SPHENOINFO
   1   2
   2   2

BLOCK MODSEL
   1   0

BLOCK MINPAR
   3    48.46079
   4    1

BLOCK EXTPAR
   0    3678.0011
   1   -581.55576
   2    834.09122
   3    2428.9737
   11   -7906.3146
   12    294.88707
   13   -1701.6117
   23    2430.9432
   25    47.402095
   26    2779.2148
   31    1147.988
   32    1147.988
   33    2564.2054
   34    799.27445
   35    799.27445
   36    889.55443
   41    4744.8347
   42    4744.8347
   43    3649.5821
   44    4081.4866
   45    4081.4866
   46    3833.1776
   47    1212.8481
   48    1212.8481
   49    1585.8541

BLOCK SMINPUTS
   1    127.90897
   2    1.1663787e-05
   3    0.1184
   4    91.1876
   5    4.18
   6    173.2
   7    1.777
   8    0
   11    0.00051099893
   12    0
   13    0.10565837
   14    0
   21    0.005
   22    0.0025
   23    0.095
   24    1.27

BLOCK GAUGE Q=  3678.0011
   1    0.35536298
   2    0.66519887
   3    1.219778

BLOCK YU Q=  3678.0011
   1   1    8.3862376e-06
   2   2    0.0042602087
   3   3    1.0131249

BLOCK YD Q=  3678.0011
   1   1    0.00079881267
   2   2    0.015177441
   3   3    0.79217186

BLOCK YE Q=  3678.0011
   1   1    0.00013939865
   2   2    0.02882322
   3   3    0.48475915

BLOCK AU Q=  3678.0011
   1   1    0
   2   2    0
   3   3   -7906.3147

BLOCK AD Q=  3678.0011
   1   1    0
   2   2    0
   3   3    294.88702

BLOCK AE Q=  3678.0011
   1   1    0
   2   2    0
   3   3   -1701.6118

BLOCK MSOFT Q=  3678.0011
   1   -581.55576
   2    834.09122
   3    2428.9737
   21    1967618.8
   22   -5678588.6
   31    1147.988
   32    1147.988
   33    2564.2054
   34    799.27445
   35    799.27445
   36    889.55443
   41    4744.8347
   42    4744.8347
   43    3649.5821
   44    4081.4866
   45    4081.4866
   46    3833.1776
   47    1212.8481
   48    1212.8481
   49    1585.8541

BLOCK MASS
   6    173.2
   23    91.1876
   24    80.429995
   15    1.777
   25    127.33909
   35    2778.7142
   36    2779.2148
   37    2780.2502
   1000001    4826.1558
   2000001    1412.8497
   1000002    4825.5794
   2000002    4152.6469
   1000003    4826.1522
   2000003    1412.8458
   1000004    4825.5758
   2000004    4152.6464
   1000005    1739.474
   2000005    3646.7714
   1000006    3536.7222
   2000006    3824.9236
   1000011    1150.2545
   2000011    832.16831
   1000012    1147.2519
   1000013    1150.3168
   2000013    831.82825
   1000014    1147.1697
   1000015    884.86978
   2000015    2558.5806
   1000016    2555.1791
   1000021    2716.9789
   1000022   -571.36943
   1000023    879.01539
   1000025   -2433.1946
   1000035    2433.951
   1000024    879.10967
   1000037    2434.9975

BLOCK ALPHA
      -0.020697753

BLOCK HMIX Q=  3678.0011
   1    2430.9432
   2    47.402095
   3    242.98373
   4    7724035

BLOCK STOPMIX
   1   1    0.80796503
   1   2    0.58923044
   2   1   -0.58923044
   2   2    0.80796503

BLOCK SBOTMIX
   1   1    0.020214731
   1   2    0.99979566
   2   1   -0.99979566
   2   2    0.020214731

BLOCK STAUMIX
   1   1    0.038122987
   1   2    0.99927305
   2   1   -0.99927305
   2   2    0.038122987

BLOCK NMIX
   1   1    0.99980794
   1   2    0.0001871952
   1   3    0.019172916
   1   4    0.0040561063
   2   1   -0.00046782856
   2   2   -0.99921398
   2   3    0.037102748
   2   4   -0.013949613
   3   1   -0.016423775
   3   2    0.016376323
   3   3    0.70668998
   3   4    0.70714309
   4   1    0.010683094
   4   2   -0.036099937
   4   3   -0.70628964
   4   4    0.70692122

BLOCK UMIX
   1   1   -0.99862143
   1   2    0.052490293
   2   1    0.052490293
   2   2    0.99862143

BLOCK VMIX
   1   1   -0.99980331
   1   2    0.019833059
   2   1    0.019833059
   2   2    0.99980331

BLOCK HIGGSBOUNDSINPUTHIGGSCOUPLINGSFERMIONS
       0, 2246.9586,3,36,15,15

BLOCK HIGGSBOUNDSINPUTHIGGSCOUPLINGSBOSONS
       0,4,36,21,21,23

BLOCK SPHENOLOWENERGY
   1    0.00030941099
   2    1.5925993e-06
   3    3.5268562e-05
   4    1.9397095e-15
   5    8.2861265e-11
   6    1.7291597e-08
   7    6.4353252e-14
   8    2.7491412e-09
   9    5.8145474e-07
   10    9.5799808e-05
   11    0.98957534
   12    0.54159861
   13    19.344896
   14    0
   15    0
   16    0.0021561955
   17    2.2816487e-15
   18    2.481269e-11
   19    8.2930963e-11
   20   -1.976232e-15
   21   -8.4608489e-11
   22    1.3040033e-08
   23    0
   24    0
   25    0
   26    0
   27    0
   28    0
   29    0
   30    0
   31    0
   39    7.0430571e-05
   40    0
   41    0
   42    0

BLOCK FWCOEF Q=  160
   305   4422   0   0   -0.18881911
   305   4422   0   2   -0.17334512
   305   4322   0   2    0.00021924413
   305   6421   0   0   -0.095227835
   305   6421   0   2   -0.097156305
   305   6321   0   2   -9.2294446e-05
   3051111   4133   0   0    1.6244589
   3051111   4133   0   2    1.6246887
   3051111   4233   0   2    0.00059259232
   3051111   4137   0   0   -4.447151
   3051111   4137   0   2   -4.4471238
   3051111   4237   0   2   -0.0044024968
   3051313   4133   0   0    1.6244589
   3051313   4133   0   2    1.6246865
   3051313   4233   0   2    0.00059259066
   3051313   4137   0   0   -4.447151
   3051313   4137   0   2   -4.447126
   3051313   4237   0   2   -0.0044024986
   3051212   4137   0   0    1.5053501
   3051212   4137   0   2    1.5053674
   3051212   4237   0   2    0.00095246726
   3051414   4137   0   0    1.5053501
   3051414   4137   0   2    1.5053674
   3051414   4237   0   2    0.00095246743
   3051616   4137   0   0    1.5053501
   3051616   4137   0   2    1.5053662
   3051616   4237   0   2    0.0009525162

BLOCK IMFWCOEF Q=  160
   305   4422   0   0    3.8591268e-07
   305   4422   0   2    5.2892523e-05
   305   4322   0   2    6.5600774e-06
   305   6421   0   0    3.3055974e-07
   305   6421   0   2   -9.0038456e-05
   305   6321   0   2    1.7637244e-06
   3051111   4133   0   2   -9.8441174e-07
   3051111   4233   0   2    1.1767905e-05
   3051111   4137   0   2    7.2498732e-06
   3051111   4237   0   2   -8.742542e-05
   3051313   4133   0   2   -9.8444842e-07
   3051313   4233   0   2    1.176789e-05
   3051313   4137   0   2    7.2498713e-06
   3051313   4237   0   2   -8.7425466e-05
   3051212   4137   0   2   -1.1536004e-06
   3051212   4237   0   2    1.8914224e-05
   3051414   4137   0   2   -1.1535999e-06
   3051414   4237   0   2    1.8914224e-05
   3051616   4137   0   2   -1.1748899e-06
   3051616   4237   0   2    1.8914221e-05

DECAY 23  2.4952


DECAY 24  2.085


DECAY 2000011  1.1677873
    1   2    1000022    11

DECAY 1000011  3.4418852
    0.50743385   2   -1000024    12
    0.25429834   2    1000023    11
    0.23826768   2    1000022    11

DECAY 2000013  1.1656084
    1   2    1000022    13

DECAY 1000013  3.461453
    0.50474617   2   -1000024    14
    0.25295228   2    1000023    13
    0.23695165   2    1000022    13
    0.0053498957   2    2000013    25

DECAY 1000015  1.5108366
    0.99999248   2    1000022    15

DECAY 2000015  39.594895
    0.43931394   2   -1000024    16
    0.2203551   2    1000023    15
    0.14173332   2    1000015    23
    0.12229592   2    1000015    25
    0.073511939   2    1000022    15
    0.0013846332   2    1000025    15
    0.0013726325   2    1000035    15

DECAY 1000012  3.3938055
    0.50694792   2    1000024    11
    0.25320302   2    1000023    12
    0.23984906   2    1000022    12

DECAY 1000014  3.3924392
    0.50691067   2    1000024    13
    0.25318358   2    1000023    14
    0.23990576   2    1000022    14

DECAY 1000016  40.416779
    0.43302292   2    1000024    15
    0.27703287   2    1000015    24
    0.21585385   2    1000023    16
    0.071594195   2    1000022    16
    0.0024904627   2    1000037    15

DECAY 2000001  0.55166372
    0.99999983   2    1000022    1

DECAY 1000001  237.90502
    0.74710657   2    1000021    1
    0.16646519   2   -1000024    2
    0.083318729   2    1000023    1
    0.0027457355   2    1000022    1
    0.00027340814   2   -1000037    2

DECAY 2000003  0.55167243
    0.99998167   2    1000022    3

DECAY 1000003  237.92039
    0.7470567   2    1000021    3
    0.16645426   2   -1000024    4
    0.083313391   2    1000023    3
    0.0027455888   2    1000022    3
    0.00027748456   2   -1000037    4

DECAY 1000005  0.86752322
    0.90216549   2    1000022    5
    0.064386743   2   -1000024    6
    0.033447769   2    1000023    5

DECAY 2000005  148.95525
    0.38247362   2    1000021    5
    0.18903828   2   -1000024    6
    0.15327266   2   -1000037    6
    0.09552107   2    1000023    5
    0.051919101   2    1000005    25
    0.047049296   2    1000025    5
    0.047015403   2    1000035    5
    0.020775441   2    1000005    23
    0.0096527522   2    1000006   -24
    0.0032823744   2    1000022    5

DECAY 2000002  116.13988
    0.92316267   2    1000021    2
    0.076824098   2    1000022    2

DECAY 1000002  237.8781
    0.74693624   2    1000021    2
    0.16685566   2    1000024    1
    0.08334463   2    1000023    2
    0.0027572714   2    1000022    2

DECAY 2000004  116.14104
    0.92315234   2    1000021    4
    0.076823303   2    1000022    4

DECAY 1000004  237.89085
    0.74689434   2    1000021    4
    0.16684681   2    1000024    3
    0.083340077   2    1000023    4
    0.002757121   2    1000022    4

DECAY 1000006  136.9449
    0.39110027   2    1000021    6
    0.13690637   2    1000024    5
    0.10657092   2    1000037    5
    0.09622158   2    1000021    4
    0.067705773   2    1000023    6
    0.064058685   2    1000025    6
    0.061411221   2    1000035    6
    0.02807993   2    1000023    4
    0.025460626   2    1000005    24
    0.02086026   2    1000022    6
    0.00096241793   2    1000022    4
    0.00066194821   3    1000022    24    5

DECAY 2000006  161.12253
    0.39602373   2    1000021    6
    0.15062353   2    1000037    5
    0.09505641   2    1000035    6
    0.091309645   2    1000025    6
    0.069705186   2    1000006    23
    0.060037198   2    1000024    5
    0.043873791   2    2000005    24
    0.034314916   2    1000022    6
    0.029728286   2    1000023    6
    0.016687703   2    1000005    24
    0.012639615   2    1000006    25

DECAY 1000024  6.2579558e-05
    0.50989568   2    1000022    24
    0.22357052   3    1000022   -13    14
    0.22355488   3    1000022   -11    12
    0.036887398   3    1000022   -15    16
    0.0035045405   2   -2000013    14
    0.0024133623   3    1000022   -5    6

DECAY 1000037  32.833781
    0.32901752   2   -1000005    6
    0.16287901   2    1000024    25
    0.1547876   2    1000023    24
    0.15410332   2    1000024    23
    0.12932689   2   -1000015    16
    0.048441302   2    1000022    24
    0.0096841049   3    1000024    6   -6
    0.0068590195   3    1000023   -5    6
    0.0022202243   3    1000022   -5    6
    0.00054277092   2   -1000011    12
    0.00054273714   2   -1000013    14
    0.00047684929   2   -2000013    14
    0.00044766903   2    1000014   -13
    0.00022370158   2   -2000003    4
    0.00022077363   3    1000024    5   -5

DECAY 1000022 -1


DECAY 1000023  0.00010812181
    0.44690229   2    1000022    25
    0.27092854   2    1000022    23
    0.13130868   3    1000022    12   -12
    0.064086766   3    1000022    11   -11
    0.06406352   3    1000022    13   -13
    0.020205395   3    1000022    15   -15
    0.0010574058   2    2000013   -13
    0.0010574058   2   -2000013    13
    0.00019248357   3    1000022    5   -5

DECAY 1000025  35.859602
    0.15160255   2    1000005   -5
    0.15160255   2   -1000005    5
    0.14198801   2    1000024   -24
    0.14198801   2   -1000024    24
    0.11744561   2    1000023    23
    0.11457798   2    1000023    25
    0.059524611   2    1000015   -15
    0.059524611   2   -1000015    15
    0.029238569   2    1000022    25
    0.013180979   2    1000022    23
    0.0063055797   3    1000024    5   -6
    0.0063055797   3   -1000024   -5    6
    0.0037361775   3    1000023    6   -6
    0.0012729446   3    1000022    6   -6
    0.00025424906   2    2000013   -13
    0.00025424906   2   -2000013    13
    0.00017404496   2    1000013   -13
    0.00017404496   2   -1000013    13
    0.00010907275   2    2000003   -3
    0.00010907275   2   -2000003    3
    0.00010287674   3    1000023    5   -5

DECAY 1000035  33.467949
    0.16242313   2    1000005   -5
    0.16242313   2   -1000005    5
    0.15041704   2    1000024   -24
    0.15041704   2   -1000024    24
    0.13293604   2    1000023    25
    0.063607097   2    1000015   -15
    0.063607097   2   -1000015    15
    0.034061223   2    1000022    25
    0.033366427   2    1000022    23
    0.025847179   2    1000023    23
    0.0064560903   3    1000024    5   -6
    0.0064560903   3   -1000024   -5    6
    0.0041400756   3    1000023    6   -6
    0.0013755416   3    1000022    6   -6
    0.00026997433   2    1000013   -13
    0.00026997433   2   -1000013    13
    0.00025011102   2    2000013   -13
    0.00025011102   2   -2000013    13
    0.00016926041   2    1000014   -14
    0.00016926041   2   -1000014    14
    0.00016924655   2    1000012   -12
    0.00016924655   2   -1000012    12
    0.00011268894   2    2000003   -3
    0.00011268894   2   -2000003    3
    0.00010556969   3    1000023    5   -5

DECAY 1000021  113.65521
    0.18833048   2    2000003   -3
    0.18833048   2   -2000003    3
    0.18832973   2    2000001   -1
    0.18832973   2   -2000001    1
    0.12317885   2    1000005   -5
    0.12317885   2   -1000005    5

DECAY 25  0.0041921963
    0.53369318   2   -5    5
    0.2691736   2   -24    24
    0.07064667   2    21    21
    0.061627202   2   -15    15
    0.03408044   2    23    23
    0.026317709   2   -4    4
    0.0023475407   2    22    22
    0.00169897   2    22    23
    0.00021388149   2   -13    13
    0.00020011482   2   -3    3
    5.5329505e-07   2   -1    1
    1.3561349e-07   2   -2    2
    4.8083027e-09   2   -11    11

DECAY 35  59.984347
    0.75206597   2   -5    5
    0.24477099   2   -15    15
    0.00096393592   2   -13    13
    0.00067739247   2   -6    6
    0.00054304465   2   -1000024    1000024
    0.00027125814   2    1000023    1000023
    0.00026640904   2   -3    3
    0.00024206596   2    1000022    1000023
    0.00015403873   2   -1000015    1000015
    2.8633978e-05   2    1000022    1000022
    1.3373014e-05   2    21    21
    1.0086358e-06   2    25    25
    7.3654128e-07   2   -1    1
    3.2245691e-07   2    23    23
    1.0783403e-07   2   -24    24
    8.8582165e-08   2   -2000013    1000013
    8.8582165e-08   2   -1000013    2000013
    6.7226215e-08   2    22    23
    4.2182075e-08   2   -2000013    2000013
    3.8723836e-08   2   -2000011    2000011
    3.6426884e-08   2   -1000011    1000011
    3.1605061e-08   2   -1000013    1000013
    2.411023e-08   2    22    22
    2.1649948e-08   2   -11    11
    1.0334384e-08   2   -4    4
    7.2414687e-09   2   -1000001    1000001
    7.2023333e-09   2   -1000003    1000003
    2.0747055e-12   2   -2000011    1000011
    2.0747055e-12   2   -1000011    2000011
    5.3280678e-14   2   -2    2

DECAY 36  56.407619
    0.75187494   2   -5    5
    0.24471218   2   -15    15
    0.00096369887   2   -13    13
    0.00092900544   2   -1000024    1000024
    0.00053538695   2   -6    6
    0.00046406679   2    1000023    1000023
    0.00026633474   2   -3    3
    0.00019368092   2    1000022    1000023
    3.6257506e-05   2    1000022    1000022
    2.2781275e-05   2    21    21
    7.3633701e-07   2   -1    1
    5.2975416e-07   2    23    25
    1.3382984e-07   2    22    23
    9.4228149e-08   2   -2000013    1000013
    9.4228149e-08   2   -1000013    2000013
    5.437713e-08   2    22    22
    2.1644454e-08   2   -11    11
    8.164189e-09   2   -4    4
    2.2039833e-12   2   -2000011    1000011
    2.2039833e-12   2   -1000011    2000011
    4.2089367e-14   2   -2    2
    5.9249913e-36   2    25    25

DECAY 37  73.256719
    0.81933865   2   -5    6
    0.17824303   2   -15    16
    0.0012146119   2   -5    4
    0.00063015283   2   -13    14
    0.00034763229   2    1000022    1000024
    0.00020498038   2   -3    4
    9.5920809e-06   2   -3    2
    8.6735832e-06   2   -5    2
    1.2166945e-06   2   -3    6
    5.6842213e-07   2   -1    2
    4.0866531e-07   2    24    25
    1.3983123e-07   2   -1000013    1000014
    1.2856741e-07   2   -2000013    1000014
    1.2469774e-07   2   -2000011    1000012
    4.1911267e-08   2   -1    6
    2.6905937e-08   2   -1    4
    1.473934e-08   2   -11    12
    6.5603156e-11   2    1000023    1000024
    3.2712551e-12   2   -1000011    1000012
    1.5889096e-13   2    24    35
    2.2117554e-14   2    24    36

DECAY 6  2.43
    1   2    5    24

DECAY 15 -1
