BLOCK SPINFO
   1   SPheno
   2   v4.0.5be

BLOCK SPHENOINFO
   1   2
   2   2

BLOCK MODSEL
   1   0

BLOCK MINPAR
   3    39.558055
   4   -1

BLOCK EXTPAR
   0    3076.3356
   1   -4067.7704
   2   -3293.9219
   3    2470.5617
   11   -4208.2667
   12   -5397.0256
   13   -1644.2322
   23   -391.40419
   25    38.628221
   26    863.36222
   31    3126.1292
   32    3126.1292
   33    3948.8605
   34    2203.2533
   35    2203.2533
   36    4916.853
   41    2745.171
   42    2745.171
   43    2341.3222
   44    3055.7738
   45    3055.7738
   46    3932.2306
   47    2015.7797
   48    2015.7797
   49    698.87557

BLOCK SMINPUTS
   1    127.90897
   2    1.1663787e-05
   3    0.1184
   4    91.1876
   5    4.18
   6    173.2
   7    1.777
   8    0
   11    0.00051099893
   12    0
   13    0.10565837
   14    0
   21    0.005
   22    0.0025
   23    0.095
   24    1.27

BLOCK GAUGE Q=  3076.3356
   1    0.35536298
   2    0.66519887
   3    1.219778

BLOCK YU Q=  3076.3356
   1   1    8.3871812e-06
   2   2    0.004260688
   3   3    1.0132389

BLOCK YD Q=  3076.3356
   1   1    0.00065102996
   2   2    0.012369569
   3   3    0.64561772

BLOCK YE Q=  3076.3356
   1   1    0.00011360949
   2   2    0.023490839
   3   3    0.39507727

BLOCK AU Q=  3076.3356
   1   1    0
   2   2    0
   3   3   -4208.2666

BLOCK AD Q=  3076.3356
   1   1    0
   2   2    0
   3   3   -5397.0249

BLOCK AE Q=  3076.3356
   1   1    0
   2   2    0
   3   3   -1644.232

BLOCK MSOFT Q=  3076.3356
   1   -4067.7704
   2   -3293.9219
   3    2470.5617
   21    810323.84
   22   -65147.62
   31    3126.1292
   32    3126.1292
   33    3948.8605
   34    2203.2533
   35    2203.2533
   36    4916.853
   41    2745.171
   42    2745.171
   43    2341.3222
   44    3055.7738
   45    3055.7738
   46    3932.2306
   47    2015.7797
   48    2015.7797
   49    698.87557

BLOCK MASS
   6    173.2
   23    91.1876
   24    80.429995
   15    1.777
   25    123.21056
   35    863.2923
   36    863.36222
   37    868.50596
   1000001    2873.0661
   2000001    2145.9163
   1000002    2871.9763
   2000002    3144.8802
   1000003    2873.0623
   2000003    2145.908
   1000004    2871.9725
   2000004    3144.8796
   1000005    827.81024
   2000005    2415.5478
   1000006    2410.7207
   2000006    3925.731
   1000011    3152.1274
   2000011    2219.7519
   1000012    3150.692
   1000013    3152.1103
   2000013    2219.7118
   1000014    3150.6746
   1000015    3965.1312
   2000015    4917.8868
   1000016    3963.0799
   1000021    2664.6239
   1000022   -394.26978
   1000023    396.35799
   1000025   -3275.3495
   1000035   -4019.1964
   1000024    395.13905
   1000037    3275.4463

BLOCK ALPHA
      -0.026137408

BLOCK HMIX Q=  3076.3356
   1   -391.40419
   2    38.628221
   3    243.21626
   4    745394.32

BLOCK STOPMIX
   1   1    0.99814653
   1   2    0.060856392
   2   1   -0.060856392
   2   2    0.99814653

BLOCK SBOTMIX
   1   1   -0.0043549058
   1   2    0.99999052
   2   1   -0.99999052
   2   2   -0.0043549058

BLOCK STAUMIX
   1   1   -0.999996
   1   2    0.0028281878
   2   1   -0.0028281878
   2   2   -0.999996

BLOCK NMIX
   1   1   -0.0087386913
   1   2    0.019566021
   1   3    0.70799787
   1   4   -0.70588938
   2   1    0.0068194631
   2   2   -0.01470418
   2   3    0.70620471
   2   4    0.70782214
   3   1    0.0012459277
   3   2    0.99969996
   3   3   -0.0034682402
   3   4    0.024215913
   4   1    0.99993779
   4   2   -0.00097435848
   4   3    0.0013754446
   4   4   -0.011026374

BLOCK UMIX
   1   1   -0.0049088723
   1   2   -0.99998795
   2   1   -0.99998795
   2   2    0.0049088723

BLOCK VMIX
   1   1    0.034278508
   1   2    0.99941232
   2   1    0.99941232
   2   2   -0.034278508

BLOCK HIGGSBOUNDSINPUTHIGGSCOUPLINGSFERMIONS
       0, 1492.1394,3,36,15,15

BLOCK HIGGSBOUNDSINPUTHIGGSCOUPLINGSBOSONS
       0,4,36,21,21,23

BLOCK SPHENOLOWENERGY
   1    0.0003798848
   2    1.5874963e-06
   3    3.5252671e-05
   4    1.13216e-15
   5    4.8348182e-11
   6    9.1701021e-09
   7    4.2024807e-14
   8    1.7949044e-09
   9    3.5757816e-07
   10    8.4464351e-05
   11    0.87248441
   12    0.54187768
   13    19.25973
   14    0
   15    0
   16    0.002157908
   17    2.2816787e-15
   18    2.4803912e-11
   19    8.2906854e-11
   20    1.3426926e-15
   21    5.7402042e-11
   22    1.3872533e-08
   23    0
   24    0
   25    0
   26    0
   27    0
   28    0
   29    0
   30    0
   31    0
   39    7.182035e-05
   40    0
   41    0
   42    0

BLOCK FWCOEF Q=  160
   305   4422   0   0   -0.18881911
   305   4422   0   2   -0.25131481
   305   4322   0   2   -0.001193927
   305   6421   0   0   -0.095227835
   305   6421   0   2   -0.14945517
   305   6321   0   2   -0.0010709968
   3051111   4133   0   0    1.6177782
   3051111   4133   0   2    1.6182101
   3051111   4233   0   2    0.00024628773
   3051111   4137   0   0   -4.4404703
   3051111   4137   0   2   -4.4388782
   3051111   4237   0   2   -0.0018428218
   3051313   4133   0   0    1.6177782
   3051313   4133   0   2    1.6182095
   3051313   4233   0   2    0.00024626569
   3051313   4137   0   0   -4.4404703
   3051313   4137   0   2   -4.4388788
   3051313   4237   0   2   -0.0018428026
   3051212   4137   0   0    1.5053501
   3051212   4137   0   2    1.5050059
   3051212   4237   0   2    0.0003992881
   3051414   4137   0   0    1.5053501
   3051414   4137   0   2    1.5050059
   3051414   4237   0   2    0.0003992927
   3051616   4137   0   0    1.5053501
   3051616   4137   0   2    1.5050061
   3051616   4237   0   2    0.00040058857

BLOCK IMFWCOEF Q=  160
   305   4422   0   0    3.8579868e-07
   305   4422   0   2   -1.0620021e-05
   305   4322   0   2   -6.2481024e-06
   305   6421   0   0    3.3046208e-07
   305   6421   0   2    7.1568658e-05
   305   6321   0   2   -1.7059756e-06
   3051111   4133   0   2   -8.4067067e-07
   3051111   4233   0   2    8.8225462e-06
   3051111   4137   0   2    1.0047543e-05
   3051111   4237   0   2   -6.6095609e-05
   3051313   4133   0   2   -8.4066514e-07
   3051313   4233   0   2    8.8225318e-06
   3051313   4137   0   2    1.0047551e-05
   3051313   4237   0   2   -6.6095646e-05
   3051212   4137   0   2   -2.1632125e-06
   3051212   4237   0   2    1.4321057e-05
   3051414   4137   0   2   -2.1632129e-06
   3051414   4237   0   2    1.4321057e-05
   3051616   4137   0   2   -2.1591345e-06
   3051616   4237   0   2    1.4321057e-05

DECAY 23  2.4952


DECAY 24  2.085


DECAY 2000011  0.0012860481
    0.6213638   2    1000022    11
    0.37822065   2    1000023    11
    0.00041555353   2   -1000024    12

DECAY 1000011  0.0052764349
    0.5655375   2    1000022    11
    0.31168909   2    1000023    11
    0.12277282   2   -1000024    12

DECAY 2000013  0.046979368
    0.48633554   2   -1000024    14
    0.26086291   2    1000022    13
    0.25280155   2    1000023    13

DECAY 1000013  0.038932648
    0.50833804   2    1000022    13
    0.47160053   2    1000023    13
    0.016638967   2   -1000024    14
    0.0034207147   2    2000013    25

DECAY 1000015  17.360185
    0.34882308   2    1000022    15
    0.34674444   2    1000023    15
    0.2028303   2   -1000037    16
    0.10151662   2    1000025    15

DECAY 2000015  33.435045
    0.4508282   2   -1000024    16
    0.22601721   2    1000022    15
    0.22491182   2    1000023    15
    0.081493599   2    1000035    15
    0.0074875801   2    1000016   -37
    0.0038055577   2    1000015    35
    0.0038038436   2    1000015    36
    0.0008254315   2    1000016   -24
    0.000409049   2    1000015    23
    0.00039751494   2    1000015    25

DECAY 1000012  0.043986798
    0.71779622   2    1000024    11
    0.17940828   2    1000022    12
    0.1027955   2    1000023    12

DECAY 1000014  0.077493374
    0.83981558   2    1000024    13
    0.10183515   2    1000022    14
    0.058348449   2    1000023    14

DECAY 1000016  17.367216
    0.69686404   2    1000024    15
    0.20151912   2    1000037    15
    0.10070719   2    1000025    16
    0.00057827058   2    1000022    16
    0.0003313731   2    1000023    16

DECAY 2000001  0.00017117002
    0.54849346   2    1000022    1
    0.35284551   2    1000023    1
    0.098661026   2   -1000024    2

DECAY 1000001  4.4437034
    0.99794651   2    1000021    1
    0.0012249013   2    1000022    1
    0.00069655248   2    1000023    1
    0.00013201193   2   -1000024    2

DECAY 2000003  0.012330029
    0.49444059   2   -1000024    4
    0.25485736   2    1000022    3
    0.25070205   2    1000023    3

DECAY 1000003  4.4529756
    0.99583385   2    1000021    3
    0.0021675013   2    1000022    3
    0.0016350052   2    1000023    3
    0.00035570859   2   -1000024    4

DECAY 1000005  7.5790452
    0.46026708   2   -1000024    6
    0.2714551   2    1000022    5
    0.26827782   2    1000023    5

DECAY 2000005  136.91359
    0.33720953   2   -1000024    6
    0.26151864   2    1000005    36
    0.26151434   2    1000005    35
    0.069498716   2    1000022    5
    0.069116142   2    1000023    5
    0.00068884938   2    1000005    25
    0.00045378101   2    1000005    23

DECAY 1000002  4.4263735
    0.99214326   2    1000021    2
    0.0064649293   2    1000024    1
    0.00089172816   2    1000022    2
    0.00050008658   2    1000023    2

DECAY 2000002  19.755627
    0.99995769   2    1000021    2

DECAY 1000004  4.4355033
    0.99004279   2    1000021    4
    0.0083431997   2    1000024    3
    0.0010021466   2    1000022    4
    0.00061185976   2    1000023    4

DECAY 2000004  19.757683
    0.99984642   2    1000021    4

DECAY 1000006  137.43132
    0.51555572   2    1000005    37
    0.16741589   2    1000023    6
    0.16655881   2    1000022    6
    0.13774344   2    1000024    5
    0.011827999   3    1000022    24    5
    0.00089518749   2    1000005    24

DECAY 2000006  329.10238
    0.26650082   2    1000021    6
    0.23856877   2    1000024    5
    0.11942658   2    1000023    6
    0.11885931   2    1000022    6
    0.1106478   2    2000005    24
    0.085086314   2    1000006    25
    0.055453803   2    1000006    23
    0.001975253   2    2000005    37
    0.0014778151   2    1000005    37
    0.0010027813   2    1000006    36
    0.0009920131   2    1000006    35

DECAY 1000024  1.1506427e-12
    0.60843146   3    1000022   -1    2
    0.20285241   3    1000022   -11    12
    0.18871613   3    1000022   -13    14

DECAY 1000037  81.314561
    0.11188296   2    1000006   -5
    0.10668589   2   -2000005    6
    0.08935984   2    1000024    25
    0.084484961   2    1000023    24
    0.084243835   2    1000024    23
    0.084069595   2    1000022    24
    0.077626239   2    37    1000022
    0.075458397   2    1000024    36
    0.075439842   2    1000024    35
    0.075196909   2    37    1000023
    0.028395547   2    1000004   -3
    0.028395046   2    1000002   -1
    0.028284768   2   -1000003    4
    0.028284425   2   -1000001    2
    0.0081115331   3    1000024    6   -6
    0.0051452842   3    1000023   -5    6
    0.0049824786   3    1000022   -5    6
    0.00098910428   2    1000014   -13
    0.00098883485   2    1000012   -11
    0.00096802045   2   -1000013    14
    0.00096775658   2   -1000011    12

DECAY 1000022 -1


DECAY 1000023  1.8230776e-09
    0.94587155   2    1000022    22
    0.015280934   3    1000022    12   -12
    0.011426039   3    1000022    1   -1
    0.01115509   3    1000022    3   -3
    0.0089117279   3    1000022    2   -2
    0.0025787056   3    1000022    11   -11
    0.0024830918   3    1000022    13   -13
    0.00069286747   3    1000024    1   -2
    0.00069286747   3   -1000024   -1    2
    0.0002309801   3    1000024    11   -12
    0.0002309801   3   -1000024   -11    12
    0.000222585   3    1000024    13   -14
    0.000222585   3   -1000024   -13    14

DECAY 1000025  83.764748
    0.082038871   2    1000024   -24
    0.082038871   2   -1000024    24
    0.075215825   2    37   -1000024
    0.075215825   2   -37    1000024
    0.055480101   2    1000022    25
    0.054972089   2    1000006   -6
    0.054972089   2   -1000006    6
    0.053654217   2    2000005   -5
    0.053654217   2   -2000005    5
    0.052425301   2    1000023    23
    0.050308875   2    1000023    25
    0.048902665   2    1000023    35
    0.044212013   2    1000022    35
    0.029285941   2    1000022    23
    0.029128308   2    1000022    36
    0.026096398   2    1000023    36
    0.013790665   2    1000004   -4
    0.013790665   2   -1000004    4
    0.013790459   2    1000002   -2
    0.013790459   2   -1000002    2
    0.013708978   2    1000003   -3
    0.013708978   2   -1000003    3
    0.013708731   2    1000001   -1
    0.013708731   2   -1000001    1
    0.005332972   3    1000024    5   -6
    0.005332972   3   -1000024   -5    6
    0.00396749   3    1000022    6   -6
    0.0039210657   3    1000023    6   -6
    0.0004790073   2    1000014   -14
    0.0004790073   2   -1000014    14
    0.00047887642   2    1000012   -12
    0.00047887642   2   -1000012    12
    0.00046949712   2    1000013   -13
    0.00046949712   2   -1000013    13
    0.00046936905   2    1000011   -11
    0.00046936905   2   -1000011    11

DECAY 1000035  67.404575
    0.072348055   2    2000013   -13
    0.072348055   2   -2000013    13
    0.072345762   2    2000011   -11
    0.072345762   2   -2000011    11
    0.045780426   2    1000005   -5
    0.045780426   2   -1000005    5
    0.038919339   2    1000024   -24
    0.038919339   2   -1000024    24
    0.034224212   2    37   -1000024
    0.034224212   2   -37    1000024
    0.030026867   2    2000004   -4
    0.030026867   2   -2000004    4
    0.030026839   2    2000002   -2
    0.030026839   2   -2000002    2
    0.025520097   2    2000003   -3
    0.025520097   2   -2000003    3
    0.025519939   2    2000001   -1
    0.025519939   2   -2000001    1
    0.024516921   2    1000023    23
    0.023462477   2    1000022    25
    0.021598971   2    1000023    35
    0.02127155   2    1000023    25
    0.019531981   2    1000022    35
    0.014765307   2    1000022    23
    0.014335561   2    1000022    36
    0.012847605   2    1000023    36
    0.0055849641   2    1000014   -14
    0.0055849641   2   -1000014    14
    0.0055847677   2    1000012   -12
    0.0055847677   2   -1000012    12
    0.0055282634   2    1000013   -13
    0.0055282634   2   -1000013    13
    0.0055280714   2    1000011   -11
    0.0055280714   2   -1000011    11
    0.0051590337   2    1000006   -6
    0.0051590337   2   -1000006    6
    0.0051522674   2    2000005   -5
    0.0051522674   2   -2000005    5
    0.0030176313   2    1000003   -3
    0.0030176313   2   -1000003    3
    0.0030176141   2    1000001   -1
    0.0030176141   2   -1000001    1
    0.0029569751   2    1000004   -4
    0.0029569751   2   -1000004    4
    0.0029569633   2    1000002   -2
    0.0029569633   2   -1000002    2
    0.0024083465   3    1000024    5   -6
    0.0024083465   3   -1000024   -5    6
    0.0019112754   3    1000022    6   -6
    0.0018993333   3    1000023    6   -6
    0.00022272117   3    1000021    6   -6

DECAY 1000021  88.178962
    0.36508039   2    1000005   -5
    0.36508039   2   -1000005    5
    0.055237536   2    2000003   -3
    0.055237536   2   -2000003    3
    0.055235955   2    2000001   -1
    0.055235955   2   -2000001    1
    0.014199982   2    2000005   -5
    0.014199982   2   -2000005    5
    0.010079606   2    1000006   -6
    0.010079606   2   -1000006    6

DECAY 25  0.0038332254
    0.6142967   2   -5    5
    0.19092154   2   -24    24
    0.070208678   2    21    21
    0.069981218   2   -15    15
    0.028300658   2   -4    4
    0.022296227   2    23    23
    0.002234769   2    22    22
    0.0012863796   2    22    23
    0.00024280464   2   -13    13
    0.00023024397   2   -3    3
    6.3660208e-07   2   -1    1
    1.4584547e-07   2   -2    2
    5.4585417e-09   2   -11    11

DECAY 35  24.752308
    0.88338807   2   -5    5
    0.11497399   2   -15    15
    0.00075941492   2   -6    6
    0.00040219   2   -13    13
    0.00032265722   2   -3    3
    6.3690459e-05   2    21    21
    4.1220476e-05   2    25    25
    2.6423013e-05   2   -1000024    1000024
    6.4479389e-06   2    1000022    1000022
    5.8962754e-06   2   -24    24
    3.7756925e-06   2    23    23
    3.7462333e-06   2    1000023    1000023
    1.4815605e-06   2    1000022    1000023
    8.921271e-07   2   -1    1
    5.37823e-08   2    22    22
    3.5913665e-08   2    22    23
    1.4219586e-08   2   -4    4
    9.0364153e-09   2   -11    11
    7.3339365e-14   2   -2    2

DECAY 36  23.983059
    0.88313822   2   -5    5
    0.11494113   2   -15    15
    0.00087886813   2   -6    6
    0.00040206818   2   -13    13
    0.00032255574   2   -3    3
    0.00015453549   2   -1000024    1000024
    9.526264e-05   2    21    21
    4.0143101e-05   2    1000022    1000022
    2.0119907e-05   2    1000023    1000023
    5.9554058e-06   2    23    25
    8.9184693e-07   2   -1    1
    1.2771753e-07   2    1000022    1000023
    7.1994385e-08   2    22    22
    2.8074921e-08   2    22    23
    1.3684847e-08   2   -4    4
    9.0336773e-09   2   -11    11
    7.0588439e-14   2   -2    2
    3.7973263e-41   2    25    25

DECAY 37  21.770773
    0.87296317   2   -5    6
    0.12484199   2   -15    16
    0.0013715226   2   -5    4
    0.00044136439   2   -13    14
    0.00033083299   2   -3    4
    1.525168e-05   2   -3    2
    1.1956346e-05   2    1000023    1000024
    9.7941251e-06   2   -5    2
    6.7396496e-06   2    24    25
    4.3491206e-06   2    1000022    1000024
    1.9810257e-06   2   -3    6
    9.1805747e-07   2   -1    2
    7.0336517e-08   2   -1    6
    4.2893306e-08   2   -1    4
    1.0323559e-08   2   -11    12
    2.3941244e-10   2    24    35
    2.2379706e-10   2    24    36

DECAY 6  2.43
    1   2    5    24

DECAY 15 -1
