BLOCK SPINFO
   1   SPheno
   2   v4.0.5be

BLOCK SPHENOINFO
   1   2
   2   2

BLOCK MODSEL
   1   0

BLOCK MINPAR
   3    46.342354
   4    1

BLOCK EXTPAR
   0    3616.7317
   1    893.59911
   2    1811.801
   3    1835.8941
   11   -2033.4688
   12   -2792.254
   13    571.77296
   23    1180.0863
   25    45.096407
   26    1759.1982
   31    3568.2671
   32    3568.2671
   33    3241.7889
   34    2586.6083
   35    2586.6083
   36    3388.7325
   41    3811.6144
   42    3811.6144
   43    2849.6946
   44    2808.084
   45    2808.084
   46    4509.7913
   47    2533.3114
   48    2533.3114
   49    787.14022

BLOCK SMINPUTS
   1    127.90897
   2    1.1663787e-05
   3    0.1184
   4    91.1876
   5    4.18
   6    173.2
   7    1.777
   8    0
   11    0.00051099893
   12    0
   13    0.10565837
   14    0
   21    0.005
   22    0.0025
   23    0.095
   24    1.27

BLOCK GAUGE Q=  3616.7317
   1    0.35536298
   2    0.66519887
   3    1.219778

BLOCK YU Q=  3616.7317
   1   1    8.3864333e-06
   2   2    0.0042603081
   3   3    1.0131485

BLOCK YD Q=  3616.7317
   1   1    0.0007599753
   2   2    0.014439531
   3   3    0.75365736

BLOCK YE Q=  3616.7317
   1   1    0.00013262125
   2   2    0.027421868
   3   3    0.46119071

BLOCK AU Q=  3616.7317
   1   1    0
   2   2    0
   3   3   -2033.4688

BLOCK AD Q=  3616.7317
   1   1    0
   2   2    0
   3   3   -2792.254

BLOCK AE Q=  3616.7317
   1   1    0
   2   2    0
   3   3    571.77296

BLOCK MSOFT Q=  3616.7317
   1    893.59911
   2    1811.801
   3    1835.8941
   21    1811968.3
   22   -1184516.2
   31    3568.2671
   32    3568.2671
   33    3241.7889
   34    2586.6083
   35    2586.6083
   36    3388.7325
   41    3811.6144
   42    3811.6144
   43    2849.6946
   44    2808.084
   45    2808.084
   46    4509.7913
   47    2533.3114
   48    2533.3114
   49    787.14022

BLOCK MASS
   6    173.2
   23    91.1876
   24    80.429995
   15    1.777
   25    121.08856
   35    1759.0107
   36    1759.1982
   37    1761.5912
   1000001    3884.5471
   2000001    2612.9643
   1000002    3883.7565
   2000002    2878.5263
   1000003    3884.5419
   2000003    2612.9545
   1000004    3883.7514
   2000004    2878.5256
   1000005    946.37712
   2000005    2897.0224
   1000006    2898.0432
   2000006    4513.6484
   1000011    3579.6397
   2000011    2593.0962
   1000012    3578.3402
   1000013    3579.6092
   2000013    2593.0285
   1000014    3578.3087
   1000015    3242.9211
   2000015    3377.7752
   1000016    3243.1056
   1000021    2107.3859
   1000022    881.29719
   1000023    1189.8158
   1000025   -1192.6753
   1000035    1869.4696
   1000024    1187.2904
   1000037    1869.5001

BLOCK ALPHA
      -0.021743578

BLOCK HMIX Q=  3616.7317
   1    1180.0863
   2    45.096407
   3    243.04758
   4    3094778.3

BLOCK STOPMIX
   1   1    0.99966644
   1   2    0.025826551
   2   1   -0.025826551
   2   2    0.99966644

BLOCK SBOTMIX
   1   1    0.013540402
   1   2    0.99990833
   2   1   -0.99990833
   2   2    0.013540402

BLOCK STAUMIX
   1   1    0.99436554
   1   2    0.10600553
   2   1   -0.10600553
   2   2    0.99436554

BLOCK NMIX
   1   1   -0.99439212
   1   2    0.0052540579
   1   3   -0.084350119
   1   4    0.063574953
   2   1   -0.10468841
   2   2   -0.084342071
   2   3    0.70111681
   2   4   -0.70025851
   3   1   -0.014608421
   3   2    0.017996321
   3   3    0.7064755
   3   4    0.70735782
   4   1   -0.0033546903
   4   2    0.99626048
   4   3    0.047038766
   4   4   -0.072395843

BLOCK UMIX
   1   1   -0.066423099
   1   2    0.99779155
   2   1    0.99779155
   2   2    0.066423099

BLOCK VMIX
   1   1   -0.10229001
   1   2    0.99475462
   2   1    0.99475462
   2   2    0.10229001

BLOCK HIGGSBOUNDSINPUTHIGGSCOUPLINGSFERMIONS
       0, 2033.6859,3,36,15,15

BLOCK HIGGSBOUNDSINPUTHIGGSCOUPLINGSBOSONS
       0,4,36,21,21,23

BLOCK SPHENOLOWENERGY
   1    0.00032598239
   2    1.5899317e-06
   3    3.525985e-05
   4    2.4569158e-15
   5    1.049564e-10
   6    2.1957091e-08
   7    8.146482e-14
   8    3.4801694e-09
   9    7.3788138e-07
   10    9.3394847e-05
   11    0.96473301
   12    0.54183005
   13    19.341805
   14    0
   15    0
   16    0.0021569226
   17    2.2816589e-15
   18    2.4801309e-11
   19    8.2909712e-11
   20    1.8965449e-15
   21    8.1080279e-11
   22    2.598476e-08
   23    0
   24    0
   25    0
   26    0
   27    0
   28    0
   29    0
   30    0
   31    0
   39    7.9901545e-05
   40    0
   41    0
   42    0

BLOCK FWCOEF Q=  160
   305   4422   0   0   -0.18881911
   305   4422   0   2   -0.19093021
   305   4322   0   2   -0.00010865163
   305   6421   0   0   -0.095227835
   305   6421   0   2   -0.11514497
   305   6321   0   2   -0.00039104176
   3051111   4133   0   0    1.623759
   3051111   4133   0   2    1.6241659
   3051111   4233   0   2    0.00038120615
   3051111   4137   0   0   -4.4464511
   3051111   4137   0   2   -4.4455918
   3051111   4237   0   2   -0.0028281992
   3051313   4133   0   0    1.623759
   3051313   4133   0   2    1.6241653
   3051313   4233   0   2    0.0003812019
   3051313   4137   0   0   -4.4464511
   3051313   4137   0   2   -4.4455925
   3051313   4237   0   2   -0.0028281979
   3051212   4137   0   0    1.5053501
   3051212   4137   0   2    1.5051676
   3051212   4237   0   2    0.00061196523
   3051414   4137   0   0    1.5053501
   3051414   4137   0   2    1.5051676
   3051414   4237   0   2    0.00061196596
   3051616   4137   0   0    1.5053501
   3051616   4137   0   2    1.5051676
   3051616   4237   0   2    0.00061217175

BLOCK IMFWCOEF Q=  160
   305   4422   0   0    3.85839e-07
   305   4422   0   2    6.2272404e-05
   305   4322   0   2    3.5176184e-06
   305   6421   0   0    3.3049662e-07
   305   6421   0   2   -0.00010060167
   305   6321   0   2   -1.9521554e-07
   3051111   4133   0   2    1.3564998e-06
   3051111   4233   0   2    8.9894253e-06
   3051111   4137   0   2   -6.8433316e-06
   3051111   4237   0   2   -6.6729618e-05
   3051313   4133   0   2    1.356491e-06
   3051313   4233   0   2    8.9894099e-06
   3051313   4137   0   2   -6.8433277e-06
   3051313   4237   0   2   -6.6729657e-05
   3051212   4137   0   2    1.5426994e-06
   3051212   4237   0   2    1.4438948e-05
   3051414   4137   0   2    1.5426994e-06
   3051414   4237   0   2    1.4438948e-05
   3051616   4137   0   2    1.5423186e-06
   3051616   4237   0   2    1.4438948e-05

DECAY 23  2.4952


DECAY 24  2.085


DECAY 2000011  10.169996
    0.99107542   2    1000022    11
    0.0087512032   2    1000023    11
    0.00016999303   2    1000025    11

DECAY 1000011  29.037006
    0.57142868   2   -1000037    12
    0.28382126   2    1000035    11
    0.13246552   2    1000022    11
    0.0084474507   2    1000023    11
    0.0037925244   2   -1000024    12

DECAY 2000013  10.217909
    0.98640982   2    1000022    13
    0.0098730401   2    1000023    13
    0.0023609441   2   -1000024    14
    0.001347087   2    1000025    13

DECAY 1000013  29.080153
    0.57056871   2   -1000037    14
    0.28339635   2    1000035    13
    0.13227917   2    1000022    13
    0.0091509173   2    1000023    13
    0.0037868492   2   -1000024    14
    0.0007708424   2    1000025    13

DECAY 1000015  33.083605
    0.37493787   2   -1000037    16
    0.18663326   2    1000035    15
    0.16031089   2    1000023    15
    0.15360828   2    1000025    15
    0.11193897   2    1000022    15
    0.01257073   2   -1000024    16

DECAY 2000015  36.627793
    0.39363398   2    1000022    15
    0.28906654   2   -1000024    16
    0.15048863   2    1000025    15
    0.14984214   2    1000023    15
    0.0089732676   2   -1000037    16
    0.0044843643   2    1000035    15
    0.0019806463   2    1000016   -24
    0.00076856644   2    1000015    25
    0.00076186412   2    1000015    23

DECAY 1000012  29.049225
    0.56720134   2    1000037    11
    0.28549126   2    1000035    12
    0.13769044   2    1000022    12
    0.0089854486   2    1000024    11
    0.00034633021   2    1000023    12
    0.00028517965   2    1000025    12

DECAY 1000014  29.09096
    0.56637955   2    1000037    13
    0.28507541   2    1000035    14
    0.13749138   2    1000022    14
    0.010423066   2    1000024    13
    0.00034582879   2    1000023    14
    0.00028476676   2    1000025    14

DECAY 1000016  32.9703
    0.38285537   2    1000037    15
    0.31750638   2    1000024    15
    0.19227668   2    1000035    16
    0.10688425   2    1000022    16
    0.00026180862   2    1000023    16
    0.00021551697   2    1000025    16

DECAY 2000001  26.342375
    0.95660046   2    1000021    1
    0.043009226   2    1000022    1
    0.00038168847   2    1000023    1

DECAY 1000001  183.52998
    0.83199327   2    1000021    1
    0.10952211   2   -1000037    2
    0.054659692   2    1000035    1
    0.0027864375   2    1000022    1
    0.00067564485   2   -1000024    2
    0.00033031342   2    1000023    1

DECAY 2000003  26.355146
    0.95610674   2    1000021    3
    0.042990393   2    1000022    3
    0.00050820651   2    1000023    3
    0.00025781739   2   -1000024    4
    0.00013604765   2    1000025    3

DECAY 1000003  183.54408
    0.83192636   2    1000021    3
    0.10951344   2   -1000037    4
    0.054655457   2    1000035    3
    0.0027867771   2    1000022    3
    0.00068177493   2   -1000024    4
    0.00036561701   2    1000023    3

DECAY 1000005  0.010214565
    1   2    1000022    5

DECAY 2000005  140.99768
    0.35949263   2    1000021    5
    0.28359937   2   -1000024    6
    0.080011566   2    1000025    5
    0.079079572   2    1000023    5
    0.064107957   2   -1000037    6
    0.036302414   2    1000005    35
    0.036296529   2    1000005    36
    0.030853065   2    1000035    5
    0.018935471   2    1000005    25
    0.0076338317   2    1000005    23
    0.0036875948   2    1000022    5

DECAY 2000002  54.192174
    0.90275416   2    1000021    2
    0.096334276   2    1000022    2
    0.00089375264   2    1000023    2

DECAY 1000002  183.48565
    0.83174235   2    1000021    2
    0.10883385   2    1000037    1
    0.054517437   2    1000035    2
    0.0024744962   2    1000022    2
    0.0016024347   2    1000024    1
    0.00081131769   2    1000023    2

DECAY 2000004  54.193416
    0.90273018   2    1000021    4
    0.096331989   2    1000022    4
    0.00090027104   2    1000023    4

DECAY 1000004  183.49928
    0.83167722   2    1000021    4
    0.10882571   2    1000037    3
    0.054513262   2    1000035    4
    0.0024743384   2    1000022    4
    0.0016739177   2    1000024    3
    0.00081430824   2    1000023    4

DECAY 1000006  163.38801
    0.30371758   2    1000021    6
    0.15143009   2    1000021    4
    0.14019995   2    1000024    5
    0.12333881   2    1000025    6
    0.12084541   2    1000023    6
    0.062099183   2    1000005    37
    0.052536633   2    1000037    5
    0.027308046   2    1000035    6
    0.01319843   2    1000005    24
    0.0034728655   2    1000022    6
    0.00092466119   2    1000022    4
    0.00064951906   3    1000022    24    5
    0.00027881849   2    1000023    4

DECAY 2000006  403.15657
    0.53655124   2    1000021    6
    0.19527473   2    1000024    5
    0.09864163   2    1000025    6
    0.097200208   2    1000023    6
    0.023324695   2    1000022    6
    0.020963961   2    2000005    24
    0.01389156   2    1000006    25
    0.010449698   2    1000006    23
    0.0022269755   2    1000037    5
    0.0011149999   2    1000035    6
    0.00034373753   2    1000005    37

DECAY 1000024  2.536326
    0.79264496   2   -1000005    6
    0.20691965   2    1000022    24
    0.00043523822   3    1000022   -5    6

DECAY 1000037  13.996205
    0.25097933   2    1000025    24
    0.24494207   2    1000023    24
    0.24403702   2    1000024    25
    0.24296743   2    1000024    23
    0.004595041   3    1000023   -5    6
    0.0044364707   3    1000025   -5    6
    0.0038986501   3    1000024    6   -6
    0.0037542581   2   -1000005    6
    0.00030199994   2    1000022    24

DECAY 1000022 -1


DECAY 1000023  3.1778352
    0.42134574   2    1000005   -5
    0.42134574   2   -1000005    5
    0.15334177   2    1000022    25
    0.003966061   2    1000022    23

DECAY 1000025  3.8857673
    0.35606094   2    1000005   -5
    0.35606094   2   -1000005    5
    0.16971917   2    1000022    23
    0.11815229   2    1000022    25

DECAY 1000035  16.906101
    0.2022462   2    1000024   -24
    0.2022462   2   -1000024    24
    0.20046103   2    1000025    23
    0.19287813   2    1000023    25
    0.18019596   2    1000025    25
    0.0089091592   2    1000023    23
    0.003713902   3    1000024    5   -6
    0.003713902   3   -1000024   -5    6
    0.0015455096   2    1000005   -5
    0.0015455096   2   -1000005    5
    0.0011309349   3    1000023    6   -6
    0.001029035   3    1000025    6   -6
    0.0002717834   2    1000022    25

DECAY 1000021  39.774861
    0.49969265   2    1000005   -5
    0.49969265   2   -1000005    5
    0.00012886512   3    1000023    5   -5
    0.00012759136   3    1000025    5   -5
    0.00011691497   3    1000024    5   -6
    0.00011691497   3   -1000024   -5    6

DECAY 25  0.0034588283
    0.63287569   2   -5    5
    0.16696327   2   -24    24
    0.074002569   2    21    21
    0.072555433   2   -15    15
    0.030966109   2   -4    4
    0.018679103   2    23    23
    0.002306249   2    22    22
    0.0011613302   2    22    23
    0.00025165006   2   -13    13
    0.00023776812   2   -3    3
    6.5740426e-07   2   -1    1
    1.5958863e-07   2   -2    2
    5.6574275e-09   2   -11    11

DECAY 35  40.910954
    0.79082595   2   -5    5
    0.20720371   2   -15    15
    0.0008616921   2   -6    6
    0.00071402616   2   -13    13
    0.0003592792   2   -3    3
    3.0043187e-05   2    21    21
    2.7295174e-06   2    25    25
    9.9325812e-07   2   -1    1
    9.1279428e-07   2    23    23
    5.8187948e-07   2   -24    24
    3.2106938e-08   2    22    22
    2.3981282e-08   2    22    23
    1.6039288e-08   2   -11    11
    9.6387022e-09   2   -4    4
    4.9683589e-14   2   -2    2

DECAY 36  39.035938
    0.79083238   2   -5    5
    0.20720954   2   -15    15
    0.0008464465   2   -6    6
    0.00071404414   2   -13    13
    0.00035928241   2   -3    3
    3.5987692e-05   2    21    21
    1.2690301e-06   2    23    25
    9.9326826e-07   2   -1    1
    2.3896158e-08   2    22    22
    1.6039637e-08   2   -11    11
    9.0109781e-09   2   -4    4
    4.9920709e-09   2    22    23
    4.6444061e-14   2   -2    2
    1.5828275e-37   2    25    25

DECAY 37  40.454037
    0.81075082   2   -5    6
    0.18702259   2   -15    16
    0.001209025   2   -5    4
    0.0006611925   2   -13    14
    0.00032852141   2   -3    4
    1.5289186e-05   2   -3    2
    8.6336923e-06   2   -5    2
    1.6701508e-06   2   -3    6
    1.2318664e-06   2    24    25
    9.1141649e-07   2   -1    2
    5.4714834e-08   2   -1    6
    4.2800248e-08   2   -1    4
    1.5465361e-08   2   -11    12
    3.8461455e-12   2    24    35
    2.6379392e-12   2    24    36

DECAY 6  2.43
    1   2    5    24

DECAY 15 -1
