BLOCK SPINFO
   1   SPheno
   2   v4.0.5be

BLOCK SPHENOINFO
   1   2
   2   2

BLOCK MODSEL
   1   0

BLOCK MINPAR
   3    30.369821
   4    1

BLOCK EXTPAR
   0    3892.1597
   1   -1443.4438
   2   -2057.1111
   3    4214.7413
   11   -2551.216
   12   -7545.9653
   13    1099.4954
   23    795.48824
   25    29.199485
   26    2413.2423
   31    2852.988
   32    2852.988
   33    4103.6938
   34    3375.5269
   35    3375.5269
   36    4865.5234
   41    2041.4036
   42    2041.4036
   43    4257.1629
   44    2064.5769
   45    2064.5769
   46    3369.3587
   47    1054.7572
   48    1054.7572
   49    856.467

BLOCK SMINPUTS
   1    127.90897
   2    1.1663787e-05
   3    0.1184
   4    91.1876
   5    4.18
   6    173.2
   7    1.777
   8    0
   11    0.00051099893
   12    0
   13    0.10565837
   14    0
   21    0.005
   22    0.0025
   23    0.095
   24    1.27

BLOCK GAUGE Q=  3892.1597
   1    0.35536298
   2    0.66519887
   3    1.219778

BLOCK YU Q=  3892.1597
   1   1    8.3892876e-06
   2   2    0.0042617581
   3   3    1.0134933

BLOCK YD Q=  3892.1597
   1   1    0.0004922441
   2   2    0.0093526379
   3   3    0.4881519

BLOCK YE Q=  3892.1597
   1   1    8.5900195e-05
   2   2    0.017761436
   3   3    0.29871813

BLOCK AU Q=  3892.1597
   1   1    0
   2   2    0
   3   3   -2551.216

BLOCK AD Q=  3892.1597
   1   1    0
   2   2    0
   3   3   -7545.9662

BLOCK AE Q=  3892.1597
   1   1    0
   2   2    0
   3   3    1099.4954

BLOCK MSOFT Q=  3892.1597
   1   -1443.4438
   2   -2057.1111
   3    4214.7413
   21    5275308.8
   22   -373308
   31    2852.988
   32    2852.988
   33    4103.6938
   34    3375.5269
   35    3375.5269
   36    4865.5234
   41    2041.4036
   42    2041.4036
   43    4257.1629
   44    2064.5769
   45    2064.5769
   46    3369.3587
   47    1054.7572
   48    1054.7572
   49    856.467

BLOCK MASS
   6    173.2
   23    91.1876
   24    80.429995
   15    1.777
   25    121.35655
   35    2413.1892
   36    2413.2423
   37    2414.7548
   1000001    2264.0664
   2000001    1324.4839
   1000002    2262.6348
   2000002    2255.6385
   1000003    2264.0643
   2000003    1324.4785
   1000004    2262.6327
   2000004    2255.6377
   1000005    1129.8811
   2000005    4362.7445
   1000006    3469.0633
   2000006    4366.8582
   1000011    2869.0995
   2000011    3384.4278
   1000012    2867.5901
   1000013    2869.0834
   2000013    3384.3993
   1000014    2867.5746
   1000015    4111.8528
   2000015    4866.1141
   1000016    4110.5392
   1000021    4274.0181
   1000022   -804.27765
   1000023    809.34401
   1000025   -1424.7848
   1000035   -2091.1728
   1000024    806.73754
   1000037    2091.3618

BLOCK ALPHA
      -0.033022771

BLOCK HMIX Q=  3892.1597
   1    795.48824
   2    29.199485
   3    242.99015
   4    5823738.6

BLOCK STOPMIX
   1   1    0.053604523
   1   2    0.99856224
   2   1   -0.99856224
   2   2    0.053604523

BLOCK SBOTMIX
   1   1    0.0035095604
   1   2    0.99999384
   2   1   -0.99999384
   2   2    0.0035095604

BLOCK STAUMIX
   1   1    0.99998373
   1   2    0.0057043434
   2   1   -0.0057043434
   2   2    0.99998373

BLOCK NMIX
   1   1   -0.048841128
   1   2    0.041224047
   1   3   -0.70734694
   1   4   -0.70397118
   2   1    0.014515657
   2   2   -0.019821506
   2   3   -0.70628357
   2   4    0.7075026
   3   1    0.99869678
   3   2    0.0052344153
   3   3   -0.024282266
   3   4   -0.044583795
   4   1    0.0029295491
   4   2   -0.99893958
   4   3   -0.015303431
   4   4   -0.043323619

BLOCK UMIX
   1   1   -0.021624929
   1   2    0.99976615
   2   1   -0.99976615
   2   2   -0.021624929

BLOCK VMIX
   1   1    0.061214552
   1   2    0.99812463
   2   1    0.99812463
   2   2   -0.061214552

BLOCK HIGGSBOUNDSINPUTHIGGSCOUPLINGSFERMIONS
       0, 852.60991,3,36,15,15

BLOCK HIGGSBOUNDSINPUTHIGGSCOUPLINGSBOSONS
       0,4,36,21,21,23

BLOCK SPHENOLOWENERGY
   1    0.00032518681
   2    1.589431e-06
   3    3.5248454e-05
   4    2.6232544e-15
   5    1.1206228e-10
   6    2.344886e-08
   7    8.801168e-14
   8    3.759851e-09
   9    7.9718219e-07
   10    9.5922975e-05
   11    0.99084761
   12    0.54193636
   13    19.358831
   14    0
   15    0
   16    0.0021571762
   17    2.2816579e-15
   18    2.4798092e-11
   19    8.2894879e-11
   20   -1.4427834e-15
   21   -6.1683442e-11
   22   -1.2165608e-08
   23    0
   24    0
   25    0
   26    0
   27    0
   28    0
   29    0
   30    0
   31    0
   39    6.2506798e-05
   40    0
   41    0
   42    0

BLOCK FWCOEF Q=  160
   305   4422   0   0   -0.18881911
   305   4422   0   2   -0.19290431
   305   4322   0   2   -2.0068501e-05
   305   6421   0   0   -0.095227835
   305   6421   0   2   -0.10523397
   305   6321   0   2   -0.00016472989
   3051111   4133   0   0    1.6257019
   3051111   4133   0   2    1.6258995
   3051111   4233   0   2    8.1554065e-05
   3051111   4137   0   0   -4.448394
   3051111   4137   0   2   -4.4463296
   3051111   4237   0   2   -0.00060420329
   3051313   4133   0   0    1.6257019
   3051313   4133   0   2    1.6258991
   3051313   4233   0   2    8.1553786e-05
   3051313   4137   0   0   -4.448394
   3051313   4137   0   2   -4.44633
   3051313   4237   0   2   -0.00060420327
   3051212   4137   0   0    1.5053501
   3051212   4137   0   2    1.5049052
   3051212   4237   0   2    0.00013068047
   3051414   4137   0   0    1.5053501
   3051414   4137   0   2    1.5049052
   3051414   4237   0   2    0.00013068051
   3051616   4137   0   0    1.5053501
   3051616   4137   0   2    1.5049053
   3051616   4237   0   2    0.00013069369

BLOCK IMFWCOEF Q=  160
   305   4422   0   0    3.8583224e-07
   305   4422   0   2   -2.1843793e-06
   305   4322   0   2    2.9729109e-06
   305   6421   0   0    3.3049083e-07
   305   6421   0   2   -6.1623477e-06
   305   6321   0   2    1.3363135e-06
   3051111   4133   0   2   -9.9005044e-07
   3051111   4233   0   2    2.0525213e-06
   3051111   4137   0   2    7.8229889e-06
   3051111   4237   0   2   -1.521009e-05
   3051313   4133   0   2   -9.9004841e-07
   3051313   4233   0   2    2.0525202e-06
   3051313   4137   0   2    7.8229943e-06
   3051313   4237   0   2   -1.5210094e-05
   3051212   4137   0   2   -1.662424e-06
   3051212   4237   0   2    3.2897235e-06
   3051414   4137   0   2   -1.6624241e-06
   3051414   4237   0   2    3.2897235e-06
   3051616   4137   0   2   -1.6616907e-06
   3051616   4237   0   2    3.2897235e-06

DECAY 23  2.4952


DECAY 24  2.085


DECAY 1000011  10.400009
    0.53317519   2   -1000037    12
    0.26542239   2    1000035    11
    0.20005334   2    1000025    11
    0.00096319507   2   -1000024    12
    0.00023608006   2    1000022    11
    0.00014980841   2    1000023    11

DECAY 2000011  11.521365
    0.99658415   2    1000025    11
    0.0031345011   2    1000022    11
    0.00027646524   2    1000023    11

DECAY 1000013  10.414989
    0.53239176   2   -1000037    14
    0.26503251   2    1000035    13
    0.19976356   2    1000025    13
    0.00097012976   2    1000022    13
    0.00096180246   2   -1000024    14
    0.0008802324   2    1000023    13

DECAY 2000013  11.559125
    0.9933139   2    1000025    13
    0.003942654   2    1000022    13
    0.0016339131   2   -1000024    14
    0.0010903562   2    1000023    13

DECAY 1000015  40.615607
    0.4894514   2   -1000037    16
    0.24361257   2    1000035    15
    0.1002048   2    1000025    15
    0.083407747   2    1000022    15
    0.082841532   2    1000023    15
    0.00048194328   2   -1000024    16

DECAY 2000015  36.898877
    0.55259568   2    1000025    15
    0.22118663   2   -1000024    16
    0.11212576   2    1000022    15
    0.11062198   2    1000023    15
    0.0015970486   2    1000016   -24
    0.00080332417   2    1000015    25
    0.00079070568   2    1000015    23
    0.00018333626   2   -1000037    16

DECAY 1000012  10.415357
    0.52909795   2    1000037    11
    0.26592124   2    1000035    12
    0.19183744   2    1000025    12
    0.007701382   2    1000024    11
    0.0046614202   2    1000022    12
    0.00078056449   2    1000023    12

DECAY 1000014  10.43034
    0.52832223   2    1000037    13
    0.26553132   2    1000035    14
    0.19155949   2    1000025    14
    0.0091528269   2    1000024    13
    0.0046546907   2    1000022    14
    0.00077943761   2    1000023    14

DECAY 1000016  40.618789
    0.48754394   2    1000037    15
    0.2449466   2    1000035    16
    0.16909238   2    1000024    15
    0.096237277   2    1000025    16
    0.0018668323   2    1000022    16
    0.00031296554   2    1000023    16

DECAY 2000001  0.00076912099
    0.91554938   2    1000022    1
    0.081167816   2    1000023    1
    0.0032828008   2   -1000024    2

DECAY 1000001  0.78196899
    0.54858304   2   -1000037    2
    0.27470056   2    1000035    1
    0.13850359   2    1000025    1
    0.024255034   2    1000022    1
    0.0090845819   2   -1000024    2
    0.004872636   2    1000023    1

DECAY 2000003  0.002586217
    0.44932404   2    1000022    3
    0.35243017   2   -1000024    4
    0.19824579   2    1000023    3

DECAY 1000003  0.78571083
    0.545942   2   -1000037    4
    0.27338617   2    1000035    3
    0.13784474   2    1000025    3
    0.02604874   2    1000022    3
    0.0098291898   2   -1000024    4
    0.0067476006   2    1000023    3
    0.0002015516   2    2000003    25

DECAY 1000005  2.3084944
    0.44301965   2   -1000024    6
    0.28265102   2    1000022    5
    0.27432934   2    1000023    5

DECAY 2000005  180.37251
    0.45765342   2   -1000024    6
    0.12784554   2   -1000037    6
    0.094878733   2    1000005    35
    0.094847793   2    1000005    36
    0.063118029   2    1000035    5
    0.053748373   2    1000022    5
    0.053394849   2    1000023    5
    0.044206095   2    1000006   -24
    0.003089907   2    1000021    5
    0.0030595359   2    1000005    25
    0.0025938827   2    1000025    5
    0.0015638369   2    1000005    23

DECAY 2000002  1.8247475
    0.99454092   2    1000025    2
    0.0050170909   2    1000022    2
    0.0004415239   2    1000023    2

DECAY 1000002  0.82084565
    0.51292234   2    1000037    1
    0.2571561   2    1000035    2
    0.14809429   2    1000025    2
    0.069288667   2    1000024    1
    0.0097973765   2    1000022    2
    0.0027412319   2    1000023    2

DECAY 2000004  1.8259766
    0.993867   2    1000025    4
    0.0051831765   2    1000022    4
    0.0006111082   2    1000023    4
    0.00033819545   2    1000024    3

DECAY 1000004  0.82443787
    0.51067535   2    1000037    3
    0.25601909   2    1000035    4
    0.14744978   2    1000025    4
    0.072616277   2    1000024    3
    0.010131701   2    1000022    4
    0.0031078051   2    1000023    4

DECAY 1000006  131.07324
    0.47895708   2    1000024    5
    0.23969308   2    1000023    6
    0.2372847   2    1000022    6
    0.041021408   2    1000025    6
    0.00202997   2    1000037    5
    0.00099716653   2    1000035    6

DECAY 2000006  181.72512
    0.22935318   2    1000023    6
    0.22805081   2    1000022    6
    0.18822375   2    1000005    37
    0.12357574   2    1000037    5
    0.10995122   2    1000024    5
    0.061460656   2    1000035    6
    0.030895896   2    1000006    25
    0.022076294   2    1000006    23
    0.0033057998   2    1000025    6
    0.0031066552   2    1000005    24

DECAY 1000024  2.4697012e-10
    0.51434285   3    1000022   -1    2
    0.17145193   3    1000022   -11    12
    0.16988691   3    1000022   -13    14
    0.13537546   3    1000022   -3    4
    0.0089428479   3    1000022   -15    16

DECAY 1000037  16.840886
    0.25176613   2    1000024    25
    0.23889845   2    1000023    24
    0.2384338   2    1000024    23
    0.23803358   2    1000022    24
    0.011696207   3    1000024    6   -6
    0.0099957671   3    1000022   -5    6
    0.0089016343   3    1000023   -5    6
    0.0019994494   2    1000025    24
    0.00012620068   2   -1000005    6

DECAY 1000022 -1


DECAY 1000023  4.0954647e-08
    0.78520765   2    1000022    22
    0.057009526   3    1000022    12   -12
    0.042630456   3    1000022    1   -1
    0.042456277   3    1000022    3   -3
    0.0332481   3    1000022    2   -2
    0.013693681   3    1000022    4   -4
    0.009620509   3    1000022    11   -11
    0.0095587092   3    1000022    13   -13
    0.001377713   3    1000024    1   -2
    0.001377713   3   -1000024   -1    2
    0.0010674439   3    1000022    15   -15
    0.0004592379   3    1000024    11   -12
    0.0004592379   3   -1000024   -11    12
    0.00045549869   3    1000024    13   -14
    0.00045549869   3   -1000024   -13    14
    0.00042487157   3    1000024    3   -4
    0.00042487157   3   -1000024   -3    4

DECAY 1000025  4.3128448
    0.19093133   2    1000024   -24
    0.19093133   2   -1000024    24
    0.17487372   2    1000023    25
    0.17310227   2    1000023    23
    0.15037777   2    1000022    25
    0.038080994   2    1000005   -5
    0.038080994   2   -1000005    5
    0.014998087   2    1000022    23
    0.0050920995   2    2000003   -3
    0.0050920995   2   -2000003    3
    0.0050915824   2    2000001   -1
    0.0050915824   2   -2000001    1
    0.0034211643   3    1000024    5   -6
    0.0034211643   3   -1000024   -5    6
    0.0007429049   3    1000023    6   -6
    0.00065790425   3    1000022    6   -6

DECAY 1000035  20.14486
    0.20076673   2    1000024   -24
    0.20076673   2   -1000024    24
    0.19751392   2    1000023    25
    0.17018251   2    1000022    25
    0.16413774   2    1000023    23
    0.037201027   2    1000022    23
    0.0091138179   3    1000024    5   -6
    0.0091138179   3   -1000024   -5    6
    0.0049913593   3    1000023    6   -6
    0.0044213185   3    1000022    6   -6
    0.0014968371   2    1000025    25

DECAY 1000021  724.77176
    0.075502669   2    1000005   -5
    0.075502669   2   -1000005    5
    0.071318578   2    2000003   -3
    0.071318578   2   -2000003    3
    0.071318456   2    2000001   -1
    0.071318456   2   -2000001    1
    0.045429499   2    2000004   -4
    0.045429499   2   -2000004    4
    0.04542948   2    2000002   -2
    0.04542948   2   -2000002    2
    0.045211872   2    1000004   -4
    0.045211872   2   -1000004    4
    0.045211811   2    1000002   -2
    0.045211811   2   -1000002    2
    0.045167319   2    1000003   -3
    0.045167319   2   -1000003    3
    0.045167253   2    1000001   -1
    0.045167253   2   -1000001    1
    0.0097156699   2    1000006   -6
    0.0097156699   2   -1000006    6
    0.00020055191   3    1000024    5   -6
    0.00020055191   3   -1000024   -5    6
    0.00015148275   3    1000023    6   -6
    0.0001511164   3    1000022    6   -6

DECAY 25  0.0034650203
    0.62745766   2   -5    5
    0.17183818   2   -24    24
    0.074574403   2    21    21
    0.071846451   2   -15    15
    0.030956792   2   -4    4
    0.019328356   2    23    23
    0.0023221758   2    22    22
    0.0011904786   2    22    23
    0.00024917242   2   -13    13
    0.0002355226   2   -3    3
    6.5119622e-07   2   -1    1
    1.5953976e-07   2   -2    2
    5.6017227e-09   2   -11    11

DECAY 35  26.132649
    0.80687099   2   -5    5
    0.16647759   2   -15    15
    0.016366711   2    1000023    1000025
    0.0041111203   2   -6    6
    0.0028495131   2    1000022    1000025
    0.0013476122   2   -1000024    1000024
    0.00078427295   2    1000022    1000022
    0.00056660959   2   -13    13
    0.00025866353   2   -3    3
    0.00018361754   2    1000022    1000023
    0.00011748515   2    1000023    1000023
    4.3232475e-05   2   -1000005    1000005
    1.3655099e-05   2    21    21
    6.0750056e-06   2    25    25
    1.3983168e-06   2    23    23
    7.1509433e-07   2   -1    1
    5.6775988e-07   2   -24    24
    4.8447565e-08   2   -1000001    1000001
    4.8330927e-08   2   -1000003    1000003
    4.2463539e-08   2   -4    4
    1.5338697e-08   2    22    23
    1.2726523e-08   2   -11    11
    6.2665156e-09   2    22    22
    2.1882182e-13   2   -2    2

DECAY 36  25.3203
    0.80522601   2   -5    5
    0.16613971   2   -15    15
    0.016996591   2    1000022    1000025
    0.0039620461   2   -6    6
    0.0028375496   2    1000023    1000025
    0.0023417381   2   -1000024    1000024
    0.0012467243   2    1000022    1000022
    0.00056545926   2   -13    13
    0.00025814212   2   -3    3
    0.0002455959   2    1000023    1000023
    0.00014818345   2    1000022    1000023
    2.9279172e-05   2    21    21
    2.0698896e-06   2    23    25
    7.1365334e-07   2   -1    1
    8.0406776e-08   2    22    23
    5.7680682e-08   2    22    22
    3.9614435e-08   2   -4    4
    1.2700744e-08   2   -11    11
    2.0417422e-13   2   -2    2
    1.3452019e-41   2    25    25

DECAY 37  26.231705
    0.80780998   2   -5    6
    0.16979544   2   -15    16
    0.020055293   2    1000024    1000025
    0.0011935678   2   -5    4
    0.00060028772   2   -13    14
    0.00027872776   2    1000023    1000024
    0.00023524486   2   -3    4
    1.0988219e-05   2   -3    2
    8.5233073e-06   2   -5    2
    6.0593687e-06   2   -3    6
    2.9265638e-06   2    1000022    1000024
    2.0036882e-06   2    24    25
    6.5255142e-07   2   -1    2
    2.620374e-07   2   -1    6
    3.2801604e-08   2   -1    4
    1.4040792e-08   2   -11    12
    4.8812218e-13   2    24    35
    4.1065859e-13   2    24    36

DECAY 6  2.43
    1   2    5    24

DECAY 15 -1
