#
#                              ======================
#                              | THE SUSYHIT OUTPUT |
#                              ======================
#
#
#              ------------------------------------------------------
#              |     This is the output of the SUSY-HIT package     |
#              |  created by A.Djouadi, M.Muehlleitner and M.Spira. |
#              |  In case of problems with SUSY-HIT email to        |
#              |           margarete.muehlleitner@cern.ch           |
#              |           michael.spira@psi.ch                     |
#              |           abdelhak.djouadi@cern.ch                 |
#              ------------------------------------------------------
#
#              ------------------------------------------------------
#              |  SUSY Les Houches Accord - MSSM Spectrum + Decays  |
#              |              based on the decay programs           |
#              |                                                    |
#              |                     SDECAY 1.3b                    |
#              |                                                    |
#              |  Authors: M.Muhlleitner, A.Djouadi and Y.Mambrini  |
#              |  Ref.:    Comput.Phys.Commun.168(2005)46           |
#              |           [hep-ph/0311167]                         |
#              |                                                    |
#              |                     HDECAY 3.4                     |
#              |                                                    |
#              |  By: A.Djouadi,J.Kalinowski,M.Muhlleitner,M.Spira  |
#              |  Ref.:    Comput.Phys.Commun.108(1998)56           |
#              |           [hep-ph/9704448]                         |
#              |                                                    |
#              |                                                    |
#              |  If not stated otherwise all DRbar couplings and   |
#              |  soft SUSY breaking masses are given at the scale  |
#              |  Q=  0.35867960E+04
#              |                                                    |
#              ------------------------------------------------------
#
#
BLOCK DCINFO  # Decay Program information
     1   SDECAY/HDECAY # decay calculator
     2   1.3b  /3.4    # version number
#
BLOCK SPINFO  # Spectrum calculator information
     1     SOFTSUSY    # spectrum calculator               
     2     3.4.0       # version number                    
#
BLOCK MODSEL  # Model selection
     1     0   #  nonUniversal                                     
#
BLOCK SMINPUTS  # Standard Model inputs
         1     1.27908970E+02   # alpha_em^-1(M_Z)^MSbar
         2     1.16637870E-05   # G_F [GeV^-2]
         3     1.18400000E-01   # alpha_S(M_Z)^MSbar
         4     9.11876000E+01   # M_Z pole mass
         5     4.18000000E+00   # mb(mb)^MSbar
         6     1.73200000E+02   # mt pole mass
         7     1.77700000E+00   # mtau pole mass
#
BLOCK MINPAR  # Input parameters - minimal models
         3     7.90000000E+00   # tanb                
#
BLOCK EXTPAR  # Input parameters - non-minimal models
         0    -1.00000000E+00   # Set                 
         1     2.15560000E+02   # M_1(MX)             
         2    -2.08637000E+03   # M_2(MX)             
         3     1.48053000E+03   # M_3(MX)             
        11     4.58552000E+03   # At(MX)              
        12     6.46640000E+02   # Ab(MX)              
        13    -3.71520000E+02   # Atau(MX)            
        23    -2.36050000E+02   # mu(MX)              
        26     3.40121000E+03   # mA(pole)            
        31     8.87180000E+02   # meL(MX)             
        32     8.87180000E+02   # mmuL(MX)            
        33     2.25113000E+03   # mtauL(MX)           
        34     3.35498000E+03   # meR(MX)             
        35     3.35498000E+03   # mmuR(MX)            
        36     2.68517000E+03   # mtauR(MX)           
        41     3.65621000E+03   # mqL1(MX)            
        42     3.65621000E+03   # mqL2(MX)            
        43     3.52351000E+03   # mqL3(MX)            
        44     3.84227000E+03   # muR(MX)             
        45     3.84227000E+03   # mcR(MX)             
        46     3.65078000E+03   # mtR(MX)             
        47     1.02455000E+03   # mdR(MX)             
        48     1.02455000E+03   # msR(MX)             
        49     1.36565000E+03   # mbR(MX)             
#
BLOCK MASS  # Mass Spectrum
# PDG code           mass       particle
        24     8.04012479E+01   # W+
        25     1.25286641E+02   # h
        35     3.40132949E+03   # H
        36     3.40120997E+03   # A
        37     3.40247293E+03   # H+
         5     4.81876030E+00   # b-quark pole mass calculated from mb(mb)_Msbar
   1000001     3.71385060E+03   # ~d_L
   2000001     1.15033703E+03   # ~d_R
   1000002     3.71316674E+03   # ~u_L
   2000002     3.88668183E+03   # ~u_R
   1000003     3.71385060E+03   # ~s_L
   2000003     1.15033703E+03   # ~s_R
   1000004     3.71316674E+03   # ~c_L
   2000004     3.88668183E+03   # ~c_R
   1000005     1.46719115E+03   # ~b_1
   2000005     3.53469211E+03   # ~b_2
   1000006     3.47359175E+03   # ~t_1
   2000006     3.65732137E+03   # ~t_2
   1000011     9.29582950E+02   # ~e_L
   2000011     3.36007744E+03   # ~e_R
   1000012     9.26043521E+02   # ~nu_eL
   1000013     9.29582950E+02   # ~mu_L
   2000013     3.36007744E+03   # ~mu_R
   1000014     9.26043521E+02   # ~nu_muL
   1000015     2.27226163E+03   # ~tau_1
   2000015     2.68972493E+03   # ~tau_2
   1000016     2.27061355E+03   # ~nu_tauL
   1000021     1.70403289E+03   # ~g
   1000022     2.00568255E+02   # ~chi_10
   1000023    -2.47193299E+02   # ~chi_20
   1000025     2.62909357E+02   # ~chi_30
   1000035    -2.12601528E+03   # ~chi_40
   1000024     2.45870645E+02   # ~chi_1+
   1000037     2.12618218E+03   # ~chi_2+
#
BLOCK NMIX  # Neutralino Mixing Matrix
  1  1     8.66468021E-01   # N_11
  1  2     8.47324566E-03   # N_12
  1  3    -3.96676250E-01   # N_13
  1  4    -3.03000538E-01   # N_14
  2  1    -7.54350686E-02   # N_21
  2  2    -3.31857108E-02   # N_22
  2  3    -7.04172253E-01   # N_23
  2  4     7.05230244E-01   # N_24
  3  1     4.93499905E-01   # N_31
  3  2    -1.84305328E-02   # N_32
  3  3     5.88816990E-01   # N_33
  3  4     6.39853664E-01   # N_34
  4  1    -7.50264292E-04   # N_41
  4  2     9.99243328E-01   # N_42
  4  3    -9.16204326E-03   # N_43
  4  4     3.77924053E-02   # N_44
#
BLOCK UMIX  # Chargino Mixing Matrix U
  1  1     1.29502472E-02   # U_11
  1  2     9.99916142E-01   # U_12
  2  1    -9.99916142E-01   # U_21
  2  2     1.29502472E-02   # U_22
#
BLOCK VMIX  # Chargino Mixing Matrix V
  1  1    -5.34478274E-02   # V_11
  1  2    -9.98570643E-01   # V_12
  2  1     9.98570643E-01   # V_21
  2  2    -5.34478274E-02   # V_22
#
BLOCK STOPMIX  # Stop Mixing Matrix
  1  1     8.12314415E-01   # cos(theta_t)
  1  2    -5.83219762E-01   # sin(theta_t)
  2  1     5.83219762E-01   # -sin(theta_t)
  2  2     8.12314415E-01   # cos(theta_t)
#
BLOCK SBOTMIX  # Sbottom Mixing Matrix
  1  1    -5.08536730E-04   # cos(theta_b)
  1  2     9.99999871E-01   # sin(theta_b)
  2  1    -9.99999871E-01   # -sin(theta_b)
  2  2    -5.08536730E-04   # cos(theta_b)
#
BLOCK STAUMIX  # Stau Mixing Matrix
  1  1     9.99999193E-01   # cos(theta_tau)
  1  2    -1.27043274E-03   # sin(theta_tau)
  2  1     1.27043274E-03   # -sin(theta_tau)
  2  2     9.99999193E-01   # cos(theta_tau)
#
BLOCK ALPHA  # Higgs mixing
          -1.32918910E-01   # Mixing angle in the neutral Higgs boson sector
#
BLOCK HMIX Q=  3.58679600E+03  # DRbar Higgs Parameters
         1    -2.40009551E+02   # mu(Q)MSSM           
         2     7.49427998E+00   # tan                 
         3     2.41719891E+02   # higgs               
         4     1.15689727E+07   # mA^2(Q)MSSM         
#
BLOCK GAUGE Q=  3.58679600E+03  # The gauge couplings
     1     3.65826340E-01   # gprime(Q) DRbar
     2     6.38689579E-01   # g(Q) DRbar
     3     1.01704694E+00   # g3(Q) DRbar
#
BLOCK AU Q=  3.58679600E+03  # The trilinear couplings
  1  1     0.00000000E+00   # A_u(Q) DRbar
  2  2     0.00000000E+00   # A_c(Q) DRbar
  3  3     4.58552001E+03   # A_t(Q) DRbar
#
BLOCK AD Q=  3.58679600E+03  # The trilinear couplings
  1  1     0.00000000E+00   # A_d(Q) DRbar
  2  2     0.00000000E+00   # A_s(Q) DRbar
  3  3     6.46640003E+02   # A_b(Q) DRbar
#
BLOCK AE Q=  3.58679600E+03  # The trilinear couplings
  1  1     0.00000000E+00   # A_e(Q) DRbar
  2  2     0.00000000E+00   # A_mu(Q) DRbar
  3  3    -3.71520000E+02   # A_tau(Q) DRbar
#
BLOCK Yu Q=  3.58679600E+03  # The Yukawa couplings
  1  1     0.00000000E+00   # y_u(Q) DRbar
  2  2     0.00000000E+00   # y_c(Q) DRbar
  3  3     8.38255255E-01   # y_t(Q) DRbar
#
BLOCK Yd Q=  3.58679600E+03  # The Yukawa couplings
  1  1     0.00000000E+00   # y_d(Q) DRbar
  2  2     0.00000000E+00   # y_s(Q) DRbar
  3  3     1.02173024E-01   # y_b(Q) DRbar
#
BLOCK Ye Q=  3.58679600E+03  # The Yukawa couplings
  1  1     0.00000000E+00   # y_e(Q) DRbar
  2  2     0.00000000E+00   # y_mu(Q) DRbar
  3  3     7.75801256E-02   # y_tau(Q) DRbar
#
BLOCK MSOFT Q=  3.58679600E+03  # The soft SUSY breaking masses at the scale Q
         1     2.15560000E+02   # M_1(Q)              
         2    -2.08637000E+03   # M_2(Q)              
         3     1.48053000E+03   # M_3(Q)              
        21     1.12413909E+07   # mH1^2(Q)            
        22     3.88341424E+05   # mH2^2(Q)            
        31     8.87180000E+02   # meL(Q)              
        32     8.87180000E+02   # mmuL(Q)             
        33     2.25113000E+03   # mtauL(Q)            
        34     3.35498000E+03   # meR(Q)              
        35     3.35498000E+03   # mmuR(Q)             
        36     2.68517000E+03   # mtauR(Q)            
        41     3.65621000E+03   # mqL1(Q)             
        42     3.65621000E+03   # mqL2(Q)             
        43     3.52351000E+03   # mqL3(Q)             
        44     3.84227000E+03   # muR(Q)              
        45     3.84227000E+03   # mcR(Q)              
        46     3.65078000E+03   # mtR(Q)              
        47     1.02454999E+03   # mdR(Q)              
        48     1.02454999E+03   # msR(Q)              
        49     1.36564999E+03   # mbR(Q)              
#
Block HiggsBoundsInputHiggsCouplingsFermions
# ScalarNormEffCoupSq PseudoSNormEffCoupSq NP   IP1 IP2 IP2
    1.00401173E+00    0.00000000E+00        3  25   5   5  # h0-b-b eff. coupling^2, normalised to SM
    5.61602207E+01    0.00000000E+00        3  35   5   5  # H0-b-b eff. coupling^2, normalised to SM
    0.00000000E+00    5.61642324E+01        3  36   5   5  # A0-b-b eff. coupling^2, normalised to SM
#
    9.99928571E-01    0.00000000E+00        3  25   6   6  # h0-t-t eff. coupling^2, normalised to SM
    1.78763545E-02    0.00000000E+00        3  35   6   6  # H0-t-t eff. coupling^2, normalised to SM
    0.00000000E+00    1.78049260E-02        3  36   6   6  # A0-t-t eff. coupling^2, normalised to SM
#
    1.00401173E+00    0.00000000E+00        3  25  15  15  # h0-tau-tau eff. coupling^2, normalised to SM
    5.61602207E+01    0.00000000E+00        3  35  15  15  # H0-tau-tau eff. coupling^2, normalised to SM
    0.00000000E+00    5.61642324E+01        3  36  15  15  # A0-tau-tau eff. coupling^2, normalised to SM
#
Block HiggsBoundsInputHiggsCouplingsBosons
    9.99999929E-01        3  25  24  24  # h0-W-W eff. coupling^2, normalised to SM
    7.14972846E-08        3  35  24  24  # H0-W-W eff. coupling^2, normalised to SM
    0.00000000E+00        3  36  24  24  # A0-W-W eff. coupling^2, normalised to SM
#
    9.99999929E-01        3  25  23  23  # h0-Z-Z eff. coupling^2, normalised to SM
    7.14972846E-08        3  35  23  23  # H0-Z-Z eff. coupling^2, normalised to SM
    0.00000000E+00        3  36  23  23  # A0-Z-Z eff. coupling^2, normalised to SM
#
    8.89380299E-01        3  25  21  21  # h0-g-g eff. coupling^2, normalised to SM
    4.49414102E-13        3  35  21  21  # H0-g-g eff. coupling^2, normalised to SM
    1.77930503E-12        3  36  21  21  # A0-g-g eff. coupling^2, normalised to SM
#
    0.00000000E+00        3  25  25  23  # h0-h0-Z eff. coupling^2, normalised to SM
    0.00000000E+00        3  35  25  23  # H0-h0-Z eff. coupling^2, normalised to SM
    7.14972846E-08        3  36  25  23  # A0-h0-Z eff. coupling^2, normalised to SM
    0.00000000E+00        3  35  35  23  # H0-H0-Z eff. coupling^2, normalised to SM
    9.99999929E-01        3  36  35  23  # A0-H0-Z eff. coupling^2, normalised to SM
    0.00000000E+00        3  36  36  23  # A0-A0-Z eff. coupling^2, normalised to SM
#
    0.00000000E+00        4  25  21  21  23  # h0-g-g-Z eff. coupling^2, normalised to SM
    0.00000000E+00        4  35  21  21  23  # H0-g-g-Z eff. coupling^2, normalised to SM
    0.00000000E+00        4  36  21  21  23  # A0-g-g-Z eff. coupling^2, normalised to SM
#
#
#
#                             =================
#                             |The decay table|
#                             =================
#
# - The QCD corrections to the decays gluino -> squark  + quark
#                                     squark -> gaugino + quark_prime
#                                     squark -> squark_prime + Higgs
#                                     squark -> gluino  + quark
#   are included.
#
# - The multi-body decays for the inos, stops and sbottoms are included.
#
# - The loop induced decays for the gluino, neutralinos and stops
#   are included.
#
# - The SUSY decays of the top quark are included.
#
#
#         PDG            Width
DECAY         6     1.43614326E+00   # top decays
#          BR         NDA      ID1       ID2
     1.00000000E+00    2           5        24   # BR(t ->  b    W+)
#
#         PDG            Width
DECAY   1000021     2.06536799E+01   # gluino decays
#          BR         NDA      ID1       ID2
     2.18337425E-01    2     2000001        -1   # BR(~g -> ~d_R  db)
     2.18337425E-01    2    -2000001         1   # BR(~g -> ~d_R* d )
     2.18337425E-01    2     2000003        -3   # BR(~g -> ~s_R  sb)
     2.18337425E-01    2    -2000003         3   # BR(~g -> ~s_R* s )
     6.33251498E-02    2     1000005        -5   # BR(~g -> ~b_1  bb)
     6.33251498E-02    2    -1000005         5   # BR(~g -> ~b_1* b )
#
#         PDG            Width
DECAY   1000006     1.82569579E+02   # stop1 decays
#          BR         NDA      ID1       ID2
     1.72163937E-02    2     1000022         6   # BR(~t_1 -> ~chi_10 t )
     1.28643070E-01    2     1000023         6   # BR(~t_1 -> ~chi_20 t )
     1.37656742E-01    2     1000025         6   # BR(~t_1 -> ~chi_30 t )
     1.80567696E-02    2     1000035         6   # BR(~t_1 -> ~chi_40 t )
     1.02316324E-01    2     1000024         5   # BR(~t_1 -> ~chi_1+ b )
     3.58213630E-02    2     1000037         5   # BR(~t_1 -> ~chi_2+ b )
     5.60275739E-01    2     1000021         6   # BR(~t_1 -> ~g      t )
     1.35988841E-05    2     1000005        24   # BR(~t_1 -> ~b_1    W+)
#
#         PDG            Width
DECAY   2000006     2.27352922E+02   # stop2 decays
#          BR         NDA      ID1       ID2
     5.63387027E-02    2     1000022         6   # BR(~t_2 -> ~chi_10 t )
     1.12009281E-01    2     1000023         6   # BR(~t_2 -> ~chi_20 t )
     7.47258025E-02    2     1000025         6   # BR(~t_2 -> ~chi_30 t )
     1.17620582E-02    2     1000035         6   # BR(~t_2 -> ~chi_40 t )
     1.39296995E-01    2     1000024         5   # BR(~t_2 -> ~chi_1+ b )
     2.33902932E-02    2     1000037         5   # BR(~t_2 -> ~chi_2+ b )
     5.65907830E-01    2     1000021         6   # BR(~t_2 -> ~g      t )
     1.27414227E-03    2     1000006        25   # BR(~t_2 -> ~t_1    h )
     9.61973904E-03    2     1000006        23   # BR(~t_2 -> ~t_1    Z )
     7.00167615E-06    2     1000005        24   # BR(~t_2 -> ~b_1    W+)
     5.66815395E-03    2     2000005        24   # BR(~t_2 -> ~b_2    W+)
#
#         PDG            Width
DECAY   1000005     1.39739471E+00   # sbottom1 decays
#          BR         NDA      ID1       ID2
     4.82548530E-01    2     1000022         5   # BR(~b_1 -> ~chi_10 b )
     1.05444255E-01    2     1000023         5   # BR(~b_1 -> ~chi_20 b )
     2.12143088E-01    2     1000025         5   # BR(~b_1 -> ~chi_30 b )
     1.99864128E-01    2    -1000024         6   # BR(~b_1 -> ~chi_1- t )
#
#         PDG            Width
DECAY   2000005     1.81695375E+02   # sbottom2 decays
#          BR         NDA      ID1       ID2
     2.56069457E-03    2     1000022         5   # BR(~b_2 -> ~chi_10 b )
     2.01146278E-03    2     1000023         5   # BR(~b_2 -> ~chi_20 b )
     2.37873940E-03    2     1000025         5   # BR(~b_2 -> ~chi_30 b )
     3.21155733E-02    2     1000035         5   # BR(~b_2 -> ~chi_40 b )
     2.67245228E-01    2    -1000024         6   # BR(~b_2 -> ~chi_1- t )
     6.46688812E-02    2    -1000037         6   # BR(~b_2 -> ~chi_2- t )
     6.28993939E-01    2     1000021         5   # BR(~b_2 -> ~g      b )
     1.39703839E-05    2     1000005        25   # BR(~b_2 -> ~b_1    h )
     1.15106232E-05    2     1000005        23   # BR(~b_2 -> ~b_1    Z )
#
#         PDG            Width
DECAY   1000002     1.85386735E+02   # sup_L decays
#          BR         NDA      ID1       ID2
     2.35981331E-03    2     1000022         2   # BR(~u_L -> ~chi_10 u)
     1.76201315E-04    2     1000023         2   # BR(~u_L -> ~chi_20 u)
     4.46441335E-04    2     1000025         2   # BR(~u_L -> ~chi_30 u)
     3.56101258E-02    2     1000035         2   # BR(~u_L -> ~chi_40 u)
     4.44570025E-04    2     1000024         1   # BR(~u_L -> ~chi_1+ d)
     7.11339768E-02    2     1000037         1   # BR(~u_L -> ~chi_2+ d)
     8.89828871E-01    2     1000021         2   # BR(~u_L -> ~g      u)
#
#         PDG            Width
DECAY   2000002     1.89641179E+02   # sup_R decays
#          BR         NDA      ID1       ID2
     3.50028020E-02    2     1000022         2   # BR(~u_R -> ~chi_10 u)
     2.64609353E-04    2     1000023         2   # BR(~u_R -> ~chi_20 u)
     1.13133478E-02    2     1000025         2   # BR(~u_R -> ~chi_30 u)
     1.30212115E-08    2     1000035         2   # BR(~u_R -> ~chi_40 u)
     9.53419228E-01    2     1000021         2   # BR(~u_R -> ~g      u)
#
#         PDG            Width
DECAY   1000001     1.85413547E+02   # sdown_L decays
#          BR         NDA      ID1       ID2
     1.92239250E-03    2     1000022         1   # BR(~d_L -> ~chi_10 d)
     2.74518336E-05    2     1000023         1   # BR(~d_L -> ~chi_20 d)
     9.86340261E-04    2     1000025         1   # BR(~d_L -> ~chi_30 d)
     3.56446915E-02    2     1000035         1   # BR(~d_L -> ~chi_40 d)
     2.61009284E-05    2    -1000024         2   # BR(~d_L -> ~chi_1- u)
     7.13541140E-02    2    -1000037         2   # BR(~d_L -> ~chi_2- u)
     8.90038909E-01    2     1000021         1   # BR(~d_L -> ~g      d)
#
#         PDG            Width
DECAY   2000001     6.31649178E-01   # sdown_R decays
#          BR         NDA      ID1       ID2
     7.59029228E-01    2     1000022         1   # BR(~d_R -> ~chi_10 d)
     5.56993655E-03    2     1000023         1   # BR(~d_R -> ~chi_20 d)
     2.35400835E-01    2     1000025         1   # BR(~d_R -> ~chi_30 d)
#
#         PDG            Width
DECAY   1000004     1.48001058E+02   # scharm_L decays
#          BR         NDA      ID1       ID2
     3.06084120E-03    2     1000022         4   # BR(~c_L -> ~chi_10 c)
     2.28507046E-04    2     1000023         4   # BR(~c_L -> ~chi_20 c)
     5.78936706E-04    2     1000025         4   # BR(~c_L -> ~chi_30 c)
     4.59134619E-02    2     1000035         4   # BR(~c_L -> ~chi_40 c)
     5.76544453E-04    2     1000024         3   # BR(~c_L -> ~chi_1+ s)
     9.17156506E-02    2     1000037         3   # BR(~c_L -> ~chi_2+ s)
     8.57926058E-01    2     1000021         4   # BR(~c_L -> ~g      c)
#
#         PDG            Width
DECAY   2000004     1.48310854E+02   # scharm_R decays
#          BR         NDA      ID1       ID2
     4.63150900E-02    2     1000022         4   # BR(~c_R -> ~chi_10 c)
     3.50073780E-04    2     1000023         4   # BR(~c_R -> ~chi_20 c)
     1.49666362E-02    2     1000025         4   # BR(~c_R -> ~chi_30 c)
     1.71450557E-08    2     1000035         4   # BR(~c_R -> ~chi_40 c)
     9.38368183E-01    2     1000021         4   # BR(~c_R -> ~g      c)
#
#         PDG            Width
DECAY   1000003     1.48011928E+02   # sstrange_L decays
#          BR         NDA      ID1       ID2
     2.49364752E-03    2     1000022         3   # BR(~s_L -> ~chi_10 s)
     3.56034177E-05    2     1000023         3   # BR(~s_L -> ~chi_20 s)
     1.27915549E-03    2     1000025         3   # BR(~s_L -> ~chi_30 s)
     4.59614254E-02    2     1000035         3   # BR(~s_L -> ~chi_40 s)
     3.38515237E-05    2    -1000024         4   # BR(~s_L -> ~chi_1- c)
     9.20061601E-02    2    -1000037         4   # BR(~s_L -> ~chi_2- c)
     8.58190157E-01    2     1000021         3   # BR(~s_L -> ~g      s)
#
#         PDG            Width
DECAY   2000003     6.32792195E-01   # sstrange_R decays
#          BR         NDA      ID1       ID2
     7.59139893E-01    2     1000022         3   # BR(~s_R -> ~chi_10 s)
     5.56818898E-03    2     1000023         3   # BR(~s_R -> ~chi_20 s)
     2.35291918E-01    2     1000025         3   # BR(~s_R -> ~chi_30 s)
#
#         PDG            Width
DECAY   1000011     1.11667207E+00   # selectron_L decays
#          BR         NDA      ID1       ID2
     7.82375178E-01    2     1000022        11   # BR(~e_L -> ~chi_10 e-)
     1.70235874E-02    2     1000023        11   # BR(~e_L -> ~chi_20 e-)
     1.99621217E-01    2     1000025        11   # BR(~e_L -> ~chi_30 e-)
     9.80016950E-04    2    -1000024        12   # BR(~e_L -> ~chi_1- nu_e)
#
#         PDG            Width
DECAY   2000011     1.77421691E+01   # selectron_R decays
#          BR         NDA      ID1       ID2
     7.51722163E-01    2     1000022        11   # BR(~e_R -> ~chi_10 e-)
     5.67656326E-03    2     1000023        11   # BR(~e_R -> ~chi_20 e-)
     2.42601069E-01    2     1000025        11   # BR(~e_R -> ~chi_30 e-)
     2.04119466E-07    2     1000035        11   # BR(~e_R -> ~chi_40 e-)
#
#         PDG            Width
DECAY   1000013     1.11667204E+00   # smuon_L decays
#          BR         NDA      ID1       ID2
     7.82375179E-01    2     1000022        13   # BR(~mu_L -> ~chi_10 mu-)
     1.70235874E-02    2     1000023        13   # BR(~mu_L -> ~chi_20 mu-)
     1.99621217E-01    2     1000025        13   # BR(~mu_L -> ~chi_30 mu-)
     9.80016978E-04    2    -1000024        14   # BR(~mu_L -> ~chi_1- nu_mu)
#
#         PDG            Width
DECAY   2000013     1.77421690E+01   # smuon_R decays
#          BR         NDA      ID1       ID2
     7.51722163E-01    2     1000022        13   # BR(~mu_R -> ~chi_10 mu-)
     5.67656326E-03    2     1000023        13   # BR(~mu_R -> ~chi_20 mu-)
     2.42601069E-01    2     1000025        13   # BR(~mu_R -> ~chi_30 mu-)
     2.04119465E-07    2     1000035        13   # BR(~mu_R -> ~chi_40 mu-)
#
#         PDG            Width
DECAY   1000015     3.68899295E+00   # stau_1 decays
#          BR         NDA      ID1       ID2
     6.38536791E-01    2     1000022        15   # BR(~tau_1 -> ~chi_10  tau-)
     4.99382685E-02    2     1000023        15   # BR(~tau_1 -> ~chi_20  tau-)
     1.94591419E-01    2     1000025        15   # BR(~tau_1 -> ~chi_30  tau-)
     3.86973790E-02    2     1000035        15   # BR(~tau_1 -> ~chi_40  tau-)
     8.38444123E-04    2    -1000024        16   # BR(~tau_1 -> ~chi_1-  nu_tau)
     7.73976980E-02    2    -1000037        16   # BR(~tau_1 -> ~chi_2-  nu_tau)
#
#         PDG            Width
DECAY   2000015     1.47695876E+01   # stau_2 decays
#          BR         NDA      ID1       ID2
     7.23304901E-01    2     1000022        15   # BR(~tau_2 -> ~chi_10  tau-)
     1.60601265E-02    2     1000023        15   # BR(~tau_2 -> ~chi_20  tau-)
     2.39139378E-01    2     1000025        15   # BR(~tau_2 -> ~chi_30  tau-)
     9.19470357E-07    2     1000035        15   # BR(~tau_2 -> ~chi_40  tau-)
     2.14333957E-02    2    -1000024        16   # BR(~tau_2 -> ~chi_1-  nu_tau)
     1.68148037E-06    2    -1000037        16   # BR(~tau_2 -> ~chi_2-  nu_tau)
     2.99288732E-05    2     1000016       -24   # BR(~tau_2 -> ~nu_tauL W-)
     1.46462404E-05    2     1000015        25   # BR(~tau_2 -> ~tau_1   h)
     1.50232656E-05    2     1000015        23   # BR(~tau_2 -> ~tau_1   Z)
#
#         PDG            Width
DECAY   1000012     1.11909429E+00   # snu_eL decays
#          BR         NDA      ID1       ID2
     7.25822691E-01    2     1000022        12   # BR(~nu_eL -> ~chi_10 nu_e)
     2.90885895E-04    2     1000023        12   # BR(~nu_eL -> ~chi_20 nu_e)
     2.57311968E-01    2     1000025        12   # BR(~nu_eL -> ~chi_30 nu_e)
     1.65744555E-02    2     1000024        11   # BR(~nu_eL -> ~chi_1+ e-)
#
#         PDG            Width
DECAY   1000014     1.11909429E+00   # snu_muL decays
#          BR         NDA      ID1       ID2
     7.25822691E-01    2     1000022        14   # BR(~nu_muL -> ~chi_10 nu_mu)
     2.90885895E-04    2     1000023        14   # BR(~nu_muL -> ~chi_20 nu_mu)
     2.57311968E-01    2     1000025        14   # BR(~nu_muL -> ~chi_30 nu_mu)
     1.65744550E-02    2     1000024        13   # BR(~nu_muL -> ~chi_1+ mu-)
#
#         PDG            Width
DECAY   1000016     3.70798100E+00   # snu_tauL decays
#          BR         NDA      ID1       ID2
     5.82102598E-01    2     1000022        16   # BR(~nu_tauL -> ~chi_10 nu_tau)
     2.43676736E-04    2     1000023        16   # BR(~nu_tauL -> ~chi_20 nu_tau)
     2.19265708E-01    2     1000025        16   # BR(~nu_tauL -> ~chi_30 nu_tau)
     3.77567334E-02    2     1000035        16   # BR(~nu_tauL -> ~chi_40 nu_tau)
     8.54554685E-02    2     1000024        15   # BR(~nu_tauL -> ~chi_1+ tau-)
     7.51758156E-02    2     1000037        15   # BR(~nu_tauL -> ~chi_2+ tau-)
#
#         PDG            Width
DECAY   1000024     5.52157458E-05   # chargino1+ decays
#           BR         NDA      ID1       ID2       ID3
     3.33639728E-01    3     1000022         2        -1   # BR(~chi_1+ -> ~chi_10 u    db)
     3.33639728E-01    3     1000022         4        -3   # BR(~chi_1+ -> ~chi_10 c    sb)
     1.11175590E-01    3     1000022       -11        12   # BR(~chi_1+ -> ~chi_10 e+   nu_e)
     1.11175590E-01    3     1000022       -13        14   # BR(~chi_1+ -> ~chi_10 mu+  nu_mu)
     1.10369365E-01    3     1000022       -15        16   # BR(~chi_1+ -> ~chi_10 tau+ nu_tau)
#
#         PDG            Width
DECAY   1000037     4.03694618E+01   # chargino2+ decays
#          BR         NDA      ID1       ID2
     4.25621691E-07    2    -1000005         6   # BR(~chi_2+ -> ~b_1*    t )
     1.39919794E-01    2     1000012       -11   # BR(~chi_2+ -> ~nu_eL   e+  )
     1.39919794E-01    2     1000014       -13   # BR(~chi_2+ -> ~nu_muL mu+ )
     1.39794462E-01    2    -1000011        12   # BR(~chi_2+ -> ~e_L+    nu_e)
     1.39794462E-01    2    -1000013        14   # BR(~chi_2+ -> ~mu_L+   nu_mu)
     1.11679090E-01    2     1000024        23   # BR(~chi_2+ -> ~chi_1+  Z )
     2.26120867E-02    2     1000022        24   # BR(~chi_2+ -> ~chi_10  W+)
     1.08529418E-01    2     1000023        24   # BR(~chi_2+ -> ~chi_20  W+)
     8.56943852E-02    2     1000025        24   # BR(~chi_2+ -> ~chi_30  W+)
     1.12056082E-01    2     1000024        25   # BR(~chi_2+ -> ~chi_1+  h )
#
#         PDG            Width
DECAY   1000022     0.00000000E+00   # neutralino1 decays
#
#         PDG            Width
DECAY   1000023     4.77899170E-05   # neutralino2 decays
#          BR         NDA      ID1       ID2
     1.25304892E-03    2     1000022        22   # BR(~chi_20 -> ~chi_10 gam)
#           BR         NDA      ID1       ID2       ID3
     1.18077523E-01    3     1000022        -2         2   # BR(~chi_20 -> ~chi_10 ub      u)
     1.53313120E-01    3     1000022        -1         1   # BR(~chi_20 -> ~chi_10 db      d)
     1.18077523E-01    3     1000022        -4         4   # BR(~chi_20 -> ~chi_10 cb      c)
     1.53313120E-01    3     1000022        -3         3   # BR(~chi_20 -> ~chi_10 sb      s)
     1.39144427E-01    3     1000022        -5         5   # BR(~chi_20 -> ~chi_10 bb      b)
     3.52112561E-02    3     1000022       -11        11   # BR(~chi_20 -> ~chi_10 e+      e-)
     3.52112561E-02    3     1000022       -13        13   # BR(~chi_20 -> ~chi_10 mu+     mu-)
     3.48658690E-02    3     1000022       -15        15   # BR(~chi_20 -> ~chi_10 tau+    tau-)
     7.05137102E-02    3     1000022       -12        12   # BR(~chi_20 -> ~chi_10 nu_eb   nu_e)
     7.05137102E-02    3     1000022       -14        14   # BR(~chi_20 -> ~chi_10 nu_mub  nu_mu)
     7.05053249E-02    3     1000022       -16        16   # BR(~chi_20 -> ~chi_10 nu_taub nu_tau)
     3.35959487E-08    3     1000024        -2         1   # BR(~chi_20 -> ~chi_1+ ub      d)
     3.35959487E-08    3    -1000024        -1         2   # BR(~chi_20 -> ~chi_1- db      u)
     1.11986748E-08    3     1000024       -12        11   # BR(~chi_20 -> ~chi_1+ nu_eb   e-)
     1.11986748E-08    3    -1000024        12       -11   # BR(~chi_20 -> ~chi_1- nu_e    e+)
     1.11986748E-08    3     1000024       -14        13   # BR(~chi_20 -> ~chi_1+ nu_mub  mu-)
     1.11986748E-08    3    -1000024        14       -13   # BR(~chi_20 -> ~chi_1- nu_mu   mu+)
#
#         PDG            Width
DECAY   1000025     9.43653702E-06   # neutralino3 decays
#          BR         NDA      ID1       ID2
     3.99987143E-02    2     1000022        22   # BR(~chi_30 -> ~chi_10 gam)
     5.70626119E-02    2     1000023        22   # BR(~chi_30 -> ~chi_20 gam)
#           BR         NDA      ID1       ID2       ID3
     6.82077812E-02    3     1000022        -2         2   # BR(~chi_30 -> ~chi_10 ub      u)
     8.80879410E-02    3     1000022        -1         1   # BR(~chi_30 -> ~chi_10 db      d)
     6.82077812E-02    3     1000022        -4         4   # BR(~chi_30 -> ~chi_10 cb      c)
     8.80879410E-02    3     1000022        -3         3   # BR(~chi_30 -> ~chi_10 sb      s)
     8.34840288E-02    3     1000022        -5         5   # BR(~chi_30 -> ~chi_10 bb      b)
     1.93109993E-02    3     1000022       -11        11   # BR(~chi_30 -> ~chi_10 e+      e-)
     1.93109993E-02    3     1000022       -13        13   # BR(~chi_30 -> ~chi_10 mu+     mu-)
     1.96689087E-02    3     1000022       -15        15   # BR(~chi_30 -> ~chi_10 tau+    tau-)
     4.23727531E-02    3     1000022       -12        12   # BR(~chi_30 -> ~chi_10 nu_eb   nu_e)
     4.23727531E-02    3     1000022       -14        14   # BR(~chi_30 -> ~chi_10 nu_mub  nu_mu)
     4.08979118E-02    3     1000022       -16        16   # BR(~chi_30 -> ~chi_10 nu_taub nu_tau)
     8.45176397E-03    3     1000023        -2         2   # BR(~chi_30 -> ~chi_20 ub      u)
     1.09751102E-02    3     1000023        -1         1   # BR(~chi_30 -> ~chi_20 db      d)
     8.45176397E-03    3     1000023        -4         4   # BR(~chi_30 -> ~chi_20 cb      c)
     1.09751102E-02    3     1000023        -3         3   # BR(~chi_30 -> ~chi_20 sb      s)
     4.24714706E-03    3     1000023        -5         5   # BR(~chi_30 -> ~chi_20 bb      b)
     2.52487174E-03    3     1000023       -11        11   # BR(~chi_30 -> ~chi_20 e+      e-)
     2.52487174E-03    3     1000023       -13        13   # BR(~chi_30 -> ~chi_20 mu+     mu-)
     2.34587202E-03    3     1000023       -15        15   # BR(~chi_30 -> ~chi_20 tau+    tau-)
     5.04659393E-03    3     1000023       -12        12   # BR(~chi_30 -> ~chi_20 nu_eb   nu_e)
     5.04659393E-03    3     1000023       -14        14   # BR(~chi_30 -> ~chi_20 nu_mub  nu_mu)
     5.04682657E-03    3     1000023       -16        16   # BR(~chi_30 -> ~chi_20 nu_taub nu_tau)
     4.31295566E-02    3     1000024        -2         1   # BR(~chi_30 -> ~chi_1+ ub      d)
     4.31295566E-02    3    -1000024        -1         2   # BR(~chi_30 -> ~chi_1- db      u)
     4.31295566E-02    3     1000024        -4         3   # BR(~chi_30 -> ~chi_1+ cb      s)
     4.31295566E-02    3    -1000024        -3         4   # BR(~chi_30 -> ~chi_1- sb      c)
     1.43793594E-02    3     1000024       -12        11   # BR(~chi_30 -> ~chi_1+ nu_eb   e-)
     1.43793594E-02    3    -1000024        12       -11   # BR(~chi_30 -> ~chi_1- nu_e    e+)
     1.43793594E-02    3     1000024       -14        13   # BR(~chi_30 -> ~chi_1+ nu_mub  mu-)
     1.43793594E-02    3    -1000024        14       -13   # BR(~chi_30 -> ~chi_1- nu_mu   mu+)
     1.36283428E-02    3     1000024       -16        15   # BR(~chi_30 -> ~chi_1+ nu_taub tau-)
     1.36283428E-02    3    -1000024        16       -15   # BR(~chi_30 -> ~chi_1- nu_tau  tau+)
#
#         PDG            Width
DECAY   1000035     4.03556253E+01   # neutralino4 decays
#          BR         NDA      ID1       ID2
     1.70766134E-02    2     1000022        23   # BR(~chi_40 -> ~chi_10   Z )
     3.02663887E-02    2     1000023        23   # BR(~chi_40 -> ~chi_20   Z )
     6.43563646E-02    2     1000025        23   # BR(~chi_40 -> ~chi_30   Z )
     1.08451180E-01    2     1000024       -24   # BR(~chi_40 -> ~chi_1+   W-)
     1.08451180E-01    2    -1000024        24   # BR(~chi_40 -> ~chi_1-   W+)
     6.12485567E-03    2     1000022        25   # BR(~chi_40 -> ~chi_10   h )
     8.19802874E-02    2     1000023        25   # BR(~chi_40 -> ~chi_20   h )
     2.37555825E-02    2     1000025        25   # BR(~chi_40 -> ~chi_30   h )
     1.26733977E-08    2     2000001        -1   # BR(~chi_40 -> ~d_R      db)
     1.26733977E-08    2    -2000001         1   # BR(~chi_40 -> ~d_R*     d )
     1.26733977E-08    2     2000003        -3   # BR(~chi_40 -> ~s _R      sb)
     1.26733977E-08    2    -2000003         3   # BR(~chi_40 -> ~s _R*     s )
     2.21787311E-07    2     1000005        -5   # BR(~chi_40 -> ~b_1      bb)
     2.21787311E-07    2    -1000005         5   # BR(~chi_40 -> ~b_1*     b )
     6.97564317E-02    2     1000011       -11   # BR(~chi_40 -> ~e_L-     e+)
     6.97564317E-02    2    -1000011        11   # BR(~chi_40 -> ~e_L+     e-)
     6.97564317E-02    2     1000013       -13   # BR(~chi_40 -> ~mu_L-    mu+)
     6.97564317E-02    2    -1000013        13   # BR(~chi_40 -> ~mu_L+    mu-)
     7.01278315E-02    2     1000012       -12   # BR(~chi_40 -> ~nu_eL    nu_eb)
     7.01278315E-02    2    -1000012        12   # BR(~chi_40 -> ~nu_eL*   nu_e )
     7.01278315E-02    2     1000014       -14   # BR(~chi_40 -> ~nu_muL   nu_mub)
     7.01278315E-02    2    -1000014        14   # BR(~chi_40 -> ~nu_muL*  nu_mu )
#
#         PDG            Width
DECAY        25     4.05177196E-03   # h decays
#          BR         NDA      ID1       ID2
     5.90112686E-01    2           5        -5   # BR(h -> b       bb     )
     6.42628214E-02    2         -15        15   # BR(h -> tau+    tau-   )
     2.27463325E-04    2         -13        13   # BR(h -> mu+     mu-    )
     2.48194029E-04    2           3        -3   # BR(h -> s       sb     )
     2.14432334E-02    2           4        -4   # BR(h -> c       cb     )
     7.93113819E-02    2          21        21   # BR(h -> g       g      )
     2.35171472E-03    2          22        22   # BR(h -> gam     gam    )
     1.58217954E-03    2          22        23   # BR(h -> Z       gam    )
     2.13627316E-01    2          24       -24   # BR(h -> W+      W-     )
     2.68330097E-02    2          23        23   # BR(h -> Z       Z      )
#
#         PDG            Width
DECAY        35     2.52771542E+01   # H decays
#          BR         NDA      ID1       ID2
     8.41807960E-02    2           5        -5   # BR(H -> b       bb     )
     1.55909239E-02    2         -15        15   # BR(H -> tau+    tau-   )
     5.48601791E-05    2         -13        13   # BR(H -> mu+     mu-    )
     3.44975979E-05    2           3        -3   # BR(H -> s       sb     )
     9.70918136E-07    2           4        -4   # BR(H -> c       cb     )
     9.56491687E-02    2           6        -6   # BR(H -> t       tb     )
     3.90096120E-05    2          21        21   # BR(H -> g       g      )
     2.56379067E-07    2          22        22   # BR(H -> gam     gam    )
     6.34359639E-08    2          23        22   # BR(H -> Z       gam    )
     3.57993369E-05    2          24       -24   # BR(H -> W+      W-     )
     1.78651397E-05    2          23        23   # BR(H -> Z       Z      )
     1.31482188E-04    2          25        25   # BR(H -> h       h      )
     2.90640286E-03    2     1000024  -1000024   # BR(H -> ~chi_1+ ~chi_1-)
     2.13508846E-01    2     1000024  -1000037   # BR(H -> ~chi_1+ ~chi_2-)
     2.13508846E-01    2     1000037  -1000024   # BR(H -> ~chi_2+ ~chi_1-)
     4.34943349E-02    2     1000022   1000022   # BR(H -> ~chi_10 ~chi_10)
     2.08205121E-05    2     1000023   1000023   # BR(H -> ~chi_20 ~chi_20)
     3.92598348E-02    2     1000025   1000025   # BR(H -> ~chi_30 ~chi_30)
     4.18676939E-02    2     1000022   1000023   # BR(H -> ~chi_10 ~chi_20)
     1.83474978E-02    2     1000022   1000025   # BR(H -> ~chi_10 ~chi_30)
     4.34012346E-02    2     1000022   1000035   # BR(H -> ~chi_10 ~chi_40)
     1.73972170E-02    2     1000023   1000025   # BR(H -> ~chi_20 ~chi_30)
     6.38902599E-02    2     1000023   1000035   # BR(H -> ~chi_20 ~chi_40)
     1.06619223E-01    2     1000025   1000035   # BR(H -> ~chi_30 ~chi_40)
     8.84484054E-07    2     2000001  -2000001   # BR(H -> ~d_R    ~d_R*  )
     8.84484054E-07    2     2000003  -2000003   # BR(H -> ~s_R    ~s_R*  )
     4.58270747E-07    2     1000005  -1000005   # BR(H -> ~b_1    ~b_1*  )
     4.68632296E-06    2     1000011  -1000011   # BR(H -> ~e_L-   ~e_L+  )
     4.68632296E-06    2     1000013  -1000013   # BR(H -> ~mu_L-  ~mu_L+ )
     1.52478388E-05    2     1000012  -1000012   # BR(H -> ~nu_eL  ~nu_eL*   )
     1.52478388E-05    2     1000014  -1000014   # BR(H -> ~nu_muL ~nu_muL*  )
#
#         PDG            Width
DECAY        36     2.52763576E+01   # A decays
#          BR         NDA      ID1       ID2
     8.42295096E-02    2           5        -5   # BR(A -> b       bb     )
     1.55920006E-02    2         -15        15   # BR(A -> tau+    tau-   )
     5.48639174E-05    2         -13        13   # BR(A -> mu+     mu-    )
     3.45432087E-05    2           3        -3   # BR(A -> s       sb     )
     9.76011961E-07    2           4        -4   # BR(A -> c       cb     )
     9.59029784E-02    2           6        -6   # BR(A -> t       tb     )
     7.76111715E-05    2          21        21   # BR(A -> g       g      )
     3.49432043E-07    2          22        22   # BR(A -> gam     gam    )
     1.00599867E-07    2          23        22   # BR(A -> Z       gam    )
     3.62952992E-05    2          23        25   # BR(A -> Z       h      )
     3.37851708E-03    2     1000024  -1000024   # BR(A -> ~chi_1+ ~chi_1-)
     2.13238327E-01    2     1000024  -1000037   # BR(A -> ~chi_1+ ~chi_2-)
     2.13238327E-01    2     1000037  -1000024   # BR(A -> ~chi_2+ ~chi_1-)
     2.92889302E-02    2     1000022   1000022   # BR(A -> ~chi_10 ~chi_10)
     3.64429201E-05    2     1000023   1000023   # BR(A -> ~chi_20 ~chi_20)
     2.24170346E-02    2     1000025   1000025   # BR(A -> ~chi_30 ~chi_30)
     7.11142808E-02    2     1000022   1000023   # BR(A -> ~chi_10 ~chi_20)
     9.17183596E-03    2     1000022   1000025   # BR(A -> ~chi_10 ~chi_30)
     2.19401348E-02    2     1000022   1000035   # BR(A -> ~chi_10 ~chi_40)
     2.84575610E-02    2     1000023   1000025   # BR(A -> ~chi_20 ~chi_30)
     1.48238801E-01    2     1000023   1000035   # BR(A -> ~chi_20 ~chi_40)
     4.35505792E-02    2     1000025   1000035   # BR(A -> ~chi_30 ~chi_40)
#
#         PDG            Width
DECAY        37     2.52152273E+01   # H+ decays
#          BR         NDA      ID1       ID2
     1.40960811E-04    2           4        -5   # BR(H+ -> c       bb     )
     1.56356047E-02    2         -15        16   # BR(H+ -> tau+    nu_tau )
     5.50173480E-05    2         -13        14   # BR(H+ -> mu+     nu_mu  )
     1.40959104E-06    2           2        -5   # BR(H+ -> u       bb     )
     1.73155809E-06    2           2        -3   # BR(H+ -> u       sb     )
     3.50208261E-05    2           4        -3   # BR(H+ -> c       sb     )
     1.78322364E-01    2           6        -5   # BR(H+ -> t       bb     )
     3.64415620E-05    2          24        25   # BR(H+ -> W+      h      )
     1.67669896E-13    2          24        36   # BR(H+ -> W+      A      )
     1.28697771E-01    2     1000024   1000022   # BR(H+ -> ~chi_1+ ~chi_10)
     2.03137721E-03    2     1000024   1000023   # BR(H+ -> ~chi_1+ ~chi_20)
     3.10549322E-02    2     1000024   1000025   # BR(H+ -> ~chi_1+ ~chi_30)
     2.14408373E-01    2     1000024   1000035   # BR(H+ -> ~chi_1+ ~chi_40)
     6.55437668E-02    2     1000037   1000022   # BR(H+ -> ~chi_2+ ~chi_10)
     2.13424289E-01    2     1000037   1000023   # BR(H+ -> ~chi_2+ ~chi_20)
     1.50574098E-01    2     1000037   1000025   # BR(H+ -> ~chi_2+ ~chi_30)
     1.84213927E-05    2    -1000011   1000012   # BR(H+ -> ~e_L+   ~nu_eL )
     1.84213927E-05    2    -1000013   1000014   # BR(H+ -> ~mu_L+  ~nu_muL)

DECAY         5   0.000000e+00 # b decays
DECAY        15   0.000000e+00 # tau decays
DECAY        23     2.49520000E+00   # Z
DECAY        24     2.08500000E+00   # W
