BLOCK SPINFO
   1   SPheno
   2   v4.0.5be

BLOCK SPHENOINFO
   1   2
   2   2

BLOCK MODSEL
   1   0

BLOCK MINPAR
   3    6.6346929
   4    1

BLOCK EXTPAR
   0    3816.4991
   1   -948.98904
   2    2508.4476
   3    4365.82
   11   -4989.7123
   12   -2951.5659
   13   -573.55943
   23    4674.1932
   25    6.3046816
   26    4805.4178
   31    1489.1852
   32    1489.1852
   33    2642.2973
   34    2161.4808
   35    2161.4808
   36    2388.048
   41    2138.2097
   42    2138.2097
   43    3482.2114
   44    828.15743
   45    828.15743
   46    3942.0876
   47    1295.6041
   48    1295.6041
   49    3981.3721

BLOCK SMINPUTS
   1    127.90897
   2    1.1663787e-05
   3    0.1184
   4    91.1876
   5    4.18
   6    173.2
   7    1.777
   8    0
   11    0.00051099893
   12    0
   13    0.10565837
   14    0
   21    0.005
   22    0.0025
   23    0.095
   24    1.27

BLOCK GAUGE Q=  3816.4991
   1    0.35536298
   2    0.66519887
   3    1.219778

BLOCK YU Q=  3816.4991
   1   1    8.4891835e-06
   2   2    0.0043125052
   3   3    1.0255615

BLOCK YD Q=  3816.4991
   1   1    0.00010754973
   2   2    0.0020434449
   3   3    0.10665563

BLOCK YE Q=  3816.4991
   1   1    1.8768214e-05
   2   2    0.0038806715
   3   3    0.06526651

BLOCK AU Q=  3816.4991
   1   1    0
   2   2    0
   3   3   -4989.7169

BLOCK AD Q=  3816.4991
   1   1    0
   2   2    0
   3   3   -2951.5654

BLOCK AE Q=  3816.4991
   1   1    0
   2   2    0
   3   3   -573.55922

BLOCK MSOFT Q=  3816.4991
   1   -948.98904
   2    2508.4476
   3    4365.82
   21    415029.61
   22   -21039764
   31    1489.1852
   32    1489.1852
   33    2642.2973
   34    2161.4808
   35    2161.4808
   36    2388.048
   41    2138.2097
   42    2138.2097
   43    3482.2114
   44    828.15743
   45    828.15743
   46    3942.0876
   47    1295.6041
   48    1295.6041
   49    3981.3721

BLOCK MASS
   6    173.2
   23    91.1876
   24    80.429995
   15    1.777
   25    121.82192
   35    4805.632
   36    4805.4178
   37    4806.3758
   1000001    2354.0955
   2000001    1520.0028
   1000002    2352.8291
   2000002    1117.9725
   1000003    2354.0955
   2000003    1520.0023
   1000004    2352.8292
   2000004    1117.9733
   1000005    3633.0347
   2000005    4125.2575
   1000006    3606.3614
   2000006    4038.8811
   1000011    1531.3845
   2000011    2162.6081
   1000012    1529.0819
   1000013    1531.3816
   2000013    2162.6056
   1000014    1529.0803
   1000015    2388.2649
   2000015    2669.6136
   1000016    2667.7043
   1000021    4411.1506
   1000022   -932.05557
   1000023    2511.289
   1000025   -4653.7741
   1000035    4655.407
   1000024    2511.4945
   1000037    4655.8553

BLOCK ALPHA
      -0.14973074

BLOCK HMIX Q=  3816.4991
   1    4674.1932
   2    6.3046816
   3    243.00982
   4    23092040

BLOCK STOPMIX
   1   1    0.96794122
   1   2    0.25117683
   2   1   -0.25117683
   2   2    0.96794122

BLOCK SBOTMIX
   1   1    0.99984348
   1   2    0.017692123
   2   1   -0.017692123
   2   2    0.99984348

BLOCK STAUMIX
   1   1    0.0379557
   1   2    0.99927942
   2   1   -0.99927942
   2   2    0.0379557

BLOCK NMIX
   1   1    0.99995551
   1   2   -2.8640999e-05
   1   3    0.0094268413
   1   4    0.00034381985
   2   1   -0.00025710309
   2   2   -0.99956572
   2   3    0.024814957
   2   4   -0.015890783
   3   1    0.0069082254
   3   2   -0.0063123465
   3   3   -0.70702083
   3   4   -0.70713081
   4   1   -0.006418309
   4   2    0.028783999
   4   3    0.70669434
   4   4   -0.70690409

BLOCK UMIX
   1   1   -0.99938795
   1   2    0.034981938
   2   1    0.034981938
   2   2    0.99938795

BLOCK VMIX
   1   1   -0.9997494
   1   2    0.022385901
   2   1    0.022385901
   2   2    0.9997494

BLOCK HIGGSBOUNDSINPUTHIGGSCOUPLINGSFERMIONS
       0, 39.74901,3,36,15,15

BLOCK HIGGSBOUNDSINPUTHIGGSCOUPLINGSBOSONS
       0,4,36,21,21,23

BLOCK SPHENOLOWENERGY
   1    0.00032212977
   2    1.5908505e-06
   3    3.527154e-05
   4    2.4965982e-15
   5    1.0665184e-10
   6    2.2326323e-08
   7    8.4096996e-14
   8    3.5926209e-09
   9    7.6201994e-07
   10    9.6797925e-05
   11    0.9998855
   12    0.54186388
   13    19.361182
   14    0
   15    0
   16    0.0021568141
   17    2.2816531e-15
   18    2.4812876e-11
   19    8.2934548e-11
   20   -1.2853472e-17
   21   -5.4958207e-13
   22    1.1005528e-09
   23    0
   24    0
   25    0
   26    0
   27    0
   28    0
   29    0
   30    0
   31    0
   39   -0.00021744896
   40    0
   41    0
   42    0

BLOCK FWCOEF Q=  160
   305   4422   0   0   -0.18881911
   305   4422   0   2   -0.19071689
   305   4322   0   2   -3.3154351e-05
   305   6421   0   0   -0.095227835
   305   6421   0   2   -0.098653869
   305   6321   0   2   -6.3688251e-05
   3051111   4133   0   0    1.6245704
   3051111   4133   0   2    1.6247054
   3051111   4233   0   2    4.2188239e-06
   3051111   4137   0   0   -4.4472625
   3051111   4137   0   2   -4.4474529
   3051111   4237   0   2   -3.1715408e-05
   3051313   4133   0   0    1.6245704
   3051313   4133   0   2    1.6247054
   3051313   4233   0   2    4.2188238e-06
   3051313   4137   0   0   -4.4472625
   3051313   4137   0   2   -4.4474529
   3051313   4237   0   2   -3.1715408e-05
   3051212   4137   0   0    1.5053501
   3051212   4137   0   2    1.505393
   3051212   4237   0   2    6.8628359e-06
   3051414   4137   0   0    1.5053501
   3051414   4137   0   2    1.505393
   3051414   4237   0   2    6.8628359e-06
   3051616   4137   0   0    1.5053501
   3051616   4137   0   2    1.5053931
   3051616   4237   0   2    6.8627865e-06

BLOCK IMFWCOEF Q=  160
   305   4422   0   0    3.8583851e-07
   305   4422   0   2    1.5824521e-06
   305   4322   0   2    4.5944426e-07
   305   6421   0   0    3.304962e-07
   305   6421   0   2   -2.1525823e-07
   305   6321   0   2    2.8313231e-07
   3051111   4133   0   2   -9.968573e-08
   3051111   4233   0   2    8.4792638e-08
   3051111   4137   0   2    1.2345766e-06
   3051111   4237   0   2   -6.3657983e-07
   3051313   4133   0   2   -9.9685906e-08
   3051313   4233   0   2    8.4792637e-08
   3051313   4137   0   2    1.2345764e-06
   3051313   4237   0   2   -6.3657983e-07
   3051212   4137   0   2   -2.3667399e-07
   3051212   4237   0   2    1.3774494e-07
   3051414   4137   0   2   -2.36674e-07
   3051414   4237   0   2    1.3774494e-07
   3051616   4137   0   2   -2.3485024e-07
   3051616   4237   0   2    1.3774401e-07

DECAY 23  2.4952


DECAY 24  2.085


DECAY 1000011  0.76229151
    1   2    1000022    11

DECAY 2000011  7.2037659
    1   2    1000022    11

DECAY 1000013  0.76228656
    1   2    1000022    13

DECAY 2000013  7.2044734
    0.99989958   2    1000022    13
    0.00010041995   2    1000013    25

DECAY 1000015  8.61365
    1   2    1000022    15

DECAY 2000015  3.1862101
    0.81468039   2    1000022    15
    0.097175345   2   -1000024    16
    0.048734534   2    1000023    15
    0.01972299   2    1000015    25
    0.019686739   2    1000015    23

DECAY 1000012  0.75861064
    1   2    1000022    12

DECAY 1000014  0.75860798
    1   2    1000022    14

DECAY 1000016  3.1660344
    0.8158202   2    1000022    16
    0.095801184   2    1000024    15
    0.047998429   2    1000023    16
    0.040380189   2    1000015    24

DECAY 2000001  0.33039122
    1   2    1000022    1

DECAY 1000001  0.23368485
    0.99999742   2    1000022    1

DECAY 2000003  0.33039076
    1   2    1000022    3

DECAY 1000003  0.23390156
    0.99907093   2    1000022    3
    0.00092907105   2    2000003    25

DECAY 1000005  13.295623
    0.63902799   2   -1000024    6
    0.32760473   2    1000023    5
    0.033367283   2    1000022    5

DECAY 2000005  2.4858202
    0.83381244   2    1000022    5
    0.071177328   2    1000006   -24
    0.061525389   2    1000005    25
    0.032231586   2    1000005    23
    0.000831164   2   -1000024    6
    0.00042078846   2    1000023    5

DECAY 2000002  0.23213856
    1   2    1000022    2

DECAY 1000002  0.23331489
    1   2    1000022    2

DECAY 2000004  0.23213243
    1   2    1000022    4

DECAY 1000004  0.23334409
    0.99987387   2    1000022    4
    0.00012613439   2    2000004    25

DECAY 1000006  12.94277
    0.6202105   2    1000024    5
    0.30236567   2    1000023    6
    0.067091708   2    1000022    6
    0.010331999   3    1000022    24    5

DECAY 2000006  49.495291
    0.37399623   2    1000005    24
    0.24598965   2    1000006    25
    0.20822212   2    1000006    23
    0.15268628   2    1000022    6
    0.012807526   2    1000024    5
    0.0062981831   2    1000023    6

DECAY 1000024  19.437226
    0.22512828   2    1000014   -13
    0.22512771   2    1000012   -11
    0.22416793   2   -1000013    14
    0.2241669   2   -1000011    12
    0.025532004   2    1000002   -1
    0.025531994   2    1000004   -3
    0.025120982   2   -1000001    2
    0.025120268   2   -1000003    4

DECAY 1000037  69.628278
    0.3148206   2   -1000005    6
    0.16701332   2    1000024    25
    0.15108867   2    1000024    23
    0.15021361   2    1000023    24
    0.12130843   2    2000006   -5
    0.038754623   2    1000022    24
    0.022343005   2    1000006   -5
    0.015115695   3    1000024    6   -6
    0.0096146537   3    1000023   -5    6
    0.0032010573   3    1000022   -5    6
    0.0014930393   2   -1000015    16
    0.0013426386   2    1000016   -15
    0.00091538567   2   -2000005    6
    0.00061904509   2   -1000003    4
    0.00059865701   2   -1000001    2
    0.00028645345   2   -1000013    14
    0.00028645318   2   -1000011    12
    0.000249946   2    1000004   -3
    0.0002453482   2    1000002   -1
    0.000198378   2   -2000015    16
    0.00012534982   2    1000014   -13
    0.00011739034   2    1000012   -11

DECAY 1000022 -1


DECAY 1000023  19.428344
    0.11251238   2    1000014   -14
    0.11251238   2   -1000014    14
    0.1125121   2    1000012   -12
    0.1125121   2   -1000012    12
    0.11217503   2    1000013   -13
    0.11217503   2   -1000013    13
    0.1121745   2    1000011   -11
    0.1121745   2   -1000011    11
    0.012737311   2    1000002   -2
    0.012737311   2   -1000002    2
    0.012736955   2    1000004   -4
    0.012736955   2   -1000004    4
    0.01253877   2    1000001   -1
    0.01253877   2   -1000001    1
    0.012538765   2    1000003   -3
    0.012538765   2   -1000003    3

DECAY 1000025  74.340732
    0.16981848   2    1000006   -6
    0.16981848   2   -1000006    6
    0.14193224   2    1000024   -24
    0.14193224   2   -1000024    24
    0.13639789   2    1000023    23
    0.081397946   2    1000023    25
    0.049239877   2    2000006   -6
    0.049239877   2   -2000006    6
    0.01914617   2    1000022    25
    0.016831587   2    1000022    23
    0.0055342801   3    1000024    5   -6
    0.0055342801   3   -1000024   -5    6
    0.0040129277   3    1000023    6   -6
    0.0020198671   3    1000022    6   -6
    0.0016199343   2    1000005   -5
    0.0016199343   2   -1000005    5
    0.00071794769   2    1000015   -15
    0.00071794769   2   -1000015    15
    0.0006018296   2    2000015   -15
    0.0006018296   2   -2000015    15
    0.00048845973   2    2000005   -5
    0.00048845973   2   -2000005    5

DECAY 1000035  71.953064
    0.1724602   2    1000006   -6
    0.1724602   2   -1000006    6
    0.15408219   2    1000023    25
    0.14820178   2    1000024   -24
    0.14820178   2   -1000024    24
    0.051652769   2    2000006   -6
    0.051652769   2   -2000006    6
    0.036309914   2    1000022    25
    0.020127872   2    1000022    23
    0.0092878531   3    1000024    5   -6
    0.0092878531   3   -1000024   -5    6
    0.006974089   3    1000023    6   -6
    0.0067721651   2    1000023    23
    0.0026639057   3    1000022    6   -6
    0.0017207783   2    1000005   -5
    0.0017207783   2   -1000005    5
    0.00072845291   2    1000015   -15
    0.00072845291   2   -1000015    15
    0.00067288064   2    2000015   -15
    0.00067288064   2   -2000015    15
    0.00050945812   2    2000005   -5
    0.00050945812   2   -2000005    5
    0.00021417245   2    1000003   -3
    0.00021417245   2   -1000003    3
    0.00021195046   2    1000001   -1
    0.00021195046   2   -1000001    1
    0.00019082279   2    1000004   -4
    0.00019082279   2   -1000004    4
    0.00018093726   2    1000002   -2
    0.00018093726   2   -1000002    2
    0.00011759362   2    1000014   -14
    0.00011759362   2   -1000014    14
    0.00011759356   2    1000012   -12
    0.00011759356   2   -1000012    12

DECAY 1000021  730.86167
    0.078219283   2    2000002   -2
    0.078219283   2   -2000002    2
    0.078219266   2    2000004   -4
    0.078219266   2   -2000004    4
    0.069372901   2    2000003   -3
    0.069372901   2   -2000003    3
    0.069372887   2    2000001   -1
    0.069372887   2   -2000001    1
    0.045730071   2    1000002   -2
    0.045730071   2   -1000002    2
    0.045730066   2    1000004   -4
    0.045730066   2   -1000004    4
    0.045690922   2    1000001   -1
    0.045690922   2   -1000001    1
    0.045690921   2    1000003   -3
    0.045690921   2   -1000003    3
    0.0092411915   2    1000005   -5
    0.0092411915   2   -1000005    5
    0.0085302238   2    1000006   -6
    0.0085302238   2   -1000006    6
    0.0025737478   2    2000006   -6
    0.0025737478   2   -2000006    6
    0.0014057795   2    2000005   -5
    0.0014057795   2   -2000005    5

DECAY 25  0.0034952334
    0.61972025   2   -5    5
    0.17955573   2   -24    24
    0.074570245   2    21    21
    0.070995142   2   -15    15
    0.030716012   2   -4    4
    0.020387023   2    23    23
    0.0023402615   2    22    22
    0.0012355199   2    22    23
    0.00024624327   2   -13    13
    0.00023275928   2   -3    3
    6.435561e-07   2   -1    1
    1.5829734e-07   2   -2    2
    5.5358653e-09   2   -11    11

DECAY 35  6.1007104
    0.60599004   2   -6    6
    0.31891356   2   -5    5
    0.071220242   2   -15    15
    0.00087823955   2    1000022    1000023
    0.00086445337   2   -2000004    1000004
    0.00086445337   2   -1000004    2000004
    0.00025000975   2   -13    13
    0.0001876998   2    25    25
    0.00012082354   2    1000022    1000022
    9.9858102e-05   2   -3    3
    9.0572892e-05   2   -1000004    1000004
    9.0337073e-05   2   -1000002    1000002
    7.2163297e-05   2    21    21
    6.4338239e-05   2   -2000003    2000003
    6.4331231e-05   2   -2000001    2000001
    4.0598761e-05   2    23    23
    1.5647518e-05   2   -1000011    1000011
    1.5613723e-05   2   -1000013    1000013
    7.8587861e-06   2   -2000002    2000002
    7.7894575e-06   2   -2000004    2000004
    7.3828055e-06   2   -4    4
    6.998095e-06   2   -24    24
    5.6443489e-06   2   -2000013    2000013
    5.6322716e-06   2   -2000011    2000011
    3.622477e-06   2   -1000001    1000001
    3.6195001e-06   2   -1000003    1000003
    1.7010712e-06   2   -2000013    1000013
    1.7010712e-06   2   -1000013    2000013
    1.0082347e-06   2   -1000015    1000015
    6.424845e-07   2   -2000003    1000003
    6.424845e-07   2   -1000003    2000003
    4.1286187e-07   2    22    22
    2.7606741e-07   2   -1    1
    8.7211633e-08   2    22    23
    5.6143359e-09   2   -11    11
    3.349765e-09   2   -2000002    1000002
    3.349765e-09   2   -1000002    2000002
    1.7795989e-09   2   -2000001    1000001
    1.7795989e-09   2   -1000001    2000001
    3.9788513e-11   2   -2000011    1000011
    3.9788513e-11   2   -1000011    2000011
    3.8066987e-11   2   -2    2

DECAY 36  5.578617
    0.58104162   2   -6    6
    0.3397439   2   -5    5
    0.07585823   2   -15    15
    0.0009454803   2   -2000004    1000004
    0.0009454803   2   -1000004    2000004
    0.00064387164   2    1000022    1000023
    0.00026628374   2   -13    13
    0.00016735625   2    21    21
    0.00015153738   2    1000022    1000022
    0.00011668369   2    23    25
    0.00010647614   2   -3    3
    6.9402669e-06   2   -4    4
    1.854288e-06   2   -2000013    1000013
    1.854288e-06   2   -1000013    2000013
    7.0693375e-07   2   -2000003    1000003
    7.0693375e-07   2   -1000003    2000003
    5.6176015e-07   2    22    22
    2.9436148e-07   2   -1    1
    1.449702e-07   2    22    23
    5.9797946e-09   2   -11    11
    3.6637444e-09   2   -2000002    1000002
    3.6637444e-09   2   -1000002    2000002
    1.9581138e-09   2   -2000001    1000001
    1.9581138e-09   2   -1000001    2000001
    4.3371986e-11   2   -2000011    1000011
    4.3371986e-11   2   -1000011    2000011
    3.578609e-11   2   -2    2
    9.5391221e-34   2    25    25

DECAY 37  6.6052679
    0.93222565   2   -5    6
    0.064056667   2   -15    16
    0.0013555882   2    1000022    1000024
    0.00088555336   2   -3    6
    0.00046245561   2   -5    4
    0.00022646309   2   -13    14
    0.00021772137   2   -2000003    1000004
    9.863051e-05   2    24    25
    9.4875779e-05   2   -3    4
    9.4052554e-05   2   -2000001    2000002
    9.3914767e-05   2   -2000003    2000004
    5.680243e-05   2   -1000011    1000012
    5.6758603e-05   2   -1000013    1000014
    4.0609576e-05   2   -1    6
    1.1647981e-05   2   -2000001    1000004
    5.0297095e-06   2   -2000003    2000002
    5.02409e-06   2   -2000001    2000004
    4.0966482e-06   2   -3    2
    3.3023221e-06   2   -5    2
    3.166989e-06   2   -2000013    1000014
    1.1222572e-06   2   -1000003    2000004
    3.8101326e-07   2   -1    4
    2.414677e-07   2   -1    2
    1.7066336e-07   2   -1000005    1000004
    6.0113982e-08   2   -1000003    2000002
    5.2969952e-09   2   -11    12
    3.1137825e-09   2   -1000001    2000002
    1.1439112e-09   2   -2000001    1000002
    1.6630336e-10   2   -1000001    2000004
    7.4076396e-11   2   -2000011    1000012
    6.117001e-11   2   -2000003    1000002
    5.1871291e-11   2   -1000003    1000004
    7.6866279e-15   2   -1000001    1000004
    6.3922872e-15   2   -1000005    1000002
    1.4573522e-17   2   -1000003    1000002
    7.5487926e-19   2   -1000001    1000002

DECAY 6  2.43
    1   2    5    24

DECAY 15 -1
