BLOCK DCINFO
   1   SDECAY/HDECAY
   2   1.3b /3.4

BLOCK SPINFO
   1   SOFTSUSY
   2   3.4.0

BLOCK MODSEL
   1   0

BLOCK SMINPUTS
   1    127.90897
   2    1.1663787e-05
   3    0.1184
   4    91.1876
   5    4.18
   6    173.2
   7    1.777

BLOCK MINPAR
   3    7.45

BLOCK EXTPAR
   0   -1
   1    3574.85
   2    332.02
   3    3141.02
   11    4558.97
   12    3214.27
   13   -1340.06
   23   -289.25
   26    2940.55
   31    1700.51
   32    1700.51
   33    3311.61
   34    974.6
   35    974.6
   36    3823.84
   41    2276.66
   42    2276.66
   43    2666.86
   44    2910.1
   45    2910.1
   46    3945.5
   47    716.22
   48    716.22
   49    1922.67

BLOCK MASS
   24    80.390482
   25    127.67208
   35    2940.7024
   36    2940.5498
   37    2942.038
   5    4.8187603
   1000001    2415.4778
   2000001    968.57162
   1000002    2414.3351
   2000002    3028.062
   1000003    2415.4778
   2000003    968.57162
   1000004    2414.3351
   2000004    3028.062
   1000005    2069.7916
   2000005    2759.1356
   1000006    2753.3103
   2000006    3943.7357
   1000011    1703.5126
   2000011    1013.2889
   1000012    1701.4133
   1000013    1703.5126
   2000013    1013.2889
   1000014    1701.4133
   1000015    3318.0215
   2000015    3837.8423
   1000016    3316.7829
   1000021    3226.8971
   1000022    276.19177
   1000023   -309.57146
   1000025    386.52539
   1000035    3521.8147
   1000024    280.95598
   1000037    388.59759

BLOCK NMIX
   1   1   -0.0064305433
   1   2    0.49167051
   1   3    0.6529272
   1   4    0.57611182
   2   1   -0.009042987
   2   2    0.096534081
   2   3   -0.69843552
   2   4    0.7090749
   3   1    0.005039281
   3   2    0.86541387
   3   3   -0.29304178
   3   4   -0.40639875
   4   1    0.99992574
   4   2   -0.00032642294
   4   3   -0.00064059443
   4   4    0.012165728

BLOCK UMIX
   1   1    0.43321947
   1   2    0.90128846
   2   1   -0.90128846
   2   2    0.43321947

BLOCK VMIX
   1   1    0.59756618
   1   2   -0.80181959
   2   1   -0.80181959
   2   2   -0.59756618

BLOCK STOPMIX
   1   1    0.99704396
   1   2   -0.076833195
   2   1    0.076833195
   2   2    0.99704396

BLOCK SBOTMIX
   1   1   -0.0037036504
   1   2    0.99999314
   2   1   -0.99999314
   2   2   -0.0037036504

BLOCK STAUMIX
   1   1    0.99999994
   1   2   -0.00034641016
   2   1    0.00034641016
   2   2    0.99999994

BLOCK ALPHA
      -0.14081595

BLOCK HMIX Q=  3243.648
   1   -293.92839
   2    7.0734992
   3    240.79855
   4    8562387.2

BLOCK GAUGE Q=  3243.648
   1    0.36551931
   2    0.64256638
   3    1.009383

BLOCK AU Q=  3243.648
   1   1    0
   2   2    0
   3   3    4558.97

BLOCK AD Q=  3243.648
   1   1    0
   2   2    0
   3   3    3214.27

BLOCK AE Q=  3243.648
   1   1    0
   2   2    0
   3   3   -1340.06

BLOCK YU Q=  3243.648
   1   1    0
   2   2    0
   3   3    0.84448508

BLOCK YD Q=  3243.648
   1   1    0
   2   2    0
   3   3    0.097491161

BLOCK YE Q=  3243.648
   1   1    0
   2   2    0
   3   3    0.073284202

BLOCK MSOFT Q=  3243.648
   1    3574.85
   2    332.02
   3    3141.02
   21    8377347.4
   22    280830.85
   31    1700.51
   32    1700.51
   33    3311.61
   34    974.6
   35    974.6
   36    3823.84
   41    2276.66
   42    2276.66
   43    2666.86
   44    2910.1
   45    2910.1
   46    3945.5
   47    716.21996
   48    716.21996
   49    1922.67

BLOCK HIGGSBOUNDSINPUTHIGGSCOUPLINGSFERMIONS
       0, 50.034391,3,36,15,15

BLOCK HIGGSBOUNDSINPUTHIGGSCOUPLINGSBOSONS
       0,4,36,21,21,23

DECAY 6  1.4541168
    1   2    5    24

DECAY 1000021  186.65802
    0.14020616   2    2000001   -1
    0.14020616   2   -2000001    1
    0.14020616   2    2000003   -3
    0.14020616   2   -2000003    3
    0.0585972   2    1000005   -5
    0.0585972   2   -1000005    5
    0.032816633   2    1000002   -2
    0.032816633   2   -1000002    2
    0.032816585   2    1000004   -4
    0.032816585   2   -1000004    4
    0.032737662   2    1000001   -1
    0.032737662   2   -1000001    1
    0.032737662   2    1000003   -3
    0.032737662   2   -1000003    3
    0.012637075   2    1000006   -6
    0.012637075   2   -1000006    6
    0.01241326   2    2000005   -5
    0.01241326   2   -2000005    5
    0.0024158407   2    2000002   -2
    0.0024158407   2   -2000002    2
    0.0024157649   2    2000004   -4
    0.0024157649   2   -2000004    4

DECAY 1000006  71.065021
    0.26542483   2    1000023    6
    0.22727568   2    1000037    5
    0.21863277   2    1000025    6
    0.20004786   2    1000022    6
    0.088413942   2    1000024    5
    0.00020491297   2    1000005    24

DECAY 2000006  198.49256
    0.19428106   2    1000024    5
    0.15316102   2    2000005    24
    0.14125832   2    1000023    6
    0.11691939   2    1000021    6
    0.098844932   2    1000022    6
    0.093501302   2    1000006    25
    0.08330066   2    1000037    5
    0.079112699   2    1000006    23
    0.037824261   2    1000025    6
    0.0017903213   2    1000035    6
    6.03057e-06   2    1000005    24

DECAY 1000005  0.74459194
    0.41476979   2   -1000024    6
    0.24396099   2    1000023    5
    0.22193561   2    1000022    5
    0.081412655   2   -1000037    6
    0.03792095   2    1000025    5

DECAY 2000005  71.205912
    0.4413256   2   -1000037    6
    0.39761107   2   -1000024    6
    0.11496071   2    1000025    5
    0.040879737   2    1000022    5
    0.0050017594   2    1000023    5
    0.00011349172   2    1000005    25
    0.00010762963   2    1000005    23

DECAY 1000002  28.223401
    0.42510316   2    1000037    1
    0.24828938   2    1000025    2
    0.24199734   2    1000024    1
    0.081580987   2    1000022    2
    0.0030291304   2    1000023    2

DECAY 2000002  0.41338698
    0.31377379   3    2    1   -2000001
    0.31087094   3    2    3   -2000003
    0.14677531   3    2   -1    2000001
    0.14598912   3    2   -3    2000003
    0.023744338   3    2    5   -1000005
    0.016045498   3    2   -5    1000005
    0.0044607114   3    2   -2    1000002
    0.0044065249   3    2   -1    1000001
    0.0043978163   3    2   -3    1000003
    0.0043922525   3    2   -4    1000004
    0.0032843318   3    2    4   -1000004
    0.0032272424   3    2    2   -1000002
    0.0032195015   3    2    3   -1000003
    0.0031991816   3    2    1   -1000001
    0.0020520482   3    2    11   -2000011
    0.0020381145   3    2    13   -2000013
    0.0013479107   2    1000023    2
    0.00093943453   3    2    24   -1000024
    0.00076175597   3    2   -13    2000013
    0.00076156245   3    2   -11    2000011
    0.00068441601   2    1000022    2
    0.0004749303   3    2    24   -1000037
    0.0004073181   3    2    23    1000023
    0.00038907853   3    2   -24    1000024
    0.00038888501   3    2    25    1000023
    0.00029531651   3    2    23    1000022
    0.00021647513   3    2    25    1000022
    0.00017409595   3    2    25    1000025
    0.00015309868   3    2   -24    1000037
    0.00014810578   3    2   -5    2000005
    0.00012463382   3    2    23    1000025
    0.00011776133   3    2    5   -2000005
    0.00011547292   3    2   -12    1000012
    0.0001141618   3    2   -11    1000011
    0.00011405052   3    2   -14    1000014
    0.00011260877   3    2   -13    1000013
    5.6058853e-05   3    2    12   -1000012
    5.5645197e-05   3    2    14   -1000014
    5.5258151e-05   3    2    13   -1000013
    5.5059789e-05   3    2    11   -1000011
    3.2175663e-05   3    2   -6    1000006
    2.8010074e-05   3    2    6   -1000006

DECAY 1000001  28.156634
    0.53865534   2   -1000037    2
    0.24790324   2    1000025    1
    0.12755171   2   -1000024    2
    0.082628239   2    1000022    1
    0.0032614592   2    1000023    1

DECAY 2000001  7.0663236e-05
    0.55501302   2    1000023    1
    0.293782   2    1000022    1
    0.15120498   2    1000025    1

DECAY 1000004  28.464942
    0.42501883   2    1000037    3
    0.24824262   2    1000025    4
    0.24209321   2    1000024    3
    0.081615507   2    1000022    4
    0.0030298302   2    1000023    4

DECAY 2000004  0.41591741
    0.31532703   3    4    1   -2000001
    0.31078286   3    4    3   -2000003
    0.14581982   3    4   -3    2000003
    0.14581501   3    4   -1    2000001
    0.023930953   3    4    5   -1000005
    0.015900513   3    4   -5    1000005
    0.0043648089   3    4   -2    1000002
    0.0043280228   3    4   -3    1000003
    0.0043155203   3    4   -4    1000004
    0.0043099903   3    4   -1    1000001
    0.0032559349   3    4    3   -1000003
    0.0032412685   3    4    4   -1000004
    0.0032306895   3    4    2   -1000002
    0.0031996737   3    4    1   -1000001
    0.0020177804   3    4    13   -2000013
    0.0020142461   3    4    11   -2000011
    0.0013773792   2    1000023    4
    0.00093549824   3    4    24   -1000024
    0.00077260532   3    4   -13    2000013
    0.00075906898   3    4   -11    2000011
    0.00069951138   2    1000022    4
    0.0004723534   3    4    24   -1000037
    0.00040486404   3    4    23    1000023
    0.00038683161   3    4   -24    1000024
    0.00038651905   3    4    25    1000023
    0.00029099528   3    4    23    1000022
    0.0002151581   3    4    25    1000022
    0.00017309206   3    4    25    1000025
    0.00015100114   3    4   -24    1000037
    0.00014421373   3    4   -5    2000005
    0.00012364714   3    4    23    1000025
    0.00011868222   3    4    5   -2000005
    0.00011410679   3    4   -14    1000014
    0.00011322921   3    4   -11    1000011
    0.00011306091   3    4   -12    1000012
    0.00011220737   3    4   -13    1000013
    5.6181828e-05   3    4    14   -1000014
    5.5717793e-05   3    4    12   -1000012
    5.5085456e-05   3    4    13   -1000013
    5.4871471e-05   3    4    11   -1000011
    3.2138593e-05   3    4   -6    1000006
    2.7863705e-05   3    4    6   -1000006

DECAY 1000003  28.396583
    0.5385845   2   -1000037    4
    0.24787346   2    1000025    3
    0.12761077   2   -1000024    4
    0.082668836   2    1000022    3
    0.0032624351   2    1000023    3

DECAY 2000003  6.7949136e-05
    0.55502548   2    1000023    3
    0.29384406   2    1000022    3
    0.15113046   2    1000025    3

DECAY 1000011  19.079949
    0.53535885   2   -1000037    12
    0.24872211   2    1000025    11
    0.1302556   2   -1000024    12
    0.082799699   2    1000022    11
    0.0028637384   2    1000023    11

DECAY 2000011  0.00067800535
    0.53406767   2    1000023    11
    0.28152845   2    1000022    11
    0.084354792   3    11    24   -1000024
    0.074052513   3    11   -24    1000024
    0.0064810698   3    11    23    1000022
    0.0049810816   3    11    24   -1000037
    0.0044871327   3    11    25    1000023
    0.0042080789   3    11    23    1000023
    0.0025088298   3    11    25    1000022
    0.0020588333   3    11    25    1000025
    0.0007367346   3    11   -24    1000037
    0.00053474504   3    11    23    1000025
    3.4493828e-08   3    11    3   -2000003
    3.4231293e-08   3    11    1   -2000001
    2.7331643e-09   3    11   -3    2000003
    2.6906867e-09   3    11   -1    2000001

DECAY 1000013  19.079949
    0.53535886   2   -1000037    14
    0.24872211   2    1000025    13
    0.1302556   2   -1000024    14
    0.082799698   2    1000022    13
    0.0028637384   2    1000023    13

DECAY 2000013  0.00067803399
    0.5340451   2    1000023    13
    0.28151655   2    1000022    13
    0.084346804   3    13    24   -1000024
    0.074046436   3    13   -24    1000024
    0.0064807961   3    13    23    1000022
    0.0049808713   3    13    24   -1000037
    0.0045366458   3    13    25    1000023
    0.0042076062   3    13    23    1000023
    0.0025088713   3    13    25    1000022
    0.0020594838   3    13    25    1000025
    0.00073601031   3    13   -24    1000037
    0.00053475196   3    13    23    1000025
    3.4557265e-08   3    13    1   -2000001
    3.3780018e-08   3    13    3   -2000003
    2.7131383e-09   3    13   -3    2000003
    2.696325e-09   3    13   -1    2000001

DECAY 1000015  40.236731
    0.53522613   2   -1000037    16
    0.24917658   2    1000025    15
    0.12533135   2   -1000024    16
    0.08326477   2    1000022    15
    0.0070011712   2    1000023    15

DECAY 2000015  1.3216281
    0.38486171   2    1000035    15
    0.24861068   2   -1000024    16
    0.15072793   2    1000023    15
    0.13110922   2    1000022    15
    0.057765021   2   -1000037    16
    0.026821331   2    1000025    15
    5.1001602e-05   2    1000016   -24
    2.7320928e-05   2    1000015    25
    2.5779586e-05   2    1000015    23

DECAY 1000012  19.163311
    0.42123464   2    1000037    11
    0.24641301   2    1000024    11
    0.2440141   2    1000025    12
    0.084813817   2    1000022    12
    0.0035244266   2    1000023    12

DECAY 1000014  19.163311
    0.42123464   2    1000037    13
    0.24641301   2    1000024    13
    0.2440141   2    1000025    14
    0.084813818   2    1000022    14
    0.0035244266   2    1000023    14

DECAY 1000016  40.272492
    0.42467964   2    1000037    15
    0.24517095   2    1000024    15
    0.24486892   2    1000025    16
    0.081844116   2    1000022    16
    0.0034363701   2    1000023    16

DECAY 1000024  4.3732725e-09
    0.35234791   3    1000022    2   -1
    0.35234791   3    1000022    4   -3
    0.11750484   3    1000022   -11    12
    0.11750484   3    1000022   -13    14
    0.06029451   3    1000022   -15    16

DECAY 1000037  0.21488178
    0.69317907   2    1000022    24
    0.30682093   2    1000024    23

DECAY 1000022 -1


DECAY 1000023  6.3493248e-05
    0.087957221   3    1000024   -2    1
    0.087957221   3   -1000024   -1    2
    0.087957221   3    1000024   -4    3
    0.087957221   3   -1000024   -3    4
    0.070980015   3    1000022   -1    1
    0.070980015   3    1000022   -3    3
    0.059035388   3    1000022   -5    5
    0.054734046   3    1000022   -2    2
    0.054734046   3    1000022   -4    4
    0.032550057   3    1000022   -12    12
    0.032550057   3    1000022   -14    14
    0.032544011   3    1000022   -16    16
    0.029320912   3    1000024   -12    11
    0.029320912   3   -1000024    12   -11
    0.029320912   3    1000024   -14    13
    0.029320912   3   -1000024    14   -13
    0.028762995   3    1000024   -16    15
    0.028762995   3   -1000024    16   -15
    0.016713841   2    1000022    22
    0.016275214   3    1000022   -11    11
    0.016275214   3    1000022   -13    13
    0.015989576   3    1000022   -15    15

DECAY 1000025  0.29803599
    0.49119872   2    1000024   -24
    0.49119872   2   -1000024    24
    0.017602563   2    1000022    23

DECAY 1000035  70.276862
    0.11204332   2    2000011   -11
    0.11204332   2   -2000011    11
    0.11204332   2    2000013   -13
    0.11204332   2   -2000013    13
    0.03626552   2    2000001   -1
    0.03626552   2   -2000001    1
    0.03626552   2    2000003   -3
    0.03626552   2   -2000003    3
    0.019589576   2    1000012   -12
    0.019589576   2   -1000012    12
    0.019589576   2    1000014   -14
    0.019589576   2   -1000014    14
    0.019515285   2    1000011   -11
    0.019515285   2   -1000011    11
    0.019515285   2    1000013   -13
    0.019515285   2   -1000013    13
    0.019022227   2    1000005   -5
    0.019022227   2   -1000005    5
    0.017526968   2    1000024   -24
    0.017526968   2   -1000024    24
    0.017467689   2    1000023    25
    0.013274264   2    1000023    23
    0.01199227   2    2000002   -2
    0.01199227   2   -2000002    2
    0.011992215   2    2000004   -4
    0.011992215   2   -2000004    4
    0.0111159   2    1000037   -24
    0.0111159   2   -1000037    24
    0.011005487   2    1000022    23
    0.0084252745   2    1000022    25
    0.0058311387   2    1000025    25
    0.0051621233   2    1000025    23
    0.0030284482   2    1000001   -1
    0.0030284482   2   -1000001    1
    0.0030284482   2    1000003   -3
    0.0030284482   2   -1000003    3
    0.0030126468   2    1000002   -2
    0.0030126468   2   -1000002    2
    0.0030126446   2    1000004   -4
    0.0030126446   2   -1000004    4
    0.0025932624   2    1000023    36
    0.0024680904   2    1000024   -37
    0.0024680904   2   -1000024    37
    0.0022451645   2    1000006   -6
    0.0022451645   2   -1000006    6
    0.0021803557   2    1000022    35
    0.0016613728   2    2000005   -5
    0.0016613728   2   -2000005    5
    0.00056766204   2    1000037   -37
    0.00056766204   2   -1000037    37
    0.00048905807   2    1000025    35
    0.00043547863   2    1000022    36
    0.00042598005   2    1000016   -16
    0.00042598005   2   -1000016    16
    0.00042002763   2    1000015   -15
    0.00042002763   2   -1000015    15
    0.00040303424   2    1000023    35
    3.7890046e-05   2    1000025    36

DECAY 25  0.0043788418
    0.54830677   2    5   -5
    0.25557785   2    24   -24
    0.077549002   2    21    21
    0.060676006   2   -15    15
    0.033178103   2    23    23
    0.02014378   2    4   -4
    0.0023218648   2    22    22
    0.0017984006   2    22    23
    0.0002334655   2    3   -3
    0.00021476128   2   -13    13

DECAY 35  39.635737
    0.20162098   2    1000024   -1000024
    0.14627953   2    1000024   -1000037
    0.14627953   2    1000037   -1000024
    0.099367676   2    1000037   -1000037
    0.091030678   2    1000023    1000025
    0.077335782   2    1000022    1000022
    0.060360834   2    1000022    1000025
    0.060252493   2    6   -6
    0.050712243   2    1000025    1000025
    0.041866384   2    5   -5
    0.014838502   2    1000022    1000023
    0.007703116   2   -15    15
    0.0021178579   2    1000023    1000023
    0.00011055286   2    25    25
    2.9362534e-05   2    21    21
    2.881679e-05   2    24   -24
    2.7297126e-05   2   -13    13
    1.7501827e-05   2    3   -3
    1.4375711e-05   2    23    23
    2.1576678e-06   2    2000011   -2000011
    2.1576678e-06   2    2000013   -2000013
    7.4676995e-07   2    2000001   -2000001
    7.4676995e-07   2    2000003   -2000003
    6.133789e-07   2    4   -4
    4.5355712e-08   2    23    22
    1.015715e-08   2    22    22

DECAY 36  39.646231
    0.20234526   2    1000024   -1000037
    0.20234526   2    1000037   -1000024
    0.1450654   2    1000024   -1000024
    0.14371972   2    1000023    1000025
    0.060463023   2    6   -6
    0.048506254   2    1000022    1000022
    0.04376387   2    1000037   -1000037
    0.042479384   2    1000022    1000025
    0.041881317   2    5   -5
    0.033060214   2    1000022    1000023
    0.024585382   2    1000025    1000025
    0.0077015035   2   -15    15
    0.0039532335   2    1000023    1000023
    5.5500957e-05   2    21    21
    2.917255e-05   2    23    25
    2.7291369e-05   2   -13    13
    1.7522831e-05   2    3   -3
    6.1560485e-07   2    4   -4
    6.966528e-08   2    23    22
    1.4225194e-09   2    22    22

DECAY 37  39.570184
    0.32240624   2    1000037    1000022
    0.27530805   2    1000024    1000025
    0.21356691   2    1000037    1000023
    0.10176358   2    6   -5
    0.078529734   2    1000024    1000023
    0.0077202096   2   -15    16
    0.00053732064   2    1000024    1000022
    7.1084846e-05   2    4   -5
    2.9292193e-05   2    24    25
    2.7357657e-05   2   -13    14
    2.0766946e-05   2    1000037    1000025
    1.7865177e-05   2    4   -3
    8.775897e-07   2    2   -3
    7.1083765e-07   2    2   -5
    2.4268627e-13   2    24    36

DECAY 5 -1


DECAY 15 -1


DECAY 23  2.4952


DECAY 24  2.085
