BLOCK SPINFO
   1   SPheno
   2   v4.0.5be

BLOCK SPHENOINFO
   1   2
   2   2

BLOCK MODSEL
   1   0

BLOCK MINPAR
   3    13.623615
   4    1

BLOCK EXTPAR
   0    3476.6227
   1   -553.23386
   2   -533.5272
   3    3923.4991
   11   -2872.5053
   12    7008.5362
   13   -168.92289
   23    4882.4386
   25    12.98618
   26    544.90197
   31    669.65569
   32    669.65569
   33    3103.8222
   34    2758.7911
   35    2758.7911
   36    2228.4098
   41    2490.1785
   42    2490.1785
   43    2263.9505
   44    469.07283
   45    469.07283
   46    4946.348
   47    4497.6535
   48    4497.6535
   49    1293.7934

BLOCK SMINPUTS
   1    127.90897
   2    1.1663787e-05
   3    0.1184
   4    91.1876
   5    4.18
   6    173.2
   7    1.777
   8    0
   11    0.00051099893
   12    0
   13    0.10565837
   14    0
   21    0.005
   22    0.0025
   23    0.095
   24    1.27

BLOCK GAUGE Q=  3476.6227
   1    0.35536298
   2    0.66519887
   3    1.219778

BLOCK YU Q=  3476.6227
   1   1    8.4091941e-06
   2   2    0.0042718706
   3   3    1.0158982

BLOCK YD Q=  3476.6227
   1   1    0.00021944013
   2   2    0.0041693625
   3   3    0.21761585

BLOCK YE Q=  3476.6227
   1   1    3.8293907e-05
   2   2    0.0079179655
   3   3    0.13316716

BLOCK AU Q=  3476.6227
   1   1    0
   2   2    0
   3   3   -2872.5053

BLOCK AD Q=  3476.6227
   1   1    0
   2   2    0
   3   3    7008.5456

BLOCK AE Q=  3476.6227
   1   1    0
   2   2    0
   3   3   -168.92289

BLOCK MSOFT Q=  3476.6227
   1   -553.23386
   2   -533.5272
   3    3923.4991
   21   -23649151
   22   -23692496
   31    669.65569
   32    669.65569
   33    3103.8222
   34    2758.7911
   35    2758.7911
   36    2228.4098
   41    2490.1785
   42    2490.1785
   43    2263.9505
   44    469.07283
   45    469.07283
   46    4946.348
   47    4497.6535
   48    4497.6535
   49    1293.7934

BLOCK MASS
   6    173.2
   23    91.1876
   24    80.429995
   15    1.777
   25    120.65843
   35    544.98322
   36    544.90197
   37    550.83913
   1000001    2651.0637
   2000001    4599.6962
   1000002    2649.8622
   2000002    818.98683
   1000003    2651.0628
   2000003    4599.6957
   1000004    2649.8614
   2000004    818.98374
   1000005    1472.7606
   2000005    2421.1331
   1000006    2420.9241
   2000006    4992.6825
   1000011    696.24594
   2000011    2753.812
   1000012    691.49016
   1000013    696.23194
   2000013    2753.8055
   1000014    691.48318
   1000015    2219.0797
   2000015    3113.5645
   1000016    3111.7194
   1000021    4023.6732
   1000022   -542.3658
   1000023   -562.17443
   1000025    4866.0117
   1000035   -4866.0577
   1000024    562.36739
   1000037    4866.765

BLOCK ALPHA
      -0.077845639

BLOCK HMIX Q=  3476.6227
   1    4882.4386
   2    12.98618
   3    243.12198
   4    296918.16

BLOCK STOPMIX
   1   1    0.99970129
   1   2    0.024440401
   2   1   -0.024440401
   2   2    0.99970129

BLOCK SBOTMIX
   1   1    0.029267506
   1   2    0.99957162
   2   1   -0.99957162
   2   2    0.029267506

BLOCK STAUMIX
   1   1    0.023638035
   1   2    0.99972058
   2   1   -0.99972058
   2   2    0.023638035

BLOCK NMIX
   1   1   -0.99995725
   1   2   -0.00191786
   1   3   -0.0090412086
   1   4   -0.00029456418
   2   1    0.0017725487
   2   2   -0.99986971
   2   3    0.016035632
   2   4    0.00052892827
   3   1    0.0062051395
   3   2   -0.010953648
   3   3   -0.70700203
   3   4    0.70709946
   4   1   -0.0066228939
   4   2    0.011700539
   4   3    0.70697188
   4   4    0.70711384

BLOCK UMIX
   1   1   -0.99974344
   1   2    0.022650758
   2   1   -0.022650758
   2   2   -0.99974344

BLOCK VMIX
   1   1    0.99999972
   1   2    0.00074789303
   2   1    0.00074789303
   2   2   -0.99999972

BLOCK HIGGSBOUNDSINPUTHIGGSCOUPLINGSFERMIONS
       0, 168.64088,3,36,15,15

BLOCK HIGGSBOUNDSINPUTHIGGSCOUPLINGSBOSONS
       0,4,36,21,21,23

BLOCK SPHENOLOWENERGY
   1    0.0004001853
   2    1.5894991e-06
   3    3.5281999e-05
   4    2.453506e-15
   5    1.0481097e-10
   6    2.1940501e-08
   7    8.2406041e-14
   8    3.5203831e-09
   9    7.4669401e-07
   10    9.3385424e-05
   11    0.96463568
   12    0.54229842
   13    19.363134
   14    0
   15    0
   16    0.0021587987
   17    2.2816782e-15
   18    2.4820704e-11
   19    8.2952222e-11
   20   -2.2561688e-15
   21   -9.6454258e-11
   22   -5.8515889e-09
   23    0
   24    0
   25    0
   26    0
   27    0
   28    0
   29    0
   30    0
   31    0
   39    3.3932712e-05
   40    0
   41    0
   42    0

BLOCK FWCOEF Q=  160
   305   4422   0   0   -0.18881911
   305   4422   0   2   -0.26687569
   305   4322   0   2   -0.0015297149
   305   6421   0   0   -0.095227835
   305   6421   0   2   -0.18064836
   305   6321   0   2   -0.0016743692
   3051111   4133   0   0    1.6213672
   3051111   4133   0   2    1.6215002
   3051111   4233   0   2   -3.6095923e-05
   3051111   4137   0   0   -4.4440593
   3051111   4137   0   2   -4.445196
   3051111   4237   0   2    0.00026993704
   3051313   4133   0   0    1.6213672
   3051313   4133   0   2    1.6215001
   3051313   4233   0   2   -3.6097277e-05
   3051313   4137   0   0   -4.4440593
   3051313   4137   0   2   -4.4451961
   3051313   4237   0   2    0.00026993839
   3051212   4137   0   0    1.5053501
   3051212   4137   0   2    1.505614
   3051212   4237   0   2   -5.844408e-05
   3051414   4137   0   0    1.5053501
   3051414   4137   0   2    1.505614
   3051414   4237   0   2   -5.8443787e-05
   3051616   4137   0   0    1.5053501
   3051616   4137   0   2    1.5056127
   3051616   4237   0   2   -5.8360687e-05

BLOCK IMFWCOEF Q=  160
   305   4422   0   0    3.8584122e-07
   305   4422   0   2    9.0816492e-07
   305   4322   0   2    4.8629812e-07
   305   6421   0   0    3.3049852e-07
   305   6421   0   2   -4.3838328e-06
   305   6321   0   2    2.0343891e-07
   3051111   4133   0   2   -8.5281988e-07
   3051111   4233   0   2    3.0622525e-07
   3051111   4137   0   2    4.7014374e-06
   3051111   4237   0   2   -2.2744711e-06
   3051313   4133   0   2   -8.5279967e-07
   3051313   4233   0   2    3.0622523e-07
   3051313   4137   0   2    4.7014183e-06
   3051313   4237   0   2   -2.2744712e-06
   3051212   4137   0   2   -6.8959276e-07
   3051212   4237   0   2    4.9235044e-07
   3051414   4137   0   2   -6.895928e-07
   3051414   4237   0   2    4.9235044e-07
   3051616   4137   0   2   -7.1276421e-07
   3051616   4237   0   2    4.9235922e-07

DECAY 23  2.4952


DECAY 24  2.085


DECAY 1000011  1.246759
    0.59367178   2   -1000024    12
    0.2971125   2    1000023    11
    0.10921572   2    1000022    11

DECAY 2000011  12.783209
    0.99999687   2    1000022    11

DECAY 1000013  1.2465493
    0.5936701   2   -1000024    14
    0.29711154   2    1000023    13
    0.10921835   2    1000022    13

DECAY 2000013  12.788301
    0.99959591   2    1000022    13
    0.00039184947   2    1000013    25

DECAY 1000015  9.8738191
    0.9979357   2    1000022    15
    0.0013743284   2   -1000024    16
    0.00068997082   2    1000023    15

DECAY 2000015  43.443958
    0.58965007   2   -1000024    16
    0.29435989   2    1000023    15
    0.085370859   2    1000022    15
    0.015472652   2    1000015    23
    0.015102441   2    1000015    25

DECAY 1000012  1.1760072
    0.59342662   2    1000024    11
    0.29799546   2    1000023    12
    0.10857792   2    1000022    12

DECAY 1000014  1.1759045
    0.59342568   2    1000024    13
    0.29799502   2    1000023    14
    0.1085793   2    1000022    14

DECAY 1000016  43.463448
    0.58976005   2    1000024    15
    0.29536925   2    1000023    16
    0.083938847   2    1000022    16
    0.030889522   2    1000015    24

DECAY 1000001  32.252687
    0.65958758   2   -1000024    2
    0.33010675   2    1000023    1
    0.010305664   2    1000022    1

DECAY 2000001  22.509609
    0.88907576   2    1000021    1
    0.11092382   2    1000022    1

DECAY 1000003  32.255425
    0.65953092   2   -1000024    4
    0.3300786   2    1000023    3
    0.010304787   2    1000022    3

DECAY 2000003  22.510183
    0.88905164   2    1000021    3
    0.11092098   2    1000022    3

DECAY 1000005  0.63311187
    0.97061073   2    1000022    5
    0.01932685   2   -1000024    6
    0.010062418   2    1000023    5

DECAY 2000005  42.682282
    0.44098376   2   -1000024    6
    0.22328023   2    1000023    5
    0.12615937   2    1000005    36
    0.12584024   2    1000005    35
    0.052902615   2    1000005    25
    0.023851399   2    1000005    23
    0.0069823823   2    1000022    5

DECAY 2000002  0.57645695
    0.99999721   2    1000022    2

DECAY 1000002  32.247416
    0.65967813   2    1000024    1
    0.32956647   2    1000023    2
    0.010755403   2    1000022    2

DECAY 2000004  0.57643727
    0.99999721   2    1000022    4

DECAY 1000004  32.250176
    0.65962146   2    1000024    3
    0.32953795   2    1000023    4
    0.010754472   2    1000022    4

DECAY 1000006  41.632481
    0.45787059   2    1000024    5
    0.25827768   2    1000005    37
    0.22613974   2    1000023    6
    0.04905155   2    1000005    24
    0.0075029065   2    1000022    6
    0.0011574138   3    1000022    24    5

DECAY 2000006  240.84912
    0.27434219   2    2000005    37
    0.19551477   2    1000021    6
    0.13746707   2    1000006    36
    0.13695232   2    1000006    35
    0.093726061   2    2000005    24
    0.068428986   2    1000006    25
    0.046860658   2    1000006    23
    0.045063643   2    1000022    6
    0.0010548596   2    1000037    5
    0.0002780462   2    1000005    37
    0.00013676067   2    1000005    24
    0.0001164209   2    1000024    5

DECAY 1000024  5.4078287e-10
    0.36747083   3    1000022   -13    14
    0.36745375   3    1000022   -11    12
    0.11518128   3    1000022   -1    2
    0.11296345   3    1000022   -3    4
    0.036929504   3    1000022   -15    16

DECAY 1000037  164.75275
    0.51233975   2   -2000005    6
    0.065589996   2    1000024    35
    0.065563468   2    1000024    36
    0.062588084   2    1000024    25
    0.0609825   2    37    1000023
    0.058680046   2    1000024    23
    0.05857301   2    1000023    24
    0.03563081   2   -1000005    6
    0.023948541   2    1000006   -5
    0.019007413   2    1000022    24
    0.017550906   2    37    1000022
    0.0076136877   3    1000024    6   -6
    0.0048446   3    1000023   -5    6
    0.0032483554   2   -1000015    16
    0.0018203096   2    1000016   -15
    0.0015801555   3    1000022   -5    6
    0.00010689376   2   -1000003    4

DECAY 1000022 -1


DECAY 1000023  1.0369283e-09
    0.51386148   3    1000022    12   -12
    0.24243378   3    1000022    11   -11
    0.24242151   3    1000022    13   -13
    0.00042023136   2    1000022    22
    0.0001734601   3    1000022    1   -1
    0.00017343591   3    1000022    3   -3
    0.00015348348   3    1000022    2   -2
    0.00015294814   3    1000022    5   -5
    0.00014681851   3    1000022    4   -4

DECAY 1000025  168.16627
    0.25276219   2    1000006   -6
    0.25276219   2   -1000006    6
    0.06418991   2    37   -1000024
    0.06418991   2   -37    1000024
    0.05751324   2    1000024   -24
    0.05751324   2   -1000024    24
    0.045174934   2    1000023    25
    0.032291191   2    1000023    35
    0.030713112   2    1000023    23
    0.027540847   2    1000023    36
    0.016825778   2    1000005   -5
    0.016825778   2   -1000005    5
    0.012696913   2    1000022    25
    0.01161392   2    2000005   -5
    0.01161392   2   -2000005    5
    0.0097831812   2    1000022    23
    0.0090751043   2    1000022    35
    0.0078706155   2    1000022    36
    0.0043954695   3    1000024    5   -6
    0.0043954695   3   -1000024   -5    6
    0.0040328925   3    1000023    6   -6
    0.0015968291   2    1000015   -15
    0.0015968291   2   -1000015    15
    0.00098972724   3    1000022    6   -6
    0.00089402828   2    2000015   -15
    0.00089402828   2   -2000015    15

DECAY 1000035  164.71883
    0.25896093   2    1000006   -6
    0.25896093   2   -1000006    6
    0.061051879   2    37   -1000024
    0.061051879   2   -37    1000024
    0.058710283   2    1000024   -24
    0.058710283   2   -1000024    24
    0.045068886   2    1000023    35
    0.033742916   2    1000023    25
    0.027476693   2    1000023    23
    0.020645131   2    1000023    36
    0.017173785   2    1000005   -5
    0.017173785   2   -1000005    5
    0.01266619   2    1000022    35
    0.011860416   2    2000005   -5
    0.011860416   2   -2000005    5
    0.0094838594   2    1000022    25
    0.0087664564   2    1000022    23
    0.0058999066   2    1000022    36
    0.0052378844   3    1000024    5   -6
    0.0052378844   3   -1000024   -5    6
    0.0039209823   3    1000023    6   -6
    0.0016300107   2    1000015   -15
    0.0016300107   2   -1000015    15
    0.00097189105   3    1000022    6   -6
    0.00091308439   2    2000015   -15
    0.00091308439   2   -2000015    15

DECAY 1000021  557.34681
    0.098176467   2    2000004   -4
    0.098176467   2   -2000004    4
    0.098176404   2    2000002   -2
    0.098176404   2   -2000002    2
    0.080123538   2    1000005   -5
    0.080123538   2   -1000005    5
    0.043489814   2    2000005   -5
    0.043489814   2   -2000005    5
    0.043060365   2    1000006   -6
    0.043060365   2   -1000006    6
    0.034263701   2    1000004   -4
    0.034263701   2   -1000004    4
    0.03426368   2    1000002   -2
    0.03426368   2   -1000002    2
    0.034216126   2    1000003   -3
    0.034216126   2   -1000003    3
    0.03421609   2    1000001   -1
    0.03421609   2   -1000001    1

DECAY 25  0.0036319192
    0.65309771   2   -5    5
    0.15132531   2   -24    24
    0.076543102   2   -15    15
    0.06913093   2    21    21
    0.029381706   2   -4    4
    0.0167845   2    23    23
    0.0021656681   2    22    22
    0.0010578586   2    22    23
    0.00026534462   2   -13    13
    0.00024702778   2   -3    3
    6.830006e-07   2   -1    1
    1.5142487e-07   2   -2    2
    5.9653057e-09   2   -11    11

DECAY 35  1.1234041
    0.75693826   2   -5    5
    0.19104172   2   -15    15
    0.047688728   2   -6    6
    0.0016737844   2    25    25
    0.00092841334   2   -24    24
    0.0006550163   2   -13    13
    0.00044701194   2    23    23
    0.00036091072   2   -3    3
    0.00026400952   2    21    21
    9.977805e-07   2   -1    1
    5.3164503e-07   2    22    22
    4.9397009e-07   2   -4    4
    1.03413e-07   2    22    23
    1.471897e-08   2   -11    11
    2.5480383e-12   2   -2    2

DECAY 36  1.1307246
    0.74464708   2   -5    5
    0.18785736   2   -15    15
    0.06524468   2   -6    6
    0.00076527386   2    23    25
    0.00064407558   2   -13    13
    0.00048388998   2    21    21
    0.00035493789   2   -3    3
    1.0616136e-06   2    22    22
    9.8126791e-07   2   -1    1
    3.5233333e-07   2   -4    4
    2.8942985e-07   2    22    23
    1.4473121e-08   2   -11    11
    1.816883e-12   2   -2    2
    3.4416692e-34   2    25    25

DECAY 37  0.98339807
    0.78867565   2   -5    6
    0.2079058   2   -15    16
    0.0011879348   2   -5    4
    0.00093455557   2    24    25
    0.00073503595   2   -13    14
    0.00035765161   2   -3    4
    0.00016968088   2   -3    6
    1.6290153e-05   2   -3    2
    8.4831479e-06   2   -5    2
    7.7631292e-06   2   -1    6
    9.8706124e-07   2   -1    2
    1.3186465e-07   2   -1    4
    1.7192569e-08   2   -11    12
    1.008457e-08   2    24    36
    9.4143026e-09   2    24    35

DECAY 6  2.43
    1   2    5    24

DECAY 15 -1
