BLOCK SPINFO
   1   SPheno
   2   v4.0.5be

BLOCK SPHENOINFO
   1   2
   2   2

BLOCK MODSEL
   1   0

BLOCK MINPAR
   3    8.4100995
   4    1

BLOCK EXTPAR
   0    3715.6712
   1    1292.2399
   2    1922.7175
   3    1489.8276
   11   -6208.5687
   12   -2667.9004
   13   -4564.8035
   23    1274.9644
   25    7.9934339
   26    2689.9616
   31    2038.7248
   32    2038.7248
   33    3912.2674
   34    3148.3808
   35    3148.3808
   36    3341.5548
   41    4441.0416
   42    4441.0416
   43    3233.2607
   44    1291.8447
   45    1291.8447
   46    4352.2254
   47    2886.2194
   48    2886.2194
   49    1645.9181

BLOCK SMINPUTS
   1    127.90897
   2    1.1663787e-05
   3    0.1184
   4    91.1876
   5    4.18
   6    173.2
   7    1.777
   8    0
   11    0.00051099893
   12    0
   13    0.10565837
   14    0
   21    0.005
   22    0.0025
   23    0.095
   24    1.27

BLOCK GAUGE Q=  3715.6712
   1    0.35536298
   2    0.66519887
   3    1.219778

BLOCK YU Q=  3715.6712
   1   1    8.449728e-06
   2   2    0.0042924618
   3   3    1.020795

BLOCK YD Q=  3715.6712
   1   1    0.00013572391
   2   2    0.0025787543
   3   3    0.13459559

BLOCK YE Q=  3715.6712
   1   1    2.3684815e-05
   2   2    0.0048972685
   3   3    0.082364

BLOCK AU Q=  3715.6712
   1   1    0
   2   2    0
   3   3   -6208.5743

BLOCK AD Q=  3715.6712
   1   1    0
   2   2    0
   3   3   -2667.899

BLOCK AE Q=  3715.6712
   1   1    0
   2   2    0
   3   3   -4564.802

BLOCK MSOFT Q=  3715.6712
   1    1292.2399
   2    1922.7175
   3    1489.8276
   21    5366663.2
   22   -1289389.1
   31    2038.7248
   32    2038.7248
   33    3912.2674
   34    3148.3808
   35    3148.3808
   36    3341.5548
   41    4441.0416
   42    4441.0416
   43    3233.2607
   44    1291.8447
   45    1291.8447
   46    4352.2254
   47    2886.2194
   48    2886.2194
   49    1645.9181

BLOCK MASS
   6    173.2
   23    91.1876
   24    80.429995
   15    1.777
   25    124.39238
   35    2690.0701
   36    2689.9616
   37    2691.4889
   1000001    4508.24
   2000001    2941.6839
   1000002    4507.6496
   2000002    1414.7624
   1000003    4508.2395
   2000003    2941.6835
   1000004    4507.649
   2000004    1414.762
   1000005    1735.6017
   2000005    3247.3649
   1000006    3233.7345
   2000006    4269.4329
   1000011    2065.5971
   2000011    3149.824
   1000012    2063.7105
   1000013    2065.5958
   2000013    3149.8219
   1000014    2063.7094
   1000015    3342.3075
   2000015    3926.0858
   1000016    3924.8694
   1000021    1746.0065
   1000022    1243.9695
   1000023   -1295.1133
   1000025    1315.7397
   1000035    1981.4674
   1000024    1289.1602
   1000037    1981.4813

BLOCK ALPHA
      -0.11871951

BLOCK HMIX Q=  3715.6712
   1    1274.9644
   2    7.9934339
   3    242.98972
   4    7235893.5

BLOCK STOPMIX
   1   1    0.99363269
   1   2    0.11266799
   2   1   -0.11266799
   2   2    0.99363269

BLOCK SBOTMIX
   1   1    0.0036880746
   1   2    0.9999932
   2   1   -0.9999932
   2   2    0.0036880746

BLOCK STAUMIX
   1   1    0.0062194954
   1   2    0.99998066
   2   1   -0.99998066
   2   2    0.0062194954

BLOCK NMIX
   1   1    0.77931613
   1   2   -0.052683156
   1   3    0.44805051
   1   4   -0.43490412
   2   1   -0.010503857
   2   2    0.014933567
   2   3    0.70662439
   2   4    0.70735326
   3   1    0.62652083
   3   2    0.074145084
   3   3   -0.54502286
   3   4    0.55219946
   4   1   -0.0052621474
   4   2    0.99574293
   4   3    0.053691627
   4   4   -0.074736462

BLOCK UMIX
   1   1   -0.075891904
   1   2    0.99711605
   2   1    0.99711605
   2   2    0.075891904

BLOCK VMIX
   1   1   -0.10562768
   1   2    0.99440575
   2   1    0.99440575
   2   2    0.10562768

BLOCK HIGGSBOUNDSINPUTHIGGSCOUPLINGSFERMIONS
       0, 63.894986,3,36,15,15

BLOCK HIGGSBOUNDSINPUTHIGGSCOUPLINGSBOSONS
       0,4,36,21,21,23

BLOCK SPHENOLOWENERGY
   1    0.00032463353
   2    1.590868e-06
   3    3.5277079e-05
   4    2.5763862e-15
   5    1.1006029e-10
   6    2.3039664e-08
   7    8.6501661e-14
   8    3.695348e-09
   9    7.8380572e-07
   10    9.6751397e-05
   11    0.99940489
   12    0.54210432
   13    19.369747
   14    0
   15    0
   16    0.0021577522
   17    2.2816631e-15
   18    2.4815421e-11
   19    8.2941642e-11
   20    4.9074786e-16
   21    2.0980953e-11
   22    3.1877261e-09
   23    0
   24    0
   25    0
   26    0
   27    0
   28    0
   29    0
   30    0
   31    0
   39   -8.9602943e-05
   40    0
   41    0
   42    0

BLOCK FWCOEF Q=  160
   305   4422   0   0   -0.18881911
   305   4422   0   2   -0.19210443
   305   4322   0   2   -9.0563296e-05
   305   6421   0   0   -0.095227835
   305   6421   0   2   -0.1053618
   305   6321   0   2   -0.00020256054
   3051111   4133   0   0    1.6236392
   3051111   4133   0   2    1.6240781
   3051111   4233   0   2    2.2966615e-05
   3051111   4137   0   0   -4.4463313
   3051111   4137   0   2   -4.4470494
   3051111   4237   0   2   -0.00016870452
   3051313   4133   0   0    1.6236392
   3051313   4133   0   2    1.6240781
   3051313   4233   0   2    2.2966613e-05
   3051313   4137   0   0   -4.4463313
   3051313   4137   0   2   -4.4470494
   3051313   4237   0   2   -0.00016870453
   3051212   4137   0   0    1.5053501
   3051212   4137   0   2    1.5055123
   3051212   4237   0   2    3.6505055e-05
   3051414   4137   0   0    1.5053501
   3051414   4137   0   2    1.5055123
   3051414   4237   0   2    3.6505056e-05
   3051616   4137   0   0    1.5053501
   3051616   4137   0   2    1.5055126
   3051616   4237   0   2    3.6505072e-05

BLOCK IMFWCOEF Q=  160
   305   4422   0   0    3.8583393e-07
   305   4422   0   2    1.4356614e-05
   305   4322   0   2    1.1919735e-06
   305   6421   0   0    3.3049228e-07
   305   6421   0   2   -3.5157721e-05
   305   6321   0   2    9.0606382e-09
   3051111   4133   0   2    1.5663149e-07
   3051111   4233   0   2    4.4885462e-07
   3051111   4137   0   2    1.8373529e-06
   3051111   4237   0   2   -3.3006884e-06
   3051313   4133   0   2    1.5663041e-07
   3051313   4233   0   2    4.488546e-07
   3051313   4137   0   2    1.8373532e-06
   3051313   4237   0   2   -3.3006884e-06
   3051212   4137   0   2   -2.7741016e-07
   3051212   4237   0   2    7.1421844e-07
   3051414   4137   0   2   -2.774102e-07
   3051414   4237   0   2    7.1421844e-07
   3051616   4137   0   2   -2.7074242e-07
   3051616   4237   0   2    7.1421777e-07

DECAY 23  2.4952


DECAY 24  2.085


DECAY 1000011  1.2365012
    0.43403461   2    1000025    11
    0.39492627   2    1000022    11
    0.093074665   2   -1000037    12
    0.046162555   2    1000035    11
    0.031566558   2   -1000024    12
    0.00023534405   2    1000023    11

DECAY 2000011  11.082441
    0.61786884   2    1000022    11
    0.38200793   2    1000025    11
    0.00010879171   2    1000023    11

DECAY 1000013  1.2368583
    0.43399052   2    1000025    13
    0.39487736   2    1000022    13
    0.093045009   2   -1000037    14
    0.046147887   2    1000035    13
    0.031557372   2   -1000024    14
    0.00038184817   2    1000023    13

DECAY 2000013  11.084574
    0.61776838   2    1000022    13
    0.38196161   2    1000025    13
    0.00015551769   2    1000023    13

DECAY 1000015  12.932513
    0.59081838   2    1000022    15
    0.37117579   2    1000025    15
    0.025319168   2   -1000024    16
    0.012657087   2    1000023    15

DECAY 2000015  33.284891
    0.57347179   2   -1000037    16
    0.28436612   2    1000035    15
    0.072230088   2    1000025    15
    0.057971747   2    1000022    15
    0.0063621136   2    1000023    15
    0.0046643684   2   -1000024    16
    0.00048080473   2    1000015    23
    0.00045297029   2    1000015    25

DECAY 1000012  1.2687361
    0.63833682   2    1000022    12
    0.17121692   2    1000025    12
    0.086371974   2    1000037    11
    0.059402388   2    1000024    11
    0.043561519   2    1000035    12
    0.0011103695   2    1000023    12

DECAY 1000014  1.2690927
    0.6381563   2    1000022    14
    0.17116846   2    1000025    14
    0.086345516   2    1000037    13
    0.059671534   2    1000024    13
    0.043548138   2    1000035    14
    0.0011100553   2    1000023    14

DECAY 1000016  33.297206
    0.56974171   2    1000037    15
    0.28722658   2    1000035    16
    0.092348745   2    1000022    16
    0.027750727   2    1000025    16
    0.021794734   2    1000024    15
    0.00096360798   2    1000015    24
    0.00017389967   2    1000023    16

DECAY 2000001  98.498568
    0.98898199   2    1000021    1
    0.0068285305   2    1000022    1
    0.0041881318   2    1000025    1

DECAY 1000001  296.46296
    0.86724075   2    1000021    1
    0.086638849   2   -1000037    2
    0.043281834   2    1000035    1
    0.0020941313   2    1000022    1
    0.00065007368   2   -1000024    2

DECAY 2000003  98.499029
    0.98897692   2    1000021    3
    0.0068290205   2    1000022    3
    0.0041888696   2    1000025    3

DECAY 1000003  296.46485
    0.86723504   2    1000021    3
    0.086638331   2   -1000037    4
    0.043281553   2    1000035    3
    0.0020944598   2    1000022    3
    0.00065469521   2   -1000024    4

DECAY 1000005  0.44356796
    0.38032594   2    1000022    5
    0.24956719   2   -1000024    6
    0.23183896   2    1000025    5
    0.1382679   2    1000023    5

DECAY 2000005  194.9626
    0.66445084   2    1000021    5
    0.23974107   2   -1000024    6
    0.060025186   2   -1000037    6
    0.028704767   2    1000035    5
    0.0028071791   2    1000022    5
    0.002136418   2    1000023    5
    0.0013336765   2    1000025    5
    0.00050635582   2    1000005    25
    0.00029451578   2    1000005    23

DECAY 2000002  0.12140124
    0.81351269   2    1000022    2
    0.18641196   2    1000025    2

DECAY 1000002  296.44078
    0.86711186   2    1000021    2
    0.086152846   2    1000037    1
    0.043111387   2    1000035    2
    0.0019317325   2    1000025    2
    0.0012591691   2    1000024    1
    0.00042338956   2    1000022    2

DECAY 2000004  0.12141978
    0.81330519   2    1000022    4
    0.18644328   2    1000025    4
    0.00012993822   2    1000023    4
    0.0001215933   2    1000024    3

DECAY 1000004  296.44259
    0.86710616   2    1000021    4
    0.08615231   2    1000037    3
    0.043111141   2    1000035    4
    0.0019331213   2    1000025    4
    0.0012608399   2    1000024    3
    0.00042429387   2    1000022    4

DECAY 1000006  194.42231
    0.66339224   2    1000021    6
    0.11950288   2    1000023    6
    0.068986311   2    1000025    6
    0.05372998   2    1000037    5
    0.052679266   2    1000022    6
    0.028136528   2    1000035    6
    0.012088536   2    1000024    5
    0.00057076081   2    1000005    24
    0.00055235352   3    1000022    24    5
    0.00036092793   2    1000021    4

DECAY 2000006  497.53329
    0.46331144   2    1000021    6
    0.14124006   2    1000024    5
    0.10019504   2    2000005    24
    0.078188114   2    1000006    25
    0.073295506   2    1000023    6
    0.053632003   2    1000025    6
    0.051065216   2    1000006    23
    0.033842125   2    1000022    6
    0.0034685126   2    1000037    5
    0.0017513076   2    1000035    6

DECAY 1000024  0.00012378627
    0.33398181   3    1000022   -1    2
    0.33285261   3    1000022   -3    4
    0.11133413   3    1000022   -11    12
    0.11133363   3    1000022   -13    14
    0.11049782   3    1000022   -15    16

DECAY 1000037  16.944094
    0.25302382   2    1000023    24
    0.24516645   2    1000024    23
    0.24372405   2    1000024    25
    0.16329765   2    1000025    24
    0.082583879   2    1000022    24
    0.0042111403   3    1000024    6   -6
    0.0031547847   3    1000023   -5    6
    0.0029872357   3    1000025   -5    6
    0.001806394   3    1000022   -5    6

DECAY 1000022 -1


DECAY 1000023  0.00064014729
    0.20207363   3    1000022    12   -12
    0.15109962   3    1000022    1   -1
    0.1510945   3    1000022    3   -3
    0.14154953   3    1000022    5   -5
    0.11785536   3    1000022    2   -2
    0.1170163   3    1000022    4   -4
    0.03409927   3    1000022    11   -11
    0.034097414   3    1000022    13   -13
    0.033577711   3    1000022    15   -15
    0.017448724   2    1000022    22

DECAY 1000025  3.366243e-05
    0.11889663   3    1000024    1   -2
    0.11889663   3   -1000024   -1    2
    0.11760569   3    1000024    3   -4
    0.11760569   3   -1000024   -3    4
    0.058401298   2    1000023    22
    0.048462588   3    1000023    12   -12
    0.039632162   3    1000024    11   -12
    0.039632162   3   -1000024   -11    12
    0.039631893   3    1000024    13   -14
    0.039631893   3   -1000024   -13    14
    0.03876461   3    1000024    15   -16
    0.03876461   3   -1000024   -15    16
    0.036240419   3    1000023    1   -1
    0.036231665   3    1000023    3   -3
    0.028261659   3    1000023    2   -2
    0.026885974   3    1000023    4   -4
    0.022479559   3    1000023    5   -5
    0.0081783142   3    1000023    11   -11
    0.0081751939   3    1000023    13   -13
    0.0073495077   3    1000023    15   -15
    0.0021786633   3    1000022    4   -4
    0.0021690211   3    1000022    2   -2
    0.0015506025   3    1000022    12   -12
    0.0013542061   3    1000022    5   -5
    0.0010795493   3    1000022    3   -3
    0.0010794463   3    1000022    1   -1
    0.0002419269   3    1000022    15   -15
    0.00023956034   2    1000022    22
    0.00018948874   3    1000022    13   -13
    0.00018939019   3    1000022    11   -11

DECAY 1000035  19.441153
    0.21620983   2    1000023    23
    0.21491712   2    1000024   -24
    0.21491712   2   -1000024    24
    0.13637986   2    1000025    25
    0.13087471   2    1000023    25
    0.070578047   2    1000022    25
    0.0040966425   3    1000024    5   -6
    0.0040966425   3   -1000024   -5    6
    0.0035203501   2    1000025    23
    0.0022063957   2    1000022    23
    0.0008157319   3    1000023    6   -6
    0.00076961099   3    1000025    6   -6
    0.00054800397   3    1000022    6   -6

DECAY 1000021  12.198598
    0.24985958   2    2000002   -2
    0.24985958   2   -2000002    2
    0.24985874   2    2000004   -4
    0.24985874   2   -2000004    4
    0.00027324105   2    1000005   -5
    0.00027324105   2   -1000005    5

DECAY 25  0.0038019739
    0.5824387   2   -5    5
    0.2186123   2   -24    24
    0.072879765   2    21    21
    0.066950949   2   -15    15
    0.028728749   2   -4    4
    0.026145531   2    23    23
    0.0023454159   2    22    22
    0.0014469093   2    22    23
    0.00023221117   2   -13    13
    0.00021872012   2   -3    3
    6.0473835e-07   2   -1    1
    1.4804815e-07   2   -2    2
    5.2203727e-09   2   -11    11

DECAY 35  4.5920897
    0.46127697   2   -5    5
    0.30840369   2   -6    6
    0.086340663   2   -15    15
    0.071037624   2    1000022    1000023
    0.058800906   2    1000023    1000025
    0.0099351043   2    1000022    1000022
    0.0017581216   2   -1000024    1000024
    0.00072255236   2    1000025    1000025
    0.00066518548   2    25    25
    0.00030257046   2   -13    13
    0.00022038073   2    1000022    1000025
    0.00017518082   2   -3    3
    0.00012482841   2    23    23
    6.4769068e-05   2    21    21
    4.362061e-05   2   -24    24
    4.168596e-05   2    1000023    1000023
    4.0506568e-05   2   -1000002    1000002
    4.0485667e-05   2   -1000004    1000004
    4.0683464e-06   2   -4    4
    4.8430581e-07   2   -1    1
    3.8449855e-07   2    22    22
    2.1226514e-07   2    22    23
    6.7957578e-09   2   -11    11
    2.0973642e-11   2   -2    2

DECAY 36  4.610796
    0.45032696   2   -5    5
    0.2919318   2   -6    6
    0.11055687   2    1000022    1000022
    0.084287546   2   -15    15
    0.027806392   2    1000025    1000025
    0.022662438   2   -1000024    1000024
    0.0050936303   2    1000022    1000023
    0.0035673477   2    1000022    1000025
    0.0026637987   2    1000023    1000025
    0.00029538163   2   -13    13
    0.00025706909   2    1000023    1000023
    0.00018830871   2    23    25
    0.00018497597   2    21    21
    0.00017101757   2   -3    3
    3.7810573e-06   2   -4    4
    1.2479172e-06   2    22    22
    9.6564739e-07   2    22    23
    4.727962e-07   2   -1    1
    6.6343378e-09   2   -11    11
    1.9492784e-11   2   -2    2
    3.7324545e-37   2    25    25

DECAY 37  4.653398
    0.77579337   2   -5    6
    0.085165462   2    1000024    1000025
    0.081812525   2   -15    16
    0.051190177   2    1000022    1000024
    0.0042392631   2    1000023    1000024
    0.00066615006   2   -5    4
    0.00046361036   2   -3    6
    0.00028923653   2   -13    14
    0.00018704942   2    24    25
    0.00015923923   2   -3    4
    2.1252801e-05   2   -1    6
    7.2543033e-06   2   -3    2
    4.7569534e-06   2   -5    2
    4.3028903e-07   2   -1    2
    2.1464468e-07   2   -1    4
    6.7652726e-09   2   -11    12
    2.4307466e-12   2    24    36
    1.6818637e-12   2    24    35

DECAY 6  2.43
    1   2    5    24

DECAY 15 -1
