BLOCK SPINFO
   1   SPheno
   2   v4.0.5be

BLOCK SPHENOINFO
   1   2
   2   2

BLOCK MODSEL
   1   0

BLOCK MINPAR
   3    18.639539
   4    1

BLOCK EXTPAR
   0    2750.4632
   1   -3135.9324
   2    4691.3967
   3    1596.7286
   11   -6930.5626
   12    7579.9829
   13    6182.3956
   23    968.87212
   25    17.873094
   26    2947.3018
   31    4935.385
   32    4935.385
   33    4883.7774
   34    1316.603
   35    1316.603
   36    2509.3897
   41    3225.7517
   42    3225.7517
   43    1707.955
   44    3180.1685
   45    3180.1685
   46    4314.7429
   47    4949.1677
   48    4949.1677
   49    4203.8559

BLOCK SMINPUTS
   1    127.90897
   2    1.1663787e-05
   3    0.1184
   4    91.1876
   5    4.18
   6    173.2
   7    1.777
   8    0
   11    0.00051099893
   12    0
   13    0.10565837
   14    0
   21    0.005
   22    0.0025
   23    0.095
   24    1.27

BLOCK GAUGE Q=  2750.4632
   1    0.35536298
   2    0.66519887
   3    1.219778

BLOCK YU Q=  2750.4632
   1   1    8.3974851e-06
   2   2    0.0042659224
   3   3    1.0144837

BLOCK YD Q=  2750.4632
   1   1    0.00030159854
   2   2    0.0057303723
   3   3    0.29909125

BLOCK YE Q=  2750.4632
   1   1    5.2631151e-05
   2   2    0.010882453
   3   3    0.18302495

BLOCK AU Q=  2750.4632
   1   1    0
   2   2    0
   3   3   -6930.563

BLOCK AD Q=  2750.4632
   1   1    0
   2   2    0
   3   3    7579.983

BLOCK AE Q=  2750.4632
   1   1    0
   2   2    0
   3   3    6182.3956

BLOCK MSOFT Q=  2750.4632
   1   -3135.9324
   2    4691.3967
   3    1596.7286
   21    7637423.8
   22   -1011069.8
   31    4935.385
   32    4935.385
   33    4883.7774
   34    1316.603
   35    1316.603
   36    2509.3897
   41    3225.7517
   42    3225.7517
   43    1707.955
   44    3180.1685
   45    3180.1685
   46    4314.7429
   47    4949.1677
   48    4949.1677
   49    4203.8559

BLOCK MASS
   6    173.2
   23    91.1876
   24    80.429995
   15    1.777
   25    125.46569
   35    2947.2993
   36    2947.3018
   37    2948.6775
   1000001    3293.5167
   2000001    4999.983
   1000002    3292.6648
   2000002    3232.6702
   1000003    3293.516
   2000003    4999.9819
   1000004    3292.6642
   2000004    3232.6697
   1000005    1789.6102
   2000005    4241.2756
   1000006    1775.0988
   2000006    4261.7616
   1000011    4951.9878
   2000011    1329.9424
   1000012    4950.9514
   1000013    4951.9853
   2000013    1329.9409
   1000014    4950.9496
   1000015    2520.696
   2000015    4899.0732
   1000016    4898.2892
   1000021    1858.4443
   1000022    986.02516
   1000023   -987.2119
   1000025   -3114.9696
   1000035    4652.7888
   1000024    986.71867
   1000037    4652.8583

BLOCK ALPHA
      -0.053745758

BLOCK HMIX Q=  2750.4632
   1    968.87212
   2    17.873094
   3    243.32778
   4    8686588.2

BLOCK STOPMIX
   1   1    0.99773451
   1   2    0.067274354
   2   1   -0.067274354
   2   2    0.99773451

BLOCK SBOTMIX
   1   1    0.99999896
   1   2    0.0014413149
   2   1   -0.0014413149
   2   2    0.99999896

BLOCK STAUMIX
   1   1    0.0011272765
   1   2    0.99999936
   2   1   -0.99999936
   2   2    0.0011272765

BLOCK NMIX
   1   1   -0.0078470596
   1   2   -0.016086891
   1   3    0.70728259
   1   4   -0.7067043
   2   1    0.01339493
   2   2    0.0094341322
   2   3    0.70690438
   2   4    0.70711935
   3   1    0.99987949
   3   2   -0.00015250783
   3   3   -0.003918847
   3   4   -0.015020982
   4   1    0.00010013231
   4   2   -0.99982608
   4   3   -0.0047091703
   4   4    0.018045162

BLOCK UMIX
   1   1   -0.0066611425
   1   2    0.99997781
   2   1    0.99997781
   2   2    0.0066611425

BLOCK VMIX
   1   1   -0.025523472
   1   2    0.99967422
   2   1    0.99967422
   2   2    0.025523472

BLOCK HIGGSBOUNDSINPUTHIGGSCOUPLINGSFERMIONS
       0, 319.4475,3,36,15,15

BLOCK HIGGSBOUNDSINPUTHIGGSCOUPLINGSBOSONS
       0,4,36,21,21,23

BLOCK SPHENOLOWENERGY
   1    0.00031086146
   2    1.5944441e-06
   3    3.530825e-05
   4    2.7581845e-15
   5    1.1782634e-10
   6    2.4655482e-08
   7    9.2428595e-14
   8    3.948541e-09
   9    8.37184e-07
   10    9.6601709e-05
   11    0.99785867
   12    0.54188004
   13    19.361174
   14    0
   15    0
   16    0.0021569467
   17    2.281655e-15
   18    2.4833932e-11
   19    8.2989031e-11
   20    4.0131395e-16
   21    1.715758e-11
   22    4.2142965e-09
   23    0
   24    0
   25    0
   26    0
   27    0
   28    0
   29    0
   30    0
   31    0
   39    8.6999332e-05
   40    0
   41    0
   42    0

BLOCK FWCOEF Q=  160
   305   4422   0   0   -0.18881911
   305   4422   0   2   -0.17608782
   305   4322   0   2    0.00011499441
   305   6421   0   0   -0.095227835
   305   6421   0   2   -0.094928729
   305   6321   0   2   -9.1301649e-05
   3051111   4133   0   0    1.6132396
   3051111   4133   0   2    1.6143081
   3051111   4233   0   2    0.0001977771
   3051111   4137   0   0   -4.4359317
   3051111   4137   0   2   -4.4398
   3051111   4237   0   2   -0.0014927611
   3051313   4133   0   0    1.6132396
   3051313   4133   0   2    1.614308
   3051313   4233   0   2    0.000197777
   3051313   4137   0   0   -4.4359317
   3051313   4137   0   2   -4.4398001
   3051313   4237   0   2   -0.0014927613
   3051212   4137   0   0    1.5053501
   3051212   4137   0   2    1.5061888
   3051212   4237   0   2    0.00032377003
   3051414   4137   0   0    1.5053501
   3051414   4137   0   2    1.5061888
   3051414   4237   0   2    0.00032377004
   3051616   4137   0   0    1.5053501
   3051616   4137   0   2    1.5061888
   3051616   4237   0   2    0.00032377096

BLOCK IMFWCOEF Q=  160
   305   4422   0   0    3.8585451e-07
   305   4422   0   2    2.5562135e-05
   305   4322   0   2    4.4106363e-06
   305   6421   0   0    3.305099e-07
   305   6421   0   2   -3.8159098e-05
   305   6321   0   2    1.441742e-06
   3051111   4133   0   2    2.7717293e-06
   3051111   4233   0   2    3.6918317e-06
   3051111   4137   0   2   -3.0643228e-06
   3051111   4237   0   2   -2.786537e-05
   3051313   4133   0   2    2.7717274e-06
   3051313   4233   0   2    3.6918303e-06
   3051313   4137   0   2   -3.0643249e-06
   3051313   4237   0   2   -2.7865372e-05
   3051212   4137   0   2    6.5934624e-07
   3051212   4237   0   2    6.0438146e-06
   3051414   4137   0   2    6.5934619e-07
   3051414   4237   0   2    6.0438146e-06
   3051616   4137   0   2    6.5916338e-07
   3051616   4237   0   2    6.0438146e-06

DECAY 23  2.4952


DECAY 24  2.085


DECAY 2000011  0.00032518746
    0.74333023   2    1000023    11
    0.25662422   2    1000022    11

DECAY 1000011  3.1830216
    0.71311565   2    1000025    11
    0.1879901   2   -1000037    12
    0.093998811   2    1000035    11
    0.0025971801   2    1000022    11
    0.0017378795   2    1000023    11
    0.0005603784   2   -1000024    12

DECAY 2000013  0.001591822
    0.39778484   2   -1000024    14
    0.35005627   2    1000023    13
    0.25215889   2    1000022    13

DECAY 1000013  3.1939686
    0.7106702   2    1000025    13
    0.18734277   2   -1000037    14
    0.09367514   2    1000035    13
    0.0042735098   2    1000022    13
    0.0034150854   2    1000023    13
    0.00055845742   2   -1000024    14

DECAY 1000015  2.41124
    0.49953381   2   -1000024    16
    0.2502816   2    1000022    15
    0.25018459   2    1000023    15

DECAY 2000015  5.8640691
    0.37213338   2    1000025    15
    0.25777067   2    1000022    15
    0.25702403   2    1000023    15
    0.070613113   2   -1000037    16
    0.035311557   2    1000035    15
    0.0034372672   2    1000015    23
    0.0034369219   2    1000015    25
    0.00027306143   2   -1000024    16

DECAY 1000012  3.1913031
    0.71153851   2    1000025    12
    0.18616886   2    1000037    11
    0.093164791   2    1000035    12
    0.0082041424   2    1000024    11
    0.00089101805   2    1000022    12

DECAY 1000014  3.2020457
    0.7091504   2    1000025    14
    0.18554212   2    1000037    13
    0.092851147   2    1000035    14
    0.01153553   2    1000024    13
    0.00088802837   2    1000022    14

DECAY 1000016  5.8742165
    0.51588604   2    1000024    15
    0.37169033   2    1000025    16
    0.070022438   2    1000037    15
    0.035044892   2    1000035    16
    0.0068607009   2    1000015    24
    0.00047806228   2    1000022    16

DECAY 1000001  120.78343
    0.99992232   2    1000021    1

DECAY 2000001  294.19472
    0.99644628   2    1000021    1
    0.003551548   2    1000025    1

DECAY 1000003  120.78611
    0.99989944   2    1000021    3

DECAY 2000003  294.20067
    0.99642579   2    1000021    3
    0.0035514737   2    1000025    3

DECAY 1000005  18.572261
    0.91686783   2   -1000024    6
    0.041643243   2    1000022    5
    0.041488925   2    1000023    5

DECAY 2000005  232.69036
    0.9392824   2    1000021    5
    0.028917281   2   -1000024    6
    0.014519959   2    1000022    5
    0.014502588   2    1000023    5
    0.0021585687   2    1000025    5
    0.00025841305   2    1000006   -24
    0.00023242087   2    1000005    25
    0.0001283696   2    1000005    23

DECAY 2000002  114.40993
    0.99966505   2    1000021    2
    0.00032244131   2    1000025    2

DECAY 1000002  120.71048
    0.99978415   2    1000021    2
    0.00012963504   2    1000024    1

DECAY 2000004  114.4117
    0.99964827   2    1000021    4
    0.00032240842   2    1000025    4

DECAY 1000004  120.71308
    0.99976127   2    1000021    4
    0.00014434917   2    1000024    3

DECAY 1000006  17.904001
    0.45435213   2    1000022    6
    0.4539654   2    1000023    6
    0.090508841   2    1000024    5
    0.0011334915   3    1000022    24    5

DECAY 2000006  670.19485
    0.32560026   2    1000021    6
    0.19837111   2    1000005    24
    0.14116607   2    1000006    25
    0.1157973   2    1000024    5
    0.099714073   2    1000006    23
    0.05824805   2    1000023    6
    0.058138755   2    1000022    6
    0.0029643695   2    1000025    6

DECAY 1000024  2.8702858e-13
    0.8337665   2    1000022    211
    0.087798536   3    1000022   -11    12
    0.078434962   3    1000022   -13    14

DECAY 1000037  206.97839
    0.21446513   2    1000006   -5
    0.21423668   2   -1000005    6
    0.073927096   2    1000004   -3
    0.073927039   2    1000002   -1
    0.073895177   2   -1000003    4
    0.073895158   2   -1000001    2
    0.051401194   2    1000024    25
    0.050191787   2    1000023    24
    0.050130842   2    1000024    23
    0.050119383   2    1000022    24
    0.01651349   2    37    1000023
    0.014318926   2    1000024    35
    0.014281324   2    1000024    36
    0.014280324   2    37    1000022
    0.0059620134   3    1000024    6   -6
    0.0035529593   3    1000022   -5    6
    0.0032253948   3    1000023   -5    6
    0.0015723464   3    1000021   -5    6

DECAY 1000022 -1


DECAY 1000023  4.4802276e-10
    0.98730613   2    1000022    22
    0.0037079362   3    1000022    12   -12
    0.0027721549   3    1000022    1   -1
    0.0025741387   3    1000022    3   -3
    0.0021623486   3    1000022    2   -2
    0.00062572526   3    1000022    11   -11
    0.00055691705   3    1000022    13   -13

DECAY 1000025  32.826888
    0.15936579   2    2000013   -13
    0.15936579   2   -2000013    13
    0.15936564   2    2000011   -11
    0.15936564   2   -2000011    11
    0.055009638   2    1000024   -24
    0.055009638   2   -1000024    24
    0.051308409   2    1000022    25
    0.041396426   2    1000023    25
    0.040978014   2    1000022    23
    0.028394516   2    1000015   -15
    0.028394516   2   -1000015    15
    0.014083804   2    1000023    23
    0.0092602271   2    1000006   -6
    0.0092602271   2   -1000006    6
    0.0089290936   2    1000005   -5
    0.0089290936   2   -1000005    5
    0.0033639012   3    1000024    5   -6
    0.0033639012   3   -1000024   -5    6
    0.0022696624   3    1000022    6   -6
    0.0019432162   3    1000023    6   -6
    0.00025191502   3    1000021    2   -2
    0.00025190939   3    1000021    4   -4

DECAY 1000035  210.76714
    0.10577953   2    1000005   -5
    0.10577953   2   -1000005    5
    0.10471799   2    1000006   -6
    0.10471799   2   -1000006    6
    0.049271123   2    1000024   -24
    0.049271123   2   -1000024    24
    0.037610748   2    1000022    25
    0.036673307   2    1000023    23
    0.036306081   2    1000004   -4
    0.036306081   2   -1000004    4
    0.036306075   2    1000002   -2
    0.036306075   2   -1000002    2
    0.036271003   2    1000003   -3
    0.036271003   2   -1000003    3
    0.036270971   2    1000001   -1
    0.036270971   2   -1000001    1
    0.03038   2    1000023    25
    0.014001202   2    37   -1000024
    0.014001202   2   -37    1000024
    0.01389755   2    1000023    35
    0.012580949   2    1000022    23
    0.01121595   2    1000022    35
    0.0034920607   3    1000024    5   -6
    0.0034920607   3   -1000024   -5    6
    0.002884527   3    1000022    6   -6
    0.0028749811   2    1000022    36
    0.002626359   3    1000023    6   -6
    0.0022904727   2    1000023    36
    0.001105496   3    1000021    5   -5
    0.00093315669   3    1000021    6   -6

DECAY 1000021  0.51582052
    0.28131619   2    1000005   -5
    0.28131619   2   -1000005    5
    0.17712626   2    1000006   -4
    0.17712626   2   -1000006    4
    0.036736751   3    1000022    6   -6
    0.036711988   3    1000023    6   -6
    0.0038178901   3    1000024    5   -6
    0.0038178901   3   -1000024   -5    6
    0.0010579134   2    1000023    21
    0.00094108837   2    1000022    21

DECAY 25  0.0039354799
    0.56529301   2   -5    5
    0.23648405   2   -24    24
    0.071999967   2    21    21
    0.065092683   2   -15    15
    0.028891398   2    23    23
    0.027910584   2   -4    4
    0.0023499811   2    22    22
    0.0015395234   2    22    23
    0.00022574692   2   -13    13
    0.00021232099   2   -3    3
    5.8704516e-07   2   -1    1
    1.4382831e-07   2   -2    2
    5.0750356e-09   2   -11    11

DECAY 35  14.421522
    0.82831566   2   -5    5
    0.14748905   2   -15    15
    0.022786094   2   -6    6
    0.00050853678   2   -13    13
    0.00045327556   2   -1000024    1000024
    0.00029548098   2   -3    3
    5.4698721e-05   2    25    25
    4.5151221e-05   2    1000022    1000022
    3.3093387e-05   2    1000022    1000023
    7.8562833e-06   2    23    23
    4.1850536e-06   2    21    21
    2.4282809e-06   2   -24    24
    2.2411873e-06   2    1000023    1000023
    8.1684652e-07   2   -1    1
    5.2671955e-07   2   -1000011    1000011
    5.2557047e-07   2   -1000013    1000013
    3.0520151e-07   2   -4    4
    3.578817e-08   2    22    22
    2.6380344e-08   2    22    23
    1.1421483e-08   2   -11    11
    1.5733842e-12   2   -2    2

DECAY 36  13.958709
    0.82884598   2   -5    5
    0.14758229   2   -15    15
    0.021721981   2   -6    6
    0.00087112489   2   -1000024    1000024
    0.00050885758   2   -13    13
    0.00029566826   2   -3    3
    0.00010175855   2    1000022    1000022
    4.0659425e-05   2    21    21
    1.4056105e-05   2    1000022    1000023
    1.3029716e-05   2    23    25
    3.2897648e-06   2    1000023    1000023
    8.1736417e-07   2   -1    1
    2.8678741e-07   2   -4    4
    1.2969911e-07   2    22    22
    5.7138309e-08   2    22    23
    1.1428688e-08   2   -11    11
    1.4784914e-12   2   -2    2
    1.6082111e-36   2    25    25

DECAY 37  14.800465
    0.85916441   2   -5    6
    0.13842593   2   -15    16
    0.0012407817   2   -5    4
    0.0004893851   2   -13    14
    0.00026147846   2   -3    4
    0.00026100849   2    1000023    1000024
    8.8732252e-05   2    1000022    1000024
    3.2603016e-05   2   -3    6
    1.2313902e-05   2    24    25
    1.2231152e-05   2   -3    2
    8.8604586e-06   2   -5    2
    1.4775955e-06   2   -1    6
    7.2458361e-07   2   -1    2
    4.7340773e-08   2   -1    4
    1.1446768e-08   2   -11    12
    4.5735635e-13   2    24    35
    4.5317982e-13   2    24    36

DECAY 6  2.43
    1   2    5    24

DECAY 15 -1
