BLOCK SPINFO
   1   SPheno
   2   v4.0.5be

BLOCK SPHENOINFO
   1   2
   2   2

BLOCK MODSEL
   1   0

BLOCK MINPAR
   3    4.2614441
   4   -1

BLOCK EXTPAR
   0    1937.1132
   1    4084.0233
   2    1154.4727
   3    4241.1289
   11    5604.2218
   12   -4285.5165
   13    2998.1178
   23   -464.3114
   25    4.0545322
   26    1136.4397
   31    4432.0342
   32    4432.0342
   33    1182.3637
   34    2557.9779
   35    2557.9779
   36    2798.6168
   41    3675.5024
   42    3675.5024
   43    1873.6026
   44    2944.2333
   45    2944.2333
   46    2311.107
   47    755.63101
   48    755.63101
   49    4356.0468

BLOCK SMINPUTS
   1    127.90897
   2    1.1663787e-05
   3    0.1184
   4    91.1876
   5    4.18
   6    173.2
   7    1.777
   8    0
   11    0.00051099893
   12    0
   13    0.10565837
   14    0
   21    0.005
   22    0.0025
   23    0.095
   24    1.27

BLOCK GAUGE Q=  1937.1132
   1    0.35536298
   2    0.66519887
   3    1.219778

BLOCK YU Q=  1937.1132
   1   1    8.6356188e-06
   2   2    0.0043868943
   3   3    1.0432521

BLOCK YD Q=  1937.1132
   1   1    7.0358158e-05
   2   2    0.001336805
   3   3    0.069773246

BLOCK YE Q=  1937.1132
   1   1    1.2278013e-05
   2   2    0.0025387037
   3   3    0.04269682

BLOCK AU Q=  1937.1132
   1   1    0
   2   2    0
   3   3    5604.222

BLOCK AD Q=  1937.1132
   1   1    0
   2   2    0
   3   3   -4285.5165

BLOCK AE Q=  1937.1132
   1   1    0
   2   2    0
   3   3    2998.1177

BLOCK MSOFT Q=  1937.1132
   1    4084.0233
   2    1154.4727
   3    4241.1289
   21    972994.31
   22    12499.675
   31    4432.0342
   32    4432.0342
   33    1182.3637
   34    2557.9779
   35    2557.9779
   36    2798.6168
   41    3675.5024
   42    3675.5024
   43    1873.6026
   44    2944.2333
   45    2944.2333
   46    2311.107
   47    755.63101
   48    755.63101
   49    4356.0468

BLOCK MASS
   6    173.2
   23    91.1876
   24    80.429995
   15    1.777
   25    120.53653
   35    1137.2127
   36    1136.4397
   37    1139.4609
   1000001    3734.504
   2000001    582.25502
   1000002    3733.8984
   2000002    2985.664
   1000003    3734.5038
   2000003    582.255
   1000004    3733.8983
   2000004    2985.6637
   1000005    1802.5972
   2000005    4403.262
   1000006    1692.6635
   2000006    2216.8656
   1000011    4440.9874
   2000011    2561.3072
   1000012    4439.977
   1000013    4440.9873
   2000013    2561.3072
   1000014    4439.977
   1000015    1195.8645
   2000015    2802.2808
   1000016    1193.1896
   1000021    4194.5306
   1000022    464.67623
   1000023   -469.30991
   1000025    1202.6639
   1000035    4056.882
   1000024    467.15366
   1000037    1202.7909

BLOCK ALPHA
      -0.23433738

BLOCK HMIX Q=  1937.1132
   1   -464.3114
   2    4.0545322
   3    243.65422
   4    1291495.2

BLOCK STOPMIX
   1   1   -0.9052573
   1   2    0.42486376
   2   1   -0.42486376
   2   2   -0.9052573

BLOCK SBOTMIX
   1   1    0.99999995
   1   2    0.00032362513
   2   1   -0.00032362513
   2   2    0.99999995

BLOCK STAUMIX
   1   1   -0.99999911
   1   2    0.0013336686
   2   1   -0.0013336686
   2   2   -0.99999911

BLOCK NMIX
   1   1    0.0062059134
   1   2   -0.05588468
   1   3   -0.70871676
   1   4   -0.70324885
   2   1    0.0082509424
   2   2   -0.041015182
   2   3    0.70541057
   2   4   -0.70756314
   3   1   -0.00098322022
   3   2   -0.99759439
   3   3    0.010700024
   3   4    0.068483375
   4   1    0.99994622
   4   2   -0.00029564149
   4   3   -0.0014116226
   4   4    0.010270251

BLOCK UMIX
   1   1   -0.015267045
   1   2   -0.99988345
   2   1    0.99988345
   2   2   -0.015267045

BLOCK VMIX
   1   1   -0.097087216
   1   2    0.99527588
   2   1    0.99527588
   2   2    0.097087216

BLOCK HIGGSBOUNDSINPUTHIGGSCOUPLINGSFERMIONS
       0, 16.439231,3,36,15,15

BLOCK HIGGSBOUNDSINPUTHIGGSCOUPLINGSBOSONS
       0,4,36,21,21,23

BLOCK SPHENOLOWENERGY
   1    0.00034684897
   2    1.5907726e-06
   3    3.531416e-05
   4    2.517976e-15
   5    1.0756508e-10
   6    2.2517545e-08
   7    8.4901462e-14
   8    3.6269877e-09
   9    7.6930654e-07
   10    9.6729195e-05
   11    0.99917555
   12    0.54490454
   13    19.469561
   14    0
   15    0
   16    0.0021691279
   17    2.2817811e-15
   18    2.4850515e-11
   19    8.3016855e-11
   20   -1.8786007e-16
   21   -8.0316088e-12
   22   -7.5576399e-09
   23    0
   24    0
   25    0
   26    0
   27    0
   28    0
   29    0
   30    0
   31    0
   39   -0.0004068048
   40    0
   41    0
   42    0

BLOCK FWCOEF Q=  160
   305   4422   0   0   -0.18881911
   305   4422   0   2   -0.21504138
   305   4322   0   2   -0.00053257774
   305   6421   0   0   -0.095227835
   305   6421   0   2   -0.12841423
   305   6321   0   2   -0.0006586214
   3051111   4133   0   0    1.6008087
   3051111   4133   0   2    1.6016154
   3051111   4233   0   2    1.9088365e-06
   3051111   4137   0   0   -4.4235008
   3051111   4137   0   2   -4.42786
   3051111   4237   0   2   -1.5326803e-05
   3051313   4133   0   0    1.6008087
   3051313   4133   0   2    1.6016154
   3051313   4233   0   2    1.9088353e-06
   3051313   4137   0   0   -4.4235008
   3051313   4137   0   2   -4.42786
   3051313   4237   0   2   -1.5326802e-05
   3051212   4137   0   0    1.5053501
   3051212   4137   0   2    1.5063021
   3051212   4237   0   2    3.33294e-06
   3051414   4137   0   0    1.5053501
   3051414   4137   0   2    1.5063021
   3051414   4237   0   2    3.3329402e-06
   3051616   4137   0   0    1.5053501
   3051616   4137   0   2    1.5063021
   3051616   4237   0   2    3.33279e-06

BLOCK IMFWCOEF Q=  160
   305   4422   0   0    3.8582981e-07
   305   4422   0   2   -1.748959e-06
   305   4322   0   2    5.22064e-07
   305   6421   0   0    3.3048875e-07
   305   6421   0   2   -4.3771655e-07
   305   6321   0   2    2.216843e-07
   3051111   4133   0   2   -1.4945134e-06
   3051111   4233   0   2    6.8273063e-08
   3051111   4137   0   2    1.4626064e-05
   3051111   4237   0   2   -5.3667397e-07
   3051313   4133   0   2   -1.4945134e-06
   3051313   4233   0   2    6.8273062e-08
   3051313   4137   0   2    1.4626064e-05
   3051313   4237   0   2   -5.3667398e-07
   3051212   4137   0   2   -3.1106993e-06
   3051212   4237   0   2    1.167159e-07
   3051414   4137   0   2   -3.1106993e-06
   3051414   4237   0   2    1.167159e-07
   3051616   4137   0   2   -3.1116164e-06
   3051616   4237   0   2    1.1671199e-07

DECAY 23  2.4952


DECAY 24  2.085


DECAY 2000011  0.0012894336
    0.63462018   2    1000023    11
    0.35951117   2    1000022    11
    0.0058630769   2    1000025    11

DECAY 1000011  50.523436
    0.66427316   2   -1000037    12
    0.3309769   2    1000025    11
    0.0030206923   2    1000035    11
    0.0010459074   2    1000022    11
    0.0005069581   2    1000023    11
    0.00017638641   2   -1000024    12

DECAY 2000013  0.0019032405
    0.51013787   2    1000023    13
    0.32462741   2    1000022    13
    0.16122605   2   -1000024    14
    0.0039842239   2    1000025    13

DECAY 1000013  50.523994
    0.66426581   2   -1000037    14
    0.33097323   2    1000025    13
    0.0030206576   2    1000035    13
    0.001051434   2    1000022    13
    0.00051243543   2    1000023    13
    0.00017638445   2   -1000024    14

DECAY 1000015  0.048483923
    0.54165277   2    1000022    15
    0.42159706   2    1000023    15
    0.036750162   2   -1000024    16

DECAY 2000015  0.33486932
    0.28661546   2   -1000024    16
    0.16778071   2    1000016   -37
    0.14563501   2    1000023    15
    0.1453575   2    1000022    15
    0.084399992   2    1000015    35
    0.083947967   2    1000015    36
    0.043451485   2    1000016   -24
    0.02163368   2    1000015    23
    0.020758801   2    1000015    25
    0.00026237782   2   -1000037    16
    0.00015702071   2    1000025    15

DECAY 1000012  50.54366
    0.65770474   2    1000037    11
    0.33004951   2    1000025    12
    0.0071285659   2    1000024    11
    0.0030116145   2    1000035    12
    0.0013255448   2    1000022    12
    0.00078002734   2    1000023    12

DECAY 1000014  50.544217
    0.65769749   2    1000037    13
    0.33004587   2    1000025    14
    0.0071395026   2    1000024    13
    0.0030115811   2    1000035    14
    0.0013255302   2    1000022    14
    0.00078001875   2    1000023    14

DECAY 1000016  0.12311544
    0.82951979   2    1000024    15
    0.10759191   2    1000022    16
    0.062888301   2    1000023    16

DECAY 2000001  4.3811108e-06
    0.62069129   2    1000023    1
    0.37764766   2    1000022    1
    0.0016610536   2   -1000024    2

DECAY 1000001  39.626877
    0.6662702   2   -1000037    2
    0.33151135   2    1000025    1
    0.0013058369   2    1000022    1
    0.00072524089   2    1000023    1
    0.00018736461   2   -1000024    2

DECAY 2000003  9.6268529e-06
    0.41273633   2    1000023    3
    0.31439676   2    1000022    3
    0.27286691   2   -1000024    4

DECAY 1000003  39.628385
    0.66624506   2   -1000037    4
    0.33149871   2    1000025    3
    0.0013074151   2    1000022    3
    0.00072682261   2    1000023    3
    0.00022197233   2   -1000024    4

DECAY 1000005  42.251096
    0.77869317   2   -1000024    6
    0.11890742   2   -1000037    6
    0.05751384   2    1000025    5
    0.040463415   2    1000006   -24
    0.0023422286   2    1000022    5
    0.0020799234   2    1000023    5

DECAY 2000005  4.4671222
    0.6664309   2    1000021    5
    0.093016296   2   -1000024    6
    0.058103556   2    1000006   -37
    0.046927332   2    1000022    5
    0.046454698   2    1000023    5
    0.033129441   2    1000005    35
    0.033071915   2    1000005    36
    0.01256888   2    1000035    5
    0.0084899835   2    2000006   -37
    0.00068971791   2    1000006   -24
    0.00060483904   2    1000005    25
    0.00039191051   2    1000005    23
    0.00010204858   2    2000006   -24

DECAY 2000002  0.00068078725
    0.6342055   2    1000023    2
    0.35914363   2    1000022    2
    0.0066446906   2    1000025    2

DECAY 1000002  39.669003
    0.65928638   2    1000037    1
    0.33131326   2    1000025    2
    0.0075677282   2    1000024    1
    0.0012050201   2    1000022    2
    0.00062760476   2    1000023    2

DECAY 2000004  0.0028520405
    0.37782238   2    1000024    3
    0.34219973   2    1000023    4
    0.27442271   2    1000022    4
    0.0029040084   2    1000025    4
    0.002651176   2    1000037    3

DECAY 1000004  39.670511
    0.65926127   2    1000037    3
    0.33130078   2    1000025    4
    0.0075706776   2    1000024    3
    0.0012222205   2    1000022    4
    0.00064503627   2    1000023    4

DECAY 1000006  40.422299
    0.38620735   2    1000023    6
    0.37982267   2    1000022    6
    0.10690371   2    1000024    5
    0.084241897   2    1000037    5
    0.042751309   2    1000025    6

DECAY 2000006  193.87148
    0.25327521   2    1000005    24
    0.19567998   2    1000006    23
    0.19459485   2    1000024    5
    0.12844728   2    1000006    25
    0.11102722   2    1000023    6
    0.11068388   2    1000022    6
    0.004071359   2    1000037    5
    0.0022202176   2    1000025    6

DECAY 1000024  8.5602932e-11
    0.51263216   3    1000022   -1    2
    0.17088161   3    1000022   -11    12
    0.16934249   3    1000022   -13    14
    0.13771865   3    1000022   -3    4
    0.009425092   3    1000022   -15    16

DECAY 1000037  7.0491448
    0.24919885   2    1000023    24
    0.24519673   2    1000024    25
    0.24504547   2    1000022    24
    0.24460113   2    1000024    23
    0.0087416592   3    1000023   -5    6
    0.0037771577   3    1000022   -5    6
    0.003134769   3    1000024    6   -6
    0.00018495206   2    1000016   -15

DECAY 1000022 -1


DECAY 1000023  2.609417e-08
    0.78486722   2    1000022    22
    0.056909074   3    1000022    12   -12
    0.042554544   3    1000022    1   -1
    0.042347141   3    1000022    3   -3
    0.033189243   3    1000022    2   -2
    0.011238942   3    1000022    4   -4
    0.0096034756   3    1000022    11   -11
    0.0095297595   3    1000022    13   -13
    0.0025115446   3    1000024    1   -2
    0.0025115446   3   -1000024   -1    2
    0.00083720945   3    1000024    11   -12
    0.00083720945   3   -1000024   -11    12
    0.00082728739   3    1000024    13   -14
    0.00082728739   3   -1000024   -13    14
    0.00055967533   3    1000022    15   -15
    0.0004143397   3    1000024    3   -4
    0.0004143397   3   -1000024   -3    4

DECAY 1000025  9.5040339
    0.32008054   2    1000023    25
    0.18414963   2    1000024   -24
    0.18414963   2   -1000024    24
    0.12116273   2    1000023    23
    0.11782629   2    1000022    25
    0.064262685   2    1000022    23
    0.0025322985   3    1000024    5   -6
    0.0025322985   3   -1000024   -5    6
    0.0021520316   3    1000023    6   -6
    0.00093036622   3    1000022    6   -6

DECAY 1000035  89.905496
    0.058167807   2    2000006   -6
    0.058167807   2   -2000006    6
    0.040997659   2    2000013   -13
    0.040997659   2   -2000013    13
    0.040997657   2    2000011   -11
    0.040997657   2   -2000011    11
    0.036243818   2    2000003   -3
    0.036243818   2   -2000003    3
    0.036243817   2    2000001   -1
    0.036243817   2   -2000001    1
    0.03175545   2    2000002   -2
    0.03175545   2   -2000002    2
    0.031755435   2    2000004   -4
    0.031755435   2   -2000004    4
    0.030989598   2    2000015   -15
    0.030989598   2   -2000015    15
    0.027905044   2    1000006   -6
    0.027905044   2   -1000006    6
    0.026652708   2    37   -1000024
    0.026652708   2   -37    1000024
    0.025650996   2    1000024   -24
    0.025650996   2   -1000024    24
    0.025198922   2    1000023    25
    0.023673811   2    1000016   -16
    0.023673811   2   -1000016    16
    0.023601658   2    1000015   -15
    0.023601658   2   -1000015    15
    0.021738332   2    1000022    35
    0.016426114   2    1000022    23
    0.013185801   2    1000023    36
    0.0095458551   2    1000023    23
    0.0093282992   2    1000022    25
    0.0081624573   2    1000023    35
    0.0061046107   2    1000005   -5
    0.0061046107   2   -1000005    5
    0.0049067764   2    1000022    36
    0.0016266597   3    1000023    6   -6
    0.001589721   3    1000024    5   -6
    0.001589721   3   -1000024   -5    6
    0.0013288901   3    1000022    6   -6
    0.00041285627   2    1000037   -24
    0.00041285627   2   -1000037    24
    0.00030181819   2    1000025    25
    0.0002207419   2    1000003   -3
    0.0002207419   2   -1000003    3
    0.00022074165   2    1000001   -1
    0.00022074165   2   -1000001    1
    0.00022007088   2    1000002   -2
    0.00022007088   2   -1000002    2
    0.00022007055   2    1000004   -4
    0.00022007055   2   -1000004    4
    0.00020238833   3    1000037    15   -16
    0.00020238833   3   -1000037   -15    16
    0.00012195782   3    1000025    12   -12
    0.00010205439   3    1000025    15   -15

DECAY 1000021  555.42931
    0.10750189   2    2000003   -3
    0.10750189   2   -2000003    3
    0.10750188   2    2000001   -1
    0.10750188   2   -2000001    1
    0.08419434   2    1000006   -6
    0.08419434   2   -1000006    6
    0.074296211   2    1000005   -5
    0.074296211   2   -1000005    5
    0.052846135   2    2000006   -6
    0.052846135   2   -2000006    6
    0.027202702   2    2000002   -2
    0.027202702   2   -2000002    2
    0.027202701   2    2000004   -4
    0.027202701   2   -2000004    4
    0.0048157695   2    1000002   -2
    0.0048157695   2   -1000002    2
    0.0048157562   2    1000004   -4
    0.0048157562   2   -1000004    4
    0.0048038533   2    1000003   -3
    0.0048038533   2   -1000003    3
    0.0048038495   2    1000001   -1
    0.0048038495   2   -1000001    1

DECAY 25  0.0034480701
    0.6450574   2   -5    5
    0.15715962   2   -24    24
    0.073589406   2   -15    15
    0.072067611   2    21    21
    0.03086549   2   -4    4
    0.017389341   2    23    23
    0.0022724638   2    22    22
    0.0011006405   2    22    23
    0.0002552784   2   -13    13
    0.00024191792   2   -3    3
    6.688774e-07   2   -1    1
    1.5907149e-07   2   -2    2
    5.739005e-09   2   -11    11

DECAY 35  2.8791591
    0.86252814   2   -6    6
    0.096216817   2   -5    5
    0.015012412   2   -15    15
    0.012763505   2    25    25
    0.0067682297   2   -1000024    1000024
    0.0019339439   2   -24    24
    0.001909628   2    1000022    1000022
    0.0016759125   2    23    23
    0.00070005447   2    21    21
    0.00034962382   2    1000023    1000023
    5.2318966e-05   2   -13    13
    3.7198719e-05   2    1000022    1000023
    3.5907919e-05   2   -3    3
    1.2782926e-05   2   -4    4
    2.6240015e-06   2    22    22
    8.0150448e-07   2    22    23
    9.927348e-08   2   -1    1
    1.1754047e-09   2   -11    11
    6.5911992e-11   2   -2    2

DECAY 36  3.0054165
    0.8704316   2   -6    6
    0.090644737   2   -5    5
    0.016398983   2   -1000024    1000024
    0.01413983   2   -15    15
    0.0027295911   2    1000023    1000023
    0.0022453463   2    23    25
    0.0020670924   2    1000022    1000022
    0.00098587084   2    21    21
    0.00025807213   2    1000022    1000023
    4.9275788e-05   2   -13    13
    3.3822144e-05   2   -3    3
    1.1656247e-05   2   -4    4
    2.8959525e-06   2    22    22
    1.1324319e-06   2    22    23
    9.3506979e-08   2   -1    1
    1.1070375e-09   2   -11    11
    6.0112531e-11   2   -2    2
    1.8987329e-35   2    25    25

DECAY 37  3.0021685
    0.97981749   2   -5    6
    0.013783876   2   -15    16
    0.0022765321   2    24    25
    0.0014520676   2    1000023    1000024
    0.0012579446   2   -3    6
    0.0011339801   2    1000022    1000024
    0.00012685038   2   -5    4
    5.7693192e-05   2   -1    6
    4.8731125e-05   2   -13    14
    4.1903711e-05   2   -3    4
    1.3896219e-06   2   -3    2
    9.0571467e-07   2   -5    2
    5.5274844e-07   2   -1    4
    8.3380886e-08   2   -1    2
    1.1398261e-09   2   -11    12
    1.1383567e-10   2    24    36
    2.5992024e-11   2    24    35

DECAY 6  2.43
    1   2    5    24

DECAY 15 -1
