# SUSY Les Houches Accord 2 - MSSM spectrum + Decays
# SPheno v4.0.5be
# W. Porod, Comput. Phys. Commun. 153 (2003) 275-315, hep-ph/0301101;
# W. Porod, F.~Staub, Comput. Phys. Commun. 183 (2012) 2458
#                     arXiv:1104.1573 [hep-ph] 
# in case of problems send email to porod@physik.uni-wuerzburg.de
# Created: 20.12.2022,  18:22
Block SPINFO         # Program information
     1   SPheno      # spectrum calculator
     2   v4.0.5be    # version number
#
Block SPhenoINFO     # SPheno specific information
    1      2         # using 2-loop RGEs
    2      2         # using pole masses for boundary conditions at mZ
Block MODSEL  # Model selection
    1    0    # general MSSM
Block MINPAR  # Input parameters
    3    4.56758262E+01  # tanb at m_Z    
    4    1.00000000E+00  # Sign(mu)
Block EXTPAR  # non-universal input parameters
    0    4.48974352E+03  # scale for input parameters
    1   -1.64481220E+02  # M_1
    2   -6.27894722E+02  # M_2
    3    1.75927265E+03  # M_3
   11   -2.43719544E+01  # A_t
   12    5.83104415E+02  # A_b
   13    4.44098089E+02  # A_tau
   23    5.29571048E+02  # mu
   25    4.46284930E+01  # tan(beta)
   26    3.19124794E+03  # m_A, pole mass
   31    1.00000000E+04  # M_L11
   32    1.00000000E+04  # M_L22
   33    1.00000000E+04  # M_L33
   34    1.00000000E+04  # M_E11
   35    1.00000000E+04  # M_E22
   36    1.00000000E+04  # M_E33
   41    1.00000000E+04  # M_Q11
   42    1.00000000E+04  # M_Q22
   43    4.18994958E+03  # M_Q33
   44    1.00000000E+04  # M_U11
   45    1.00000000E+04  # M_U22
   46    4.78299480E+03  # M_U33
   47    1.00000000E+04  # M_D11
   48    1.00000000E+04  # M_D22
   49    2.26598258E+03  # M_D33
Block SMINPUTS  # SM parameters
         1     1.27908970E+02  # alpha_em^-1(MZ)^MSbar
         2     1.16637870E-05  # G_mu [GeV^-2]
         3     1.18400000E-01  # alpha_s(MZ)^MSbar
         4     9.11876000E+01  # m_Z(pole)
         5     4.18000000E+00  # m_b(m_b), MSbar
         6     1.73200000E+02  # m_t(pole)
         7     1.77700000E+00  # m_tau(pole)
         8     0.00000000E+00  # m_nu_3
        11     5.10998930E-04  # m_e(pole)
        12     0.00000000E+00  # m_nu_1
        13     1.05658372E-01  # m_muon(pole)
        14     0.00000000E+00  # m_nu_2
        21     5.00000000E-03  # m_d(2 GeV), MSbar
        22     2.50000000E-03  # m_u(2 GeV), MSbar
        23     9.50000000E-02  # m_s(2 GeV), MSbar
        24     1.27000000E+00  # m_c(m_c), MSbar
Block gauge Q=  4.48974352E+03  # (SUSY scale)
   1    3.55362975E-01  # g'(Q)^DRbar
   2    6.65198874E-01  # g(Q)^DRbar
   3    1.21977796E+00  # g3(Q)^DRbar
Block Yu Q=  4.48974352E+03  # (SUSY scale)
  1  1     8.38647670E-06   # Y_u(Q)^DRbar
  2  2     4.26033016E-03   # Y_c(Q)^DRbar
  3  3     1.01315375E+00   # Y_t(Q)^DRbar
Block Yd Q=  4.48974352E+03  # (SUSY scale)
  1  1     7.52093809E-04   # Y_d(Q)^DRbar
  2  2     1.42897824E-02   # Y_s(Q)^DRbar
  3  3     7.45841387E-01   # Y_b(Q)^DRbar
Block Ye Q=  4.48974352E+03  # (SUSY scale)
  1  1     1.31245869E-04   # Y_e(Q)^DRbar
  2  2     2.71374832E-02   # Y_mu(Q)^DRbar
  3  3     4.56407825E-01   # Y_tau(Q)^DRbar
Block Au Q=  4.48974352E+03  # (SUSY scale)
  1  1     0.00000000E+00   # A_u(Q)^DRbar
  2  2     0.00000000E+00   # A_c(Q)^DRbar
  3  3    -2.43719546E+01   # A_t(Q)^DRbar
Block Ad Q=  4.48974352E+03  # (SUSY scale)
  1  1     0.00000000E+00   # A_d(Q)^DRbar
  2  2     0.00000000E+00   # A_s(Q)^DRbar
  3  3     5.83104415E+02   # A_b(Q)^DRbar
Block Ae Q=  4.48974352E+03  # (SUSY scale)
  1  1     0.00000000E+00   # A_e(Q)^DRbar
  2  2     0.00000000E+00   # A_mu(Q)^DRbar
  3  3     4.44098086E+02   # A_tau(Q)^DRbar
Block MSOFT Q=  4.48974352E+03  # soft SUSY breaking masses at Q
   1   -1.64481220E+02  # M_1
   2   -6.27894722E+02  # M_2
   3    1.75927265E+03  # M_3
  21    1.00940000E+07  # M^2_(H,d)
  22    1.92730801E+05  # M^2_(H,u)
  31    1.00000000E+04  # M_(L,11)
  32    1.00000000E+04  # M_(L,22)
  33    1.00000000E+04  # M_(L,33)
  34    1.00000000E+04  # M_(E,11)
  35    1.00000000E+04  # M_(E,22)
  36    1.00000000E+04  # M_(E,33)
  41    1.00000000E+04  # M_(Q,11)
  42    1.00000000E+04  # M_(Q,22)
  43    4.18994958E+03  # M_(Q,33)
  44    1.00000000E+04  # M_(U,11)
  45    1.00000000E+04  # M_(U,22)
  46    4.78299480E+03  # M_(U,33)
  47    1.00000000E+04  # M_(D,11)
  48    1.00000000E+04  # M_(D,22)
  49    2.26598258E+03  # M_(D,33)
Block MASS  # Mass spectrum
#   PDG code      mass          particle
         6     1.73200000E+02  # m_t(pole)
        23     9.11876000E+01  # m_Z(pole)
        24     8.04299946E+01  # W+
        15     1.77700000E+00  # m_tau(pole)
        25     1.22731805E+02  # h0
        35     3.18992497E+03  # H0
        36     3.19124794E+03  # A0
        37     3.19177371E+03  # H+
   1000001     1.01205526E+04  # ~d_L
   2000001     1.00955834E+04  # ~d_R
   1000002     1.01201881E+04  # ~u_L
   2000002     1.00980079E+04  # ~u_R
   1000003     1.01205530E+04  # ~s_L
   2000003     1.00955837E+04  # ~s_R
   1000004     1.01201884E+04  # ~c_L
   2000004     1.00980080E+04  # ~c_R
   1000005     2.31289012E+03  # ~b_1
   2000005     4.21228280E+03  # ~b_2
   1000006     4.21409505E+03  # ~t_1
   2000006     4.78342246E+03  # ~t_2
   1000011     1.00209586E+04  # ~e_L-
   2000011     1.00096783E+04  # ~e_R-
   1000012     1.00201882E+04  # ~nu_eL
   1000013     1.00209609E+04  # ~mu_L-
   2000013     1.00096787E+04  # ~mu_R-
   1000014     1.00201891E+04  # ~nu_muL
   1000015     1.00098010E+04  # ~tau_1-
   2000015     1.00215873E+04  # ~tau_2-
   1000016     1.00204419E+04  # ~nu_tauL
   1000021     2.16241291E+03  # ~g
   1000022     1.64084511E+02  # ~chi_10
   1000023     5.23522593E+02  # ~chi_20
   1000025     5.43737191E+02  # ~chi_30
   1000035     7.03986874E+02  # ~chi_40
   1000024     5.23758965E+02  # ~chi_1+
   1000037     7.04040626E+02  # ~chi_2+
# Higgs mixing
Block alpha # Effective Higgs mixing angle
          -2.19299896E-02   # alpha
Block Hmix Q=  4.48974352E+03  # Higgs mixing parameters
   1    5.29571048E+02  # mu
   2    4.46284930E+01  # tan[beta](Q)
   3    2.42819589E+02  # v(Q)
   4    1.01840634E+07  # m^2_A(Q)
Block stopmix # stop mixing matrix
   1  1     9.99986626E-01   # Re[R_st(1,1)]
   1  2     5.17187869E-03   # Re[R_st(1,2)]
   2  1    -5.17187869E-03   # Re[R_st(2,1)]
   2  2     9.99986626E-01   # Re[R_st(2,2)]
Block sbotmix # sbottom mixing matrix
   1  1     3.91980211E-03   # Re[R_sb(1,1)]
   1  2     9.99992318E-01   # Re[R_sb(1,2)]
   2  1    -9.99992318E-01   # Re[R_sb(2,1)]
   2  2     3.91980211E-03   # Re[R_sb(2,2)]
Block staumix # stau mixing matrix
   1  1     1.78596691E-01   # Re[R_sta(1,1)]
   1  2     9.83922366E-01   # Re[R_sta(1,2)]
   2  1    -9.83922366E-01   # Re[R_sta(2,1)]
   2  2     1.78596691E-01   # Re[R_sta(2,2)]
Block Nmix # neutralino mixing matrix
   1  1    -9.95569963E-01   # Re[N(1,1)]
   1  2     3.58169238E-03   # Re[N(1,2)]
   1  3    -9.03247430E-02   # Re[N(1,3)]
   1  4    -2.58662099E-02   # Re[N(1,4)]
   2  1     7.95626203E-02   # Re[N(2,1)]
   2  2     3.28048893E-01   # Re[N(2,2)]
   2  3    -6.76506997E-01   # Re[N(2,3)]
   2  4    -6.54516613E-01   # Re[N(2,4)]
   3  1     4.52085141E-02   # Re[N(3,1)]
   3  2    -4.77575728E-02   # Re[N(3,2)]
   3  3    -7.02982509E-01   # Re[N(3,3)]
   3  4     7.08160291E-01   # Re[N(3,4)]
   4  1     2.15969496E-02   # Re[N(4,1)]
   4  2    -9.43445976E-01   # Re[N(4,2)]
   4  3    -1.99988291E-01   # Re[N(4,3)]
   4  4    -2.63529781E-01   # Re[N(4,4)]
Block Umix # chargino mixing matrix
   1  1    -2.82426156E-01   # Re[U(1,1)]
   1  2     9.59289042E-01   # Re[U(1,2)]
   2  1    -9.59289042E-01   # Re[U(2,1)]
   2  2    -2.82426156E-01   # Re[U(2,2)]
Block Vmix # chargino mixing matrix
   1  1     3.72512600E-01   # Re[V(1,1)]
   1  2     9.28027135E-01   # Re[V(1,2)]
   2  1     9.28027135E-01   # Re[V(2,1)]
   2  2    -3.72512600E-01   # Re[V(2,2)]
DECAY        23     2.49520000E+00   # Z
DECAY        24     2.08500000E+00   # W
DECAY   2000011     5.02656196E+01   # ~e^-_R
#    BR                NDA      ID1      ID2
     9.91205515E-01    2     1000022        11   # BR(~e^-_R -> chi^0_1 e^-)
     6.29933383E-03    2     1000023        11   # BR(~e^-_R -> chi^0_2 e^-)
     2.03298602E-03    2     1000025        11   # BR(~e^-_R -> chi^0_3 e^-)
     4.62097797E-04    2     1000035        11   # BR(~e^-_R -> chi^0_4 e^-)
DECAY   1000011     1.43655682E+02   # ~e^-_L
#    BR                NDA      ID1      ID2
     8.56391710E-02    2     1000022        11   # BR(~e^-_L -> chi^0_1 e^-)
     4.19291684E-02    2     1000023        11   # BR(~e^-_L -> chi^0_2 e^-)
     1.70103253E-04    2     1000025        11   # BR(~e^-_L -> chi^0_3 e^-)
     2.64021187E-01    2     1000035        11   # BR(~e^-_L -> chi^0_4 e^-)
     4.87139573E-02    2    -1000024        12   # BR(~e^-_L -> chi^-_1 nu_e)
     5.59526413E-01    2    -1000037        12   # BR(~e^-_L -> chi^-_2 nu_e)
#    BR                NDA      ID1      ID2       ID3
DECAY   2000013     5.05572144E+01   # ~mu^-_R
#    BR                NDA      ID1      ID2
     9.85512306E-01    2     1000022        13   # BR(~mu^-_R -> chi^0_1 mu^-)
     7.58327435E-03    2     1000023        13   # BR(~mu^-_R -> chi^0_2 mu^-)
     3.44627596E-03    2     1000025        13   # BR(~mu^-_R -> chi^0_3 mu^-)
     5.74301074E-04    2     1000035        13   # BR(~mu^-_R -> chi^0_4 mu^-)
     2.65475134E-03    2    -1000024        14   # BR(~mu^-_R -> chi^-_1 nu_mu)
     2.29091200E-04    2    -1000037        14   # BR(~mu^-_R -> chi^-_2 nu_mu)
DECAY   1000013     1.43801679E+02   # ~mu^-_L
#    BR                NDA      ID1      ID2
     8.55605698E-02    2     1000022        13   # BR(~mu^-_L -> chi^0_1 mu^-)
     4.23513019E-02    2     1000023        13   # BR(~mu^-_L -> chi^0_2 mu^-)
     6.71502412E-04    2     1000025        13   # BR(~mu^-_L -> chi^0_3 mu^-)
     2.63793638E-01    2     1000035        13   # BR(~mu^-_L -> chi^0_4 mu^-)
     4.86645110E-02    2    -1000024        14   # BR(~mu^-_L -> chi^-_1 nu_mu)
     5.58958477E-01    2    -1000037        14   # BR(~mu^-_L -> chi^-_2 nu_mu)
#    BR                NDA      ID1      ID2       ID3
DECAY   1000015     1.34448093E+02   # ~tau^-_1
#    BR                NDA      ID1      ID2
     3.69595613E-01    2     1000022        15   # BR(~tau^-_1 -> chi^0_1 tau^-)
     1.65610685E-01    2     1000023        15   # BR(~tau^-_1 -> chi^0_2 tau^-)
     1.46700764E-01    2     1000025        15   # BR(~tau^-_1 -> chi^0_3 tau^-)
     2.41077050E-04    2     1000035        15   # BR(~tau^-_1 -> chi^0_4 tau^-)
     3.17609200E-01    2    -1000024        16   # BR(~tau^-_1 -> chi^-_1 nu_tau)
     2.42660520E-04    2    -1000037        16   # BR(~tau^-_1 -> chi^-_2 nu_tau)
DECAY   2000015     1.83253328E+02   # ~tau^-_2
#    BR                NDA      ID1      ID2
     7.15594288E-02    2     1000022        15   # BR(~tau^-_2 -> chi^0_1 tau^-)
     1.19261395E-01    2     1000023        15   # BR(~tau^-_2 -> chi^0_2 tau^-)
     1.15612415E-01    2     1000025        15   # BR(~tau^-_2 -> chi^0_3 tau^-)
     2.24886317E-01    2     1000035        15   # BR(~tau^-_2 -> chi^0_4 tau^-)
     1.23083058E-02    2    -1000024        16   # BR(~tau^-_2 -> chi^-_1 nu_tau)
     4.56372138E-01    2    -1000037        16   # BR(~tau^-_2 -> chi^-_2 nu_tau)
#    BR                NDA      ID1      ID2       ID3
DECAY   1000012     1.43660429E+02   # ~nu_e
#    BR                NDA      ID1      ID2
     8.79677785E-02    2     1000022        12   # BR(~nu_e -> chi^0_1 nu_e)
     2.48952470E-02    2     1000023        12   # BR(~nu_e -> chi^0_2 nu_e)
     1.57814058E-03    2     1000025        12   # BR(~nu_e -> chi^0_3 nu_e)
     2.77227070E-01    2     1000035        12   # BR(~nu_e -> chi^0_4 nu_e)
     8.47378661E-02    2     1000024        11   # BR(~nu_e -> chi^+_1 e^-)
     5.23593898E-01    2     1000037        11   # BR(~nu_e -> chi^+_2 e^-)
#    BR                NDA      ID1      ID2       ID3
DECAY   1000014     1.43806392E+02   # ~nu_mu
#    BR                NDA      ID1      ID2
     8.78784990E-02    2     1000022        14   # BR(~nu_mu -> chi^0_1 nu_mu)
     2.48699805E-02    2     1000023        14   # BR(~nu_mu -> chi^0_2 nu_mu)
     1.57653890E-03    2     1000025        14   # BR(~nu_mu -> chi^0_3 nu_mu)
     2.76945709E-01    2     1000035        14   # BR(~nu_mu -> chi^0_4 nu_mu)
     8.55861695E-02    2     1000024        13   # BR(~nu_mu -> chi^+_1 mu^-)
     5.23143103E-01    2     1000037        13   # BR(~nu_mu -> chi^+_2 mu^-)
#    BR                NDA      ID1      ID2       ID3
DECAY   1000016     1.84949283E+02   # ~nu_tau
#    BR                NDA      ID1      ID2
     6.83312143E-02    2     1000022        16   # BR(~nu_tau -> chi^0_1 nu_tau)
     1.93380225E-02    2     1000023        16   # BR(~nu_tau -> chi^0_2 nu_tau)
     1.22586125E-03    2     1000025        16   # BR(~nu_tau -> chi^0_3 nu_tau)
     2.15343296E-01    2     1000035        16   # BR(~nu_tau -> chi^0_4 nu_tau)
     2.71317799E-01    2     1000024        15   # BR(~nu_tau -> chi^+_1 tau^-)
     4.24443807E-01    2     1000037        15   # BR(~nu_tau -> chi^+_2 tau^-)
#    BR                NDA      ID1      ID2       ID3
DECAY   2000001     7.31068655E+02   # ~d_R
#    BR                NDA      ID1      ID2
     7.63746803E-03    2     1000022         1   # BR(~d_R -> chi^0_1 d)
     9.92294456E-01    2     1000021         1   # BR(~d_R -> ~g d)
DECAY   1000001     8.61384027E+02   # ~d_L
#    BR                NDA      ID1      ID2
     1.69082299E-03    2     1000022         1   # BR(~d_L -> chi^0_1 d)
     5.06778471E-03    2     1000023         1   # BR(~d_L -> chi^0_2 d)
     1.60202420E-04    2     1000025         1   # BR(~d_L -> chi^0_3 d)
     4.59584352E-02    2     1000035         1   # BR(~d_L -> chi^0_4 d)
     8.20580063E-03    2    -1000024         2   # BR(~d_L -> chi^-_1 u)
     9.42596722E-02    2    -1000037         2   # BR(~d_L -> chi^-_2 u)
     8.44657282E-01    2     1000021         1   # BR(~d_L -> ~g d)
DECAY   2000003     7.31150010E+02   # ~s_R
#    BR                NDA      ID1      ID2
     7.63707447E-03    2     1000022         3   # BR(~s_R -> chi^0_1 s)
     9.92184078E-01    2     1000021         3   # BR(~s_R -> ~g s)
DECAY   1000003     8.61428466E+02   # ~s_L
#    BR                NDA      ID1      ID2
     1.69112390E-03    2     1000022         3   # BR(~s_L -> chi^0_1 s)
     5.08918794E-03    2     1000023         3   # BR(~s_L -> chi^0_2 s)
     1.83579596E-04    2     1000025         3   # BR(~s_L -> chi^0_3 s)
     4.59579532E-02    2     1000035         3   # BR(~s_L -> chi^0_4 s)
     8.20900639E-03    2    -1000024         4   # BR(~s_L -> chi^-_1 c)
     9.42554019E-02    2    -1000037         4   # BR(~s_L -> chi^-_2 c)
     8.44613747E-01    2     1000021         3   # BR(~s_L -> ~g s)
DECAY   1000005     4.96470475E+01   # ~b_1
#    BR                NDA      ID1      ID2
     2.98002822E-02    2     1000022         5   # BR(~b_1 -> chi^0_1 b)
     2.12995015E-01    2     1000023         5   # BR(~b_1 -> chi^0_2 b)
     2.27335734E-01    2     1000025         5   # BR(~b_1 -> chi^0_3 b)
     1.65887638E-02    2     1000035         5   # BR(~b_1 -> chi^0_4 b)
     4.22432756E-01    2    -1000024         6   # BR(~b_1 -> chi^-_1 t)
     3.25846244E-02    2    -1000037         6   # BR(~b_1 -> chi^-_2 t)
     5.82628250E-02    2     1000021         5   # BR(~b_1 -> ~g b)
DECAY   2000005     3.61983620E+02   # ~b_2
#    BR                NDA      ID1      ID2
     2.68707061E-03    2     1000022         5   # BR(~b_2 -> chi^0_1 b)
     6.18948885E-02    2     1000023         5   # BR(~b_2 -> chi^0_2 b)
     6.17253763E-02    2     1000025         5   # BR(~b_2 -> chi^0_3 b)
     4.84216453E-02    2     1000035         5   # BR(~b_2 -> chi^0_4 b)
     2.04532288E-01    2    -1000024         6   # BR(~b_2 -> chi^-_1 t)
     1.21520399E-01    2    -1000037         6   # BR(~b_2 -> chi^-_2 t)
     4.98177284E-01    2     1000021         5   # BR(~b_2 -> ~g b)
     3.66443591E-04    2     1000005        23   # BR(~b_2 -> ~b_1 Z)
     6.74604432E-04    2     1000005        25   # BR(~b_2 -> ~b_1 h^0)
DECAY   2000002     7.48180737E+02   # ~u_R
#    BR                NDA      ID1      ID2
     2.98583195E-02    2     1000022         2   # BR(~u_R -> chi^0_1 u)
     1.89771759E-04    2     1000023         2   # BR(~u_R -> chi^0_2 u)
     9.69876742E-01    2     1000021         2   # BR(~u_R -> ~g u)
DECAY   1000002     8.61372805E+02   # ~u_L
#    BR                NDA      ID1      ID2
     1.55950506E-03    2     1000022         2   # BR(~u_L -> chi^0_1 u)
     6.02387529E-03    2     1000023         2   # BR(~u_L -> chi^0_2 u)
     4.52140548E-02    2     1000035         2   # BR(~u_L -> chi^0_4 u)
     1.42753445E-02    2     1000024         1   # BR(~u_L -> chi^+_1 d)
     8.82141129E-02    2     1000037         1   # BR(~u_L -> chi^+_2 d)
     8.44632044E-01    2     1000021         2   # BR(~u_L -> ~g u)
DECAY   2000004     7.48187963E+02   # ~c_R
#    BR                NDA      ID1      ID2
     2.98580337E-02    2     1000022         4   # BR(~c_R -> chi^0_1 c)
     1.91845900E-04    2     1000023         4   # BR(~c_R -> chi^0_2 c)
     9.69867345E-01    2     1000021         4   # BR(~c_R -> ~g c)
DECAY   1000004     8.61417199E+02   # ~c_L
#    BR                NDA      ID1      ID2
     1.55942749E-03    2     1000022         4   # BR(~c_L -> chi^0_1 c)
     6.02537541E-03    2     1000023         4   # BR(~c_L -> chi^0_2 c)
     4.52120116E-02    2     1000035         4   # BR(~c_L -> chi^0_4 c)
     1.43181763E-02    2     1000024         3   # BR(~c_L -> chi^+_1 s)
     8.82133253E-02    2     1000037         3   # BR(~c_L -> chi^+_2 s)
     8.44588509E-01    2     1000021         4   # BR(~c_L -> ~g c)
DECAY   1000006     4.31891013E+02   # ~t_1
#    BR                NDA      ID1      ID2
     4.95880084E-04    2     1000022         4   # BR(~t_1 -> chi^0_1 c)
     1.40487056E-03    2     1000022         6   # BR(~t_1 -> chi^0_1 t)
     1.87142757E-03    2     1000023         4   # BR(~t_1 -> chi^0_2 c)
     8.75497006E-02    2     1000023         6   # BR(~t_1 -> chi^0_2 t)
     9.63494105E-02    2     1000025         6   # BR(~t_1 -> chi^0_3 t)
     4.83432510E-02    2     1000035         6   # BR(~t_1 -> chi^0_4 t)
     1.07441579E-01    2     1000024         5   # BR(~t_1 -> chi^+_1 b)
     7.84657314E-02    2     1000037         5   # BR(~t_1 -> chi^+_2 b)
     1.60437478E-01    2     1000021         4   # BR(~t_1 -> ~g c)
     4.15625817E-01    2     1000021         6   # BR(~t_1 -> ~g t)
     6.16247858E-04    2     1000005        24   # BR(~t_1 -> ~b_1 W^+)
#    BR                NDA      ID1      ID2       ID3
     1.39860658E-03    3     1000022        24         5   # BR(~t_1 -> chi^0_1 W^+ b)
DECAY   2000006     4.38569928E+02   # ~t_2
#    BR                NDA      ID1      ID2
     2.41930973E-02    2     1000022         6   # BR(~t_2 -> chi^0_1 t)
     9.31861029E-02    2     1000023         6   # BR(~t_2 -> chi^0_2 t)
     1.08685561E-01    2     1000025         6   # BR(~t_2 -> chi^0_3 t)
     1.45127791E-02    2     1000035         6   # BR(~t_2 -> chi^0_4 t)
     1.87760296E-01    2     1000024         5   # BR(~t_2 -> chi^+_1 b)
     2.90838903E-02    2     1000037         5   # BR(~t_2 -> chi^+_2 b)
     5.42502476E-01    2     1000021         6   # BR(~t_2 -> ~g t)
DECAY   1000024     3.10991835E-01   # chi^+_1
#    BR                NDA      ID1      ID2
     9.96974845E-01    2     1000022        24   # BR(chi^+_1 -> chi^0_1 W^+)
#    BR                NDA      ID1      ID2       ID3
     3.02510088E-03    3     1000022        -5         6   # BR(chi^+_1 -> chi^0_1 b_bar t)
DECAY   1000037     3.03713169E+00   # chi^+_2
#    BR                NDA      ID1      ID2
     1.50298814E-02    2     1000022        24   # BR(chi^+_2 -> chi^0_1 W^+)
     4.27199659E-01    2     1000023        24   # BR(chi^+_2 -> chi^0_2 W^+)
     1.86867027E-01    2     1000025        24   # BR(chi^+_2 -> chi^0_3 W^+)
     2.20468428E-01    2     1000024        23   # BR(chi^+_2 -> chi^+_1 Z)
     1.50316878E-01    2     1000024        25   # BR(chi^+_2 -> chi^+_1 h^0)
#    BR                NDA      ID1      ID2       ID3
     1.17973175E-04    3     1000022        -5         6   # BR(chi^+_2 -> chi^0_1 b_bar t)
DECAY   1000022     0.00000000E+00   # chi^0_1
DECAY   1000023     2.69996473E-01   # chi^0_2
#    BR                NDA      ID1      ID2
     2.75049274E-01    2     1000022        23   # BR(chi^0_2 -> chi^0_1 Z)
     7.24933116E-01    2     1000022        25   # BR(chi^0_2 -> chi^0_1 h^0)
#    BR                NDA      ID1      ID2       ID3
DECAY   1000025     5.42473351E-01   # chi^0_3
#    BR                NDA      ID1      ID2
     5.35052447E-01    2     1000022        23   # BR(chi^0_3 -> chi^0_1 Z)
     4.64890621E-01    2     1000022        25   # BR(chi^0_3 -> chi^0_1 h^0)
#    BR                NDA      ID1      ID2       ID3
DECAY   1000035     4.73034674E+00   # chi^0_4
#    BR                NDA      ID1      ID2
     2.69317357E-01    2     1000024       -24   # BR(chi^0_4 -> chi^+_1 W^-)
     2.69317357E-01    2    -1000024        24   # BR(chi^0_4 -> chi^-_1 W^+)
     2.75073189E-03    2     1000022        23   # BR(chi^0_4 -> chi^0_1 Z)
     4.00700001E-03    2     1000023        23   # BR(chi^0_4 -> chi^0_2 Z)
     2.37110253E-01    2     1000025        23   # BR(chi^0_4 -> chi^0_3 Z)
     5.97841303E-03    2     1000022        25   # BR(chi^0_4 -> chi^0_1 h^0)
     9.26066012E-02    2     1000023        25   # BR(chi^0_4 -> chi^0_2 h^0)
     1.18854655E-01    2     1000025        25   # BR(chi^0_4 -> chi^0_3 h^0)
#    BR                NDA      ID1      ID2       ID3
DECAY   1000021     9.31599458E-02   # ~g
#    BR                NDA      ID1      ID2
     1.04135667E-04    2     1000022        21   # BR(~g -> chi^0_1 g)
     1.09353704E-03    2     1000023        21   # BR(~g -> chi^0_2 g)
     6.32308913E-04    2     1000025        21   # BR(~g -> chi^0_3 g)
     1.43207125E-04    2     1000035        21   # BR(~g -> chi^0_4 g)
#    BR                NDA      ID1      ID2       ID3
     1.01441036E-04    3     1000022         2        -2   # BR(~g -> chi^0_1 u u_bar)
     1.01441059E-04    3     1000022         4        -4   # BR(~g -> chi^0_1 c c_bar)
     2.28579521E-03    3     1000022         6        -6   # BR(~g -> chi^0_1 t t_bar)
     3.12162993E-02    3     1000022         5        -5   # BR(~g -> chi^0_1 b b_bar)
     2.21391846E-02    3     1000023         6        -6   # BR(~g -> chi^0_2 t t_bar)
     2.05464261E-01    3     1000023         5        -5   # BR(~g -> chi^0_2 b b_bar)
     2.26027373E-02    3     1000025         6        -6   # BR(~g -> chi^0_3 t t_bar)
     2.15762225E-01    3     1000025         5        -5   # BR(~g -> chi^0_3 b b_bar)
     3.72293986E-03    3     1000035         6        -6   # BR(~g -> chi^0_4 t t_bar)
     1.00619957E-04    3     1000035         1        -1   # BR(~g -> chi^0_4 d d_bar)
     1.00628955E-04    3     1000035         3        -3   # BR(~g -> chi^0_4 s s_bar)
     1.81447797E-02    3     1000035         5        -5   # BR(~g -> chi^0_4 b b_bar)
     2.19315894E-01    3     1000024         5        -6   # BR(~g -> chi^+_1 b t_bar)
     2.19315894E-01    3    -1000024        -5         6   # BR(~g -> chi^-_1 b_bar t)
     1.84497335E-02    3     1000037         5        -6   # BR(~g -> chi^+_2 b t_bar)
     1.84497335E-02    3    -1000037        -5         6   # BR(~g -> chi^-_2 b_bar t)
DECAY        25     3.60508386E-03   # Gamma(h0)
     2.33587618E-03   2        22        22   # BR(h0 -> photon photon)
     1.30675290E-03   2        22        23   # BR(h0 -> photon Z)
     2.22786187E-02   2        23        23   # BR(h0 -> Z Z)
     1.92631131E-01   2       -24        24   # BR(h0 -> W W)
     7.40514710E-02   2        21        21   # BR(h0 -> gluon gluon)
     5.43323747E-09   2       -11        11   # BR(h0 -> Electron electron)
     2.41678785E-04   2       -13        13   # BR(h0 -> Muon muon)
     6.96815505E-02   2       -15        15   # BR(h0 -> Tau tau)
     1.54844300E-07   2        -2         2   # BR(h0 -> Up up)
     3.00465644E-02   2        -4         4   # BR(h0 -> Charm charm)
     6.30994913E-07   2        -1         1   # BR(h0 -> Down down)
     2.28216201E-04   2        -3         3   # BR(h0 -> Strange strange)
     6.07197350E-01   2        -5         5   # BR(h0 -> Bottom bottom)
DECAY        35     1.14261765E+02   # Gamma(HH)
     4.02352170E-08   2        22        22   # BR(HH -> photon photon)
     9.56865501E-08   2        22        23   # BR(HH -> photon Z)
     8.72636870E-08   2        23        23   # BR(HH -> Z Z)
     2.43253841E-08   2       -24        24   # BR(HH -> W W)
     5.69934689E-06   2        21        21   # BR(HH -> gluon gluon)
     9.10435436E-09   2       -11        11   # BR(HH -> Electron electron)
     4.05378578E-04   2       -13        13   # BR(HH -> Muon muon)
     1.17079438E-01   2       -15        15   # BR(HH -> Tau tau)
     3.50521615E-14   2        -2         2   # BR(HH -> Up up)
     6.79950885E-09   2        -4         4   # BR(HH -> Charm charm)
     4.72514145E-04   2        -6         6   # BR(HH -> Top top)
     6.56180623E-07   2        -1         1   # BR(HH -> Down down)
     2.37344544E-04   2        -3         3   # BR(HH -> Strange strange)
     5.54057791E-01   2        -5         5   # BR(HH -> Bottom bottom)
     3.62446405E-02   2  -1000024   1000024   # BR(HH -> Chargino1 chargino1)
     7.12943974E-02   2  -1000024   1000037   # BR(HH -> Chargino1 chargino2)
     7.12943974E-02   2  -1000037   1000024   # BR(HH -> Chargino2 chargino1)
     1.92874778E-02   2  -1000037   1000037   # BR(HH -> Chargino2 chargino2)
     5.26877786E-04   2   1000022   1000022   # BR(HH -> neutralino1 neutralino1)
     1.64514741E-02   2   1000022   1000023   # BR(HH -> neutralino1 neutralino2)
     1.43585993E-02   2   1000022   1000025   # BR(HH -> neutralino1 neutralino3)
     3.45035052E-04   2   1000022   1000035   # BR(HH -> neutralino1 neutralino4)
     1.18289765E-02   2   1000023   1000023   # BR(HH -> neutralino2 neutralino2)
     4.43705553E-03   2   1000023   1000025   # BR(HH -> neutralino2 neutralino3)
     2.53745156E-02   2   1000023   1000035   # BR(HH -> neutralino2 neutralino4)
     4.93486110E-04   2   1000025   1000025   # BR(HH -> neutralino3 neutralino3)
     4.54932236E-02   2   1000025   1000035   # BR(HH -> neutralino3 neutralino4)
     1.03101356E-02   2   1000035   1000035   # BR(HH -> neutralino4 neutralino4)
     6.22829508E-07   2        25        25   # BR(HH -> h0 h0)
DECAY        36     1.09155832E+02   # Gamma(A0)
     1.92809659E-09   2        22        22   # BR(A0 -> photon photon)
     3.14135823E-08   2        22        23   # BR(A0 -> photon Z)
     1.03256098E-05   2        21        21   # BR(A0 -> gluon gluon)
     8.89495497E-09   2       -11        11   # BR(A0 -> Electron electron)
     3.96052905E-04   2       -13        13   # BR(A0 -> Muon muon)
     1.14386208E-01   2       -15        15   # BR(A0 -> Tau tau)
     3.19594721E-14   2        -2         2   # BR(A0 -> Up up)
     6.19930751E-09   2        -4         4   # BR(A0 -> Charm charm)
     4.35351908E-04   2        -6         6   # BR(A0 -> Top top)
     6.41054371E-07   2        -1         1   # BR(A0 -> Down down)
     2.31871993E-04   2        -3         3   # BR(A0 -> Strange strange)
     5.41283642E-01   2        -5         5   # BR(A0 -> Bottom bottom)
     3.94938322E-02   2  -1000024   1000024   # BR(A0 -> Chargino1 chargino1)
     7.31652307E-02   2  -1000024   1000037   # BR(A0 -> Chargino1 chargino2)
     7.31652307E-02   2  -1000037   1000024   # BR(A0 -> Chargino2 chargino1)
     2.16770727E-02   2  -1000037   1000037   # BR(A0 -> Chargino2 chargino2)
     5.43677506E-04   2   1000022   1000022   # BR(A0 -> neutralino1 neutralino1)
     1.64659729E-02   2   1000022   1000023   # BR(A0 -> neutralino1 neutralino2)
     1.58876095E-02   2   1000022   1000025   # BR(A0 -> neutralino1 neutralino3)
     2.97956235E-04   2   1000022   1000035   # BR(A0 -> neutralino1 neutralino4)
     1.26735931E-02   2   1000023   1000023   # BR(A0 -> neutralino2 neutralino2)
     4.72119601E-03   2   1000023   1000025   # BR(A0 -> neutralino2 neutralino3)
     2.82554515E-02   2   1000023   1000035   # BR(A0 -> neutralino2 neutralino4)
     6.35785048E-04   2   1000025   1000025   # BR(A0 -> neutralino3 neutralino3)
     4.46282344E-02   2   1000025   1000035   # BR(A0 -> neutralino3 neutralino4)
     1.16448601E-02   2   1000035   1000035   # BR(A0 -> neutralino4 neutralino4)
     1.55779180E-07   2        23        25   # BR(A0 -> Z h0)
     4.07893670E-14   2        23        35   # BR(A0 -> Z HH)
     8.26074274E-40   2        25        25   # BR(A0 -> h0 h0)
DECAY        37     1.14100562E+02   # Gamma(Hp)
     9.65112116E-09   2       -11        12   # BR(Hp -> Electron nu_e)
     4.12615572E-04   2       -13        14   # BR(Hp -> Muon nu_mu)
     1.16711156E-01   2       -15        16   # BR(Hp -> Tau nu_tau)
     6.00287102E-07   2        -1         2   # BR(Hp -> Down up)
     1.01397243E-05   2        -3         2   # BR(Hp -> Strange up)
     5.85954763E-06   2        -5         2   # BR(Hp -> Bottom up)
     2.83669363E-08   2        -1         4   # BR(Hp -> Down charm)
     2.16340341E-04   2        -3         4   # BR(Hp -> Strange charm)
     8.20546357E-04   2        -5         4   # BR(Hp -> Bottom charm)
     3.43284441E-08   2        -1         6   # BR(Hp -> Down top)
     1.06926002E-06   2        -3         6   # BR(Hp -> Strange top)
     5.53774763E-01   2        -5         6   # BR(Hp -> Bottom top)
     3.13802952E-02   2   1000022   1000024   # BR(Hp -> neutralino1 chargino1)
     5.88786385E-04   2   1000022   1000037   # BR(Hp -> neutralino1 chargino2)
     6.55740873E-04   2   1000023   1000024   # BR(Hp -> neutralino2 chargino1)
     1.05004444E-01   2   1000023   1000037   # BR(Hp -> neutralino2 chargino2)
     1.52898201E-02   2   1000024   1000025   # BR(Hp -> chargino1 neutralino3)
     8.25254729E-02   2   1000025   1000037   # BR(Hp -> neutralino3 chargino2)
     9.25908548E-02   2   1000024   1000035   # BR(Hp -> chargino1 neutralino4)
     1.12734490E-05   2   1000035   1000037   # BR(Hp -> neutralino4 chargino2)
     1.49184076E-07   2        24        25   # BR(Hp -> W h0)
     2.57649134E-13   2        24        35   # BR(Hp -> W HH)
DECAY         6     2.43000000E+00   # top
#    BR                NDA      ID1      ID2
     1.00000000E+00    2           5        24   # BR(t -> b W)
Block HiggsBoundsInputHiggsCouplingsFermions
# ScalarNormEffCoupSq PseudoSNormEffCoupSq NP IP1 IP2 IP2
    9.58185668E-01    0.00000000E+00        3  25   5   5  # h0-b-b eff. coupling^2, normalised to SM
    1.99174420E+03    0.00000000E+00        3  35   5   5  # H0-b-b eff. coupling^2, normalised to SM
    0.00000000E+00    1.99170239E+03        3  36   5   5  # A0-b-b eff. coupling^2, normalised to SM
#
    1.00002099E+00    0.00000000E+00        3  25   6   6  # h0-t-t eff. coupling^2, normalised to SM
    4.81088778E-04    0.00000000E+00        3  35   6   6  # H0-t-t eff. coupling^2, normalised to SM
    0.00000000E+00    5.02083045E-04        3  36   6   6  # A0-t-t eff. coupling^2, normalised to SM
#
    9.58185668E-01    0.00000000E+00        3  25  15  15  # h0-tau-tau eff. coupling^2, normalised to SM
    1.99174420E+03    0.00000000E+00        3  35  15  15  # H0-tau-tau eff. coupling^2, normalised to SM
    0.00000000E+00    1.99170239E+03        3  36  15  15  # A0-tau-tau eff. coupling^2, normalised to SM
#
Block HiggsBoundsInputHiggsCouplingsBosons
    9.99999776E-01        3  25  24  24  # h0-W-W eff. coupling^2, normalised to SM
    2.24174873E-07        3  35  24  24  # H0-W-W eff. coupling^2, normalised to SM
    0.00000000E+00        3  36  24  24  # A0-W-W eff. coupling^2, normalised to SM
#
    9.99999776E-01        3  25  23  23  # h0-Z-Z eff. coupling^2, normalised to SM
    2.24174873E-07        3  35  23  23  # H0-Z-Z eff. coupling^2, normalised to SM
    0.00000000E+00        3  36  23  23  # A0-Z-Z eff. coupling^2, normalised to SM
#
    1.27015018E+00        3  25  21  21  # h0-g-g eff. coupling^2, normalised to SM
    9.53536658E-03        3  35  21  21  # H0-g-g eff. coupling^2, normalised to SM
    1.30253831E-01        3  36  21  21  # A0-g-g eff. coupling^2, normalised to SM
#
    0.00000000E+00        3  25  25  23  # h0-h0-Z eff. coupling^2, normalised to SM
    0.00000000E+00        3  35  25  23  # H0-h0-Z eff. coupling^2, normalised to SM
    2.24174873E-07        3  36  25  23  # A0-h0-Z eff. coupling^2, normalised to SM
    0.00000000E+00        3  35  35  23  # H0-H0-Z eff. coupling^2, normalised to SM
    9.99999776E-01        3  36  35  23  # A0-H0-Z eff. coupling^2, normalised to SM
    0.00000000E+00        3  36  36  23  # A0-A0-Z eff. coupling^2, normalised to SM
#
    0.00000000E+00        4  25  21  21  23  # h0-g-g-Z eff. coupling^2, normalised to SM
    0.00000000E+00        4  35  21  21  23  # H0-g-g-Z eff. coupling^2, normalised to SM
    0.00000000E+00        4  36  21  21  23  # A0-g-g-Z eff. coupling^2, normalised to SM
Block SPhenoLowEnergy  # low energy observables
    1    3.24936038E-04   # BR(b -> s gamma)
    2    1.58941703E-06   # BR(b -> s mu+ mu-)
    3    3.52460239E-05   # BR(b -> s nu nu)
    4    2.55409658E-15   # BR(Bd -> e+ e-)
    5    1.09108091E-10   # BR(Bd -> mu+ mu-)
    6    2.28398317E-08   # BR(Bd -> tau+ tau-)
    7    8.51394921E-14   # BR(Bs -> e+ e-)
    8    3.63715760E-09   # BR(Bs -> mu+ mu-)
    9    7.71543859E-07   # BR(Bs -> tau+ tau-)
   10    9.56811002E-05   # BR(B_u -> tau nu)
   11    9.88349134E-01   # BR(B_u -> tau nu)/BR(B_u -> tau nu)_SM
   12    5.41915176E-01   # |Delta(M_Bd)| [ps^-1] 
   13    1.93568889E+01   # |Delta(M_Bs)| [ps^-1] 
   14    0.00000000E+00   # neutron EDM according to the chiral quark model
   15    0.00000000E+00   # neutron EDM according to the relativistic quark-parton model
   16    2.15711975E-03   # epsilon_K
   17    2.28165748E-15   # Delta(M_K)
   18    2.47950432E-11   # BR(K^0 -> pi^0 nu nu)
   19    8.28932584E-11   # BR(K^+ -> pi^+ nu nu)
   20   -4.18468620E-16   # Delta(g-2)_electron/2
   21   -1.78910639E-11   # Delta(g-2)_muon/2
   22   -5.07755192E-09   # Delta(g-2)_tau/2
   23    0.00000000E+00   # electric dipole moment of the electron
   24    0.00000000E+00   # electric dipole moment of the muon
   25    0.00000000E+00   # electric dipole moment of the tau
   26    0.00000000E+00   # Br(mu -> e gamma)
   27    0.00000000E+00   # Br(tau -> e gamma)
   28    0.00000000E+00   # Br(tau -> mu gamma)
   29    0.00000000E+00   # Br(mu -> 3 e)
   30    0.00000000E+00   # Br(tau -> 3 e)
   31    0.00000000E+00   # Br(tau -> 3 mu)
   39    7.38451758E-05   # Delta(rho_parameter)
   40    0.00000000E+00   # BR(Z -> e mu)
   41    0.00000000E+00   # BR(Z -> e tau)
   42    0.00000000E+00   # BR(Z -> mu tau)
Block FWCOEF Q=  1.60000000E+02  # Wilson coefficients at scale Q
#    id        order  M        value         comment
     0305 4422   00   0    -1.88819110E-01   # C7
     0305 4422   00   2    -1.92776295E-01   # C7
     0305 4322   00   2    -1.12629294E-04   # C7'
     0305 6421   00   0    -9.52278348E-02   # C8
     0305 6421   00   2    -1.04541548E-01   # C8
     0305 6321   00   2    -1.97742050E-04   # C8'
 03051111 4133   00   0     1.63134551E+00   # C9 e+e-
 03051111 4133   00   2     1.63158600E+00   # C9 e+e-
 03051111 4233   00   2     4.89084402E-04   # C9' e+e-
 03051111 4137   00   0    -4.45403761E+00   # C10 e+e-
 03051111 4137   00   2    -4.45184904E+00   # C10 e+e-
 03051111 4237   00   2    -3.59244371E-03   # C10' e+e-
 03051313 4133   00   0     1.63134551E+00   # C9 mu+mu-
 03051313 4133   00   2     1.63158586E+00   # C9 mu+mu-
 03051313 4233   00   2     4.89083826E-04   # C9' mu+mu-
 03051313 4137   00   0    -4.45403761E+00   # C10 mu+mu-
 03051313 4137   00   2    -4.45184918E+00   # C10 mu+mu-
 03051313 4237   00   2    -3.59244385E-03   # C10' mu+mu-
 03051212 4137   00   0     1.50535012E+00   # C11 nu_1 nu_1
 03051212 4137   00   2     1.50487897E+00   # C11 nu_1 nu_1
 03051212 4237   00   2     7.76007852E-04   # C11' nu_1 nu_1
 03051414 4137   00   0     1.50535012E+00   # C11 nu_2 nu_2
 03051414 4137   00   2     1.50487897E+00   # C11 nu_2 nu_2
 03051414 4237   00   2     7.76007938E-04   # C11' nu_2 nu_2
 03051616 4137   00   0     1.50535012E+00   # C11 nu_3 nu_3
 03051616 4137   00   2     1.50487897E+00   # C11 nu_3 nu_3
 03051616 4237   00   2     7.76031998E-04   # C11' nu_3 nu_3
Block IMFWCOEF Q=  1.60000000E+02  # Im(Wilson coefficients) at scale Q
#    id        order  M        value         comment
     0305 4422   00   0     3.85818878E-07   # C7
     0305 4422   00   2    -8.20413257E-08   # C7
     0305 4322   00   2     1.62763194E-07   # C7'
     0305 6421   00   0     3.30479385E-07   # C8
     0305 6421   00   2    -4.34965559E-05   # C8
     0305 6321   00   2    -7.14444413E-07   # C8'
 03051111 4133   00   2     7.02244453E-07   # C9 e+e-
 03051111 4233   00   2     9.59060329E-06   # C9' e+e-
 03051111 4137   00   2    -6.05577313E-07   # C10 e+e-
 03051111 4237   00   2    -7.04539019E-05   # C10' e+e-
 03051313 4133   00   2     7.02239493E-07   # C9 mu+mu-
 03051313 4233   00   2     9.59060009E-06   # C9' mu+mu-
 03051313 4137   00   2    -6.05571958E-07   # C10 mu+mu-
 03051313 4237   00   2    -7.04539114E-05   # C10' mu+mu-
 03051212 4137   00   2     1.59466153E-07   # C11 nu_1 nu_1
 03051212 4237   00   2     1.52188303E-05   # C11' nu_1 nu_1
 03051414 4137   00   2     1.59466404E-07   # C11 nu_2 nu_2
 03051414 4237   00   2     1.52188303E-05   # C11' nu_2 nu_2
 03051616 4137   00   2     1.59536073E-07   # C11 nu_3 nu_3
 03051616 4237   00   2     1.52188302E-05   # C11' nu_3 nu_3
