BLOCK SPINFO
   1   SPheno
   2   v4.0.5be

BLOCK SPHENOINFO
   1   2
   2   2

BLOCK MODSEL
   1   0

BLOCK MINPAR
   3    34.291431
   4   -1

BLOCK EXTPAR
   0    2670.9599
   1   -326.25177
   2    3506.0891
   3    2562.3732
   11    3158.057
   12   -2098.3369
   13   -9.6372803
   23   -2298.7311
   25    33.514291
   26    1461.7489
   31    3801.1607
   32    3801.1607
   33    1841.2414
   34    2829.8536
   35    2829.8536
   36    2666.7901
   41    2822.1619
   42    2822.1619
   43    4489.0183
   44    3319.7782
   45    3319.7782
   46    1394.114
   47    1663.5602
   48    1663.5602
   49    2350.9559

BLOCK SMINPUTS
   1    127.90897
   2    1.1663787e-05
   3    0.1184
   4    91.1876
   5    4.18
   6    173.2
   7    1.777
   8    0
   11    0.00051099893
   12    0
   13    0.10565837
   14    0
   21    0.005
   22    0.0025
   23    0.095
   24    1.27

BLOCK GAUGE Q=  2670.9599
   1    0.35536298
   2    0.66519887
   3    1.219778

BLOCK YU Q=  2670.9599
   1   1    8.3881036e-06
   2   2    0.0042611567
   3   3    1.0133503

BLOCK YD Q=  2670.9599
   1   1    0.00056490325
   2   2    0.010733162
   3   3    0.56020701

BLOCK YE Q=  2670.9599
   1   1    9.8579748e-05
   2   2    0.020383165
   3   3    0.34281131

BLOCK AU Q=  2670.9599
   1   1    0
   2   2    0
   3   3    3158.057

BLOCK AD Q=  2670.9599
   1   1    0
   2   2    0
   3   3   -2098.3368

BLOCK AE Q=  2670.9599
   1   1    0
   2   2    0
   3   3   -9.6372803

BLOCK MSOFT Q=  2670.9599
   1   -326.25177
   2    3506.0891
   3    2562.3732
   21   -3177318.6
   22   -5369995
   31    3801.1607
   32    3801.1607
   33    1841.2414
   34    2829.8536
   35    2829.8536
   36    2666.7901
   41    2822.1619
   42    2822.1619
   43    4489.0183
   44    3319.7782
   45    3319.7782
   46    1394.114
   47    1663.5602
   48    1663.5602
   49    2350.9559

BLOCK MASS
   6    173.2
   23    91.1876
   24    80.429995
   15    1.777
   25    120.93931
   35    1461.6282
   36    1461.7489
   37    1463.7943
   1000001    2929.3157
   2000001    1783.3298
   1000002    2928.254
   2000002    3389.7181
   1000003    2929.3126
   2000003    1783.3252
   1000004    2928.2502
   2000004    3389.7178
   1000005    2455.3718
   2000005    4524.5812
   1000006    1575.7972
   2000006    4527.2493
   1000011    3818.0367
   2000011    2832.423
   1000012    3816.8061
   1000013    3818.0278
   2000013    2832.4127
   1000014    3816.796
   1000015    1860.9026
   2000015    2664.5565
   1000016    1860.2405
   1000021    2751.0716
   1000022   -324.49523
   1000023    2300.2805
   1000025   -2302.972
   1000035    3505.9225
   1000024    2300.6767
   1000037    3506.0717

BLOCK ALPHA
      -0.029370862

BLOCK HMIX Q=  2670.9599
   1   -2298.7311
   2    33.514291
   3    243.43395
   4    2136709.7

BLOCK STOPMIX
   1   1   -0.024383614
   1   2    0.99970267
   2   1   -0.99970267
   2   2   -0.024383614

BLOCK SBOTMIX
   1   1   -0.014445723
   1   2    0.99989565
   2   1   -0.99989565
   2   2   -0.014445723

BLOCK STAUMIX
   1   1   -0.99938017
   1   2    0.035203287
   2   1   -0.035203287
   2   2   -0.99938017

BLOCK NMIX
   1   1   -0.99978729
   1   2   -8.9630458e-05
   1   3    0.020327446
   1   4   -0.003486642
   2   1    0.011902152
   2   2    0.042624514
   2   3    0.70670212
   2   4    0.70612577
   3   1   -0.016838009
   3   2    0.0095912019
   3   3   -0.7068331
   3   4    0.70711488
   4   1    0.00043585429
   4   2   -0.99904512
   4   3    0.023363943
   4   4    0.036915912

BLOCK UMIX
   1   1   -0.032817458
   1   2   -0.99946136
   2   1    0.99946136
   2   2   -0.032817458

BLOCK VMIX
   1   1   -0.051970459
   1   2    0.99864862
   2   1    0.99864862
   2   2    0.051970459

BLOCK HIGGSBOUNDSINPUTHIGGSCOUPLINGSFERMIONS
       0, 1123.2077,3,36,15,15

BLOCK HIGGSBOUNDSINPUTHIGGSCOUPLINGSBOSONS
       0,4,36,21,21,23

BLOCK SPHENOLOWENERGY
   1    0.00033446705
   2    1.5885621e-06
   3    3.5250652e-05
   4    2.8160732e-15
   5    1.2029739e-10
   6    2.5065558e-08
   7    9.5482948e-14
   8    4.0789589e-09
   9    8.6116484e-07
   10    9.4237104e-05
   11    0.9734332
   12    0.54211553
   13    19.357509
   14    0
   15    0
   16    0.0021578734
   17    2.2816676e-15
   18    2.479891e-11
   19    8.2898204e-11
   20   -8.851486e-16
   21   -3.7842528e-11
   22   -1.3568036e-08
   23    0
   24    0
   25    0
   26    0
   27    0
   28    0
   29    0
   30    0
   31    0
   39    6.7530394e-05
   40    0
   41    0
   42    0

BLOCK FWCOEF Q=  160
   305   4422   0   0   -0.18881911
   305   4422   0   2   -0.20241239
   305   4322   0   2   -0.00020034562
   305   6421   0   0   -0.095227835
   305   6421   0   2   -0.11551284
   305   6321   0   2   -0.00035296708
   3051111   4133   0   0    1.6126091
   3051111   4133   0   2    1.6128049
   3051111   4233   0   2   -3.964291e-05
   3051111   4137   0   0   -4.4353012
   3051111   4137   0   2   -4.4334298
   3051111   4237   0   2    0.00029930942
   3051313   4133   0   0    1.6126091
   3051313   4133   0   2    1.6128041
   3051313   4233   0   2   -3.9645026e-05
   3051313   4137   0   0   -4.4353012
   3051313   4137   0   2   -4.4334307
   3051313   4237   0   2    0.00029931141
   3051212   4137   0   0    1.5053501
   3051212   4137   0   2    1.5049443
   3051212   4237   0   2   -6.4926303e-05
   3051414   4137   0   0    1.5053501
   3051414   4137   0   2    1.5049443
   3051414   4237   0   2   -6.4925852e-05
   3051616   4137   0   0    1.5053501
   3051616   4137   0   2    1.5049443
   3051616   4237   0   2   -6.4798661e-05

BLOCK IMFWCOEF Q=  160
   305   4422   0   0    3.8586643e-07
   305   4422   0   2   -2.6060453e-06
   305   4322   0   2    3.3961062e-06
   305   6421   0   0    3.3052012e-07
   305   6421   0   2    4.1774864e-06
   305   6321   0   2    2.2888623e-06
   3051111   4133   0   2   -7.6302374e-07
   3051111   4233   0   2    8.99094e-07
   3051111   4137   0   2    6.1120685e-06
   3051111   4237   0   2   -6.8013073e-06
   3051313   4133   0   2   -7.6301977e-07
   3051313   4233   0   2    8.9909336e-07
   3051313   4137   0   2    6.1120726e-06
   3051313   4237   0   2   -6.801309e-06
   3051212   4137   0   2   -1.3228079e-06
   3051212   4237   0   2    1.4753874e-06
   3051414   4137   0   2   -1.3228079e-06
   3051414   4237   0   2    1.4753874e-06
   3051616   4137   0   2   -1.3236469e-06
   3051616   4237   0   2    1.4753907e-06

DECAY 23  2.4952


DECAY 24  2.085


DECAY 2000011  13.855556
    0.99994968   2    1000022    11

DECAY 1000011  5.9947381
    0.78845789   2    1000022    11
    0.13759285   2   -1000037    12
    0.068770028   2    1000035    11
    0.0027294394   2    1000023    11
    0.0024493452   2   -1000024    12

DECAY 2000013  13.860917
    0.99955975   2    1000022    13
    0.00019529612   2   -1000024    14
    0.00013033775   2    1000025    13
    0.00011461619   2    1000023    13

DECAY 1000013  6.0100013
    0.78645572   2    1000022    13
    0.13723617   2   -1000037    14
    0.068591775   2    1000035    13
    0.0037868222   2    1000023    13
    0.002443106   2   -1000024    14
    0.0010621376   2    1000025    13
    0.00042427247   2    2000013    25

DECAY 1000015  2.2113863
    1   2    1000022    15

DECAY 2000015  18.106234
    0.71648969   2    1000022    15
    0.11683023   2    1000016   -24
    0.064455556   2    1000015    25
    0.057963042   2    1000015    23
    0.022129654   2   -1000024    16
    0.011095679   2    1000023    15
    0.011036153   2    1000025    15

DECAY 1000012  5.9971296
    0.78735337   2    1000022    12
    0.13631923   2    1000037    11
    0.068308315   2    1000035    12
    0.0061337226   2    1000024    11
    0.0014940008   2    1000023    12
    0.00039136194   2    1000025    12

DECAY 1000014  6.0098185
    0.78568883   2    1000022    14
    0.13602328   2    1000037    13
    0.068159996   2    1000035    14
    0.0082465321   2    1000024    13
    0.0014908334   2    1000023    14
    0.00039053222   2    1000025    14

DECAY 1000016  2.1950421
    1   2    1000022    16

DECAY 2000001  0.93038652
    1   2    1000022    1

DECAY 1000001  3.6250008
    0.88805501   2    1000021    1
    0.10987867   2    1000022    1
    0.0011247114   2   -1000024    2
    0.00085801627   2    1000023    1

DECAY 2000003  0.93038548
    1   2    1000022    3

DECAY 1000003  3.6273151
    0.8874586   2    1000021    3
    0.1098092   2    1000022    3
    0.0011658263   2   -1000024    4
    0.0009931519   2    1000023    3
    0.00035624073   2    2000003    25
    0.00021698499   2    1000025    3

DECAY 1000005  1.558419
    0.85514731   2    1000022    5
    0.073629408   2    1000023    5
    0.071062301   2    1000025    5
    0.00016098576   2    1000006   -24

DECAY 2000005  267.44101
    0.53055379   2    1000021    5
    0.18820285   2   -1000024    6
    0.094909688   2    1000006   -24
    0.060560632   2    1000006   -37
    0.029041104   2    1000023    5
    0.028993615   2    1000025    5
    0.024021442   2   -1000037    6
    0.011882874   2    1000035    5
    0.0090691658   2    1000005    25
    0.0086050836   2    1000005    23
    0.0059095594   2    1000005    36
    0.0058992654   2    1000005    35
    0.0023509315   2    1000022    5

DECAY 1000002  3.5962613
    0.8851512   2    1000021    2
    0.1109378   2    1000022    2
    0.0028362706   2    1000024    1
    0.0010520523   2    1000023    2

DECAY 2000002  38.599665
    0.80752455   2    1000021    2
    0.19245124   2    1000022    2

DECAY 1000004  3.5971597
    0.88486516   2    1000021    4
    0.1109099   2    1000022    4
    0.0031082924   2    1000024    3
    0.0010726802   2    1000023    4

DECAY 2000004  38.600253
    0.80750917   2    1000021    4
    0.19244823   2    1000022    4

DECAY 1000006  3.1422165
    0.99995236   2    1000022    6

DECAY 2000006  275.12346
    0.51477314   2    1000021    6
    0.091638   2    1000025    6
    0.091420304   2    1000023    6
    0.074689563   2    1000006    25
    0.057078918   2    1000024    5
    0.046198063   2    1000006    23
    0.029516687   2    1000006    36
    0.029486227   2    1000006    35
    0.023052659   2    1000037    5
    0.016789404   2    1000005    24
    0.011659014   2    1000035    6
    0.011418598   2    1000005    37
    0.0022794204   2    1000022    6

DECAY 1000024  22.329389
    0.88572745   2    1000006   -5
    0.074224155   2    1000022    24
    0.022402293   2    37    1000022
    0.014556331   2    1000016   -15
    0.0028734568   3    1000022   -5    6
    0.00014062827   2   -1000015    16

DECAY 1000037  55.151477
    0.14410421   2    1000016   -15
    0.14385977   2   -1000015    16
    0.10643056   2    1000024    25
    0.094027105   2    1000023    24
    0.092834922   2    1000025    24
    0.091816884   2    1000024    23
    0.076581438   2    1000004   -3
    0.076580491   2    1000002   -1
    0.076449276   2   -1000003    4
    0.076448788   2   -1000001    2
    0.0057264772   2    1000006   -5
    0.0050231927   3    1000024    6   -6
    0.0047728936   3    1000025   -5    6
    0.0041762298   3    1000023   -5    6
    0.00060005981   3    1000024    5   -5
    0.00016402362   2    1000022    24
    0.00013546108   2   -2000015    16

DECAY 1000022 -1


DECAY 1000023  21.902487
    0.43516388   2    1000006   -6
    0.43516388   2   -1000006    6
    0.050469674   2    1000022    23
    0.039244642   2    1000022    25
    0.017212474   2    1000022    35
    0.0074146247   2    1000015   -15
    0.0074146247   2   -1000015    15
    0.0056850462   2    1000022    36
    0.0020405965   3    1000022    6   -6

DECAY 1000025  21.756006
    0.44540516   2    1000006   -6
    0.44540516   2   -1000006    6
    0.044623514   2    1000022    25
    0.025514011   2    1000022    23
    0.01538371   2    1000022    35
    0.0074257139   2    1000015   -15
    0.0074257139   2   -1000015    15
    0.0064576595   2    1000022    36
    0.0022114901   3    1000022    6   -6

DECAY 1000035  60.964228
    0.10362042   2    1000025    25
    0.091765433   2    1000023    25
    0.082365875   2    1000024   -24
    0.082365875   2   -1000024    24
    0.08091326   2    1000025    23
    0.065235402   2    1000016   -16
    0.065235402   2   -1000016    16
    0.065001397   2    1000015   -15
    0.065001397   2   -1000015    15
    0.034646725   2    1000004   -4
    0.034646725   2   -1000004    4
    0.034646434   2    1000002   -2
    0.034646434   2   -1000002    2
    0.034541678   2    1000003   -3
    0.034541678   2   -1000003    3
    0.034541321   2    1000001   -1
    0.034541321   2   -1000001    1
    0.0040894677   2    1000023    23
    0.0036389642   3    1000024    5   -6
    0.0036389642   3   -1000024   -5    6
    0.0025914616   2    1000006   -6
    0.0025914616   2   -1000006    6
    0.0022336436   3    1000025    6   -6
    0.0019174434   3    1000023    6   -6
    0.00027110136   3    1000023    5   -5
    0.00023994175   3    1000025    5   -5

DECAY 1000021  95.014108
    0.19407021   2    1000006   -6
    0.19407021   2   -1000006    6
    0.14405558   2    2000003   -3
    0.14405558   2   -2000003    3
    0.14405451   2    2000001   -1
    0.14405451   2   -2000001    1
    0.017737846   2    1000005   -5
    0.017737846   2   -1000005    5

DECAY 25  0.0034581015
    0.6363557   2   -5    5
    0.16416495   2   -24    24
    0.074063644   2    21    21
    0.072268653   2   -15    15
    0.030907271   2   -4    4
    0.018311152   2    23    23
    0.0022931229   2    22    22
    0.0011448865   2    22    23
    0.00025080704   2   -13    13
    0.0002389885   2   -3    3
    6.6077399e-07   2   -1    1
    1.5928582e-07   2   -2    2
    5.638477e-09   2   -11    11

DECAY 35  35.634004
    0.91602869   2   -5    5
    0.080881303   2   -15    15
    0.0023328119   2   -6    6
    0.00039217954   2   -3    3
    0.00030301729   2   -13    13
    3.1933149e-05   2    21    21
    2.5091448e-05   2    1000022    1000022
    2.0224945e-06   2    25    25
    1.0838198e-06   2   -1    1
    9.8694156e-07   2    23    23
    8.1766857e-07   2   -24    24
    3.2152016e-08   2   -4    4
    1.4595663e-08   2    22    22
    1.1365399e-08   2    22    23
    6.8070954e-09   2   -11    11
    1.6580066e-13   2   -2    2

DECAY 36  34.034464
    0.91596255   2   -5    5
    0.080876692   2   -15    15
    0.0023735504   2   -6    6
    0.00039214628   2   -3    3
    0.00030299709   2   -13    13
    5.6009119e-05   2    21    21
    3.3465654e-05   2    1000022    1000022
    1.3767289e-06   2    23    25
    1.0837288e-06   2   -1    1
    5.4846239e-08   2    22    22
    3.4557846e-08   2    22    23
    3.0767154e-08   2   -4    4
    6.806649e-09   2   -11    11
    1.586919e-13   2   -2    2
    3.7078364e-37   2    25    25

DECAY 37  36.051375
    0.90244928   2   -5    6
    0.095482473   2   -15    16
    0.0013536785   2   -5    4
    0.00034629185   2   -3    4
    0.00033756539   2   -13    14
    1.6077913e-05   2   -3    2
    9.6666727e-06   2   -5    2
    2.5539718e-06   2   -3    6
    1.3087653e-06   2    24    25
    9.6041927e-07   2   -1    2
    9.432351e-08   2   -1    6
    4.534358e-08   2   -1    4
    7.8956896e-09   2   -11    12
    1.7984186e-12   2    24    35
    1.350327e-12   2    24    36

DECAY 6  2.43
    1   2    5    24

DECAY 15 -1
