# SUSY Les Houches Accord 2 - MSSM spectrum + Decays
# SPheno v4.0.5be
# W. Porod, Comput. Phys. Commun. 153 (2003) 275-315, hep-ph/0301101;
# W. Porod, F.~Staub, Comput. Phys. Commun. 183 (2012) 2458
#                     arXiv:1104.1573 [hep-ph] 
# in case of problems send email to porod@physik.uni-wuerzburg.de
# Created: 08.09.2021,  13:02
Block SPINFO         # Program information
     1   SPheno      # spectrum calculator
     2   v4.0.5be    # version number
#
Block SPhenoINFO     # SPheno specific information
    1      2         # using 2-loop RGEs
    2      2         # using pole masses for boundary conditions at mZ
Block MODSEL  # Model selection
    1    0    # general MSSM
Block MINPAR  # Input parameters
    3    2.22254902E+01  # tanb at m_Z    
    4    1.00000000E+00  # Sign(mu)
Block EXTPAR  # non-universal input parameters
    0    3.41353278E+03  # scale for input parameters
    1   -2.15275599E+02  # M_1
    2    1.23938794E+03  # M_2
    3    1.03986469E+03  # M_3
   11   -3.71126034E+03  # A_t
   12    1.26327830E+03  # A_b
   13    4.73742630E+02  # A_tau
   23    2.22028979E+02  # mu
   25    2.12867483E+01  # tan(beta)
   26    2.77755125E+03  # m_A, pole mass
   31    1.00000000E+04  # M_L11
   32    1.00000000E+04  # M_L22
   33    1.00000000E+04  # M_L33
   34    1.00000000E+04  # M_E11
   35    1.00000000E+04  # M_E22
   36    1.00000000E+04  # M_E33
   41    1.00000000E+04  # M_Q11
   42    1.00000000E+04  # M_Q22
   43    4.74627519E+03  # M_Q33
   44    1.00000000E+04  # M_U11
   45    1.00000000E+04  # M_U22
   46    2.45882903E+03  # M_U33
   47    1.00000000E+04  # M_D11
   48    1.00000000E+04  # M_D22
   49    3.67885007E+03  # M_D33
Block SMINPUTS  # SM parameters
         1     1.27908970E+02  # alpha_em^-1(MZ)^MSbar
         2     1.16637870E-05  # G_mu [GeV^-2]
         3     1.18400000E-01  # alpha_s(MZ)^MSbar
         4     9.11876000E+01  # m_Z(pole)
         5     4.18000000E+00  # m_b(m_b), MSbar
         6     1.73200000E+02  # m_t(pole)
         7     1.77700000E+00  # m_tau(pole)
         8     0.00000000E+00  # m_nu_3
        11     5.10998930E-04  # m_e(pole)
        12     0.00000000E+00  # m_nu_1
        13     1.05658372E-01  # m_muon(pole)
        14     0.00000000E+00  # m_nu_2
        21     5.00000000E-03  # m_d(2 GeV), MSbar
        22     2.50000000E-03  # m_u(2 GeV), MSbar
        23     9.50000000E-02  # m_s(2 GeV), MSbar
        24     1.27000000E+00  # m_c(m_c), MSbar
Block gauge Q=  3.41353278E+03  # (SUSY scale)
   1    3.55362975E-01  # g'(Q)^DRbar
   2    6.65198874E-01  # g(Q)^DRbar
   3    1.21977796E+00  # g3(Q)^DRbar
Block Yu Q=  3.41353278E+03  # (SUSY scale)
  1  1     8.39361874E-06   # Y_u(Q)^DRbar
  2  2     4.26395832E-03   # Y_c(Q)^DRbar
  3  3     1.01401656E+00   # Y_t(Q)^DRbar
Block Yd Q=  3.41353278E+03  # (SUSY scale)
  1  1     3.59036673E-04   # Y_d(Q)^DRbar
  2  2     6.82169679E-03   # Y_s(Q)^DRbar
  3  3     3.56051874E-01   # Y_b(Q)^DRbar
Block Ye Q=  3.41353278E+03  # (SUSY scale)
  1  1     6.26545250E-05   # Y_e(Q)^DRbar
  2  2     1.29549686E-02   # Y_mu(Q)^DRbar
  3  3     2.17881260E-01   # Y_tau(Q)^DRbar
Block Au Q=  3.41353278E+03  # (SUSY scale)
  1  1     0.00000000E+00   # A_u(Q)^DRbar
  2  2     0.00000000E+00   # A_c(Q)^DRbar
  3  3    -3.71126033E+03   # A_t(Q)^DRbar
Block Ad Q=  3.41353278E+03  # (SUSY scale)
  1  1     0.00000000E+00   # A_d(Q)^DRbar
  2  2     0.00000000E+00   # A_s(Q)^DRbar
  3  3     1.26327830E+03   # A_b(Q)^DRbar
Block Ae Q=  3.41353278E+03  # (SUSY scale)
  1  1     0.00000000E+00   # A_e(Q)^DRbar
  2  2     0.00000000E+00   # A_mu(Q)^DRbar
  3  3     4.73742628E+02   # A_tau(Q)^DRbar
Block MSOFT Q=  3.41353278E+03  # soft SUSY breaking masses at Q
   1   -2.15275599E+02  # M_1
   2    1.23938794E+03  # M_2
   3    1.03986469E+03  # M_3
  21    7.60574254E+06  # M^2_(H,d)
  22    1.24657829E+05  # M^2_(H,u)
  31    1.00000000E+04  # M_(L,11)
  32    1.00000000E+04  # M_(L,22)
  33    1.00000000E+04  # M_(L,33)
  34    1.00000000E+04  # M_(E,11)
  35    1.00000000E+04  # M_(E,22)
  36    1.00000000E+04  # M_(E,33)
  41    1.00000000E+04  # M_(Q,11)
  42    1.00000000E+04  # M_(Q,22)
  43    4.74627519E+03  # M_(Q,33)
  44    1.00000000E+04  # M_(U,11)
  45    1.00000000E+04  # M_(U,22)
  46    2.45882903E+03  # M_(U,33)
  47    1.00000000E+04  # M_(D,11)
  48    1.00000000E+04  # M_(D,22)
  49    3.67885007E+03  # M_(D,33)
Block MASS  # Mass spectrum
#   PDG code      mass          particle
         6     1.73200000E+02  # m_t(pole)
        23     9.11876000E+01  # m_Z(pole)
        24     8.04299946E+01  # W+
        15     1.77700000E+00  # m_tau(pole)
        25     1.23923367E+02  # h0
        35     2.77720001E+03  # H0
        36     2.77755125E+03  # A0
        37     2.77925901E+03  # H+
   1000001     1.01233175E+04  # ~d_L
   2000001     1.00988386E+04  # ~d_R
   1000002     1.01229585E+04  # ~u_L
   2000002     1.01019025E+04  # ~u_R
   1000003     1.01233193E+04  # ~s_L
   2000003     1.00988411E+04  # ~s_R
   1000004     1.01229603E+04  # ~c_L
   2000004     1.01019036E+04  # ~c_R
   1000005     3.71577719E+03  # ~b_1
   2000005     4.77067193E+03  # ~b_2
   1000006     2.44069769E+03  # ~t_1
   2000006     4.77412916E+03  # ~t_2
   1000011     1.00205904E+04  # ~e_L-
   2000011     1.00090640E+04  # ~e_R-
   1000012     1.00198272E+04  # ~nu_eL
   1000013     1.00205970E+04  # ~mu_L-
   2000013     1.00090767E+04  # ~mu_R-
   1000014     1.00198337E+04  # ~nu_muL
   1000015     1.00126570E+04  # ~tau_1-
   2000015     1.00224540E+04  # ~tau_2-
   1000016     1.00216740E+04  # ~nu_tauL
   1000021     1.33692833E+03  # ~g
   1000022     1.95800998E+02  # ~chi_10
   1000023     2.32523926E+02  # ~chi_20
   1000025     2.58642125E+02  # ~chi_30
   1000035     1.33550772E+03  # ~chi_40
   1000024     2.32116164E+02  # ~chi_1+
   1000037     1.33547450E+03  # ~chi_2+
# Higgs mixing
Block alpha # Effective Higgs mixing angle
          -4.50998282E-02   # alpha
Block Hmix Q=  3.41353278E+03  # Higgs mixing parameters
   1    2.22028979E+02  # mu
   2    2.12867483E+01  # tan[beta](Q)
   3    2.43089727E+02  # v(Q)
   4    7.71479095E+06  # m^2_A(Q)
Block stopmix # stop mixing matrix
   1  1     3.20509824E-02   # Re[R_st(1,1)]
   1  2     9.99486235E-01   # Re[R_st(1,2)]
   2  1    -9.99486235E-01   # Re[R_st(2,1)]
   2  2     3.20509824E-02   # Re[R_st(2,2)]
Block sbotmix # sbottom mixing matrix
   1  1     8.51055458E-04   # Re[R_sb(1,1)]
   1  2     9.99999638E-01   # Re[R_sb(1,2)]
   2  1    -9.99999638E-01   # Re[R_sb(2,1)]
   2  2     8.51055458E-04   # Re[R_sb(2,2)]
Block staumix # stau mixing matrix
   1  1     3.83994068E-02   # Re[R_sta(1,1)]
   1  2     9.99262471E-01   # Re[R_sta(1,2)]
   2  1    -9.99262471E-01   # Re[R_sta(2,1)]
   2  2     3.83994068E-02   # Re[R_sta(2,2)]
Block Nmix # neutralino mixing matrix
   1  1     7.88066467E-01   # Re[N(1,1)]
   1  2     1.94868694E-02   # Re[N(1,2)]
   1  3     4.74414184E-01   # Re[N(1,3)]
   1  4     3.91794191E-01   # Re[N(1,4)]
   2  1    -7.36027460E-02   # Re[N(2,1)]
   2  2    -5.35691162E-02   # Re[N(2,2)]
   2  3     7.05173550E-01   # Re[N(2,3)]
   2  4    -7.03166587E-01   # Re[N(2,4)]
   3  1    -6.11171352E-01   # Re[N(3,1)]
   3  2     2.85417811E-02   # Re[N(3,2)]
   3  3     5.26762340E-01   # Re[N(3,3)]
   3  4     5.90064728E-01   # Re[N(3,4)]
   4  1     1.85964611E-03   # Re[N(4,1)]
   4  2    -9.97965920E-01   # Re[N(4,2)]
   4  3    -1.35234490E-02   # Re[N(4,3)]
   4  4     6.22710173E-02   # Re[N(4,4)]
Block Umix # chargino mixing matrix
   1  1    -1.91280556E-02   # Re[U(1,1)]
   1  2     9.99817042E-01   # Re[U(1,2)]
   2  1     9.99817042E-01   # Re[U(2,1)]
   2  2     1.91280556E-02   # Re[U(2,2)]
Block Vmix # chargino mixing matrix
   1  1    -8.81285362E-02   # Re[V(1,1)]
   1  2     9.96109111E-01   # Re[V(1,2)]
   2  1     9.96109111E-01   # Re[V(2,1)]
   2  2     8.81285362E-02   # Re[V(2,2)]
DECAY        23     2.49520000E+00   # Z
DECAY        24     2.08500000E+00   # W
DECAY   2000011     5.02426115E+01   # ~e^-_R
#    BR                NDA      ID1      ID2
     6.21182189E-01    2     1000022        11   # BR(~e^-_R -> chi^0_1 e^-)
     5.41683381E-03    2     1000023        11   # BR(~e^-_R -> chi^0_2 e^-)
     3.73397622E-01    2     1000025        11   # BR(~e^-_R -> chi^0_3 e^-)
DECAY   1000011     1.40244712E+02   # ~e^-_L
#    BR                NDA      ID1      ID2
     6.09743172E-02    2     1000022        11   # BR(~e^-_L -> chi^0_1 e^-)
     2.71064885E-03    2     1000023        11   # BR(~e^-_L -> chi^0_2 e^-)
     2.78832199E-02    2     1000025        11   # BR(~e^-_L -> chi^0_3 e^-)
     3.01584658E-01    2     1000035        11   # BR(~e^-_L -> chi^0_4 e^-)
     2.29887545E-04    2    -1000024        12   # BR(~e^-_L -> chi^-_1 nu_e)
     6.06617269E-01    2    -1000037        12   # BR(~e^-_L -> chi^-_2 nu_e)
#    BR                NDA      ID1      ID2       ID3
DECAY   2000013     5.03094398E+01   # ~mu^-_R
#    BR                NDA      ID1      ID2
     6.20507214E-01    2     1000022        13   # BR(~mu^-_R -> chi^0_1 mu^-)
     5.73960588E-03    2     1000023        13   # BR(~mu^-_R -> chi^0_2 mu^-)
     3.73086176E-01    2     1000025        13   # BR(~mu^-_R -> chi^0_3 mu^-)
     6.63317151E-04    2    -1000024        14   # BR(~mu^-_R -> chi^-_1 nu_mu)
DECAY   1000013     1.40278231E+02   # ~mu^-_L
#    BR                NDA      ID1      ID2
     6.10134281E-02    2     1000022        13   # BR(~mu^-_L -> chi^0_1 mu^-)
     2.82847561E-03    2     1000023        13   # BR(~mu^-_L -> chi^0_2 mu^-)
     2.79426659E-02    2     1000025        13   # BR(~mu^-_L -> chi^0_3 mu^-)
     3.01512850E-01    2     1000035        13   # BR(~mu^-_L -> chi^0_4 mu^-)
     2.29832765E-04    2    -1000024        14   # BR(~mu^-_L -> chi^-_1 nu_mu)
     6.06472747E-01    2    -1000037        14   # BR(~mu^-_L -> chi^-_2 nu_mu)
#    BR                NDA      ID1      ID2       ID3
DECAY   1000015     6.92736147E+01   # ~tau^-_1
#    BR                NDA      ID1      ID2
     4.85211652E-01    2     1000022        15   # BR(~tau^-_1 -> chi^0_1 tau^-)
     7.19666758E-02    2     1000023        15   # BR(~tau^-_1 -> chi^0_2 tau^-)
     3.04203052E-01    2     1000025        15   # BR(~tau^-_1 -> chi^0_3 tau^-)
     6.31270329E-04    2     1000035        15   # BR(~tau^-_1 -> chi^0_4 tau^-)
     1.36720013E-01    2    -1000024        16   # BR(~tau^-_1 -> chi^-_1 nu_tau)
     1.26733660E-03    2    -1000037        16   # BR(~tau^-_1 -> chi^-_2 nu_tau)
DECAY   2000015     1.49606714E+02   # ~tau^-_2
#    BR                NDA      ID1      ID2
     6.96273482E-02    2     1000022        15   # BR(~tau^-_2 -> chi^0_1 tau^-)
     3.38631307E-02    2     1000023        15   # BR(~tau^-_2 -> chi^0_2 tau^-)
     4.57796670E-02    2     1000025        15   # BR(~tau^-_2 -> chi^0_3 tau^-)
     2.82499643E-01    2     1000035        15   # BR(~tau^-_2 -> chi^0_4 tau^-)
     5.68205024E-01    2    -1000037        16   # BR(~tau^-_2 -> chi^-_2 nu_tau)
#    BR                NDA      ID1      ID2       ID3
DECAY   1000012     1.40248769E+02   # ~nu_e
#    BR                NDA      ID1      ID2
     5.06564883E-02    2     1000022        12   # BR(~nu_e -> chi^0_1 nu_e)
     3.95863254E-02    2     1000025        12   # BR(~nu_e -> chi^0_3 nu_e)
     3.02754458E-01    2     1000035        12   # BR(~nu_e -> chi^0_4 nu_e)
     4.87934680E-03    2     1000024        11   # BR(~nu_e -> chi^+_1 e^-)
     6.02059604E-01    2     1000037        11   # BR(~nu_e -> chi^+_2 e^-)
#    BR                NDA      ID1      ID2       ID3
DECAY   1000014     1.40282284E+02   # ~nu_mu
#    BR                NDA      ID1      ID2
     5.06444187E-02    2     1000022        14   # BR(~nu_mu -> chi^0_1 nu_mu)
     3.95768935E-02    2     1000025        14   # BR(~nu_mu -> chi^0_3 nu_mu)
     3.02682337E-01    2     1000035        14   # BR(~nu_mu -> chi^0_4 nu_mu)
     5.11631927E-03    2     1000024        13   # BR(~nu_mu -> chi^+_1 mu^-)
     6.01916270E-01    2     1000037        13   # BR(~nu_mu -> chi^+_2 mu^-)
#    BR                NDA      ID1      ID2       ID3
DECAY   1000016     1.49730820E+02   # ~nu_tau
#    BR                NDA      ID1      ID2
     4.74573075E-02    2     1000022        16   # BR(~nu_tau -> chi^0_1 nu_tau)
     3.70862821E-02    2     1000025        16   # BR(~nu_tau -> chi^0_3 nu_tau)
     2.83637879E-01    2     1000035        16   # BR(~nu_tau -> chi^0_4 nu_tau)
     6.76919192E-02    2     1000024        15   # BR(~nu_tau -> chi^+_1 tau^-)
     5.64066863E-01    2     1000037        15   # BR(~nu_tau -> chi^+_2 tau^-)
#    BR                NDA      ID1      ID2       ID3
DECAY   2000001     7.75071994E+02   # ~d_R
#    BR                NDA      ID1      ID2
     4.51430830E-03    2     1000022         1   # BR(~d_R -> chi^0_1 d)
     2.71361927E-03    2     1000025         1   # BR(~d_R -> chi^0_3 d)
     9.92732632E-01    2     1000021         1   # BR(~d_R -> ~g d)
DECAY   1000001     9.01916719E+02   # ~d_L
#    BR                NDA      ID1      ID2
     7.20957532E-04    2     1000022         1   # BR(~d_L -> chi^0_1 d)
     9.31135802E-04    2     1000025         1   # BR(~d_L -> chi^0_3 d)
     4.75367220E-02    2     1000035         1   # BR(~d_L -> chi^0_4 d)
     9.53633426E-02    2    -1000037         2   # BR(~d_L -> chi^-_2 u)
     8.55330915E-01    2     1000021         1   # BR(~d_L -> ~g d)
DECAY   2000003     7.75090826E+02   # ~s_R
#    BR                NDA      ID1      ID2
     4.51690486E-03    2     1000022         3   # BR(~s_R -> chi^0_1 s)
     2.71688764E-03    2     1000025         3   # BR(~s_R -> chi^0_3 s)
     9.92708775E-01    2     1000021         3   # BR(~s_R -> ~g s)
DECAY   1000003     9.01929884E+02   # ~s_L
#    BR                NDA      ID1      ID2
     7.23277574E-04    2     1000022         3   # BR(~s_L -> chi^0_1 s)
     9.33994087E-04    2     1000025         3   # BR(~s_L -> chi^0_3 s)
     4.75360391E-02    2     1000035         3   # BR(~s_L -> chi^0_4 s)
     9.53619995E-02    2    -1000037         4   # BR(~s_L -> chi^-_2 c)
     8.55318593E-01    2     1000021         3   # BR(~s_L -> ~g s)
DECAY   1000005     2.42890403E+02   # ~b_1
#    BR                NDA      ID1      ID2
     1.39252757E-02    2     1000022         5   # BR(~b_1 -> chi^0_1 b)
     1.90831779E-02    2     1000023         5   # BR(~b_1 -> chi^0_2 b)
     1.37476660E-02    2     1000025         5   # BR(~b_1 -> chi^0_3 b)
     3.81022125E-02    2    -1000024         6   # BR(~b_1 -> chi^-_1 t)
     9.15128185E-01    2     1000021         5   # BR(~b_1 -> ~g b)
DECAY   2000005     5.13230265E+02   # ~b_2
#    BR                NDA      ID1      ID2
     5.84387414E-03    2     1000022         5   # BR(~b_2 -> chi^0_1 b)
     1.16684276E-02    2     1000023         5   # BR(~b_2 -> chi^0_2 b)
     7.24472978E-03    2     1000025         5   # BR(~b_2 -> chi^0_3 b)
     3.46388126E-02    2     1000035         5   # BR(~b_2 -> chi^0_4 b)
     1.87291147E-01    2    -1000024         6   # BR(~b_2 -> chi^-_1 t)
     7.09274824E-02    2    -1000037         6   # BR(~b_2 -> chi^-_2 t)
     6.22995943E-01    2     1000021         5   # BR(~b_2 -> ~g b)
     5.93809858E-02    2     1000006       -24   # BR(~b_2 -> ~t_1 W^-)
DECAY   2000002     7.92226931E+02   # ~u_R
#    BR                NDA      ID1      ID2
     1.76715591E-02    2     1000022         2   # BR(~u_R -> chi^0_1 u)
     1.54100231E-04    2     1000023         2   # BR(~u_R -> chi^0_2 u)
     1.06226275E-02    2     1000025         2   # BR(~u_R -> chi^0_3 u)
     9.71551618E-01    2     1000021         2   # BR(~u_R -> ~g u)
DECAY   1000002     9.01906790E+02   # ~u_L
#    BR                NDA      ID1      ID2
     1.26092657E-03    2     1000022         2   # BR(~u_L -> chi^0_1 u)
     2.19395281E-04    2     1000023         2   # BR(~u_L -> chi^0_2 u)
     3.18070037E-04    2     1000025         2   # BR(~u_L -> chi^0_3 u)
     4.74723874E-02    2     1000035         2   # BR(~u_L -> chi^0_4 u)
     7.66604829E-04    2     1000024         1   # BR(~u_L -> chi^+_1 d)
     9.46547709E-02    2     1000037         1   # BR(~u_L -> chi^+_2 d)
     8.55307845E-01    2     1000021         2   # BR(~u_L -> ~g u)
DECAY   2000004     7.92234290E+02   # ~c_R
#    BR                NDA      ID1      ID2
     1.76721048E-02    2     1000022         4   # BR(~c_R -> chi^0_1 c)
     1.56377084E-04    2     1000023         4   # BR(~c_R -> chi^0_2 c)
     1.06241315E-02    2     1000025         4   # BR(~c_R -> chi^0_3 c)
     9.71542668E-01    2     1000021         4   # BR(~c_R -> ~g c)
DECAY   1000004     9.01919924E+02   # ~c_L
#    BR                NDA      ID1      ID2
     1.26153079E-03    2     1000022         4   # BR(~c_L -> chi^0_1 c)
     2.21397021E-04    2     1000023         4   # BR(~c_L -> chi^0_2 c)
     3.19477398E-04    2     1000025         4   # BR(~c_L -> chi^0_3 c)
     4.74717205E-02    2     1000035         4   # BR(~c_L -> chi^0_4 c)
     7.76941086E-04    2     1000024         3   # BR(~c_L -> chi^+_1 s)
     9.46534143E-02    2     1000037         3   # BR(~c_L -> chi^+_2 s)
     8.55295519E-01    2     1000021         4   # BR(~c_L -> ~g c)
DECAY   1000006     1.95665582E+02   # ~t_1
#    BR                NDA      ID1      ID2
     5.45550581E-02    2     1000022         6   # BR(~t_1 -> chi^0_1 t)
     1.22843979E-01    2     1000023         6   # BR(~t_1 -> chi^0_2 t)
     9.65776629E-02    2     1000025         6   # BR(~t_1 -> chi^0_3 t)
     2.74132113E-04    2     1000035         6   # BR(~t_1 -> chi^0_4 t)
     2.49321553E-01    2     1000024         5   # BR(~t_1 -> chi^+_1 b)
     5.64566055E-04    2     1000037         5   # BR(~t_1 -> chi^+_2 b)
     4.75862761E-01    2     1000021         6   # BR(~t_1 -> ~g t)
#    BR                NDA      ID1      ID2       ID3
DECAY   2000006     5.18790324E+02   # ~t_2
#    BR                NDA      ID1      ID2
     3.06104459E-02    2     1000022         6   # BR(~t_2 -> chi^0_1 t)
     9.25051854E-02    2     1000023         6   # BR(~t_2 -> chi^0_2 t)
     6.41381318E-02    2     1000025         6   # BR(~t_2 -> chi^0_3 t)
     3.52261141E-02    2     1000035         6   # BR(~t_2 -> chi^0_4 t)
     2.31922900E-02    2     1000024         5   # BR(~t_2 -> chi^+_1 b)
     6.88220133E-02    2     1000037         5   # BR(~t_2 -> chi^+_2 b)
     6.14135104E-01    2     1000021         6   # BR(~t_2 -> ~g t)
     2.94348795E-02    2     1000006        23   # BR(~t_2 -> ~t_1 Z)
     4.19295652E-02    2     1000006        25   # BR(~t_2 -> ~t_1 h^0)
DECAY   1000024     9.71472756E-05   # chi^+_1
#    BR                NDA      ID1      ID2       ID3
     3.34337061E-01    3     1000022        -1         2   # BR(chi^+_1 -> chi^0_1 d_bar u)
     3.32511891E-01    3     1000022        -3         4   # BR(chi^+_1 -> chi^0_1 s_bar c)
     1.11445071E-01    3     1000022       -11        12   # BR(chi^+_1 -> chi^0_1 e^+ nu_e)
     1.11442120E-01    3     1000022       -13        14   # BR(chi^+_1 -> chi^0_1 mu^+ nu_mu)
     1.10263857E-01    3     1000022       -15        16   # BR(chi^+_1 -> chi^0_1 tau^+ nu_tau)
DECAY   1000037     1.21544897E+01   # chi^+_2
#    BR                NDA      ID1      ID2
     8.70282565E-02    2     1000022        24   # BR(chi^+_2 -> chi^0_1 W^+)
     2.46238004E-01    2     1000023        24   # BR(chi^+_2 -> chi^0_2 W^+)
     1.59772072E-01    2     1000025        24   # BR(chi^+_2 -> chi^0_3 W^+)
     2.44869048E-01    2     1000024        23   # BR(chi^+_2 -> chi^+_1 Z)
     2.42251011E-01    2     1000024        25   # BR(chi^+_2 -> chi^+_1 h^0)
#    BR                NDA      ID1      ID2       ID3
     7.40175428E-03    3     1000024         6        -6   # BR(chi^+_2 -> chi^+_1 t t_bar)
     2.12426235E-03    3     1000022        -5         6   # BR(chi^+_2 -> chi^0_1 b_bar t)
     6.45346409E-03    3     1000023        -5         6   # BR(chi^+_2 -> chi^0_2 b_bar t)
     3.85353450E-03    3     1000025        -5         6   # BR(chi^+_2 -> chi^0_3 b_bar t)
DECAY   1000022     0.00000000E+00   # chi^0_1
DECAY   1000023     7.90474097E-05   # chi^0_2
#    BR                NDA      ID1      ID2
     1.85651387E-02    2     1000022        22   # BR(chi^0_2 -> chi^0_1 photon)
#    BR                NDA      ID1      ID2       ID3
     1.19128570E-01    3     1000022         2        -2   # BR(chi^0_2 -> chi^0_1 u u_bar)
     1.17350510E-01    3     1000022         4        -4   # BR(chi^0_2 -> chi^0_1 c c_bar)
     1.52746016E-01    3     1000022         1        -1   # BR(chi^0_2 -> chi^0_1 d d_bar)
     1.52735005E-01    3     1000022         3        -3   # BR(chi^0_2 -> chi^0_1 s s_bar)
     1.32901677E-01    3     1000022         5        -5   # BR(chi^0_2 -> chi^0_1 b b_bar)
     3.44697198E-02    3     1000022        11       -11   # BR(chi^0_2 -> chi^0_1 e^- e^+)
     3.44657572E-02    3     1000022        13       -13   # BR(chi^0_2 -> chi^0_1 mu^- mu^+)
     3.33727285E-02    3     1000022        15       -15   # BR(chi^0_2 -> chi^0_1 tau^- tau^+)
     2.04264877E-01    3     1000022        12       -12   # BR(chi^0_2 -> chi^0_1 nu_e nu_bar_e)
DECAY   1000025     9.23843140E-05   # chi^0_3
#    BR                NDA      ID1      ID2
     1.57303640E-03    2     1000022        22   # BR(chi^0_3 -> chi^0_1 photon)
     2.00603332E-02    2     1000023        22   # BR(chi^0_3 -> chi^0_2 photon)
#    BR                NDA      ID1      ID2       ID3
     1.85707923E-03    3     1000022         2        -2   # BR(chi^0_3 -> chi^0_1 u u_bar)
     1.85042407E-03    3     1000022         4        -4   # BR(chi^0_3 -> chi^0_1 c c_bar)
     2.37913245E-03    3     1000022         1        -1   # BR(chi^0_3 -> chi^0_1 d d_bar)
     2.37909274E-03    3     1000022         3        -3   # BR(chi^0_3 -> chi^0_1 s s_bar)
     2.31708377E-03    3     1000022         5        -5   # BR(chi^0_3 -> chi^0_1 b b_bar)
     5.35286397E-04    3     1000022        11       -11   # BR(chi^0_3 -> chi^0_1 e^- e^+)
     5.35275713E-04    3     1000022        13       -13   # BR(chi^0_3 -> chi^0_1 mu^- mu^+)
     5.32258936E-04    3     1000022        15       -15   # BR(chi^0_3 -> chi^0_1 tau^- tau^+)
     3.18436202E-03    3     1000022        12       -12   # BR(chi^0_3 -> chi^0_1 nu_e nu_bar_e)
     3.10949727E-02    3     1000023         2        -2   # BR(chi^0_3 -> chi^0_2 u u_bar)
     3.01540408E-02    3     1000023         4        -4   # BR(chi^0_3 -> chi^0_2 c c_bar)
     3.98700674E-02    3     1000023         1        -1   # BR(chi^0_3 -> chi^0_2 d d_bar)
     3.98641553E-02    3     1000023         3        -3   # BR(chi^0_3 -> chi^0_2 s s_bar)
     2.98775038E-02    3     1000023         5        -5   # BR(chi^0_3 -> chi^0_2 b b_bar)
     8.99765590E-03    3     1000023        11       -11   # BR(chi^0_3 -> chi^0_2 e^- e^+)
     8.99554452E-03    3     1000023        13       -13   # BR(chi^0_3 -> chi^0_2 mu^- mu^+)
     8.42446720E-03    3     1000023        15       -15   # BR(chi^0_3 -> chi^0_2 tau^- tau^+)
     5.33178087E-02    3     1000023        12       -12   # BR(chi^0_3 -> chi^0_2 nu_e nu_bar_e)
     1.19400196E-01    3     1000024         1        -2   # BR(chi^0_3 -> chi^+_1 d u_bar)
     1.19400196E-01    3    -1000024        -1         2   # BR(chi^0_3 -> chi^-_1 d_bar u)
     1.18122259E-01    3     1000024         3        -4   # BR(chi^0_3 -> chi^+_1 s c_bar)
     1.18122259E-01    3    -1000024        -3         4   # BR(chi^0_3 -> chi^-_1 s_bar c)
     3.98002099E-02    3     1000024        11       -12   # BR(chi^0_3 -> chi^+_1 e^- nu_bar_e)
     3.98002099E-02    3    -1000024       -11        12   # BR(chi^0_3 -> chi^-_1 e^+ nu_e)
     3.97981776E-02    3     1000024        13       -14   # BR(chi^0_3 -> chi^+_1 mu^- nu_bar_mu)
     3.97981776E-02    3    -1000024       -13        14   # BR(chi^0_3 -> chi^-_1 mu^+ nu_mu)
     3.89793665E-02    3     1000024        15       -16   # BR(chi^0_3 -> chi^+_1 tau^- nu_bar_tau)
     3.89793665E-02    3    -1000024       -15        16   # BR(chi^0_3 -> chi^-_1 tau^+ nu_tau)
DECAY   1000035     1.30572151E+01   # chi^0_4
#    BR                NDA      ID1      ID2
     2.29946375E-01    2     1000024       -24   # BR(chi^0_4 -> chi^+_1 W^-)
     2.29946375E-01    2    -1000024        24   # BR(chi^0_4 -> chi^-_1 W^+)
     5.54374334E-02    2     1000022        23   # BR(chi^0_4 -> chi^0_1 Z)
     6.67196747E-02    2     1000023        23   # BR(chi^0_4 -> chi^0_2 Z)
     1.07100818E-01    2     1000025        23   # BR(chi^0_4 -> chi^0_3 Z)
     4.44378619E-02    2     1000022        25   # BR(chi^0_4 -> chi^0_1 h^0)
     1.58961785E-01    2     1000023        25   # BR(chi^0_4 -> chi^0_2 h^0)
     8.95380385E-02    2     1000025        25   # BR(chi^0_4 -> chi^0_3 h^0)
#    BR                NDA      ID1      ID2       ID3
     1.06266216E-03    3     1000022         6        -6   # BR(chi^0_4 -> chi^0_1 t t_bar)
     3.13028688E-03    3     1000023         6        -6   # BR(chi^0_4 -> chi^0_2 t t_bar)
     1.86440071E-03    3     1000025         6        -6   # BR(chi^0_4 -> chi^0_3 t t_bar)
     5.92053991E-03    3     1000024         5        -6   # BR(chi^0_4 -> chi^+_1 b t_bar)
     5.92053991E-03    3    -1000024        -5         6   # BR(chi^0_4 -> chi^-_1 b_bar t)
DECAY   1000021     4.54212297E-03   # ~g
#    BR                NDA      ID1      ID2
     5.97000136E-03    2     1000022        21   # BR(~g -> chi^0_1 g)
     1.43197948E-02    2     1000023        21   # BR(~g -> chi^0_2 g)
     9.05568973E-03    2     1000025        21   # BR(~g -> chi^0_3 g)
#    BR                NDA      ID1      ID2       ID3
     1.13131066E-04    3     1000022         2        -2   # BR(~g -> chi^0_1 u u_bar)
     1.13144796E-04    3     1000022         4        -4   # BR(~g -> chi^0_1 c c_bar)
     1.26401141E-01    3     1000022         6        -6   # BR(~g -> chi^0_1 t t_bar)
     5.67059003E-03    3     1000022         5        -5   # BR(~g -> chi^0_1 b b_bar)
     2.13580545E-01    3     1000023         6        -6   # BR(~g -> chi^0_2 t t_bar)
     8.47304425E-03    3     1000023         5        -5   # BR(~g -> chi^0_2 b b_bar)
     1.22557525E-01    3     1000025         6        -6   # BR(~g -> chi^0_3 t t_bar)
     5.55244620E-03    3     1000025         5        -5   # BR(~g -> chi^0_3 b b_bar)
     2.43977002E-01    3     1000024         5        -6   # BR(~g -> chi^+_1 b t_bar)
     2.43977002E-01    3    -1000024        -5         6   # BR(~g -> chi^-_1 b_bar t)
DECAY        25     3.51214091E-03   # Gamma(h0)
     2.50114226E-03   2        22        22   # BR(h0 -> photon photon)
     1.50103377E-03   2        22        23   # BR(h0 -> photon Z)
     2.66666574E-02   2        23        23   # BR(h0 -> Z Z)
     2.25080067E-01   2       -24        24   # BR(h0 -> W W)
     7.82158327E-02   2        21        21   # BR(h0 -> gluon gluon)
     5.12598011E-09   2       -11        11   # BR(h0 -> Electron electron)
     2.28012173E-04   2       -13        13   # BR(h0 -> Muon muon)
     6.57427673E-02   2       -15        15   # BR(h0 -> Tau tau)
     1.45557377E-07   2        -2         2   # BR(h0 -> Up up)
     2.82478978E-02   2        -4         4   # BR(h0 -> Charm charm)
     5.94251618E-07   2        -1         1   # BR(h0 -> Down down)
     2.14926850E-04   2        -3         3   # BR(h0 -> Strange strange)
     5.71600918E-01   2        -5         5   # BR(h0 -> Bottom bottom)
DECAY        35     4.15915154E+01   # Gamma(HH)
     3.60354730E-08   2        22        22   # BR(HH -> photon photon)
     6.70701311E-08   2        22        23   # BR(HH -> photon Z)
     2.02864003E-06   2        23        23   # BR(HH -> Z Z)
     6.78904410E-07   2       -24        24   # BR(HH -> W W)
     2.29092337E-06   2        21        21   # BR(HH -> gluon gluon)
     4.77201643E-09   2       -11        11   # BR(HH -> Electron electron)
     2.12467566E-04   2       -13        13   # BR(HH -> Muon muon)
     6.13624758E-02   2       -15        15   # BR(HH -> Tau tau)
     3.30862719E-13   2        -2         2   # BR(HH -> Up up)
     6.41829940E-08   2        -4         4   # BR(HH -> Charm charm)
     4.71881423E-03   2        -6         6   # BR(HH -> Top top)
     3.53794103E-07   2        -1         1   # BR(HH -> Down down)
     1.27971087E-04   2        -3         3   # BR(HH -> Strange strange)
     3.38146542E-01   2        -5         5   # BR(HH -> Bottom bottom)
     4.63728534E-03   2  -1000024   1000024   # BR(HH -> Chargino1 chargino1)
     1.70922407E-01   2  -1000024   1000037   # BR(HH -> Chargino1 chargino2)
     1.70922407E-01   2  -1000037   1000024   # BR(HH -> Chargino2 chargino1)
     1.31425944E-05   2  -1000037   1000037   # BR(HH -> Chargino2 chargino2)
     2.08451785E-02   2   1000022   1000022   # BR(HH -> neutralino1 neutralino1)
     1.86277974E-02   2   1000022   1000023   # BR(HH -> neutralino1 neutralino2)
     2.49849615E-05   2   1000022   1000025   # BR(HH -> neutralino1 neutralino3)
     5.07328774E-02   2   1000022   1000035   # BR(HH -> neutralino1 neutralino4)
     8.71141595E-05   2   1000023   1000023   # BR(HH -> neutralino2 neutralino2)
     1.67686314E-02   2   1000023   1000025   # BR(HH -> neutralino2 neutralino3)
     7.03392666E-02   2   1000023   1000035   # BR(HH -> neutralino2 neutralino4)
     2.06386619E-02   2   1000025   1000025   # BR(HH -> neutralino3 neutralino3)
     5.08495695E-02   2   1000025   1000035   # BR(HH -> neutralino3 neutralino4)
     6.62909567E-06   2   1000035   1000035   # BR(HH -> neutralino4 neutralino4)
     1.02522020E-05   2        25        25   # BR(HH -> h0 h0)
DECAY        36     4.09848431E+01   # Gamma(A0)
     1.14129338E-07   2        22        22   # BR(A0 -> photon photon)
     1.54829813E-07   2        22        23   # BR(A0 -> photon Z)
     1.45366299E-05   2        21        21   # BR(A0 -> gluon gluon)
     4.66849919E-09   2       -11        11   # BR(A0 -> Electron electron)
     2.07857490E-04   2       -13        13   # BR(A0 -> Muon muon)
     6.00311551E-02   2       -15        15   # BR(A0 -> Tau tau)
     3.10841948E-13   2        -2         2   # BR(A0 -> Up up)
     6.02962747E-08   2        -4         4   # BR(A0 -> Charm charm)
     4.50426115E-03   2        -6         6   # BR(A0 -> Top top)
     3.46111761E-07   2        -1         1   # BR(A0 -> Down down)
     1.25192407E-04   2        -3         3   # BR(A0 -> Strange strange)
     3.30806997E-01   2        -5         5   # BR(A0 -> Bottom bottom)
     5.02416805E-03   2  -1000024   1000024   # BR(A0 -> Chargino1 chargino1)
     1.73245111E-01   2  -1000024   1000037   # BR(A0 -> Chargino1 chargino2)
     1.73245111E-01   2  -1000037   1000024   # BR(A0 -> Chargino2 chargino1)
     1.55834278E-04   2  -1000037   1000037   # BR(A0 -> Chargino2 chargino2)
     1.85000605E-02   2   1000022   1000022   # BR(A0 -> neutralino1 neutralino1)
     2.18677223E-02   2   1000022   1000023   # BR(A0 -> neutralino1 neutralino2)
     5.09504210E-05   2   1000022   1000025   # BR(A0 -> neutralino1 neutralino3)
     3.73926401E-02   2   1000022   1000035   # BR(A0 -> neutralino1 neutralino4)
     1.08551045E-04   2   1000023   1000023   # BR(A0 -> neutralino2 neutralino2)
     2.00581966E-02   2   1000023   1000025   # BR(A0 -> neutralino2 neutralino3)
     1.02301300E-01   2   1000023   1000035   # BR(A0 -> neutralino2 neutralino4)
     1.76279674E-02   2   1000025   1000025   # BR(A0 -> neutralino3 neutralino3)
     3.46502707E-02   2   1000025   1000035   # BR(A0 -> neutralino3 neutralino4)
     7.82560424E-05   2   1000035   1000035   # BR(A0 -> neutralino4 neutralino4)
     3.17993171E-06   2        23        25   # BR(A0 -> Z h0)
     3.87057891E-41   2        25        25   # BR(A0 -> h0 h0)
DECAY        37     4.29073488E+01   # Gamma(Hp)
     5.29127952E-09   2       -11        12   # BR(Hp -> Electron nu_e)
     2.26218725E-04   2       -13        14   # BR(Hp -> Muon nu_mu)
     6.39875119E-02   2       -15        16   # BR(Hp -> Tau nu_tau)
     3.41232475E-07   2        -1         2   # BR(Hp -> Down up)
     5.75503512E-06   2        -3         2   # BR(Hp -> Strange up)
     3.74055029E-06   2        -5         2   # BR(Hp -> Bottom up)
     1.90310404E-08   2        -1         4   # BR(Hp -> Down charm)
     1.23045772E-04   2        -3         4   # BR(Hp -> Strange charm)
     5.23810943E-04   2        -5         4   # BR(Hp -> Bottom charm)
     3.39792947E-07   2        -1         6   # BR(Hp -> Down top)
     7.59033121E-06   2        -3         6   # BR(Hp -> Strange top)
     3.58281350E-01   2        -5         6   # BR(Hp -> Bottom top)
     4.92246650E-02   2   1000022   1000024   # BR(Hp -> neutralino1 chargino1)
     8.49571742E-02   2   1000022   1000037   # BR(Hp -> neutralino1 chargino2)
     1.47599673E-03   2   1000023   1000024   # BR(Hp -> neutralino2 chargino1)
     1.67328256E-01   2   1000023   1000037   # BR(Hp -> neutralino2 chargino2)
     2.51389467E-02   2   1000024   1000025   # BR(Hp -> chargino1 neutralino3)
     8.23850606E-02   2   1000025   1000037   # BR(Hp -> neutralino3 chargino2)
     1.66327127E-01   2   1000024   1000035   # BR(Hp -> chargino1 neutralino4)
     2.33887174E-10   2   1000035   1000037   # BR(Hp -> neutralino4 chargino2)
     3.04529912E-06   2        24        25   # BR(Hp -> W h0)
     1.17385482E-12   2        24        35   # BR(Hp -> W HH)
     4.60788067E-13   2        24        36   # BR(Hp -> W A0)
DECAY         6     2.43000000E+00   # top
#    BR                NDA      ID1      ID2
     1.00000000E+00    2           5        24   # BR(t -> b W)
Block HiggsBoundsInputHiggsCouplingsFermions
# ScalarNormEffCoupSq PseudoSNormEffCoupSq NP IP1 IP2 IP2
    9.23062993E-01    0.00000000E+00        3  25   5   5  # h0-b-b eff. coupling^2, normalised to SM
    4.53202590E+02    0.00000000E+00        3  35   5   5  # H0-b-b eff. coupling^2, normalised to SM
    0.00000000E+00    4.53125653E+02        3  36   5   5  # A0-b-b eff. coupling^2, normalised to SM
#
    1.00016979E+00    0.00000000E+00        3  25   6   6  # h0-t-t eff. coupling^2, normalised to SM
    2.03710160E-03    0.00000000E+00        3  35   6   6  # H0-t-t eff. coupling^2, normalised to SM
    0.00000000E+00    2.20689337E-03        3  36   6   6  # A0-t-t eff. coupling^2, normalised to SM
#
    9.23062993E-01    0.00000000E+00        3  25  15  15  # h0-tau-tau eff. coupling^2, normalised to SM
    4.53202590E+02    0.00000000E+00        3  35  15  15  # H0-tau-tau eff. coupling^2, normalised to SM
    0.00000000E+00    4.53125653E+02        3  36  15  15  # A0-tau-tau eff. coupling^2, normalised to SM
#
Block HiggsBoundsInputHiggsCouplingsBosons
    9.99996602E-01        3  25  24  24  # h0-W-W eff. coupling^2, normalised to SM
    3.39754097E-06        3  35  24  24  # H0-W-W eff. coupling^2, normalised to SM
    0.00000000E+00        3  36  24  24  # A0-W-W eff. coupling^2, normalised to SM
#
    9.99996602E-01        3  25  23  23  # h0-Z-Z eff. coupling^2, normalised to SM
    3.39754097E-06        3  35  23  23  # H0-Z-Z eff. coupling^2, normalised to SM
    0.00000000E+00        3  36  23  23  # A0-Z-Z eff. coupling^2, normalised to SM
#
    1.26796638E+00        3  25  21  21  # h0-g-g eff. coupling^2, normalised to SM
    1.17644393E-03        3  35  21  21  # H0-g-g eff. coupling^2, normalised to SM
    9.75526629E-02        3  36  21  21  # A0-g-g eff. coupling^2, normalised to SM
#
    0.00000000E+00        3  25  25  23  # h0-h0-Z eff. coupling^2, normalised to SM
    0.00000000E+00        3  35  25  23  # H0-h0-Z eff. coupling^2, normalised to SM
    3.39754097E-06        3  36  25  23  # A0-h0-Z eff. coupling^2, normalised to SM
    0.00000000E+00        3  35  35  23  # H0-H0-Z eff. coupling^2, normalised to SM
    9.99996602E-01        3  36  35  23  # A0-H0-Z eff. coupling^2, normalised to SM
    0.00000000E+00        3  36  36  23  # A0-A0-Z eff. coupling^2, normalised to SM
#
    0.00000000E+00        4  25  21  21  23  # h0-g-g-Z eff. coupling^2, normalised to SM
    0.00000000E+00        4  35  21  21  23  # H0-g-g-Z eff. coupling^2, normalised to SM
    0.00000000E+00        4  36  21  21  23  # A0-g-g-Z eff. coupling^2, normalised to SM
Block SPhenoLowEnergy  # low energy observables
    1    3.17271449E-04   # BR(b -> s gamma)
    2    1.59024262E-06   # BR(b -> s mu+ mu-)
    3    3.52426114E-05   # BR(b -> s nu nu)
    4    2.85576840E-15   # BR(Bd -> e+ e-)
    5    1.21995013E-10   # BR(Bd -> mu+ mu-)
    6    2.55283932E-08   # BR(Bd -> tau+ tau-)
    7    9.62095544E-14   # BR(Bs -> e+ e-)
    8    4.11006346E-09   # BR(Bs -> mu+ mu-)
    9    8.71444635E-07   # BR(Bs -> tau+ tau-)
   10    9.64321463E-05   # BR(B_u -> tau nu)
   11    9.96107153E-01   # BR(B_u -> tau nu)/BR(B_u -> tau nu)_SM
   12    5.42731575E-01   # |Delta(M_Bd)| [ps^-1] 
   13    1.93901275E+01   # |Delta(M_Bs)| [ps^-1] 
   14    0.00000000E+00   # neutron EDM according to the chiral quark model
   15    0.00000000E+00   # neutron EDM according to the relativistic quark-parton model
   16    2.16030221E-03   # epsilon_K
   17    2.28168884E-15   # Delta(M_K)
   18    2.47897149E-11   # BR(K^0 -> pi^0 nu nu)
   19    8.28814673E-11   # BR(K^+ -> pi^+ nu nu)
   20    2.16038717E-16   # Delta(g-2)_electron/2
   21    9.23634836E-12   # Delta(g-2)_muon/2
   22    2.61403025E-09   # Delta(g-2)_tau/2
   23    0.00000000E+00   # electric dipole moment of the electron
   24    0.00000000E+00   # electric dipole moment of the muon
   25    0.00000000E+00   # electric dipole moment of the tau
   26    0.00000000E+00   # Br(mu -> e gamma)
   27    0.00000000E+00   # Br(tau -> e gamma)
   28    0.00000000E+00   # Br(tau -> mu gamma)
   29    0.00000000E+00   # Br(mu -> 3 e)
   30    0.00000000E+00   # Br(tau -> 3 e)
   31    0.00000000E+00   # Br(tau -> 3 mu)
   39    5.17195999E-05   # Delta(rho_parameter)
   40    0.00000000E+00   # BR(Z -> e mu)
   41    0.00000000E+00   # BR(Z -> e tau)
   42    0.00000000E+00   # BR(Z -> mu tau)
Block FWCOEF Q=  1.60000000E+02  # Wilson coefficients at scale Q
#    id        order  M        value         comment
     0305 4422   00   0    -1.88819110E-01   # C7
     0305 4422   00   2    -1.83885655E-01   # C7
     0305 4322   00   2    -7.05114599E-05   # C7'
     0305 6421   00   0    -9.52278348E-02   # C8
     0305 6421   00   2    -9.88610098E-02   # C8
     0305 6321   00   2    -1.68088772E-04   # C8'
 03051111 4133   00   0     1.62088430E+00   # C9 e+e-
 03051111 4133   00   2     1.62133074E+00   # C9 e+e-
 03051111 4233   00   2     9.05458044E-05   # C9' e+e-
 03051111 4137   00   0    -4.44357641E+00   # C10 e+e-
 03051111 4137   00   2    -4.44094345E+00   # C10 e+e-
 03051111 4237   00   2    -6.74681593E-04   # C10' e+e-
 03051313 4133   00   0     1.62088430E+00   # C9 mu+mu-
 03051313 4133   00   2     1.62133065E+00   # C9 mu+mu-
 03051313 4233   00   2     9.05457578E-05   # C9' mu+mu-
 03051313 4137   00   0    -4.44357641E+00   # C10 mu+mu-
 03051313 4137   00   2    -4.44094354E+00   # C10 mu+mu-
 03051313 4237   00   2    -6.74681581E-04   # C10' mu+mu-
 03051212 4137   00   0     1.50535012E+00   # C11 nu_1 nu_1
 03051212 4137   00   2     1.50478111E+00   # C11 nu_1 nu_1
 03051212 4237   00   2     1.46081255E-04   # C11' nu_1 nu_1
 03051414 4137   00   0     1.50535012E+00   # C11 nu_2 nu_2
 03051414 4137   00   2     1.50478111E+00   # C11 nu_2 nu_2
 03051414 4237   00   2     1.46081263E-04   # C11' nu_2 nu_2
 03051616 4137   00   0     1.50535012E+00   # C11 nu_3 nu_3
 03051616 4137   00   2     1.50478111E+00   # C11 nu_3 nu_3
 03051616 4237   00   2     1.46083577E-04   # C11' nu_3 nu_3
Block IMFWCOEF Q=  1.60000000E+02  # Im(Wilson coefficients) at scale Q
#    id        order  M        value         comment
     0305 4422   00   0     3.85826067E-07   # C7
     0305 4422   00   2     5.70269992E-06   # C7
     0305 4322   00   2     1.40829528E-06   # C7'
     0305 6421   00   0     3.30485542E-07   # C8
     0305 6421   00   2    -1.04741280E-05   # C8
     0305 6321   00   2     4.33410874E-07   # C8'
 03051111 4133   00   2     2.34846782E-07   # C9 e+e-
 03051111 4233   00   2     1.87149755E-06   # C9' e+e-
 03051111 4137   00   2     3.43954100E-07   # C10 e+e-
 03051111 4237   00   2    -1.39490559E-05   # C10' e+e-
 03051313 4133   00   2     2.34845978E-07   # C9 mu+mu-
 03051313 4233   00   2     1.87149739E-06   # C9' mu+mu-
 03051313 4137   00   2     3.43954682E-07   # C10 mu+mu-
 03051313 4237   00   2    -1.39490564E-05   # C10' mu+mu-
 03051212 4137   00   2    -5.55757886E-08   # C11 nu_1 nu_1
 03051212 4237   00   2     3.02023548E-06   # C11' nu_1 nu_1
 03051414 4137   00   2    -5.55757570E-08   # C11 nu_2 nu_2
 03051414 4237   00   2     3.02023548E-06   # C11' nu_2 nu_2
 03051616 4137   00   2    -5.55668943E-08   # C11 nu_3 nu_3
 03051616 4237   00   2     3.02023548E-06   # C11' nu_3 nu_3
