# SUSY Les Houches Accord 2 - MSSM spectrum + Decays
# SPheno v4.0.5be
# W. Porod, Comput. Phys. Commun. 153 (2003) 275-315, hep-ph/0301101;
# W. Porod, F.~Staub, Comput. Phys. Commun. 183 (2012) 2458
#                     arXiv:1104.1573 [hep-ph] 
# in case of problems send email to porod@physik.uni-wuerzburg.de
# Created: 07.09.2021,  18:21
Block SPINFO         # Program information
     1   SPheno      # spectrum calculator
     2   v4.0.5be    # version number
#
Block SPhenoINFO     # SPheno specific information
    1      2         # using 2-loop RGEs
    2      2         # using pole masses for boundary conditions at mZ
Block MODSEL  # Model selection
    1    0    # general MSSM
Block MINPAR  # Input parameters
    3    5.21338589E+01  # tanb at m_Z    
    4   -1.00000000E+00  # Sign(mu)
Block EXTPAR  # non-universal input parameters
    0    3.92918828E+03  # scale for input parameters
    1    2.06030964E+02  # M_1
    2    1.16897959E+03  # M_2
    3    2.23159295E+03  # M_3
   11   -7.26009406E+03  # A_t
   12   -1.82904568E+03  # A_b
   13    1.84041591E+03  # A_tau
   23   -2.14257706E+02  # mu
   25    5.16700937E+01  # tan(beta)
   26    8.46057855E+02  # m_A, pole mass
   31    1.00000000E+04  # M_L11
   32    1.00000000E+04  # M_L22
   33    1.00000000E+04  # M_L33
   34    1.00000000E+04  # M_E11
   35    1.00000000E+04  # M_E22
   36    1.00000000E+04  # M_E33
   41    1.00000000E+04  # M_Q11
   42    1.00000000E+04  # M_Q22
   43    4.21788919E+03  # M_Q33
   44    1.00000000E+04  # M_U11
   45    1.00000000E+04  # M_U22
   46    3.77020125E+03  # M_U33
   47    1.00000000E+04  # M_D11
   48    1.00000000E+04  # M_D22
   49    3.01184853E+03  # M_D33
Block SMINPUTS  # SM parameters
         1     1.27908970E+02  # alpha_em^-1(MZ)^MSbar
         2     1.16637870E-05  # G_mu [GeV^-2]
         3     1.18400000E-01  # alpha_s(MZ)^MSbar
         4     9.11876000E+01  # m_Z(pole)
         5     4.18000000E+00  # m_b(m_b), MSbar
         6     1.73200000E+02  # m_t(pole)
         7     1.77700000E+00  # m_tau(pole)
         8     0.00000000E+00  # m_nu_3
        11     5.10998930E-04  # m_e(pole)
        12     0.00000000E+00  # m_nu_1
        13     1.05658372E-01  # m_muon(pole)
        14     0.00000000E+00  # m_nu_2
        21     5.00000000E-03  # m_d(2 GeV), MSbar
        22     2.50000000E-03  # m_u(2 GeV), MSbar
        23     9.50000000E-02  # m_s(2 GeV), MSbar
        24     1.27000000E+00  # m_c(m_c), MSbar
Block gauge Q=  3.92918828E+03  # (SUSY scale)
   1    3.55362975E-01  # g'(Q)^DRbar
   2    6.65198874E-01  # g(Q)^DRbar
   3    1.21977796E+00  # g3(Q)^DRbar
Block Yu Q=  3.92918828E+03  # (SUSY scale)
  1  1     8.38594221E-06   # Y_u(Q)^DRbar
  2  2     4.26005864E-03   # Y_c(Q)^DRbar
  3  3     1.01308918E+00   # Y_t(Q)^DRbar
Block Yd Q=  3.92918828E+03  # (SUSY scale)
  1  1     8.70705649E-04   # Y_d(Q)^DRbar
  2  2     1.65434073E-02   # Y_s(Q)^DRbar
  3  3     8.63467164E-01   # Y_b(Q)^DRbar
Block Ye Q=  3.92918828E+03  # (SUSY scale)
  1  1     1.51944503E-04   # Y_e(Q)^DRbar
  2  2     3.14173041E-02   # Y_mu(Q)^DRbar
  3  3     5.28387371E-01   # Y_tau(Q)^DRbar
Block Au Q=  3.92918828E+03  # (SUSY scale)
  1  1     0.00000000E+00   # A_u(Q)^DRbar
  2  2     0.00000000E+00   # A_c(Q)^DRbar
  3  3    -7.26009396E+03   # A_t(Q)^DRbar
Block Ad Q=  3.92918828E+03  # (SUSY scale)
  1  1     0.00000000E+00   # A_d(Q)^DRbar
  2  2     0.00000000E+00   # A_s(Q)^DRbar
  3  3    -1.82904566E+03   # A_b(Q)^DRbar
Block Ae Q=  3.92918828E+03  # (SUSY scale)
  1  1     0.00000000E+00   # A_e(Q)^DRbar
  2  2     0.00000000E+00   # A_mu(Q)^DRbar
  3  3     1.84041592E+03   # A_tau(Q)^DRbar
Block MSOFT Q=  3.92918828E+03  # soft SUSY breaking masses at Q
   1    2.06030964E+02  # M_1
   2    1.16897959E+03  # M_2
   3    2.23159295E+03  # M_3
  21    6.26422377E+05  # M^2_(H,d)
  22    2.70292282E+05  # M^2_(H,u)
  31    1.00000000E+04  # M_(L,11)
  32    1.00000000E+04  # M_(L,22)
  33    1.00000000E+04  # M_(L,33)
  34    1.00000000E+04  # M_(E,11)
  35    1.00000000E+04  # M_(E,22)
  36    1.00000000E+04  # M_(E,33)
  41    1.00000000E+04  # M_(Q,11)
  42    1.00000000E+04  # M_(Q,22)
  43    4.21788919E+03  # M_(Q,33)
  44    1.00000000E+04  # M_(U,11)
  45    1.00000000E+04  # M_(U,22)
  46    3.77020125E+03  # M_(U,33)
  47    1.00000000E+04  # M_(D,11)
  48    1.00000000E+04  # M_(D,22)
  49    3.01184853E+03  # M_(D,33)
Block MASS  # Mass spectrum
#   PDG code      mass          particle
         6     1.73200000E+02  # m_t(pole)
        23     9.11876000E+01  # m_Z(pole)
        24     8.04299946E+01  # W+
        15     1.77700000E+00  # m_tau(pole)
        25     1.28636937E+02  # h0
        35     8.46074328E+02  # H0
        36     8.46057855E+02  # A0
        37     8.67879384E+02  # H+
   1000001     1.01160211E+04  # ~d_L
   2000001     1.00913894E+04  # ~d_R
   1000002     1.01156632E+04  # ~u_L
   2000002     1.00946722E+04  # ~u_R
   1000003     1.01160252E+04  # ~s_L
   2000003     1.00913969E+04  # ~s_R
   1000004     1.01156673E+04  # ~c_L
   2000004     1.00946728E+04  # ~c_R
   1000005     3.05709603E+03  # ~b_1
   2000005     4.17751651E+03  # ~b_2
   1000006     3.66898467E+03  # ~t_1
   2000006     4.20784547E+03  # ~t_2
   1000011     1.00210011E+04  # ~e_L-
   2000011     1.00088742E+04  # ~e_R-
   1000012     1.00202380E+04  # ~nu_eL
   1000013     1.00210212E+04  # ~mu_L-
   2000013     1.00089127E+04  # ~mu_R-
   1000014     1.00202579E+04  # ~nu_muL
   1000015     1.00198701E+04  # ~tau_1-
   2000015     1.00269235E+04  # ~tau_2-
   1000016     1.00259665E+04  # ~nu_tauL
   1000021     2.67279183E+03  # ~g
   1000022     1.87076260E+02  # ~chi_10
   1000023     2.36700268E+02  # ~chi_20
   1000025     2.51316300E+02  # ~chi_30
   1000035     1.25743596E+03  # ~chi_40
   1000024     2.31431701E+02  # ~chi_1+
   1000037     1.25653650E+03  # ~chi_2+
# Higgs mixing
Block alpha # Effective Higgs mixing angle
          -1.97786924E-02   # alpha
Block Hmix Q=  3.92918828E+03  # Higgs mixing parameters
   1   -2.14257706E+02  # mu
   2    5.16700937E+01  # tan[beta](Q)
   3    2.42918974E+02  # v(Q)
   4    7.15813894E+05  # m^2_A(Q)
Block stopmix # stop mixing matrix
   1  1     2.39607510E-01   # Re[R_st(1,1)]
   1  2     9.70869837E-01   # Re[R_st(1,2)]
   2  1    -9.70869837E-01   # Re[R_st(2,1)]
   2  2     2.39607510E-01   # Re[R_st(2,2)]
Block sbotmix # sbottom mixing matrix
   1  1    -2.08239826E-03   # Re[R_sb(1,1)]
   1  2     9.99997832E-01   # Re[R_sb(1,2)]
   2  1    -9.99997832E-01   # Re[R_sb(2,1)]
   2  2    -2.08239826E-03   # Re[R_sb(2,2)]
Block staumix # stau mixing matrix
   1  1    -1.63632619E-01   # Re[R_sta(1,1)]
   1  2     9.86521346E-01   # Re[R_sta(1,2)]
   2  1    -9.86521346E-01   # Re[R_sta(2,1)]
   2  2    -1.63632619E-01   # Re[R_sta(2,2)]
Block Nmix # neutralino mixing matrix
   1  1    -8.05196238E-01   # Re[N(1,1)]
   1  2     2.70898129E-02   # Re[N(1,2)]
   1  3     4.62556327E-01   # Re[N(1,3)]
   1  4     3.70090265E-01   # Re[N(1,4)]
   2  1     7.26668651E-02   # Re[N(2,1)]
   2  2    -3.93112658E-02   # Re[N(2,2)]
   2  3     6.97954891E-01   # Re[N(2,3)]
   2  4    -7.11360051E-01   # Re[N(2,4)]
   3  1    -5.88532471E-01   # Re[N(3,1)]
   3  2    -4.67341068E-02   # Re[N(3,2)]
   3  3    -5.46614058E-01   # Re[N(3,3)]
   3  4    -5.93850592E-01   # Re[N(3,4)]
   4  1     2.84164608E-03   # Re[N(4,1)]
   4  2    -9.97765849E-01   # Re[N(4,2)]
   4  3     1.06624153E-02   # Re[N(4,3)]
   4  4     6.58904262E-02   # Re[N(4,4)]
Block Umix # chargino mixing matrix
   1  1    -1.51025285E-02   # Re[U(1,1)]
   1  2    -9.99885950E-01   # Re[U(1,2)]
   2  1     9.99885950E-01   # Re[U(2,1)]
   2  2    -1.51025285E-02   # Re[U(2,2)]
Block Vmix # chargino mixing matrix
   1  1    -9.32413974E-02   # Re[V(1,1)]
   1  2     9.95643531E-01   # Re[V(1,2)]
   2  1     9.95643531E-01   # Re[V(2,1)]
   2  2     9.32413974E-02   # Re[V(2,2)]
DECAY        23     2.49520000E+00   # Z
DECAY        24     2.08500000E+00   # W
DECAY   2000011     5.02459003E+01   # ~e^-_R
#    BR                NDA      ID1      ID2
     6.48468795E-01    2     1000022        11   # BR(~e^-_R -> chi^0_1 e^-)
     5.27934067E-03    2     1000023        11   # BR(~e^-_R -> chi^0_2 e^-)
     3.46243944E-01    2     1000025        11   # BR(~e^-_R -> chi^0_3 e^-)
DECAY   1000011     1.40779525E+02   # ~e^-_L
#    BR                NDA      ID1      ID2
     5.08647800E-02    2     1000022        11   # BR(~e^-_L -> chi^0_1 e^-)
     4.08112904E-02    2     1000025        11   # BR(~e^-_L -> chi^0_3 e^-)
     3.01248262E-01    2     1000035        11   # BR(~e^-_L -> chi^0_4 e^-)
     1.42771230E-04    2    -1000024        12   # BR(~e^-_L -> chi^-_1 nu_e)
     6.06932805E-01    2    -1000037        12   # BR(~e^-_L -> chi^-_2 nu_e)
#    BR                NDA      ID1      ID2       ID3
DECAY   2000013     5.06387453E+01   # ~mu^-_R
#    BR                NDA      ID1      ID2
     6.44270430E-01    2     1000022        13   # BR(~mu^-_R -> chi^0_1 mu^-)
     7.12696078E-03    2     1000023        13   # BR(~mu^-_R -> chi^0_2 mu^-)
     3.44717336E-01    2     1000025        13   # BR(~mu^-_R -> chi^0_3 mu^-)
     3.87621945E-03    2    -1000024        14   # BR(~mu^-_R -> chi^-_1 nu_mu)
DECAY   1000013     1.40976388E+02   # ~mu^-_L
#    BR                NDA      ID1      ID2
     5.10922852E-02    2     1000022        13   # BR(~mu^-_L -> chi^0_1 mu^-)
     6.79284558E-04    2     1000023        13   # BR(~mu^-_L -> chi^0_2 mu^-)
     4.11709094E-02    2     1000025        13   # BR(~mu^-_L -> chi^0_3 mu^-)
     3.00828386E-01    2     1000035        13   # BR(~mu^-_L -> chi^0_4 mu^-)
     1.42572147E-04    2    -1000024        14   # BR(~mu^-_L -> chi^-_1 nu_mu)
     6.06086563E-01    2    -1000037        14   # BR(~mu^-_L -> chi^-_2 nu_mu)
#    BR                NDA      ID1      ID2       ID3
DECAY   1000015     1.62440727E+02   # ~tau^-_1
#    BR                NDA      ID1      ID2
     2.90673902E-01    2     1000022        15   # BR(~tau^-_1 -> chi^0_1 tau^-)
     1.62941512E-01    2     1000023        15   # BR(~tau^-_1 -> chi^0_2 tau^-)
     1.93142144E-01    2     1000025        15   # BR(~tau^-_1 -> chi^0_3 tau^-)
     6.01340379E-03    2     1000035        15   # BR(~tau^-_1 -> chi^0_4 tau^-)
     3.35110312E-01    2    -1000024        16   # BR(~tau^-_1 -> chi^-_1 nu_tau)
     1.21187262E-02    2    -1000037        16   # BR(~tau^-_1 -> chi^-_2 nu_tau)
DECAY   2000015     1.95549554E+02   # ~tau^-_2
#    BR                NDA      ID1      ID2
     8.37217730E-02    2     1000022        15   # BR(~tau^-_2 -> chi^0_1 tau^-)
     1.43079777E-01    2     1000023        15   # BR(~tau^-_2 -> chi^0_2 tau^-)
     1.27948139E-01    2     1000025        15   # BR(~tau^-_2 -> chi^0_3 tau^-)
     2.12075731E-01    2     1000035        15   # BR(~tau^-_2 -> chi^0_4 tau^-)
     5.96985594E-03    2    -1000024        16   # BR(~tau^-_2 -> chi^-_1 nu_tau)
     4.27204723E-01    2    -1000037        16   # BR(~tau^-_2 -> chi^-_2 nu_tau)
#    BR                NDA      ID1      ID2       ID3
DECAY   1000012     1.40783862E+02   # ~nu_e
#    BR                NDA      ID1      ID2
     6.54512969E-02    2     1000022        12   # BR(~nu_e -> chi^0_1 nu_e)
     1.91027012E-03    2     1000023        12   # BR(~nu_e -> chi^0_2 nu_e)
     2.24175399E-02    2     1000025        12   # BR(~nu_e -> chi^0_3 nu_e)
     3.03053314E-01    2     1000035        12   # BR(~nu_e -> chi^0_4 nu_e)
     5.44145450E-03    2     1000024        11   # BR(~nu_e -> chi^+_1 e^-)
     6.01726124E-01    2     1000037        11   # BR(~nu_e -> chi^+_2 e^-)
#    BR                NDA      ID1      ID2       ID3
DECAY   1000014     1.40980707E+02   # ~nu_mu
#    BR                NDA      ID1      ID2
     6.53600404E-02    2     1000022        14   # BR(~nu_mu -> chi^0_1 nu_mu)
     1.90760669E-03    2     1000023        14   # BR(~nu_mu -> chi^0_2 nu_mu)
     2.23862840E-02    2     1000025        14   # BR(~nu_mu -> chi^0_3 nu_mu)
     3.02630815E-01    2     1000035        14   # BR(~nu_mu -> chi^0_4 nu_mu)
     6.82771541E-03    2     1000024        13   # BR(~nu_mu -> chi^+_1 mu^-)
     6.00887538E-01    2     1000037        13   # BR(~nu_mu -> chi^+_2 mu^-)
#    BR                NDA      ID1      ID2       ID3
DECAY   1000016     1.96497258E+02   # ~nu_tau
#    BR                NDA      ID1      ID2
     4.69205611E-02    2     1000022        16   # BR(~nu_tau -> chi^0_1 nu_tau)
     1.36943029E-03    2     1000023        16   # BR(~nu_tau -> chi^0_2 nu_tau)
     1.60706399E-02    2     1000025        16   # BR(~nu_tau -> chi^0_3 nu_tau)
     2.17259867E-01    2     1000035        16   # BR(~nu_tau -> chi^0_4 nu_tau)
     2.86938061E-01    2     1000024        15   # BR(~nu_tau -> chi^+_1 tau^-)
     4.31441441E-01    2     1000037        15   # BR(~nu_tau -> chi^+_2 tau^-)
#    BR                NDA      ID1      ID2       ID3
DECAY   2000001     6.94340414E+02   # ~d_R
#    BR                NDA      ID1      ID2
     5.25713704E-03    2     1000022         1   # BR(~d_R -> chi^0_1 d)
     2.80706589E-03    2     1000025         1   # BR(~d_R -> chi^0_3 d)
     9.91892609E-01    2     1000021         1   # BR(~d_R -> ~g d)
DECAY   1000001     8.21800869E+02   # ~d_L
#    BR                NDA      ID1      ID2
     1.57353452E-03    2     1000022         1   # BR(~d_L -> chi^0_1 d)
     1.47853107E-04    2     1000023         1   # BR(~d_L -> chi^0_2 d)
     1.82521911E-04    2     1000025         1   # BR(~d_L -> chi^0_3 d)
     5.23381977E-02    2     1000035         1   # BR(~d_L -> chi^0_4 d)
     1.05019880E-01    2    -1000037         2   # BR(~d_L -> chi^-_2 u)
     8.40713323E-01    2     1000021         1   # BR(~d_L -> ~g d)
DECAY   2000003     6.94450555E+02   # ~s_R
#    BR                NDA      ID1      ID2
     5.27317770E-03    2     1000022         3   # BR(~s_R -> chi^0_1 s)
     2.83016770E-03    2     1000025         3   # BR(~s_R -> chi^0_3 s)
     9.91736253E-01    2     1000021         3   # BR(~s_R -> ~g s)
DECAY   1000003     8.21859806E+02   # ~s_L
#    BR                NDA      ID1      ID2
     1.58771215E-03    2     1000022         3   # BR(~s_L -> chi^0_1 s)
     1.80363619E-04    2     1000023         3   # BR(~s_L -> chi^0_2 s)
     2.02452789E-04    2     1000025         3   # BR(~s_L -> chi^0_3 s)
     5.23344741E-02    2     1000035         3   # BR(~s_L -> chi^0_4 s)
     1.05012432E-01    2    -1000037         4   # BR(~s_L -> chi^-_2 c)
     8.40653477E-01    2     1000021         3   # BR(~s_L -> ~g s)
DECAY   1000005     1.04440949E+02   # ~b_1
#    BR                NDA      ID1      ID2
     1.02933008E-01    2     1000022         5   # BR(~b_1 -> chi^0_1 b)
     2.09003571E-01    2     1000023         5   # BR(~b_1 -> chi^0_2 b)
     1.33405899E-01    2     1000025         5   # BR(~b_1 -> chi^0_3 b)
     4.26326977E-01    2    -1000024         6   # BR(~b_1 -> chi^-_1 t)
     1.28249205E-01    2     1000021         5   # BR(~b_1 -> ~g b)
DECAY   2000005     3.43712019E+02   # ~b_2
#    BR                NDA      ID1      ID2
     3.98812993E-02    2     1000022         5   # BR(~b_2 -> chi^0_1 b)
     8.74245532E-02    2     1000023         5   # BR(~b_2 -> chi^0_2 b)
     5.37134231E-02    2     1000025         5   # BR(~b_2 -> chi^0_3 b)
     4.41083185E-02    2     1000035         5   # BR(~b_2 -> chi^0_4 b)
     2.43654916E-01    2    -1000024         6   # BR(~b_2 -> chi^-_1 t)
     9.05935493E-02    2    -1000037         6   # BR(~b_2 -> chi^-_2 t)
     3.34693222E-01    2     1000021         5   # BR(~b_2 -> ~g b)
     9.53296211E-02    2     1000006       -24   # BR(~b_2 -> ~t_1 W^-)
     5.24720503E-03    2     1000005        36   # BR(~b_2 -> ~b_1 A^0)
     5.24739537E-03    2     1000005        35   # BR(~b_2 -> ~b_1 H^0)
DECAY   2000002     7.11526046E+02   # ~u_R
#    BR                NDA      ID1      ID2
     2.05271430E-02    2     1000022         2   # BR(~u_R -> chi^0_1 u)
     1.67116211E-04    2     1000023         2   # BR(~u_R -> chi^0_2 u)
     1.09603830E-02    2     1000025         2   # BR(~u_R -> chi^0_3 u)
     9.68345110E-01    2     1000021         2   # BR(~u_R -> ~g u)
DECAY   1000002     8.21788718E+02   # ~u_L
#    BR                NDA      ID1      ID2
     7.32246625E-04    2     1000022         2   # BR(~u_L -> chi^0_1 u)
     1.24260669E-03    2     1000025         2   # BR(~u_L -> chi^0_3 u)
     5.22309393E-02    2     1000035         2   # BR(~u_L -> chi^0_4 u)
     9.41273199E-04    2     1000024         1   # BR(~u_L -> chi^+_1 d)
     1.04128217E-01    2     1000037         1   # BR(~u_L -> chi^+_2 d)
     8.40687080E-01    2     1000021         2   # BR(~u_L -> ~g u)
DECAY   2000004     7.11533350E+02   # ~c_R
#    BR                NDA      ID1      ID2
     2.05276326E-02    2     1000022         4   # BR(~c_R -> chi^0_1 c)
     1.69703380E-04    2     1000023         4   # BR(~c_R -> chi^0_2 c)
     1.09620768E-02    2     1000025         4   # BR(~c_R -> chi^0_3 c)
     9.68335202E-01    2     1000021         4   # BR(~c_R -> ~g c)
DECAY   1000004     8.21847623E+02   # ~c_L
#    BR                NDA      ID1      ID2
     7.32802878E-04    2     1000022         4   # BR(~c_L -> chi^0_1 c)
     1.24408272E-03    2     1000025         4   # BR(~c_L -> chi^0_3 c)
     5.22272371E-02    2     1000035         4   # BR(~c_L -> chi^0_4 c)
     1.00795256E-03    2     1000024         3   # BR(~c_L -> chi^+_1 s)
     1.04120813E-01    2     1000037         3   # BR(~c_L -> chi^+_2 s)
     8.40627231E-01    2     1000021         4   # BR(~c_L -> ~g c)
DECAY   1000006     2.26118179E+02   # ~t_1
#    BR                NDA      ID1      ID2
     7.85376568E-02    2     1000022         6   # BR(~t_1 -> chi^0_1 t)
     1.69082494E-01    2     1000023         6   # BR(~t_1 -> chi^0_2 t)
     1.15883471E-01    2     1000025         6   # BR(~t_1 -> chi^0_3 t)
     6.36047680E-04    2     1000035         6   # BR(~t_1 -> chi^0_4 t)
     3.30231874E-01    2     1000024         5   # BR(~t_1 -> chi^+_1 b)
     1.13083874E-03    2     1000037         5   # BR(~t_1 -> chi^+_2 b)
     8.61644238E-03    2     1000021         4   # BR(~t_1 -> ~g c)
     2.95316695E-01    2     1000021         6   # BR(~t_1 -> ~g t)
#    BR                NDA      ID1      ID2       ID3
     5.32595689E-04    3     1000022        24         5   # BR(~t_1 -> chi^0_1 W^+ b)
DECAY   2000006     3.49879905E+02   # ~t_2
#    BR                NDA      ID1      ID2
     2.62138213E-02    2     1000022         6   # BR(~t_2 -> chi^0_1 t)
     1.20426201E-01    2     1000023         6   # BR(~t_2 -> chi^0_2 t)
     9.58064624E-02    2     1000025         6   # BR(~t_2 -> chi^0_3 t)
     4.50814372E-02    2     1000035         6   # BR(~t_2 -> chi^0_4 t)
     1.74914306E-01    2     1000024         5   # BR(~t_2 -> chi^+_1 b)
     8.79770260E-02    2     1000037         5   # BR(~t_2 -> chi^+_2 b)
     3.20888278E-01    2     1000021         6   # BR(~t_2 -> ~g t)
     1.02863585E-02    2     1000005        37   # BR(~t_2 -> ~b_1 H^+)
     5.16929420E-02    2     1000006        23   # BR(~t_2 -> ~t_1 Z)
     6.66512966E-02    2     1000006        25   # BR(~t_2 -> ~t_1 h^0)
DECAY   1000024     7.96907080E-05   # chi^+_1
#    BR                NDA      ID1      ID2       ID3
     3.33990404E-01    3     1000022        -1         2   # BR(chi^+_1 -> chi^0_1 d_bar u)
     3.32798580E-01    3     1000022        -3         4   # BR(chi^+_1 -> chi^0_1 s_bar c)
     1.11330380E-01    3     1000022       -11        12   # BR(chi^+_1 -> chi^0_1 e^+ nu_e)
     1.11330091E-01    3     1000022       -13        14   # BR(chi^+_1 -> chi^0_1 mu^+ nu_mu)
     1.10550545E-01    3     1000022       -15        16   # BR(chi^+_1 -> chi^0_1 tau^+ nu_tau)
DECAY   1000037     1.36806073E+01   # chi^+_2
#    BR                NDA      ID1      ID2
     4.58168019E-02    2     1000022        24   # BR(chi^+_2 -> chi^0_1 W^+)
     1.99223330E-01    2     1000023        24   # BR(chi^+_2 -> chi^0_2 W^+)
     1.50431319E-01    2     1000025        24   # BR(chi^+_2 -> chi^0_3 W^+)
     2.14548580E-02    2          37   1000022   # BR(chi^+_2 -> H^+ chi^0_1)
     4.41199907E-02    2          37   1000023   # BR(chi^+_2 -> H^+ chi^0_2)
     2.81515582E-02    2          37   1000025   # BR(chi^+_2 -> H^+ chi^0_3)
     1.96351146E-01    2     1000024        23   # BR(chi^+_2 -> chi^+_1 Z)
     5.35692565E-02    2     1000024        36   # BR(chi^+_2 -> chi^+_1 A^0)
     1.92808574E-01    2     1000024        25   # BR(chi^+_2 -> chi^+_1 h^0)
     5.33943362E-02    2     1000024        35   # BR(chi^+_2 -> chi^+_1 H^0)
#    BR                NDA      ID1      ID2       ID3
     5.10946542E-03    3     1000024         6        -6   # BR(chi^+_2 -> chi^+_1 t t_bar)
     1.12185419E-03    3     1000022        -5         6   # BR(chi^+_2 -> chi^0_1 b_bar t)
     4.91936542E-03    3     1000023        -5         6   # BR(chi^+_2 -> chi^0_2 b_bar t)
     3.52487224E-03    3     1000025        -5         6   # BR(chi^+_2 -> chi^0_3 b_bar t)
DECAY   1000022     0.00000000E+00   # chi^0_1
DECAY   1000023     3.54651456E-04   # chi^0_2
#    BR                NDA      ID1      ID2
     1.16018872E-02    2     1000022        22   # BR(chi^0_2 -> chi^0_1 photon)
#    BR                NDA      ID1      ID2       ID3
     1.18600186E-01    3     1000022         2        -2   # BR(chi^0_2 -> chi^0_1 u u_bar)
     1.17696657E-01    3     1000022         4        -4   # BR(chi^0_2 -> chi^0_1 c c_bar)
     1.52068573E-01    3     1000022         1        -1   # BR(chi^0_2 -> chi^0_1 d d_bar)
     1.52063056E-01    3     1000022         3        -3   # BR(chi^0_2 -> chi^0_1 s s_bar)
     1.42131242E-01    3     1000022         5        -5   # BR(chi^0_2 -> chi^0_1 b b_bar)
     3.43172570E-02    3     1000022        11       -11   # BR(chi^0_2 -> chi^0_1 e^- e^+)
     3.43152762E-02    3     1000022        13       -13   # BR(chi^0_2 -> chi^0_1 mu^- mu^+)
     3.37629533E-02    3     1000022        15       -15   # BR(chi^0_2 -> chi^0_1 tau^- tau^+)
     2.03361109E-01    3     1000022        12       -12   # BR(chi^0_2 -> chi^0_1 nu_e nu_bar_e)
DECAY   1000025     1.20100576E-05   # chi^0_3
#    BR                NDA      ID1      ID2
     8.38241625E-03    2     1000022        22   # BR(chi^0_3 -> chi^0_1 photon)
     2.53751740E-02    2     1000023        22   # BR(chi^0_3 -> chi^0_2 photon)
#    BR                NDA      ID1      ID2       ID3
     5.03946438E-02    3     1000022         2        -2   # BR(chi^0_3 -> chi^0_1 u u_bar)
     5.01944813E-02    3     1000022         4        -4   # BR(chi^0_3 -> chi^0_1 c c_bar)
     6.45863659E-02    3     1000022         1        -1   # BR(chi^0_3 -> chi^0_1 d d_bar)
     6.45851204E-02    3     1000022         3        -3   # BR(chi^0_3 -> chi^0_1 s s_bar)
     6.40968941E-02    3     1000022         5        -5   # BR(chi^0_3 -> chi^0_1 b b_bar)
     1.45503137E-02    3     1000022        11       -11   # BR(chi^0_3 -> chi^0_1 e^- e^+)
     1.45498864E-02    3     1000022        13       -13   # BR(chi^0_3 -> chi^0_1 mu^- mu^+)
     1.44300702E-02    3     1000022        15       -15   # BR(chi^0_3 -> chi^0_1 tau^- tau^+)
     8.64056269E-02    3     1000022        12       -12   # BR(chi^0_3 -> chi^0_1 nu_e nu_bar_e)
     1.38845966E-02    3     1000023         2        -2   # BR(chi^0_3 -> chi^0_2 u u_bar)
     1.25598711E-02    3     1000023         4        -4   # BR(chi^0_3 -> chi^0_2 c c_bar)
     1.78028659E-02    3     1000023         1        -1   # BR(chi^0_3 -> chi^0_2 d d_bar)
     1.77941930E-02    3     1000023         3        -3   # BR(chi^0_3 -> chi^0_2 s s_bar)
     6.39263953E-03    3     1000023         5        -5   # BR(chi^0_3 -> chi^0_2 b b_bar)
     4.01762551E-03    3     1000023        11       -11   # BR(chi^0_3 -> chi^0_2 e^- e^+)
     4.01454070E-03    3     1000023        13       -13   # BR(chi^0_3 -> chi^0_2 mu^- mu^+)
     3.24018624E-03    3     1000023        15       -15   # BR(chi^0_3 -> chi^0_2 tau^- tau^+)
     2.38074458E-02    3     1000023        12       -12   # BR(chi^0_3 -> chi^0_2 nu_e nu_bar_e)
     7.39473327E-02    3     1000024         1        -2   # BR(chi^0_3 -> chi^+_1 d u_bar)
     7.39473327E-02    3    -1000024        -1         2   # BR(chi^0_3 -> chi^-_1 d_bar u)
     7.24946750E-02    3     1000024         3        -4   # BR(chi^0_3 -> chi^+_1 s c_bar)
     7.24946750E-02    3    -1000024        -3         4   # BR(chi^0_3 -> chi^-_1 s_bar c)
     2.46490371E-02    3     1000024        11       -12   # BR(chi^0_3 -> chi^+_1 e^- nu_bar_e)
     2.46490371E-02    3    -1000024       -11        12   # BR(chi^0_3 -> chi^-_1 e^+ nu_e)
     2.46488664E-02    3     1000024        13       -14   # BR(chi^0_3 -> chi^+_1 mu^- nu_bar_mu)
     2.46488664E-02    3    -1000024       -13        14   # BR(chi^0_3 -> chi^-_1 mu^+ nu_mu)
     2.37276102E-02    3     1000024        15       -16   # BR(chi^0_3 -> chi^+_1 tau^- nu_bar_tau)
     2.37276102E-02    3    -1000024       -15        16   # BR(chi^0_3 -> chi^-_1 tau^+ nu_tau)
DECAY   1000035     1.47428238E+01   # chi^0_4
#    BR                NDA      ID1      ID2
     1.84431406E-01    2     1000024       -24   # BR(chi^0_4 -> chi^+_1 W^-)
     1.84431406E-01    2    -1000024        24   # BR(chi^0_4 -> chi^-_1 W^+)
     4.46133778E-02    2          37  -1000024   # BR(chi^0_4 -> H^+ chi^-_1)
     4.46133778E-02    2         -37   1000024   # BR(chi^0_4 -> H^- chi^+_1)
     1.63124903E-02    2     1000022        23   # BR(chi^0_4 -> chi^0_1 Z)
     1.22217795E-01    2     1000023        23   # BR(chi^0_4 -> chi^0_2 Z)
     4.53224892E-02    2     1000025        23   # BR(chi^0_4 -> chi^0_3 Z)
     5.03227658E-03    2     1000022        36   # BR(chi^0_4 -> chi^0_1 A^0)
     8.72383015E-03    2     1000023        36   # BR(chi^0_4 -> chi^0_2 A^0)
     4.36833417E-03    2     1000025        36   # BR(chi^0_4 -> chi^0_3 A^0)
     2.59687189E-02    2     1000022        25   # BR(chi^0_4 -> chi^0_1 h^0)
     1.29779528E-01    2     1000023        25   # BR(chi^0_4 -> chi^0_2 h^0)
     9.16494554E-02    2     1000025        25   # BR(chi^0_4 -> chi^0_3 h^0)
     1.70069716E-02    2     1000022        35   # BR(chi^0_4 -> chi^0_1 H^0)
     3.74843337E-02    2     1000023        35   # BR(chi^0_4 -> chi^0_2 H^0)
     2.50842927E-02    2     1000025        35   # BR(chi^0_4 -> chi^0_3 H^0)
#    BR                NDA      ID1      ID2       ID3
     5.30935737E-04    3     1000022         6        -6   # BR(chi^0_4 -> chi^0_1 t t_bar)
     2.21225900E-03    3     1000023         6        -6   # BR(chi^0_4 -> chi^0_2 t t_bar)
     1.59933664E-03    3     1000025         6        -6   # BR(chi^0_4 -> chi^0_3 t t_bar)
     4.30465480E-03    3     1000024         5        -6   # BR(chi^0_4 -> chi^+_1 b t_bar)
     4.30465480E-03    3    -1000024        -5         6   # BR(chi^0_4 -> chi^-_1 b_bar t)
DECAY   1000021     2.19330926E-01   # ~g
#    BR                NDA      ID1      ID2
     6.06636759E-04    2     1000022        21   # BR(~g -> chi^0_1 g)
     1.28238360E-03    2     1000023        21   # BR(~g -> chi^0_2 g)
     1.09808016E-03    2     1000025        21   # BR(~g -> chi^0_3 g)
#    BR                NDA      ID1      ID2       ID3
     2.78080923E-02    3     1000022         6        -6   # BR(~g -> chi^0_1 t t_bar)
     7.30743392E-02    3     1000022         5        -5   # BR(~g -> chi^0_1 b b_bar)
     8.67875173E-02    3     1000023         6        -6   # BR(~g -> chi^0_2 t t_bar)
     1.50050134E-01    3     1000023         5        -5   # BR(~g -> chi^0_2 b b_bar)
     6.68557623E-02    3     1000025         6        -6   # BR(~g -> chi^0_3 t t_bar)
     9.41366259E-02    3     1000025         5        -5   # BR(~g -> chi^0_3 b b_bar)
     3.37109174E-03    3     1000035         6        -6   # BR(~g -> chi^0_4 t t_bar)
     3.47773949E-03    3     1000035         5        -5   # BR(~g -> chi^0_4 b b_bar)
     2.38278374E-01    3     1000024         5        -6   # BR(~g -> chi^+_1 b t_bar)
     2.38278374E-01    3    -1000024        -5         6   # BR(~g -> chi^-_1 b_bar t)
     1.28188188E-04    3     1000037         1        -2   # BR(~g -> chi^+_2 d u_bar)
     1.28188188E-04    3    -1000037        -1         2   # BR(~g -> chi^-_2 d_bar u)
     1.28188039E-04    3     1000037         3        -4   # BR(~g -> chi^+_2 s c_bar)
     1.28188039E-04    3    -1000037        -3         4   # BR(~g -> chi^-_2 s_bar c)
     6.88852190E-03    3     1000037         5        -6   # BR(~g -> chi^+_2 b t_bar)
     6.88852190E-03    3    -1000037        -5         6   # BR(~g -> chi^-_2 b_bar t)
DECAY        25     4.26317847E-03   # Gamma(h0)
     2.41002702E-03   2        22        22   # BR(h0 -> photon photon)
     1.86025365E-03   2        22        23   # BR(h0 -> photon Z)
     3.90849563E-02   2        23        23   # BR(h0 -> Z Z)
     3.01632695E-01   2       -24        24   # BR(h0 -> W W)
     7.15668306E-02   2        21        21   # BR(h0 -> gluon gluon)
     4.52417629E-09   2       -11        11   # BR(h0 -> Electron electron)
     2.01245195E-04   2       -13        13   # BR(h0 -> Muon muon)
     5.80293932E-02   2       -15        15   # BR(h0 -> Tau tau)
     1.20389422E-07   2        -2         2   # BR(h0 -> Up up)
     2.33665933E-02   2        -4         4   # BR(h0 -> Charm charm)
     5.21159071E-07   2        -1         1   # BR(h0 -> Down down)
     1.88491187E-04   2        -3         3   # BR(h0 -> Strange strange)
     5.01658869E-01   2        -5         5   # BR(h0 -> Bottom bottom)
DECAY        35     3.13178937E+01   # Gamma(HH)
     6.69247107E-08   2        22        22   # BR(HH -> photon photon)
     3.16676339E-08   2        22        23   # BR(HH -> photon Z)
     1.33999866E-06   2        23        23   # BR(HH -> Z Z)
     2.13209257E-06   2       -24        24   # BR(HH -> W W)
     7.81642451E-05   2        21        21   # BR(HH -> gluon gluon)
     1.03054534E-08   2       -11        11   # BR(HH -> Electron electron)
     4.58669014E-04   2       -13        13   # BR(HH -> Muon muon)
     1.32440556E-01   2       -15        15   # BR(HH -> Tau tau)
     3.01661052E-14   2        -2         2   # BR(HH -> Up up)
     5.84950412E-09   2        -4         4   # BR(HH -> Charm charm)
     3.55057603E-04   2        -6         6   # BR(HH -> Top top)
     8.98060236E-07   2        -1         1   # BR(HH -> Down down)
     3.24802219E-04   2        -3         3   # BR(HH -> Strange strange)
     8.40694453E-01   2        -5         5   # BR(HH -> Bottom bottom)
     1.42366237E-03   2  -1000024   1000024   # BR(HH -> Chargino1 chargino1)
     8.47279532E-03   2   1000022   1000022   # BR(HH -> neutralino1 neutralino1)
     5.78125840E-03   2   1000022   1000023   # BR(HH -> neutralino1 neutralino2)
     7.89250160E-05   2   1000022   1000025   # BR(HH -> neutralino1 neutralino3)
     4.27312360E-04   2   1000023   1000023   # BR(HH -> neutralino2 neutralino2)
     6.30906384E-03   2   1000023   1000025   # BR(HH -> neutralino2 neutralino3)
     3.13610377E-03   2   1000025   1000025   # BR(HH -> neutralino3 neutralino3)
     1.46923220E-05   2        25        25   # BR(HH -> h0 h0)
DECAY        36     3.03265490E+01   # Gamma(A0)
     6.21676932E-08   2        22        22   # BR(A0 -> photon photon)
     5.25783562E-08   2        22        23   # BR(A0 -> photon Z)
     1.01896522E-04   2        21        21   # BR(A0 -> gluon gluon)
     1.02888586E-08   2       -11        11   # BR(A0 -> Electron electron)
     4.57930650E-04   2       -13        13   # BR(A0 -> Muon muon)
     1.32229788E-01   2       -15        15   # BR(A0 -> Tau tau)
     2.89212230E-14   2        -2         2   # BR(A0 -> Up up)
     5.60412922E-09   2        -4         4   # BR(A0 -> Charm charm)
     4.14032800E-04   2        -6         6   # BR(A0 -> Top top)
     8.96616720E-07   2        -1         1   # BR(A0 -> Down down)
     3.24280127E-04   2        -3         3   # BR(A0 -> Strange strange)
     8.39373297E-01   2        -5         5   # BR(A0 -> Bottom bottom)
     1.94732651E-03   2  -1000024   1000024   # BR(A0 -> Chargino1 chargino1)
     1.00150954E-02   2   1000022   1000022   # BR(A0 -> neutralino1 neutralino1)
     5.16394433E-03   2   1000022   1000023   # BR(A0 -> neutralino1 neutralino2)
     8.72265786E-05   2   1000022   1000025   # BR(A0 -> neutralino1 neutralino3)
     6.52765455E-04   2   1000023   1000023   # BR(A0 -> neutralino2 neutralino2)
     4.86700163E-03   2   1000023   1000025   # BR(A0 -> neutralino2 neutralino3)
     4.36227257E-03   2   1000025   1000025   # BR(A0 -> neutralino3 neutralino3)
     2.11568460E-06   2        23        25   # BR(A0 -> Z h0)
     5.35187568E-37   2        25        25   # BR(A0 -> h0 h0)
DECAY        37     3.25749874E+01   # Gamma(Hp)
     1.19750001E-08   2       -11        12   # BR(Hp -> Electron nu_e)
     5.11968641E-04   2       -13        14   # BR(Hp -> Muon nu_mu)
     1.44812736E-01   2       -15        16   # BR(Hp -> Tau nu_tau)
     8.99846006E-07   2        -1         2   # BR(Hp -> Down up)
     1.49494268E-05   2        -3         2   # BR(Hp -> Strange up)
     9.30330951E-06   2        -5         2   # BR(Hp -> Bottom up)
     4.16298034E-08   2        -1         4   # BR(Hp -> Down charm)
     3.24271032E-04   2        -3         4   # BR(Hp -> Strange charm)
     1.30279108E-03   2        -5         4   # BR(Hp -> Bottom charm)
     2.70781464E-08   2        -1         6   # BR(Hp -> Down top)
     1.02895730E-06   2        -3         6   # BR(Hp -> Strange top)
     8.28547873E-01   2        -5         6   # BR(Hp -> Bottom top)
     1.14288492E-02   2   1000022   1000024   # BR(Hp -> neutralino1 chargino1)
     2.86306045E-05   2   1000023   1000024   # BR(Hp -> neutralino2 chargino1)
     1.30140483E-02   2   1000024   1000025   # BR(Hp -> chargino1 neutralino3)
     2.15493082E-06   2        24        25   # BR(Hp -> W h0)
     2.07187957E-07   2        24        35   # BR(Hp -> W HH)
     2.07979826E-07   2        24        36   # BR(Hp -> W A0)
DECAY         6     2.43000000E+00   # top
#    BR                NDA      ID1      ID2
     1.00000000E+00    2           5        24   # BR(t -> b W)
Block HiggsBoundsInputHiggsCouplingsFermions
# ScalarNormEffCoupSq PseudoSNormEffCoupSq NP IP1 IP2 IP2
    1.04467129E+00    0.00000000E+00        3  25   5   5  # h0-b-b eff. coupling^2, normalised to SM
    2.66975391E+03    0.00000000E+00        3  35   5   5  # H0-b-b eff. coupling^2, normalised to SM
    0.00000000E+00    2.66979858E+03        3  36   5   5  # A0-b-b eff. coupling^2, normalised to SM
#
    9.99983268E-01    0.00000000E+00        3  25   6   6  # h0-t-t eff. coupling^2, normalised to SM
    3.91292172E-04    0.00000000E+00        3  35   6   6  # H0-t-t eff. coupling^2, normalised to SM
    0.00000000E+00    3.74560091E-04        3  36   6   6  # A0-t-t eff. coupling^2, normalised to SM
#
    1.04467129E+00    0.00000000E+00        3  25  15  15  # h0-tau-tau eff. coupling^2, normalised to SM
    2.66975391E+03    0.00000000E+00        3  35  15  15  # H0-tau-tau eff. coupling^2, normalised to SM
    0.00000000E+00    2.66979858E+03        3  36  15  15  # A0-tau-tau eff. coupling^2, normalised to SM
#
Block HiggsBoundsInputHiggsCouplingsBosons
    9.99999817E-01        3  25  24  24  # h0-W-W eff. coupling^2, normalised to SM
    1.82801744E-07        3  35  24  24  # H0-W-W eff. coupling^2, normalised to SM
    0.00000000E+00        3  36  24  24  # A0-W-W eff. coupling^2, normalised to SM
#
    9.99999817E-01        3  25  23  23  # h0-Z-Z eff. coupling^2, normalised to SM
    1.82801744E-07        3  35  23  23  # H0-Z-Z eff. coupling^2, normalised to SM
    0.00000000E+00        3  36  23  23  # A0-Z-Z eff. coupling^2, normalised to SM
#
    1.25897370E+00        3  25  21  21  # h0-g-g eff. coupling^2, normalised to SM
    4.38867506E-02        3  35  21  21  # H0-g-g eff. coupling^2, normalised to SM
    2.01284880E-01        3  36  21  21  # A0-g-g eff. coupling^2, normalised to SM
#
    0.00000000E+00        3  25  25  23  # h0-h0-Z eff. coupling^2, normalised to SM
    0.00000000E+00        3  35  25  23  # H0-h0-Z eff. coupling^2, normalised to SM
    1.82801744E-07        3  36  25  23  # A0-h0-Z eff. coupling^2, normalised to SM
    0.00000000E+00        3  35  35  23  # H0-H0-Z eff. coupling^2, normalised to SM
    9.99999817E-01        3  36  35  23  # A0-H0-Z eff. coupling^2, normalised to SM
    0.00000000E+00        3  36  36  23  # A0-A0-Z eff. coupling^2, normalised to SM
#
    0.00000000E+00        4  25  21  21  23  # h0-g-g-Z eff. coupling^2, normalised to SM
    0.00000000E+00        4  35  21  21  23  # H0-g-g-Z eff. coupling^2, normalised to SM
    0.00000000E+00        4  36  21  21  23  # A0-g-g-Z eff. coupling^2, normalised to SM
Block SPhenoLowEnergy  # low energy observables
    1    3.85917838E-04   # BR(b -> s gamma)
    2    1.58840859E-06   # BR(b -> s mu+ mu-)
    3    3.52682383E-05   # BR(b -> s nu nu)
    4    1.24265543E-15   # BR(Bd -> e+ e-)
    5    5.29944636E-11   # BR(Bd -> mu+ mu-)
    6    5.93788024E-09   # BR(Bd -> tau+ tau-)
    7    4.08070169E-14   # BR(Bs -> e+ e-)
    8    1.74040975E-09   # BR(Bs -> mu+ mu-)
    9    2.03551600E-07   # BR(Bs -> tau+ tau-)
   10    7.72794029E-05   # BR(B_u -> tau nu)
   11    7.98266646E-01   # BR(B_u -> tau nu)/BR(B_u -> tau nu)_SM
   12    5.41638445E-01   # |Delta(M_Bd)| [ps^-1] 
   13    1.92080958E+01   # |Delta(M_Bs)| [ps^-1] 
   14    0.00000000E+00   # neutron EDM according to the chiral quark model
   15    0.00000000E+00   # neutron EDM according to the relativistic quark-parton model
   16    2.15758046E-03   # epsilon_K
   17    2.28168566E-15   # Delta(M_K)
   18    2.48083585E-11   # BR(K^0 -> pi^0 nu nu)
   19    8.29254706E-11   # BR(K^+ -> pi^+ nu nu)
   20   -4.63801798E-16   # Delta(g-2)_electron/2
   21   -1.98291101E-11   # Delta(g-2)_muon/2
   22   -5.62023453E-09   # Delta(g-2)_tau/2
   23    0.00000000E+00   # electric dipole moment of the electron
   24    0.00000000E+00   # electric dipole moment of the muon
   25    0.00000000E+00   # electric dipole moment of the tau
   26    0.00000000E+00   # Br(mu -> e gamma)
   27    0.00000000E+00   # Br(tau -> e gamma)
   28    0.00000000E+00   # Br(tau -> mu gamma)
   29    0.00000000E+00   # Br(mu -> 3 e)
   30    0.00000000E+00   # Br(tau -> 3 e)
   31    0.00000000E+00   # Br(tau -> 3 mu)
   39    6.99937448E-05   # Delta(rho_parameter)
   40    0.00000000E+00   # BR(Z -> e mu)
   41    0.00000000E+00   # BR(Z -> e tau)
   42    0.00000000E+00   # BR(Z -> mu tau)
Block FWCOEF Q=  1.60000000E+02  # Wilson coefficients at scale Q
#    id        order  M        value         comment
     0305 4422   00   0    -1.88819110E-01   # C7
     0305 4422   00   2    -2.56997001E-01   # C7
     0305 4322   00   2    -1.04630851E-03   # C7'
     0305 6421   00   0    -9.52278348E-02   # C8
     0305 6421   00   2    -1.55595876E-01   # C8
     0305 6321   00   2    -1.03433477E-03   # C8'
 03051111 4133   00   0     1.62700493E+00   # C9 e+e-
 03051111 4133   00   2     1.62739659E+00   # C9 e+e-
 03051111 4233   00   2     3.33419168E-04   # C9' e+e-
 03051111 4137   00   0    -4.44969703E+00   # C10 e+e-
 03051111 4137   00   2    -4.44965913E+00   # C10 e+e-
 03051111 4237   00   2    -2.46478939E-03   # C10' e+e-
 03051313 4133   00   0     1.62700493E+00   # C9 mu+mu-
 03051313 4133   00   2     1.62739627E+00   # C9 mu+mu-
 03051313 4233   00   2     3.33356331E-04   # C9' mu+mu-
 03051313 4137   00   0    -4.44969703E+00   # C10 mu+mu-
 03051313 4137   00   2    -4.44965945E+00   # C10 mu+mu-
 03051313 4237   00   2    -2.46472766E-03   # C10' mu+mu-
 03051212 4137   00   0     1.50535012E+00   # C11 nu_1 nu_1
 03051212 4137   00   2     1.50534355E+00   # C11 nu_1 nu_1
 03051212 4237   00   2     5.32941382E-04   # C11' nu_1 nu_1
 03051414 4137   00   0     1.50535012E+00   # C11 nu_2 nu_2
 03051414 4137   00   2     1.50534355E+00   # C11 nu_2 nu_2
 03051414 4237   00   2     5.32954912E-04   # C11' nu_2 nu_2
 03051616 4137   00   0     1.50535012E+00   # C11 nu_3 nu_3
 03051616 4137   00   2     1.50534356E+00   # C11 nu_3 nu_3
 03051616 4237   00   2     5.36767811E-04   # C11' nu_3 nu_3
Block IMFWCOEF Q=  1.60000000E+02  # Im(Wilson coefficients) at scale Q
#    id        order  M        value         comment
     0305 4422   00   0     3.85801041E-07   # C7
     0305 4422   00   2    -2.22136849E-05   # C7
     0305 4322   00   2    -3.40878210E-06   # C7'
     0305 6421   00   0     3.30464106E-07   # C8
     0305 6421   00   2     3.90744978E-05   # C8
     0305 6321   00   2    -8.54115428E-07   # C8'
 03051111 4133   00   2     2.73859945E-07   # C9 e+e-
 03051111 4233   00   2     1.36614020E-05   # C9' e+e-
 03051111 4137   00   2     1.41425465E-06   # C10 e+e-
 03051111 4237   00   2    -1.01059666E-04   # C10' e+e-
 03051313 4133   00   2     2.73853436E-07   # C9 mu+mu-
 03051313 4233   00   2     1.36613970E-05   # C9' mu+mu-
 03051313 4137   00   2     1.41426037E-06   # C10 mu+mu-
 03051313 4237   00   2    -1.01059681E-04   # C10' mu+mu-
 03051212 4137   00   2    -2.76863373E-07   # C11 nu_1 nu_1
 03051212 4237   00   2     2.18513342E-05   # C11' nu_1 nu_1
 03051414 4137   00   2    -2.76863106E-07   # C11 nu_2 nu_2
 03051414 4237   00   2     2.18513342E-05   # C11' nu_2 nu_2
 03051616 4137   00   2    -2.76788360E-07   # C11 nu_3 nu_3
 03051616 4237   00   2     2.18513342E-05   # C11' nu_3 nu_3
