BLOCK SPINFO
   1   SPheno
   2   v4.0.5be

BLOCK SPHENOINFO
   1   2
   2   2

BLOCK MODSEL
   1   0

BLOCK MINPAR
   3    28.066446
   4    1

BLOCK EXTPAR
   0    4577.7172
   1   -1352.5094
   2   -4443.0741
   3    1878.2517
   11   -6140.3797
   12    6110.2172
   13    6527.9791
   23    1005.944
   25    26.926273
   26    2477.7808
   31    3784.9887
   32    3784.9887
   33    3481.8621
   34    2529.0614
   35    2529.0614
   36    4978.7456
   41    4510.7864
   42    4510.7864
   43    4471.6508
   44    3658.9117
   45    3658.9117
   46    4739.9846
   47    1542.2508
   48    1542.2508
   49    871.05082

BLOCK SMINPUTS
   1    127.90897
   2    1.1663787e-05
   3    0.1184
   4    91.1876
   5    4.18
   6    173.2
   7    1.777
   8    0
   11    0.00051099893
   12    0
   13    0.10565837
   14    0
   21    0.005
   22    0.0025
   23    0.095
   24    1.27

BLOCK GAUGE Q=  4577.7172
   1    0.35536298
   2    0.66519887
   3    1.219778

BLOCK YU Q=  4577.7172
   1   1    8.3901523e-06
   2   2    0.0042621974
   3   3    1.0135978

BLOCK YD Q=  4577.7172
   1   1    0.00045396915
   2   2    0.0086254138
   3   3    0.45019514

BLOCK YE Q=  4577.7172
   1   1    7.9220936e-05
   2   2    0.016380377
   3   3    0.27549099

BLOCK AU Q=  4577.7172
   1   1    0
   2   2    0
   3   3   -6140.3796

BLOCK AD Q=  4577.7172
   1   1    0
   2   2    0
   3   3    6110.2175

BLOCK AE Q=  4577.7172
   1   1    0
   2   2    0
   3   3    6527.979

BLOCK MSOFT Q=  4577.7172
   1   -1352.5094
   2   -4443.0741
   3    1878.2517
   21    5087261.8
   22   -691941.14
   31    3784.9887
   32    3784.9887
   33    3481.8621
   34    2529.0614
   35    2529.0614
   36    4978.7456
   41    4510.7864
   42    4510.7864
   43    4471.6508
   44    3658.9117
   45    3658.9117
   46    4739.9846
   47    1542.2508
   48    1542.2508
   49    871.05082

BLOCK MASS
   6    173.2
   23    91.1876
   24    80.429995
   15    1.777
   25    124.66273
   35    2477.735
   36    2477.7808
   37    2479.3633
   1000001    4615.8512
   2000001    1695.0297
   1000002    4615.1412
   2000002    3724.2495
   1000003    4615.8488
   2000003    1695.0234
   1000004    4615.1388
   2000004    3724.2485
   1000005    1055.7303
   2000005    4499.8861
   1000006    4459.2946
   2000006    4699.2845
   1000011    3822.7813
   2000011    2545.1349
   1000012    3821.5386
   1000013    3822.7675
   2000013    2545.1008
   1000014    3821.5244
   1000015    3515.2812
   2000015    4975.1452
   1000016    3514.0961
   1000021    2174.5862
   1000022   -1020.3017
   1000023    1024.8178
   1000025   -1337.229
   1000035   -4449.6176
   1000024    1023.5616
   1000037    4449.8212

BLOCK ALPHA
      -0.035733933

BLOCK HMIX Q=  4577.7172
   1    1005.944
   2    26.926273
   3    242.7859
   4    6139397.7

BLOCK STOPMIX
   1   1    0.91797954
   1   2    0.39662773
   2   1   -0.39662773
   2   2    0.91797954

BLOCK SBOTMIX
   1   1    0.0022384248
   1   2    0.9999975
   2   1   -0.9999975
   2   2    0.0022384248

BLOCK STAUMIX
   1   1    0.99999584
   1   2    0.0028846617
   2   1   -0.0028846617
   2   2    0.99999584

BLOCK NMIX
   1   1   -0.095218206
   1   2    0.015186193
   1   3   -0.70514228
   1   4   -0.70247935
   2   1    0.013701931
   2   2   -0.010421916
   2   3   -0.70670373
   2   4    0.70730013
   3   1    0.99536209
   3   2    0.0018512355
   3   3   -0.057726029
   3   4   -0.07693239
   4   1   -0.00025389066
   4   2    0.99982865
   4   3    0.0034506753
   4   4    0.018184946

BLOCK UMIX
   1   1   -0.0048794088
   1   2    0.9999881
   2   1   -0.9999881
   2   2   -0.0048794088

BLOCK VMIX
   1   1    0.025715908
   1   2    0.99966929
   2   1    0.99966929
   2   2   -0.025715908

BLOCK HIGGSBOUNDSINPUTHIGGSCOUPLINGSFERMIONS
       0, 725.02419,3,36,15,15

BLOCK HIGGSBOUNDSINPUTHIGGSCOUPLINGSBOSONS
       0,4,36,21,21,23

BLOCK SPHENOLOWENERGY
   1    0.00032309753
   2    1.5901927e-06
   3    3.5259288e-05
   4    2.5330369e-15
   5    1.0820832e-10
   6    2.264383e-08
   7    8.4275175e-14
   8    3.6002289e-09
   9    7.6340904e-07
   10    9.610671e-05
   11    0.99274552
   12    0.54185392
   13    19.356794
   14    0
   15    0
   16    0.0021568228
   17    2.2816542e-15
   18    2.4806343e-11
   19    8.2915734e-11
   20   -5.6749913e-16
   21   -2.4262208e-11
   22   -7.5802884e-09
   23    0
   24    0
   25    0
   26    0
   27    0
   28    0
   29    0
   30    0
   31    0
   39    5.7236501e-05
   40    0
   41    0
   42    0

BLOCK FWCOEF Q=  160
   305   4422   0   0   -0.18881911
   305   4422   0   2   -0.1894039
   305   4322   0   2   -2.4116474e-05
   305   6421   0   0   -0.095227835
   305   6421   0   2   -0.10722492
   305   6321   0   2   -0.00022793972
   3051111   4133   0   0    1.631294
   3051111   4133   0   2    1.6315134
   3051111   4233   0   2    0.00019256916
   3051111   4137   0   0   -4.4539861
   3051111   4137   0   2   -4.4530267
   3051111   4237   0   2   -0.0014125859
   3051313   4133   0   0    1.631294
   3051313   4133   0   2    1.6315131
   3051313   4233   0   2    0.00019256892
   3051313   4137   0   0   -4.4539861
   3051313   4137   0   2   -4.4530269
   3051313   4237   0   2   -0.0014125859
   3051212   4137   0   0    1.5053501
   3051212   4137   0   2    1.5051434
   3051212   4237   0   2    0.00030513903
   3051414   4137   0   0    1.5053501
   3051414   4137   0   2    1.5051434
   3051414   4237   0   2    0.00030513907
   3051616   4137   0   0    1.5053501
   3051616   4137   0   2    1.5051434
   3051616   4237   0   2    0.00030514796

BLOCK IMFWCOEF Q=  160
   305   4422   0   0    3.8584193e-07
   305   4422   0   2    1.9143038e-05
   305   4322   0   2    2.8268013e-06
   305   6421   0   0    3.3049913e-07
   305   6421   0   2   -7.1416577e-05
   305   6321   0   2    1.0303637e-07
   3051111   4133   0   2   -5.8197101e-07
   3051111   4233   0   2    3.9346207e-06
   3051111   4137   0   2    6.0196181e-06
   3051111   4237   0   2   -2.8872413e-05
   3051313   4133   0   2   -5.8196978e-07
   3051313   4233   0   2    3.934619e-06
   3051313   4137   0   2    6.0196199e-06
   3051313   4237   0   2   -2.8872418e-05
   3051212   4137   0   2   -1.2901978e-06
   3051212   4237   0   2    6.2368585e-06
   3051414   4137   0   2   -1.2901979e-06
   3051414   4237   0   2    6.2368585e-06
   3051616   4137   0   2   -1.2909159e-06
   3051616   4237   0   2    6.2368587e-06

DECAY 23  2.4952


DECAY 24  2.085


DECAY 2000011  6.7237401
    0.98760219   2    1000025    11
    0.012147079   2    1000022    11
    0.00025069558   2    1000023    11

DECAY 1000011  3.7093739
    0.99479448   2    1000025    11
    0.0049817283   2    1000022    11
    0.0001861362   2   -1000024    12

DECAY 2000013  6.7426043
    0.98480948   2    1000025    13
    0.012818277   2    1000022    13
    0.0014158008   2   -1000024    14
    0.00095644567   2    1000023    13

DECAY 1000013  3.7273271
    0.99001123   2    1000025    13
    0.0073058939   2    1000022    13
    0.0023927621   2    1000023    13
    0.00018523877   2   -1000024    14
    0.00010487234   2    2000013    25

DECAY 1000015  7.6861203
    0.4208027   2    1000025    15
    0.29037652   2    1000022    15
    0.28869637   2    1000023    15
    0.00012442035   2   -1000024    16

DECAY 2000015  35.483473
    0.6014439   2    1000025    15
    0.1941403   2   -1000024    16
    0.1023605   2    1000022    15
    0.097094543   2    1000023    15
    0.0024608145   2    1000016   -24
    0.0012718992   2    1000015    25
    0.0012262633   2    1000015    23

DECAY 1000012  3.7242214
    0.97663119   2    1000025    12
    0.016996838   2    1000022    12
    0.0051474217   2    1000024    11
    0.0012245478   2    1000023    12

DECAY 1000014  3.7417771
    0.9720434   2    1000025    14
    0.01691701   2    1000022    14
    0.0098207909   2    1000024    13
    0.0012187966   2    1000023    14

DECAY 1000016  7.6979437
    0.57950326   2    1000024    15
    0.41261635   2    1000025    16
    0.0073509368   2    1000022    16
    0.00052945888   2    1000023    16

DECAY 2000001  0.13725841
    0.97402067   2    1000025    1
    0.025427654   2    1000022    1
    0.00053123886   2    1000023    1

DECAY 1000001  221.41367
    0.99615276   2    1000021    1
    0.0023689236   2    1000025    1
    0.00091587445   2   -1000037    2
    0.00045893543   2    1000035    1

DECAY 2000003  0.13927429
    0.95990684   2    1000025    3
    0.028686363   2    1000022    3
    0.0072712405   2   -1000024    4
    0.0041355531   2    1000023    3

DECAY 1000003  221.42122
    0.99611771   2    1000021    3
    0.0023689282   2    1000025    3
    0.00091578676   2   -1000037    4
    0.00045890701   2    1000035    3

DECAY 1000005  0.016074721
    0.5635022   2    1000022    5
    0.4364978   2    1000023    5

DECAY 2000005  328.13732
    0.63589929   2    1000021    5
    0.25101798   2   -1000024    6
    0.030271082   2    1000005    36
    0.030260391   2    1000005    35
    0.024837428   2    1000023    5
    0.024783497   2    1000022    5
    0.0017037867   2    1000025    5
    0.00079803653   2    1000005    25
    0.00039881594   2    1000005    23

DECAY 2000002  134.00647
    0.95285246   2    1000021    2
    0.046656181   2    1000025    2
    0.0004814008   2    1000022    2

DECAY 1000002  221.36326
    0.99605147   2    1000021    2
    0.0024700341   2    1000025    2
    0.00090796251   2    1000037    1
    0.00045518354   2    1000035    2
    0.0001098024   2    1000024    1

DECAY 2000004  134.00857
    0.95283609   2    1000021    4
    0.046655428   2    1000025    4
    0.00048565351   2    1000022    4

DECAY 1000004  221.37061
    0.99601703   2    1000021    4
    0.002469991   2    1000025    4
    0.00090790695   2    1000037    3
    0.00045513788   2    1000035    4
    0.00013761944   2    1000024    3

DECAY 1000006  424.94047
    0.49607729   2    1000021    6
    0.20319913   2    1000021    4
    0.093831943   2    1000023    6
    0.090477144   2    1000022    6
    0.059910405   2    1000024    5
    0.040072023   2    1000005    37
    0.0083120913   3    1000022    24    5
    0.0076138657   2    1000025    6
    0.00050365527   2    1000005    24

DECAY 2000006  408.78444
    0.54024556   2    1000021    6
    0.1888134   2    1000024    5
    0.10989127   2    1000022    6
    0.1085484   2    1000023    6
    0.016450567   2    1000025    6
    0.011929529   2    2000005    24
    0.008933161   2    1000006    23
    0.0080693139   2    1000006    25
    0.0068147436   2    1000005    37
    0.00014046595   2    1000037    5
    0.00011643913   2    1000005    24

DECAY 1000024  1.1426312e-09
    0.45042521   3    1000022   -1    2
    0.21606992   3    1000022   -3    4
    0.15014302   3    1000022   -11    12
    0.14936004   3    1000022   -13    14
    0.034001824   3    1000022   -15    16

DECAY 1000037  66.725885
    0.14143754   2    1000024    25
    0.13070728   2    1000023    24
    0.1306162   2    1000024    23
    0.12872166   2    1000022    24
    0.066476094   2    1000024    36
    0.066347741   2    1000024    35
    0.066324535   2    37    1000023
    0.060292284   2    37    1000022
    0.041547867   2    1000016   -15
    0.041480176   2   -1000015    16
    0.020205789   2    1000014   -13
    0.020204947   2    1000012   -11
    0.020144806   2   -1000013    14
    0.020143987   2   -1000011    12
    0.017254671   3    1000024    6   -6
    0.011125724   3    1000022   -5    6
    0.010531977   3    1000023   -5    6
    0.0019846919   2    1000025    24
    0.0014864395   3    1000021   -5    6
    0.00097902913   3    1000021   -3    4
    0.00097902215   3    1000021   -1    2
    0.00043237256   3    1000024    5   -5
    0.00037068505   2    37    1000025
    0.00017963591   3    1000025   -5    6

DECAY 1000022 -1


DECAY 1000023  2.8551731e-08
    0.83441678   2    1000022    22
    0.045899421   3    1000022    12   -12
    0.034322309   3    1000022    1   -1
    0.034146257   3    1000022    3   -3
    0.026768638   3    1000022    2   -2
    0.0084911851   3    1000022    4   -4
    0.0077456461   3    1000022    11   -11
    0.0076830875   3    1000022    13   -13
    0.00035596869   3    1000022    15   -15

DECAY 1000025  3.0337015
    0.19183058   2    1000024   -24
    0.19183058   2   -1000024    24
    0.19079901   2    1000023    23
    0.17046321   2    1000023    25
    0.14430542   2    1000022    25
    0.052833112   2    1000005   -5
    0.052833112   2   -1000005    5
    0.0038761536   2    1000022    23
    0.00060264793   3    1000024    5   -6
    0.00060264793   3   -1000024   -5    6

DECAY 1000035  70.244013
    0.12416641   2    1000024   -24
    0.12416641   2   -1000024    24
    0.10684367   2    1000023    25
    0.090976325   2    1000022    25
    0.084877624   2    1000023    23
    0.057503841   2    37   -1000024
    0.057503841   2   -37    1000024
    0.052033911   2    1000022    35
    0.045366275   2    1000023    35
    0.038829066   2    1000022    23
    0.019738019   2    1000016   -16
    0.019738019   2   -1000016    16
    0.01968271   2    1000015   -15
    0.01968271   2   -1000015    15
    0.012310121   2    1000023    36
    0.010635289   2    1000022    36
    0.0095971846   2    1000014   -14
    0.0095971846   2   -1000014    14
    0.009596785   2    1000012   -12
    0.009596785   2   -1000012    12
    0.0095569198   2    1000013   -13
    0.0095569198   2   -1000013    13
    0.0095565316   2    1000011   -11
    0.0095565316   2   -1000011    11
    0.0095117516   3    1000024    5   -6
    0.0095117516   3   -1000024   -5    6
    0.006923902   3    1000023    6   -6
    0.006351549   3    1000022    6   -6
    0.0015250103   2    1000025    25
    0.00088666107   3    1000021    5   -5
    0.00083481766   3    1000021    6   -6
    0.00060156528   3    1000021    4   -4
    0.00060156134   3    1000021    2   -2
    0.00060047781   3    1000021    3   -3
    0.00060047384   3    1000021    1   -1
    0.00046280088   2    1000025    23
    0.00037550922   2    1000025    35
    0.00016660417   3    1000023    5   -5
    0.00016643395   3    1000022    5   -5
    0.00011494543   3    1000025    6   -6

DECAY 1000021  57.446561
    0.32726173   2    1000005   -5
    0.32726173   2   -1000005    5
    0.086276631   2    2000003   -3
    0.086276631   2   -2000003    3
    0.086274634   2    2000001   -1
    0.086274634   2   -2000001    1
    0.00016852366   3    1000024    5   -6
    0.00016852366   3   -1000024   -5    6

DECAY 25  0.0038382262
    0.57829134   2   -5    5
    0.22285136   2   -24    24
    0.072758215   2    21    21
    0.066518653   2   -15    15
    0.028524351   2   -4    4
    0.026796869   2    23    23
    0.0023422777   2    22    22
    0.0014683355   2    22    23
    0.00023069575   2   -13    13
    0.00021715224   2   -3    3
    6.0040313e-07   2   -1    1
    1.4699371e-07   2   -2    2
    5.1863007e-09   2   -11    11

DECAY 35  23.165208
    0.8111878   2   -5    5
    0.16356557   2   -15    15
    0.016892989   2    1000023    1000025
    0.0048569546   2   -6    6
    0.0018640049   2    1000022    1000025
    0.0005661953   2   -13    13
    0.00034646761   2    1000022    1000022
    0.00030651749   2   -3    3
    0.00020188512   2    1000022    1000023
    0.00012604076   2   -1000024    1000024
    3.8260221e-05   2   -1000005    1000005
    2.5850656e-05   2    1000023    1000023
    8.8987237e-06   2    25    25
    8.7338168e-06   2    21    21
    2.0879701e-06   2    23    23
    8.4738156e-07   2   -1    1
    8.1712329e-07   2   -24    24
    6.7589445e-08   2   -4    4
    1.2717204e-08   2   -11    11
    1.0808638e-10   2    22    23
    2.5857166e-11   2    22    22
    3.4846305e-13   2   -2    2

DECAY 36  22.354028
    0.81030661   2   -5    5
    0.16338824   2   -15    15
    0.017415849   2    1000022    1000025
    0.0046494445   2   -6    6
    0.0018733566   2    1000023    1000025
    0.00090263422   2    1000022    1000022
    0.00056557805   2   -13    13
    0.00037270224   2   -1000024    1000024
    0.00030618386   2   -3    3
    9.3170693e-05   2    1000022    1000023
    9.1095106e-05   2    1000023    1000023
    3.0973934e-05   2    21    21
    3.1395384e-06   2    23    25
    8.4645771e-07   2   -1    1
    6.3385743e-08   2   -4    4
    6.1219301e-08   2    22    22
    4.1278134e-08   2    22    23
    1.2703338e-08   2   -11    11
    3.2682004e-13   2   -2    2
    1.4680648e-35   2    25    25

DECAY 37  23.635374
    0.81370853   2   -5    6
    0.16525234   2   -15    16
    0.018755352   2    1000024    1000025
    0.0012000848   2   -5    4
    0.00058422621   2   -13    14
    0.00026993244   2   -3    4
    0.00018436176   2    1000022    1000024
    1.2611959e-05   2   -3    2
    1.1858598e-05   2    1000023    1000024
    8.5698452e-06   2   -5    2
    8.0020111e-06   2   -3    6
    2.9777882e-06   2    24    25
    7.4872611e-07   2   -1    2
    3.4878064e-07   2   -1    6
    3.8086638e-08   2   -1    4
    1.3665112e-08   2   -11    12
    6.5923703e-13   2    24    35
    5.7157696e-13   2    24    36

DECAY 6  2.43
    1   2    5    24

DECAY 15 -1
