BLOCK SPINFO
   1   SPheno
   2   v4.0.5be

BLOCK SPHENOINFO
   1   2
   2   2

BLOCK MODSEL
   1   0

BLOCK MINPAR
   3    15.024859
   4    1

BLOCK EXTPAR
   0    1998.1869
   1    529.05282
   2   -2842.8691
   3    4612.6394
   11    5413.0484
   12    6364.5844
   13    7029.5667
   23    2598.7425
   25    14.36052
   26    4426.6966
   31    2458.5382
   32    2458.5382
   33    4811.2704
   34    4898.4229
   35    4898.4229
   36    2555.3445
   41    3289.7379
   42    3289.7379
   43    1845.2158
   44    1170.259
   45    1170.259
   46    2407.2337
   47    4966.3845
   48    4966.3845
   49    2693.4104

BLOCK SMINPUTS
   1    127.90897
   2    1.1663787e-05
   3    0.1184
   4    91.1876
   5    4.18
   6    173.2
   7    1.777
   8    0
   11    0.00051099893
   12    0
   13    0.10565837
   14    0
   21    0.005
   22    0.0025
   23    0.095
   24    1.27

BLOCK GAUGE Q=  1998.1869
   1    0.35536298
   2    0.66519887
   3    1.219778

BLOCK YU Q=  1998.1869
   1   1    8.4046758e-06
   2   2    0.0042695753
   3   3    1.0153523

BLOCK YD Q=  1998.1869
   1   1    0.0002425333
   2   2    0.0046081328
   3   3    0.24051704

BLOCK YE Q=  1998.1869
   1   1    4.2323835e-05
   2   2    0.0087512268
   3   3    0.14718124

BLOCK AU Q=  1998.1869
   1   1    0
   2   2    0
   3   3    5413.0485

BLOCK AD Q=  1998.1869
   1   1    0
   2   2    0
   3   3    6364.584

BLOCK AE Q=  1998.1869
   1   1    0
   2   2    0
   3   3    7029.5667

BLOCK MSOFT Q=  1998.1869
   1    529.05282
   2   -2842.8691
   3    4612.6394
   21    12891560
   22   -6510962.7
   31    2458.5382
   32    2458.5382
   33    4811.2704
   34    4898.4229
   35    4898.4229
   36    2555.3445
   41    3289.7379
   42    3289.7379
   43    1845.2158
   44    1170.259
   45    1170.259
   46    2407.2337
   47    4966.3845
   48    4966.3845
   49    2693.4104

BLOCK MASS
   6    173.2
   23    91.1876
   24    80.429995
   15    1.777
   25    124.87023
   35    4427.7675
   36    4426.6966
   37    4429.1201
   1000001    3332.296
   2000001    5003.9612
   1000002    3331.5229
   2000002    1002.2548
   1000003    3332.2962
   2000003    5003.961
   1000004    3331.5232
   2000004    1002.2562
   1000005    1790.8444
   2000005    2704.5574
   1000006    1717.3925
   2000006    2324.8913
   1000011    2470.8641
   2000011    4907.6213
   1000012    2469.2451
   1000013    2470.8672
   2000013    4907.6202
   1000014    2469.2483
   1000015    2573.0399
   2000015    4817.5082
   1000016    4816.7383
   1000021    4520.988
   1000022    527.5424
   1000023   -2584.7575
   1000025    2596.1335
   1000035   -2873.4176
   1000024    2585.4342
   1000037    2873.6514

BLOCK ALPHA
      -0.06651189

BLOCK HMIX Q=  1998.1869
   1    2598.7425
   2    14.36052
   3    243.61773
   4    19595642

BLOCK STOPMIX
   1   1   -0.94664874
   1   2    0.32226721
   2   1   -0.32226721
   2   2   -0.94664874

BLOCK SBOTMIX
   1   1    0.9999091
   1   2    0.013483336
   2   1   -0.013483336
   2   2    0.9999091

BLOCK STAUMIX
   1   1    0.0031685986
   1   2    0.99999498
   2   1   -0.99999498
   2   2    0.0031685986

BLOCK NMIX
   1   1   -0.9998287
   1   2   -0.00012254457
   1   3   -0.01792046
   1   4    0.0046271676
   2   1    0.0092447573
   2   2    0.18780635
   2   3   -0.69600456
   2   4   -0.69297977
   3   1    0.015942265
   3   2   -0.010829514
   3   3   -0.70679401
   3   4    0.70715684
   4   1   -0.001716751
   4   2    0.98214636
   4   3    0.12529461
   4   4    0.14030977

BLOCK UMIX
   1   1   -0.17725503
   1   2    0.98416495
   2   1   -0.98416495
   2   2   -0.17725503

BLOCK VMIX
   1   1    0.19871144
   1   2    0.98005804
   2   1    0.98005804
   2   2   -0.19871144

BLOCK HIGGSBOUNDSINPUTHIGGSCOUPLINGSFERMIONS
       0, 206.22454,3,36,15,15

BLOCK HIGGSBOUNDSINPUTHIGGSCOUPLINGSBOSONS
       0,4,36,21,21,23

BLOCK SPHENOLOWENERGY
   1    0.00032702983
   2    1.5901066e-06
   3    3.5266519e-05
   4    3.0893235e-15
   5    1.3197243e-10
   6    2.7629084e-08
   7    1.0388983e-13
   8    4.4381718e-09
   9    9.4144452e-07
   10    9.6721904e-05
   11    0.99910024
   12    0.54219579
   13    19.372735
   14    0
   15    0
   16    0.0021584204
   17    2.2816695e-15
   18    2.4806861e-11
   19    8.2923309e-11
   20   -5.1208074e-16
   21   -2.1893066e-11
   22   -4.3600956e-09
   23    0
   24    0
   25    0
   26    0
   27    0
   28    0
   29    0
   30    0
   31    0
   39    1.8956468e-05
   40    0
   41    0
   42    0

BLOCK FWCOEF Q=  160
   305   4422   0   0   -0.18881911
   305   4422   0   2   -0.19635425
   305   4322   0   2   -0.00013084185
   305   6421   0   0   -0.095227835
   305   6421   0   2   -0.10229639
   305   6321   0   2   -0.00012629431
   3051111   4133   0   0    1.6019337
   3051111   4133   0   2    1.6022569
   3051111   4233   0   2    2.7046575e-05
   3051111   4137   0   0   -4.4246258
   3051111   4137   0   2   -4.4243322
   3051111   4237   0   2   -0.00020739367
   3051313   4133   0   0    1.6019337
   3051313   4133   0   2    1.6022568
   3051313   4233   0   2    2.7046571e-05
   3051313   4137   0   0   -4.4246258
   3051313   4137   0   2   -4.4243323
   3051313   4237   0   2   -0.00020739368
   3051212   4137   0   0    1.5053501
   3051212   4137   0   2    1.5052874
   3051212   4237   0   2    4.509621e-05
   3051414   4137   0   0    1.5053501
   3051414   4137   0   2    1.5052874
   3051414   4237   0   2    4.509621e-05
   3051616   4137   0   0    1.5053501
   3051616   4137   0   2    1.5052875
   3051616   4237   0   2    4.5096423e-05

BLOCK IMFWCOEF Q=  160
   305   4422   0   0    3.8575015e-07
   305   4422   0   2   -9.3189578e-07
   305   4322   0   2   -1.1920443e-06
   305   6421   0   0    3.3042051e-07
   305   6421   0   2   -3.1021375e-06
   305   6321   0   2   -7.0342633e-07
   3051111   4133   0   2    4.2131047e-07
   3051111   4233   0   2    5.3471016e-07
   3051111   4137   0   2   -2.4520961e-06
   3051111   4237   0   2   -4.1007603e-06
   3051313   4133   0   2    4.2130936e-07
   3051313   4233   0   2    5.3471011e-07
   3051313   4137   0   2   -2.4520966e-06
   3051313   4237   0   2   -4.1007605e-06
   3051212   4137   0   2    5.5288685e-07
   3051212   4237   0   2    8.916818e-07
   3051414   4137   0   2    5.5288681e-07
   3051414   4237   0   2    8.916818e-07
   3051616   4137   0   2    5.5463518e-07
   3051616   4237   0   2    8.9168405e-07

DECAY 23  2.4952


DECAY 24  2.085


DECAY 1000011  2.8276054
    1   2    1000022    11

DECAY 2000011  24.088553
    0.99981807   2    1000022    11
    0.00013493582   2    1000025    11

DECAY 1000013  2.8276107
    1   2    1000022    13

DECAY 2000013  24.097088
    0.99946378   2    1000022    13
    0.00021528529   2    1000025    13
    0.00015686938   2   -1000024    14
    0.0001241586   2    1000023    13

DECAY 1000015  11.86083
    1   2    1000022    15

DECAY 2000015  33.830182
    0.50398167   2   -1000037    16
    0.2509484   2    1000035    15
    0.17464926   2    1000022    15
    0.026790109   2    1000023    15
    0.019810365   2   -1000024    16
    0.015447225   2    1000025    15
    0.0042625029   2    1000015    25
    0.0041104608   2    1000015    23

DECAY 1000012  2.8228068
    1   2    1000022    12

DECAY 1000014  2.8228112
    1   2    1000022    14

DECAY 1000016  33.833607
    0.50012822   2    1000037    15
    0.25125694   2    1000035    16
    0.17442922   2    1000022    16
    0.055225523   2    1000024    15
    0.010624027   2    1000023    16
    0.0082180146   2    1000015    24
    0.00011805996   2    1000025    16

DECAY 1000001  3.4662995
    0.53856841   2   -1000037    2
    0.26860103   2    1000035    1
    0.12731689   2    1000022    1
    0.042123479   2   -1000024    2
    0.023267996   2    1000023    1
    0.00012220294   2    1000025    1

DECAY 2000001  16.063339
    0.82995426   2    1000021    1
    0.17001349   2    1000022    1

DECAY 1000003  3.4666932
    0.53850972   2   -1000037    4
    0.26857147   2    1000035    3
    0.12730256   2    1000022    3
    0.042166737   2   -1000024    4
    0.023296039   2    1000023    3
    0.000153472   2    1000025    3

DECAY 2000003  16.065741
    0.82982962   2    1000021    3
    0.1699881   2    1000022    3

DECAY 1000005  0.2095772
    1   2    1000022    5

DECAY 2000005  2.6531543
    0.52615986   2    1000022    5
    0.2101925   2    1000005    25
    0.17383789   2    1000006   -24
    0.080379956   2    1000005    23
    0.0042102819   2    1000023    5
    0.0036293838   2    1000025    5
    0.0015901243   2    2000006   -24

DECAY 2000002  1.1694121
    1   2    1000022    2

DECAY 1000002  3.4822205
    0.53008712   2    1000037    1
    0.2662602   2    1000035    2
    0.12705167   2    1000022    2
    0.052610642   2    1000024    1
    0.023948894   2    1000023    2

DECAY 2000004  1.1694071
    1   2    1000022    4

DECAY 1000004  3.4826287
    0.53002581   2    1000037    3
    0.26622637   2    1000035    4
    0.12703676   2    1000022    4
    0.052667224   2    1000024    3
    0.023975071   2    1000023    4

DECAY 1000006  0.50055165
    0.87855721   2    1000022    6
    0.10631617   2    1000022    4
    0.015126618   3    1000022    24    5

DECAY 2000006  131.4365
    0.43861382   2    1000005    24
    0.27413386   2    1000006    23
    0.25518691   2    1000006    25
    0.032065409   2    1000022    6

DECAY 1000024  31.978832
    0.68475005   2   -1000005    6
    0.18666573   2    1000006   -5
    0.072203041   2    2000006   -5
    0.05350881   2    1000022    24
    0.0024546167   3    1000022   -5    6
    0.00010891004   2    1000014   -13
    0.0001084687   2    1000012   -11

DECAY 1000037  35.997422
    0.36853921   2   -1000005    6
    0.30189991   2    1000006   -5
    0.058980459   2    1000023    24
    0.045816208   2    2000006   -5
    0.045327146   2    1000024    23
    0.043346278   2    1000025    24
    0.040886462   2    1000024    25
    0.023127757   2   -1000011    12
    0.023127431   2   -1000013    14
    0.023105878   2    1000012   -11
    0.023105696   2    1000014   -13
    0.0023796363   2    1000022    24
    0.00014116134   3    1000023   -5    6
    0.00012060516   3    1000022   -5    6

DECAY 1000022 -1


DECAY 1000023  27.643049
    0.37853328   2    1000006   -6
    0.37853328   2   -1000006    6
    0.051194182   2    2000006   -6
    0.051194182   2   -2000006    6
    0.046061994   2    1000022    23
    0.03358817   2    1000022    25
    0.027357287   2    1000005   -5
    0.027357287   2   -1000005    5
    0.0018812169   3    1000022    6   -6
    0.0018691302   2    1000006   -4
    0.0018691302   2   -1000006    4

DECAY 1000025  27.938914
    0.38462577   2    1000006   -6
    0.38462577   2   -1000006    6
    0.061062294   2    2000006   -6
    0.061062294   2   -2000006    6
    0.045620844   2    1000022    25
    0.02200915   2    1000005   -5
    0.02200915   2   -1000005    5
    0.016594753   2    1000022    23
    0.0021051813   3    1000022    6   -6

DECAY 1000035  42.180437
    0.16263816   2    1000005   -5
    0.16263816   2   -1000005    5
    0.15930072   2    1000006   -6
    0.15930072   2   -1000006    6
    0.050207952   2    1000024   -24
    0.050207952   2   -1000024    24
    0.048389339   2    1000025    25
    0.048012764   2    1000025    23
    0.03462462   2    1000023    25
    0.021316562   2    2000006   -6
    0.021316562   2   -2000006    6
    0.0099101031   2    1000012   -12
    0.0099101031   2   -1000012    12
    0.0099099557   2    1000014   -14
    0.0099099557   2   -1000014    14
    0.0098001528   2    1000011   -11
    0.0098001528   2   -1000011    11
    0.009800056   2    1000013   -13
    0.009800056   2   -1000013    13
    0.0014482114   2    1000022    23
    0.0011688931   2    1000022    25
    0.00015206429   2    1000023    23
    0.00012184516   3    1000024    5   -6
    0.00012184516   3   -1000024   -5    6

DECAY 1000021  701.77807
    0.086203085   2    2000002   -2
    0.086203085   2   -2000002    2
    0.08620306   2    2000004   -4
    0.08620306   2   -2000004    4
    0.073577632   2    1000006   -6
    0.073577632   2   -1000006    6
    0.067766947   2    1000005   -5
    0.067766947   2   -1000005    5
    0.04824307   2    2000006   -6
    0.04824307   2   -2000006    6
    0.039316409   2    2000005   -5
    0.039316409   2   -2000005    5
    0.01991051   2    1000002   -2
    0.01991051   2   -1000002    2
    0.019910493   2    1000004   -4
    0.019910493   2   -1000004    4
    0.019888553   2    1000001   -1
    0.019888553   2   -1000001    1
    0.019888546   2    1000003   -3
    0.019888546   2   -1000003    3
    0.018877786   2    1000006   -4
    0.018877786   2   -1000006    4
    0.00010319993   3    1000024    5   -6
    0.00010319993   3   -1000024   -5    6

DECAY 25  0.0038551091
    0.57496093   2   -5    5
    0.22679434   2   -24    24
    0.071917388   2    21    21
    0.066146273   2   -15    15
    0.028503841   2   -4    4
    0.027383838   2    23    23
    0.002356675   2    22    22
    0.0014906304   2    22    23
    0.00022940055   2   -13    13
    0.00021593073   2   -3    3
    5.9702653e-07   2   -1    1
    1.4688783e-07   2   -2    2
    5.1571805e-09   2   -11    11

DECAY 35  44.510612
    0.27375091   2   -2000006    1000006
    0.27375091   2   -1000006    2000006
    0.23228874   2   -1000006    1000006
    0.12675905   2   -5    5
    0.041564906   2   -15    15
    0.031885247   2    1000022    1000023
    0.015801137   2    1000022    1000025
    0.0031727638   2   -6    6
    0.0006043787   2    1000022    1000035
    0.00013946063   2   -13    13
    6.9039124e-05   2   -3    3
    6.6340015e-05   2    25    25
    6.2634725e-05   2    1000022    1000022
    5.1189258e-05   2    21    21
    2.678192e-05   2   -1000005    1000005
    2.4566288e-06   2   -1000002    1000002
    2.4562385e-06   2   -1000004    1000004
    7.7137341e-07   2    23    23
    2.5443998e-07   2    22    22
    1.9088964e-07   2   -1    1
    1.8696405e-07   2    22    23
    1.4522219e-07   2   -24    24
    3.9277982e-08   2   -4    4
    3.1318285e-09   2   -11    11
    2.0211858e-13   2   -2    2
    3.4782091e-14   2    23    36

DECAY 36  46.843748
    0.3956451   2   -2000006    1000006
    0.3956451   2   -1000006    2000006
    0.11949221   2   -5    5
    0.03921   2   -15    15
    0.030574522   2    1000022    1000025
    0.014987121   2    1000022    1000023
    0.003953254   2   -6    6
    0.00021847272   2    1000022    1000035
    0.00013156016   2   -13    13
    6.7741113e-05   2    1000022    1000022
    6.513032e-05   2   -3    3
    7.6904392e-06   2    21    21
    1.7357078e-06   2    23    25
    1.8008249e-07   2   -1    1
    5.9680035e-08   2    22    23
    5.8862097e-08   2    22    22
    4.7004699e-08   2   -4    4
    2.9543678e-09   2   -11    11
    2.4189559e-13   2   -2    2
    2.8624104e-36   2    25    25

DECAY 37  22.089197
    0.39442045   2   -1000005    2000006
    0.31620467   2   -5    6
    0.10007997   2   -1000005    1000006
    0.096143949   2    1000022    1000024
    0.090521914   2   -15    16
    0.0016913968   2    1000022    1000037
    0.00041939232   2   -5    4
    0.00032002716   2   -13    14
    0.00013443341   2   -3    4
    4.8161558e-05   2   -3    6
    6.303626e-06   2   -3    2
    3.6879633e-06   2    24    25
    2.9948887e-06   2   -5    2
    2.1997378e-06   2   -1    6
    3.7195506e-07   2   -1    2
    3.7479251e-08   2   -1    4
    3.5234926e-08   2   -1000005    1000004
    7.4854686e-09   2   -11    12
    5.1536397e-12   2    24    36
    2.7903412e-13   2    24    35
    1.4093869e-13   2   -2000005    1000004
    1.3197421e-15   2   -1000005    1000002
    5.2789327e-21   2   -2000005    1000002

DECAY 6  2.43
    1   2    5    24

DECAY 15 -1
