BLOCK SPINFO
   1   SPheno
   2   v4.0.5be

BLOCK SPHENOINFO
   1   2
   2   2

BLOCK MODSEL
   1   0

BLOCK MINPAR
   3    20.086523
   4    1

BLOCK EXTPAR
   0    2047.3591
   1   -796.44016
   2   -950.07909
   3    3375.1753
   11   -2865.0628
   12   -3820.9608
   13    7152.936
   23    4181.9397
   25    19.303411
   26    1864.7882
   31    1464.786
   32    1464.786
   33    2974.6716
   34    4343.7164
   35    4343.7164
   36    1500.1881
   41    3540.5053
   42    3540.5053
   43    960.67745
   44    2366.4426
   45    2366.4426
   46    4047.2551
   47    1437.5844
   48    1437.5844
   49    4582.7495

BLOCK SMINPUTS
   1    127.90897
   2    1.1663787e-05
   3    0.1184
   4    91.1876
   5    4.18
   6    173.2
   7    1.777
   8    0
   11    0.00051099893
   12    0
   13    0.10565837
   14    0
   21    0.005
   22    0.0025
   23    0.095
   24    1.27

BLOCK GAUGE Q=  2047.3591
   1    0.35536298
   2    0.66519887
   3    1.219778

BLOCK YU Q=  2047.3591
   1   1    8.3956151e-06
   2   2    0.0042649725
   3   3    1.0142577

BLOCK YD Q=  2047.3591
   1   1    0.00032566181
   2   2    0.0061875743
   3   3    0.32295446

BLOCK YE Q=  2047.3591
   1   1    5.6830366e-05
   2   2    0.011750717
   3   3    0.19762773

BLOCK AU Q=  2047.3591
   1   1    0
   2   2    0
   3   3   -2865.066

BLOCK AD Q=  2047.3591
   1   1    0
   2   2    0
   3   3   -3820.9601

BLOCK AE Q=  2047.3591
   1   1    0
   2   2    0
   3   3    7152.9328

BLOCK MSOFT Q=  2047.3591
   1   -796.44016
   2   -950.07909
   3    3375.1753
   21   -14095968
   22   -17563972
   31    1464.786
   32    1464.786
   33    2974.6716
   34    4343.7164
   35    4343.7164
   36    1500.1881
   41    3540.5053
   42    3540.5053
   43    960.67745
   44    2366.4426
   45    2366.4426
   46    4047.2551
   47    1437.5844
   48    1437.5844
   49    4582.7495

BLOCK MASS
   6    173.2
   23    91.1876
   24    80.429995
   15    1.777
   25    120.7083
   35    1864.6346
   36    1864.7882
   37    1866.852
   1000001    3608.3788
   2000001    1492.3376
   1000002    3607.584
   2000002    2427.337
   1000003    3608.3781
   2000003    1492.3363
   1000004    3607.5832
   2000004    2427.337
   1000005    1034.1332
   2000005    4620.4411
   1000006    1035.456
   2000006    4048.1484
   1000011    1467.4988
   2000011    4351.2967
   1000012    1465.0258
   1000013    1467.4975
   2000013    4351.291
   1000014    1465.026
   1000015    1512.5619
   2000015    2974.2518
   1000016    2972.5152
   1000021    3460.0583
   1000022   -796.71139
   1000023   -989.34963
   1000025    4171.1628
   1000035   -4171.3845
   1000024    989.49473
   1000037    4171.9127

BLOCK ALPHA
      -0.049909259

BLOCK HMIX Q=  2047.3591
   1    4181.9397
   2    19.303411
   3    243.70593
   4    3477435.2

BLOCK STOPMIX
   1   1    0.99959604
   1   2    0.028420944
   2   1   -0.028420944
   2   2    0.99959604

BLOCK SBOTMIX
   1   1    0.99997156
   1   2    0.0075425128
   2   1   -0.0075425128
   2   2    0.99997156

BLOCK STAUMIX
   1   1    0.01972067
   1   2    0.99980553
   2   1   -0.99980553
   2   2    0.01972067

BLOCK NMIX
   1   1   -0.99994156
   1   2    0.00026378499
   1   3   -0.010711818
   1   4   -0.0014362646
   2   1    0.00048094037
   2   2    0.99979761
   2   3   -0.019806488
   2   4   -0.0034932084
   3   1    0.0065549035
   3   2   -0.011538427
   3   3   -0.70698977
   3   4    0.70709926
   4   1    0.0085835551
   4   2   -0.016478043
   4   3   -0.70686521
   4   4   -0.70710422

BLOCK UMIX
   1   1   -0.99960483
   1   2    0.028110076
   2   1   -0.028110076
   2   2   -0.99960483

BLOCK VMIX
   1   1    0.99998768
   1   2    0.004964511
   2   1    0.004964511
   2   2   -0.99998768

BLOCK HIGGSBOUNDSINPUTHIGGSCOUPLINGSFERMIONS
       0, 372.62168,3,36,15,15

BLOCK HIGGSBOUNDSINPUTHIGGSCOUPLINGSBOSONS
       0,4,36,21,21,23

BLOCK SPHENOLOWENERGY
   1    0.00033064418
   2    1.58928e-06
   3    3.525941e-05
   4    2.3546955e-15
   5    1.0058985e-10
   6    2.1053202e-08
   7    7.9139232e-14
   8    3.3808233e-09
   9    7.1697105e-07
   10    9.62344e-05
   11    0.99406451
   12    0.54172531
   13    19.353384
   14    0
   15    0
   16    0.0021564903
   17    2.2816504e-15
   18    2.4806533e-11
   19    8.2917984e-11
   20   -1.5415915e-15
   21   -6.5907769e-11
   22   -1.1494419e-08
   23    0
   24    0
   25    0
   26    0
   27    0
   28    0
   29    0
   30    0
   31    0
   39    5.7328555e-05
   40    0
   41    0
   42    0

BLOCK FWCOEF Q=  160
   305   4422   0   0   -0.18881911
   305   4422   0   2   -0.19887056
   305   4322   0   2   -0.00022530807
   305   6421   0   0   -0.095227835
   305   6421   0   2   -0.11015437
   305   6321   0   2   -0.00031490652
   3051111   4133   0   0    1.6028654
   3051111   4133   0   2    1.6029007
   3051111   4233   0   2    1.9578007e-05
   3051111   4137   0   0   -4.4255576
   3051111   4137   0   2   -4.4245248
   3051111   4237   0   2   -0.00015097266
   3051313   4133   0   0    1.6028654
   3051313   4133   0   2    1.6029004
   3051313   4233   0   2    1.9577901e-05
   3051313   4137   0   0   -4.4255576
   3051313   4137   0   2   -4.424525
   3051313   4237   0   2   -0.00015097258
   3051212   4137   0   0    1.5053501
   3051212   4137   0   2    1.5051352
   3051212   4237   0   2    3.2823518e-05
   3051414   4137   0   0    1.5053501
   3051414   4137   0   2    1.5051352
   3051414   4237   0   2    3.282354e-05
   3051616   4137   0   0    1.5053501
   3051616   4137   0   2    1.5051351
   3051616   4237   0   2    3.2829602e-05

BLOCK IMFWCOEF Q=  160
   305   4422   0   0    3.8585848e-07
   305   4422   0   2   -1.935009e-06
   305   4322   0   2    7.7820435e-07
   305   6421   0   0    3.3051331e-07
   305   6421   0   2   -7.5157121e-06
   305   6321   0   2    3.8661146e-07
   3051111   4133   0   2   -6.4772269e-07
   3051111   4233   0   2    7.211566e-07
   3051111   4137   0   2    5.8623608e-06
   3051111   4237   0   2   -5.5454092e-06
   3051313   4133   0   2   -6.4772492e-07
   3051313   4233   0   2    7.2115652e-07
   3051313   4137   0   2    5.8623654e-06
   3051313   4237   0   2   -5.5454096e-06
   3051212   4137   0   2   -1.0953174e-06
   3051212   4237   0   2    1.2056136e-06
   3051414   4137   0   2   -1.0953174e-06
   3051414   4237   0   2    1.2056136e-06
   3051616   4137   0   2   -1.0975588e-06
   3051616   4237   0   2    1.2056109e-06

DECAY 23  2.4952


DECAY 24  2.085


DECAY 1000011  6.6771675
    0.57495722   2   -1000024    12
    0.28787804   2    1000023    11
    0.13716474   2    1000022    11

DECAY 2000011  20.419938
    0.99999895   2    1000022    11

DECAY 1000013  6.6771436
    0.57495707   2   -1000024    14
    0.28787798   2    1000023    13
    0.13716495   2    1000022    13

DECAY 2000013  20.42499
    0.99975018   2    1000022    13
    0.00023867582   2    1000013    25

DECAY 1000015  3.9718767
    0.9987045   2    1000022    15
    0.00086390112   2   -1000024    16
    0.00043159584   2    1000023    15

DECAY 2000015  37.057441
    0.55795043   2   -1000024    16
    0.2792641   2    1000023    15
    0.086851443   2    1000022    15
    0.038016607   2    1000015    23
    0.037917419   2    1000015    25

DECAY 1000012  6.6337461
    0.5749353   2    1000024    11
    0.28735204   2    1000023    12
    0.13771265   2    1000022    12

DECAY 1000014  6.63375
    0.57493541   2    1000024    13
    0.28735198   2    1000023    14
    0.13771261   2    1000022    14

DECAY 1000016  37.060193
    0.55829172   2    1000024    15
    0.27889546   2    1000023    16
    0.086873354   2    1000022    16
    0.07593946   2    1000015    24

DECAY 2000001  0.42586514
    0.99999985   2    1000022    1

DECAY 1000001  43.025644
    0.63091767   2   -1000024    2
    0.31554151   2    1000023    1
    0.042918608   2    1000021    1
    0.01062211   2    1000022    1

DECAY 2000003  0.42586453
    0.99999887   2    1000022    3

DECAY 1000003  43.027128
    0.63089552   2   -1000024    4
    0.31553056   2    1000023    3
    0.042916694   2    1000021    3
    0.010621747   2    1000022    3

DECAY 1000005  0.056387207
    0.57515917   2    1000023    5
    0.42484083   2    1000022    5

DECAY 2000005  91.288722
    0.77063214   2    1000021    5
    0.048685965   2    1000006   -37
    0.044536274   2    1000005    25
    0.035767422   2    1000006   -24
    0.026596119   2    1000022    5
    0.024515466   2    1000005    35
    0.024411429   2    1000005    36
    0.017899   2    1000005    23
    0.0033388149   2   -1000037    6
    0.0017981552   2    1000025    5
    0.001796254   2    1000035    5

DECAY 2000002  4.3151181
    0.9999998   2    1000022    2

DECAY 1000002  43.017432
    0.63133722   2    1000024    1
    0.31561775   2    1000023    2
    0.04248647   2    1000021    2
    0.010558565   2    1000022    2

DECAY 2000004  4.3151147
    0.99999979   2    1000022    4

DECAY 1000004  43.017319
    0.63133876   2    1000024    3
    0.31561838   2    1000023    4
    0.042484161   2    1000021    4
    0.010558586   2    1000022    4

DECAY 1000006  0.085918741
    0.79683332   2    1000024    5
    0.20290428   2    1000022    6
    0.00025674432   3    1000022    24    5

DECAY 2000006  208.74144
    0.26805806   2    1000005    37
    0.14243827   2    1000005    24
    0.1341725   2    1000006    36
    0.13412931   2    1000006    35
    0.10617601   2    1000006    25
    0.10380621   2    1000021    6
    0.071098116   2    1000006    23
    0.039828945   2    1000022    6
    0.00019548789   2    1000024    5

DECAY 1000024  1.0636994e-05
    0.95869468   2    1000022    24
    0.019465236   3    1000022   -13    14
    0.019465164   3    1000022   -11    12
    0.0016276409   3    1000022   -5    6
    0.00059206875   3    1000022   -15    16

DECAY 1000037  175.26097
    0.64183979   2   -1000005    6
    0.065811274   2    1000006   -5
    0.049747546   2    1000024    25
    0.048624029   2    1000023    24
    0.0482179   2    1000024    23
    0.033803895   2    1000024    36
    0.033730162   2    1000024    35
    0.030152734   2    37    1000023
    0.014688501   2    1000022    24
    0.0088303147   2    37    1000022
    0.0076761876   3    1000024    6   -6
    0.0069422717   2   -1000015    16
    0.0039418053   3    1000023   -5    6
    0.0024914467   2    2000006   -5
    0.0022406246   2    1000016   -15
    0.0010136275   3    1000022   -5    6

DECAY 1000022 -1


DECAY 1000023  1.4601956e-05
    0.66115921   2    1000022    25
    0.20159857   3    1000022    5   -5
    0.05342807   2    1000022    23
    0.04196027   3    1000022    12   -12
    0.020449666   3    1000022    13   -13
    0.020449536   3    1000022    11   -11
    0.00061820777   3    1000022    15   -15

DECAY 1000025  180.35569
    0.31353487   2    1000006   -6
    0.31353487   2   -1000006    6
    0.046685184   2    1000024   -24
    0.046685184   2   -1000024    24
    0.04032838   2    1000023    25
    0.032795155   2    37   -1000024
    0.032795155   2   -37    1000024
    0.031696915   2    1000005   -5
    0.031696915   2   -1000005    5
    0.03124757   2    1000023    23
    0.021695424   2    1000023    35
    0.010908954   2    1000022    25
    0.0090379602   2    1000022    23
    0.0076324521   2    1000023    36
    0.0059294048   2    1000022    35
    0.0048094817   3    1000023    6   -6
    0.0033827029   2    1000015   -15
    0.0033827029   2   -1000015    15
    0.0032167733   3    1000024    5   -6
    0.0032167733   3   -1000024   -5    6
    0.0027107831   2    1000022    36
    0.0010879584   2    2000015   -15
    0.0010879584   2   -2000015    15
    0.00073415661   3    1000022    6   -6

DECAY 1000035  175.19848
    0.32418271   2    1000006   -6
    0.32418271   2   -1000006    6
    0.047807878   2    1000024   -24
    0.047807878   2   -1000024    24
    0.033985792   2    1000023    25
    0.032635567   2    1000005   -5
    0.032635567   2   -1000005    5
    0.030101225   2    37   -1000024
    0.030101225   2   -37    1000024
    0.027265813   2    1000023    35
    0.015763009   2    1000023    23
    0.0091940502   2    1000022    25
    0.0074517575   2    1000022    35
    0.0063813602   2    1000023    36
    0.0054224323   2    1000022    23
    0.0047135731   3    1000023    6   -6
    0.0039623881   3    1000024    5   -6
    0.0039623881   3   -1000024   -5    6
    0.0034798952   2    1000015   -15
    0.0034798952   2   -1000015    15
    0.0022663522   2    1000022    36
    0.0011217117   2    2000015   -15
    0.0011217117   2   -2000015    15
    0.00073134003   3    1000022    6   -6

DECAY 1000021  358.5273
    0.11844852   2    1000005   -5
    0.11844852   2   -1000005    5
    0.11759118   2    1000006   -6
    0.11759118   2   -1000006    6
    0.094634003   2    2000003   -3
    0.094634003   2   -2000003    3
    0.094633926   2    2000001   -1
    0.094633926   2   -2000001    1
    0.036838498   2    2000002   -2
    0.036838498   2   -2000002    2
    0.036838478   2    2000004   -4
    0.036838478   2   -2000004    4
    0.00046423811   3    1000023    6   -6
    0.00036289128   3    1000024    5   -6
    0.00036289128   3   -1000024   -5    6
    0.00011273844   3    1000024    3   -4
    0.00011273844   3   -1000024   -3    4
    0.00011273814   3    1000024    1   -2
    0.00011273814   3   -1000024   -1    2

DECAY 25  0.0034010583
    0.63613017   2   -5    5
    0.16253487   2   -24    24
    0.075163363   2    21    21
    0.072801104   2   -15    15
    0.031386144   2   -4    4
    0.018045774   2    23    23
    0.0023109807   2    22    22
    0.0011355172   2    22    23
    0.00025249435   2   -13    13
    0.00023875061   2   -3    3
    6.6012101e-07   2   -1    1
    1.6175445e-07   2   -2    2
    5.6764132e-09   2   -11    11

DECAY 35  6.8108875
    0.7679701   2   -5    5
    0.21569402   2   -15    15
    0.015188989   2   -6    6
    0.00072907294   2   -13    13
    0.00027387759   2   -3    3
    7.3656547e-05   2    25    25
    2.6852601e-05   2    21    21
    2.211514e-05   2    1000022    1000023
    1.0242328e-05   2    1000022    1000022
    6.3031588e-06   2    23    23
    3.6954451e-06   2   -24    24
    7.5720224e-07   2   -1    1
    2.5078067e-07   2   -4    4
    3.5118671e-08   2    22    22
    2.1718958e-08   2    22    23
    1.6376932e-08   2   -11    11
    1.2945069e-12   2   -2    2

DECAY 36  6.6349936
    0.76908559   2   -5    5
    0.2159966   2   -15    15
    0.013608857   2   -6    6
    0.0007300967   2   -13    13
    0.00027427833   2   -3    3
    0.00017775184   2    1000022    1000023
    7.8827138e-05   2    21    21
    3.7820178e-05   2    1000022    1000022
    8.6331028e-06   2    23    25
    7.5830904e-07   2   -1    1
    2.9880156e-07   2    22    23
    2.6081457e-07   2    22    22
    2.1967649e-07   2   -4    4
    1.6399964e-08   2   -11    11
    1.1341813e-12   2   -2    2
    4.5798603e-36   2    25    25

DECAY 37  7.4429298
    0.79527808   2   -5    6
    0.20238122   2   -15    16
    0.0011472222   2   -5    4
    0.00071549067   2   -13    14
    0.0002318147   2   -3    4
    0.00018038131   2    1000022    1000024
    3.6709486e-05   2   -3    6
    1.0781243e-05   2   -3    2
    8.1923517e-06   2   -5    2
    7.7344063e-06   2    24    25
    1.6682019e-06   2   -1    6
    6.4222526e-07   2   -1    2
    4.5234366e-08   2   -1    4
    1.6735401e-08   2   -11    12
    9.7965275e-12   2    24    35
    6.8423601e-12   2    24    36

DECAY 6  2.43
    1   2    5    24

DECAY 15 -1
