BLOCK SPINFO
   1   SPheno
   2   v4.0.5be

BLOCK SPHENOINFO
   1   2
   2   2

BLOCK MODSEL
   1   0

BLOCK MINPAR
   3    14.509823
   4   -1

BLOCK EXTPAR
   0    2702.0445
   1    710.7778
   2   -1081.8789
   3    4740.9657
   11   -4983.054
   12   -6255.3589
   13    7314.3474
   23   -3144.1073
   25    13.898037
   26    3640.5731
   31    1472.8444
   32    1472.8444
   33    4508.8174
   34    2963.0194
   35    2963.0194
   36    2403.5865
   41    736.27667
   42    736.27667
   43    2494.2966
   44    1730.4445
   45    1730.4445
   46    2882.012
   47    3214.7086
   48    3214.7086
   49    1564.9867

BLOCK SMINPUTS
   1    127.90897
   2    1.1663787e-05
   3    0.1184
   4    91.1876
   5    4.18
   6    173.2
   7    1.777
   8    0
   11    0.00051099893
   12    0
   13    0.10565837
   14    0
   21    0.005
   22    0.0025
   23    0.095
   24    1.27

BLOCK GAUGE Q=  2702.0445
   1    0.35536298
   2    0.66519887
   3    1.219778

BLOCK YU Q=  2702.0445
   1   1    8.4060478e-06
   2   2    0.0042702723
   3   3    1.0155181

BLOCK YD Q=  2702.0445
   1   1    0.0002347608
   2   2    0.0044604552
   3   3    0.23280915

BLOCK YE Q=  2702.0445
   1   1    4.0967476e-05
   2   2    0.0084707747
   3   3    0.1424645

BLOCK AU Q=  2702.0445
   1   1    0
   2   2    0
   3   3   -4983.0539

BLOCK AD Q=  2702.0445
   1   1    0
   2   2    0
   3   3   -6255.3649

BLOCK AE Q=  2702.0445
   1   1    0
   2   2    0
   3   3    7314.3474

BLOCK MSOFT Q=  2702.0445
   1    710.7778
   2   -1081.8789
   3    4740.9657
   21    3288057.2
   22   -9718553.8
   31    1472.8444
   32    1472.8444
   33    4508.8174
   34    2963.0194
   35    2963.0194
   36    2403.5865
   41    736.27667
   42    736.27667
   43    2494.2966
   44    1730.4445
   45    1730.4445
   46    2882.012
   47    3214.7086
   48    3214.7086
   49    1564.9867

BLOCK MASS
   6    173.2
   23    91.1876
   24    80.429995
   15    1.777
   25    123.34648
   35    3640.3954
   36    3640.5731
   37    3641.6585
   1000001    724.14163
   2000001    3294.4534
   1000002    719.77445
   2000002    1773.9481
   1000003    724.14111
   2000003    3294.4527
   1000004    719.77468
   2000004    1773.9485
   1000005    1599.6836
   2000005    2546.8295
   1000006    2505.3484
   2000006    2914.1832
   1000011    1484.796
   2000011    2966.0668
   1000012    1482.379
   1000013    1484.7935
   2000013    2966.0633
   1000014    1482.378
   1000015    2408.7466
   2000015    4517.5983
   1000016    4516.4492
   1000021    4626.8536
   1000022    705.46184
   1000023   -1093.0789
   1000025    3135.7674
   1000035   -3136.9113
   1000024    1093.3022
   1000037    3137.5197

BLOCK ALPHA
      -0.06894436

BLOCK HMIX Q=  2702.0445
   1   -3144.1073
   2    13.898037
   3    243.34798
   4    13253772

BLOCK STOPMIX
   1   1    0.95222802
   1   2    0.30538793
   2   1   -0.30538793
   2   2    0.95222802

BLOCK SBOTMIX
   1   1   -0.025598914
   1   2    0.99967229
   2   1   -0.99967229
   2   2   -0.025598914

BLOCK STAUMIX
   1   1   -0.0062697786
   1   2    0.99998034
   2   1   -0.99998034
   2   2   -0.0062697786

BLOCK NMIX
   1   1    0.99988981
   1   2    8.0944882e-05
   1   3   -0.014653227
   1   4   -0.0023746759
   2   1    0.00030659059
   2   2    0.99953723
   2   3    0.028264078
   2   4   -0.01124184
   3   1    0.012039798
   3   2   -0.012039863
   3   3    0.70689809
   3   4    0.70711044
   4   1    0.0086782475
   4   2   -0.027935035
   4   3    0.70659855
   4   4   -0.70700977

BLOCK UMIX
   1   1   -0.99920573
   1   2   -0.039848454
   2   1   -0.039848454
   2   2    0.99920573

BLOCK VMIX
   1   1    0.99987455
   1   2    0.015839156
   2   1    0.015839156
   2   2   -0.99987455

BLOCK HIGGSBOUNDSINPUTHIGGSCOUPLINGSFERMIONS
       0, 193.15544,3,36,15,15

BLOCK HIGGSBOUNDSINPUTHIGGSCOUPLINGSBOSONS
       0,4,36,21,21,23

BLOCK SPHENOLOWENERGY
   1    0.00032815749
   2    1.5892848e-06
   3    3.5253677e-05
   4    2.63054e-15
   5    1.1237375e-10
   6    2.3528291e-08
   7    8.8998914e-14
   8    3.8020331e-09
   9    8.0657928e-07
   10    9.6695016e-05
   11    0.9988225
   12    0.54202687
   13    19.366443
   14    0
   15    0
   16    0.0021575112
   17    2.2816603e-15
   18    2.4804991e-11
   19    8.2906e-11
   20    7.8316148e-16
   21    3.3482378e-11
   22    4.1262407e-09
   23    0
   24    0
   25    0
   26    0
   27    0
   28    0
   29    0
   30    0
   31    0
   39    1.642363e-05
   40    0
   41    0
   42    0

BLOCK FWCOEF Q=  160
   305   4422   0   0   -0.18881911
   305   4422   0   2   -0.19747436
   305   4322   0   2   -0.00019071663
   305   6421   0   0   -0.095227835
   305   6421   0   2   -0.10367862
   305   6321   0   2   -0.00018225984
   3051111   4133   0   0    1.6125533
   3051111   4133   0   2    1.6125739
   3051111   4233   0   2    2.553567e-05
   3051111   4137   0   0   -4.4352454
   3051111   4137   0   2   -4.4336512
   3051111   4237   0   2   -0.00019277732
   3051313   4133   0   0    1.6125533
   3051313   4133   0   2    1.6125737
   3051313   4233   0   2    2.5535665e-05
   3051313   4137   0   0   -4.4352454
   3051313   4137   0   2   -4.4336514
   3051313   4237   0   2   -0.00019277733
   3051212   4137   0   0    1.5053501
   3051212   4137   0   2    1.5050134
   3051212   4237   0   2    4.1817501e-05
   3051414   4137   0   0    1.5053501
   3051414   4137   0   2    1.5050134
   3051414   4237   0   2    4.1817501e-05
   3051616   4137   0   0    1.5053501
   3051616   4137   0   2    1.5050127
   3051616   4237   0   2    4.1817807e-05

BLOCK IMFWCOEF Q=  160
   305   4422   0   0    3.857757e-07
   305   4422   0   2    2.7320364e-06
   305   4322   0   2   -1.7747411e-06
   305   6421   0   0    3.3044239e-07
   305   6421   0   2    5.071166e-06
   305   6321   0   2   -1.0852741e-06
   3051111   4133   0   2   -2.0259807e-06
   3051111   4233   0   2    5.253146e-07
   3051111   4137   0   2    1.5638399e-05
   3051111   4237   0   2   -3.9664447e-06
   3051313   4133   0   2   -2.0259814e-06
   3051313   4233   0   2    5.2531456e-07
   3051313   4137   0   2    1.5638404e-05
   3051313   4237   0   2   -3.9664448e-06
   3051212   4137   0   2   -3.2245376e-06
   3051212   4237   0   2    8.6040915e-07
   3051414   4137   0   2   -3.2245375e-06
   3051414   4237   0   2    8.6040915e-07
   3051616   4137   0   2   -3.2361463e-06
   3051616   4237   0   2    8.6041176e-07

DECAY 23  2.4952


DECAY 24  2.085


DECAY 1000011  5.2236982
    0.52361642   2   -1000024    12
    0.26232143   2    1000023    11
    0.21406214   2    1000022    11

DECAY 2000011  13.262006
    0.99999992   2    1000022    11

DECAY 1000013  5.2236554
    0.52361567   2   -1000024    14
    0.26232118   2    1000023    13
    0.21406315   2    1000022    13

DECAY 2000013  13.263763
    0.9998661   2    1000022    13
    0.00013324999   2    1000013    25

DECAY 1000015  10.118123
    0.99956534   2    1000022    15
    0.00028933996   2   -1000024    16
    0.00014532182   2    1000023    15

DECAY 2000015  59.584737
    0.59051278   2   -1000024    16
    0.29558671   2    1000023    15
    0.090666266   2    1000022    15
    0.0075628405   2    1000015    23
    0.0070989649   2    1000015    25
    0.0041541936   2    1000035    15
    0.0041148206   2    1000025    15
    0.00030342926   2   -1000037    16

DECAY 1000012  5.1835217
    0.52345148   2    1000024    11
    0.26171831   2    1000023    12
    0.21483021   2    1000022    12

DECAY 1000014  5.1835043
    0.5234512   2    1000024    13
    0.26171818   2    1000023    14
    0.21483062   2    1000022    14

DECAY 1000016  59.621043
    0.59088307   2    1000024    15
    0.2951401   2    1000023    16
    0.090523253   2    1000022    16
    0.015106628   2    1000015    24
    0.008221661   2    1000037    15

DECAY 1000001  0.0002618199
    1   2    1000022    1

DECAY 2000001  1.6740962
    0.99999682   2    1000022    1

DECAY 1000003  0.0002617976
    1   2    1000022    3

DECAY 2000003  1.674681
    0.99964746   2    1000022    3
    0.00033532034   2    1000003    25

DECAY 1000005  0.58913641
    0.98504397   2    1000022    5
    0.0096374683   2   -1000024    6
    0.0053185658   2    1000023    5

DECAY 2000005  24.100915
    0.60681511   2   -1000024    6
    0.30887895   2    1000023    5
    0.038378193   2    1000005    25
    0.03340262   2    1000005    23
    0.012525128   2    1000022    5

DECAY 1000002  0.0001558479
    1   2    1000022    2

DECAY 2000002  2.8069721
    0.99999995   2    1000022    2

DECAY 1000004  0.00015509101
    1   2    1000022    4

DECAY 2000004  2.8069723
    0.9999985   2    1000022    4

DECAY 1000006  21.372209
    0.60370628   2    1000024    5
    0.29855728   2    1000023    6
    0.061049497   2    1000005    24
    0.034976838   2    1000022    6
    0.0017100786   3    1000022    24    5

DECAY 2000006  52.557364
    0.36553799   2    2000005    24
    0.24844027   2    1000006    25
    0.22276213   2    1000006    23
    0.098457941   2    1000022    6
    0.038864445   2    1000024    5
    0.019299681   2    1000023    6
    0.0066375391   2    1000005    24

DECAY 1000024  18.348556
    0.25250555   2    1000002   -1
    0.25250536   2    1000004   -3
    0.24749377   2   -1000001    2
    0.24749361   2   -1000003    4

DECAY 1000037  40.629221
    0.26114234   2   -2000005    6
    0.18061625   2    1000024    25
    0.16076796   2    1000024    23
    0.16037678   2    1000023    24
    0.070758375   2   -1000005    6
    0.048710986   2    1000022    24
    0.045543599   2    1000006   -5
    0.040669454   2    2000006   -5
    0.014292329   3    1000024    6   -6
    0.0078360724   3    1000023   -5    6
    0.0026180611   2   -1000015    16
    0.0024035282   3    1000022   -5    6
    0.0014885268   2   -1000003    4
    0.0014512713   2   -1000001    2
    0.00032504897   2   -1000013    14
    0.00032504834   2   -1000011    12
    0.00027067489   2    1000004   -3
    0.00022971657   2    1000002   -1

DECAY 1000022 -1


DECAY 1000023  18.333134
    0.12618281   2    1000002   -2
    0.12618281   2   -1000002    2
    0.12618212   2    1000004   -4
    0.12618212   2   -1000004    4
    0.12381546   2    1000003   -3
    0.12381546   2   -1000003    3
    0.12381519   2    1000001   -1
    0.12381519   2   -1000001    1

DECAY 1000025  44.697772
    0.15946957   2    1000006   -6
    0.15946957   2   -1000006    6
    0.14634807   2    1000024   -24
    0.14634807   2   -1000024    24
    0.12439283   2    1000023    23
    0.10600595   2    1000023    25
    0.030946989   2    1000005   -5
    0.030946989   2   -1000005    5
    0.026978886   2    1000022    25
    0.015146712   2    1000022    23
    0.0085162119   3    1000024    5   -6
    0.0085162119   3   -1000024   -5    6
    0.0068691285   2    2000006   -6
    0.0068691285   2   -2000006    6
    0.0066034676   2    2000005   -5
    0.0066034676   2   -2000005    5
    0.0050635939   3    1000023    6   -6
    0.001684791   3    1000022    6   -6
    0.0011927643   2    1000015   -15
    0.0011927643   2   -1000015    15
    0.00010216807   2    1000003   -3
    0.00010216807   2   -1000003    3

DECAY 1000035  43.400626
    0.16935526   2    1000006   -6
    0.16935526   2   -1000006    6
    0.15262525   2    1000024   -24
    0.15262525   2   -1000024    24
    0.14368121   2    1000023    25
    0.036649154   2    1000022    25
    0.03180394   2    1000005   -5
    0.03180394   2   -1000005    5
    0.030020256   2    1000022    23
    0.023775153   2    1000023    23
    0.0078708617   3    1000024    5   -6
    0.0078708617   3   -1000024   -5    6
    0.0071988851   2    2000006   -6
    0.0071988851   2   -2000006    6
    0.0068724075   2    2000005   -5
    0.0068724075   2   -2000005    5
    0.006455837   3    1000023    6   -6
    0.0020395912   3    1000022    6   -6
    0.0012271455   2    1000015   -15
    0.0012271455   2   -1000015    15
    0.0003909216   2    1000003   -3
    0.0003909216   2   -1000003    3
    0.00037176109   2    1000001   -1
    0.00037176109   2   -1000001    1
    0.00031602554   2    1000004   -4
    0.00031602554   2   -1000004    4
    0.00029825703   2    1000002   -2
    0.00029825703   2   -1000002    2
    0.00010179761   2    1000014   -14
    0.00010179761   2   -1000014    14
    0.00010179753   2    1000012   -12
    0.00010179753   2   -1000012    12

DECAY 1000021  1079.0383
    0.060427125   2    1000002   -2
    0.060427125   2   -1000002    2
    0.060427123   2    1000004   -4
    0.060427123   2   -1000004    4
    0.060390654   2    1000003   -3
    0.060390654   2   -1000003    3
    0.060390649   2    1000001   -1
    0.060390649   2   -1000001    1
    0.049201673   2    1000005   -5
    0.049201673   2   -1000005    5
    0.046175445   2    2000002   -2
    0.046175445   2   -2000002    2
    0.046175436   2    2000004   -4
    0.046175436   2   -2000004    4
    0.030826954   2    2000005   -5
    0.030826954   2   -2000005    5
    0.02970468   2    1000006   -6
    0.02970468   2   -1000006    6
    0.024685141   2    2000006   -6
    0.024685141   2   -2000006    6
    0.015425208   2    2000003   -3
    0.015425208   2   -2000003    3
    0.015425193   2    2000001   -1
    0.015425193   2   -2000001    1
    0.00017543408   3    1000024    1   -2
    0.00017543408   3   -1000024   -1    2
    0.00017543407   3    1000024    3   -4
    0.00017543407   3   -1000024   -3    4
    0.00016965141   3    1000023    1   -1
    0.00016965134   3    1000023    3   -3
    0.00016907001   3    1000023    4   -4
    0.00016906998   3    1000023    2   -2

DECAY 25  0.0036683309
    0.59775505   2   -5    5
    0.20247675   2   -24    24
    0.073712822   2    21    21
    0.068610408   2   -15    15
    0.029559398   2   -4    4
    0.023710832   2    23    23
    0.0023488895   2    22    22
    0.001362226   2    22    23
    0.00023798469   2   -13    13
    0.00022486309   2   -3    3
    6.2172559e-07   2   -1    1
    1.523318e-07   2   -2    2
    5.3501817e-09   2   -11    11

DECAY 35  14.45032
    0.83538784   2   -5    5
    0.10745472   2   -15    15
    0.05155776   2   -6    6
    0.0017681666   2   -1000024    1000024
    0.00088338699   2    1000023    1000023
    0.00077663463   2    1000022    1000023
    0.00067130371   2   -1000005    1000005
    0.0003888171   2   -13    13
    0.00038267345   2   -3    3
    0.00020384194   2   -2000004    1000004
    0.00020384194   2   -1000004    2000004
    0.00014093714   2    25    25
    9.4203941e-05   2    1000022    1000022
    1.5598607e-05   2   -1000001    1000001
    1.5592646e-05   2   -1000003    1000003
    1.0641107e-05   2   -1000002    1000002
    1.0611467e-05   2   -1000004    1000004
    1.0275942e-05   2    23    23
    5.0065404e-06   2    21    21
    2.4278375e-06   2   -24    24
    1.4149581e-06   2   -1000011    1000011
    1.4113426e-06   2   -1000013    1000013
    1.0583166e-06   2   -1    1
    1.0138724e-06   2   -4    4
    6.4876796e-07   2   -2000004    2000004
    6.4620471e-07   2   -2000002    2000002
    2.2161693e-07   2    22    23
    5.4023474e-08   2    22    22
    8.7320927e-09   2   -11    11
    7.8988953e-10   2   -2000002    1000002
    7.8988953e-10   2   -1000002    2000002
    5.2278687e-12   2   -2    2

DECAY 36  14.184536
    0.83165246   2   -5    5
    0.10697176   2   -15    15
    0.054729054   2   -6    6
    0.0031096567   2   -1000024    1000024
    0.0015537123   2    1000023    1000023
    0.00062935125   2    1000022    1000023
    0.00038706803   2   -13    13
    0.00038096761   2   -3    3
    0.00020765917   2   -2000004    1000004
    0.00020765917   2   -1000004    2000004
    0.00010836182   2    1000022    1000022
    3.9417065e-05   2    21    21
    2.0037807e-05   2    23    25
    1.0634643e-06   2   -4    4
    1.0536079e-06   2   -1    1
    4.8448132e-07   2    22    23
    2.2952551e-07   2    22    22
    8.6928082e-09   2   -11    11
    8.0468128e-10   2   -2000002    1000002
    8.0468128e-10   2   -1000002    2000002
    5.4838449e-12   2   -2    2
    1.1896741e-34   2    25    25

DECAY 37  13.259108
    0.87749379   2   -5    6
    0.11563902   2   -15    16
    0.0026910444   2   -1000005    1000004
    0.0015203273   2    1000022    1000024
    0.0012267273   2   -5    4
    0.00040882514   2   -13    14
    0.0003802121   2   -3    4
    0.00034474604   2   -1000003    1000006
    7.2376702e-05   2   -3    6
    6.2336442e-05   2   -1000003    2000004
    2.6842653e-05   2   -1000001    1000002
    2.6786563e-05   2   -1000003    1000004
    2.1464639e-05   2    24    25
    1.9216833e-05   2   -1000005    1000002
    1.7816981e-05   2   -3    2
    1.5811622e-05   2   -1000001    1000006
    8.7600913e-06   2   -5    2
    6.0625077e-06   2   -1000011    1000012
    6.0569813e-06   2   -1000013    1000014
    3.3349641e-06   2   -1000001    2000004
    3.2936409e-06   2   -1    6
    1.4350958e-06   2   -1000003    1000002
    1.4333669e-06   2   -1000001    1000004
    1.1284579e-06   2   -2000005    1000004
    1.0536186e-06   2   -1    2
    7.9352247e-08   2   -1    4
    9.5624626e-09   2   -11    12
    8.0585497e-09   2   -2000005    1000002
    3.2751625e-10   2   -1000001    2000002
    1.8180493e-10   2    1000023    1000024
    4.285344e-11   2   -1000005    2000004
    1.7513766e-11   2   -1000003    2000002
    3.3018613e-13   2    24    35
    1.5469775e-13   2    24    36
    1.6050998e-18   2   -1000005    2000002

DECAY 6  2.43
    1   2    5    24

DECAY 15 -1
