BLOCK SPINFO
   1   SPheno
   2   v4.0.5be

BLOCK SPHENOINFO
   1   2
   2   2

BLOCK MODSEL
   1   0

BLOCK MINPAR
   3    22.34101
   4   -1

BLOCK EXTPAR
   0    1608.2673
   1   -359.79645
   2    3171.0603
   3    2278.1216
   11    3971.2701
   12   -6102.6795
   13   -3376.8756
   23   -4258.2976
   25    21.627801
   26    1484.8929
   31    2439.0816
   32    2439.0816
   33    3741.5049
   34    3553.9753
   35    3553.9753
   36    1298.5164
   41    4144.5842
   42    4144.5842
   43    1835.8171
   44    4344.563
   45    4344.563
   46    1556.1683
   47    1829.2305
   48    1829.2305
   49    4605.6244

BLOCK SMINPUTS
   1    127.90897
   2    1.1663787e-05
   3    0.1184
   4    91.1876
   5    4.18
   6    173.2
   7    1.777
   8    0
   11    0.00051099893
   12    0
   13    0.10565837
   14    0
   21    0.005
   22    0.0025
   23    0.095
   24    1.27

BLOCK GAUGE Q=  1608.2673
   1    0.35536298
   2    0.66519887
   3    1.219778

BLOCK YU Q=  1608.2673
   1   1    8.3933296e-06
   2   2    0.0042638114
   3   3    1.0139816

BLOCK YD Q=  1608.2673
   1   1    0.00036477653
   2   2    0.0069307542
   3   3    0.36174402

BLOCK YE Q=  1608.2673
   1   1    6.3656173e-05
   2   2    0.013162078
   3   3    0.22136449

BLOCK AU Q=  1608.2673
   1   1    0
   2   2    0
   3   3    3971.2701

BLOCK AD Q=  1608.2673
   1   1    0
   2   2    0
   3   3   -6102.6797

BLOCK AE Q=  1608.2673
   1   1    0
   2   2    0
   3   3   -3376.8756

BLOCK MSOFT Q=  1608.2673
   1   -359.79645
   2    3171.0603
   3    2278.1216
   21   -15887223
   22   -17884914
   31    2439.0816
   32    2439.0816
   33    3741.5049
   34    3553.9753
   35    3553.9753
   36    1298.5164
   41    4144.5842
   42    4144.5842
   43    1835.8171
   44    4344.563
   45    4344.563
   46    1556.1683
   47    1829.2305
   48    1829.2305
   49    4605.6244

BLOCK MASS
   6    173.2
   23    91.1876
   24    80.429995
   15    1.777
   25    124.13416
   35    1482.6664
   36    1484.8929
   37    1486.8611
   1000001    4183.5866
   2000001    1898.7399
   1000002    4183.0217
   2000002    4379.7926
   1000003    4183.5855
   2000003    1898.739
   1000004    4183.0204
   2000004    4379.7928
   1000005    1820.4268
   2000005    4622.2734
   1000006    1367.6399
   2000006    1891.2315
   1000011    2449.777
   2000011    3555.4664
   1000012    2448.1482
   1000013    2449.7711
   2000013    3555.456
   1000014    2448.145
   1000015    1294.7892
   2000015    3747.8689
   1000016    3746.8365
   1000021    2467.8915
   1000022   -361.31733
   1000023    3198.3133
   1000025   -4226.1412
   1000035    4228.0756
   1000024    3198.5122
   1000037    4228.7077

BLOCK ALPHA
      -0.04580951

BLOCK HMIX Q=  1608.2673
   1   -4258.2976
   2    21.627801
   3    243.88438
   4    2204906.9

BLOCK STOPMIX
   1   1   -0.3843265
   1   2    0.92319724
   2   1   -0.92319724
   2   2   -0.3843265

BLOCK SBOTMIX
   1   1   -0.99988517
   1   2    0.015154428
   2   1   -0.015154428
   2   2   -0.99988517

BLOCK STAUMIX
   1   1   -0.012084889
   1   2    0.99992698
   2   1   -0.99992698
   2   2   -0.012084889

BLOCK NMIX
   1   1   -0.99994008
   1   2   -6.9685648e-05
   1   3    0.010823844
   1   4   -0.0016335353
   2   1    0.00031069438
   2   2    0.99881828
   2   3    0.039422853
   2   4    0.028421642
   3   1   -0.0088089636
   3   2    0.0077889914
   3   3   -0.70703662
   3   4    0.70707917
   4   1   -0.0064911113
   4   2    0.047972642
   4   3   -0.70599426
   4   4   -0.7065611

BLOCK UMIX
   1   1   -0.99829936
   1   2   -0.058295717
   2   1    0.058295717
   2   2   -0.99829936

BLOCK VMIX
   1   1   -0.99908426
   1   2    0.042786
   2   1    0.042786
   2   2    0.99908426

BLOCK HIGGSBOUNDSINPUTHIGGSCOUPLINGSFERMIONS
       0, 467.76178,3,36,15,15

BLOCK HIGGSBOUNDSINPUTHIGGSCOUPLINGSBOSONS
       0,4,36,21,21,23

BLOCK SPHENOLOWENERGY
   1    0.00033251742
   2    1.5891779e-06
   3    3.5260786e-05
   4    3.3815698e-15
   5    1.4444969e-10
   6    2.98198e-08
   7    1.1497651e-13
   8    4.9115541e-09
   9    1.0275598e-06
   10    9.5896647e-05
   11    0.99057565
   12    0.54164701
   13    19.346247
   14    0
   15    0
   16    0.0021566202
   17    2.2816524e-15
   18    2.4809712e-11
   19    8.2924283e-11
   20   -5.3767649e-16
   21   -2.2987204e-11
   22   -5.6880847e-09
   23    0
   24    0
   25    0
   26    0
   27    0
   28    0
   29    0
   30    0
   31    0
   39    6.8425174e-05
   40    0
   41    0
   42    0

BLOCK FWCOEF Q=  160
   305   4422   0   0   -0.18881911
   305   4422   0   2   -0.2007175
   305   4322   0   2   -0.00029787627
   305   6421   0   0   -0.095227835
   305   6421   0   2   -0.11243394
   305   6321   0   2   -0.00040992308
   3051111   4133   0   0    1.5943555
   3051111   4133   0   2    1.594399
   3051111   4233   0   2   -1.0621234e-05
   3051111   4137   0   0   -4.4170476
   3051111   4137   0   2   -4.4161852
   3051111   4237   0   2    8.1373702e-05
   3051313   4133   0   0    1.5943555
   3051313   4133   0   2    1.5943986
   3051313   4233   0   2   -1.0621583e-05
   3051313   4137   0   0   -4.4170476
   3051313   4137   0   2   -4.4161856
   3051313   4237   0   2    8.1374032e-05
   3051212   4137   0   0    1.5053501
   3051212   4137   0   2    1.5051625
   3051212   4237   0   2   -1.7721881e-05
   3051414   4137   0   0    1.5053501
   3051414   4137   0   2    1.5051625
   3051414   4237   0   2   -1.7721806e-05
   3051616   4137   0   0    1.5053501
   3051616   4137   0   2    1.5051626
   3051616   4237   0   2   -1.7700923e-05

BLOCK IMFWCOEF Q=  160
   305   4422   0   0    3.858949e-07
   305   4422   0   2   -2.52646e-06
   305   4322   0   2    1.3303036e-06
   305   6421   0   0    3.305445e-07
   305   6421   0   2    4.8121605e-06
   305   6321   0   2    8.4259696e-07
   3051111   4133   0   2   -9.1539935e-07
   3051111   4233   0   2    4.4802748e-07
   3051111   4137   0   2    8.0344029e-06
   3051111   4237   0   2   -3.5010919e-06
   3051313   4133   0   2   -9.1539732e-07
   3051313   4233   0   2    4.4802741e-07
   3051313   4137   0   2    8.0344049e-06
   3051313   4237   0   2   -3.5010921e-06
   3051212   4137   0   2   -1.7445338e-06
   3051212   4237   0   2    7.6266299e-07
   3051414   4137   0   2   -1.7445338e-06
   3051414   4237   0   2    7.6266299e-07
   3051616   4137   0   2   -1.7435001e-06
   3051616   4237   0   2    7.6265855e-07

DECAY 23  2.4952


DECAY 24  2.085


DECAY 1000011  2.9452972
    1   2    1000022    11

DECAY 2000011  17.495738
    0.99999999   2    1000022    11

DECAY 1000013  2.9452903
    1   2    1000022    13

DECAY 2000013  17.500265
    0.99973836   2    1000022    13
    0.0002615125   2    1000013    25

DECAY 1000015  5.5311922
    1   2    1000022    15

DECAY 2000015  14.185681
    0.32588175   2    1000022    15
    0.17096612   2   -1000024    16
    0.13535536   2    1000015    25
    0.12559008   2    1000015    23
    0.085697778   2    1000023    15
    0.078273917   2    1000015    36
    0.078234999   2    1000015    35

DECAY 1000012  2.9416294
    1   2    1000022    12

DECAY 1000014  2.9416252
    1   2    1000022    14

DECAY 1000016  14.032822
    0.32906663   2    1000022    16
    0.25383085   2    1000015    24
    0.17273194   2    1000024    15
    0.15806364   2    1000015    37
    0.086306937   2    1000023    16

DECAY 2000001  0.98455251
    1   2    1000022    1

DECAY 1000001  150.47081
    0.93299311   2    1000021    1
    0.042106972   2   -1000024    2
    0.021080417   2    1000023    1
    0.0038194724   2    1000022    1

DECAY 2000003  0.98455218
    1   2    1000022    3

DECAY 1000003  150.47231
    0.93298306   2    1000021    3
    0.0421064   2   -1000024    4
    0.021080182   2    1000023    3
    0.0038194366   2    1000022    3

DECAY 1000005  47.935104
    0.99507773   2    1000006   -24
    0.0049222699   2    1000022    5

DECAY 2000005  238.42529
    0.78219703   2    1000021    5
    0.054190339   2    2000006   -37
    0.032609359   2    1000005    36
    0.032586341   2    1000005    35
    0.031789277   2    2000006   -24
    0.019476599   2    1000005    23
    0.015741197   2    1000005    25
    0.010864542   2    1000006   -37
    0.010682965   2    1000022    5
    0.0072540416   2    1000006   -24
    0.0012385752   2   -1000037    6
    0.00067921597   2    1000025    5
    0.00067237913   2    1000035    5

DECAY 1000002  150.41436
    0.93294822   2    1000021    2
    0.04215129   2    1000024    1
    0.021074133   2    1000023    2
    0.0038263597   2    1000022    2

DECAY 2000002  170.68118
    0.94347943   2    1000021    2
    0.056520541   2    1000022    2

DECAY 1000004  150.41413
    0.93294823   2    1000021    4
    0.042151291   2    1000024    3
    0.021074082   2    1000023    4
    0.0038263634   2    1000022    4

DECAY 2000004  170.68114
    0.94347933   2    1000021    4
    0.056520544   2    1000022    4

DECAY 1000006  2.1679703
    0.9999333   2    1000022    6

DECAY 2000006  52.426679
    0.57219625   2    1000006    23
    0.41275863   2    1000006    25
    0.015045125   2    1000022    6

DECAY 1000024  48.301568
    0.4068762   2   -1000005    6
    0.33222842   2    2000006   -5
    0.061277646   2    1000006   -5
    0.049903729   2    1000014   -13
    0.049903311   2    1000012   -11
    0.049638169   2   -1000013    14
    0.049637491   2   -1000011    12
    0.00020170837   2   -1000015    16
    0.00019306186   2    37    1000022

DECAY 1000037  221.65969
    0.41768719   2    1000006   -5
    0.38517999   2   -1000005    6
    0.088304055   2    2000006   -5
    0.025926169   2    1000023    24
    0.025295068   2    1000024    25
    0.02344349   2    1000024    23
    0.013571651   2    1000022    24
    0.0092827005   2    37    1000022
    0.007577829   2   -1000015    16
    0.00095411904   3    1000024    6   -6
    0.00083580947   3    1000023   -5    6
    0.00078256245   3    1000022   -5    6
    0.00043559486   2    1000016   -15
    0.00026501863   3    1000021   -5    6
    0.00012596295   2   -1000013    14
    0.00012596234   2   -1000011    12

DECAY 1000022 -1


DECAY 1000023  48.27776
    0.19967421   2    1000005   -5
    0.19967421   2   -1000005    5
    0.16847943   2    2000006   -6
    0.16847943   2   -2000006    6
    0.032004728   2    1000006   -6
    0.032004728   2   -1000006    6
    0.02493224   2    1000014   -14
    0.02493224   2   -1000014    14
    0.024932055   2    1000012   -12
    0.024932055   2   -1000012    12
    0.024855109   2    1000013   -13
    0.024855109   2   -1000013    13
    0.024854749   2    1000011   -11
    0.024854749   2   -1000011    11
    0.00012029297   2    1000022    35

DECAY 1000025  226.20173
    0.21355794   2    1000006   -6
    0.21355794   2   -1000006    6
    0.197615   2    2000006   -6
    0.197615   2   -2000006    6
    0.029306237   2    1000023    25
    0.024183338   2    1000005   -5
    0.024183338   2   -1000005    5
    0.023345592   2    1000024   -24
    0.023345592   2   -1000024    24
    0.020609536   2    1000023    23
    0.0074741443   2    1000022    25
    0.0048731914   2    1000022    35
    0.0046898008   2    1000022    23
    0.0039565995   2    1000022    36
    0.0037376512   2    1000015   -15
    0.0037376512   2   -1000015    15
    0.0010871968   3    1000024    5   -6
    0.0010871968   3   -1000024   -5    6
    0.00066172549   3    1000022    6   -6
    0.00052500426   3    1000023    6   -6
    0.00035222838   3    1000021    6   -6
    0.00020781536   2    2000015   -15
    0.00020781536   2   -2000015    15

DECAY 1000035  218.86861
    0.22715141   2    1000006   -6
    0.22715141   2   -1000006    6
    0.19744409   2    2000006   -6
    0.19744409   2   -2000006    6
    0.025093208   2    1000005   -5
    0.025093208   2   -1000005    5
    0.025083821   2    1000023    25
    0.019288587   2    1000024   -24
    0.019288587   2   -1000024    24
    0.0088937332   2    1000022    23
    0.006428001   2    1000022    25
    0.0060248387   2    1000022    35
    0.0038416207   2    1000015   -15
    0.0038416207   2   -1000015    15
    0.0033826373   2    1000022    36
    0.00084513409   3    1000024    5   -6
    0.00084513409   3   -1000024   -5    6
    0.00064678212   3    1000022    6   -6
    0.00055885561   2    1000023    23
    0.00042985364   3    1000023    6   -6
    0.00035593973   3    1000021    6   -6
    0.00022035707   2    2000015   -15
    0.00022035707   2   -2000015    15

DECAY 1000021  88.471195
    0.22503341   2    1000006   -6
    0.22503341   2   -1000006    6
    0.085818147   2    1000005   -5
    0.085818147   2   -1000005    5
    0.068743541   2    2000003   -3
    0.068743541   2   -2000003    3
    0.068743349   2    2000001   -1
    0.068743349   2   -2000001    1
    0.051650979   2    2000006   -6
    0.051650979   2   -2000006    6

DECAY 25  0.0039269846
    0.60150355   2   -5    5
    0.20590187   2   -24    24
    0.06885297   2    21    21
    0.067414885   2   -15    15
    0.027741654   2   -4    4
    0.024498169   2    23    23
    0.0022598822   2    22    22
    0.0013689366   2    22    23
    0.00023365429   2   -13    13
    0.00022365645   2   -3    3
    6.1837834e-07   2   -1    1
    1.4296171e-07   2   -2    2
    5.2528188e-09   2   -11    11

DECAY 35  19.892615
    0.90770453   2   -5    5
    0.067740772   2   -15    15
    0.023822005   2   -6    6
    0.00026934621   2   -3    3
    0.00022774905   2   -13    13
    0.00010034179   2    25    25
    4.5569558e-05   2    23    23
    3.9659186e-05   2    21    21
    3.7010831e-05   2   -24    24
    1.2021062e-05   2    1000022    1000022
    7.4438134e-07   2   -1    1
    1.9814979e-07   2   -4    4
    3.8536142e-08   2    22    22
    1.164522e-08   2    22    23
    5.1162274e-09   2   -11    11
    1.0214841e-12   2   -2    2

DECAY 36  19.287299
    0.90944742   2   -5    5
    0.067878923   2   -15    15
    0.022024813   2   -6    6
    0.00026984057   2   -3    3
    0.00022821239   2   -13    13
    7.0373384e-05   2    21    21
    6.2730981e-05   2    23    25
    1.6633589e-05   2    1000022    1000022
    7.457482e-07   2   -1    1
    1.683486e-07   2   -4    4
    8.3752444e-08   2    22    22
    4.6526736e-08   2    22    23
    5.1266389e-09   2   -11    11
    3.1119403e-12   2    23    35
    8.6790173e-13   2   -2    2
    1.4752436e-33   2    25    25

DECAY 37  20.167726
    0.92443869   2   -5    6
    0.073589078   2   -15    16
    0.0013786796   2   -5    4
    0.00026016422   2   -13    14
    0.00024168408   2   -3    4
    6.0392029e-05   2    24    25
    1.122022e-05   2   -3    2
    9.8452054e-06   2   -5    2
    9.1316617e-06   2   -3    6
    6.7000569e-07   2   -1    2
    4.0288672e-07   2   -1    6
    3.4783605e-08   2   -1    4
    6.0852683e-09   2   -11    12
    8.747229e-11   2    24    35
    1.9916306e-12   2    24    36

DECAY 6  2.43
    1   2    5    24

DECAY 15 -1
