# SUSY Les Houches Accord 2 - MSSM spectrum + Decays
# SPheno v4.0.5be
# W. Porod, Comput. Phys. Commun. 153 (2003) 275-315, hep-ph/0301101;
# W. Porod, F.~Staub, Comput. Phys. Commun. 183 (2012) 2458
#                     arXiv:1104.1573 [hep-ph] 
# in case of problems send email to porod@physik.uni-wuerzburg.de
# Created: 20.12.2022,  21:19
Block SPINFO         # Program information
     1   SPheno      # spectrum calculator
     2   v4.0.5be    # version number
#
Block SPhenoINFO     # SPheno specific information
    1      2         # using 2-loop RGEs
    2      2         # using pole masses for boundary conditions at mZ
Block MODSEL  # Model selection
    1    0    # general MSSM
Block MINPAR  # Input parameters
    3    4.90964373E+01  # tanb at m_Z    
    4    1.00000000E+00  # Sign(mu)
Block EXTPAR  # non-universal input parameters
    0    4.51987678E+03  # scale for input parameters
    1    4.49675807E+02  # M_1
    2    8.47836146E+02  # M_2
    3    3.85009342E+03  # M_3
   11    5.01770739E+03  # A_t
   12    2.56701586E+02  # A_b
   13   -1.63330097E+03  # A_tau
   23    2.75418730E+02  # mu
   25    4.82246334E+01  # tan(beta)
   26    1.21788985E+03  # m_A, pole mass
   31    1.00000000E+04  # M_L11
   32    1.00000000E+04  # M_L22
   33    1.00000000E+04  # M_L33
   34    1.00000000E+04  # M_E11
   35    1.00000000E+04  # M_E22
   36    1.00000000E+04  # M_E33
   41    1.00000000E+04  # M_Q11
   42    1.00000000E+04  # M_Q22
   43    4.53739152E+03  # M_Q33
   44    1.00000000E+04  # M_U11
   45    1.00000000E+04  # M_U22
   46    4.40638195E+03  # M_U33
   47    1.00000000E+04  # M_D11
   48    1.00000000E+04  # M_D22
   49    4.06096477E+03  # M_D33
Block SMINPUTS  # SM parameters
         1     1.27908970E+02  # alpha_em^-1(MZ)^MSbar
         2     1.16637870E-05  # G_mu [GeV^-2]
         3     1.18400000E-01  # alpha_s(MZ)^MSbar
         4     9.11876000E+01  # m_Z(pole)
         5     4.18000000E+00  # m_b(m_b), MSbar
         6     1.73200000E+02  # m_t(pole)
         7     1.77700000E+00  # m_tau(pole)
         8     0.00000000E+00  # m_nu_3
        11     5.10998930E-04  # m_e(pole)
        12     0.00000000E+00  # m_nu_1
        13     1.05658372E-01  # m_muon(pole)
        14     0.00000000E+00  # m_nu_2
        21     5.00000000E-03  # m_d(2 GeV), MSbar
        22     2.50000000E-03  # m_u(2 GeV), MSbar
        23     9.50000000E-02  # m_s(2 GeV), MSbar
        24     1.27000000E+00  # m_c(m_c), MSbar
Block gauge Q=  4.51987678E+03  # (SUSY scale)
   1    3.55362975E-01  # g'(Q)^DRbar
   2    6.65198874E-01  # g(Q)^DRbar
   3    1.21977796E+00  # g3(Q)^DRbar
Block Yu Q=  4.51987678E+03  # (SUSY scale)
  1  1     8.38617455E-06   # Y_u(Q)^DRbar
  2  2     4.26017667E-03   # Y_c(Q)^DRbar
  3  3     1.01311725E+00   # Y_t(Q)^DRbar
Block Yd Q=  4.51987678E+03  # (SUSY scale)
  1  1     8.12667852E-04   # Y_d(Q)^DRbar
  2  2     1.54406892E-02   # Y_s(Q)^DRbar
  3  3     8.05911856E-01   # Y_b(Q)^DRbar
Block Ye Q=  4.51987678E+03  # (SUSY scale)
  1  1     1.41816483E-04   # Y_e(Q)^DRbar
  2  2     2.93231508E-02   # Y_mu(Q)^DRbar
  3  3     4.93167158E-01   # Y_tau(Q)^DRbar
Block Au Q=  4.51987678E+03  # (SUSY scale)
  1  1     0.00000000E+00   # A_u(Q)^DRbar
  2  2     0.00000000E+00   # A_c(Q)^DRbar
  3  3     5.01770739E+03   # A_t(Q)^DRbar
Block Ad Q=  4.51987678E+03  # (SUSY scale)
  1  1     0.00000000E+00   # A_d(Q)^DRbar
  2  2     0.00000000E+00   # A_s(Q)^DRbar
  3  3     2.56701587E+02   # A_b(Q)^DRbar
Block Ae Q=  4.51987678E+03  # (SUSY scale)
  1  1     0.00000000E+00   # A_e(Q)^DRbar
  2  2     0.00000000E+00   # A_mu(Q)^DRbar
  3  3    -1.63330096E+03   # A_tau(Q)^DRbar
Block MSOFT Q=  4.51987678E+03  # soft SUSY breaking masses at Q
   1    4.49675807E+02  # M_1
   2    8.47836146E+02  # M_2
   3    3.85009342E+03  # M_3
  21    1.51999504E+06  # M^2_(H,d)
  22    3.69834331E+05  # M^2_(H,u)
  31    1.00000000E+04  # M_(L,11)
  32    1.00000000E+04  # M_(L,22)
  33    1.00000000E+04  # M_(L,33)
  34    1.00000000E+04  # M_(E,11)
  35    1.00000000E+04  # M_(E,22)
  36    1.00000000E+04  # M_(E,33)
  41    1.00000000E+04  # M_(Q,11)
  42    1.00000000E+04  # M_(Q,22)
  43    4.53739152E+03  # M_(Q,33)
  44    1.00000000E+04  # M_(U,11)
  45    1.00000000E+04  # M_(U,22)
  46    4.40638195E+03  # M_(U,33)
  47    1.00000000E+04  # M_(D,11)
  48    1.00000000E+04  # M_(D,22)
  49    4.06096477E+03  # M_(D,33)
Block MASS  # Mass spectrum
#   PDG code      mass          particle
         6     1.73200000E+02  # m_t(pole)
        23     9.11876000E+01  # m_Z(pole)
        24     8.04299946E+01  # W+
        15     1.77700000E+00  # m_tau(pole)
        25     1.25558148E+02  # h0
        35     1.21765864E+03  # H0
        36     1.21788985E+03  # A0
        37     1.22465597E+03  # H+
   1000001     1.01107123E+04  # ~d_L
   2000001     1.00859871E+04  # ~d_R
   1000002     1.01103502E+04  # ~u_L
   2000002     1.00891582E+04  # ~u_R
   1000003     1.01107131E+04  # ~s_L
   2000003     1.00859885E+04  # ~s_R
   1000004     1.01103510E+04  # ~c_L
   2000004     1.00891584E+04  # ~c_R
   1000005     4.17033111E+03  # ~b_1
   2000005     4.60280839E+03  # ~b_2
   1000006     4.41324074E+03  # ~t_1
   2000006     4.62908944E+03  # ~t_2
   1000011     1.00212611E+04  # ~e_L-
   2000011     1.00089491E+04  # ~e_R-
   1000012     1.00204930E+04  # ~nu_eL
   1000013     1.00212653E+04  # ~mu_L-
   2000013     1.00089560E+04  # ~mu_R-
   1000014     1.00204968E+04  # ~nu_muL
   1000015     1.00108926E+04  # ~tau_1-
   2000015     1.00224956E+04  # ~tau_2-
   1000016     1.00215768E+04  # ~nu_tauL
   1000021     4.37546859E+03  # ~g
   1000022     2.84057636E+02  # ~chi_10
   1000023     2.98916190E+02  # ~chi_20
   1000025     4.58324435E+02  # ~chi_30
   1000035     9.21007407E+02  # ~chi_40
   1000024     2.92588909E+02  # ~chi_1+
   1000037     9.20952883E+02  # ~chi_2+
# Higgs mixing
Block alpha # Effective Higgs mixing angle
          -2.07304653E-02   # alpha
Block Hmix Q=  4.51987678E+03  # Higgs mixing parameters
   1    2.75418730E+02  # mu
   2    4.82246334E+01  # tan[beta](Q)
   3    2.42811624E+02  # v(Q)
   4    1.48325569E+06  # m^2_A(Q)
Block stopmix # stop mixing matrix
   1  1    -3.40288884E-01   # Re[R_st(1,1)]
   1  2     9.40320943E-01   # Re[R_st(1,2)]
   2  1    -9.40320943E-01   # Re[R_st(2,1)]
   2  2    -3.40288884E-01   # Re[R_st(2,2)]
Block sbotmix # sbottom mixing matrix
   1  1     6.53774727E-03   # Re[R_sb(1,1)]
   1  2     9.99978629E-01   # Re[R_sb(1,2)]
   2  1    -9.99978629E-01   # Re[R_sb(2,1)]
   2  2     6.53774727E-03   # Re[R_sb(2,2)]
Block staumix # stau mixing matrix
   1  1     1.15262687E-01   # Re[R_sta(1,1)]
   1  2     9.93335046E-01   # Re[R_sta(1,2)]
   2  1    -9.93335046E-01   # Re[R_sta(2,1)]
   2  2     1.15262687E-01   # Re[R_sta(2,2)]
Block Nmix # neutralino mixing matrix
   1  1     1.84375199E-01   # Re[N(1,1)]
   1  2    -8.79279322E-02   # Re[N(1,2)]
   1  3     7.04826061E-01   # Re[N(1,3)]
   1  4    -6.79334004E-01   # Re[N(1,4)]
   2  1     4.11749509E-02   # Re[N(2,1)]
   2  2    -4.61976589E-02   # Re[N(2,2)]
   2  3    -7.01158455E-01   # Re[N(2,3)]
   2  4    -7.10314874E-01   # Re[N(2,4)]
   3  1     9.81946720E-01   # Re[N(3,1)]
   3  2     2.81123783E-02   # Re[N(3,2)]
   3  3    -1.02623510E-01   # Re[N(3,3)]
   3  4     1.56392929E-01   # Re[N(3,4)]
   4  1    -9.54191608E-03   # Re[N(4,1)]
   4  2     9.94657805E-01   # Re[N(4,2)]
   4  3     3.26413866E-02   # Re[N(4,3)]
   4  4    -9.74645704E-02   # Re[N(4,4)]
Block Umix # chargino mixing matrix
   1  1    -4.60992679E-02   # Re[U(1,1)]
   1  2     9.98936864E-01   # Re[U(1,2)]
   2  1     9.98936864E-01   # Re[U(2,1)]
   2  2     4.60992679E-02   # Re[U(2,2)]
Block Vmix # chargino mixing matrix
   1  1    -1.37667228E-01   # Re[V(1,1)]
   1  2     9.90478538E-01   # Re[V(1,2)]
   2  1     9.90478538E-01   # Re[V(2,1)]
   2  2     1.37667228E-01   # Re[V(2,2)]
DECAY        23     2.49520000E+00   # Z
DECAY        24     2.08500000E+00   # W
DECAY   2000011     5.00851911E+01   # ~e^-_R
#    BR                NDA      ID1      ID2
     3.40791903E-02    2     1000022        11   # BR(~e^-_R -> chi^0_1 e^-)
     1.69935768E-03    2     1000023        11   # BR(~e^-_R -> chi^0_2 e^-)
     9.64131491E-01    2     1000025        11   # BR(~e^-_R -> chi^0_3 e^-)
DECAY   1000011     1.42650872E+02   # ~e^-_L
#    BR                NDA      ID1      ID2
     1.80793619E-04    2     1000023        11   # BR(~e^-_L -> chi^0_2 e^-)
     9.40574873E-02    2     1000025        11   # BR(~e^-_L -> chi^0_3 e^-)
     2.97692484E-01    2     1000035        11   # BR(~e^-_L -> chi^0_4 e^-)
     1.31198361E-03    2    -1000024        12   # BR(~e^-_L -> chi^-_1 nu_e)
     6.06722752E-01    2    -1000037        12   # BR(~e^-_L -> chi^-_2 nu_e)
#    BR                NDA      ID1      ID2       ID3
DECAY   2000013     5.04270512E+01   # ~mu^-_R
#    BR                NDA      ID1      ID2
     3.55321266E-02    2     1000022        13   # BR(~mu^-_R -> chi^0_1 mu^-)
     3.35402759E-03    2     1000023        13   # BR(~mu^-_R -> chi^0_2 mu^-)
     9.57631639E-01    2     1000025        13   # BR(~mu^-_R -> chi^0_3 mu^-)
     3.38228446E-03    2    -1000024        14   # BR(~mu^-_R -> chi^-_1 nu_mu)
DECAY   1000013     1.42822058E+02   # ~mu^-_L
#    BR                NDA      ID1      ID2
     6.29755512E-04    2     1000022        13   # BR(~mu^-_L -> chi^0_1 mu^-)
     7.69594277E-04    2     1000023        13   # BR(~mu^-_L -> chi^0_2 mu^-)
     9.39573759E-02    2     1000025        13   # BR(~mu^-_L -> chi^0_3 mu^-)
     2.97337061E-01    2     1000035        13   # BR(~mu^-_L -> chi^0_4 mu^-)
     1.31041163E-03    2    -1000024        14   # BR(~mu^-_L -> chi^-_1 nu_mu)
     6.05995802E-01    2    -1000037        14   # BR(~mu^-_L -> chi^-_2 nu_mu)
#    BR                NDA      ID1      ID2       ID3
DECAY   1000015     1.47406078E+02   # ~tau^-_1
#    BR                NDA      ID1      ID2
     1.83824056E-01    2     1000022        15   # BR(~tau^-_1 -> chi^0_1 tau^-)
     1.58408997E-01    2     1000023        15   # BR(~tau^-_1 -> chi^0_2 tau^-)
     3.24315546E-01    2     1000025        15   # BR(~tau^-_1 -> chi^0_3 tau^-)
     1.89508998E-03    2     1000035        15   # BR(~tau^-_1 -> chi^0_4 tau^-)
     3.27681763E-01    2    -1000024        16   # BR(~tau^-_1 -> chi^-_1 nu_tau)
     3.87454882E-03    2    -1000037        16   # BR(~tau^-_1 -> chi^-_2 nu_tau)
DECAY   2000015     1.90476556E+02   # ~tau^-_2
#    BR                NDA      ID1      ID2
     1.19125857E-01    2     1000022        15   # BR(~tau^-_2 -> chi^0_1 tau^-)
     1.27737001E-01    2     1000023        15   # BR(~tau^-_2 -> chi^0_2 tau^-)
     7.83769137E-02    2     1000025        15   # BR(~tau^-_2 -> chi^0_3 tau^-)
     2.22064194E-01    2     1000035        15   # BR(~tau^-_2 -> chi^0_4 tau^-)
     7.24068264E-04    2    -1000024        16   # BR(~tau^-_2 -> chi^-_1 nu_tau)
     4.51971966E-01    2    -1000037        16   # BR(~tau^-_2 -> chi^-_2 nu_tau)
#    BR                NDA      ID1      ID2       ID3
DECAY   1000012     1.42655084E+02   # ~nu_e
#    BR                NDA      ID1      ID2
     1.07279043E-02    2     1000022        12   # BR(~nu_e -> chi^0_1 nu_e)
     1.43524552E-03    2     1000023        12   # BR(~nu_e -> chi^0_2 nu_e)
     7.58859222E-02    2     1000025        12   # BR(~nu_e -> chi^0_3 nu_e)
     3.03825001E-01    2     1000035        12   # BR(~nu_e -> chi^0_4 nu_e)
     1.16992037E-02    2     1000024        11   # BR(~nu_e -> chi^+_1 e^-)
     5.96426723E-01    2     1000037        11   # BR(~nu_e -> chi^+_2 e^-)
#    BR                NDA      ID1      ID2       ID3
DECAY   1000014     1.42826250E+02   # ~nu_mu
#    BR                NDA      ID1      ID2
     1.07150519E-02    2     1000022        14   # BR(~nu_mu -> chi^0_1 nu_mu)
     1.43352603E-03    2     1000023        14   # BR(~nu_mu -> chi^0_2 nu_mu)
     7.57950079E-02    2     1000025        14   # BR(~nu_mu -> chi^0_3 nu_mu)
     3.03461010E-01    2     1000035        14   # BR(~nu_mu -> chi^0_4 nu_mu)
     1.28807053E-02    2     1000024        13   # BR(~nu_mu -> chi^+_1 mu^-)
     5.95714699E-01    2     1000037        13   # BR(~nu_mu -> chi^+_2 mu^-)
#    BR                NDA      ID1      ID2       ID3
DECAY   1000016     1.91077062E+02   # ~nu_tau
#    BR                NDA      ID1      ID2
     8.01015117E-03    2     1000022        16   # BR(~nu_tau -> chi^0_1 nu_tau)
     1.07164770E-03    2     1000023        16   # BR(~nu_tau -> chi^0_2 nu_tau)
     5.66613972E-02    2     1000025        16   # BR(~nu_tau -> chi^0_3 nu_tau)
     2.26856265E-01    2     1000035        16   # BR(~nu_tau -> chi^0_4 nu_tau)
     2.61536851E-01    2     1000024        15   # BR(~nu_tau -> chi^+_1 tau^-)
     4.45863688E-01    2     1000037        15   # BR(~nu_tau -> chi^+_2 tau^-)
#    BR                NDA      ID1      ID2       ID3
DECAY   2000001     5.30271336E+02   # ~d_R
#    BR                NDA      ID1      ID2
     3.60534925E-04    2     1000022         1   # BR(~d_R -> chi^0_1 d)
     1.01967731E-02    2     1000025         1   # BR(~d_R -> chi^0_3 d)
     9.89423397E-01    2     1000021         1   # BR(~d_R -> ~g d)
DECAY   1000001     6.59856617E+02   # ~d_L
#    BR                NDA      ID1      ID2
     9.82068637E-04    2     1000022         1   # BR(~d_L -> chi^0_1 d)
     1.93014485E-04    2     1000023         1   # BR(~d_L -> chi^0_2 d)
     1.44638524E-03    2     1000025         1   # BR(~d_L -> chi^0_3 d)
     6.58457608E-02    2     1000035         1   # BR(~d_L -> chi^0_4 d)
     2.86171070E-04    2    -1000024         2   # BR(~d_L -> chi^-_1 u)
     1.32374652E-01    2    -1000037         2   # BR(~d_L -> chi^-_2 u)
     7.98871948E-01    2     1000021         1   # BR(~d_L -> ~g d)
DECAY   2000003     5.30366726E+02   # ~s_R
#    BR                NDA      ID1      ID2
     4.05084272E-04    2     1000022         3   # BR(~s_R -> chi^0_1 s)
     1.01958844E-02    2     1000025         3   # BR(~s_R -> chi^0_3 s)
     9.89245706E-01    2     1000021         3   # BR(~s_R -> ~g s)
DECAY   1000003     6.59908093E+02   # ~s_L
#    BR                NDA      ID1      ID2
     1.01793636E-03    2     1000022         3   # BR(~s_L -> chi^0_1 s)
     2.28565251E-04    2     1000023         3   # BR(~s_L -> chi^0_2 s)
     1.44703276E-03    2     1000025         3   # BR(~s_L -> chi^0_3 s)
     6.58407063E-02    2     1000035         3   # BR(~s_L -> chi^0_4 s)
     2.91566191E-04    2    -1000024         4   # BR(~s_L -> chi^-_1 c)
     1.32364441E-01    2    -1000037         4   # BR(~s_L -> chi^-_2 c)
     7.98809753E-01    2     1000021         3   # BR(~s_L -> ~g s)
DECAY   1000005     1.08784059E+02   # ~b_1
#    BR                NDA      ID1      ID2
     2.45009114E-01    2     1000022         5   # BR(~b_1 -> chi^0_1 b)
     2.40885716E-01    2     1000023         5   # BR(~b_1 -> chi^0_2 b)
     2.50487665E-02    2     1000025         5   # BR(~b_1 -> chi^0_3 b)
     3.74189799E-04    2     1000035         5   # BR(~b_1 -> chi^0_4 b)
     4.87942529E-01    2    -1000024         6   # BR(~b_1 -> chi^-_1 t)
     7.39684794E-04    2    -1000037         6   # BR(~b_1 -> chi^-_2 t)
DECAY   2000005     2.14974279E+02   # ~b_2
#    BR                NDA      ID1      ID2
     1.37478011E-01    2     1000022         5   # BR(~b_2 -> chi^0_1 b)
     1.35235460E-01    2     1000023         5   # BR(~b_2 -> chi^0_2 b)
     4.95228143E-03    2     1000025         5   # BR(~b_2 -> chi^0_3 b)
     8.65488853E-02    2     1000035         5   # BR(~b_2 -> chi^0_4 b)
     4.24394972E-01    2    -1000024         6   # BR(~b_2 -> chi^-_1 t)
     1.81662122E-01    2    -1000037         6   # BR(~b_2 -> chi^-_2 t)
     1.56803072E-02    2     1000021         5   # BR(~b_2 -> ~g b)
     1.39311738E-02    2     1000006       -24   # BR(~b_2 -> ~t_1 W^-)
DECAY   2000002     5.47420705E+02   # ~u_R
#    BR                NDA      ID1      ID2
     1.39692118E-03    2     1000022         2   # BR(~u_R -> chi^0_1 u)
     3.95218459E-02    2     1000025         2   # BR(~u_R -> chi^0_3 u)
     9.59007892E-01    2     1000021         2   # BR(~u_R -> ~g u)
DECAY   1000002     6.59839965E+02   # ~u_L
#    BR                NDA      ID1      ID2
     2.04398859E-04    2     1000022         2   # BR(~u_L -> chi^0_1 u)
     1.01694974E-04    2     1000023         2   # BR(~u_L -> chi^0_2 u)
     2.76702085E-03    2     1000025         2   # BR(~u_L -> chi^0_3 u)
     6.53965894E-02    2     1000035         2   # BR(~u_L -> chi^0_4 u)
     2.55227960E-03    2     1000024         1   # BR(~u_L -> chi^+_1 d)
     1.30140891E-01    2     1000037         1   # BR(~u_L -> chi^+_2 d)
     7.98837125E-01    2     1000021         2   # BR(~u_L -> ~g u)
DECAY   2000004     5.47427966E+02   # ~c_R
#    BR                NDA      ID1      ID2
     1.39996772E-03    2     1000022         4   # BR(~c_R -> chi^0_1 c)
     3.95214850E-02    2     1000025         4   # BR(~c_R -> chi^0_3 c)
     9.58995152E-01    2     1000021         4   # BR(~c_R -> ~g c)
DECAY   1000004     6.59891408E+02   # ~c_L
#    BR                NDA      ID1      ID2
     2.06931507E-04    2     1000022         4   # BR(~c_L -> chi^0_1 c)
     1.04473020E-04    2     1000023         4   # BR(~c_L -> chi^0_2 c)
     2.76693951E-03    2     1000025         4   # BR(~c_L -> chi^0_3 c)
     6.53915486E-02    2     1000035         4   # BR(~c_L -> chi^0_4 c)
     2.62427368E-03    2     1000024         3   # BR(~c_L -> chi^+_1 s)
     1.30130909E-01    2     1000037         3   # BR(~c_L -> chi^+_2 s)
     7.98774925E-01    2     1000021         4   # BR(~c_L -> ~g c)
DECAY   1000006     1.90349413E+02   # ~t_1
#    BR                NDA      ID1      ID2
     2.00488394E-01    2     1000022         6   # BR(~t_1 -> chi^0_1 t)
     2.30067101E-01    2     1000023         6   # BR(~t_1 -> chi^0_2 t)
     6.57978368E-02    2     1000025         6   # BR(~t_1 -> chi^0_3 t)
     2.73558580E-02    2     1000035         6   # BR(~t_1 -> chi^0_4 t)
     4.14970807E-01    2     1000024         5   # BR(~t_1 -> chi^+_1 b)
     5.33515732E-02    2     1000037         5   # BR(~t_1 -> chi^+_2 b)
#    BR                NDA      ID1      ID2       ID3
     7.95126506E-03    3     1000022        24         5   # BR(~t_1 -> chi^0_1 W^+ b)
DECAY   2000006     2.17359476E+02   # ~t_2
#    BR                NDA      ID1      ID2
     2.14582379E-01    2     1000022         6   # BR(~t_2 -> chi^0_1 t)
     2.22569739E-01    2     1000023         6   # BR(~t_2 -> chi^0_2 t)
     9.08780490E-03    2     1000025         6   # BR(~t_2 -> chi^0_3 t)
     6.78222393E-02    2     1000035         6   # BR(~t_2 -> chi^0_4 t)
     3.17675528E-01    2     1000024         5   # BR(~t_2 -> chi^+_1 b)
     1.28387876E-01    2     1000037         5   # BR(~t_2 -> chi^+_2 b)
     1.96757933E-02    2     1000021         6   # BR(~t_2 -> ~g t)
     8.94283837E-03    2     1000006        23   # BR(~t_2 -> ~t_1 Z)
     1.11809452E-02    2     1000006        25   # BR(~t_2 -> ~t_1 h^0)
DECAY   1000024     5.70362242E-08   # chi^+_1
#    BR                NDA      ID1      ID2       ID3
     3.52796280E-01    3     1000022        -1         2   # BR(chi^+_1 -> chi^0_1 d_bar u)
     3.16678218E-01    3     1000022        -3         4   # BR(chi^+_1 -> chi^0_1 s_bar c)
     1.17598845E-01    3     1000022       -11        12   # BR(chi^+_1 -> chi^0_1 e^+ nu_e)
     1.17508846E-01    3     1000022       -13        14   # BR(chi^+_1 -> chi^0_1 mu^+ nu_mu)
     9.54178100E-02    3     1000022       -15        16   # BR(chi^+_1 -> chi^0_1 tau^+ nu_tau)
DECAY   1000037     7.97667220E+00   # chi^+_2
#    BR                NDA      ID1      ID2
     2.26997604E-01    2     1000022        24   # BR(chi^+_2 -> chi^0_1 W^+)
     2.56037885E-01    2     1000023        24   # BR(chi^+_2 -> chi^0_2 W^+)
     2.11671358E-02    2     1000025        24   # BR(chi^+_2 -> chi^0_3 W^+)
     2.47164150E-01    2     1000024        23   # BR(chi^+_2 -> chi^+_1 Z)
     2.39748178E-01    2     1000024        25   # BR(chi^+_2 -> chi^+_1 h^0)
#    BR                NDA      ID1      ID2       ID3
     2.25712189E-03    3     1000024         6        -6   # BR(chi^+_2 -> chi^+_1 t t_bar)
     1.14494299E-04    3     1000024         5        -5   # BR(chi^+_2 -> chi^+_1 b b_bar)
     3.09317581E-03    3     1000022        -5         6   # BR(chi^+_2 -> chi^0_1 b_bar t)
     3.22908318E-03    3     1000023        -5         6   # BR(chi^+_2 -> chi^0_2 b_bar t)
     1.63599358E-04    3     1000025        -5         6   # BR(chi^+_2 -> chi^0_3 b_bar t)
DECAY   1000022     0.00000000E+00   # chi^0_1
DECAY   1000023     2.59756762E-06   # chi^0_2
#    BR                NDA      ID1      ID2
     1.90753916E-01    2     1000022        22   # BR(chi^0_2 -> chi^0_1 photon)
#    BR                NDA      ID1      ID2       ID3
     1.04337033E-01    3     1000022         2        -2   # BR(chi^0_2 -> chi^0_1 u u_bar)
     9.46940678E-02    3     1000022         4        -4   # BR(chi^0_2 -> chi^0_1 c c_bar)
     1.33780783E-01    3     1000022         1        -1   # BR(chi^0_2 -> chi^0_1 d d_bar)
     1.33717753E-01    3     1000022         3        -3   # BR(chi^0_2 -> chi^0_1 s s_bar)
     4.98578343E-02    3     1000022         5        -5   # BR(chi^0_2 -> chi^0_1 b b_bar)
     3.01905231E-02    3     1000022        11       -11   # BR(chi^0_2 -> chi^0_1 e^- e^+)
     3.01681020E-02    3     1000022        13       -13   # BR(chi^0_2 -> chi^0_1 mu^- mu^+)
     2.45214003E-02    3     1000022        15       -15   # BR(chi^0_2 -> chi^0_1 tau^- tau^+)
     1.78903774E-01    3     1000022        12       -12   # BR(chi^0_2 -> chi^0_1 nu_e nu_bar_e)
     5.34854033E-03    3     1000024         1        -2   # BR(chi^0_2 -> chi^+_1 d u_bar)
     5.34854033E-03    3    -1000024        -1         2   # BR(chi^0_2 -> chi^-_1 d_bar u)
     4.40158927E-03    3     1000024         3        -4   # BR(chi^0_2 -> chi^+_1 s c_bar)
     4.40158927E-03    3    -1000024        -3         4   # BR(chi^0_2 -> chi^-_1 s_bar c)
     1.78284740E-03    3     1000024        11       -12   # BR(chi^0_2 -> chi^+_1 e^- nu_bar_e)
     1.78284740E-03    3    -1000024       -11        12   # BR(chi^0_2 -> chi^-_1 e^+ nu_e)
     1.78037515E-03    3     1000024        13       -14   # BR(chi^0_2 -> chi^+_1 mu^- nu_bar_mu)
     1.78037515E-03    3    -1000024       -13        14   # BR(chi^0_2 -> chi^-_1 mu^+ nu_mu)
     1.22405471E-03    3     1000024        15       -16   # BR(chi^0_2 -> chi^+_1 tau^- nu_bar_tau)
     1.22405471E-03    3    -1000024       -15        16   # BR(chi^0_2 -> chi^-_1 tau^+ nu_tau)
DECAY   1000025     8.51304918E-01   # chi^0_3
#    BR                NDA      ID1      ID2
     2.06471841E-01    2     1000024       -24   # BR(chi^0_3 -> chi^+_1 W^-)
     2.06471841E-01    2    -1000024        24   # BR(chi^0_3 -> chi^-_1 W^+)
     1.33239572E-02    2     1000022        23   # BR(chi^0_3 -> chi^0_1 Z)
     3.24750000E-01    2     1000023        23   # BR(chi^0_3 -> chi^0_2 Z)
     1.26045574E-01    2     1000022        25   # BR(chi^0_3 -> chi^0_1 h^0)
     1.22913320E-01    2     1000023        25   # BR(chi^0_3 -> chi^0_2 h^0)
#    BR                NDA      ID1      ID2       ID3
DECAY   1000035     9.08806502E+00   # chi^0_4
#    BR                NDA      ID1      ID2
     2.20115331E-01    2     1000024       -24   # BR(chi^0_4 -> chi^+_1 W^-)
     2.20115331E-01    2    -1000024        24   # BR(chi^0_4 -> chi^-_1 W^+)
     4.13133698E-02    2     1000022        23   # BR(chi^0_4 -> chi^0_1 Z)
     1.81813168E-01    2     1000023        23   # BR(chi^0_4 -> chi^0_2 Z)
     1.84906112E-03    2     1000025        23   # BR(chi^0_4 -> chi^0_3 Z)
     1.51975153E-01    2     1000022        25   # BR(chi^0_4 -> chi^0_1 h^0)
     1.60080984E-01    2     1000023        25   # BR(chi^0_4 -> chi^0_2 h^0)
     1.53527861E-02    2     1000025        25   # BR(chi^0_4 -> chi^0_3 h^0)
#    BR                NDA      ID1      ID2       ID3
     7.05099662E-04    3     1000022         6        -6   # BR(chi^0_4 -> chi^0_1 t t_bar)
     6.82754394E-04    3     1000023         6        -6   # BR(chi^0_4 -> chi^0_2 t t_bar)
     2.92243995E-03    3     1000024         5        -6   # BR(chi^0_4 -> chi^+_1 b t_bar)
     2.92243995E-03    3    -1000024        -5         6   # BR(chi^0_4 -> chi^-_1 b_bar t)
DECAY   1000021     2.97202586E+00   # ~g
#    BR                NDA      ID1      ID2
     1.82610804E-01    2     1000005        -5   # BR(~g -> ~b_1 b_bar)
     1.82610804E-01    2    -1000005         5   # BR(~g -> ~b^*_1 b)
     7.88044584E-04    2     1000022        21   # BR(~g -> chi^0_1 g)
     1.04230901E-03    2     1000023        21   # BR(~g -> chi^0_2 g)
#    BR                NDA      ID1      ID2       ID3
     9.99543815E-02    3     1000022         6        -6   # BR(~g -> chi^0_1 t t_bar)
     2.11937701E-02    3     1000022         5        -5   # BR(~g -> chi^0_1 b b_bar)
     1.11947212E-01    3     1000023         6        -6   # BR(~g -> chi^0_2 t t_bar)
     2.08368648E-02    3     1000023         5        -5   # BR(~g -> chi^0_2 b b_bar)
     1.21341026E-04    3     1000025         2        -2   # BR(~g -> chi^0_3 u u_bar)
     1.21342182E-04    3     1000025         4        -4   # BR(~g -> chi^0_3 c c_bar)
     1.97189807E-02    3     1000025         6        -6   # BR(~g -> chi^0_3 t t_bar)
     7.82454566E-04    3     1000025         5        -5   # BR(~g -> chi^0_3 b b_bar)
     1.95091358E-04    3     1000035         2        -2   # BR(~g -> chi^0_4 u u_bar)
     1.95091651E-04    3     1000035         4        -4   # BR(~g -> chi^0_4 c c_bar)
     1.88434549E-02    3     1000035         6        -6   # BR(~g -> chi^0_4 t t_bar)
     1.96391365E-04    3     1000035         1        -1   # BR(~g -> chi^0_4 d d_bar)
     1.96391827E-04    3     1000035         3        -3   # BR(~g -> chi^0_4 s s_bar)
     1.39946911E-02    3     1000035         5        -5   # BR(~g -> chi^0_4 b b_bar)
     1.28666029E-01    3     1000024         5        -6   # BR(~g -> chi^+_1 b t_bar)
     1.28666029E-01    3    -1000024        -5         6   # BR(~g -> chi^-_1 b_bar t)
     3.91523817E-04    3     1000037         1        -2   # BR(~g -> chi^+_2 d u_bar)
     3.91523817E-04    3    -1000037        -1         2   # BR(~g -> chi^-_2 d_bar u)
     3.91524568E-04    3     1000037         3        -4   # BR(~g -> chi^+_2 s c_bar)
     3.91524568E-04    3    -1000037        -3         4   # BR(~g -> chi^-_2 s_bar c)
     3.27987408E-02    3     1000037         5        -6   # BR(~g -> chi^+_2 b t_bar)
     3.27987408E-02    3    -1000037        -5         6   # BR(~g -> chi^-_2 b_bar t)
DECAY        25     4.02466839E-03   # Gamma(h0)
     2.30459485E-03   2        22        22   # BR(h0 -> photon photon)
     1.51692557E-03   2        22        23   # BR(h0 -> photon Z)
     2.85765742E-02   2        23        23   # BR(h0 -> Z Z)
     2.33483970E-01   2       -24        24   # BR(h0 -> W W)
     7.07645110E-02   2        21        21   # BR(h0 -> gluon gluon)
     5.11904162E-09   2       -11        11   # BR(h0 -> Electron electron)
     2.27704434E-04   2       -13        13   # BR(h0 -> Muon muon)
     6.56558138E-02   2       -15        15   # BR(h0 -> Tau tau)
     1.40815774E-07   2        -2         2   # BR(h0 -> Up up)
     2.73260861E-02   2        -4         4   # BR(h0 -> Charm charm)
     5.91975763E-07   2        -1         1   # BR(h0 -> Down down)
     2.14104400E-04   2        -3         3   # BR(h0 -> Strange strange)
     5.69928978E-01   2        -5         5   # BR(h0 -> Bottom bottom)
DECAY        35     4.37169700E+01   # Gamma(HH)
     5.73320853E-08   2        22        22   # BR(HH -> photon photon)
     1.13811499E-07   2        22        23   # BR(HH -> photon Z)
     1.25278719E-06   2        23        23   # BR(HH -> Z Z)
     1.32626161E-06   2       -24        24   # BR(HH -> W W)
     3.69551253E-05   2        21        21   # BR(HH -> gluon gluon)
     1.06591690E-08   2       -11        11   # BR(HH -> Electron electron)
     4.74464848E-04   2       -13        13   # BR(HH -> Muon muon)
     1.37011017E-01   2       -15        15   # BR(HH -> Tau tau)
     2.72143519E-14   2        -2         2   # BR(HH -> Up up)
     5.27810449E-09   2        -4         4   # BR(HH -> Charm charm)
     3.50161473E-04   2        -6         6   # BR(HH -> Top top)
     8.66354629E-07   2        -1         1   # BR(HH -> Down down)
     3.13357572E-04   2        -3         3   # BR(HH -> Strange strange)
     7.84488548E-01   2        -5         5   # BR(HH -> Bottom bottom)
     3.54992469E-03   2  -1000024   1000024   # BR(HH -> Chargino1 chargino1)
     1.73239366E-02   2  -1000024   1000037   # BR(HH -> Chargino1 chargino2)
     1.73239366E-02   2  -1000037   1000024   # BR(HH -> Chargino2 chargino1)
     2.66614144E-03   2   1000022   1000022   # BR(HH -> neutralino1 neutralino1)
     6.64747363E-04   2   1000022   1000023   # BR(HH -> neutralino1 neutralino2)
     6.44901629E-03   2   1000022   1000025   # BR(HH -> neutralino1 neutralino3)
     2.79727786E-03   2   1000022   1000035   # BR(HH -> neutralino1 neutralino4)
     4.20011928E-04   2   1000023   1000023   # BR(HH -> neutralino2 neutralino2)
     1.15752810E-02   2   1000023   1000025   # BR(HH -> neutralino2 neutralino3)
     1.44263072E-02   2   1000023   1000035   # BR(HH -> neutralino2 neutralino4)
     1.15427028E-04   2   1000025   1000025   # BR(HH -> neutralino3 neutralino3)
     9.85544309E-06   2        25        25   # BR(HH -> h0 h0)
DECAY        36     4.23900570E+01   # Gamma(A0)
     1.78159599E-07   2        22        22   # BR(A0 -> photon photon)
     1.86625772E-07   2        22        23   # BR(A0 -> photon Z)
     5.30704132E-05   2        21        21   # BR(A0 -> gluon gluon)
     1.06214220E-08   2       -11        11   # BR(A0 -> Electron electron)
     4.72784805E-04   2       -13        13   # BR(A0 -> Muon muon)
     1.36527103E-01   2       -15        15   # BR(A0 -> Tau tau)
     2.65510625E-14   2        -2         2   # BR(A0 -> Up up)
     5.15015379E-09   2        -4         4   # BR(A0 -> Charm charm)
     3.72676667E-04   2        -6         6   # BR(A0 -> Top top)
     8.63265591E-07   2        -1         1   # BR(A0 -> Down down)
     3.12240229E-04   2        -3         3   # BR(A0 -> Strange strange)
     7.81707490E-01   2        -5         5   # BR(A0 -> Bottom bottom)
     4.70643462E-03   2  -1000024   1000024   # BR(A0 -> Chargino1 chargino1)
     1.75068080E-02   2  -1000024   1000037   # BR(A0 -> Chargino1 chargino2)
     1.75068080E-02   2  -1000037   1000024   # BR(A0 -> Chargino2 chargino1)
     3.67023914E-03   2   1000022   1000022   # BR(A0 -> neutralino1 neutralino1)
     4.53728042E-04   2   1000022   1000023   # BR(A0 -> neutralino1 neutralino2)
     1.07800011E-02   2   1000022   1000025   # BR(A0 -> neutralino1 neutralino3)
     1.56504698E-02   2   1000022   1000035   # BR(A0 -> neutralino1 neutralino4)
     5.04938771E-04   2   1000023   1000023   # BR(A0 -> neutralino2 neutralino2)
     7.15792042E-03   2   1000023   1000025   # BR(A0 -> neutralino2 neutralino3)
     2.30453166E-03   2   1000023   1000035   # BR(A0 -> neutralino2 neutralino4)
     3.09736557E-04   2   1000025   1000025   # BR(A0 -> neutralino3 neutralino3)
     1.77513477E-06   2        23        25   # BR(A0 -> Z h0)
     1.02513072E-38   2        25        25   # BR(A0 -> h0 h0)
DECAY        37     4.16648876E+01   # Gamma(Hp)
     1.17166776E-08   2       -11        12   # BR(Hp -> Electron nu_e)
     5.00924557E-04   2       -13        14   # BR(Hp -> Muon nu_mu)
     1.41689454E-01   2       -15        16   # BR(Hp -> Tau nu_tau)
     8.30690587E-07   2        -1         2   # BR(Hp -> Down up)
     1.38671507E-05   2        -3         2   # BR(Hp -> Strange up)
     8.38504340E-06   2        -5         2   # BR(Hp -> Bottom up)
     3.86846496E-08   2        -1         4   # BR(Hp -> Down charm)
     2.99368154E-04   2        -3         4   # BR(Hp -> Strange charm)
     1.17420398E-03   2        -5         4   # BR(Hp -> Bottom charm)
     3.36375221E-08   2        -1         6   # BR(Hp -> Down top)
     1.15721588E-06   2        -3         6   # BR(Hp -> Strange top)
     7.74387860E-01   2        -5         6   # BR(Hp -> Bottom top)
     1.70321189E-04   2   1000022   1000024   # BR(Hp -> neutralino1 chargino1)
     2.01783801E-02   2   1000022   1000037   # BR(Hp -> neutralino1 chargino2)
     5.86260191E-04   2   1000023   1000024   # BR(Hp -> neutralino2 chargino1)
     1.82710383E-02   2   1000023   1000037   # BR(Hp -> neutralino2 chargino2)
     2.36897120E-02   2   1000024   1000025   # BR(Hp -> chargino1 neutralino3)
     1.90263078E-02   2   1000024   1000035   # BR(Hp -> chargino1 neutralino4)
     1.84439738E-06   2        24        25   # BR(Hp -> W h0)
     5.46047456E-10   2        24        35   # BR(Hp -> W HH)
     4.61602721E-10   2        24        36   # BR(Hp -> W A0)
DECAY         6     2.43000000E+00   # top
#    BR                NDA      ID1      ID2
     1.00000000E+00    2           5        24   # BR(t -> b W)
Block HiggsBoundsInputHiggsCouplingsFermions
# ScalarNormEffCoupSq PseudoSNormEffCoupSq NP IP1 IP2 IP2
    9.99724786E-01    0.00000000E+00        3  25   5   5  # h0-b-b eff. coupling^2, normalised to SM
    2.32561554E+03    0.00000000E+00        3  35   5   5  # H0-b-b eff. coupling^2, normalised to SM
    0.00000000E+00    2.32561527E+03        3  36   5   5  # A0-b-b eff. coupling^2, normalised to SM
#
    1.00000012E+00    0.00000000E+00        3  25   6   6  # h0-t-t eff. coupling^2, normalised to SM
    4.29875397E-04    0.00000000E+00        3  35   6   6  # H0-t-t eff. coupling^2, normalised to SM
    0.00000000E+00    4.29993737E-04        3  36   6   6  # A0-t-t eff. coupling^2, normalised to SM
#
    9.99724786E-01    0.00000000E+00        3  25  15  15  # h0-tau-tau eff. coupling^2, normalised to SM
    2.32561554E+03    0.00000000E+00        3  35  15  15  # H0-tau-tau eff. coupling^2, normalised to SM
    0.00000000E+00    2.32561527E+03        3  36  15  15  # A0-tau-tau eff. coupling^2, normalised to SM
#
Block HiggsBoundsInputHiggsCouplingsBosons
    1.00000000E+00        3  25  24  24  # h0-W-W eff. coupling^2, normalised to SM
    8.14334114E-12        3  35  24  24  # H0-W-W eff. coupling^2, normalised to SM
    0.00000000E+00        3  36  24  24  # A0-W-W eff. coupling^2, normalised to SM
#
    1.00000000E+00        3  25  23  23  # h0-Z-Z eff. coupling^2, normalised to SM
    8.14334114E-12        3  35  23  23  # H0-Z-Z eff. coupling^2, normalised to SM
    0.00000000E+00        3  36  23  23  # A0-Z-Z eff. coupling^2, normalised to SM
#
    1.26669696E+00        3  25  21  21  # h0-g-g eff. coupling^2, normalised to SM
    2.55330813E-02        3  35  21  21  # H0-g-g eff. coupling^2, normalised to SM
    1.71813490E-01        3  36  21  21  # A0-g-g eff. coupling^2, normalised to SM
#
    0.00000000E+00        3  25  25  23  # h0-h0-Z eff. coupling^2, normalised to SM
    0.00000000E+00        3  35  25  23  # H0-h0-Z eff. coupling^2, normalised to SM
    8.14334114E-12        3  36  25  23  # A0-h0-Z eff. coupling^2, normalised to SM
    0.00000000E+00        3  35  35  23  # H0-H0-Z eff. coupling^2, normalised to SM
    1.00000000E+00        3  36  35  23  # A0-H0-Z eff. coupling^2, normalised to SM
    0.00000000E+00        3  36  36  23  # A0-A0-Z eff. coupling^2, normalised to SM
#
    0.00000000E+00        4  25  21  21  23  # h0-g-g-Z eff. coupling^2, normalised to SM
    0.00000000E+00        4  35  21  21  23  # H0-g-g-Z eff. coupling^2, normalised to SM
    0.00000000E+00        4  36  21  21  23  # A0-g-g-Z eff. coupling^2, normalised to SM
Block SPhenoLowEnergy  # low energy observables
    1    3.50664921E-04   # BR(b -> s gamma)
    2    1.58754348E-06   # BR(b -> s mu+ mu-)
    3    3.52510424E-05   # BR(b -> s nu nu)
    4    2.02365687E-15   # BR(Bd -> e+ e-)
    5    8.64474892E-11   # BR(Bd -> mu+ mu-)
    6    1.80496491E-08   # BR(Bd -> tau+ tau-)
    7    6.65086995E-14   # BR(Bs -> e+ e-)
    8    2.84121246E-09   # BR(Bs -> mu+ mu-)
    9    6.00515138E-07   # BR(Bs -> tau+ tau-)
   10    8.79174850E-05   # BR(B_u -> tau nu)
   11    9.08153961E-01   # BR(B_u -> tau nu)/BR(B_u -> tau nu)_SM
   12    5.41832294E-01   # |Delta(M_Bd)| [ps^-1] 
   13    1.93167700E+01   # |Delta(M_Bs)| [ps^-1] 
   14    0.00000000E+00   # neutron EDM according to the chiral quark model
   15    0.00000000E+00   # neutron EDM according to the relativistic quark-parton model
   16    2.15705573E-03   # epsilon_K
   17    2.28166660E-15   # Delta(M_K)
   18    2.47989637E-11   # BR(K^0 -> pi^0 nu nu)
   19    8.29023428E-11   # BR(K^+ -> pi^+ nu nu)
   20    4.07242456E-16   # Delta(g-2)_electron/2
   21    1.74110146E-11   # Delta(g-2)_muon/2
   22    4.93489188E-09   # Delta(g-2)_tau/2
   23    0.00000000E+00   # electric dipole moment of the electron
   24    0.00000000E+00   # electric dipole moment of the muon
   25    0.00000000E+00   # electric dipole moment of the tau
   26    0.00000000E+00   # Br(mu -> e gamma)
   27    0.00000000E+00   # Br(tau -> e gamma)
   28    0.00000000E+00   # Br(tau -> mu gamma)
   29    0.00000000E+00   # Br(mu -> 3 e)
   30    0.00000000E+00   # Br(tau -> 3 e)
   31    0.00000000E+00   # Br(tau -> 3 mu)
   39    7.21663066E-05   # Delta(rho_parameter)
   40    0.00000000E+00   # BR(Z -> e mu)
   41    0.00000000E+00   # BR(Z -> e tau)
   42    0.00000000E+00   # BR(Z -> mu tau)
Block FWCOEF Q=  1.60000000E+02  # Wilson coefficients at scale Q
#    id        order  M        value         comment
     0305 4422   00   0    -1.88819110E-01   # C7
     0305 4422   00   2    -2.19781270E-01   # C7
     0305 4322   00   2    -5.66663406E-04   # C7'
     0305 6421   00   0    -9.52278348E-02   # C8
     0305 6421   00   2    -1.29453925E-01   # C8
     0305 6321   00   2    -6.65523501E-04   # C8'
 03051111 4133   00   0     1.63176148E+00   # C9 e+e-
 03051111 4133   00   2     1.63193548E+00   # C9 e+e-
 03051111 4233   00   2     3.24730799E-04   # C9' e+e-
 03051111 4137   00   0    -4.45445358E+00   # C10 e+e-
 03051111 4137   00   2    -4.45271420E+00   # C10 e+e-
 03051111 4237   00   2    -2.38520451E-03   # C10' e+e-
 03051313 4133   00   0     1.63176148E+00   # C9 mu+mu-
 03051313 4133   00   2     1.63193530E+00   # C9 mu+mu-
 03051313 4233   00   2     3.24715289E-04   # C9' mu+mu-
 03051313 4137   00   0    -4.45445358E+00   # C10 mu+mu-
 03051313 4137   00   2    -4.45271439E+00   # C10 mu+mu-
 03051313 4237   00   2    -2.38518978E-03   # C10' mu+mu-
 03051212 4137   00   0     1.50535012E+00   # C11 nu_1 nu_1
 03051212 4137   00   2     1.50497579E+00   # C11 nu_1 nu_1
 03051212 4237   00   2     5.15183047E-04   # C11' nu_1 nu_1
 03051414 4137   00   0     1.50535012E+00   # C11 nu_2 nu_2
 03051414 4137   00   2     1.50497579E+00   # C11 nu_2 nu_2
 03051414 4237   00   2     5.15186355E-04   # C11' nu_2 nu_2
 03051616 4137   00   0     1.50535012E+00   # C11 nu_3 nu_3
 03051616 4137   00   2     1.50497579E+00   # C11 nu_3 nu_3
 03051616 4237   00   2     5.16118619E-04   # C11' nu_3 nu_3
Block IMFWCOEF Q=  1.60000000E+02  # Im(Wilson coefficients) at scale Q
#    id        order  M        value         comment
     0305 4422   00   0     3.85807395E-07   # C7
     0305 4422   00   2     1.07197936E-05   # C7
     0305 4322   00   2    -5.54760464E-07   # C7'
     0305 6421   00   0     3.30469549E-07   # C8
     0305 6421   00   2    -6.11410747E-06   # C8
     0305 6321   00   2    -4.15825918E-07   # C8'
 03051111 4133   00   2     2.75281942E-07   # C9 e+e-
 03051111 4233   00   2     1.00713718E-05   # C9' e+e-
 03051111 4137   00   2     7.12581585E-07   # C10 e+e-
 03051111 4237   00   2    -7.40011115E-05   # C10' e+e-
 03051313 4133   00   2     2.75277528E-07   # C9 mu+mu-
 03051313 4233   00   2     1.00713683E-05   # C9' mu+mu-
 03051313 4137   00   2     7.12586436E-07   # C10 mu+mu-
 03051313 4237   00   2    -7.40011220E-05   # C10' mu+mu-
 03051212 4137   00   2    -1.29646085E-07   # C11 nu_1 nu_1
 03051212 4237   00   2     1.59835929E-05   # C11' nu_1 nu_1
 03051414 4137   00   2    -1.29645867E-07   # C11 nu_2 nu_2
 03051414 4237   00   2     1.59835929E-05   # C11' nu_2 nu_2
 03051616 4137   00   2    -1.29584685E-07   # C11 nu_3 nu_3
 03051616 4237   00   2     1.59835929E-05   # C11' nu_3 nu_3
