BLOCK SPINFO
   1   SPheno
   2   v4.0.5be

BLOCK SPHENOINFO
   1   2
   2   2

BLOCK MODSEL
   1   0

BLOCK MINPAR
   3    28.465186
   4   -1

BLOCK EXTPAR
   0    4133.345
   1   -3258.7073
   2    1582.1343
   3    4406.9825
   11   -1793.8245
   12    4549.1511
   13    3794.4094
   23   -888.57172
   25    27.380367
   26    4609.699
   31    1611.4963
   32    1611.4963
   33    1352.3889
   34    3450.5865
   35    3450.5865
   36    4933.4847
   41    1717.4473
   42    1717.4473
   43    3799.2816
   44    1584.6653
   45    1584.6653
   46    4232.5006
   47    2497.8139
   48    2497.8139
   49    4482.0504

BLOCK SMINPUTS
   1    127.90897
   2    1.1663787e-05
   3    0.1184
   4    91.1876
   5    4.18
   6    173.2
   7    1.777
   8    0
   11    0.00051099893
   12    0
   13    0.10565837
   14    0
   21    0.005
   22    0.0025
   23    0.095
   24    1.27

BLOCK GAUGE Q=  4133.345
   1    0.35536298
   2    0.66519887
   3    1.219778

BLOCK YU Q=  4133.345
   1   1    8.3899622e-06
   2   2    0.0042621008
   3   3    1.0135748

BLOCK YD Q=  4133.345
   1   1    0.00046161458
   2   2    0.008770677
   3   3    0.45777702

BLOCK YE Q=  4133.345
   1   1    8.055512e-05
   2   2    0.016656244
   3   3    0.28013062

BLOCK AU Q=  4133.345
   1   1    0
   2   2    0
   3   3   -1793.8247

BLOCK AD Q=  4133.345
   1   1    0
   2   2    0
   3   3    4549.1525

BLOCK AE Q=  4133.345
   1   1    0
   2   2    0
   3   3    3794.4092

BLOCK MSOFT Q=  4133.345
   1   -3258.7073
   2    1582.1343
   3    4406.9825
   21    20523680
   22   -422821.71
   31    1611.4963
   32    1611.4963
   33    1352.3889
   34    3450.5865
   35    3450.5865
   36    4933.4847
   41    1717.4473
   42    1717.4473
   43    3799.2816
   44    1584.6653
   45    1584.6653
   46    4232.5006
   47    2497.8139
   48    2497.8139
   49    4482.0504

BLOCK MASS
   6    173.2
   23    91.1876
   24    80.429995
   15    1.777
   25    121.09681
   35    4608.6048
   36    4609.699
   37    4609.5023
   1000001    1964.6252
   2000001    2690.7207
   1000002    1962.967
   2000002    1830.3724
   1000003    1964.6209
   2000003    2690.7146
   1000004    1962.9629
   2000004    1830.3718
   1000005    3940.3692
   2000005    4610.8271
   1000006    3939.4444
   2000006    4336.7894
   1000011    1642.969
   2000011    3460.8685
   1000012    1640.6305
   1000013    1642.9489
   2000013    3460.8445
   1000014    1640.6103
   1000015    1383.8583
   2000015    4932.6725
   1000016    1381.1489
   1000021    4481.5311
   1000022    899.29203
   1000023   -903.86412
   1000025    1609.0259
   1000035   -3203.4701
   1000024    900.32029
   1000037    1609.2523

BLOCK ALPHA
      -0.035152017

BLOCK HMIX Q=  4133.345
   1   -888.57172
   2    27.380367
   3    242.93222
   4    21249325

BLOCK STOPMIX
   1   1    0.99657518
   1   2    0.082691608
   2   1   -0.082691608
   2   2    0.99657518

BLOCK SBOTMIX
   1   1   -0.99993361
   1   2    0.011522558
   2   1   -0.011522558
   2   2   -0.99993361

BLOCK STAUMIX
   1   1   -0.9999977
   1   2    0.0021452698
   2   1   -0.0021452698
   2   2   -0.9999977

BLOCK NMIX
   1   1   -0.0072049297
   1   2   -0.075181178
   1   3   -0.70668544
   1   4   -0.7034853
   2   1   -0.013834788
   2   2   -0.023021176
   2   3    0.70654557
   2   4   -0.70715768
   3   1    0.00062347305
   3   2   -0.99690409
   3   3    0.0369773
   3   4    0.069386826
   4   1    0.99987814
   4   2   -0.00023865444
   4   3    0.0046608029
   4   4   -0.014897015

BLOCK UMIX
   1   1   -0.052382061
   1   2   -0.99862712
   2   1    0.99862712
   2   2   -0.052382061

BLOCK VMIX
   1   1   -0.098275827
   1   2    0.99515921
   2   1    0.99515921
   2   2    0.098275827

BLOCK HIGGSBOUNDSINPUTHIGGSCOUPLINGSFERMIONS
       0, 749.6845,3,36,15,15

BLOCK HIGGSBOUNDSINPUTHIGGSCOUPLINGSBOSONS
       0,4,36,21,21,23

BLOCK SPHENOLOWENERGY
   1    0.00032681615
   2    1.5897293e-06
   3    3.5258157e-05
   4    2.3868766e-15
   5    1.0196485e-10
   6    2.1356607e-08
   7    8.0556308e-14
   8    3.4413692e-09
   9    7.303253e-07
   10    9.657416e-05
   11    0.9975741
   12    0.54190899
   13    19.361551
   14    0
   15    0
   16    0.0021569959
   17    2.2816552e-15
   18    2.4802267e-11
   19    8.2912125e-11
   20   -1.9221565e-15
   21   -8.2179622e-11
   22   -2.5349838e-08
   23    0
   24    0
   25    0
   26    0
   27    0
   28    0
   29    0
   30    0
   31    0
   39    5.9634574e-05
   40    0
   41    0
   42    0

BLOCK FWCOEF Q=  160
   305   4422   0   0   -0.18881911
   305   4422   0   2   -0.19637832
   305   4322   0   2   -0.00018484501
   305   6421   0   0   -0.095227835
   305   6421   0   2   -0.10126795
   305   6321   0   2   -0.00013993437
   3051111   4133   0   0    1.6277452
   3051111   4133   0   2    1.6279945
   3051111   4233   0   2    0.00011751869
   3051111   4137   0   0   -4.4504373
   3051111   4137   0   2   -4.4493283
   3051111   4237   0   2   -0.00086870485
   3051313   4133   0   0    1.6277452
   3051313   4133   0   2    1.6279941
   3051313   4233   0   2    0.00011751862
   3051313   4137   0   0   -4.4504373
   3051313   4137   0   2   -4.4493288
   3051313   4237   0   2   -0.00086870507
   3051212   4137   0   0    1.5053501
   3051212   4137   0   2    1.5051146
   3051212   4237   0   2    0.00018780188
   3051414   4137   0   0    1.5053501
   3051414   4137   0   2    1.5051146
   3051414   4237   0   2    0.00018780189
   3051616   4137   0   0    1.5053501
   3051616   4137   0   2    1.5051146
   3051616   4237   0   2    0.00018780287

BLOCK IMFWCOEF Q=  160
   305   4422   0   0    3.8581339e-07
   305   4422   0   2   -7.5717306e-06
   305   4322   0   2   -2.1671789e-06
   305   6421   0   0    3.3047468e-07
   305   6421   0   2    3.8635397e-07
   305   6321   0   2   -9.5870724e-07
   3051111   4133   0   2    4.0696722e-07
   3051111   4233   0   2    2.2842979e-06
   3051111   4137   0   2   -2.7137388e-06
   3051111   4237   0   2   -1.6885735e-05
   3051313   4133   0   2    4.0695288e-07
   3051313   4233   0   2    2.2842969e-06
   3051313   4137   0   2   -2.7137325e-06
   3051313   4237   0   2   -1.6885739e-05
   3051212   4137   0   2    6.6407518e-07
   3051212   4237   0   2    3.650461e-06
   3051414   4137   0   2    6.6407497e-07
   3051414   4237   0   2    3.650461e-06
   3051616   4137   0   2    6.6323876e-07
   3051616   4237   0   2    3.6504606e-06

DECAY 23  2.4952


DECAY 24  2.085


DECAY 1000011  0.08065044
    0.29511688   2   -1000037    12
    0.27472896   2    1000022    11
    0.2409139   2   -1000024    12
    0.14891117   2    1000025    11
    0.040329091   2    1000023    11

DECAY 2000011  0.36026969
    0.98978627   2    1000035    11
    0.008021837   2    1000023    11
    0.0021792543   2    1000022    11

DECAY 1000013  0.085030643
    0.28670979   2    1000022    13
    0.27958778   2   -1000037    14
    0.22849605   2   -1000024    14
    0.14107497   2    1000025    13
    0.064131406   2    1000023    13

DECAY 2000013  0.39387314
    0.90518569   2    1000035    13
    0.042038881   2   -1000024    14
    0.028357058   2    1000023    13
    0.02305174   2    1000022    13
    0.0012335988   2    1000013    25

DECAY 1000015  0.74118267
    0.50383542   2    1000022    15
    0.4806425   2    1000023    15
    0.015522082   2   -1000024    16

DECAY 2000015  23.268905
    0.35604678   2    1000035    15
    0.30824845   2   -1000024    16
    0.1545187   2    1000023    15
    0.15441018   2    1000022    15
    0.012629589   2    1000016   -24
    0.0065317059   2    1000015    25
    0.0063066067   2    1000015    23
    0.00087272829   2   -1000037    16
    0.00043526746   2    1000025    15

DECAY 1000012  0.11794798
    0.57759623   2    1000024    11
    0.17405439   2    1000037    11
    0.15244915   2    1000022    12
    0.088644519   2    1000025    12
    0.0072557145   2    1000023    12

DECAY 1000014  0.12231954
    0.59301801   2    1000024    13
    0.16762034   2    1000037    13
    0.14699588   2    1000022    14
    0.085369593   2    1000025    14
    0.0069961679   2    1000023    14

DECAY 1000016  0.76167143
    0.98588672   2    1000024    15
    0.01347592   2    1000022    16
    0.00063735838   2    1000023    16

DECAY 1000001  2.8606278
    0.65281064   2   -1000037    2
    0.32572585   2    1000025    1
    0.010352916   2   -1000024    2
    0.01031575   2    1000022    1
    0.00079483869   2    1000023    1

DECAY 2000001  0.00030632428
    0.75338745   2    1000023    1
    0.21554418   2    1000022    1
    0.0292853   2   -1000024    2
    0.00093323993   2    1000001    25
    0.00080767921   2    1000025    1

DECAY 1000003  2.8628623
    0.65228513   2   -1000037    4
    0.32546496   2    1000025    3
    0.010634954   2    1000022    3
    0.010495955   2   -1000024    4
    0.0011189941   2    1000023    3

DECAY 2000003  0.0068772961
    0.47088927   2   -1000024    4
    0.26816581   2    1000023    3
    0.24488826   2    1000022    3
    0.015006005   2    1000003    25
    0.00067778713   2   -1000037    4
    0.00037286355   2    1000025    3

DECAY 1000005  122.89978
    0.58031298   2   -1000024    6
    0.2010141   2   -1000037    6
    0.09742271   2    1000025    5
    0.060824041   2    1000022    5
    0.059910881   2    1000023    5
    0.00051528466   2    1000035    5

DECAY 2000005  37.707656
    0.4687045   2   -1000024    6
    0.23543921   2    1000023    5
    0.23502558   2    1000022    5
    0.029518707   2    1000021    5
    0.018270638   2    1000035    5
    0.0044925661   2    1000006   -24
    0.0034955658   2    1000005    25
    0.0022385606   2    1000005    23
    0.0018768342   2   -1000037    6
    0.00093568474   2    1000025    5

DECAY 2000002  0.00056951758
    0.78544012   2    1000023    2
    0.21441325   2    1000022    2
    0.00014406113   2    1000025    2

DECAY 1000002  2.9034557
    0.63379141   2    1000037    1
    0.31830397   2    1000025    2
    0.035842817   2    1000024    1
    0.010861776   2    1000022    2
    0.0012000284   2    1000023    2

DECAY 2000004  0.0013248649
    0.48083053   2    1000023    4
    0.28414014   2    1000024    3
    0.23459372   2    1000022    4
    0.00024851751   2    1000037    3
    0.00018708941   2    1000025    4

DECAY 1000004  2.9056972
    0.63329007   2    1000037    3
    0.3180509   2    1000025    4
    0.036457387   2    1000024    3
    0.010927253   2    1000022    4
    0.0012743942   2    1000023    4

DECAY 1000006  126.32011
    0.28418858   2    1000023    6
    0.28351275   2    1000022    6
    0.1830044   2    1000037    5
    0.12801229   2    1000024    5
    0.094494101   2    1000025    6
    0.026094196   3    1000022    24    5
    0.00069184117   2    1000035    6

DECAY 2000006  167.59976
    0.4718441   2    1000024    5
    0.24149382   2    1000023    6
    0.23772834   2    1000022    6
    0.011425439   2    1000035    6
    0.01128547   2    1000005    24
    0.009080329   2    1000037    5
    0.0070536423   2    1000006    25
    0.0055408744   2    1000006    23
    0.0045479951   2    1000025    6

DECAY 1000024  1.15217e-12
    0.69147089   2    1000022    211
    0.15826233   3    1000022   -11    12
    0.15026677   3    1000022   -13    14

DECAY 1000037  12.441107
    0.23154931   2    1000024    25
    0.23032367   2    1000023    24
    0.22380256   2    1000022    24
    0.22295416   2    1000024    23
    0.039151012   2    1000016   -15
    0.038527056   2   -1000015    16
    0.0053254037   3    1000023   -5    6
    0.0044373501   3    1000022   -5    6
    0.0039218867   3    1000024    6   -6

DECAY 1000022 -1


DECAY 1000023  3.3920841e-08
    0.74501099   2    1000022    22
    0.041178799   3    1000022    12   -12
    0.030791901   3    1000022    1   -1
    0.030637759   3    1000022    3   -3
    0.024015597   3    1000022    2   -2
    0.023104679   3    1000024    1   -2
    0.023104679   3   -1000024   -1    2
    0.012437364   3    1000024    3   -4
    0.012437364   3   -1000024   -3    4
    0.0078646252   3    1000022    4   -4
    0.007701586   3    1000024    11   -12
    0.007701586   3   -1000024   -11    12
    0.0076675732   3    1000024    13   -14
    0.0076675732   3   -1000024   -13    14
    0.006948865   3    1000022    11   -11
    0.0068941154   3    1000022    13   -13
    0.0022377407   3    1000024    15   -16
    0.0022377407   3   -1000024   -15    16
    0.00035946237   3    1000022    15   -15

DECAY 1000025  15.289316
    0.20142379   2    1000023    25
    0.18334059   2    1000024   -24
    0.18334059   2   -1000024    24
    0.17186007   2    1000023    23
    0.17134787   2    1000022    25
    0.015954646   2    1000016   -16
    0.015954646   2   -1000016    16
    0.015851139   2    1000022    23
    0.015596399   2    1000015   -15
    0.015596399   2   -1000015    15
    0.0035708074   3    1000024    5   -6
    0.0035708074   3   -1000024   -5    6
    0.0013617109   3    1000023    6   -6
    0.0012107361   3    1000022    6   -6

DECAY 1000035  46.364455
    0.1049694   2    2000004   -4
    0.1049694   2   -2000004    4
    0.1049693   2    2000002   -2
    0.1049693   2   -2000002    2
    0.045688275   2    1000024   -24
    0.045688275   2   -1000024    24
    0.035830672   2    1000022    23
    0.035109666   2    1000023    25
    0.030278157   2    1000022    25
    0.028780996   2    1000016   -16
    0.028780996   2   -1000016    16
    0.028678561   2    1000015   -15
    0.028678561   2   -1000015    15
    0.023632636   2    1000014   -14
    0.023632636   2   -1000014    14
    0.023632223   2    1000012   -12
    0.023632223   2   -1000012    12
    0.023542608   2    1000013   -13
    0.023542608   2   -1000013    13
    0.023542196   2    1000011   -11
    0.023542196   2   -1000011    11
    0.0098783494   2    1000023    23
    0.0056441814   2    1000003   -3
    0.0056441814   2   -1000003    3
    0.0056441498   2    1000001   -1
    0.0056441498   2   -1000001    1
    0.0056254161   2    1000004   -4
    0.0056254161   2   -1000004    4
    0.0056253973   2    1000002   -2
    0.0056253973   2   -1000002    2
    0.0050172797   2    2000003   -3
    0.0050172797   2   -2000003    3
    0.0050171699   2    2000001   -1
    0.0050171699   2   -2000001    1
    0.0023479903   3    1000024    5   -6
    0.0023479903   3   -1000024   -5    6
    0.0017742755   3    1000023    6   -6
    0.0016458715   3    1000022    6   -6
    0.00016280145   2    1000037   -24
    0.00016280145   2   -1000037    24
    0.00014730258   2    1000025    23
    0.00011654007   2    1000025    25

DECAY 1000021  653.57782
    0.070449419   2    2000004   -4
    0.070449419   2   -2000004    4
    0.070449403   2    2000002   -2
    0.070449403   2   -2000002    2
    0.066278126   2    1000004   -4
    0.066278126   2   -1000004    4
    0.066277999   2    1000002   -2
    0.066277999   2   -1000002    2
    0.066224957   2    1000003   -3
    0.066224957   2   -1000003    3
    0.066224819   2    1000001   -1
    0.066224819   2   -1000001    1
    0.041504736   2    2000003   -3
    0.041504736   2   -2000003    3
    0.041504523   2    2000001   -1
    0.041504523   2   -2000001    1
    0.0052267379   2    1000005   -5
    0.0052267379   2   -1000005    5
    0.0047210152   2    1000006   -6
    0.0047210152   2   -1000006    6
    0.00054084638   3    1000024    5   -6
    0.00054084638   3   -1000024   -5    6
    0.00052433047   3    1000023    6   -6
    0.00051620918   3    1000022    6   -6

DECAY 25  0.0034279481
    0.63025794   2   -5    5
    0.16862642   2   -24    24
    0.074882433   2    21    21
    0.072136099   2   -15    15
    0.031241635   2   -4    4
    0.018868293   2    23    23
    0.0023267105   2    22    22
    0.0011725139   2    22    23
    0.00025020612   2   -13    13
    0.00023692414   2   -3    3
    6.5507294e-07   2   -1    1
    1.6100859e-07   2   -2    2
    5.6249652e-09   2   -11    11

DECAY 35  87.720798
    0.46025171   2   -5    5
    0.14786988   2   -1000024    1000037
    0.14786988   2   -1000037    1000024
    0.080919037   2    1000023    1000025
    0.075791951   2   -15    15
    0.067259286   2    1000022    1000025
    0.0090690089   2    1000022    1000035
    0.0036365271   2   -1000024    1000024
    0.002672493   2   -6    6
    0.0020275158   2    1000023    1000035
    0.0009996912   2    1000022    1000022
    0.00054731989   2   -1000037    1000037
    0.00029341563   2    1000022    1000023
    0.00027380054   2    1000025    1000025
    0.00026680912   2   -13    13
    0.00019683434   2   -3    3
    4.3540311e-05   2    1000023    1000023
    2.0873676e-06   2   -2000004    1000004
    2.0873676e-06   2   -1000004    2000004
    1.7581144e-06   2    21    21
    1.6833337e-06   2    25    25
    6.5698229e-07   2   -1000015    1000015
    5.4420645e-07   2   -1    1
    3.8677883e-07   2   -1000001    1000001
    3.865534e-07   2   -1000003    1000003
    2.873938e-07   2   -1000004    1000004
    2.8726587e-07   2   -1000002    1000002
    1.8809161e-07   2    23    23
    5.8586667e-08   2   -1000011    1000011
    5.8337241e-08   2   -1000013    1000013
    5.0339442e-08   2    22    23
    4.7192624e-08   2   -2000002    2000002
    4.701962e-08   2   -2000004    2000004
    4.2917349e-08   2   -4    4
    3.389957e-08   2   -24    24
    1.5413088e-08   2    22    22
    5.99164e-09   2   -11    11
    1.5330418e-09   2   -2000003    1000003
    1.5330418e-09   2   -1000003    2000003
    8.0885685e-12   2   -2000002    1000002
    8.0885685e-12   2   -1000002    2000002
    4.2466402e-12   2   -2000001    1000001
    4.2466402e-12   2   -1000001    2000001
    2.2124382e-13   2   -2    2

DECAY 36  85.243587
    0.4487181   2   -5    5
    0.15193626   2   -1000024    1000037
    0.15193626   2   -1000037    1000024
    0.082591707   2    1000022    1000025
    0.07389229   2   -15    15
    0.069773285   2    1000023    1000025
    0.0093355332   2    1000023    1000035
    0.0040749017   2   -1000024    1000024
    0.0024881604   2   -6    6
    0.0021218509   2    1000022    1000035
    0.0010492229   2    1000022    1000022
    0.00082390193   2   -1000037    1000037
    0.00041254729   2    1000025    1000025
    0.00032129529   2    1000022    1000023
    0.00026012292   2   -13    13
    0.00019189779   2   -3    3
    6.0629947e-05   2    1000023    1000023
    6.6480493e-06   2    21    21
    2.148142e-06   2   -2000004    1000004
    2.148142e-06   2   -1000004    2000004
    5.3055749e-07   2   -1    1
    4.8241585e-07   2    23    25
    4.0106052e-08   2   -4    4
    2.2995084e-08   2    22    23
    5.8413761e-09   2   -11    11
    2.0793088e-09   2    22    22
    1.5647667e-09   2   -2000003    1000003
    1.5647667e-09   2   -1000003    2000003
    8.3240696e-12   2   -2000002    1000002
    8.3240696e-12   2   -1000002    2000002
    4.3345185e-12   2   -2000001    1000001
    4.3345185e-12   2   -1000001    2000001
    2.0674984e-13   2   -2    2
    2.0218937e-14   2    23    35
    6.8754597e-38   2    25    25

DECAY 37  88.211825
    0.45609153   2   -5    6
    0.14969291   2    1000022    1000037
    0.14828474   2    1000024    1000025
    0.14759053   2    1000023    1000037
    0.084674117   2   -15    16
    0.011031992   2    1000024    1000035
    0.0013254397   2    1000023    1000024
    0.00067347841   2   -5    4
    0.00029935311   2   -13    14
    0.00017859249   2   -3    4
    0.00013606848   2    1000022    1000024
    8.4030241e-06   2   -3    2
    4.8093297e-06   2   -5    2
    3.7360398e-06   2   -3    6
    8.0862799e-07   2   -1000015    1000016
    6.0813916e-07   2   -1000001    2000002
    6.0693275e-07   2   -1000003    2000004
    5.6841485e-07   2   -1000003    1000004
    4.954685e-07   2   -1    2
    4.6624554e-07   2    24    25
    2.2899811e-07   2   -1000011    1000012
    2.2865007e-07   2   -1000013    1000014
    1.5912164e-07   2   -1    6
    3.2509524e-08   2   -1000003    2000002
    3.2480952e-08   2   -1000001    2000004
    3.0409857e-08   2   -1000001    1000004
    2.4696981e-08   2   -1    4
    7.0019005e-09   2   -11    12
    2.8942384e-09   2   -2000003    2000004
    1.5503066e-10   2   -2000003    2000002
    1.0228568e-10   2    1000025    1000037
    8.0308826e-12   2   -2000001    2000002
    2.9864555e-12   2   -1000001    1000002
    4.5654773e-13   2   -2000003    1000004
    4.2891952e-13   2   -2000001    2000004
    1.5969927e-13   2   -1000003    1000002
    6.7659248e-17   2   -2000001    1000004
    1.2826962e-19   2   -2000003    1000002
    6.6446017e-21   2   -2000001    1000002

DECAY 6  2.43
    1   2    5    24

DECAY 15 -1
