BLOCK DCINFO
   1   SDECAY/HDECAY
   2   1.3b /3.4

BLOCK SPINFO
   1   SOFTSUSY
   2   3.4.0

BLOCK MODSEL
   1   0

BLOCK SMINPUTS
   1    127.90897
   2    1.1663787e-05
   3    0.1184
   4    91.1876
   5    4.18
   6    173.2
   7    1.777

BLOCK MINPAR
   3    34.36

BLOCK EXTPAR
   0   -1
   1   -670.62
   2    1532.15
   3    2614.95
   11   -4501.74
   12   -135.92
   13   -3351.89
   23    3315.4
   26    1405.17
   31    3905.25
   32    3905.25
   33    2465.83
   34    2357.66
   35    2357.66
   36    2946.69
   41    2283.76
   42    2283.76
   43    3340.36
   44    3911.36
   45    3911.36
   46    3901.55
   47    3350.17
   48    3350.17
   49    294.56

BLOCK MASS
   24    80.385249
   25    126.82314
   35    1405.1403
   36    1405.17
   37    1407.4331
   5    4.8187603
   1000001    2426.3574
   2000001    3438.3706
   1000002    2425.1985
   2000002    3983.0878
   1000003    2426.3574
   2000003    3438.3706
   1000004    2425.1985
   2000004    3983.0878
   1000005    691.76013
   2000005    3414.4179
   1000006    3399.0655
   2000006    3912.9208
   1000011    3914.1329
   2000011    2365.6997
   1000012    3913.0007
   1000013    3914.1329
   2000013    2365.6997
   1000014    3913.0007
   1000015    2467.3874
   2000015    2942.1946
   1000016    2469.5434
   1000021    2824.3609
   1000022   -664.73954
   1000023    1575.1523
   1000025   -3355.1025
   1000035    3355.9082
   1000024    1575.3172
   1000037    3356.7446

BLOCK NMIX
   1   1    0.9999038
   1   2    6.0973776e-05
   1   3    0.013683088
   1   4    0.0022710549
   2   1    0.00031556208
   2   2    0.99944464
   2   3   -0.02994082
   2   4    0.014623711
   3   1   -0.011280386
   3   2    0.010834155
   3   3    0.70690969
   3   4    0.70713087
   4   1   -0.0080648382
   4   2    0.031512261
   4   3    0.70653734
   4   4   -0.7069278

BLOCK UMIX
   1   1    0.999105
   1   2   -0.042298839
   2   1    0.042298839
   2   2    0.999105

BLOCK VMIX
   1   1    0.99978533
   1   2   -0.020719197
   2   1    0.020719197
   2   2    0.99978533

BLOCK STOPMIX
   1   1    0.98487832
   1   2    0.1732475
   2   1   -0.1732475
   2   2    0.98487832

BLOCK SBOTMIX
   1   1    0.017756545
   1   2    0.99984234
   2   1   -0.99984234
   2   2    0.017756545

BLOCK STAUMIX
   1   1    0.9964742
   1   2    0.083899742
   2   1   -0.083899742
   2   2    0.9964742

BLOCK ALPHA
      -0.030422241

BLOCK HMIX Q=  3610.309
   1    3365.2518
   2    33.078263
   3    242.63745
   4    2814845.3

BLOCK GAUGE Q=  3610.309
   1    0.36509568
   2    0.63597887
   3    1.0083389

BLOCK AU Q=  3610.309
   1   1    0
   2   2    0
   3   3   -4501.74

BLOCK AD Q=  3610.309
   1   1    0
   2   2    0
   3   3   -135.91999

BLOCK AE Q=  3610.309
   1   1    0
   2   2    0
   3   3   -3351.89

BLOCK YU Q=  3610.309
   1   1    0
   2   2    0
   3   3    0.81043151

BLOCK YD Q=  3610.309
   1   1    0
   2   2    0
   3   3    0.3358875

BLOCK YE Q=  3610.309
   1   1    0
   2   2    0
   3   3    0.36024916

BLOCK MSOFT Q=  3610.309
   1   -670.62
   2    1532.15
   3    2614.95
   21   -9441632.5
   22   -11100560
   31    3905.25
   32    3905.25
   33    2465.83
   34    2357.66
   35    2357.66
   36    2946.69
   41    2283.76
   42    2283.76
   43    3340.36
   44    3911.36
   45    3911.36
   46    3901.55
   47    3350.17
   48    3350.17
   49    294.5599

BLOCK HIGGSBOUNDSINPUTHIGGSCOUPLINGSFERMIONS
       0, 1094.1715,3,36,15,15

BLOCK HIGGSBOUNDSINPUTHIGGSCOUPLINGSBOSONS
       0,4,36,21,21,23

DECAY 6  1.4246862
    1   2    5    24

DECAY 1000021  65.953896
    0.38251469   2    1000005   -5
    0.38251469   2   -1000005    5
    0.029450294   2    1000002   -2
    0.029450294   2   -1000002    2
    0.029450089   2    1000004   -4
    0.029450089   2   -1000004    4
    0.029292463   2    1000001   -1
    0.029292463   2   -1000001    1
    0.029292463   2    1000003   -3
    0.029292463   2   -1000003    3

DECAY 1000006  50.061759
    0.36294853   2    1000021    6
    0.32977896   2    1000024    5
    0.16295509   2    1000023    6
    0.13132539   2    1000005    24
    0.012894637   2    1000022    6
    9.5273453e-05   2    1000037    5
    2.1308566e-06   2    1000005    37

DECAY 2000006  91.755977
    0.49503597   2    1000021    6
    0.15918146   2    2000005    24
    0.091976964   2    1000022    6
    0.086106211   2    1000006    23
    0.080839596   2    1000006    25
    0.038133619   2    1000037    5
    0.020414452   2    1000035    6
    0.016599386   2    1000025    6
    0.0052241251   2    1000024    5
    0.0034928311   2    1000005    24
    0.002591605   2    1000023    6
    0.00040378625   2    1000005    37

DECAY 1000005  0.0023850668
    1   2    1000022    5

DECAY 2000005  51.230654
    0.35833374   2    1000021    5
    0.32775993   2   -1000024    6
    0.16583884   2    1000023    5
    0.069517054   2    1000005    25
    0.069299541   2    1000005    23
    0.0090640088   2    1000022    5
    8.7933184e-05   2    1000025    5
    8.7590818e-05   2    1000035    5
    5.780713e-06   2    1000005    36
    5.5808239e-06   2    1000005    35

DECAY 1000002  10.001081
    0.64667871   2    1000024    1
    0.32325569   2    1000023    2
    0.030065601   2    1000022    2

DECAY 2000002  83.340092
    0.89798275   2    1000021    2
    0.10201544   2    1000022    2
    1.1985482e-06   2    1000025    2
    6.1121864e-07   2    1000035    2
    7.6830059e-09   2    1000023    2

DECAY 1000001  10.008944
    0.64646684   2   -1000024    2
    0.32351167   2    1000023    1
    0.030021496   2    1000022    1

DECAY 2000001  29.441337
    0.9391029   2    1000021    1
    0.060897062   2    1000022    1
    2.1367852e-08   2    1000025    1
    1.0718757e-08   2    1000035    1
    4.1090487e-09   2    1000023    1

DECAY 1000004  10.082393
    0.64650513   2    1000024    3
    0.32316926   2    1000023    4
    0.030325616   2    1000022    4

DECAY 2000004  61.982337
    0.85686983   2    1000021    4
    0.1431277   2    1000022    4
    1.6262483e-06   2    1000025    4
    8.2929781e-07   2    1000035    4
    1.0734881e-08   2    1000023    4

DECAY 1000003  10.090833
    0.64629284   2   -1000024    4
    0.32342631   2    1000023    3
    0.030280843   2    1000022    3

DECAY 2000003  21.498702
    0.91268253   2    1000021    3
    0.087317425   2    1000022    3
    2.74568e-08   2    1000025    3
    1.3767378e-08   2    1000035    3
    5.8592744e-09   2    1000023    3

DECAY 1000011  38.0306
    0.58056066   2   -1000024    12
    0.29060654   2    1000023    11
    0.12870756   2    1000022    11
    0.00010368644   2   -1000037    12
    2.099793e-05   2    1000035    11
    5.5342058e-07   2    1000025    11

DECAY 2000011  10.64169
    0.99999996   2    1000022    11
    3.6382268e-08   2    1000023    11

DECAY 1000013  38.0306
    0.58056066   2   -1000024    14
    0.29060654   2    1000023    13
    0.12870756   2    1000022    13
    0.00010368644   2   -1000037    14
    2.0997929e-05   2    1000035    13
    5.5342057e-07   2    1000025    13

DECAY 2000013  10.64169
    0.99999996   2    1000022    13
    3.6382267e-08   2    1000023    13

DECAY 1000015  13.289463
    0.52172851   2   -1000024    16
    0.26134128   2    1000023    15
    0.21693021   2    1000022    15

DECAY 2000015  19.663016
    0.71024263   2    1000022    15
    0.14010632   2    1000016   -24
    0.074474612   2    1000015    25
    0.071871248   2    1000015    23
    0.0022017761   2   -1000024    16
    0.0011034138   2    1000023    15

DECAY 1000012  38.029951
    0.58106331   2    1000024    11
    0.29025194   2    1000023    12
    0.12861344   2    1000022    12
    3.782233e-05   2    1000035    12
    2.4790989e-05   2    1000037    11
    8.6990108e-06   2    1000025    12

DECAY 1000014  38.029951
    0.58106331   2    1000024    13
    0.29025194   2    1000023    14
    0.12861344   2    1000022    14
    3.782233e-05   2    1000035    14
    2.4790989e-05   2    1000037    13
    8.6990108e-06   2    1000025    14

DECAY 1000016  13.297039
    0.52570474   2    1000024    15
    0.26252294   2    1000023    16
    0.21177233   2    1000022    16

DECAY 1000024  0.020047413
    0.99126377   2   -1000005    6
    0.0087362343   2    1000022    24

DECAY 1000037  43.514305
    0.23950822   2   -1000005    6
    0.15339035   2    1000024    25
    0.14641308   2    1000024    23
    0.14179992   2    1000023    24
    0.070414198   2    1000024    36
    0.07031158   2    1000023    37
    0.070172109   2    1000024    35
    0.046101404   2    1000022    24
    0.034657504   2    1000022    37
    0.020944853   2    1000016   -15
    0.0053679822   2   -2000015    16
    0.00036960157   2   -1000001    2
    0.00036960118   2   -1000003    4
    8.886199e-05   2    1000002   -1
    8.8861984e-05   2    1000004   -3
    1.8650754e-06   2   -1000015    16

DECAY 1000022 -1


DECAY 1000023  0.020101288
    0.49559176   2    1000005   -5
    0.49559176   2   -1000005    5
    0.0067251724   2    1000022    23
    0.0020913058   2    1000022    25

DECAY 1000025  43.004475
    0.14361103   2    1000024   -24
    0.14361103   2   -1000024    24
    0.13240286   2    1000023    23
    0.1201974   2    1000005   -5
    0.1201974   2   -1000005    5
    0.070748894   2    1000024   -37
    0.070748894   2   -1000024    37
    0.0668568   2    1000023    36
    0.033394492   2    1000022    25
    0.026480598   2    1000022    35
    0.016316631   2    1000022    23
    0.016033265   2    1000023    25
    0.010553979   2    1000015   -15
    0.010553979   2   -1000015    15
    0.0087024667   2    1000022    36
    0.00403571   2    1000023    35
    0.0027031742   2    2000015   -15
    0.0027031742   2   -2000015    15
    1.7596809e-05   2    1000001   -1
    1.7596809e-05   2   -1000001    1
    1.7596809e-05   2    1000003   -3
    1.7596809e-05   2   -1000003    3
    9.8738486e-06   2    1000016   -16
    9.8738486e-06   2   -1000016    16
    7.8618646e-06   2    1000002   -2
    7.8618646e-06   2   -1000002    2
    7.8618561e-06   2    1000004   -4
    7.8618561e-06   2   -1000004    4
    6.6561116e-06   2    2000011   -11
    6.6561116e-06   2   -2000011    11
    6.6561116e-06   2    2000013   -13
    6.6561116e-06   2   -2000013    13

DECAY 1000035  43.243273
    0.14268051   2    1000024   -24
    0.14268051   2   -1000024    24
    0.1384073   2    1000023    25
    0.11930156   2    1000005   -5
    0.11930156   2   -1000005    5
    0.070498688   2    1000024   -37
    0.070498688   2   -1000024    37
    0.066353341   2    1000023    35
    0.031653689   2    1000022    23
    0.026274532   2    1000022    36
    0.016785133   2    1000022    25
    0.015642991   2    1000023    23
    0.010468738   2    1000015   -15
    0.010468738   2   -1000015    15
    0.008636634   2    1000022    35
    0.0040130898   2    1000023    36
    0.002703848   2    2000015   -15
    0.002703848   2   -2000015    15
    0.0001134154   2    1000001   -1
    0.0001134154   2   -1000001    1
    0.0001134154   2    1000003   -3
    0.0001134154   2   -1000003    3
    9.341635e-05   2    1000002   -2
    9.341635e-05   2   -1000002    2
    9.341625e-05   2    1000004   -4
    9.341625e-05   2   -1000004    4
    4.2866312e-05   2    1000016   -16
    4.2866312e-05   2   -1000016    16
    3.3874707e-06   2    2000011   -11
    3.3874707e-06   2   -2000011    11
    3.3874707e-06   2    2000013   -13
    3.3874707e-06   2   -2000013    13

DECAY 25  0.0057942147
    0.6793967   2    5   -5
    0.17664182   2    24   -24
    0.056951467   2    21    21
    0.045884102   2   -15    15
    0.022649756   2    23    23
    0.015143217   2    4   -4
    0.0017298407   2    22    22
    0.0012643539   2    22    23
    0.00017630441   2    3   -3
    0.00016243363   2   -13    13

DECAY 35  19.708236
    0.84849926   2    5   -5
    0.14783281   2   -15    15
    0.0028286331   2    6   -6
    0.00053624678   2   -13    13
    0.00023178127   2    3   -3
    5.2198534e-05   2    21    21
    1.4074649e-05   2    25    25
    1.7826741e-06   2    24   -24
    1.1429619e-06   2    1000005   -1000005
    1.1113217e-06   2    1000022    1000022
    8.8529266e-07   2    23    23
    3.0117289e-08   2    4   -4
    2.3210245e-08   2    23    22
    1.3396843e-08   2    22    22

DECAY 36  19.712453
    0.84839158   2    5   -5
    0.14780713   2   -15    15
    0.0029194429   2    6   -6
    0.00053615012   2   -13    13
    0.00023175459   2    3   -3
    0.00010163573   2    21    21
    1.0393536e-05   2    1000022    1000022
    1.7814862e-06   2    23    25
    5.1588703e-08   2    23    22
    4.6166e-08   2    22    22
    2.9989125e-08   2    4   -4

DECAY 37  11.597617
    0.74577577   2    6   -5
    0.2516322   2   -15    16
    0.0012566039   2    4   -5
    0.00091276132   2   -13    14
    0.00038737175   2    4   -3
    1.9678023e-05   2    2   -3
    1.2565975e-05   2    2   -5
    3.0518146e-06   2    24    25
    6.7247825e-12   2    24    36

DECAY 5 -1


DECAY 15 -1


DECAY 23  2.4952


DECAY 24  2.085
