BLOCK DCINFO
   1   SDECAY/HDECAY
   2   1.3b /3.4

BLOCK SPINFO
   1   SOFTSUSY
   2   3.4.0

BLOCK MODSEL
   1   0

BLOCK SMINPUTS
   1    127.90897
   2    1.1663787e-05
   3    0.1184
   4    91.1876
   5    4.18
   6    173.2
   7    1.777

BLOCK MINPAR
   3    9.34

BLOCK EXTPAR
   0   -1
   1   -889.98
   2    1879.62
   3    1895.72
   11   -3615.59
   12   -1337.52
   13    501.19
   23   -978.55
   26    1738.19
   31    1694.89
   32    1694.89
   33    3838.91
   34    2695.76
   35    2695.76
   36    2087.87
   41    3382.97
   42    3382.97
   43    3744.55
   44    2855.13
   45    2855.13
   46    953.92
   47    1981.71
   48    1981.71
   49    1641.19

BLOCK MASS
   24    80.396835
   25    124.76949
   35    1738.3454
   36    1738.19
   37    1739.8088
   5    4.8187603
   1000001    3424.5207
   2000001    2045.6112
   1000002    3423.7665
   2000002    2895.3127
   1000003    3424.5207
   2000003    2045.6112
   1000004    3423.7665
   2000004    2895.3127
   1000005    1715.4363
   2000005    3769.3897
   1000006    1102.9612
   2000006    3774.2196
   1000011    1710.4829
   2000011    2699.2447
   1000012    1708.3904
   1000013    1710.4829
   2000013    2699.2447
   1000014    1708.3904
   1000015    2091.5451
   2000015    3845.9359
   1000016    3844.8112
   1000021    2074.5904
   1000022   -876.39315
   1000023    999.28278
   1000025   -1013.1202
   1000035    1929.8896
   1000024    1000.3342
   1000037    1930.0583

BLOCK NMIX
   1   1    0.96228698
   1   2    0.0056443588
   1   3   -0.20237248
   1   4    0.18170663
   2   1    0.015253782
   2   2    0.052013434
   2   3    0.70705758
   2   4    0.70507553
   3   1   -0.27160721
   3   2    0.020015047
   3   3   -0.67721925
   3   4    0.6835225
   4   1   -0.00078990367
   4   2    0.99842984
   4   3   -0.022114378
   4   4   -0.051460554

BLOCK UMIX
   1   1    0.031211476
   1   2    0.9995128
   2   1   -0.9995128
   2   2    0.031211476

BLOCK VMIX
   1   1    0.07272219
   1   2   -0.99735224
   2   1   -0.99735224
   2   2   -0.07272219

BLOCK STOPMIX
   1   1    0.039256043
   1   2    0.99922918
   2   1   -0.99922918
   2   2    0.039256043

BLOCK SBOTMIX
   1   1   -0.001499687
   1   2    0.99999887
   2   1   -0.99999887
   2   2   -0.001499687

BLOCK STAUMIX
   1   1   -0.0015910732
   1   2    0.99999873
   2   1   -0.99999873
   2   2   -0.0015910732

BLOCK ALPHA
      -0.11217697

BLOCK HMIX Q=  1891.235
   1   -990.6044
   2    8.9514162
   3    243.1276
   4    2638740.3

BLOCK GAUGE Q=  1891.235
   1    0.36365862
   2    0.63608418
   3    1.0277628

BLOCK AU Q=  1891.235
   1   1    0
   2   2    0
   3   3   -3615.59

BLOCK AD Q=  1891.235
   1   1    0
   2   2    0
   3   3   -1337.52

BLOCK AE Q=  1891.235
   1   1    0
   2   2    0
   3   3    501.19

BLOCK YU Q=  1891.235
   1   1    0
   2   2    0
   3   3    0.83534658

BLOCK YD Q=  1891.235
   1   1    0
   2   2    0
   3   3    0.12352749

BLOCK YE Q=  1891.235
   1   1    0
   2   2    0
   3   3    0.091556975

BLOCK MSOFT Q=  1891.235
   1   -889.98
   2    1879.62
   3    1895.72
   21    1929288.7
   22   -1120348.4
   31    1694.89
   32    1694.89
   33    3838.91
   34    2695.76
   35    2695.76
   36    2087.87
   41    3382.97
   42    3382.97
   43    3744.55
   44    2855.13
   45    2855.13
   46    953.91998
   47    1981.71
   48    1981.71
   49    1641.19

BLOCK HIGGSBOUNDSINPUTHIGGSCOUPLINGSFERMIONS
       0, 80.127852,3,36,15,15

BLOCK HIGGSBOUNDSINPUTHIGGSCOUPLINGSBOSONS
       0,4,36,21,21,23

DECAY 6  1.4246455
    1   2    5    24

DECAY 1000021  26.233441
    0.41515344   2    1000006   -6
    0.41515344   2   -1000006    6
    0.083772362   2    1000005   -5
    0.083772362   2   -1000005    5
    0.00053710108   2    2000001   -1
    0.00053710108   2   -2000001    1
    0.00053710108   2    2000003   -3
    0.00053710108   2   -2000003    3

DECAY 1000006  0.58064114
    0.82762016   2    1000024    5
    0.17237984   2    1000022    6

DECAY 2000006  218.08968
    0.46554757   2    1000021    6
    0.102673   2    1000023    6
    0.094874069   2    1000025    6
    0.092970613   2    1000006    23
    0.092840354   2    1000006    25
    0.076021199   2    1000037    5
    0.038595251   2    1000035    6
    0.010509913   2    1000006    36
    0.010495465   2    1000006    35
    0.010406291   2    1000022    6
    0.0045849941   2    1000024    5
    0.00030956609   2    1000005    37
    0.00017171162   2    1000005    24

DECAY 1000005  0.98061564
    0.52881606   2    1000022    5
    0.21959289   2   -1000024    6
    0.1355649   2    1000025    5
    0.11602397   2    1000023    5
    2.1820385e-06   2    1000006   -24

DECAY 2000005  217.74022
    0.47139674   2    1000021    5
    0.20541644   2   -1000024    6
    0.18011394   2    1000006   -24
    0.076802086   2   -1000037    6
    0.037826323   2    1000035    5
    0.02098565   2    1000006   -37
    0.0024154575   2    1000023    5
    0.002390525   2    1000025    5
    0.0021556949   2    1000022    5
    0.00015358523   2    1000005    35
    0.00015347592   2    1000005    36
    0.00010184526   2    1000005    25
    8.8246101e-05   2    1000005    23

DECAY 1000002  117.47059
    0.83725039   2    1000021    2
    0.10516133   2    1000037    1
    0.05268695   2    1000035    2
    0.0035221721   2    1000022    2
    0.0009993163   2    1000024    1
    0.00028508501   2    1000023    2
    9.4763355e-05   2    1000025    2

DECAY 2000002  54.500551
    0.90218334   2    1000021    2
    0.091021401   2    1000022    2
    0.0067737096   2    1000025    2
    2.1524849e-05   2    1000023    2
    2.322798e-08   2    1000035    2

DECAY 1000001  117.50706
    0.83760288   2    1000021    1
    0.10565116   2   -1000037    2
    0.05273556   2    1000035    1
    0.0031139738   2    1000022    1
    0.00048442678   2    1000025    1
    0.00022792061   2    1000023    1
    0.0001840755   2   -1000024    2

DECAY 2000001  0.76473694
    0.93597901   2    1000022    1
    0.063816166   2    1000025    1
    0.00020480947   2    1000023    1
    1.2252943e-08   2    1000035    1

DECAY 1000004  96.586858
    0.79553052   2    1000021    4
    0.13209483   2    1000037    3
    0.066180973   2    1000035    4
    0.0044515297   2    1000022    4
    0.0012623347   2    1000024    3
    0.00036012036   2    1000023    4
    0.00011969835   2    1000025    4

DECAY 2000004  43.973264
    0.87356853   2    1000021    4
    0.1176557   2    1000022    4
    0.0087479451   2    1000025    4
    2.7800988e-05   2    1000023    4
    2.9669095e-08   2    1000035    4

DECAY 1000003  96.605883
    0.79595659   2    1000021    3
    0.13272523   2   -1000037    4
    0.066249674   2    1000035    3
    0.003936056   2    1000022    3
    0.00061196088   2    1000025    3
    0.00028794175   2    1000023    3
    0.00023254927   2   -1000024    4

DECAY 2000003  0.78865657
    0.93607394   2    1000022    3
    0.063721507   2    1000025    3
    0.00020454256   2    1000023    3
    1.1436918e-08   2    1000035    3

DECAY 1000011  1.2265092
    0.94300252   2    1000022    11
    0.04328023   2    1000025    11
    0.0089829017   2    1000023    11
    0.0047343446   2   -1000024    12

DECAY 2000011  11.301261
    0.93135034   2    1000022    11
    0.06843171   2    1000025    11
    0.00021776364   2    1000023    11
    1.873681e-07   2    1000035    11

DECAY 1000013  1.2265092
    0.94300252   2    1000022    13
    0.043280229   2    1000025    13
    0.0089829017   2    1000023    13
    0.0047343447   2   -1000024    14

DECAY 2000013  11.301261
    0.93135034   2    1000022    13
    0.06843171   2    1000025    13
    0.00021776364   2    1000023    13
    1.873681e-07   2    1000035    13

DECAY 1000015  7.8186042
    0.88715966   2    1000022    15
    0.072823411   2    1000025    15
    0.02652894   2   -1000024    16
    0.013487375   2    1000023    15
    3.9972726e-07   2   -1000037    16
    2.1962081e-07   2    1000035    15

DECAY 2000015  31.149958
    0.5557335   2   -1000037    16
    0.27705067   2    1000035    15
    0.13870344   2    1000022    15
    0.016080861   2    1000025    15
    0.010537799   2    1000023    15
    0.0008292643   2   -1000024    16
    0.00052918374   2    1000015    25
    0.00051622312   2    1000015    23
    9.5723684e-06   2    1000015    36
    9.4793772e-06   2    1000015    35

DECAY 1000012  1.2325918
    0.89794814   2    1000022    12
    0.072048396   2    1000025    12
    0.025478729   2    1000024    11
    0.004524737   2    1000023    12

DECAY 1000014  1.2325918
    0.89794814   2    1000022    14
    0.072048396   2    1000025    14
    0.025478729   2    1000024    13
    0.004524737   2    1000023    14

DECAY 1000016  31.155529
    0.55285618   2    1000037    15
    0.2773052   2    1000035    16
    0.13235345   2    1000022    16
    0.02244178   2    1000024    15
    0.013216361   2    1000025    16
    0.0010001941   2   -1000015   -24
    0.00080937158   2    1000023    16
    1.7468602e-05   2   -1000015   -37

DECAY 1000024  0.12857145
    1   2    1000022    24

DECAY 1000037  12.584404
    0.22883086   2    1000024    25
    0.22159207   2    1000024    23
    0.21708853   2    1000023    24
    0.19493587   2    1000025    24
    0.02878197   2    1000012   -11
    0.02878197   2    1000014   -13
    0.028396286   2   -1000011    12
    0.028396286   2   -1000013    14
    0.020535445   2    1000022    24
    0.0026596218   2    1000006   -5
    1.0963002e-06   2   -1000005    6

DECAY 1000022 -1


DECAY 1000023  0.087635293
    1   2    1000022    23

DECAY 1000025  0.10349066
    0.98808043   2    1000022    25
    0.011919573   2    1000022    23

DECAY 1000035  12.547583
    0.21607426   2    1000024   -24
    0.21607426   2   -1000024    24
    0.19741087   2    1000023    25
    0.17352097   2    1000025    23
    0.031138275   2    1000023    23
    0.027329177   2    1000025    25
    0.017416986   2    1000022    23
    0.014457935   2    1000012   -12
    0.014457935   2   -1000012    12
    0.014457935   2    1000014   -14
    0.014457935   2   -1000014    14
    0.014176717   2    1000011   -11
    0.014176717   2   -1000011    11
    0.014176717   2    1000013   -13
    0.014176717   2   -1000013    13
    0.0037710316   2    1000022    25
    0.0013619212   2    1000006   -6
    0.0013619212   2   -1000006    6
    8.6245938e-07   2    1000005   -5
    8.6245938e-07   2   -1000005    5

DECAY 25  0.0039842106
    0.59710758   2    5   -5
    0.20547973   2    24   -24
    0.079829216   2    21    21
    0.065905113   2   -15    15
    0.025580526   2    23    23
    0.021731603   2    4   -4
    0.0023420969   2    22    22
    0.0015360583   2    22    23
    0.00025477704   2    3   -3
    0.00023330256   2   -13    13

DECAY 35  2.9212145
    0.57662534   2    5   -5
    0.32040707   2    6   -6
    0.099835808   2   -15    15
    0.0015679126   2    25    25
    0.00048904459   2    24   -24
    0.00035694855   2   -13    13
    0.00024806109   2    3   -3
    0.00024335761   2    23    23
    0.00022174784   2    21    21
    3.3397969e-06   2    4   -4
    1.0592892e-06   2    22    22
    3.1551897e-07   2    23    22

DECAY 36  2.9288099
    0.575402   2    5   -5
    0.32332597   2    6   -6
    0.099588954   2   -15    15
    0.00058312248   2    21    21
    0.00049060176   2    23    25
    0.00035606407   2   -13    13
    0.00024766769   2    3   -3
    3.3065659e-06   2    4   -4
    1.716297e-06   2    22    22
    5.9134129e-07   2    23    22

DECAY 37  2.9087135
    0.89752539   2    6   -5
    0.10037041   2   -15    16
    0.00097846902   2    4   -5
    0.00049632146   2    24    25
    0.00035885803   2   -13    14
    0.00024831493   2    4   -3
    1.2453602e-05   2    2   -3
    9.7846041e-06   2    2   -5
    5.0253243e-12   2    24    36

DECAY 5 -1


DECAY 15 -1


DECAY 23  2.4952


DECAY 24  2.085
