BLOCK DCINFO
   1   SDECAY/HDECAY
   2   1.3b /3.4

BLOCK SPINFO
   1   SOFTSUSY
   2   3.4.0

BLOCK MODSEL
   1   0

BLOCK SMINPUTS
   1    127.90897
   2    1.1663787e-05
   3    0.1184
   4    91.1876
   5    4.18
   6    173.2
   7    1.777

BLOCK MINPAR
   3    17.52

BLOCK EXTPAR
   0   -1
   1    3995.28
   2   -2038.34
   3    2613.71
   11   -4086.34
   12    3272.57
   13    42.39
   23   -377.81
   26    2426.61
   31    1951.35
   32    1951.35
   33    1918.26
   34    2203.53
   35    2203.53
   36    1192.66
   41    2641.91
   42    2641.91
   43    3262.02
   44    3585.67
   45    3585.67
   46    2893.34
   47    2739.64
   48    2739.64
   49    782.77

BLOCK MASS
   24    80.384247
   25    126.45197
   35    2426.6473
   36    2426.61
   37    2428.1232
   5    4.8187603
   1000001    2759.7938
   2000001    2839.6674
   1000002    2758.8085
   2000002    3658.8061
   1000003    2759.7938
   2000003    2839.6674
   1000004    2758.8085
   2000004    3658.8061
   1000005    985.24509
   2000005    3306.3804
   1000006    2896.7796
   2000006    3328.6106
   1000011    1975.6055
   2000011    2219.3331
   1000012    1973.7044
   1000013    1975.6055
   2000013    2219.3331
   1000014    1973.7044
   1000015    1211.1809
   2000015    1941.6935
   1000016    1939.7485
   1000021    2805.4278
   1000022   -392.05302
   1000023    394.45049
   1000025   -2069.7147
   1000035    3936.0745
   1000024    393.11741
   1000037    2069.8816

BLOCK NMIX
   1   1    0.0075748562
   1   2    0.034714762
   1   3    0.70796244
   1   4   -0.70535572
   2   1   -0.0082499801
   2   2   -0.021211477
   2   3    0.70618461
   2   4    0.70766186
   3   1   -0.00029322158
   3   2    0.99917213
   3   3   -0.0096054146
   3   4    0.039531159
   4   1    0.99993723
   4   2   -0.00014498386
   4   3    0.00046050773
   4   4    0.011193458

BLOCK UMIX
   1   1    0.013588891
   1   2    0.99990767
   2   1   -0.99990767
   2   2    0.013588891

BLOCK VMIX
   1   1   -0.055931401
   1   2   -0.99843461
   2   1    0.99843461
   2   2   -0.055931401

BLOCK STOPMIX
   1   1    0.22089396
   1   2    0.97529783
   2   1   -0.97529783
   2   2    0.22089396

BLOCK SBOTMIX
   1   1   -0.0022784068
   1   2    0.9999974
   2   1   -0.9999974
   2   2   -0.0022784068

BLOCK STAUMIX
   1   1   -0.0051110374
   1   2    0.99998694
   2   1   -0.99998694
   2   2   -0.0051110374

BLOCK ALPHA
      -0.059820054

BLOCK HMIX Q=  3072.269
   1   -383.62524
   2    16.76763
   3    242.48048
   4    5979240.7

BLOCK GAUGE Q=  3072.269
   1    0.36529202
   2    0.63805641
   3    1.0118499

BLOCK AU Q=  3072.269
   1   1    0
   2   2    0
   3   3   -4086.34

BLOCK AD Q=  3072.269
   1   1    0
   2   2    0
   3   3    3272.57

BLOCK AE Q=  3072.269
   1   1    0
   2   2    0
   3   3    42.390001

BLOCK YU Q=  3072.269
   1   1    0
   2   2    0
   3   3    0.81743786

BLOCK YD Q=  3072.269
   1   1    0
   2   2    0
   3   3    0.23376483

BLOCK YE Q=  3072.269
   1   1    0
   2   2    0
   3   3    0.17350006

BLOCK MSOFT Q=  3072.269
   1    3995.28
   2   -2038.34
   3    2613.71
   21    5678558.8
   22    39725.32
   31    1951.35
   32    1951.35
   33    1918.26
   34    2203.53
   35    2203.53
   36    1192.66
   41    2641.91
   42    2641.91
   43    3262.02
   44    3585.67
   45    3585.67
   46    2893.34
   47    2739.64
   48    2739.64
   49    782.76997

BLOCK HIGGSBOUNDSINPUTHIGGSCOUPLINGSFERMIONS
       0, 281.15341,3,36,15,15

BLOCK HIGGSBOUNDSINPUTHIGGSCOUPLINGSBOSONS
       0,4,36,21,21,23

DECAY 6  1.434054
    1   2    5    24

DECAY 1000021  43.124825
    0.4972555   2    1000005   -5
    0.4972555   2   -1000005    5
    0.00070076648   2    1000002   -2
    0.00070076648   2   -1000002    2
    0.00070034956   2    1000004   -4
    0.00070034956   2   -1000004    4
    0.00067169385   2    1000001   -1
    0.00067169385   2   -1000001    1
    0.00067169385   2    1000003   -3
    0.00067169385   2   -1000003    3

DECAY 1000006  71.825564
    0.48226168   2    1000024    5
    0.25440158   2    1000022    6
    0.2534224   2    1000023    6
    0.0066002848   2    1000037    5
    0.0032770305   2    1000025    6
    3.7031398e-05   2    1000005    24

DECAY 2000006  89.37696
    0.24247023   2    1000023    6
    0.23938142   2    1000022    6
    0.13769721   2    1000021    6
    0.10412177   2    1000037    5
    0.082575505   2    1000006    23
    0.070741744   2    1000024    5
    0.069586916   2    1000006    25
    0.052457548   2    1000025    6
    0.00096765961   2    1000005    24

DECAY 1000005  1.4471339
    0.47685157   2   -1000024    6
    0.26290448   2    1000022    5
    0.26024395   2    1000023    5

DECAY 2000005  88.013548
    0.48105106   2   -1000024    6
    0.16004782   2    1000021    5
    0.14861415   2    1000006   -24
    0.11311134   2   -1000037    6
    0.056182938   2    1000025    5
    0.020053027   2    1000022    5
    0.019851639   2    1000023    5
    0.00056808885   2    1000005    25
    0.00051994405   2    1000005    23

DECAY 1000002  6.3798683
    0.65752266   2    1000037    1
    0.32934504   2    1000025    2
    0.010164361   2    1000024    1
    0.0021247005   2    1000022    2
    0.00084323964   2    1000023    2

DECAY 2000002  47.25624
    0.99997861   2    1000021    2
    1.1597866e-05   2    1000023    2
    9.779998e-06   2    1000022    2
    7.0093125e-09   2    1000025    2

DECAY 1000001  6.3415569
    0.66484803   2   -1000037    2
    0.33210793   2    1000025    1
    0.0018099721   2    1000022    1
    0.00063027159   2    1000023    1
    0.00060379629   2   -1000024    2

DECAY 2000001  0.48323689
    0.58302668   3    1    5   -1000005
    0.41561397   3    1   -5    1000005
    0.00021769232   2    1000023    1
    0.00018360596   2    1000022    1
    0.00014478406   3    1    24   -1000024
    0.00011654325   3    1    15   -1000015
    5.9169738e-05   3    1    2   -1000002
    5.9018673e-05   3    1   -4    1000004
    5.8679295e-05   3    1    4   -1000004
    5.8617214e-05   3    1   -2    1000002
    5.5881496e-05   3    1   -3    1000003
    5.5571089e-05   3    1   -1    1000001
    5.5364151e-05   3    1    1   -1000001
    5.5246196e-05   3    1    3   -1000003
    4.9170501e-05   3    1    23    1000022
    4.76433e-05   3    1    25    1000023
    3.2476825e-05   3    1   -15    1000015
    3.2108476e-05   3    1    23    1000023
    3.1245545e-05   3    1    25    1000022
    2.2903881e-05   3    1   -24    1000024
    2.4706309e-06   3    1   -16    1000016
    2.4395902e-06   3    1   -15    2000015
    2.0954526e-06   3    1   -12    1000012
    2.090693e-06   3    1   -14    1000014
    2.0904861e-06   3    1   -11    1000011
    2.0483329e-06   3    1   -13    1000013
    1.890998e-06   3    1    11   -2000011
    1.8899427e-06   3    1    13   -2000013
    9.3910463e-07   3    1    16   -1000016
    9.2428788e-07   3    1    15   -2000015
    8.0409838e-07   3    1    13   -1000013
    7.9366872e-07   3    1   -11    2000011
    7.8789515e-07   3    1    14   -1000014
    7.8628103e-07   3    1   -13    2000013
    7.84729e-07   3    1    11   -1000011
    7.813973e-07   3    1    12   -1000012
    5.2301471e-09   3    1    24   -1000037
    2.8507757e-09   3    1    25    1000025
    1.3656242e-09   3    1   -24    1000037
    3.7778573e-10   3    1    23    1000025
    1.3726394e-11   3    1    36    1000022
    1.1589761e-11   3    1   -37    1000024
    9.005935e-12   3    1    35    1000023
    6.3962418e-12   3    1    37   -1000024
    3.7797197e-13   3    1    35    1000022
    2.4102051e-13   3    1    36    1000023

DECAY 1000004  6.4733785
    0.65735007   2    1000037    3
    0.32925954   2    1000025    4
    0.010364111   2    1000024    3
    0.0021664675   2    1000022    4
    0.00085980357   2    1000023    4

DECAY 2000004  33.747618
    0.99996864   2    1000021    4
    1.7010048e-05   2    1000023    4
    1.4344067e-05   2    1000022    4
    1.0171174e-08   2    1000025    4

DECAY 1000003  6.4337738
    0.66480578   2   -1000037    4
    0.33208979   2    1000025    3
    0.001845891   2    1000022    3
    0.00064277011   2    1000023    3
    0.00061577449   2   -1000024    4

DECAY 2000003  0.48331534
    0.58293205   3    3    5   -1000005
    0.41569134   3    3   -5    1000005
    0.000226891   2    1000023    3
    0.00019136713   2    1000022    3
    0.00014476056   3    3    24   -1000024
    0.00011652434   3    3    15   -1000015
    5.9199445e-05   3    3    2   -1000002
    5.9035991e-05   3    3   -4    1000004
    5.890771e-05   3    3   -2    1000002
    5.8601492e-05   3    3    4   -1000004
    5.596967e-05   3    3   -3    1000003
    5.5680004e-05   3    3    1   -1000001
    5.5562068e-05   3    3   -1    1000001
    5.5392407e-05   3    3    3   -1000003
    4.916252e-05   3    3    23    1000022
    4.7635566e-05   3    3    25    1000023
    3.2471554e-05   3    3   -15    1000015
    3.2103264e-05   3    3    23    1000023
    3.0810113e-05   3    3    25    1000022
    2.2943613e-05   3    3   -24    1000024
    2.4702299e-06   3    3   -16    1000016
    2.4416771e-06   3    3   -15    2000015
    2.0951125e-06   3    3   -12    1000012
    2.0903537e-06   3    3   -14    1000014
    2.0901468e-06   3    3   -11    1000011
    2.0480004e-06   3    3   -13    1000013
    1.8906911e-06   3    3    11   -2000011
    1.8896359e-06   3    3    13   -2000013
    9.3251748e-07   3    3    16   -1000016
    9.2413785e-07   3    3    15   -2000015
    7.9014666e-07   3    3   -11    2000011
    7.8776726e-07   3    3    14   -1000014
    7.8631893e-07   3    3    13   -1000013
    7.861534e-07   3    3   -13    2000013
    7.8460162e-07   3    3    11   -1000011
    7.8127046e-07   3    3    12   -1000012
    5.2305396e-09   3    3    24   -1000037
    2.850313e-09   3    3    25    1000025
    1.3655681e-09   3    3   -24    1000037
    3.7772441e-10   3    3    23    1000025
    1.3957761e-11   3    3    36    1000022
    1.1423598e-11   3    3   -37    1000024
    8.9993005e-12   3    3    35    1000023
    6.40079e-12   3    3    37   -1000024
    3.7464153e-13   3    3    35    1000022
    2.3798127e-13   3    3    36    1000023

DECAY 1000011  0.018944946
    0.5942936   2    1000022    11
    0.26184917   2    1000023    11
    0.14385723   2   -1000024    12

DECAY 2000011  0.0020232797
    0.37173379   2    1000023    11
    0.31363052   2    1000022    11
    0.11664724   3    11    24   -1000024
    0.035651522   3    11    25    1000023
    0.035545259   3    11    23    1000022
    0.033069575   3    11    15   -1000015
    0.026924107   3    11    5   -1000005
    0.02281642   3    11    23    1000023
    0.022804558   3    11    25    1000022
    0.010216086   3    11   -24    1000024
    0.0063757868   3    11   -15    1000015
    0.0044740231   3    11   -5    1000005
    2.1443896e-05   3    11   -16    1000016
    2.0355564e-05   3    11   -15    2000015
    1.153968e-05   3    11   -12    1000012
    1.1479876e-05   3    11   -14    1000014
    1.0837849e-05   3    11   -11    1000011
    1.0728621e-05   3    11   -13    1000013
    6.0337679e-06   3    11    16   -1000016
    5.8444713e-06   3    11    15   -2000015
    3.2167574e-06   3    11    14   -1000014
    3.2137425e-06   3    11    12   -1000012
    3.2098874e-06   3    11    11   -1000011
    3.1987669e-06   3    11    13   -1000013
    1.3719309e-09   3    11    24   -1000037
    9.5943235e-10   3    11   -24    1000037
    1.6113442e-10   3    11    23    1000025
    8.1521107e-11   3    11    25    1000025

DECAY 1000013  0.018944946
    0.5942936   2    1000022    13
    0.26184917   2    1000023    13
    0.14385723   2   -1000024    14

DECAY 2000013  0.0020233705
    0.3717171   2    1000023    13
    0.31361645   2    1000022    13
    0.11664201   3    13    24   -1000024
    0.035649922   3    13    25    1000023
    0.035543663   3    13    23    1000022
    0.033068091   3    13    15   -1000015
    0.026923393   3    13    5   -1000005
    0.022815396   3    13    23    1000023
    0.022803535   3    13    25    1000022
    0.010205743   3    13   -24    1000024
    0.0064298654   3    13   -15    1000015
    0.0044738223   3    13   -5    1000005
    2.1442934e-05   3    13   -16    1000016
    2.0354651e-05   3    13   -15    2000015
    1.1539162e-05   3    13   -12    1000012
    1.1467994e-05   3    13   -14    1000014
    1.0847741e-05   3    13   -11    1000011
    1.0728139e-05   3    13   -13    1000013
    6.0107627e-06   3    13    16   -1000016
    5.8066478e-06   3    13    15   -2000015
    3.2166131e-06   3    13    14   -1000014
    3.2097927e-06   3    13    13   -1000013
    3.1986727e-06   3    13    11   -1000011
    3.1916547e-06   3    13    12   -1000012
    1.3718199e-09   3    13    24   -1000037
    9.5948814e-10   3    13   -24    1000037
    1.6113213e-10   3    13    23    1000025
    8.1883174e-11   3    13    25    1000025

DECAY 1000015  1.1619836
    0.49977778   2   -1000024    16
    0.2512914   2    1000022    15
    0.24893081   2    1000023    15

DECAY 2000015  1.1144677
    0.49048139   2    1000022    15
    0.48289004   2    1000023    15
    0.012358721   2    1000015    25
    0.012338508   2    1000015    23
    0.0019313426   2   -1000024    16

DECAY 1000012  0.054927422
    0.839638   2    1000024    11
    0.12389847   2    1000022    12
    0.036463533   2    1000023    12

DECAY 1000014  0.054927421
    0.839638   2    1000024    13
    0.12389847   2    1000022    14
    0.036463533   2    1000023    14

DECAY 1000016  1.1482583
    0.96930142   2    1000024    15
    0.023181491   2   -1000015   -24
    0.0058078831   2    1000022    16
    0.0017092065   2    1000023    16

DECAY 1000024  9.0910666e-13
    0.59999959   3    1000022    2   -1
    0.2000002   3    1000022   -11    12
    0.2000002   3    1000022   -13    14

DECAY 1000037  17.29977
    0.24961192   2    1000024    25
    0.24490032   2    1000024    23
    0.23846826   2    1000023    24
    0.23723341   2    1000022    24
    0.0071628778   2    1000016   -15
    0.0069789689   2   -2000015    16
    0.0039797726   2    1000012   -11
    0.0039797726   2    1000014   -13
    0.00383889   2   -1000011    12
    0.00383889   2   -1000013    14
    6.4923083e-06   2   -1000005    6
    4.1984674e-07   2   -1000015    16

DECAY 1000022 -1


DECAY 1000023  7.7866956e-11
    0.21191873   2    1000022    22
    0.15541753   3    1000022   -1    1
    0.15541753   3    1000022   -3    3
    0.1196967   3    1000022   -2    2
    0.071453889   3    1000022   -16    16
    0.071453884   3    1000022   -12    12
    0.071453884   3    1000022   -14    14
    0.035732408   3    1000022   -11    11
    0.035732408   3    1000022   -13    13
    0.021516913   3    1000024   -2    1
    0.021516913   3   -1000024   -1    2
    0.0071723051   3    1000024   -12    11
    0.0071723051   3   -1000024    12   -11
    0.0071723051   3    1000024   -14    13
    0.0071723051   3   -1000024    14   -13

DECAY 1000025  17.292232
    0.23829708   2    1000024   -24
    0.23829708   2   -1000024    24
    0.18208237   2    1000022    25
    0.17880466   2    1000023    23
    0.066613314   2    1000023    25
    0.066192191   2    1000022    23
    0.0035815057   2    1000016   -16
    0.0035815057   2   -1000016    16
    0.0034755496   2    2000015   -15
    0.0034755496   2   -2000015    15
    0.0019877672   2    1000012   -12
    0.0019877672   2   -1000012    12
    0.0019877672   2    1000014   -14
    0.0019877672   2   -1000014    14
    0.0019103374   2    1000011   -11
    0.0019103374   2   -1000011    11
    0.0019103374   2    1000013   -13
    0.0019103374   2   -1000013    13
    3.1736178e-06   2    1000005   -5
    3.1736178e-06   2   -1000005    5
    2.1974509e-07   2    1000015   -15
    2.1974509e-07   2   -1000015    15

DECAY 1000035  85.770746
    0.099832263   2    1000015   -15
    0.099832263   2   -1000015    15
    0.056669622   2    2000011   -11
    0.056669622   2   -2000011    11
    0.056669622   2    2000013   -13
    0.056669622   2   -2000013    13
    0.035674044   2    1000005   -5
    0.035674044   2   -1000005    5
    0.030950222   2    1000006   -6
    0.030950222   2   -1000006    6
    0.027102611   2    1000024   -24
    0.027102611   2   -1000024    24
    0.017465748   2    1000016   -16
    0.017465748   2   -1000016    16
    0.017426594   2    2000015   -15
    0.017426594   2   -2000015    15
    0.017072266   2    1000012   -12
    0.017072266   2   -1000012    12
    0.017072266   2    1000014   -14
    0.017072266   2   -1000014    14
    0.017032904   2    1000011   -11
    0.017032904   2   -1000011    11
    0.017032904   2    1000013   -13
    0.017032904   2   -1000013    13
    0.016090365   2    1000023    25
    0.015074614   2    1000022    23
    0.013614886   2    1000022    25
    0.012872056   2    1000023    23
    0.011863728   2    1000024   -37
    0.011863728   2   -1000024    37
    0.0091050144   2    2000001   -1
    0.0091050144   2   -2000001    1
    0.0091050144   2    2000003   -3
    0.0091050144   2   -2000003    3
    0.0084604529   2    1000022    36
    0.0084371324   2    1000023    35
    0.0034611263   2    1000022    35
    0.0034335407   2    1000023    36
    0.003059094   2    2000002   -2
    0.003059094   2   -2000002    2
    0.0030590476   2    2000004   -4
    0.0030590476   2   -2000004    4
    0.0025582755   2    1000001   -1
    0.0025582755   2   -1000001    1
    0.0025582755   2    1000003   -3
    0.0025582755   2   -1000003    3
    0.0025539868   2    1000002   -2
    0.0025539868   2   -1000002    2
    0.0025539852   2    1000004   -4
    0.0025539852   2   -1000004    4
    0.0019510016   2    2000006   -6
    0.0019510016   2   -2000006    6
    0.00088101323   2    2000005   -5
    0.00088101323   2   -2000005    5
    1.8704582e-05   2    1000037   -24
    1.8704582e-05   2   -1000037    24
    1.7331883e-05   2    1000025    23
    2.0847466e-06   2    1000025    25

DECAY 25  0.0041488911
    0.56378524   2    5   -5
    0.23713654   2    24   -24
    0.079552524   2    21    21
    0.063620186   2   -15    15
    0.030241186   2    23    23
    0.021098439   2    4   -4
    0.0023851791   2    22    22
    0.0017102215   2    22    23
    0.00024529615   2    3   -3
    0.00022518693   2   -13    13

DECAY 35  9.6932604
    0.81218294   2    5   -5
    0.14314588   2   -15    15
    0.037038915   2    6   -6
    0.0054417495   2    1000024   -1000024
    0.00074695432   2    1000022    1000022
    0.00050667957   2   -13    13
    0.00034583594   2    3   -3
    0.00028275696   2    1000023    1000023
    0.00013864261   2    1000022    1000023
    0.00010369222   2    25    25
    2.9982969e-05   2    24   -24
    1.4948025e-05   2    23    23
    1.1957975e-05   2    21    21
    8.3796186e-06   2    1000005   -1000005
    3.791839e-07   2    4   -4
    1.9521547e-07   2    22    22
    9.6673207e-08   2    1000015   -1000015
    1.9372295e-08   2    23    22

DECAY 36  9.707389
    0.81109603   2    5   -5
    0.14293999   2   -15    15
    0.037180452   2    6   -6
    0.0064337892   2    1000024   -1000024
    0.0010571416   2    1000022    1000022
    0.00050594972   2   -13    13
    0.00034542476   2    3   -3
    0.00024839724   2    1000023    1000023
    0.00010782867   2    21    21
    5.3869798e-05   2    1000022    1000023
    3.0269411e-05   2    23    25
    3.8123355e-07   2    22    22
    3.7891462e-07   2    4   -4
    9.5699258e-08   2    23    22

DECAY 37  9.8657275
    0.85496113   2    6   -5
    0.1407336   2   -15    16
    0.0014425928   2    1000024    1000023
    0.0013801365   2    4   -5
    0.00058890071   2    1000024    1000022
    0.00049813999   2   -13    14
    0.00033483718   2    4   -3
    2.9868246e-05   2    24    25
    1.6993301e-05   2    2   -3
    1.3801335e-05   2    2   -5
    1.057685e-12   2    24    36

DECAY 5 -1


DECAY 15 -1


DECAY 23  2.4952


DECAY 24  2.085
