BLOCK DCINFO
   1   SDECAY/HDECAY
   2   1.3b /3.4

BLOCK SPINFO
   1   SOFTSUSY
   2   3.4.0

BLOCK MODSEL
   1   0

BLOCK SMINPUTS
   1    127.90897
   2    1.1663787e-05
   3    0.1184
   4    91.1876
   5    4.18
   6    173.2
   7    1.777

BLOCK MINPAR
   3    51.65

BLOCK EXTPAR
   0   -1
   1   -1841.78
   2   -486.22
   3    2197.79
   11   -3109.75
   12    177.65
   13    3552.35
   23    332.97
   26    1704.63
   31    1019.76
   32    1019.76
   33    3793.84
   34    2927.7
   35    2927.7
   36    3954.03
   41    3970.57
   42    3970.57
   43    3545.68
   44    3674.94
   45    3674.94
   46    912.96
   47    1472.95
   48    1472.95
   49    2925.42

BLOCK MASS
   24    80.374457
   25    126.0604
   35    1704.6323
   36    1704.63
   37    1706.8663
   5    4.8187603
   1000001    4008.8262
   2000001    1548.5375
   1000002    4008.178
   2000002    3708.0518
   1000003    4008.8262
   2000003    1548.5375
   1000004    4008.178
   2000004    3708.0518
   1000005    2960.1024
   2000005    3568.8933
   1000006    1026.2518
   2000006    3573.5933
   1000011    1025.0545
   2000011    2932.2095
   1000012    1021.6627
   1000013    1025.0545
   2000013    2932.2095
   1000014    1021.6627
   1000015    3802.2706
   2000015    3959.1045
   1000016    3801.1843
   1000021    2373.9357
   1000022   -332.67148
   1000023    352.58833
   1000025   -535.31513
   1000035   -1837.278
   1000024    336.76187
   1000037    535.92047

BLOCK NMIX
   1   1    0.019581399
   1   2   -0.27545165
   1   3    0.69603628
   1   4    0.66277934
   2   1    0.014946963
   2   2   -0.065586397
   2   3   -0.7017389
   2   4    0.70925139
   3   1    0.0082667137
   3   2    0.95907372
   3   3    0.15191009
   3   4    0.23881497
   4   1    0.99966235
   4   2   -0.0015548667
   4   3   -0.0043977811
   4   4   -0.025562147

BLOCK UMIX
   1   1   -0.21934245
   1   2    0.97564793
   2   1   -0.97564793
   2   2   -0.21934245

BLOCK VMIX
   1   1    0.34461296
   1   2    0.93874486
   2   1    0.93874486
   2   2   -0.34461296

BLOCK STOPMIX
   1   1    0.038392848
   1   2    0.99926272
   2   1   -0.99926272
   2   2    0.038392848

BLOCK SBOTMIX
   1   1    0.010225815
   1   2    0.99994772
   2   1   -0.99994772
   2   2    0.010225815

BLOCK STAUMIX
   1   1    0.99979787
   1   2    0.020105252
   2   1   -0.020105252
   2   2    0.99979787

BLOCK ALPHA
      -0.019616111

BLOCK HMIX Q=  1801.61
   1    339.96453
   2    51.286978
   3    242.3123
   4    2979486.3

BLOCK GAUGE Q=  1801.61
   1    0.36349628
   2    0.63969693
   3    1.0248816

BLOCK AU Q=  1801.61
   1   1    0
   2   2    0
   3   3   -3109.75

BLOCK AD Q=  1801.61
   1   1    0
   2   2    0
   3   3    177.65

BLOCK AE Q=  1801.61
   1   1    0
   2   2    0
   3   3    3552.35

BLOCK YU Q=  1801.61
   1   1    0
   2   2    0
   3   3    0.83052945

BLOCK YD Q=  1801.61
   1   1    0
   2   2    0
   3   3    0.69566422

BLOCK YE Q=  1801.61
   1   1    0
   2   2    0
   3   3    0.52030678

BLOCK MSOFT Q=  1801.61
   1   -1841.78
   2   -486.22
   3    2197.79
   21    2753399.6
   22   -237065.7
   31    1019.76
   32    1019.76
   33    3793.84
   34    2927.7
   35    2927.7
   36    3954.03
   41    3970.57
   42    3970.57
   43    3545.68
   44    3674.94
   45    3674.94
   46    912.95997
   47    1472.95
   48    1472.95
   49    2925.42

BLOCK HIGGSBOUNDSINPUTHIGGSCOUPLINGSFERMIONS
       0, 2630.3542,3,36,15,15

BLOCK HIGGSBOUNDSINPUTHIGGSCOUPLINGSBOSONS
       0,4,36,21,21,23

DECAY 6  1.441876
    1   2    5    24

DECAY 1000021  58.943686
    0.26855974   2    1000006   -6
    0.26855974   2   -1000006    6
    0.11572013   2    2000001   -1
    0.11572013   2   -2000001    1
    0.11572013   2    2000003   -3
    0.11572013   2   -2000003    3

DECAY 1000006  20.749567
    0.46565415   2    1000024    5
    0.24335013   2    1000023    6
    0.21952026   2    1000022    6
    0.049713969   2    1000037    5
    0.021761493   2    1000025    6

DECAY 2000006  218.43774
    0.27779787   2    1000021    6
    0.1671076   2    1000024    5
    0.11512623   2    1000037    5
    0.11113555   2    1000023    6
    0.10253835   2    1000022    6
    0.077748358   2    1000006    25
    0.076716153   2    1000006    23
    0.069273977   2    1000025    6
    0.0012773646   2    1000035    6
    0.0004341477   2    1000006    36
    0.0004303414   2    1000006    35
    0.00041404631   2    1000005    24

DECAY 1000005  76.925197
    0.34252436   2   -1000024    6
    0.27306048   2    1000021    5
    0.17705365   2    1000023    5
    0.1759499   2    1000022    5
    0.015188452   2   -1000037    6
    0.008485766   2    1000035    5
    0.0073468235   2    1000025    5
    0.00036834349   2    1000006   -37
    2.2229285e-05   2    1000006   -24

DECAY 2000005  218.11232
    0.2834152   2    1000021    5
    0.19846178   2   -1000024    6
    0.14910403   2    1000006   -24
    0.14814538   2   -1000037    6
    0.079699707   2    1000022    5
    0.076485389   2    1000023    5
    0.06209315   2    1000025    5
    0.0013157986   2    1000035    5
    0.00085940419   2    1000006   -37
    0.0002129691   2    1000005    25
    0.00020719262   2    1000005    23

DECAY 1000002  165.48119
    0.72297314   2    1000021    2
    0.16112238   2    1000037    1
    0.084369651   2    1000025    2
    0.022175273   2    1000024    1
    0.0068965619   2    1000022    2
    0.0020957866   2    1000035    2
    0.00036720887   2    1000023    2

DECAY 2000002  96.216132
    0.9504798   2    1000021    2
    0.049463043   2    1000035    2
    3.2563544e-05   2    1000022    2
    1.8937655e-05   2    1000023    2
    5.6607911e-06   2    1000025    2

DECAY 1000001  165.50034
    0.72325907   2    1000021    1
    0.17404986   2   -1000037    2
    0.083825621   2    1000025    1
    0.0089841058   2   -1000024    2
    0.0072786129   2    1000022    1
    0.0021662464   2    1000035    1
    0.0004364867   2    1000023    1

DECAY 2000001  0.0014483704
    0.39791617   3    1    6   -1000006
    0.21797993   2    1000022    1
    0.12551543   2    1000023    1
    0.12166777   3    1   -6    1000006
    0.041929192   3    1    24   -1000024
    0.025224901   3    1    23    1000023
    0.019729069   3    1    25    1000022
    0.017801386   3    1   -24    1000024
    0.0065648263   3    1    23    1000022
    0.0059963943   3    1    25    1000023
    0.0049079987   3    1    24   -1000037
    0.003220516   3    1    25    1000025
    0.0028924231   3    1   -24    1000037
    0.0013928067   3    1   -12    1000012
    0.0013901831   3    1   -14    1000014
    0.0013464788   3    1   -11    1000011
    0.0013203805   3    1   -13    1000013
    0.00071190353   3    1    14   -1000014
    0.00070762286   3    1    12   -1000012
    0.00068421034   3    1    13   -1000013
    0.00066866873   3    1    11   -1000011
    0.00043174039   3    1    23    1000025

DECAY 1000004  141.83
    0.6637413   2    1000021    4
    0.19556181   2    1000037    3
    0.10240363   2    1000025    4
    0.026938137   2    1000024    3
    0.0083779768   2    1000022    4
    0.0025310998   2    1000035    4
    0.00044604692   2    1000023    4

DECAY 2000004  76.893867
    0.93582623   2    1000021    4
    0.064099154   2    1000035    4
    4.251082e-05   2    1000022    4
    2.4719993e-05   2    1000023    4
    7.3824994e-06   2    1000025    4

DECAY 1000003  141.83238
    0.66406997   2    1000021    3
    0.21127258   2   -1000037    4
    0.10175304   2    1000025    3
    0.01091477   2   -1000024    4
    0.0088429362   2    1000022    3
    0.0026164516   2    1000035    3
    0.00053024889   2    1000023    3

DECAY 2000003  0.0014504805
    0.39920563   3    3    6   -1000006
    0.2175572   2    1000022    3
    0.12525457   2    1000023    3
    0.1213322   3    3   -6    1000006
    0.041868194   3    3    24   -1000024
    0.025207508   3    3    23    1000023
    0.019579029   3    3    25    1000022
    0.017800997   3    3   -24    1000024
    0.0065552758   3    3    23    1000022
    0.0059876708   3    3    25    1000023
    0.0049097522   3    3    24   -1000037
    0.0032158308   3    3    25    1000025
    0.0028879395   3    3   -24    1000037
    0.0013907805   3    3   -12    1000012
    0.0013881607   3    3   -14    1000014
    0.0013445199   3    3   -11    1000011
    0.0013184596   3    3   -13    1000013
    0.00072493217   3    3    14   -1000014
    0.00070659342   3    3    12   -1000012
    0.00066858532   3    3    13   -1000013
    0.00066506235   3    3    11   -1000011
    0.0004311123   3    3    23    1000025

DECAY 1000011  6.8077709
    0.61612202   2   -1000037    12
    0.30111728   2    1000025    11
    0.046931191   2   -1000024    12
    0.034276463   2    1000022    11
    0.0015530433   2    1000023    11

DECAY 2000011  5.6933691
    0.99822792   2    1000035    11
    0.0010116266   2    1000022    11
    0.00058754455   2    1000023    11
    0.00017290535   2    1000025    11

DECAY 1000013  6.8077708
    0.61612203   2   -1000037    14
    0.30111727   2    1000025    13
    0.046931191   2   -1000024    14
    0.034276462   2    1000022    13
    0.0015530433   2    1000023    13

DECAY 2000013  5.6933691
    0.99822792   2    1000035    13
    0.0010116266   2    1000022    13
    0.00058754456   2    1000023    13
    0.00017290535   2    1000025    13

DECAY 1000015  67.753792
    0.41454309   2   -1000037    16
    0.20898994   2    1000025    15
    0.1619877   2    1000022    15
    0.14648094   2    1000023    15
    0.043108767   2    1000035    15
    0.02488956   2   -1000024    16

DECAY 2000015  54.814045
    0.36075826   2   -1000024    16
    0.23358006   2    1000035    15
    0.18931427   2    1000023    15
    0.18328566   2    1000022    15
    0.022211864   2   -1000037    16
    0.010682855   2    1000025    15
    8.7886246e-05   2    1000016   -24
    4.1801181e-05   2    1000015    25
    3.7351397e-05   2    1000015    23

DECAY 1000012  6.9199043
    0.55650026   2    1000037    11
    0.28808701   2    1000025    12
    0.11340851   2    1000024    11
    0.039445008   2    1000022    12
    0.0025592094   2    1000023    12

DECAY 1000014  6.9199041
    0.55650026   2    1000037    13
    0.28808701   2    1000025    14
    0.11340851   2    1000024    13
    0.039445009   2    1000022    14
    0.0025592095   2    1000023    14

DECAY 1000016  67.76645
    0.40052182   2    1000037    15
    0.33647412   2    1000024    15
    0.19979868   2    1000025    16
    0.043508331   2    1000035    16
    0.018465515   2    1000022    16
    0.0012315333   2    1000023    16

DECAY 1000024  1.4756027e-09
    0.35699096   3    1000022    2   -1
    0.35699096   3    1000022    4   -3
    0.11910941   3    1000022   -11    12
    0.11910941   3    1000022   -13    14
    0.047799261   3    1000022   -15    16

DECAY 1000037  2.285357
    0.28095177   2    1000022    24
    0.26722197   2    1000024    23
    0.24762486   2    1000023    24
    0.20420141   2    1000024    25

DECAY 1000022 -1


DECAY 1000023  5.2923861e-06
    0.10542476   2    1000022    22
    0.079789516   3    1000022   -1    1
    0.079789516   3    1000022   -3    3
    0.067384112   3    1000024   -2    1
    0.067384112   3   -1000024   -1    2
    0.067384112   3    1000024   -4    3
    0.067384112   3   -1000024   -3    4
    0.061522956   3    1000022   -2    2
    0.061522956   3    1000022   -4    4
    0.046534239   3    1000022   -5    5
    0.036569382   3    1000022   -12    12
    0.036569382   3    1000022   -14    14
    0.036559245   3    1000022   -16    16
    0.022463844   3    1000024   -12    11
    0.022463844   3   -1000024    12   -11
    0.022463844   3    1000024   -14    13
    0.022463844   3   -1000024    14   -13
    0.021125202   3    1000024   -16    15
    0.021125202   3   -1000024    16   -15
    0.018285606   3    1000022   -11    11
    0.018285606   3    1000022   -13    13
    0.017504607   3    1000022   -15    15

DECAY 1000025  2.2957837
    0.30156052   2    1000024   -24
    0.30156052   2   -1000024    24
    0.19768004   2    1000023    23
    0.176836   2    1000022    25
    0.017047005   2    1000022    23
    0.0053159022   2    1000023    25

DECAY 1000035  15.752793
    0.18671663   2    1000006   -6
    0.18671663   2   -1000006    6
    0.062034899   2    1000024   -24
    0.062034899   2   -1000024    24
    0.051114339   2    1000023    23
    0.041694073   2    1000022    25
    0.036749369   2    1000012   -12
    0.036749369   2   -1000012    12
    0.036749369   2    1000014   -14
    0.036749369   2   -1000014    14
    0.036133088   2    1000011   -11
    0.036133088   2   -1000011    11
    0.036133088   2    1000013   -13
    0.036133088   2   -1000013    13
    0.024768608   2    1000023    25
    0.02228837   2    1000022    23
    0.012123788   2    1000037   -24
    0.012123788   2   -1000037    24
    0.0090322775   2    1000025    25
    0.0087299474   2    2000001   -1
    0.0087299474   2   -2000001    1
    0.0087299474   2    2000003   -3
    0.0087299474   2   -2000003    3
    0.0029020871   2    1000025    23

DECAY 25  0.0042987015
    0.58990375   2    5   -5
    0.21976572   2    24   -24
    0.076418126   2    21    21
    0.06146015   2   -15    15
    0.027825505   2    23    23
    0.020313008   2    4   -4
    0.0022643441   2    22    22
    0.00159489   2    22    23
    0.00023688819   2    3   -3
    0.00021761288   2   -13    13

DECAY 35  81.863525
    0.68864644   2    5   -5
    0.11484466   2   -15    15
    0.055474515   2    1000024   -1000037
    0.055474515   2    1000037   -1000024
    0.033053418   2    1000023    1000025
    0.022319848   2    1000022    1000025
    0.015841711   2    1000024   -1000024
    0.00566223   2    1000022    1000022
    0.0037473319   2    1000037   -1000037
    0.001858635   2    1000025    1000025
    0.001686862   2    1000022    1000023
    0.00042775521   2   -13    13
    0.00034130829   2    1000023    1000023
    0.00034054354   2    6   -6
    0.0002467941   2    3   -3
    3.1482403e-05   2    21    21
    1.4487945e-06   2    25    25
    2.7944726e-07   2    24   -24
    1.3903644e-07   2    23    23
    7.1228183e-08   2    22    22
    1.4402244e-08   2    23    22
    3.5551879e-09   2    4   -4

DECAY 36  81.865377
    0.68864597   2    5   -5
    0.11484294   2   -15    15
    0.053587277   2    1000024   -1000037
    0.053587277   2    1000037   -1000024
    0.027667144   2    1000022    1000025
    0.0262829   2    1000023    1000025
    0.017893794   2    1000024   -1000024
    0.0062001946   2    1000022    1000022
    0.0054541617   2    1000037   -1000037
    0.0027141051   2    1000025    1000025
    0.0016136484   2    1000022    1000023
    0.00044565659   2    1000023    1000023
    0.00042774691   2   -13    13
    0.00034641955   2    6   -6
    0.0002467961   2    3   -3
    4.364839e-05   2    21    21
    2.8091823e-07   2    23    25
    2.274215e-08   2    23    22
    1.0098567e-08   2    22    22
    3.543847e-09   2    4   -4

DECAY 37  78.619595
    0.67577424   2    6   -5
    0.11974107   2   -15    16
    0.070092332   2    1000037    1000022
    0.065691217   2    1000024    1000025
    0.06091463   2    1000037    1000023
    0.0057785434   2    1000024    1000023
    0.0011417089   2    4   -5
    0.00044599061   2   -13    14
    0.00025280099   2    4   -3
    0.00014274161   2    1000024    1000022
    1.2843424e-05   2    2   -3
    1.141705e-05   2    2   -5
    2.9426046e-07   2    24    25
    1.6388898e-07   2    1000037    1000025
    9.3493072e-13   2    24    36

DECAY 5 -1


DECAY 15 -1


DECAY 23  2.4952


DECAY 24  2.085
