BLOCK SPINFO
   1   SPheno
   2   v4.0.5be

BLOCK SPHENOINFO
   1   2
   2   2

BLOCK MODSEL
   1   0

BLOCK MINPAR
   3    44.998211
   4   -1

BLOCK EXTPAR
   0    2518.7067
   1    4524.9915
   2   -1434.8223
   3    3126.9955
   11    2973.7908
   12    4668.8213
   13   -5620.0913
   23   -381.77498
   25    44.349833
   26    4232.2462
   31    551.77829
   32    551.77829
   33    1300.3119
   34    2969.5019
   35    2969.5019
   36    2641.9943
   41    4848.7037
   42    4848.7037
   43    4696.2312
   44    4614.8481
   45    4614.8481
   46    1189.4456
   47    1406.7067
   48    1406.7067
   49    1673.2052

BLOCK SMINPUTS
   1    127.90897
   2    1.1663787e-05
   3    0.1184
   4    91.1876
   5    4.18
   6    173.2
   7    1.777
   8    0
   11    0.00051099893
   12    0
   13    0.10565837
   14    0
   21    0.005
   22    0.0025
   23    0.095
   24    1.27

BLOCK GAUGE Q=  2518.7067
   1    0.35536298
   2    0.66519887
   3    1.219778

BLOCK YU Q=  2518.7067
   1   1    8.3865032e-06
   2   2    0.0042603436
   3   3    1.0131569

BLOCK YD Q=  2518.7067
   1   1    0.00074740011
   2   2    0.014200602
   3   3    0.74118671

BLOCK YE Q=  2518.7067
   1   1    0.00013042679
   2   2    0.026968123
   3   3    0.45355946

BLOCK AU Q=  2518.7067
   1   1    0
   2   2    0
   3   3    2973.7908

BLOCK AD Q=  2518.7067
   1   1    0
   2   2    0
   3   3    4668.8214

BLOCK AE Q=  2518.7067
   1   1    0
   2   2    0
   3   3   -5620.0913

BLOCK MSOFT Q=  2518.7067
   1    4524.9915
   2   -1434.8223
   3    3126.9955
   21    17849525
   22   -285642.08
   31    551.77829
   32    551.77829
   33    1300.3119
   34    2969.5019
   35    2969.5019
   36    2641.9943
   41    4848.7037
   42    4848.7037
   43    4696.2312
   44    4614.8481
   45    4614.8481
   46    1189.4456
   47    1406.7067
   48    1406.7067
   49    1673.2052

BLOCK MASS
   6    173.2
   23    91.1876
   24    80.429995
   15    1.777
   25    121.12567
   35    4227.7677
   36    4232.2462
   37    4228.8405
   1000001    4909.0664
   2000001    1515.7466
   1000002    4908.5498
   2000002    4670.3685
   1000003    4909.0648
   2000003    1515.7516
   1000004    4908.5482
   2000004    4670.3685
   1000005    1824.9689
   2000005    4738.811
   1000006    1337.9578
   2000006    4741.4675
   1000011    589.32662
   2000011    2971.7802
   1000012    583.54278
   1000013    589.32104
   2000013    2971.7595
   1000014    583.55445
   1000015    1329.8991
   2000015    2640.6946
   1000016    1328.1068
   1000021    3352.0989
   1000022   -391.63636
   1000023    395.83836
   1000025   -1491.3753
   1000035    4501.4053
   1000024    393.73736
   1000037    1491.425

BLOCK ALPHA
      -0.022249514

BLOCK HMIX Q=  2518.7067
   1   -381.77498
   2    44.349833
   3    243.49218
   4    17911908

BLOCK STOPMIX
   1   1   -0.020413091
   1   2    0.99979163
   2   1   -0.99979163
   2   2   -0.020413091

BLOCK SBOTMIX
   1   1   -0.0027120316
   1   2    0.99999632
   2   1   -0.99999632
   2   2   -0.0027120316

BLOCK STAUMIX
   1   1   -0.99999166
   1   2    0.0040837688
   2   1   -0.0040837688
   2   2   -0.99999166

BLOCK NMIX
   1   1   -0.0066361456
   1   2   -0.051365664
   1   3   -0.70851357
   1   4    0.70379404
   2   1    0.0076133581
   2   2    0.028903187
   2   3   -0.70551481
   2   4   -0.70806462
   3   1    0.00043169779
   3   2   -0.99826157
   3   3    0.016029424
   3   4   -0.05671608
   4   1    0.9999489
   4   2   -0.00012997967
   4   3    0.00066265164
   4   4    0.010086229

BLOCK UMIX
   1   1   -0.022699767
   1   2   -0.99974233
   2   1   -0.99974233
   2   2    0.022699767

BLOCK VMIX
   1   1    0.080318774
   1   2    0.99676923
   2   1    0.99676923
   2   2   -0.080318774

BLOCK HIGGSBOUNDSINPUTHIGGSCOUPLINGSFERMIONS
       0, 1966.9077,3,36,15,15

BLOCK HIGGSBOUNDSINPUTHIGGSCOUPLINGSBOSONS
       0,4,36,21,21,23

BLOCK SPHENOLOWENERGY
   1    0.00031547485
   2    1.5900646e-06
   3    3.5232346e-05
   4    2.8112477e-15
   5    1.2009271e-10
   6    2.5099158e-08
   7    9.556304e-14
   8    4.0824285e-09
   9    8.6443138e-07
   10    9.6232052e-05
   11    0.99404026
   12    0.54260378
   13    19.385212
   14    0
   15    0
   16    0.0021597635
   17    2.2816838e-15
   18    2.4783786e-11
   19    8.2867842e-11
   20    5.9160649e-15
   21    2.5293408e-10
   22    6.258575e-08
   23    0
   24    0
   25    0
   26    0
   27    0
   28    0
   29    0
   30    0
   31    0
   39    7.55792e-05
   40    0
   41    0
   42    0

BLOCK FWCOEF Q=  160
   305   4422   0   0   -0.18881911
   305   4422   0   2   -0.18261483
   305   4322   0   2    0.00011492279
   305   6421   0   0   -0.095227835
   305   6421   0   2   -0.094836308
   305   6321   0   2    6.0072499e-08
   3051111   4133   0   0    1.6109272
   3051111   4133   0   2    1.6114819
   3051111   4233   0   2    0.00014875224
   3051111   4137   0   0   -4.4336193
   3051111   4137   0   2   -4.42999
   3051111   4237   0   2   -0.0011262927
   3051313   4133   0   0    1.6109272
   3051313   4133   0   2    1.6114745
   3051313   4233   0   2    0.00014875182
   3051313   4137   0   0   -4.4336193
   3051313   4137   0   2   -4.4299974
   3051313   4237   0   2   -0.0011262939
   3051212   4137   0   0    1.5053501
   3051212   4137   0   2    1.5045658
   3051212   4237   0   2    0.00024441271
   3051414   4137   0   0    1.5053501
   3051414   4137   0   2    1.5045658
   3051414   4237   0   2    0.00024441274
   3051616   4137   0   0    1.5053501
   3051616   4137   0   2    1.5045659
   3051616   4237   0   2    0.00024442106

BLOCK IMFWCOEF Q=  160
   305   4422   0   0    3.858377e-07
   305   4422   0   2    3.0692877e-06
   305   4322   0   2    3.2991198e-06
   305   6421   0   0    3.3049551e-07
   305   6421   0   2    7.9715516e-06
   305   6321   0   2    1.6930667e-06
   3051111   4133   0   2    2.7704188e-07
   3051111   4233   0   2    3.1716597e-06
   3051111   4137   0   2   -2.2912546e-06
   3051111   4237   0   2   -2.4016908e-05
   3051313   4133   0   2    2.7699369e-07
   3051313   4233   0   2    3.171655e-06
   3051313   4137   0   2   -2.2912722e-06
   3051313   4237   0   2   -2.401693e-05
   3051212   4137   0   2    5.4885305e-07
   3051212   4237   0   2    5.2118222e-06
   3051414   4137   0   2    5.4885096e-07
   3051414   4237   0   2    5.2118222e-06
   3051616   4137   0   2    5.5038726e-07
   3051616   4237   0   2    5.2118224e-06

DECAY 23  2.4952


DECAY 24  2.085


DECAY 1000011  0.004111484
    0.59310794   2    1000022    11
    0.20671214   2    1000023    11
    0.20017729   2   -1000024    12

DECAY 2000011  0.0014735347
    0.56704935   2    1000023    11
    0.43122939   2    1000022    11
    0.0010571561   2    1000025    11
    0.00065850148   2   -1000024    12

DECAY 1000013  0.0067255399
    0.56121366   2    1000022    13
    0.31641644   2    1000023    13
    0.12236831   2   -1000024    14

DECAY 2000013  0.084805277
    0.48916891   2   -1000024    14
    0.25334337   2    1000023    13
    0.25324038   2    1000022    13
    0.0040098464   2    1000013    25
    0.00014622442   2   -1000037    14

DECAY 1000015  4.5564981
    0.50372381   2    1000022    15
    0.49488661   2    1000023    15
    0.001389583   2   -1000024    16

DECAY 2000015  20.828237
    0.49572621   2   -1000024    16
    0.24902218   2    1000022    15
    0.24690855   2    1000023    15
    0.0041564962   2    1000016   -24
    0.0020687705   2    1000015    23
    0.0018209372   2    1000015    25
    0.00019804439   2   -1000037    16

DECAY 1000012  0.012115435
    0.81543905   2    1000024    11
    0.14642729   2    1000022    12
    0.038133654   2    1000023    12

DECAY 1000014  0.014627939
    0.84712618   2    1000024    13
    0.12128724   2    1000022    14
    0.031586581   2    1000023    14

DECAY 1000016  4.5980116
    0.9969252   2    1000024    15
    0.0024236929   2    1000022    16
    0.0006511089   2    1000023    16

DECAY 2000001  0.00010433861
    0.47798324   2    1000023    1
    0.38164067   2    1000022    1
    0.14037443   2   -1000024    2

DECAY 1000001  163.82407
    0.67379495   2    1000021    1
    0.21722735   2   -1000037    2
    0.10831032   2    1000025    1
    0.00032811543   2    1000022    1
    0.00013418602   2   -1000024    2
    0.00010613006   2    1000035    1

DECAY 2000003  0.010649222
    0.49650472   2   -1000024    4
    0.25269665   2    1000022    3
    0.25079817   2    1000023    3

DECAY 1000003  163.84507
    0.67370758   2    1000021    3
    0.21719947   2   -1000037    4
    0.10829641   2    1000025    3
    0.00038748471   2    1000022    3
    0.00015783352   2    1000023    3
    0.00014477689   2   -1000024    4
    0.00010611565   2    1000035    3

DECAY 1000005  35.895154
    0.49493017   2   -1000024    6
    0.25389152   2    1000022    5
    0.25114511   2    1000023    5

DECAY 2000005  314.30689
    0.30089137   2   -1000024    6
    0.29707693   2    1000021    5
    0.10961565   2   -1000037    6
    0.081738191   2    1000022    5
    0.0809372   2    1000023    5
    0.074734747   2    1000006   -24
    0.053727828   2    1000025    5
    0.00073552383   2    1000005    25
    0.00052246518   2    1000005    23

DECAY 2000002  86.716227
    0.99938085   2    1000021    2
    0.00060703634   2    1000035    2

DECAY 1000002  163.80882
    0.67353899   2    1000021    2
    0.2159254   2    1000037    1
    0.10827101   2    1000025    2
    0.0016802616   2    1000024    1
    0.00035956245   2    1000022    2
    0.0001191958   2    1000023    2
    0.00010558418   2    1000035    2

DECAY 2000004  86.719478
    0.99934259   2    1000021    4
    0.00060699297   2    1000035    4

DECAY 1000004  163.82969
    0.67345178   2    1000021    4
    0.21589784   2    1000037    3
    0.10825715   2    1000025    4
    0.0017983129   2    1000024    3
    0.00036481128   2    1000022    4
    0.00012453666   2    1000023    4
    0.00010556894   2    1000035    4

DECAY 1000006  44.601249
    0.50901919   2    1000024    5
    0.24638492   2    1000023    6
    0.24459447   2    1000022    6

DECAY 2000006  319.67078
    0.29100391   2    1000021    6
    0.16004452   2    1000024    5
    0.14930261   2    1000023    6
    0.1476041   2    1000022    6
    0.10588209   2    1000037    5
    0.054994132   2    1000006    25
    0.053339569   2    1000025    6
    0.036786337   2    1000006    23
    0.0010297113   2    1000005    24

DECAY 1000024  2.1187952e-11
    0.59902661   3    1000022   -1    2
    0.19972304   3    1000022   -11    12
    0.19519442   3    1000022   -13    14
    0.0060559279   3    1000022   -3    4

DECAY 1000037  32.260718
    0.1450093   2    1000012   -11
    0.14500728   2    1000014   -13
    0.14482795   2   -1000013    14
    0.14482693   2   -1000011    12
    0.10110192   2    1000024    25
    0.097947628   2    1000023    24
    0.097643134   2    1000022    24
    0.097229016   2    1000024    23
    0.0086629174   2    1000016   -15
    0.0085355079   2   -1000015    16
    0.0033530146   3    1000024    6   -6
    0.0028741647   3    1000023   -5    6
    0.0027347184   3    1000022   -5    6
    0.00024183196   2    1000006   -5

DECAY 1000022 -1


DECAY 1000023  1.6512969e-08
    0.8059402   2    1000022    22
    0.050942299   3    1000022    12   -12
    0.038090949   3    1000022    1   -1
    0.037858159   3    1000022    3   -3
    0.029707976   3    1000022    2   -2
    0.0085950272   3    1000022    11   -11
    0.0085131319   3    1000022    13   -13
    0.0072450319   3    1000022    4   -4
    0.0032597911   3    1000024    1   -2
    0.0032597911   3   -1000024   -1    2
    0.001086646   3    1000024    11   -12
    0.001086646   3   -1000024   -11    12
    0.0010776418   3    1000024    13   -14
    0.0010776418   3   -1000024   -13    14
    0.00098366515   3    1000024    3   -4
    0.00098366515   3   -1000024   -3    4
    0.00012839967   3    1000022    15   -15

DECAY 1000025  33.84864
    0.093980927   2    1000024   -24
    0.093980927   2   -1000024    24
    0.072790014   2    1000022    25
    0.071420744   2    1000023    23
    0.069338405   2    1000012   -12
    0.069338405   2   -1000012    12
    0.069337401   2    1000014   -14
    0.069337401   2   -1000014    14
    0.068776863   2    1000013   -13
    0.068776863   2   -1000013    13
    0.068776302   2    1000011   -11
    0.068776302   2   -1000011    11
    0.067817774   2    1000023    25
    0.022093464   2    1000022    23
    0.0041409909   2    1000016   -16
    0.0041409909   2   -1000016    16
    0.0040536116   2    1000015   -15
    0.0040536116   2   -1000015    15
    0.0031543646   3    1000024    5   -6
    0.0031543646   3   -1000024   -5    6
    0.0013855316   3    1000022    6   -6
    0.0013544036   3    1000023    6   -6

DECAY 1000035  111.02916
    0.11250709   2    1000006   -6
    0.11250709   2   -1000006    6
    0.043807899   2    2000015   -15
    0.043807899   2   -2000015    15
    0.03241452   2    2000013   -13
    0.03241452   2   -2000013    13
    0.032413822   2    2000011   -11
    0.032413822   2   -2000011    11
    0.027805465   2    1000024   -24
    0.027805465   2   -1000024    24
    0.026686385   2    2000001   -1
    0.026686385   2   -2000001    1
    0.02668634   2    2000003   -3
    0.02668634   2   -2000003    3
    0.02462473   2    1000012   -12
    0.02462473   2   -1000012    12
    0.024624697   2    1000014   -14
    0.024624697   2   -1000014    14
    0.024584041   2    1000013   -13
    0.024584041   2   -1000013    13
    0.024584024   2    1000011   -11
    0.024584024   2   -1000011    11
    0.02370527   2    1000005   -5
    0.02370527   2   -1000005    5
    0.021231776   2    1000016   -16
    0.021231776   2   -1000016    16
    0.021201338   2    1000015   -15
    0.021201338   2   -1000015    15
    0.015650041   2    1000022    23
    0.015476524   2    1000022    25
    0.014334147   2    1000023    25
    0.012165393   2    1000023    23
    0.00206463   3    1000024    5   -6
    0.00206463   3   -1000024   -5    6
    0.0015602407   3    1000022    6   -6
    0.0015507541   3    1000023    6   -6
    0.00022273882   3    1000023    5   -5
    0.00021802331   3    1000022    5   -5
    0.00010475148   3    1000025    12   -12

DECAY 1000021  245.24195
    0.14351196   2    1000006   -6
    0.14351196   2   -1000006    6
    0.12802715   2    2000001   -1
    0.12802715   2   -2000001    1
    0.12802671   2    2000003   -3
    0.12802671   2   -2000003    3
    0.10014833   2    1000005   -5
    0.10014833   2   -1000005    5
    0.00011185973   2    1000006   -4
    0.00011185973   2   -1000006    4

DECAY 25  0.0034352303
    0.62991404   2   -5    5
    0.1688253   2   -24    24
    0.075149719   2    21    21
    0.072060104   2   -15    15
    0.03116989   2   -4    4
    0.018901496   2    23    23
    0.0023185171   2    22    22
    0.0011736299   2    22    23
    0.00024994079   2   -13    13
    0.00023653818   2   -3    3
    6.5400404e-07   2   -1    1
    1.606385e-07   2   -2    2
    5.6190006e-09   2   -11    11

DECAY 35  172.7997
    0.5984134   2   -5    5
    0.10939291   2   -15    15
    0.076304097   2   -1000024    1000037
    0.076304097   2   -1000037    1000024
    0.042523076   2    1000023    1000025
    0.034032698   2    1000022    1000025
    0.030013628   2   -2000015    1000015
    0.030013628   2   -1000015    2000015
    0.0013706148   2   -1000024    1000024
    0.0005835628   2   -6    6
    0.00040729389   2   -13    13
    0.00024132482   2    1000022    1000022
    0.00022094911   2   -3    3
    7.0864176e-05   2    1000023    1000023
    3.9429051e-05   2   -1000037    1000037
    3.3619306e-05   2    1000022    1000023
    1.9756648e-05   2    1000025    1000025
    4.3662328e-06   2   -1000015    1000015
    4.0879859e-06   2    21    21
    4.063002e-06   2   -1000005    1000005
    1.428814e-06   2   -1000006    1000006
    6.1081664e-07   2   -1    1
    1.9304002e-07   2    25    25
    5.7590017e-08   2    23    23
    1.7555193e-08   2   -1000011    1000011
    1.738049e-08   2   -1000013    1000013
    1.1415962e-08   2   -24    24
    1.009897e-08   2    22    23
    9.1465144e-09   2   -11    11
    7.1803376e-09   2   -4    4
    2.9846384e-09   2    22    22
    2.9280903e-09   2   -1000001    1000001
    2.908958e-09   2   -1000003    1000003
    3.2082199e-10   2   -2000013    1000013
    3.2082199e-10   2   -1000013    2000013
    3.7008627e-14   2   -2    2
    7.5040605e-15   2   -2000011    1000011
    7.5040605e-15   2   -1000011    2000011

DECAY 36  161.5493
    0.58065689   2   -5    5
    0.1061519   2   -15    15
    0.081675522   2   -1000024    1000037
    0.081675522   2   -1000037    1000024
    0.04577429   2    1000022    1000025
    0.036195397   2    1000023    1000025
    0.032301787   2   -2000015    1000015
    0.032301787   2   -1000015    2000015
    0.001555659   2   -1000024    1000024
    0.00054195706   2   -6    6
    0.00039524568   2   -13    13
    0.00029163416   2    1000022    1000022
    0.00021438239   2   -3    3
    0.00010780027   2   -1000037    1000037
    7.175662e-05   2    1000023    1000023
    5.3953766e-05   2    1000025    1000025
    2.6195271e-05   2    1000022    1000023
    7.5032534e-06   2    21    21
    5.9265713e-07   2   -1    1
    1.3866093e-07   2    23    25
    4.0548238e-08   2    22    23
    2.9485877e-08   2    22    22
    8.8761369e-09   2   -11    11
    6.6087962e-09   2   -4    4
    3.4272779e-10   2   -2000013    1000013
    3.4272779e-10   2   -1000013    2000013
    1.2254894e-11   2    23    35
    3.4063649e-14   2   -2    2
    8.0164379e-15   2   -2000011    1000011
    8.0164379e-15   2   -1000011    2000011
    2.3780236e-39   2    25    25

DECAY 37  173.89379
    0.61065763   2   -5    6
    0.098474339   2   -15    16
    0.076941137   2    1000022    1000037
    0.076130042   2    1000024    1000025
    0.075838696   2    1000023    1000037
    0.059975005   2   -2000015    1000016
    0.0009055159   2   -5    4
    0.00034814183   2   -13    14
    0.00033290174   2    1000023    1000024
    0.0002009312   2   -3    4
    0.00010895571   2    1000022    1000024
    6.7207031e-05   2   -1000005    1000006
    9.4467524e-06   2   -3    2
    6.466317e-06   2   -5    2
    1.745248e-06   2   -1000015    1000016
    9.5193595e-07   2   -3    6
    5.5746612e-07   2   -1    2
    1.2854612e-07   2    24    25
    6.8515507e-08   2   -1000011    1000012
    6.8271822e-08   2   -1000013    1000014
    2.9917996e-08   2   -1    6
    2.6405648e-08   2   -1    4
    8.1430735e-09   2   -11    12
    6.3947605e-10   2   -2000013    1000014
    2.30201e-10   2   -1000003    1000006
    1.6481255e-11   2    1000025    1000037
    2.9243677e-14   2   -1000001    1000006
    1.4957492e-14   2   -2000011    1000012
    1.112694e-14   2    24    35

DECAY 6  2.43
    1   2    5    24

DECAY 15 -1
