BLOCK SPINFO
   1   SPheno
   2   v4.0.5be

BLOCK SPHENOINFO
   1   2
   2   2

BLOCK MODSEL
   1   0

BLOCK MINPAR
   3    39.643383
   4   -1

BLOCK EXTPAR
   0    4221.7684
   1   -3170.5753
   2   -1657.566
   3    2896.8462
   11    1167.1412
   12    1169.8232
   13   -2082.1989
   23   -375.74558
   25    38.585675
   26    3302.8996
   31    629.61235
   32    629.61235
   33    3002.3987
   34    4402.0501
   35    4402.0501
   36    2078.2792
   41    3617.5816
   42    3617.5816
   43    3703.3576
   44    1990.47
   45    1990.47
   46    4675.1294
   47    4959.7029
   48    4959.7029
   49    4737.6697

BLOCK SMINPUTS
   1    127.90897
   2    1.1663787e-05
   3    0.1184
   4    91.1876
   5    4.18
   6    173.2
   7    1.777
   8    0
   11    0.00051099893
   12    0
   13    0.10565837
   14    0
   21    0.005
   22    0.0025
   23    0.095
   24    1.27

BLOCK GAUGE Q=  4221.7684
   1    0.35536298
   2    0.66519887
   3    1.219778

BLOCK YU Q=  4221.7684
   1   1    8.3871874e-06
   2   2    0.0042606912
   3   3    1.0132396

BLOCK YD Q=  4221.7684
   1   1    0.00065031339
   2   2    0.012355954
   3   3    0.64490711

BLOCK YE Q=  4221.7684
   1   1    0.00011348444
   2   2    0.023464983
   3   3    0.39464242

BLOCK AU Q=  4221.7684
   1   1    0
   2   2    0
   3   3    1167.1412

BLOCK AD Q=  4221.7684
   1   1    0
   2   2    0
   3   3    1169.8232

BLOCK AE Q=  4221.7684
   1   1    0
   2   2    0
   3   3   -2082.1989

BLOCK MSOFT Q=  4221.7684
   1   -3170.5753
   2   -1657.566
   3    2896.8462
   21    11031752
   22    233374.48
   31    629.61235
   32    629.61235
   33    3002.3987
   34    4402.0501
   35    4402.0501
   36    2078.2792
   41    3617.5816
   42    3617.5816
   43    3703.3576
   44    1990.47
   45    1990.47
   46    4675.1294
   47    4959.7029
   48    4959.7029
   49    4737.6697

BLOCK MASS
   6    173.2
   23    91.1876
   24    80.429995
   15    1.777
   25    121.12725
   35    3301.5614
   36    3302.8996
   37    3302.8677
   1000001    3741.7037
   2000001    5040.4464
   1000002    3740.844
   2000002    2184.3887
   1000003    3741.6977
   2000003    5040.4363
   1000004    3740.838
   2000004    2184.3877
   1000005    3780.4039
   2000005    4793.8387
   1000006    3782.4867
   2000006    4712.0664
   1000011    705.53276
   2000011    4407.9163
   1000012    700.3872
   1000013    705.44436
   2000013    4407.871
   1000014    700.29503
   1000015    2066.7374
   2000015    3012.4725
   1000016    3010.274
   1000021    3205.3157
   1000022   -387.14154
   1000023    391.66717
   1000025   -1703.6449
   1000035   -3120.1416
   1000024    389.24254
   1000037    1703.7867

BLOCK ALPHA
      -0.02527656

BLOCK HMIX Q=  4221.7684
   1   -375.74558
   2    38.585675
   3    242.8952
   4    10909146

BLOCK STOPMIX
   1   1   -0.9998818
   1   2    0.015374631
   2   1   -0.015374631
   2   2   -0.9998818

BLOCK SBOTMIX
   1   1   -0.99999229
   1   2    0.0039262288
   2   1   -0.0039262288
   2   2   -0.99999229

BLOCK STAUMIX
   1   1   -0.0047148805
   1   2    0.99998889
   2   1   -0.99998889
   2   2   -0.0047148805

BLOCK NMIX
   1   1   -0.011672008
   1   2    0.043514844
   1   3    0.70883204
   1   4   -0.70393705
   2   1    0.0086673192
   2   2   -0.026268732
   2   3    0.70526612
   2   4    0.7084028
   3   1    0.0015347305
   3   2    0.99870705
   3   3   -0.012332476
   3   4    0.04929278
   4   1    0.99989314
   4   2   -0.00079724633
   4   3    0.0021798865
   4   4   -0.014433506

BLOCK UMIX
   1   1   -0.017478234
   1   2   -0.99984724
   2   1   -0.99984724
   2   2    0.017478234

BLOCK VMIX
   1   1    0.069855234
   1   2    0.99755714
   2   1    0.99755714
   2   2   -0.069855234

BLOCK HIGGSBOUNDSINPUTHIGGSCOUPLINGSFERMIONS
       0, 1488.8543,3,36,15,15

BLOCK HIGGSBOUNDSINPUTHIGGSCOUPLINGSBOSONS
       0,4,36,21,21,23

BLOCK SPHENOLOWENERGY
   1    0.00032514504
   2    1.5896456e-06
   3    3.5252011e-05
   4    2.5596872e-15
   5    1.0934692e-10
   6    2.2888297e-08
   7    8.7043404e-14
   8    3.71849e-09
   9    7.8857625e-07
   10    9.5996773e-05
   11    0.99160991
   12    0.54188674
   13    19.357729
   14    0
   15    0
   16    0.0021569919
   17    2.281656e-15
   18    2.4798852e-11
   19    8.2902077e-11
   20    4.3272227e-15
   21    1.850139e-10
   22    2.3438776e-08
   23    0
   24    0
   25    0
   26    0
   27    0
   28    0
   29    0
   30    0
   31    0
   39    7.3183025e-05
   40    0
   41    0
   42    0

BLOCK FWCOEF Q=  160
   305   4422   0   0   -0.18881911
   305   4422   0   2   -0.19389978
   305   4322   0   2   -0.00010360461
   305   6421   0   0   -0.095227835
   305   6421   0   2   -0.10183896
   305   6321   0   2   -0.00013465253
   3051111   4133   0   0    1.6289082
   3051111   4133   0   2    1.6291637
   3051111   4233   0   2    0.00027131122
   3051111   4137   0   0   -4.4516003
   3051111   4137   0   2   -4.4499243
   3051111   4237   0   2   -0.0020011363
   3051313   4133   0   0    1.6289082
   3051313   4133   0   2    1.6291625
   3051313   4233   0   2    0.00027131076
   3051313   4137   0   0   -4.4516003
   3051313   4137   0   2   -4.4499255
   3051313   4237   0   2   -0.0020011375
   3051212   4137   0   0    1.5053501
   3051212   4137   0   2    1.5049929
   3051212   4237   0   2    0.0004325056
   3051414   4137   0   0    1.5053501
   3051414   4137   0   2    1.5049929
   3051414   4237   0   2    0.00043250564
   3051616   4137   0   0    1.5053501
   3051616   4137   0   2    1.5049936
   3051616   4237   0   2    0.00043251798

BLOCK IMFWCOEF Q=  160
   305   4422   0   0    3.8582263e-07
   305   4422   0   2    9.205908e-06
   305   4322   0   2    1.7680453e-07
   305   6421   0   0    3.304826e-07
   305   6421   0   2    1.3195079e-05
   305   6321   0   2    2.4524889e-07
   3051111   4133   0   2   -3.2300319e-08
   3051111   4233   0   2    5.4626593e-06
   3051111   4137   0   2    2.2945523e-07
   3051111   4237   0   2   -4.0294258e-05
   3051313   4133   0   2   -3.2333303e-08
   3051313   4233   0   2    5.462655e-06
   3051313   4137   0   2    2.2948804e-07
   3051313   4237   0   2   -4.0294284e-05
   3051212   4137   0   2    4.1979939e-08
   3051212   4237   0   2    8.7087975e-06
   3051414   4137   0   2    4.1973666e-08
   3051414   4237   0   2    8.7087975e-06
   3051616   4137   0   2    5.4099175e-08
   3051616   4237   0   2    8.7087965e-06

DECAY 23  2.4952


DECAY 24  2.085


DECAY 1000011  0.00372279
    0.56628368   2    1000022    11
    0.24676623   2   -1000024    12
    0.18694851   2    1000023    11

DECAY 2000011  5.5172596
    0.99915744   2    1000035    11
    0.00053859345   2    1000022    11
    0.00029692423   2    1000023    11

DECAY 1000013  0.0074571359
    0.53699322   2    1000022    13
    0.3398565   2    1000023    13
    0.12314949   2   -1000024    14

DECAY 2000013  5.6122051
    0.98220341   2    1000035    13
    0.0084671666   2   -1000024    14
    0.0047856318   2    1000022    13
    0.0045037759   2    1000023    13

DECAY 1000015  11.91649
    0.4999255   2   -1000024    16
    0.2516958   2    1000022    15
    0.24837097   2    1000023    15

DECAY 2000015  27.502954
    0.44591365   2   -1000037    16
    0.22286783   2    1000025    15
    0.16545208   2    1000022    15
    0.16344338   2    1000023    15
    0.0010988098   2    1000015    23
    0.0010232985   2    1000015    25
    0.00020095109   2   -1000024    16

DECAY 1000012  0.019450257
    0.7393291   2    1000024    11
    0.18919329   2    1000022    12
    0.071477607   2    1000023    12

DECAY 1000014  0.02310397
    0.78063235   2    1000024    13
    0.159216   2    1000022    14
    0.060151649   2    1000023    14

DECAY 1000016  27.522495
    0.44264821   2    1000037    15
    0.3320882   2    1000024    15
    0.2214772   2    1000025    16
    0.0021897215   2    1000015    24
    0.0011524603   2    1000022    16
    0.0004442016   2    1000023    16

DECAY 1000001  52.032089
    0.40210186   2    1000021    1
    0.39761979   2   -1000037    2
    0.19826544   2    1000025    1
    0.00093963903   2    1000035    1
    0.00064425203   2    1000022    1
    0.00023979161   2    1000023    1
    0.00018922653   2   -1000024    2

DECAY 2000001  142.21073
    0.99246839   2    1000021    1
    0.0075268461   2    1000035    1

DECAY 1000003  52.043988
    0.40200216   2    1000021    3
    0.39752763   2   -1000037    4
    0.19821947   2    1000025    3
    0.0009394088   2    1000035    3
    0.00075119176   2    1000022    3
    0.00034568508   2    1000023    3
    0.0002144543   2   -1000024    4

DECAY 2000003  142.23986
    0.99225776   2    1000021    3
    0.0075252521   2    1000035    3
    0.00010631754   2   -1000024    4

DECAY 1000005  161.17173
    0.46464672   2   -1000024    6
    0.14628854   2    1000021    5
    0.13310883   2   -1000037    6
    0.095728535   2    1000022    5
    0.094525722   2    1000023    5
    0.065366068   2    1000025    5
    0.00033558288   2    1000035    5

DECAY 2000005  194.90554
    0.59356231   2    1000021    5
    0.20023399   2   -1000024    6
    0.10088339   2    1000022    5
    0.099904264   2    1000023    5
    0.0045612778   2    1000035    5
    0.0003156178   2    1000006   -24
    0.00027313909   2    1000005    25
    0.00015827511   2    1000005    23

DECAY 2000002  0.00096852024
    0.64374604   2    1000022    2
    0.35443058   2    1000023    2
    0.001820437   2    1000025    2

DECAY 1000002  52.014345
    0.40112789   2    1000021    2
    0.39574927   2    1000037    1
    0.19845694   2    1000025    2
    0.0030235246   2    1000024    1
    0.00092112635   2    1000035    2
    0.00053193678   2    1000022    2
    0.00018930371   2    1000023    2

DECAY 2000004  0.0024434095
    0.40535634   2    1000022    4
    0.30122502   2    1000024    3
    0.29233353   2    1000023    4
    0.00084347416   2    1000025    4
    0.00024163707   2    1000037    3

DECAY 1000004  52.026159
    0.40102753   2    1000021    4
    0.39565818   2    1000037    3
    0.19841111   2    1000025    4
    0.0032358438   2    1000024    3
    0.00092090284   2    1000035    4
    0.00054442148   2    1000022    4
    0.0002020156   2    1000023    4

DECAY 1000006  167.34876
    0.22609352   2    1000023    6
    0.22360324   2    1000022    6
    0.18466315   2    1000024    5
    0.13303507   2    1000021    6
    0.12540275   2    1000037    5
    0.062468123   2    1000025    6
    0.04432218   3    1000022    24    5
    0.00032807547   2    1000035    6

DECAY 2000006  301.47651
    0.35381114   2    1000021    6
    0.31287452   2    1000024    5
    0.157447   2    1000023    6
    0.15546305   2    1000022    6
    0.010863413   2    1000035    6
    0.0035016979   2    1000006    25
    0.0024970568   2    1000005    24
    0.0015405669   2    1000037    5
    0.0012366977   2    1000006    23
    0.00076486578   2    1000025    6

DECAY 1000024  7.3897392e-11
    0.56546685   3    1000022   -1    2
    0.18851093   3    1000022   -11    12
    0.18584035   3    1000022   -13    14
    0.059860984   3    1000022   -3    4
    0.00032087898   3    1000022   -15    16

DECAY 1000037  35.853704
    0.14375571   2    1000014   -13
    0.1437403   2    1000012   -11
    0.14355114   2   -1000013    14
    0.14353625   2   -1000011    12
    0.10478669   2    1000024    25
    0.10357912   2    1000023    24
    0.10291598   2    1000024    23
    0.10279689   2    1000022    24
    0.0044940339   3    1000024    6   -6
    0.0035015845   3    1000023   -5    6
    0.0033168112   3    1000022   -5    6

DECAY 1000022 -1


DECAY 1000023  2.2191731e-08
    0.77663688   2    1000022    22
    0.059440137   3    1000022    12   -12
    0.044445926   3    1000022    1   -1
    0.044218847   3    1000022    3   -3
    0.034664302   3    1000022    2   -2
    0.011056173   3    1000022    4   -4
    0.010029986   3    1000022    11   -11
    0.0099496983   3    1000022    13   -13
    0.0022945989   3    1000024    1   -2
    0.0022945989   3   -1000024   -1    2
    0.0007648925   3    1000024    11   -12
    0.0007648925   3   -1000024   -11    12
    0.00075841399   3    1000024    13   -14
    0.00075841399   3   -1000024   -13    14
    0.00067226059   3    1000024    3   -4
    0.00067226059   3   -1000024   -3    4
    0.00047124345   3    1000022    15   -15

DECAY 1000025  37.427808
    0.099736786   2    1000024   -24
    0.099736786   2   -1000024    24
    0.073006926   2    1000022    25
    0.072967307   2    1000023    23
    0.068890039   2    1000014   -14
    0.068890039   2   -1000014    14
    0.068882665   2    1000012   -12
    0.068882665   2   -1000012    12
    0.068702441   2    1000013   -13
    0.068702441   2   -1000013    13
    0.068695275   2    1000011   -11
    0.068695275   2   -1000011    11
    0.067180657   2    1000023    25
    0.025940845   2    1000022    23
    0.0035707198   3    1000024    5   -6
    0.0035707198   3   -1000024   -5    6
    0.0019735222   3    1000022    6   -6
    0.0019344717   3    1000023    6   -6

DECAY 1000035  39.103449
    0.069470333   2    2000004   -4
    0.069470333   2   -2000004    4
    0.069470215   2    2000002   -2
    0.069470215   2   -2000002    2
    0.063131093   2    1000015   -15
    0.063131093   2   -1000015    15
    0.052882538   2    1000024   -24
    0.052882538   2   -1000024    24
    0.045319048   2    1000014   -14
    0.045319048   2   -1000014    14
    0.045317782   2    1000012   -12
    0.045317782   2   -1000012    12
    0.044978778   2    1000013   -13
    0.044978778   2   -1000013    13
    0.044977563   2    1000011   -11
    0.044977563   2   -1000011    11
    0.034882754   2    1000023    23
    0.032346679   2    1000022    25
    0.029708132   2    1000023    25
    0.018734204   2    1000022    23
    0.0030074481   3    1000024    5   -6
    0.0030074481   3   -1000024   -5    6
    0.0021670249   3    1000022    6   -6
    0.0021497846   3    1000023    6   -6
    0.00054168663   2    1000037   -24
    0.00054168663   2   -1000037    24
    0.00049247505   2    1000025    25
    0.00024054584   2    1000016   -16
    0.00024054584   2   -1000016    16
    0.00022970128   2    2000015   -15
    0.00022970128   2   -2000015    15

DECAY 1000021  54.740435
    0.24857689   2    2000004   -4
    0.24857689   2   -2000004    4
    0.24857663   2    2000002   -2
    0.24857663   2   -2000002    2
    0.0012410647   3    1000024    5   -6
    0.0012410647   3   -1000024   -5    6
    0.00086572496   3    1000023    6   -6
    0.00086006541   3    1000022    6   -6
    0.00036235397   3    1000022    5   -5
    0.00035731115   3    1000023    5   -5

DECAY 25  0.0034383557
    0.6304256   2   -5    5
    0.16870235   2   -24    24
    0.074702014   2    21    21
    0.072144157   2   -15    15
    0.031156248   2   -4    4
    0.01888833   2    23    23
    0.0023209998   2    22    22
    0.0011723346   2    22    23
    0.00025027346   2   -13    13
    0.0002368752   2   -3    3
    6.5493666e-07   2   -1    1
    1.6056842e-07   2   -2    2
    5.626479e-09   2   -11    11

DECAY 35  94.338763
    0.65153869   2   -5    5
    0.1157661   2   -15    15
    0.076390662   2   -1000024    1000037
    0.076390662   2   -1000037    1000024
    0.045850388   2    1000023    1000025
    0.030569857   2    1000022    1000025
    0.0013710067   2   -1000024    1000024
    0.00092939927   2   -6    6
    0.00043592201   2   -13    13
    0.00032983941   2    1000022    1000022
    0.00024818113   2   -3    3
    0.00013928398   2    1000023    1000023
    3.1238784e-05   2    1000022    1000023
    6.0187109e-06   2    21    21
    1.2886098e-06   2    25    25
    6.8613589e-07   2   -1    1
    2.3081012e-07   2    23    23
    6.1573324e-08   2   -24    24
    5.082319e-08   2   -1000011    1000011
    5.0434265e-08   2   -1000013    1000013
    2.4094441e-08   2    22    23
    1.3185427e-08   2   -4    4
    9.790241e-09   2   -11    11
    7.716083e-09   2    22    22
    6.7968504e-14   2   -2    2

DECAY 36  89.805648
    0.64153061   2   -5    5
    0.11399052   2   -15    15
    0.080240044   2   -1000024    1000037
    0.080240044   2   -1000037    1000024
    0.048538242   2    1000022    1000025
    0.03176031   2    1000023    1000025
    0.0015577892   2   -1000024    1000024
    0.00089219492   2   -6    6
    0.00042923382   2   -13    13
    0.00040378937   2    1000022    1000022
    0.00024436399   2   -3    3
    0.00013954294   2    1000023    1000023
    2.005175e-05   2    1000022    1000023
    1.1991928e-05   2    21    21
    6.7558221e-07   2   -1    1
    4.2534435e-07   2    23    25
    9.1113303e-08   2    22    23
    5.8465065e-08   2    22    22
    1.2531359e-08   2   -4    4
    9.6400882e-09   2   -11    11
    6.459989e-14   2   -2    2
    5.2488283e-14   2    23    35
    5.1342458e-40   2    25    25

DECAY 37  93.05835
    0.65293743   2   -5    6
    0.11155076   2   -15    16
    0.078443099   2    1000022    1000037
    0.077843106   2    1000024    1000025
    0.077324655   2    1000023    1000037
    0.00096708455   2   -5    4
    0.0003943717   2   -13    14
    0.00023024524   2    1000023    1000024
    0.00022768051   2   -3    4
    6.0854624e-05   2    1000022    1000024
    1.067514e-05   2   -3    2
    6.9059813e-06   2   -5    2
    1.5938062e-06   2   -3    6
    6.3172457e-07   2   -1    2
    4.1067548e-07   2    24    25
    2.0221804e-07   2   -1000011    1000012
    2.0166494e-07   2   -1000013    1000014
    5.7603623e-08   2   -1    6
    3.0059849e-08   2   -1    4
    9.2243951e-09   2   -11    12
    5.5655162e-14   2    24    35

DECAY 6  2.43
    1   2    5    24

DECAY 15 -1
