# SUSY Les Houches Accord 2 - MSSM spectrum + Decays
# SPheno v4.0.5be
# W. Porod, Comput. Phys. Commun. 153 (2003) 275-315, hep-ph/0301101;
# W. Porod, F.~Staub, Comput. Phys. Commun. 183 (2012) 2458
#                     arXiv:1104.1573 [hep-ph] 
# in case of problems send email to porod@physik.uni-wuerzburg.de
# Created: 12.05.2022,  15:51
Block SPINFO         # Program information
     1   SPheno      # spectrum calculator
     2   v4.0.5be    # version number
#
Block SPhenoINFO     # SPheno specific information
    1      2         # using 2-loop RGEs
    2      2         # using pole masses for boundary conditions at mZ
Block MODSEL  # Model selection
    1    0    # general MSSM
Block MINPAR  # Input parameters
    3    1.76326367E+01  # tanb at m_Z    
    4    1.00000000E+00  # Sign(mu)
Block EXTPAR  # non-universal input parameters
    0    2.47314797E+03  # scale for input parameters
    1   -1.28659926E+03  # M_1
    2   -4.94000656E+02  # M_2
    3    2.06423773E+03  # M_3
   11    6.28314514E+03  # A_t
   12   -5.81825679E+02  # A_b
   13    5.55730168E+02  # A_tau
   23    4.53472492E+02  # mu
   25    1.68559997E+01  # tan(beta)
   26    3.79765110E+03  # m_A, pole mass
   31    1.00000000E+04  # M_L11
   32    1.00000000E+04  # M_L22
   33    1.00000000E+04  # M_L33
   34    1.00000000E+04  # M_E11
   35    1.00000000E+04  # M_E22
   36    1.00000000E+04  # M_E33
   41    1.00000000E+04  # M_Q11
   42    1.00000000E+04  # M_Q22
   43    2.05731556E+03  # M_Q33
   44    1.00000000E+04  # M_U11
   45    1.00000000E+04  # M_U22
   46    3.06018790E+03  # M_U33
   47    1.00000000E+04  # M_D11
   48    1.00000000E+04  # M_D22
   49    4.20958194E+03  # M_D33
Block SMINPUTS  # SM parameters
         1     1.27908970E+02  # alpha_em^-1(MZ)^MSbar
         2     1.16637870E-05  # G_mu [GeV^-2]
         3     1.18400000E-01  # alpha_s(MZ)^MSbar
         4     9.11876000E+01  # m_Z(pole)
         5     4.18000000E+00  # m_b(m_b), MSbar
         6     1.73200000E+02  # m_t(pole)
         7     1.77700000E+00  # m_tau(pole)
         8     0.00000000E+00  # m_nu_3
        11     5.10998930E-04  # m_e(pole)
        12     0.00000000E+00  # m_nu_1
        13     1.05658372E-01  # m_muon(pole)
        14     0.00000000E+00  # m_nu_2
        21     5.00000000E-03  # m_d(2 GeV), MSbar
        22     2.50000000E-03  # m_u(2 GeV), MSbar
        23     9.50000000E-02  # m_s(2 GeV), MSbar
        24     1.27000000E+00  # m_c(m_c), MSbar
Block gauge Q=  2.47314797E+03  # (SUSY scale)
   1    3.55362975E-01  # g'(Q)^DRbar
   2    6.65198874E-01  # g(Q)^DRbar
   3    1.21977796E+00  # g3(Q)^DRbar
Block Yu Q=  2.47314797E+03  # (SUSY scale)
  1  1     8.39911391E-06   # Y_u(Q)^DRbar
  2  2     4.26674987E-03   # Y_c(Q)^DRbar
  3  3     1.01468042E+00   # Y_t(Q)^DRbar
Block Yd Q=  2.47314797E+03  # (SUSY scale)
  1  1     2.84490805E-04   # Y_d(Q)^DRbar
  2  2     5.40532529E-03   # Y_s(Q)^DRbar
  3  3     2.82125732E-01   # Y_b(Q)^DRbar
Block Ye Q=  2.47314797E+03  # (SUSY scale)
  1  1     4.96457258E-05   # Y_e(Q)^DRbar
  2  2     1.02651615E-02   # Y_mu(Q)^DRbar
  3  3     1.72643130E-01   # Y_tau(Q)^DRbar
Block Au Q=  2.47314797E+03  # (SUSY scale)
  1  1     0.00000000E+00   # A_u(Q)^DRbar
  2  2     0.00000000E+00   # A_c(Q)^DRbar
  3  3     6.28314563E+03   # A_t(Q)^DRbar
Block Ad Q=  2.47314797E+03  # (SUSY scale)
  1  1     0.00000000E+00   # A_d(Q)^DRbar
  2  2     0.00000000E+00   # A_s(Q)^DRbar
  3  3    -5.81825632E+02   # A_b(Q)^DRbar
Block Ae Q=  2.47314797E+03  # (SUSY scale)
  1  1     0.00000000E+00   # A_e(Q)^DRbar
  2  2     0.00000000E+00   # A_mu(Q)^DRbar
  3  3     5.55730165E+02   # A_tau(Q)^DRbar
Block MSOFT Q=  2.47314797E+03  # soft SUSY breaking masses at Q
   1   -1.28659926E+03  # M_1
   2   -4.94000656E+02  # M_2
   3    2.06423773E+03  # M_3
  21    1.40770234E+07  # M^2_(H,d)
  22   -8.96218367E+04  # M^2_(H,u)
  31    1.00000000E+04  # M_(L,11)
  32    1.00000000E+04  # M_(L,22)
  33    1.00000000E+04  # M_(L,33)
  34    1.00000000E+04  # M_(E,11)
  35    1.00000000E+04  # M_(E,22)
  36    1.00000000E+04  # M_(E,33)
  41    1.00000000E+04  # M_(Q,11)
  42    1.00000000E+04  # M_(Q,22)
  43    2.05731556E+03  # M_(Q,33)
  44    1.00000000E+04  # M_(U,11)
  45    1.00000000E+04  # M_(U,22)
  46    3.06018790E+03  # M_(U,33)
  47    1.00000000E+04  # M_(D,11)
  48    1.00000000E+04  # M_(D,22)
  49    4.20958194E+03  # M_(D,33)
Block MASS  # Mass spectrum
#   PDG code      mass          particle
         6     1.73200000E+02  # m_t(pole)
        23     9.11876000E+01  # m_Z(pole)
        24     8.04299946E+01  # W+
        15     1.77700000E+00  # m_tau(pole)
        25     1.29084823E+02  # h0
        35     3.79712164E+03  # H0
        36     3.79765110E+03  # A0
        37     3.79878020E+03  # H+
   1000001     1.01121536E+04  # ~d_L
   2000001     1.00871202E+04  # ~d_R
   1000002     1.01118002E+04  # ~u_L
   2000002     1.00901075E+04  # ~u_R
   1000003     1.01121564E+04  # ~s_L
   2000003     1.00871235E+04  # ~s_R
   1000004     1.01118030E+04  # ~c_L
   2000004     1.00901096E+04  # ~c_R
   1000005     2.09693156E+03  # ~b_1
   2000005     4.25592661E+03  # ~b_2
   1000006     2.06172007E+03  # ~t_1
   2000006     2.96667864E+03  # ~t_2
   1000011     1.00211007E+04  # ~e_L-
   2000011     1.00083938E+04  # ~e_R-
   1000012     1.00203455E+04  # ~nu_eL
   1000013     1.00211093E+04  # ~mu_L-
   2000013     1.00084102E+04  # ~mu_R-
   1000014     1.00203540E+04  # ~nu_muL
   1000015     1.00130295E+04  # ~tau_1-
   2000015     1.00235330E+04  # ~tau_2-
   1000016     1.00227396E+04  # ~nu_tauL
   1000021     2.43891422E+03  # ~g
   1000022     4.35089104E+02  # ~chi_10
   1000023     4.67138284E+02  # ~chi_20
   1000025     5.69089732E+02  # ~chi_30
   1000035     1.30620850E+03  # ~chi_40
   1000024     4.38757813E+02  # ~chi_1+
   1000037     5.70407458E+02  # ~chi_2+
# Higgs mixing
Block alpha # Effective Higgs mixing angle
          -5.67360446E-02   # alpha
Block Hmix Q=  2.47314797E+03  # Higgs mixing parameters
   1    4.53472492E+02  # mu
   2    1.68559997E+01  # tan[beta](Q)
   3    2.43407721E+02  # v(Q)
   4    1.44221539E+07  # m^2_A(Q)
Block stopmix # stop mixing matrix
   1  1    -9.82521724E-01   # Re[R_st(1,1)]
   1  2     1.86147959E-01   # Re[R_st(1,2)]
   2  1    -1.86147959E-01   # Re[R_st(2,1)]
   2  2    -9.82521724E-01   # Re[R_st(2,2)]
Block sbotmix # sbottom mixing matrix
   1  1     9.99999233E-01   # Re[R_sb(1,1)]
   1  2     1.23844877E-03   # Re[R_sb(1,2)]
   2  1    -1.23844877E-03   # Re[R_sb(2,1)]
   2  2     9.99999233E-01   # Re[R_sb(2,2)]
Block staumix # stau mixing matrix
   1  1     6.00154064E-02   # Re[R_sta(1,1)]
   1  2     9.98197451E-01   # Re[R_sta(1,2)]
   2  1    -9.98197451E-01   # Re[R_sta(2,1)]
   2  2     6.00154064E-02   # Re[R_sta(2,2)]
Block Nmix # neutralino mixing matrix
   1  1    -2.93601007E-02   # Re[N(1,1)]
   1  2     4.46895176E-01   # Re[N(1,2)]
   1  3    -6.54092704E-01   # Re[N(1,3)]
   1  4    -6.09578068E-01   # Re[N(1,4)]
   2  1     1.87402965E-02   # Re[N(2,1)]
   2  2    -6.07758785E-02   # Re[N(2,2)]
   2  3    -7.02739646E-01   # Re[N(2,3)]
   2  4     7.08598676E-01   # Re[N(2,4)]
   3  1    -2.05978776E-02   # Re[N(3,1)]
   3  2    -8.92509921E-01   # Re[N(3,2)]
   3  3    -2.79607578E-01   # Re[N(3,3)]
   3  4    -3.53300680E-01   # Re[N(3,4)]
   4  1     9.99180921E-01   # Re[N(4,1)]
   4  2    -4.12734541E-03   # Re[N(4,2)]
   4  3    -1.18036691E-02   # Re[N(4,3)]
   4  4    -3.84853894E-02   # Re[N(4,4)]
Block Umix # chargino mixing matrix
   1  1    -4.09170119E-01   # Re[U(1,1)]
   1  2     9.12458116E-01   # Re[U(1,2)]
   2  1    -9.12458116E-01   # Re[U(2,1)]
   2  2    -4.09170119E-01   # Re[U(2,2)]
Block Vmix # chargino mixing matrix
   1  1     5.16520464E-01   # Re[V(1,1)]
   1  2     8.56274845E-01   # Re[V(1,2)]
   2  1     8.56274845E-01   # Re[V(2,1)]
   2  2    -5.16520464E-01   # Re[V(2,2)]
DECAY        23     2.49520000E+00   # Z
DECAY        24     2.08500000E+00   # W
DECAY   2000011     4.85923683E+01   # ~e^-_R
#    BR                NDA      ID1      ID2
     8.88740440E-04    2     1000022        11   # BR(~e^-_R -> chi^0_1 e^-)
     3.61880668E-04    2     1000023        11   # BR(~e^-_R -> chi^0_2 e^-)
     4.36248221E-04    2     1000025        11   # BR(~e^-_R -> chi^0_3 e^-)
     9.98313121E-01    2     1000035        11   # BR(~e^-_R -> chi^0_4 e^-)
DECAY   1000011     1.43700584E+02   # ~e^-_L
#    BR                NDA      ID1      ID2
     5.68590548E-02    2     1000022        11   # BR(~e^-_L -> chi^0_1 e^-)
     7.87572286E-04    2     1000023        11   # BR(~e^-_L -> chi^0_2 e^-)
     2.48956710E-01    2     1000025        11   # BR(~e^-_L -> chi^0_3 e^-)
     8.32076502E-02    2     1000035        11   # BR(~e^-_L -> chi^0_4 e^-)
     1.02383789E-01    2    -1000024        12   # BR(~e^-_L -> chi^-_1 nu_e)
     5.07805223E-01    2    -1000037        12   # BR(~e^-_L -> chi^-_2 nu_e)
#    BR                NDA      ID1      ID2       ID3
DECAY   2000013     4.86342350E+01   # ~mu^-_R
#    BR                NDA      ID1      ID2
     1.07184577E-03    2     1000022        13   # BR(~mu^-_R -> chi^0_1 mu^-)
     5.73684215E-04    2     1000023        13   # BR(~mu^-_R -> chi^0_2 mu^-)
     4.69381964E-04    2     1000025        13   # BR(~mu^-_R -> chi^0_3 mu^-)
     9.97455531E-01    2     1000035        13   # BR(~mu^-_R -> chi^0_4 mu^-)
     3.57799477E-04    2    -1000024        14   # BR(~mu^-_R -> chi^-_1 nu_mu)
DECAY   1000013     1.43721627E+02   # ~mu^-_L
#    BR                NDA      ID1      ID2
     5.69130750E-02    2     1000022        13   # BR(~mu^-_L -> chi^0_1 mu^-)
     8.59327628E-04    2     1000023        13   # BR(~mu^-_L -> chi^0_2 mu^-)
     2.48931833E-01    2     1000025        13   # BR(~mu^-_L -> chi^0_3 mu^-)
     8.31955630E-02    2     1000035        13   # BR(~mu^-_L -> chi^0_4 mu^-)
     1.02368887E-01    2    -1000024        14   # BR(~mu^-_L -> chi^-_1 nu_mu)
     5.07731314E-01    2    -1000037        14   # BR(~mu^-_L -> chi^-_2 nu_mu)
#    BR                NDA      ID1      ID2       ID3
DECAY   1000015     6.07657171E+01   # ~tau^-_1
#    BR                NDA      ID1      ID2
     5.24523268E-02    2     1000022        15   # BR(~tau^-_1 -> chi^0_1 tau^-)
     4.67586516E-02    2     1000023        15   # BR(~tau^-_1 -> chi^0_2 tau^-)
     2.24540996E-03    2     1000025        15   # BR(~tau^-_1 -> chi^0_3 tau^-)
     7.96365181E-01    2     1000035        15   # BR(~tau^-_1 -> chi^0_4 tau^-)
     9.83943568E-02    2    -1000024        16   # BR(~tau^-_1 -> chi^-_1 nu_tau)
     3.78407422E-03    2    -1000037        16   # BR(~tau^-_1 -> chi^-_2 nu_tau)
DECAY   2000015     1.49328727E+02   # ~tau^-_2
#    BR                NDA      ID1      ID2
     6.75807409E-02    2     1000022        15   # BR(~tau^-_2 -> chi^0_1 tau^-)
     2.09701637E-02    2     1000023        15   # BR(~tau^-_2 -> chi^0_2 tau^-)
     2.45044507E-01    2     1000025        15   # BR(~tau^-_2 -> chi^0_3 tau^-)
     8.10599604E-02    2     1000035        15   # BR(~tau^-_2 -> chi^0_4 tau^-)
     9.14791247E-02    2    -1000024        16   # BR(~tau^-_2 -> chi^-_1 nu_tau)
     4.93865503E-01    2    -1000037        16   # BR(~tau^-_2 -> chi^-_2 nu_tau)
#    BR                NDA      ID1      ID2       ID3
DECAY   1000012     1.43705648E+02   # ~nu_e
#    BR                NDA      ID1      ID2
     6.54254155E-02    2     1000022        12   # BR(~nu_e -> chi^0_1 nu_e)
     1.53120494E-03    2     1000023        12   # BR(~nu_e -> chi^0_2 nu_e)
     2.36949893E-01    2     1000025        12   # BR(~nu_e -> chi^0_3 nu_e)
     8.58115066E-02    2     1000035        12   # BR(~nu_e -> chi^0_4 nu_e)
     1.63136134E-01    2     1000024        11   # BR(~nu_e -> chi^+_1 e^-)
     4.47145846E-01    2     1000037        11   # BR(~nu_e -> chi^+_2 e^-)
#    BR                NDA      ID1      ID2       ID3
DECAY   1000014     1.43726688E+02   # ~nu_mu
#    BR                NDA      ID1      ID2
     6.54158940E-02    2     1000022        14   # BR(~nu_mu -> chi^0_1 nu_mu)
     1.53098210E-03    2     1000023        14   # BR(~nu_mu -> chi^0_2 nu_mu)
     2.36915410E-01    2     1000025        14   # BR(~nu_mu -> chi^0_3 nu_mu)
     8.57990227E-02    2     1000035        14   # BR(~nu_mu -> chi^0_4 nu_mu)
     1.63233615E-01    2     1000024        13   # BR(~nu_mu -> chi^+_1 mu^-)
     4.47105076E-01    2     1000037        13   # BR(~nu_mu -> chi^+_2 mu^-)
#    BR                NDA      ID1      ID2       ID3
DECAY   1000016     1.49658305E+02   # ~nu_tau
#    BR                NDA      ID1      ID2
     6.28382439E-02    2     1000022        16   # BR(~nu_tau -> chi^0_1 nu_tau)
     1.47065564E-03    2     1000023        16   # BR(~nu_tau -> chi^0_2 nu_tau)
     2.27580279E-01    2     1000025        16   # BR(~nu_tau -> chi^0_3 nu_tau)
     8.24194032E-02    2     1000035        16   # BR(~nu_tau -> chi^0_4 nu_tau)
     1.89623579E-01    2     1000024        15   # BR(~nu_tau -> chi^+_1 tau^-)
     4.36067839E-01    2     1000037        15   # BR(~nu_tau -> chi^+_2 tau^-)
#    BR                NDA      ID1      ID2       ID3
DECAY   2000001     7.11282863E+02   # ~d_R
#    BR                NDA      ID1      ID2
     7.64164383E-03    2     1000035         1   # BR(~d_R -> chi^0_4 d)
     9.92345405E-01    2     1000021         1   # BR(~d_R -> ~g d)
DECAY   1000001     8.42130039E+02   # ~d_L
#    BR                NDA      ID1      ID2
     1.07639716E-02    2     1000022         1   # BR(~d_L -> chi^0_1 d)
     2.16333494E-04    2     1000023         1   # BR(~d_L -> chi^0_2 d)
     4.14917204E-02    2     1000025         1   # BR(~d_L -> chi^0_3 d)
     1.69378393E-03    2     1000035         1   # BR(~d_L -> chi^0_4 d)
     1.76306658E-02    2    -1000024         2   # BR(~d_L -> chi^-_1 u)
     8.74491080E-02    2    -1000037         2   # BR(~d_L -> chi^-_2 u)
     8.40754417E-01    2     1000021         1   # BR(~d_L -> ~g d)
DECAY   2000003     7.11294797E+02   # ~s_R
#    BR                NDA      ID1      ID2
     7.64151942E-03    2     1000035         3   # BR(~s_R -> chi^0_4 s)
     9.92329159E-01    2     1000021         3   # BR(~s_R -> ~g s)
DECAY   1000003     8.42139804E+02   # ~s_L
#    BR                NDA      ID1      ID2
     1.07668160E-02    2     1000022         3   # BR(~s_L -> chi^0_1 s)
     2.19753805E-04    2     1000023         3   # BR(~s_L -> chi^0_2 s)
     4.14917923E-02    2     1000025         3   # BR(~s_L -> chi^0_3 s)
     1.69376574E-03    2     1000035         3   # BR(~s_L -> chi^0_4 s)
     1.76336365E-02    2    -1000024         4   # BR(~s_L -> chi^-_1 c)
     8.74492780E-02    2    -1000037         4   # BR(~s_L -> chi^-_2 c)
     8.40744958E-01    2     1000021         3   # BR(~s_L -> ~g s)
DECAY   1000005     6.53759044E+01   # ~b_1
#    BR                NDA      ID1      ID2
     4.63437213E-02    2     1000022         5   # BR(~b_1 -> chi^0_1 b)
     2.31758240E-02    2     1000023         5   # BR(~b_1 -> chi^0_2 b)
     9.91174071E-02    2     1000025         5   # BR(~b_1 -> chi^0_3 b)
     1.75510901E-03    2     1000035         5   # BR(~b_1 -> chi^0_4 b)
     4.66651492E-01    2    -1000024         6   # BR(~b_1 -> chi^-_1 t)
     3.62956446E-01    2    -1000037         6   # BR(~b_1 -> chi^-_2 t)
DECAY   2000005     1.66695193E+02   # ~b_2
#    BR                NDA      ID1      ID2
     1.68995075E-02    2     1000022         5   # BR(~b_2 -> chi^0_1 b)
     1.95002144E-02    2     1000023         5   # BR(~b_2 -> chi^0_2 b)
     3.09426750E-03    2     1000025         5   # BR(~b_2 -> chi^0_3 b)
     1.16816385E-02    2     1000035         5   # BR(~b_2 -> chi^0_4 b)
     3.27535202E-02    2    -1000024         6   # BR(~b_2 -> chi^-_1 t)
     6.59111975E-03    2    -1000037         6   # BR(~b_2 -> chi^-_2 t)
     9.08965539E-01    2     1000021         5   # BR(~b_2 -> ~g b)
     2.08362263E-04    2     1000006       -24   # BR(~b_2 -> ~t_1 W^-)
     1.04460498E-04    2     1000005        23   # BR(~b_2 -> ~b_1 Z)
     1.99112102E-04    2     1000005        25   # BR(~b_2 -> ~b_1 h^0)
DECAY   2000002     7.27884313E+02   # ~u_R
#    BR                NDA      ID1      ID2
     2.98788677E-02    2     1000035         2   # BR(~u_R -> chi^0_4 u)
     9.70070670E-01    2     1000021         2   # BR(~u_R -> ~g u)
DECAY   1000002     8.42119699E+02   # ~u_L
#    BR                NDA      ID1      ID2
     1.02715968E-02    2     1000022         2   # BR(~u_L -> chi^0_1 u)
     1.73624790E-04    2     1000023         2   # BR(~u_L -> chi^0_2 u)
     4.21784569E-02    2     1000025         2   # BR(~u_L -> chi^0_3 u)
     1.54362928E-03    2     1000035         2   # BR(~u_L -> chi^0_4 u)
     2.80948194E-02    2     1000024         1   # BR(~u_L -> chi^+_1 d)
     7.70097754E-02    2     1000037         1   # BR(~u_L -> chi^+_2 d)
     8.40728097E-01    2     1000021         2   # BR(~u_L -> ~g u)
DECAY   2000004     7.27891745E+02   # ~c_R
#    BR                NDA      ID1      ID2
     2.98785742E-02    2     1000035         4   # BR(~c_R -> chi^0_4 c)
     9.70060974E-01    2     1000021         4   # BR(~c_R -> ~g c)
DECAY   1000004     8.42129431E+02   # ~c_L
#    BR                NDA      ID1      ID2
     1.02730936E-02    2     1000022         4   # BR(~c_L -> chi^0_1 c)
     1.75797617E-04    2     1000023         4   # BR(~c_L -> chi^0_2 c)
     4.21785143E-02    2     1000025         4   # BR(~c_L -> chi^0_3 c)
     1.54361829E-03    2     1000035         4   # BR(~c_L -> chi^0_4 c)
     2.81002772E-02    2     1000024         3   # BR(~c_L -> chi^+_1 s)
     7.70100634E-02    2     1000037         3   # BR(~c_L -> chi^+_2 s)
     8.40718636E-01    2     1000021         4   # BR(~c_L -> ~g c)
DECAY   1000006     6.55141995E+01   # ~t_1
#    BR                NDA      ID1      ID2
     2.74630332E-01    2     1000022         6   # BR(~t_1 -> chi^0_1 t)
     2.97060314E-01    2     1000023         6   # BR(~t_1 -> chi^0_2 t)
     1.22563813E-01    2     1000025         6   # BR(~t_1 -> chi^0_3 t)
     1.61405812E-03    2     1000035         6   # BR(~t_1 -> chi^0_4 t)
     1.78911636E-01    2     1000024         5   # BR(~t_1 -> chi^+_1 b)
     1.20791403E-01    2     1000037         5   # BR(~t_1 -> chi^+_2 b)
#    BR                NDA      ID1      ID2       ID3
     4.36259026E-03    3     1000022        24         5   # BR(~t_1 -> chi^0_1 W^+ b)
DECAY   2000006     3.19437775E+02   # ~t_2
#    BR                NDA      ID1      ID2
     5.84579294E-02    2     1000022         6   # BR(~t_2 -> chi^0_1 t)
     8.80784031E-02    2     1000023         6   # BR(~t_2 -> chi^0_2 t)
     3.19690439E-02    2     1000025         6   # BR(~t_2 -> chi^0_3 t)
     1.33730595E-02    2     1000035         6   # BR(~t_2 -> chi^0_4 t)
     1.10637266E-01    2     1000024         5   # BR(~t_2 -> chi^+_1 b)
     6.61513951E-02    2     1000037         5   # BR(~t_2 -> chi^+_2 b)
     7.98313626E-02    2     1000021         6   # BR(~t_2 -> ~g t)
     2.38278953E-01    2     1000005        24   # BR(~t_2 -> ~b_1 W^+)
     1.26547312E-01    2     1000006        23   # BR(~t_2 -> ~t_1 Z)
     1.86675276E-01    2     1000006        25   # BR(~t_2 -> ~t_1 h^0)
DECAY   1000024     3.14985376E-09   # chi^+_1
#    BR                NDA      ID1      ID2       ID3
     4.28711982E-01    3     1000022        -1         2   # BR(chi^+_1 -> chi^0_1 d_bar u)
     2.40682449E-01    3     1000022        -3         4   # BR(chi^+_1 -> chi^0_1 s_bar c)
     1.42904952E-01    3     1000022       -11        12   # BR(chi^+_1 -> chi^0_1 e^+ nu_e)
     1.42315889E-01    3     1000022       -13        14   # BR(chi^+_1 -> chi^0_1 mu^+ nu_mu)
     4.53847287E-02    3     1000022       -15        16   # BR(chi^+_1 -> chi^0_1 tau^+ nu_tau)
DECAY   1000037     1.36078997E+00   # chi^+_2
#    BR                NDA      ID1      ID2
     6.67022695E-01    2     1000022        24   # BR(chi^+_2 -> chi^0_1 W^+)
     9.55774792E-02    2     1000023        24   # BR(chi^+_2 -> chi^0_2 W^+)
     2.04772388E-01    2     1000024        23   # BR(chi^+_2 -> chi^+_1 Z)
     3.26274304E-02    2     1000024        25   # BR(chi^+_2 -> chi^+_1 h^0)
#    BR                NDA      ID1      ID2       ID3
DECAY   1000022     0.00000000E+00   # chi^0_1
DECAY   1000023     1.39541782E-04   # chi^0_2
#    BR                NDA      ID1      ID2
     4.78754982E-02    2     1000022        22   # BR(chi^0_2 -> chi^0_1 photon)
#    BR                NDA      ID1      ID2       ID3
     8.10042767E-02    3     1000022         2        -2   # BR(chi^0_2 -> chi^0_1 u u_bar)
     7.93958798E-02    3     1000022         4        -4   # BR(chi^0_2 -> chi^0_1 c c_bar)
     1.03862835E-01    3     1000022         1        -1   # BR(chi^0_2 -> chi^0_1 d d_bar)
     1.03852822E-01    3     1000022         3        -3   # BR(chi^0_2 -> chi^0_1 s s_bar)
     8.61954264E-02    3     1000022         5        -5   # BR(chi^0_2 -> chi^0_1 b b_bar)
     2.34389168E-02    3     1000022        11       -11   # BR(chi^0_2 -> chi^0_1 e^- e^+)
     2.34353249E-02    3     1000022        13       -13   # BR(chi^0_2 -> chi^0_1 mu^- mu^+)
     2.24509676E-02    3     1000022        15       -15   # BR(chi^0_2 -> chi^0_1 tau^- tau^+)
     1.38895652E-01    3     1000022        12       -12   # BR(chi^0_2 -> chi^0_1 nu_e nu_bar_e)
     4.85224531E-02    3     1000024         1        -2   # BR(chi^0_2 -> chi^+_1 d u_bar)
     4.85224531E-02    3    -1000024        -1         2   # BR(chi^0_2 -> chi^-_1 d_bar u)
     4.80625140E-02    3     1000024         3        -4   # BR(chi^0_2 -> chi^+_1 s c_bar)
     4.80625140E-02    3    -1000024        -3         4   # BR(chi^0_2 -> chi^-_1 s_bar c)
     1.61741653E-02    3     1000024        11       -12   # BR(chi^0_2 -> chi^+_1 e^- nu_bar_e)
     1.61741653E-02    3    -1000024       -11        12   # BR(chi^0_2 -> chi^-_1 e^+ nu_e)
     1.61740587E-02    3     1000024        13       -14   # BR(chi^0_2 -> chi^+_1 mu^- nu_bar_mu)
     1.61740587E-02    3    -1000024       -13        14   # BR(chi^0_2 -> chi^-_1 mu^+ nu_mu)
     1.58630087E-02    3     1000024        15       -16   # BR(chi^0_2 -> chi^+_1 tau^- nu_bar_tau)
     1.58630087E-02    3    -1000024       -15        16   # BR(chi^0_2 -> chi^-_1 tau^+ nu_tau)
DECAY   1000025     2.71600429E+00   # chi^0_3
#    BR                NDA      ID1      ID2
     3.97369295E-01    2     1000024       -24   # BR(chi^0_3 -> chi^+_1 W^-)
     3.97369295E-01    2    -1000024        24   # BR(chi^0_3 -> chi^-_1 W^+)
     2.43428463E-03    2     1000022        23   # BR(chi^0_3 -> chi^0_1 Z)
     1.83884590E-01    2     1000023        23   # BR(chi^0_3 -> chi^0_2 Z)
     1.89046363E-02    2     1000022        25   # BR(chi^0_3 -> chi^0_1 h^0)
#    BR                NDA      ID1      ID2       ID3
DECAY   1000035     3.80538526E+00   # chi^0_4
#    BR                NDA      ID1      ID2
     1.35142087E-01    2     1000024       -24   # BR(chi^0_4 -> chi^+_1 W^-)
     1.35142087E-01    2    -1000024        24   # BR(chi^0_4 -> chi^-_1 W^+)
     7.70446566E-02    2     1000037       -24   # BR(chi^0_4 -> chi^+_2 W^-)
     7.70446566E-02    2    -1000037        24   # BR(chi^0_4 -> chi^-_2 W^+)
     3.51034035E-02    2     1000022        23   # BR(chi^0_4 -> chi^0_1 Z)
     1.69422793E-01    2     1000023        23   # BR(chi^0_4 -> chi^0_2 Z)
     1.14474171E-02    2     1000025        23   # BR(chi^0_4 -> chi^0_3 Z)
     9.84200972E-02    2     1000022        25   # BR(chi^0_4 -> chi^0_1 h^0)
     1.89792604E-01    2     1000023        25   # BR(chi^0_4 -> chi^0_2 h^0)
     5.67338706E-02    2     1000025        25   # BR(chi^0_4 -> chi^0_3 h^0)
#    BR                NDA      ID1      ID2       ID3
     1.30732066E-03    3     1000022         6        -6   # BR(chi^0_4 -> chi^0_1 t t_bar)
     2.11681214E-03    3     1000023         6        -6   # BR(chi^0_4 -> chi^0_2 t t_bar)
     4.68431988E-04    3     1000025         6        -6   # BR(chi^0_4 -> chi^0_3 t t_bar)
     3.65934660E-03    3     1000024         5        -6   # BR(chi^0_4 -> chi^+_1 b t_bar)
     3.65934660E-03    3    -1000024        -5         6   # BR(chi^0_4 -> chi^-_1 b_bar t)
     1.74235187E-03    3     1000037         5        -6   # BR(chi^0_4 -> chi^+_2 b t_bar)
     1.74235187E-03    3    -1000037        -5         6   # BR(chi^0_4 -> chi^-_2 b_bar t)
DECAY   1000021     1.12445985E+01   # ~g
#    BR                NDA      ID1      ID2
     6.86579580E-04    2     1000006        -4   # BR(~g -> ~t_1 c_bar)
     6.86579580E-04    2    -1000006         4   # BR(~g -> ~t^*_1 c)
     2.78446008E-01    2     1000006        -6   # BR(~g -> ~t_1 t_bar)
     2.78446008E-01    2    -1000006         6   # BR(~g -> ~t^*_1 t)
     2.18278539E-01    2     1000005        -5   # BR(~g -> ~b_1 b_bar)
     2.18278539E-01    2    -1000005         5   # BR(~g -> ~b^*_1 b)
     3.71228175E-04    2     1000022        21   # BR(~g -> chi^0_1 g)
     4.38095089E-04    2     1000023        21   # BR(~g -> chi^0_2 g)
#    BR                NDA      ID1      ID2       ID3
     6.88046858E-04    3     1000022         6        -6   # BR(~g -> chi^0_1 t t_bar)
     1.01143919E-03    3     1000023         6        -6   # BR(~g -> chi^0_2 t t_bar)
     3.37427533E-04    3     1000025         6        -6   # BR(~g -> chi^0_3 t t_bar)
     6.98787412E-04    3     1000024         5        -6   # BR(~g -> chi^+_1 b t_bar)
     6.98787412E-04    3    -1000024        -5         6   # BR(~g -> chi^-_1 b_bar t)
     3.71727157E-04    3     1000037         5        -6   # BR(~g -> chi^+_2 b t_bar)
     3.71727157E-04    3    -1000037        -5         6   # BR(~g -> chi^-_2 b_bar t)
DECAY        25     3.96741446E-03   # Gamma(h0)
     2.62780998E-03   2        22        22   # BR(h0 -> photon photon)
     2.07241769E-03   2        22        23   # BR(h0 -> photon Z)
     4.42524948E-02   2        23        23   # BR(h0 -> Z Z)
     3.38922267E-01   2       -24        24   # BR(h0 -> W W)
     7.75709859E-02   2        21        21   # BR(h0 -> gluon gluon)
     4.14681460E-09   2       -11        11   # BR(h0 -> Electron electron)
     1.84459529E-04   2       -13        13   # BR(h0 -> Muon muon)
     5.31904967E-02   2       -15        15   # BR(h0 -> Tau tau)
     1.17312613E-07   2        -2         2   # BR(h0 -> Up up)
     2.27717140E-02   2        -4         4   # BR(h0 -> Charm charm)
     4.77205028E-07   2        -1         1   # BR(h0 -> Down down)
     1.72593715E-04   2        -3         3   # BR(h0 -> Strange strange)
     4.58234162E-01   2        -5         5   # BR(h0 -> Bottom bottom)
DECAY        35     5.78614316E+01   # Gamma(HH)
     1.77767087E-08   2        22        22   # BR(HH -> photon photon)
     1.06622257E-07   2        22        23   # BR(HH -> photon Z)
     1.08498838E-06   2        23        23   # BR(HH -> Z Z)
     2.43653880E-07   2       -24        24   # BR(HH -> W W)
     2.27473695E-07   2        21        21   # BR(HH -> gluon gluon)
     2.57329422E-09   2       -11        11   # BR(HH -> Electron electron)
     1.14584472E-04   2       -13        13   # BR(HH -> Muon muon)
     3.30946064E-02   2       -15        15   # BR(HH -> Tau tau)
     3.84291823E-13   2        -2         2   # BR(HH -> Up up)
     7.45531937E-08   2        -4         4   # BR(HH -> Charm charm)
     5.04477033E-03   2        -6         6   # BR(HH -> Top top)
     1.82877074E-07   2        -1         1   # BR(HH -> Down down)
     6.61401372E-05   2        -3         3   # BR(HH -> Strange strange)
     1.51417645E-01   2        -5         5   # BR(HH -> Bottom bottom)
     1.52060416E-01   2  -1000024   1000024   # BR(HH -> Chargino1 chargino1)
     1.30252827E-01   2  -1000024   1000037   # BR(HH -> Chargino1 chargino2)
     1.30252827E-01   2  -1000037   1000024   # BR(HH -> Chargino2 chargino1)
     8.94748555E-02   2  -1000037   1000037   # BR(HH -> Chargino2 chargino2)
     6.66818205E-02   2   1000022   1000022   # BR(HH -> neutralino1 neutralino1)
     2.77756748E-02   2   1000022   1000023   # BR(HH -> neutralino1 neutralino2)
     2.45618406E-02   2   1000022   1000025   # BR(HH -> neutralino1 neutralino3)
     2.17361482E-02   2   1000022   1000035   # BR(HH -> neutralino1 neutralino4)
     1.14330284E-03   2   1000023   1000023   # BR(HH -> neutralino2 neutralino2)
     8.41216630E-02   2   1000023   1000025   # BR(HH -> neutralino2 neutralino3)
     2.82880772E-02   2   1000023   1000035   # BR(HH -> neutralino2 neutralino4)
     4.56875882E-02   2   1000025   1000025   # BR(HH -> neutralino3 neutralino3)
     8.20849600E-03   2   1000025   1000035   # BR(HH -> neutralino3 neutralino4)
     1.11490917E-05   2   1000035   1000035   # BR(HH -> neutralino4 neutralino4)
     3.62653968E-06   2        25        25   # BR(HH -> h0 h0)
DECAY        36     5.74051170E+01   # Gamma(A0)
     5.52520079E-09   2        22        22   # BR(A0 -> photon photon)
     8.91898648E-08   2        22        23   # BR(A0 -> photon Z)
     7.63585439E-06   2        21        21   # BR(A0 -> gluon gluon)
     2.48180380E-09   2       -11        11   # BR(A0 -> Electron electron)
     1.10509365E-04   2       -13        13   # BR(A0 -> Muon muon)
     3.19176547E-02   2       -15        15   # BR(A0 -> Tau tau)
     3.76930507E-13   2        -2         2   # BR(A0 -> Up up)
     7.31218572E-08   2        -4         4   # BR(A0 -> Charm charm)
     5.01568666E-03   2        -6         6   # BR(A0 -> Top top)
     1.76368494E-07   2        -1         1   # BR(A0 -> Down down)
     6.37865932E-05   2        -3         3   # BR(A0 -> Strange strange)
     1.46029820E-01   2        -5         5   # BR(A0 -> Bottom bottom)
     1.35534224E-01   2  -1000024   1000024   # BR(A0 -> Chargino1 chargino1)
     1.48933752E-01   2  -1000024   1000037   # BR(A0 -> Chargino1 chargino2)
     1.48933752E-01   2  -1000037   1000024   # BR(A0 -> Chargino2 chargino1)
     7.27272224E-02   2  -1000037   1000037   # BR(A0 -> Chargino2 chargino2)
     5.74287009E-02   2   1000022   1000022   # BR(A0 -> neutralino1 neutralino1)
     3.52709169E-02   2   1000022   1000023   # BR(A0 -> neutralino1 neutralino2)
     2.23984106E-02   2   1000022   1000025   # BR(A0 -> neutralino1 neutralino3)
     2.13729662E-02   2   1000022   1000035   # BR(A0 -> neutralino1 neutralino4)
     1.53903291E-03   2   1000023   1000023   # BR(A0 -> neutralino2 neutralino2)
     9.73041543E-02   2   1000023   1000025   # BR(A0 -> neutralino2 neutralino3)
     2.96411272E-02   2   1000023   1000035   # BR(A0 -> neutralino2 neutralino4)
     3.80720309E-02   2   1000025   1000025   # BR(A0 -> neutralino3 neutralino3)
     7.68636751E-03   2   1000025   1000035   # BR(A0 -> neutralino3 neutralino4)
     9.71840732E-06   2   1000035   1000035   # BR(A0 -> neutralino4 neutralino4)
     2.18286994E-06   2        23        25   # BR(A0 -> Z h0)
     1.88209249E-40   2        25        25   # BR(A0 -> h0 h0)
DECAY        37     6.06293408E+01   # Gamma(Hp)
     3.22148789E-09   2       -11        12   # BR(Hp -> Electron nu_e)
     1.37728669E-04   2       -13        14   # BR(Hp -> Muon nu_mu)
     3.89575097E-02   2       -15        16   # BR(Hp -> Tau nu_tau)
     1.98696352E-07   2        -1         2   # BR(Hp -> Down up)
     3.36241175E-06   2        -3         2   # BR(Hp -> Strange up)
     1.90440542E-06   2        -5         2   # BR(Hp -> Bottom up)
     1.39235239E-08   2        -1         4   # BR(Hp -> Down charm)
     7.16977658E-05   2        -3         4   # BR(Hp -> Strange charm)
     2.66685084E-04   2        -5         4   # BR(Hp -> Bottom charm)
     5.06697904E-07   2        -1         6   # BR(Hp -> Down top)
     1.11542498E-05   2        -3         6   # BR(Hp -> Strange top)
     1.87534771E-01   2        -5         6   # BR(Hp -> Bottom top)
     3.00763269E-05   2   1000022   1000024   # BR(Hp -> neutralino1 chargino1)
     2.50982679E-01   2   1000022   1000037   # BR(Hp -> neutralino1 chargino2)
     7.52876386E-02   2   1000023   1000024   # BR(Hp -> neutralino2 chargino1)
     1.61581884E-01   2   1000023   1000037   # BR(Hp -> neutralino2 chargino2)
     2.31012701E-01   2   1000024   1000025   # BR(Hp -> chargino1 neutralino3)
     8.74022439E-06   2   1000025   1000037   # BR(Hp -> neutralino3 chargino2)
     3.85478677E-02   2   1000024   1000035   # BR(Hp -> chargino1 neutralino4)
     1.55608079E-02   2   1000035   1000037   # BR(Hp -> neutralino4 chargino2)
     2.06943734E-06   2        24        25   # BR(Hp -> W h0)
     2.81822377E-13   2        24        35   # BR(Hp -> W HH)
     4.12108169E-14   2        24        36   # BR(Hp -> W A0)
DECAY         6     2.43000000E+00   # top
#    BR                NDA      ID1      ID2
     1.00000000E+00    2           5        24   # BR(t -> b W)
Block HiggsBoundsInputHiggsCouplingsFermions
# ScalarNormEffCoupSq PseudoSNormEffCoupSq NP IP1 IP2 IP2
    9.16826054E-01    0.00000000E+00        3  25   5   5  # h0-b-b eff. coupling^2, normalised to SM
    2.84207900E+02    0.00000000E+00        3  35   5   5  # H0-b-b eff. coupling^2, normalised to SM
    0.00000000E+00    2.84124726E+02        3  36   5   5  # A0-b-b eff. coupling^2, normalised to SM
#
    1.00029274E+00    0.00000000E+00        3  25   6   6  # h0-t-t eff. coupling^2, normalised to SM
    3.22684360E-03    0.00000000E+00        3  35   6   6  # H0-t-t eff. coupling^2, normalised to SM
    0.00000000E+00    3.51958105E-03        3  36   6   6  # A0-t-t eff. coupling^2, normalised to SM
#
    9.16826054E-01    0.00000000E+00        3  25  15  15  # h0-tau-tau eff. coupling^2, normalised to SM
    2.84207900E+02    0.00000000E+00        3  35  15  15  # H0-tau-tau eff. coupling^2, normalised to SM
    0.00000000E+00    2.84124726E+02        3  36  15  15  # A0-tau-tau eff. coupling^2, normalised to SM
#
Block HiggsBoundsInputHiggsCouplingsBosons
    9.99993647E-01        3  25  24  24  # h0-W-W eff. coupling^2, normalised to SM
    6.35319976E-06        3  35  24  24  # H0-W-W eff. coupling^2, normalised to SM
    0.00000000E+00        3  36  24  24  # A0-W-W eff. coupling^2, normalised to SM
#
    9.99993647E-01        3  25  23  23  # h0-Z-Z eff. coupling^2, normalised to SM
    6.35319976E-06        3  35  23  23  # H0-Z-Z eff. coupling^2, normalised to SM
    0.00000000E+00        3  36  23  23  # A0-Z-Z eff. coupling^2, normalised to SM
#
    1.25507464E+00        3  25  21  21  # h0-g-g eff. coupling^2, normalised to SM
    9.29937822E-04        3  35  21  21  # H0-g-g eff. coupling^2, normalised to SM
    9.63444498E-02        3  36  21  21  # A0-g-g eff. coupling^2, normalised to SM
#
    0.00000000E+00        3  25  25  23  # h0-h0-Z eff. coupling^2, normalised to SM
    0.00000000E+00        3  35  25  23  # H0-h0-Z eff. coupling^2, normalised to SM
    6.35319976E-06        3  36  25  23  # A0-h0-Z eff. coupling^2, normalised to SM
    0.00000000E+00        3  35  35  23  # H0-H0-Z eff. coupling^2, normalised to SM
    9.99993647E-01        3  36  35  23  # A0-H0-Z eff. coupling^2, normalised to SM
    0.00000000E+00        3  36  36  23  # A0-A0-Z eff. coupling^2, normalised to SM
#
    0.00000000E+00        4  25  21  21  23  # h0-g-g-Z eff. coupling^2, normalised to SM
    0.00000000E+00        4  35  21  21  23  # H0-g-g-Z eff. coupling^2, normalised to SM
    0.00000000E+00        4  36  21  21  23  # A0-g-g-Z eff. coupling^2, normalised to SM
Block SPhenoLowEnergy  # low energy observables
    1    3.43660599E-04   # BR(b -> s gamma)
    2    1.58952859E-06   # BR(b -> s mu+ mu-)
    3    3.52803590E-05   # BR(b -> s nu nu)
    4    2.42044700E-15   # BR(Bd -> e+ e-)
    5    1.03398827E-10   # BR(Bd -> mu+ mu-)
    6    2.16501434E-08   # BR(Bd -> tau+ tau-)
    7    8.12137278E-14   # BR(Bs -> e+ e-)
    8    3.46945057E-09   # BR(Bs -> mu+ mu-)
    9    7.36061813E-07   # BR(Bs -> tau+ tau-)
   10    9.66696992E-05   # BR(B_u -> tau nu)
   11    9.98560983E-01   # BR(B_u -> tau nu)/BR(B_u -> tau nu)_SM
   12    5.42374260E-01   # |Delta(M_Bd)| [ps^-1] 
   13    1.93790344E+01   # |Delta(M_Bs)| [ps^-1] 
   14    0.00000000E+00   # neutron EDM according to the chiral quark model
   15    0.00000000E+00   # neutron EDM according to the relativistic quark-parton model
   16    2.15907801E-03   # epsilon_K
   17    2.28167608E-15   # Delta(M_K)
   18    2.48126267E-11   # BR(K^0 -> pi^0 nu nu)
   19    8.29358524E-11   # BR(K^+ -> pi^+ nu nu)
   20   -1.69736990E-16   # Delta(g-2)_electron/2
   21   -7.25680025E-12   # Delta(g-2)_muon/2
   22   -2.05360397E-09   # Delta(g-2)_tau/2
   23    0.00000000E+00   # electric dipole moment of the electron
   24    0.00000000E+00   # electric dipole moment of the muon
   25    0.00000000E+00   # electric dipole moment of the tau
   26    0.00000000E+00   # Br(mu -> e gamma)
   27    0.00000000E+00   # Br(tau -> e gamma)
   28    0.00000000E+00   # Br(tau -> mu gamma)
   29    0.00000000E+00   # Br(mu -> 3 e)
   30    0.00000000E+00   # Br(tau -> 3 e)
   31    0.00000000E+00   # Br(tau -> 3 mu)
   39    4.64311248E-05   # Delta(rho_parameter)
   40    0.00000000E+00   # BR(Z -> e mu)
   41    0.00000000E+00   # BR(Z -> e tau)
   42    0.00000000E+00   # BR(Z -> mu tau)
Block FWCOEF Q=  1.60000000E+02  # Wilson coefficients at scale Q
#    id        order  M        value         comment
     0305 4422   00   0    -1.88819110E-01   # C7
     0305 4422   00   2    -2.15104786E-01   # C7
     0305 4322   00   2    -1.62475488E-04   # C7'
     0305 6421   00   0    -9.52278348E-02   # C8
     0305 6421   00   2    -1.14533791E-01   # C8
     0305 6321   00   2    -1.60462015E-04   # C8'
 03051111 4133   00   0     1.60948646E+00   # C9 e+e-
 03051111 4133   00   2     1.61046855E+00   # C9 e+e-
 03051111 4233   00   2     9.99651037E-05   # C9' e+e-
 03051111 4137   00   0    -4.43217856E+00   # C10 e+e-
 03051111 4137   00   2    -4.43325981E+00   # C10 e+e-
 03051111 4237   00   2    -7.58052197E-04   # C10' e+e-
 03051313 4133   00   0     1.60948646E+00   # C9 mu+mu-
 03051313 4133   00   2     1.61046851E+00   # C9 mu+mu-
 03051313 4233   00   2     9.99650933E-05   # C9' mu+mu-
 03051313 4137   00   0    -4.43217856E+00   # C10 mu+mu-
 03051313 4137   00   2    -4.43325985E+00   # C10 mu+mu-
 03051313 4237   00   2    -7.58052209E-04   # C10' mu+mu-
 03051212 4137   00   0     1.50535012E+00   # C11 nu_1 nu_1
 03051212 4137   00   2     1.50558750E+00   # C11 nu_1 nu_1
 03051212 4237   00   2     1.64555246E-04   # C11' nu_1 nu_1
 03051414 4137   00   0     1.50535012E+00   # C11 nu_2 nu_2
 03051414 4137   00   2     1.50558750E+00   # C11 nu_2 nu_2
 03051414 4237   00   2     1.64555247E-04   # C11' nu_2 nu_2
 03051616 4137   00   0     1.50535012E+00   # C11 nu_3 nu_3
 03051616 4137   00   2     1.50558750E+00   # C11 nu_3 nu_3
 03051616 4237   00   2     1.64555538E-04   # C11' nu_3 nu_3
Block IMFWCOEF Q=  1.60000000E+02  # Im(Wilson coefficients) at scale Q
#    id        order  M        value         comment
     0305 4422   00   0     3.85799298E-07   # C7
     0305 4422   00   2    -9.35137792E-06   # C7
     0305 4322   00   2    -1.33854636E-06   # C7'
     0305 6421   00   0     3.30462613E-07   # C8
     0305 6421   00   2    -1.48915640E-05   # C8
     0305 6321   00   2    -8.11012030E-07   # C8'
 03051111 4133   00   2     1.49065259E-06   # C9 e+e-
 03051111 4233   00   2     1.87813009E-06   # C9' e+e-
 03051111 4137   00   2     4.69637606E-06   # C10 e+e-
 03051111 4237   00   2    -1.42430994E-05   # C10' e+e-
 03051313 4133   00   2     1.49065134E-06   # C9 mu+mu-
 03051313 4233   00   2     1.87812999E-06   # C9' mu+mu-
 03051313 4137   00   2     4.69637717E-06   # C10 mu+mu-
 03051313 4237   00   2    -1.42430997E-05   # C10' mu+mu-
 03051212 4137   00   2    -9.72068538E-07   # C11 nu_1 nu_1
 03051212 4237   00   2     3.09184119E-06   # C11' nu_1 nu_1
 03051414 4137   00   2    -9.72068485E-07   # C11 nu_2 nu_2
 03051414 4237   00   2     3.09184119E-06   # C11' nu_2 nu_2
 03051616 4137   00   2    -9.72053776E-07   # C11 nu_3 nu_3
 03051616 4237   00   2     3.09184118E-06   # C11' nu_3 nu_3
