BLOCK SPINFO
   1   SPheno
   2   v4.0.5be

BLOCK SPHENOINFO
   1   2
   2   2

BLOCK MODSEL
   1   0

BLOCK MINPAR
   3    49.727884
   4   -1

BLOCK EXTPAR
   0    2788.8101
   1    464.62543
   2    432.12568
   3    1736.0833
   11   -5961.0071
   12    4143.3641
   13    1376.654
   23   -2390.9334
   25    49.52699
   26    4111.5495
   31    1532.4288
   32    1532.4288
   33    516.3905
   34    461.34889
   35    461.34889
   36    3460.2051
   41    4576.7577
   42    4576.7577
   43    4279.8564
   44    4655.2285
   45    4655.2285
   46    1706.9335
   47    4155.0312
   48    4155.0312
   49    1428.4506

BLOCK SMINPUTS
   1    127.90897
   2    1.1663787e-05
   3    0.1184
   4    91.1876
   5    4.18
   6    173.2
   7    1.777
   8    0
   11    0.00051099893
   12    0
   13    0.10565837
   14    0
   21    0.005
   22    0.0025
   23    0.095
   24    1.27

BLOCK GAUGE Q=  2788.8101
   1    0.35536298
   2    0.66519887
   3    1.219778

BLOCK YU Q=  2788.8101
   1   1    8.386081e-06
   2   2    0.0042601292
   3   3    1.0131059

BLOCK YD Q=  2788.8101
   1   1    0.00083460549
   2   2    0.015857504
   3   3    0.82766712

BLOCK YE Q=  2788.8101
   1   1    0.00014564476
   2   2    0.030114717
   3   3    0.50648001

BLOCK AU Q=  2788.8101
   1   1    0
   2   2    0
   3   3   -5961.007

BLOCK AD Q=  2788.8101
   1   1    0
   2   2    0
   3   3    4143.3638

BLOCK AE Q=  2788.8101
   1   1    0
   2   2    0
   3   3    1376.654

BLOCK MSOFT Q=  2788.8101
   1    464.62543
   2    432.12568
   3    1736.0833
   21    11457173
   22   -5826772.7
   31    1532.4288
   32    1532.4288
   33    516.3905
   34    461.34889
   35    461.34889
   36    3460.2051
   41    4576.7577
   42    4576.7577
   43    4279.8564
   44    4655.2285
   45    4655.2285
   46    1706.9335
   47    4155.0312
   48    4155.0312
   49    1428.4506

BLOCK MASS
   6    173.2
   23    91.1876
   24    80.429995
   15    1.777
   25    126.17843
   35    4108.5424
   36    4111.5495
   37    4109.4929
   1000001    4636.7488
   2000001    4203.2299
   1000002    4636.187
   2000002    4706.0692
   1000003    4636.7446
   2000003    4203.2221
   1000004    4636.1818
   2000004    4706.0691
   1000005    1579.6926
   2000005    4279.5921
   1000006    1814.5555
   2000006    4286.1524
   1000011    1536.9113
   2000011    468.06454
   1000012    1534.5157
   1000013    1536.9138
   2000013    467.8914
   1000014    1534.4913
   1000015    528.06699
   2000015    3454.3888
   1000016    533.13195
   1000021    2019.1048
   1000022    459.18217
   1000023    464.23479
   1000025   -2382.887
   1000035    2383.0372
   1000024    464.39355
   1000037    2384.0096

BLOCK ALPHA
      -0.020139251

BLOCK HMIX Q=  2788.8101
   1   -2390.9334
   2    49.52699
   3    243.33229
   4    16904839

BLOCK STOPMIX
   1   1    0.05568979
   1   2    0.99844812
   2   1   -0.99844812
   2   2    0.05568979

BLOCK SBOTMIX
   1   1   -0.018976916
   1   2    0.99981992
   2   1   -0.99981992
   2   2   -0.018976916

BLOCK STAUMIX
   1   1   -0.99983833
   1   2    0.017981067
   2   1   -0.017981067
   2   2   -0.99983833

BLOCK NMIX
   1   1   -0.99823093
   1   2    0.055280874
   1   3    0.021540349
   1   4    0.0038793092
   2   1    0.055983352
   2   2    0.99788944
   2   3    0.032407554
   2   4    0.005682491
   3   1   -0.011417847
   3   2    0.019564353
   3   3   -0.70669503
   3   4    0.70715557
   4   1   -0.016447118
   4   2    0.027891523
   4   3   -0.70644737
   4   4   -0.70702451

BLOCK UMIX
   1   1   -0.99887408
   1   2   -0.047440275
   2   1    0.047440275
   2   2   -0.99887408

BLOCK VMIX
   1   1   -0.99996531
   1   2    0.0083297269
   2   1    0.0083297269
   2   2    0.99996531

BLOCK HIGGSBOUNDSINPUTHIGGSCOUPLINGSFERMIONS
       0, 2452.9228,3,36,15,15

BLOCK HIGGSBOUNDSINPUTHIGGSCOUPLINGSBOSONS
       0,4,36,21,21,23

BLOCK SPHENOLOWENERGY
   1    0.00035493625
   2    1.5873636e-06
   3    3.5250669e-05
   4    8.8823166e-16
   5    3.7929748e-11
   6    7.127187e-09
   7    3.1394823e-14
   8    1.3407463e-09
   9    2.5949368e-07
   10    9.5222405e-05
   11    0.98361099
   12    0.54320461
   13    19.348935
   14    0
   15    0
   16    0.0021681407
   17    2.2817699e-15
   18    2.4809844e-11
   19    8.2910005e-11
   20   -1.1458162e-14
   21   -4.9056265e-10
   22   -2.4402441e-07
   23    0
   24    0
   25    0
   26    0
   27    0
   28    0
   29    0
   30    0
   31    0
   39    7.4118967e-05
   40    0
   41    0
   42    0

BLOCK FWCOEF Q=  160
   305   4422   0   0   -0.18881911
   305   4422   0   2   -0.22875638
   305   4322   0   2   -0.00071741939
   305   6421   0   0   -0.095227835
   305   6421   0   2   -0.11862678
   305   6321   0   2   -0.00045443261
   3051111   4133   0   0    1.6147661
   3051111   4133   0   2    1.6146189
   3051111   4233   0   2    0.00032994626
   3051111   4137   0   0   -4.4374582
   3051111   4137   0   2   -4.4356291
   3051111   4237   0   2   -0.0024801945
   3051313   4133   0   0    1.6147661
   3051313   4133   0   2    1.6146125
   3051313   4233   0   2    0.00032994505
   3051313   4137   0   0   -4.4374582
   3051313   4137   0   2   -4.4356355
   3051313   4237   0   2   -0.0024801961
   3051212   4137   0   0    1.5053501
   3051212   4137   0   2    1.5049685
   3051212   4237   0   2    0.00053774003
   3051414   4137   0   0    1.5053501
   3051414   4137   0   2    1.5049685
   3051414   4237   0   2    0.00053774008
   3051616   4137   0   0    1.5053501
   3051616   4137   0   2    1.5049691
   3051616   4237   0   2    0.00053775597

BLOCK IMFWCOEF Q=  160
   305   4422   0   0    3.8557213e-07
   305   4422   0   2   -4.8684831e-05
   305   4322   0   2   -1.1524736e-05
   305   6421   0   0    3.3026803e-07
   305   6421   0   2    0.00011162892
   305   6321   0   2   -6.3759032e-06
   3051111   4133   0   2   -3.9043173e-06
   3051111   4233   0   2    6.5426052e-06
   3051111   4137   0   2    3.2028601e-05
   3051111   4237   0   2   -4.9191953e-05
   3051313   4133   0   2   -3.9044542e-06
   3051313   4233   0   2    6.5425879e-06
   3051313   4137   0   2    3.2028609e-05
   3051313   4237   0   2   -4.9191985e-05
   3051212   4137   0   2   -6.678437e-06
   3051212   4237   0   2    1.0665512e-05
   3051414   4137   0   2   -6.678435e-06
   3051414   4237   0   2    1.0665512e-05
   3051616   4137   0   2   -6.6666903e-06
   3051616   4237   0   2    1.0665547e-05

DECAY 23  2.4952


DECAY 24  2.085


DECAY 2000011  0.0033140194
    0.99940925   2    1000022    11
    0.00059074773   2    1000023    11

DECAY 1000011  18.330177
    0.60810286   2   -1000024    12
    0.32195845   2    1000023    11
    0.069938651   2    1000022    11

DECAY 2000013  0.0031881949
    0.99943915   2    1000022    13
    0.00055952652   2    1000023    13

DECAY 1000013  18.360413
    0.60710283   2   -1000024    14
    0.32143035   2    1000023    13
    0.069824198   2    1000022    13
    0.0016426167   2    2000013    25

DECAY 1000015  0.39714366
    0.60035401   2   -1000024    16
    0.3200231   2    1000023    15
    0.079622893   2    1000022    15

DECAY 2000015  43.271979
    0.3856162   2    1000022    15
    0.1945972   2    1000016   -24
    0.11169969   2   -1000037    16
    0.097353551   2    1000015    23
    0.097238202   2    1000015    25
    0.055975978   2    1000025    15
    0.055967426   2    1000035    15
    0.0013284467   2    1000023    15
    0.00022331086   2   -1000024    16

DECAY 1000012  18.309196
    0.60879711   2    1000024    11
    0.28527724   2    1000023    12
    0.10592566   2    1000022    12

DECAY 1000014  18.308843
    0.60879824   2    1000024    13
    0.2852764   2    1000023    14
    0.10592536   2    1000022    14

DECAY 1000016  0.45653565
    0.59982589   2    1000024    15
    0.2814954   2    1000023    16
    0.1186787   2    1000022    16

DECAY 2000001  198.61423
    0.98846749   2    1000021    1
    0.011493924   2    1000022    1

DECAY 1000001  300.93856
    0.7986759   2    1000021    1
    0.13262749   2   -1000024    2
    0.064868205   2    1000023    1
    0.0036110806   2    1000022    1
    0.00016519577   2   -1000037    2

DECAY 2000003  198.63276
    0.98837121   2    1000021    3
    0.011492877   2    1000022    3

DECAY 1000003  300.95205
    0.7986387   2    1000021    3
    0.13262139   2   -1000024    4
    0.064865317   2    1000023    3
    0.0036109505   2    1000022    3
    0.0001682171   2   -1000037    4

DECAY 1000005  0.85388097
    0.8783715   2    1000022    5
    0.080232441   2   -1000024    6
    0.041396061   2    1000023    5

DECAY 2000005  434.62
    0.46975118   2    1000021    5
    0.20953018   2    1000006   -24
    0.095724251   2   -1000037    6
    0.083953544   2   -1000024    6
    0.041345373   2    1000023    5
    0.031935795   2    1000025    5
    0.031929732   2    1000035    5
    0.019300555   2    1000005    25
    0.014203336   2    1000005    23
    0.0023260556   2    1000022    5

DECAY 1000002  300.9176
    0.79854414   2    1000021    2
    0.13290992   2    1000024    1
    0.067509169   2    1000023    2
    0.00099739617   2    1000022    2

DECAY 2000002  257.60408
    0.95998322   2    1000021    2
    0.039882346   2    1000022    2
    0.00012538676   2    1000023    2

DECAY 1000004  300.93039
    0.79850827   2    1000021    4
    0.13290429   2    1000024    3
    0.06750621   2    1000023    4
    0.00099735257   2    1000022    4

DECAY 2000004  257.60588
    0.95997622   2    1000021    4
    0.039882059   2    1000022    4
    0.00012538609   2    1000023    4

DECAY 1000006  3.5703604
    0.96823993   2    1000022    6
    0.018299396   2    1000024    5
    0.012407014   2    1000023    6
    0.00096823215   3    1000016   -15    5

DECAY 2000006  453.45253
    0.44681208   2    1000021    6
    0.14864399   2    1000006    25
    0.10075006   2    1000006    23
    0.081178554   2    1000024    5
    0.061442739   2    1000037    5
    0.046301093   2    1000035    6
    0.04594261   2    1000025    6
    0.040951882   2    1000023    6
    0.027329592   2    1000005    24
    0.00064740087   2    1000022    6

DECAY 1000024  6.0357901e-11
    0.36644495   3    1000022   -1    2
    0.275228   3    1000022   -3    4
    0.12249848   3    1000022   -11    12
    0.12232071   3    1000022   -13    14
    0.11350671   3    1000022   -15    16

DECAY 1000037  50.537025
    0.30131663   2   -1000005    6
    0.25505514   2    1000006   -5
    0.10840517   2    1000016   -15
    0.10123885   2    1000024    25
    0.10006109   2    1000023    24
    0.093945404   2    1000024    23
    0.02665723   2    1000022    24
    0.0066067556   3    1000024    6   -6
    0.004495976   3    1000023   -5    6
    0.001051656   3    1000022   -5    6
    0.00039251751   2   -2000013    14
    0.00021396345   2   -1000015    16
    0.00015959074   2   -1000011    12
    0.00015959   2   -1000013    14
    0.00015060712   2    1000014   -13

DECAY 1000022 -1


DECAY 1000023  1.0391814e-11
    0.39887665   3    1000022    13   -13
    0.37589909   3    1000022    11   -11
    0.19284132   3    1000022    12   -12
    0.030646944   3    1000022    15   -15
    0.0014517942   2    1000022    22

DECAY 1000025  53.095027
    0.14381537   2    1000005   -5
    0.14381537   2   -1000005    5
    0.12200619   2    1000006   -6
    0.12200619   2   -1000006    6
    0.089641606   2    1000024   -24
    0.089641606   2   -1000024    24
    0.065805225   2    1000023    25
    0.056046591   2    1000023    23
    0.051666328   2    1000015   -15
    0.051666328   2   -1000015    15
    0.025024756   2    1000022    23
    0.02426335   2    1000022    25
    0.0048547202   3    1000024    5   -6
    0.0048547202   3   -1000024   -5    6
    0.0028954078   3    1000023    6   -6
    0.0011423697   3    1000022    6   -6
    0.0002005015   2    2000013   -13
    0.0002005015   2   -2000013    13

DECAY 1000035  50.260878
    0.15181143   2    1000005   -5
    0.15181143   2   -1000005    5
    0.12723108   2    1000006   -6
    0.12723108   2   -1000006    6
    0.094599988   2    1000024   -24
    0.094599988   2   -1000024    24
    0.064058291   2    1000023    25
    0.054535797   2    1000015   -15
    0.054535797   2   -1000015    15
    0.029116297   2    1000023    23
    0.023616481   2    1000022    25
    0.012747598   2    1000022    23
    0.004450929   3    1000024    5   -6
    0.004450929   3   -1000024   -5    6
    0.0028631138   3    1000023    6   -6
    0.0011267921   3    1000022    6   -6
    0.00022711989   2    2000013   -13
    0.00022711989   2   -2000013    13
    0.00012667306   2    1000016   -16
    0.00012667306   2   -1000016    16

DECAY 1000021  10.105194
    0.44510275   2    1000005   -5
    0.44510275   2   -1000005    5
    0.054605266   2    1000006   -6
    0.054605266   2   -1000006    6

DECAY 25  0.004028221
    0.55322429   2   -5    5
    0.24877288   2   -24    24
    0.071512215   2    21    21
    0.063875346   2   -15    15
    0.030816369   2    23    23
    0.027420794   2   -4    4
    0.0023465489   2    22    22
    0.0016012129   2    22    23
    0.00022142048   2   -13    13
    0.00020820651   2   -3    3
    5.7567186e-07   2   -1    1
    1.4130211e-07   2   -2    2
    4.9777762e-09   2   -11    11

DECAY 35  173.35455
    0.76521891   2   -5    5
    0.098497646   2   -15    15
    0.039784943   2   -1000024    1000037
    0.039784943   2   -1000037    1000024
    0.022979764   2    1000022    1000025
    0.016976418   2    1000022    1000035
    0.0064060367   2    1000023    1000025
    0.0045885943   2    1000023    1000035
    0.0012693604   2   -1000006    1000006
    0.0010750035   2   -2000015    1000015
    0.0010750035   2   -1000015    2000015
    0.00062135389   2   -6    6
    0.0004361045   2   -1000024    1000024
    0.00037842688   2   -13    13
    0.00030766726   2   -3    3
    0.00022608013   2   -1000005    1000005
    0.00022104202   2    1000022    1000022
    0.00012273698   2    1000022    1000023
    1.7034987e-05   2    1000023    1000023
    7.431414e-06   2   -1000015    1000015
    3.0115208e-06   2    21    21
    1.3074443e-06   2    25    25
    8.5113189e-07   2   -1    1
    6.3662019e-08   2    23    23
    2.4375579e-08   2    22    23
    2.3976258e-08   2   -2000013    1000013
    2.3976258e-08   2   -1000013    2000013
    1.3037226e-08   2   -24    24
    1.0378578e-08   2   -2000013    2000013
    1.0173151e-08   2   -2000011    2000011
    9.6350019e-09   2   -1000011    1000011
    9.1145109e-09   2   -1000013    1000013
    8.8933578e-09   2    22    22
    8.4983851e-09   2   -11    11
    4.9744279e-09   2   -4    4
    5.608839e-13   2   -2000011    1000011
    5.608839e-13   2   -1000011    2000011
    2.5630008e-14   2   -2    2

DECAY 36  160.73222
    0.75688043   2   -5    5
    0.097407777   2   -15    15
    0.043003391   2   -1000024    1000037
    0.043003391   2   -1000037    1000024
    0.024781763   2    1000022    1000035
    0.018405106   2    1000022    1000025
    0.0069083731   2    1000023    1000035
    0.0049752582   2    1000023    1000025
    0.0011736146   2   -2000015    1000015
    0.0011736146   2   -1000015    2000015
    0.00071099676   2   -6    6
    0.000486129   2   -1000024    1000024
    0.00037426237   2   -13    13
    0.00030430291   2   -3    3
    0.00024639298   2    1000022    1000022
    0.00013721943   2    1000022    1000023
    1.9106842e-05   2    1000023    1000023
    7.8064242e-06   2    21    21
    8.4183091e-07   2   -1    1
    1.4942051e-07   2    23    25
    2.5811091e-08   2   -2000013    1000013
    2.5811091e-08   2   -1000013    2000013
    8.4048124e-09   2   -11    11
    5.8549277e-09   2   -4    4
    4.6460826e-09   2    22    23
    3.4320907e-09   2    22    22
    1.6807986e-12   2    23    35
    6.0372316e-13   2   -2000011    1000011
    6.0372316e-13   2   -1000011    2000011
    3.0169025e-14   2   -2    2
    3.8783125e-37   2    25    25

DECAY 37  152.07776
    0.70944639   2   -5    6
    0.13363426   2   -15    16
    0.045448025   2    1000024    1000025
    0.045415146   2    1000024    1000035
    0.045233316   2    1000022    1000037
    0.013175952   2    1000023    1000037
    0.002999927   2   -1000005    1000006
    0.0024821186   2   -2000015    1000016
    0.0010520576   2   -5    4
    0.00047244467   2   -13    14
    0.00032026675   2   -3    4
    0.00029022116   2    1000023    1000024
    1.5052836e-05   2   -3    2
    7.5127759e-06   2   -5    2
    4.9459683e-06   2   -1000015    1000016
    1.0730961e-06   2   -3    6
    8.8950436e-07   2   -1    2
    1.577383e-07   2    24    25
    5.3943756e-08   2   -1000013    1000014
    4.5893899e-08   2   -2000013    1000014
    4.556889e-08   2   -2000011    1000012
    4.1934604e-08   2   -1    4
    2.7324184e-08   2   -1    6
    1.189957e-08   2    1000022    1000024
    1.105053e-08   2   -11    12
    1.2617516e-12   2   -1000011    1000012

DECAY 6  2.43
    1   2    5    24

DECAY 15 -1
