BLOCK DCINFO
   1   SDECAY/HDECAY
   2   1.3b /3.4

BLOCK SPINFO
   1   SOFTSUSY
   2   3.4.0

BLOCK MODSEL
   1   0

BLOCK SMINPUTS
   1    127.90897
   2    1.1663787e-05
   3    0.1184
   4    91.1876
   5    4.18
   6    173.2
   7    1.777

BLOCK MINPAR
   3    12.01

BLOCK EXTPAR
   0   -1
   1   -636.19
   2    1279.67
   3    3945.14
   11   -3826.01
   12   -2955.79
   13    2692.98
   23    606.66
   26    3383.18
   31    2861.25
   32    2861.25
   33    1926.93
   34    1654.39
   35    1654.39
   36    1886.98
   41    2091
   42    2091
   43    3606.3
   44    736.89
   45    736.89
   46    2507.35
   47    929.68
   48    929.68
   49    1098.26

BLOCK MASS
   24    80.381644
   25    125.65928
   35    3383.2233
   36    3383.18
   37    3384.3469
   5    4.8187603
   1000001    2221.8877
   2000001    1091.5937
   1000002    2220.5828
   2000002    916.04053
   1000003    2221.8877
   2000003    1091.5937
   1000004    2220.5828
   2000004    916.04053
   1000005    1246.1489
   2000005    3680.3474
   1000006    2560.2527
   2000006    3688.7483
   1000011    2869.635
   2000011    1659.1082
   1000012    2868.2358
   1000013    2869.635
   2000013    1659.1082
   1000014    2868.2358
   1000015    1889.986
   2000015    1937.4519
   1000016    1935.4537
   1000021    3947.13
   1000022   -598.40886
   1000023    623.16288
   1000025   -655.57012
   1000035    1322.6034
   1000024    623.9721
   1000037    1322.7778

BLOCK NMIX
   1   1    0.72885983
   1   2    0.017501264
   1   3    0.49735112
   1   4    0.47021156
   2   1   -0.026884271
   2   2   -0.085882789
   2   3    0.70628654
   2   4   -0.70218281
   3   1    0.68413233
   3   2   -0.019280199
   3   3   -0.50199551
   3   4   -0.52876435
   4   1   -0.0018822526
   4   2    0.99596492
   4   3    0.042446286
   4   4   -0.079048364

BLOCK UMIX
   1   1   -0.060072842
   1   2    0.998194
   2   1   -0.998194
   2   2   -0.060072842

BLOCK VMIX
   1   1   -0.11192141
   1   2    0.99371706
   2   1   -0.99371706
   2   2   -0.11192141

BLOCK STOPMIX
   1   1    0.079954094
   1   2    0.99679855
   2   1   -0.99679855
   2   2    0.079954094

BLOCK SBOTMIX
   1   1    0.0019238524
   1   2    0.99999815
   2   1   -0.99999815
   2   2    0.0019238524

BLOCK STAUMIX
   1   1    0.044261893
   1   2    0.99901996
   2   1   -0.99901996
   2   2    0.044261893

BLOCK ALPHA
      -0.087167938

BLOCK HMIX Q=  3007.489
   1    614.92992
   2    11.465802
   3    242.1492
   4    11577644

BLOCK GAUGE Q=  3007.489
   1    0.3652287
   2    0.63800329
   3    1.0079073

BLOCK AU Q=  3007.489
   1   1    0
   2   2    0
   3   3   -3826.01

BLOCK AD Q=  3007.489
   1   1    0
   2   2    0
   3   3   -2955.79

BLOCK AE Q=  3007.489
   1   1    0
   2   2    0
   3   3    2692.98

BLOCK YU Q=  3007.489
   1   1    0
   2   2    0
   3   3    0.81663169

BLOCK YD Q=  3007.489
   1   1    0
   2   2    0
   3   3    0.1509674

BLOCK YE Q=  3007.489
   1   1    0
   2   2    0
   3   3    0.1187405

BLOCK MSOFT Q=  3007.489
   1   -636.19
   2    1279.67
   3    3945.14
   21    10956878
   22   -135816.86
   31    2861.25
   32    2861.25
   33    1926.93
   34    1654.39
   35    1654.39
   36    1886.98
   41    2091
   42    2091
   43    3606.3
   44    736.88994
   45    736.88994
   46    2507.3499
   47    929.67995
   48    929.67995
   49    1098.26

BLOCK HIGGSBOUNDSINPUTHIGGSCOUPLINGSFERMIONS
       0, 131.46461,3,36,15,15

BLOCK HIGGSBOUNDSINPUTHIGGSCOUPLINGSBOSONS
       0,4,36,21,21,23

DECAY 6  1.4339311
    1   2    5    24

DECAY 1000021  517.44155
    0.068514622   2    2000002   -2
    0.068514622   2   -2000002    2
    0.068514621   2    2000004   -4
    0.068514621   2   -2000004    4
    0.065277455   2    2000001   -1
    0.065277455   2   -2000001    1
    0.065277455   2    2000003   -3
    0.065277455   2   -2000003    3
    0.06194421   2    1000005   -5
    0.06194421   2   -1000005    5
    0.035756249   2    1000002   -2
    0.035756249   2   -1000002    2
    0.035756241   2    1000004   -4
    0.035756241   2   -1000004    4
    0.03571733   2    1000001   -1
    0.03571733   2   -1000001    1
    0.03571733   2    1000003   -3
    0.03571733   2   -1000003    3
    0.0250904   2    1000006   -6
    0.0250904   2   -1000006    6
    0.0013592713   2    2000005   -5
    0.0013592713   2   -2000005    5
    0.0010748138   2    2000006   -6
    0.0010748138   2   -2000006    6

DECAY 1000006  64.993892
    0.46018643   2    1000024    5
    0.22675071   2    1000023    6
    0.17803828   2    1000025    6
    0.13400182   2    1000022    6
    0.00068803699   2    1000037    5
    0.0003330276   2    1000035    6
    1.6905824e-06   2    1000005    24

DECAY 2000006  109.81712
    0.20742071   2    1000037    5
    0.20568556   2    1000023    6
    0.12931846   2    1000006    23
    0.12286582   2    1000006    25
    0.10937812   2    1000025    6
    0.10671093   2    1000035    6
    0.10363752   2    1000022    6
    0.014252076   2    1000024    5
    0.00073079528   2    1000005    24

DECAY 1000005  1.0209965
    0.30943236   2    1000022    5
    0.28759496   2   -1000024    6
    0.24718912   2    1000025    5
    0.15578357   2    1000023    5

DECAY 2000005  109.11666
    0.41515779   2   -1000024    6
    0.24953194   2    1000006   -24
    0.21170231   2   -1000037    6
    0.10283889   2    1000035    5
    0.0080273293   2    1000023    5
    0.0065181872   2    1000025    5
    0.0054679573   2    1000022    5
    0.00037833368   2    1000005    23
    0.0003772634   2    1000005    25

DECAY 1000002  11.800278
    0.63520935   2    1000037    1
    0.31890477   2    1000035    2
    0.016339457   2    1000024    1
    0.016209539   2    1000022    2
    0.0079321049   2    1000025    2
    0.0054047781   2    1000023    2

DECAY 2000002  0.65436065
    0.60935062   2    1000022    2
    0.38992049   2    1000025    2
    0.00072889165   2    1000023    2

DECAY 1000001  11.743884
    0.645209   2   -1000037    2
    0.32148919   2    1000035    1
    0.014463105   2    1000025    1
    0.0098267103   2    1000022    1
    0.0047334416   2   -1000024    2
    0.004278552   2    1000023    1

DECAY 2000001  0.30421492
    0.57532444   2    1000022    1
    0.42394824   2    1000025    1
    0.00072731687   2    1000023    1

DECAY 1000004  11.638056
    0.63506009   2    1000037    3
    0.31882989   2    1000035    4
    0.016419036   2    1000024    3
    0.016290193   2    1000022    4
    0.0079696773   2    1000025    4
    0.005431113   2    1000023    4

DECAY 2000004  0.61835874
    0.61004552   2    1000022    4
    0.38922556   2    1000025    4
    0.00072891543   2    1000023    4

DECAY 1000003  11.582131
    0.64509912   2   -1000037    4
    0.32143579   2    1000035    3
    0.014532473   2    1000025    3
    0.0098761886   2    1000022    3
    0.0047567676   2   -1000024    4
    0.0042996536   2    1000023    3

DECAY 2000003  0.29068018
    0.57561372   2    1000022    3
    0.42365894   2    1000025    3
    0.00072734649   2    1000023    3

DECAY 1000011  25.134219
    0.57133266   2   -1000037    12
    0.28381725   2    1000035    11
    0.079937832   2    1000022    11
    0.057579149   2    1000025    11
    0.004304628   2    1000023    11
    0.0030284766   2   -1000024    12

DECAY 2000011  6.479589
    0.54632751   2    1000022    11
    0.45294721   2    1000025    11
    0.00072464117   2    1000023    11
    6.3971711e-07   2    1000035    11

DECAY 1000013  25.134219
    0.57133266   2   -1000037    14
    0.28381725   2    1000035    13
    0.079937832   2    1000022    13
    0.057579149   2    1000025    13
    0.004304628   2    1000023    13
    0.0030284766   2   -1000024    14

DECAY 2000013  6.479589
    0.54632751   2    1000022    13
    0.45294721   2    1000025    13
    0.00072464117   2    1000023    13
    6.3971708e-07   2    1000035    13

DECAY 1000015  8.8051384
    0.50464193   2    1000022    15
    0.42038656   2    1000025    15
    0.048903827   2   -1000024    16
    0.025329532   2    1000023    15
    0.0004930217   2   -1000037    16
    0.00024513451   2    1000035    15

DECAY 2000015  9.2679585
    0.48028007   2   -1000037    16
    0.23870399   2    1000035    15
    0.14022549   2    1000022    15
    0.1074697   2    1000025    15
    0.029673045   2    1000023    15
    0.0036477068   2   -1000024    16

DECAY 1000012  25.149809
    0.56529455   2    1000037    11
    0.28458266   2    1000035    12
    0.070037049   2    1000025    12
    0.067503062   2    1000022    12
    0.010499558   2    1000024    11
    0.0020831245   2    1000023    12

DECAY 1000014  25.149809
    0.56529454   2    1000037    13
    0.28458266   2    1000035    14
    0.070037049   2    1000025    14
    0.067503062   2    1000022    14
    0.010499558   2    1000024    13
    0.0020831245   2    1000023    14

DECAY 1000016  9.2935011
    0.47301478   2    1000037    15
    0.23816161   2    1000035    16
    0.11158545   2    1000025    16
    0.11021201   2    1000022    16
    0.063659654   2    1000024    15
    0.0033664919   2    1000023    16

DECAY 1000024  6.085457e-06
    0.33422517   3    1000022    2   -1
    0.33422517   3    1000022    4   -3
    0.11139399   3    1000022   -11    12
    0.11139399   3    1000022   -13    14
    0.10876164   3    1000022   -15    16
    2.3072082e-08   3    1000023    2   -1
    7.6906186e-09   3    1000023   -11    12
    7.6906186e-09   3    1000023   -13    14

DECAY 1000037  10.860006
    0.25365533   2    1000024    23
    0.25212201   2    1000024    25
    0.24751435   2    1000023    24
    0.1248646   2    1000022    24
    0.12184371   2    1000025    24

DECAY 1000022 -1


DECAY 1000023  4.145028e-06
    0.15806555   3    1000022   -1    1
    0.15806555   3    1000022   -3    3
    0.12177353   3    1000022   -2    2
    0.12177353   3    1000022   -4    4
    0.11288526   3    1000022   -5    5
    0.072661209   3    1000022   -12    12
    0.072661209   3    1000022   -14    14
    0.07265498   3    1000022   -16    16
    0.036328155   3    1000022   -11    11
    0.036328155   3    1000022   -13    13
    0.035264584   3    1000022   -15    15
    0.0015383025   2    1000022    22

DECAY 1000025  6.0995786e-05
    0.11174362   3    1000024   -2    1
    0.11174362   3   -1000024   -1    2
    0.11174362   3    1000024   -4    3
    0.11174362   3   -1000024   -3    4
    0.047704354   3    1000023   -1    1
    0.047704354   3    1000023   -3    3
    0.03930968   3    1000023   -5    5
    0.037252222   3    1000024   -12    11
    0.037252222   3   -1000024    12   -11
    0.037252222   3    1000024   -14    13
    0.037252222   3   -1000024    14   -13
    0.036731274   3    1000023   -2    2
    0.036731274   3    1000023   -4    4
    0.036678544   3    1000024   -16    15
    0.036678544   3   -1000024    16   -15
    0.021935313   3    1000023   -16    16
    0.021933501   3    1000023   -12    12
    0.021933501   3    1000023   -14    14
    0.020983688   2    1000022    22
    0.010970588   3    1000023   -11    11
    0.010970588   3    1000023   -13    13
    0.010772177   3    1000023   -15    15
    0.0026987842   2    1000023    22
    0.00011817692   3    1000022   -2    2
    0.00011817692   3    1000022   -4    4
    1.0312355e-05   3    1000022   -5    5
    7.0790774e-06   3    1000022   -1    1
    7.0790774e-06   3    1000022   -3    3
    4.8389195e-06   3    1000022   -16    16
    3.848863e-06   3    1000022   -12    12
    3.848863e-06   3    1000022   -14    14
    2.7747028e-06   3    1000022   -11    11
    2.7747028e-06   3    1000022   -13    13
    1.5785744e-06   3    1000022   -15    15

DECAY 1000035  10.854222
    0.24867015   2    1000024   -24
    0.24867015   2   -1000024    24
    0.23021163   2    1000023    25
    0.11532089   2    1000022    23
    0.11484789   2    1000025    23
    0.021604846   2    1000023    23
    0.011699874   2    1000022    25
    0.0089698642   2    1000025    25
    1.399916e-06   2    1000005   -5
    1.399916e-06   2   -1000005    5
    4.3100687e-07   2    2000002   -2
    4.3100687e-07   2   -2000002    2
    4.3100472e-07   2    2000004   -4
    4.3100472e-07   2   -2000004    4
    4.0941622e-08   2    2000001   -1
    4.0941622e-08   2   -2000001    1
    4.0941622e-08   2    2000003   -3
    4.0941622e-08   2   -2000003    3

DECAY 25  0.004214004
    0.59468761   2    5   -5
    0.21447227   2    24   -24
    0.076867564   2    21    21
    0.061967931   2   -15    15
    0.027018833   2    23    23
    0.020667787   2    4   -4
    0.0022883616   2    22    22
    0.0015711505   2    22    23
    0.00023915355   2    3   -3
    0.00021934324   2   -13    13

DECAY 35  39.320418
    0.24190336   2    1000024   -1000037
    0.24190336   2    1000037   -1000024
    0.12544208   2    5   -5
    0.086882465   2    1000025    1000035
    0.079554332   2    1000023    1000035
    0.076155473   2    1000022    1000035
    0.026282514   2    1000022    1000023
    0.026143492   2    6   -6
    0.025371139   2    1000025    1000025
    0.023894379   2    1000022    1000022
    0.023058038   2   -15    15
    0.014724734   2    1000023    1000025
    0.0065964844   2    1000024   -1000024
    0.0012367029   2    1000023    1000023
    0.00043729431   2    1000037   -1000037
    0.00022031322   2    1000035    1000035
    8.1969048e-05   2   -13    13
    4.726961e-05   2    3   -3
    3.6017235e-05   2    25    25
    9.3919015e-06   2    24   -24
    6.8490214e-06   2    21    21
    4.6868525e-06   2    23    23
    3.0901946e-06   2    1000022    1000025
    1.1415488e-06   2    2000002   -2000002
    1.1415488e-06   2    2000004   -2000004
    9.3014655e-07   2    1000005   -1000005
    2.6540186e-07   2    4   -4
    2.593305e-07   2    2000001   -2000001
    2.593305e-07   2    2000003   -2000003
    1.9867972e-07   2    2000011   -2000011
    1.9867972e-07   2    2000013   -2000013
    1.4786815e-07   2    22    22
    1.3569331e-08   2    23    22

DECAY 36  39.315708
    0.23969129   2    1000024   -1000037
    0.23969129   2    1000037   -1000024
    0.16097906   2    1000023    1000035
    0.12548758   2    5   -5
    0.042504937   2    1000025    1000035
    0.037605211   2    1000022    1000035
    0.029857772   2    1000022    1000023
    0.026219234   2    6   -6
    0.02306123   2   -15    15
    0.0206486   2    1000025    1000025
    0.019951003   2    1000023    1000025
    0.019620777   2    1000022    1000022
    0.0092042245   2    1000024   -1000024
    0.0021769093   2    1000037   -1000037
    0.0020269146   2    1000023    1000023
    0.0010926908   2    1000035    1000035
    8.1980296e-05   2   -13    13
    4.7301465e-05   2    3   -3
    2.9749551e-05   2    21    21
    1.2200128e-05   2    1000022    1000025
    9.5230045e-06   2    23    25
    2.6683852e-07   2    4   -4
    2.1016716e-07   2    22    22
    3.4515636e-08   2    23    22

DECAY 37  39.016535
    0.24828037   2    1000037    1000023
    0.24524768   2    1000024    1000035
    0.14530604   2    6   -5
    0.12995392   2    1000037    1000025
    0.11427878   2    1000037    1000022
    0.06396382   2    1000024    1000022
    0.028871569   2    1000024    1000025
    0.023246075   2   -15    16
    0.00050711129   2    1000024    1000023
    0.00020079604   2    4   -5
    8.2637402e-05   2   -13    14
    4.7190819e-05   2    4   -3
    9.6106884e-06   2    24    25
    2.384434e-06   2    2   -3
    2.0079542e-06   2    2   -5
    3.1489947e-09   2    1000037    1000035
    7.2955981e-14   2    24    36

DECAY 5 -1


DECAY 15 -1


DECAY 23  2.4952


DECAY 24  2.085
