BLOCK SPINFO
   1   SPheno
   2   v4.0.5be

BLOCK SPHENOINFO
   1   2
   2   2

BLOCK MODSEL
   1   0

BLOCK MINPAR
   3    56.314378
   4    1

BLOCK EXTPAR
   0    2686.8386
   1    4932.3929
   2   -3827.3633
   3    4393.197
   11   -4994.8718
   12    3332.9779
   13   -3754.4356
   23    1001.3587
   25    55.965058
   26    3443.4348
   31    3918.919
   32    3918.919
   33    4577.7406
   34    3707.4627
   35    3707.4627
   36    2007.3055
   41    2434.5763
   42    2434.5763
   43    1945.8466
   44    1919.8949
   45    1919.8949
   46    3589.941
   47    1317.4272
   48    1317.4272
   49    4660.8498

BLOCK SMINPUTS
   1    127.90897
   2    1.1663787e-05
   3    0.1184
   4    91.1876
   5    4.18
   6    173.2
   7    1.777
   8    0
   11    0.00051099893
   12    0
   13    0.10565837
   14    0
   21    0.005
   22    0.0025
   23    0.095
   24    1.27

BLOCK GAUGE Q=  2686.8386
   1    0.35536298
   2    0.66519887
   3    1.219778

BLOCK YU Q=  2686.8386
   1   1    8.3857105e-06
   2   2    0.0042599409
   3   3    1.0130612

BLOCK YD Q=  2686.8386
   1   1    0.0009430551
   2   2    0.017918047
   3   3    0.93521515

BLOCK YE Q=  2686.8386
   1   1    0.00016457001
   2   2    0.034027859
   3   3    0.57229261

BLOCK AU Q=  2686.8386
   1   1    0
   2   2    0
   3   3   -4994.8717

BLOCK AD Q=  2686.8386
   1   1    0
   2   2    0
   3   3    3332.9781

BLOCK AE Q=  2686.8386
   1   1    0
   2   2    0
   3   3   -3754.4356

BLOCK MSOFT Q=  2686.8386
   1    4932.3929
   2   -3827.3633
   3    4393.197
   21    10910970
   22   -950877.04
   31    3918.919
   32    3918.919
   33    4577.7406
   34    3707.4627
   35    3707.4627
   36    2007.3055
   41    2434.5763
   42    2434.5763
   43    1945.8466
   44    1919.8949
   45    1919.8949
   46    3589.941
   47    1317.4272
   48    1317.4272
   49    4660.8498

BLOCK MASS
   6    173.2
   23    91.1876
   24    80.429995
   15    1.777
   25    124.31907
   35    3442.2078
   36    3443.4348
   37    3443.4663
   1000001    2543.5876
   2000001    1377.4819
   1000002    2542.3032
   2000002    1994.2454
   1000003    2543.5838
   2000003    1377.4727
   1000004    2542.2993
   2000004    1994.245
   1000005    2017.5428
   2000005    4711.2952
   1000006    2006.2785
   2000006    3598.2551
   1000011    3938.3681
   2000011    3714.3584
   1000012    3937.1532
   1000013    3938.3445
   2000013    3714.306
   1000014    3937.1283
   1000015    2011.2329
   2000015    4584.7395
   1000016    4585.3385
   1000021    4317.1501
   1000022   -1017.9874
   1000023    1018.9491
   1000025   -3795.7007
   1000035    4889.2437
   1000024    1018.7484
   1000037    3795.7778

BLOCK ALPHA
      -0.017782882

BLOCK HMIX Q=  2686.8386
   1    1001.3587
   2    55.965058
   3    243.36175
   4    11857243

BLOCK STOPMIX
   1   1    0.99683982
   1   2    0.079437805
   2   1   -0.079437805
   2   2    0.99683982

BLOCK SBOTMIX
   1   1    0.99998246
   1   2    0.0059232307
   2   1   -0.0059232307
   2   2    0.99998246

BLOCK STAUMIX
   1   1    0.0059924124
   1   2    0.99998204
   2   1   -0.99998204
   2   2    0.0059924124

BLOCK NMIX
   1   1   -0.0051514192
   1   2   -0.019209805
   1   3    0.70722555
   1   4    0.70670819
   2   1    0.0081901344
   2   2    0.011674034
   2   3    0.70696461
   2   4   -0.70710514
   3   1    0.00011199795
   3   2   -0.99974732
   3   3   -0.0053337068
   3   4   -0.021836793
   4   1    0.99995318
   4   2   -8.2603889e-05
   4   3   -0.002146423
   4   4    0.0094347236

BLOCK UMIX
   1   1   -0.007544397
   1   2    0.99997154
   2   1   -0.99997154
   2   2   -0.007544397

BLOCK VMIX
   1   1    0.030882532
   1   2    0.99952302
   2   1    0.99952302
   2   2   -0.030882532

BLOCK HIGGSBOUNDSINPUTHIGGSCOUPLINGSFERMIONS
       0, 3132.0877,3,36,15,15

BLOCK HIGGSBOUNDSINPUTHIGGSCOUPLINGSBOSONS
       0,4,36,21,21,23

BLOCK SPHENOLOWENERGY
   1    0.00030502003
   2    1.5927823e-06
   3    3.5254086e-05
   4    2.5635813e-15
   5    1.0950986e-10
   6    2.2728628e-08
   7    8.541391e-14
   8    3.648771e-09
   9    7.6763205e-07
   10    9.5837575e-05
   11    0.98996546
   12    0.54166364
   13    19.345202
   14    0
   15    0
   16    0.0021564143
   17    2.2816507e-15
   18    2.4806806e-11
   19    8.2913739e-11
   20   -1.3256055e-15
   21   -5.6673032e-11
   22   -1.6029927e-08
   23    0
   24    0
   25    0
   26    0
   27    0
   28    0
   29    0
   30    0
   31    0
   39    6.917682e-05
   40    0
   41    0
   42    0

BLOCK FWCOEF Q=  160
   305   4422   0   0   -0.18881911
   305   4422   0   2   -0.16922188
   305   4322   0   2    0.00032527467
   305   6421   0   0   -0.095227835
   305   6421   0   2   -0.090242691
   305   6321   0   2    5.3379107e-05
   3051111   4133   0   0    1.6137384
   3051111   4133   0   2    1.6140377
   3051111   4233   0   2    0.00073690182
   3051111   4137   0   0   -4.4364305
   3051111   4137   0   2   -4.4351272
   3051111   4237   0   2   -0.0055577477
   3051313   4133   0   0    1.6137384
   3051313   4133   0   2    1.6140368
   3051313   4233   0   2    0.00073689976
   3051313   4137   0   0   -4.4364305
   3051313   4137   0   2   -4.4351281
   3051313   4237   0   2   -0.005557751
   3051212   4137   0   0    1.5053501
   3051212   4137   0   2    1.5050679
   3051212   4237   0   2    0.0012053021
   3051414   4137   0   0    1.5053501
   3051414   4137   0   2    1.5050679
   3051414   4237   0   2    0.0012053023
   3051616   4137   0   0    1.5053501
   3051616   4137   0   2    1.505068
   3051616   4237   0   2    0.0012053433

BLOCK IMFWCOEF Q=  160
   305   4422   0   0    3.8589083e-07
   305   4422   0   2   -1.0963684e-05
   305   4322   0   2    7.6118628e-06
   305   6421   0   0    3.3054102e-07
   305   6421   0   2   -1.71871e-05
   305   6321   0   2    3.3316667e-06
   3051111   4133   0   2   -1.3404463e-06
   3051111   4233   0   2    1.4269456e-05
   3051111   4137   0   2    1.1867926e-05
   3051111   4237   0   2   -0.00010762411
   3051313   4133   0   2   -1.3404387e-06
   3051313   4233   0   2    1.4269432e-05
   3051313   4137   0   2    1.1867936e-05
   3051313   4237   0   2   -0.00010762418
   3051212   4137   0   2   -2.5648281e-06
   3051212   4237   0   2    2.3340314e-05
   3051414   4137   0   2   -2.5648285e-06
   3051414   4237   0   2    2.3340314e-05
   3051616   4137   0   2   -2.5639097e-06
   3051616   4237   0   2    2.3340314e-05

DECAY 23  2.4952


DECAY 24  2.085


DECAY 2000011  0.0014976521
    0.71540164   2    1000023    11
    0.28345559   2    1000022    11
    0.0011427653   2   -1000024    12

DECAY 1000011  0.27581014
    0.63540947   2   -1000037    12
    0.31786135   2    1000025    11
    0.026402122   2    1000022    11
    0.014097742   2    1000023    11
    0.0062292976   2   -1000024    12

DECAY 2000013  0.14783963
    0.49492211   2   -1000024    14
    0.25459628   2    1000023    13
    0.25048162   2    1000022    13

DECAY 1000013  0.35498504
    0.49353239   2   -1000037    14
    0.24688799   2    1000025    13
    0.13182508   2    1000022    13
    0.12215534   2    1000023    13
    0.0048398948   2   -1000024    14
    0.00075930712   2    2000013    25

DECAY 1000015  14.489451
    0.49990217   2   -1000024    16
    0.25034258   2    1000022    15
    0.24975525   2    1000023    15

DECAY 2000015  34.270138
    0.39422786   2    1000022    15
    0.39387696   2    1000023    15
    0.11652532   2   -1000037    16
    0.058243691   2    1000025    15
    0.01906772   2    1000015    25
    0.01805238   2    1000015    23

DECAY 1000012  0.29215592
    0.58951267   2    1000037    11
    0.29523977   2    1000025    12
    0.098506933   2    1000024    11
    0.013989918   2    1000022    12
    0.0027507038   2    1000023    12

DECAY 1000014  0.37101954
    0.46404787   2    1000037    13
    0.2903653   2    1000024    13
    0.23240469   2    1000025    14
    0.011016142   2    1000022    14
    0.0021659987   2    1000023    14

DECAY 1000016  34.272222
    0.78880538   2    1000024    15
    0.11655812   2    1000037    15
    0.058321773   2    1000025    16
    0.036142211   2    1000015    24
    0.0001441698   2    1000022    16

DECAY 2000001  2.4790892e-05
    0.52726555   2    1000023    1
    0.27093597   2    1000022    1
    0.20179849   2   -1000024    2

DECAY 1000001  0.0043982864
    0.60434949   2    1000022    1
    0.2042638   2   -1000024    2
    0.19082999   2    1000023    1
    0.00055671711   2    2000001    25

DECAY 2000003  0.0036286592
    0.4976796   2   -1000024    4
    0.25135464   2    1000023    3
    0.25096576   2    1000022    3

DECAY 1000003  0.017347867
    0.48264366   2    1000022    3
    0.37738154   2    1000023    3
    0.089020396   2   -1000024    4
    0.050954405   2    2000003    25

DECAY 1000005  41.680137
    0.53228669   2   -1000024    6
    0.23411726   2    1000022    5
    0.23359605   2    1000023    5

DECAY 2000005  161.69969
    0.45934911   2   -1000024    6
    0.23041609   2    1000022    5
    0.23024949   2    1000023    5
    0.059099825   2    1000021    5
    0.0084039339   2    1000006   -24
    0.0082667172   2    1000005    25
    0.004195036   2    1000005    23

DECAY 2000002  0.00022773555
    0.71625351   2    1000023    2
    0.28373981   2    1000022    2

DECAY 1000002  0.019627941
    0.76790075   2    1000024    1
    0.16282887   2    1000022    2
    0.069270381   2    1000023    2

DECAY 2000004  0.0010132046
    0.38776053   2    1000024    3
    0.35464262   2    1000023    4
    0.25759685   2    1000022    4

DECAY 1000004  0.031688403
    0.83577898   2    1000024    3
    0.11108938   2    1000022    4
    0.05313137   2    1000023    4

DECAY 1000006  41.186361
    0.46564829   2    1000024    5
    0.26187796   2    1000022    6
    0.26174823   2    1000023    6
    0.010691536   3    1000022    24    5

DECAY 2000006  268.63609
    0.23896626   2    1000005    24
    0.23173138   2    1000024    5
    0.1775297   2    1000006    25
    0.12042516   2    1000006    23
    0.11568692   2    1000022    6
    0.11566058   2    1000023    6

DECAY 1000024  4.4266851e-13
    0.61214785   3    1000022   -1    2
    0.20411089   3    1000022   -11    12
    0.18374125   3    1000022   -13    14

DECAY 1000037  144.97399
    0.17960658   2    1000006   -5
    0.17579995   2   -1000005    6
    0.10501865   2    1000004   -3
    0.10501811   2    1000002   -1
    0.10494004   2   -1000003    4
    0.1049396   2   -1000001    2
    0.05610027   2    1000024    25
    0.051823297   2    1000022    24
    0.051822901   2    1000023    24
    0.051750706   2    1000024    23
    0.005336289   3    1000024    6   -6
    0.0037165857   3    1000022   -5    6
    0.0035719882   3    1000023   -5    6
    0.00039141451   3    1000024    5   -5

DECAY 1000022 -1


DECAY 1000023  2.3867264e-10
    0.9910871   2    1000022    22
    0.0056513102   2    1000022    111
    0.0024334046   3    1000022    12   -12
    0.00041064485   3    1000022    11   -11
    0.00034390989   3    1000022    13   -13

DECAY 1000025  150.0054
    0.087825886   2    1000006   -6
    0.087825886   2   -1000006    6
    0.085948307   2    1000005   -5
    0.085948307   2   -1000005    5
    0.050764454   2    1000004   -4
    0.050764454   2   -1000004    4
    0.050764188   2    1000002   -2
    0.050764188   2   -1000002    2
    0.050685031   2    1000003   -3
    0.050685031   2   -1000003    3
    0.050684781   2    1000001   -1
    0.050684781   2   -1000001    1
    0.050098547   2    1000024   -24
    0.050098547   2   -1000024    24
    0.042927119   2    1000023    25
    0.03989981   2    1000022    25
    0.036614792   2    1000023    23
    0.013493437   2    1000022    23
    0.0038702985   3    1000024    5   -6
    0.0038702985   3   -1000024   -5    6
    0.0026876983   3    1000023    6   -6
    0.0025553425   3    1000022    6   -6
    0.00018971957   3    1000022    5   -5
    0.00017939369   3    1000023    5   -5

DECAY 1000035  119.61424
    0.095143366   2    2000004   -4
    0.095143366   2   -2000004    4
    0.095143364   2    2000002   -2
    0.095143364   2   -2000002    2
    0.070867854   2    1000015   -15
    0.070867854   2   -1000015    15
    0.02900929   2    2000003   -3
    0.02900929   2   -2000003    3
    0.029009223   2    2000001   -1
    0.029009223   2   -2000001    1
    0.02845278   2    2000006   -6
    0.02845278   2   -2000006    6
    0.027230832   2    1000024   -24
    0.027230832   2   -1000024    24
    0.0195094   2    1000022    23
    0.018556293   2    1000023    25
    0.018361617   2    2000013   -13
    0.018361617   2   -2000013    13
    0.018360203   2    2000011   -11
    0.018360203   2   -2000011    11
    0.017266375   2    1000022    25
    0.0077321932   2    1000023    23
    0.0060184115   2    1000006   -6
    0.0060184115   2   -1000006    6
    0.0058949669   2    1000005   -5
    0.0058949669   2   -1000005    5
    0.0048494619   2    37   -1000024
    0.0048494619   2   -37    1000024
    0.0045606909   2    1000022    35
    0.0045560214   2    1000003   -3
    0.0045560214   2   -1000003    3
    0.0045560105   2    1000001   -1
    0.0045560105   2   -1000001    1
    0.0045509868   2    1000004   -4
    0.0045509868   2   -1000004    4
    0.0045509725   2    1000002   -2
    0.0045509725   2   -1000002    2
    0.0042435778   2    1000023    35
    0.0031735394   2    1000014   -14
    0.0031735394   2   -1000014    14
    0.0031733909   2    1000012   -12
    0.0031733909   2   -1000012    12
    0.0031643516   2    1000013   -13
    0.0031643516   2   -1000013    13
    0.0031642113   2    1000011   -11
    0.0031642113   2   -1000011    11
    0.0018332425   3    1000024    5   -6
    0.0018332425   3   -1000024   -5    6
    0.0015081776   3    1000023    6   -6
    0.0014559759   3    1000022    6   -6
    0.00061609582   2    1000023    36
    0.00057577246   2    1000022    36
    0.000373893   2    2000015   -15
    0.000373893   2   -2000015    15
    0.00037256046   2    1000016   -16
    0.00037256046   2   -1000016    16
    0.00017470358   2    2000005   -5
    0.00017470358   2   -2000005    5

DECAY 1000021  788.97914
    0.065333213   2    2000003   -3
    0.065333213   2   -2000003    3
    0.065333015   2    2000001   -1
    0.065333015   2   -2000001    1
    0.050109307   2    2000004   -4
    0.050109307   2   -2000004    4
    0.050109298   2    2000002   -2
    0.050109298   2   -2000002    2
    0.049470944   2    1000005   -5
    0.049470944   2   -1000005    5
    0.048919723   2    1000006   -6
    0.048919723   2   -1000006    6
    0.034554683   2    1000004   -4
    0.034554683   2   -1000004    4
    0.034554574   2    1000002   -2
    0.034554574   2   -1000002    2
    0.034517614   2    1000003   -3
    0.034517614   2   -1000003    3
    0.034517503   2    1000001   -1
    0.034517503   2   -1000001    1
    0.024785913   2    1000006   -4
    0.024785913   2   -1000006    4
    0.0076682379   2    2000006   -6
    0.0076682379   2   -2000006    6

DECAY 25  0.0037860956
    0.58299208   2   -5    5
    0.21782196   2   -24    24
    0.073090117   2    21    21
    0.066997306   2   -15    15
    0.028842417   2   -4    4
    0.026012776   2    23    23
    0.0023485318   2    22    22
    0.001442983   2    22    23
    0.00023234782   2   -13    13
    0.00021872269   2   -3    3
    6.047448e-07   2   -1    1
    1.4863392e-07   2   -2    2
    5.2234455e-09   2   -11    11

DECAY 35  104.84671
    0.80866356   2   -5    5
    0.19005318   2   -15    15
    0.00064062541   2   -13    13
    0.00023168756   2   -6    6
    0.00022340841   2   -3    3
    0.00014670768   2   -1000024    1000024
    2.1766629e-05   2    1000022    1000022
    9.7450789e-06   2    21    21
    4.2588161e-06   2    1000022    1000023
    4.189497e-06   2    1000023    1000023
    6.1763499e-07   2   -1    1
    1.4682161e-07   2    25    25
    5.2037233e-08   2    23    23
    1.4387486e-08   2   -11    11
    1.3172216e-08   2   -24    24
    8.5834194e-09   2    22    22
    4.9775095e-09   2    22    23
    3.2638418e-09   2   -1000001    1000001
    3.2429792e-09   2   -1000003    1000003
    2.9194373e-09   2   -4    4
    1.5060995e-14   2   -2    2

DECAY 36  95.821322
    0.80859544   2   -5    5
    0.19004892   2   -15    15
    0.00064060832   2   -13    13
    0.00023851452   2   -1000024    1000024
    0.00022337651   2   -3    3
    0.0001918676   2   -6    6
    3.3521671e-05   2    1000022    1000022
    1.5801108e-05   2    21    21
    7.448184e-06   2    1000023    1000023
    3.7327425e-06   2    1000022    1000023
    6.1754766e-07   2   -1    1
    1.0353639e-07   2    23    25
    1.8169844e-08   2    22    22
    1.7190706e-08   2    22    23
    1.4387061e-08   2   -11    11
    2.3755338e-09   2   -4    4
    3.1896641e-14   2    23    35
    1.2257136e-14   2   -2    2
    2.4767885e-37   2    25    25

DECAY 37  125.20293
    0.82347526   2   -5    6
    0.17442761   2   -15    16
    0.001220849   2   -5    4
    0.00061666376   2   -13    14
    0.00018111299   2   -3    4
    4.3472145e-05   2    1000023    1000024
    1.6430552e-05   2    1000022    1000024
    8.7181215e-06   2   -5    2
    8.4959262e-06   2   -3    2
    7.4975237e-07   2   -3    6
    5.0235843e-07   2   -1    2
    7.9278828e-08   2    24    25
    2.3698065e-08   2   -1    4
    2.2049206e-08   2   -1    6
    1.4423829e-08   2   -11    12
    5.0642386e-12   2   -1000003    1000006
    1.6588716e-12   2   -1000003    1000004
    3.4338319e-14   2    24    35
    6.4317208e-16   2   -1000001    1000006
    2.4575302e-16   2   -1000001    1000004
    4.6606945e-19   2   -1000003    1000002
    2.4134645e-20   2   -1000001    1000002

DECAY 6  2.43
    1   2    5    24

DECAY 15 -1
