BLOCK DCINFO
   1   SDECAY/HDECAY
   2   1.3b /3.4

BLOCK SPINFO
   1   SOFTSUSY
   2   3.4.0

BLOCK MODSEL
   1   0

BLOCK SMINPUTS
   1    127.90897
   2    1.1663787e-05
   3    0.1184
   4    91.1876
   5    4.18
   6    173.2
   7    1.777

BLOCK MINPAR
   3    34.44

BLOCK EXTPAR
   0   -1
   1    320.72
   2    3286.82
   3    1960.29
   11   -4488.54
   12    3695.08
   13    3382.85
   23   -315.82
   26    3511.52
   31    3488.4
   32    3488.4
   33    683.88
   34    1905.24
   35    1905.24
   36    3719.24
   41    3458.33
   42    3458.33
   43    3071.35
   44    2996.84
   45    2996.84
   46    3782.32
   47    2900.31
   48    2900.31
   49    987.64

BLOCK MASS
   24    80.386547
   25    127.07432
   35    3511.5296
   36    3511.5205
   37    3512.6531
   5    4.8187603
   1000001    3538.6441
   2000001    2967.3726
   1000002    3537.893
   2000002    3059.8203
   1000003    3538.6441
   2000003    2967.3726
   1000004    3537.893
   2000004    3059.8203
   1000005    1117.8159
   2000005    3111.8085
   1000006    3099.0147
   2000006    3754.942
   1000011    3512.1011
   2000011    1911.2466
   1000012    3510.881
   1000013    3512.1011
   2000013    1911.2466
   1000014    3510.881
   1000015    738.12788
   2000015    3713.6769
   1000016    733.6547
   1000021    2202.6728
   1000022    294.15235
   1000023   -334.82602
   1000025    355.82243
   1000035    3304.7639
   1000024    332.50834
   1000037    3304.9312

BLOCK NMIX
   1   1    0.77387855
   1   2   -0.010547987
   1   3   -0.47547052
   1   4   -0.41824457
   2   1   -0.049105106
   2   2    0.015831682
   2   3   -0.70365156
   2   4    0.70866955
   3   1    0.63142738
   3   2    0.014755757
   3   3    0.52801467
   3   4    0.56769907
   4   1   -0.00037702108
   4   2    0.99971014
   4   3   -0.0016670088
   4   4   -0.02401486

BLOCK UMIX
   1   1    0.0023633984
   1   2    0.99999721
   2   1   -0.99999721
   2   2    0.0023633984

BLOCK VMIX
   1   1    0.033986065
   1   2   -0.99942231
   2   1   -0.99942231
   2   2   -0.033986065

BLOCK STOPMIX
   1   1    0.98954796
   1   2    0.14420414
   2   1   -0.14420414
   2   2    0.98954796

BLOCK SBOTMIX
   1   1   -0.0039579704
   1   2    0.99999217
   2   1   -0.99999217
   2   2   -0.0039579704

BLOCK STAUMIX
   1   1    0.99999836
   1   2   -0.0018094191
   2   1    0.0018094191
   2   2    0.99999836

BLOCK ALPHA
      -0.029982793

BLOCK HMIX Q=  3408.484
   1   -322.84545
   2    33.409353
   3    242.41986
   4    11853677

BLOCK GAUGE Q=  3408.484
   1    0.36559961
   2    0.63690914
   3    1.0134474

BLOCK AU Q=  3408.484
   1   1    0
   2   2    0
   3   3   -4488.54

BLOCK AD Q=  3408.484
   1   1    0
   2   2    0
   3   3    3695.08

BLOCK AE Q=  3408.484
   1   1    0
   2   2    0
   3   3    3382.85

BLOCK YU Q=  3408.484
   1   1    0
   2   2    0
   3   3    0.81467674

BLOCK YD Q=  3408.484
   1   1    0
   2   2    0
   3   3    0.46228792

BLOCK YE Q=  3408.484
   1   1    0
   2   2    0
   3   3    0.33196034

BLOCK MSOFT Q=  3408.484
   1    320.72
   2    3286.82
   3    1960.29
   21    12326166
   22    92141.25
   31    3488.4
   32    3488.4
   33    683.88
   34    1905.24
   35    1905.24
   36    3719.24
   41    3458.33
   42    3458.33
   43    3071.35
   44    2996.84
   45    2996.84
   46    3782.32
   47    2900.31
   48    2900.31
   49    987.63999

BLOCK HIGGSBOUNDSINPUTHIGGSCOUPLINGSFERMIONS
       0, 1116.1849,3,36,15,15

BLOCK HIGGSBOUNDSINPUTHIGGSCOUPLINGSBOSONS
       0,4,36,21,21,23

DECAY 6  1.4287995
    1   2    5    24

DECAY 1000021  26.236973
    0.5   2    1000005   -5
    0.5   2   -1000005    5

DECAY 1000006  96.538231
    0.43655665   2    1000021    6
    0.20938493   2    1000023    6
    0.14263856   2    1000024    5
    0.1213924   2    1000025    6
    0.088089387   2    1000022    6
    0.0019380696   2    1000005    24

DECAY 2000006  231.48864
    0.36757253   2    1000021    6
    0.20601781   2    1000024    5
    0.10425814   2    1000023    6
    0.089388666   2    1000025    6
    0.089106171   2    2000005    24
    0.052322059   2    1000022    6
    0.047281834   2    1000006    23
    0.043675602   2    1000006    25
    0.0002327406   2    1000037    5
    0.00010929163   2    1000035    6
    3.5154731e-05   2    1000005    24

DECAY 1000005  8.2257741
    0.45199315   2   -1000024    6
    0.23710006   2    1000023    5
    0.15597901   2    1000022    5
    0.15492777   2    1000025    5

DECAY 2000005  95.665194
    0.44126006   2    1000021    5
    0.41660362   2   -1000024    6
    0.067013557   2    1000023    5
    0.039178941   2    1000025    5
    0.033731972   2    1000022    5
    0.0011642442   2    1000005    25
    0.0010476042   2    1000005    23

DECAY 1000002  96.62887
    0.98712856   2    1000021    2
    0.0048922436   2    1000037    1
    0.0026456469   2    1000022    2
    0.0025553125   2    1000025    2
    0.0024505071   2    1000035    2
    0.00032195753   2    1000024    1
    5.7713889e-06   2    1000023    2

DECAY 2000002  57.828819
    0.88300184   2    1000021    2
    0.070299804   2    1000022    2
    0.046416792   2    1000025    2
    0.00028156801   2    1000023    2

DECAY 1000001  96.671028
    0.987438   2    1000021    1
    0.0049247323   2   -1000037    2
    0.0035188147   2    1000022    1
    0.0024646453   2    1000035    1
    0.0015635891   2    1000025    1
    8.8658417e-05   2    1000023    1
    1.5566075e-06   2   -1000024    2

DECAY 2000001  44.645118
    0.9633408   2    1000021    1
    0.022031834   2    1000022    1
    0.014539148   2    1000025    1
    8.8212837e-05   2    1000023    1

DECAY 1000004  73.541268
    0.98299375   2    1000021    4
    0.0062900957   2    1000037    3
    0.003620888   2    1000022    4
    0.0034961238   2    1000025    4
    0.0031506986   2    1000035    4
    0.00044054875   2    1000024    3
    7.8971485e-06   2    1000023    4

DECAY 2000004  45.774508
    0.84544078   2    1000021    4
    0.092884279   2    1000022    4
    0.06130302   2    1000025    4
    0.0003719213   2    1000023    4

DECAY 1000003  73.564771
    0.98341768   2    1000021    3
    0.0063332021   2   -1000037    4
    0.004816461   2    1000022    3
    0.0031696934   2    1000035    3
    0.002139508   2    1000025    3
    0.00012132727   2    1000023    3
    2.1302115e-06   2   -1000024    4

DECAY 2000003  34.308227
    0.95007388   2    1000021    3
    0.030010351   2    1000022    3
    0.019795651   2    1000025    3
    0.00012012305   2    1000023    3

DECAY 1000011  5.1630454
    0.50901504   2    1000022    11
    0.38257626   2    1000025    11
    0.071964688   2   -1000037    12
    0.036002443   2    1000035    11
    0.00041145379   2    1000023    11
    3.0116151e-05   2   -1000024    12

DECAY 2000011  9.6020383
    0.60429443   2    1000022    11
    0.39330727   2    1000025    11
    0.0023982975   2    1000023    11

DECAY 1000013  5.1630453
    0.50901504   2    1000022    13
    0.38257626   2    1000025    13
    0.071964689   2   -1000037    14
    0.036002438   2    1000035    13
    0.00041145379   2    1000023    13
    3.0116151e-05   2   -1000024    14

DECAY 2000013  9.6020382
    0.60429443   2    1000022    13
    0.39330727   2    1000025    13
    0.0023982975   2    1000023    13

DECAY 1000015  1.676719
    0.39062987   2    1000022    15
    0.30788578   2    1000025    15
    0.30145967   2    1000023    15
    2.4676349e-05   2   -1000024    16

DECAY 2000015  35.672207
    0.37816576   2    1000022    15
    0.27935925   2    1000025    15
    0.22458173   2   -1000024    16
    0.11252347   2    1000023    15
    0.0026007244   2    1000016   -24
    0.001427647   2    1000015    25
    0.001340914   2    1000015    23
    3.3623967e-07   2   -1000037    16
    1.7105376e-07   2    1000035    15

DECAY 1000012  5.1767084
    0.55806449   2    1000022    12
    0.32407987   2    1000025    12
    0.070898795   2    1000037    11
    0.035541118   2    1000035    12
    0.0062090225   2    1000024    11
    0.0052067089   2    1000023    12

DECAY 1000014  5.1767083
    0.55806449   2    1000022    14
    0.32407987   2    1000025    14
    0.070898786   2    1000037    13
    0.035541119   2    1000035    14
    0.0062090225   2    1000024    13
    0.005206709   2    1000023    14

DECAY 1000016  1.6643108
    0.61296256   2    1000024    15
    0.25910553   2    1000022    16
    0.12577152   2    1000025    16
    0.0021603967   2    1000023    16

DECAY 1000024  3.8697776e-05
    0.33372604   3    1000022    2   -1
    0.33372604   3    1000022    4   -3
    0.11124324   3    1000022   -11    12
    0.11124324   3    1000022   -13    14
    0.11006144   3    1000022   -15    16

DECAY 1000037  50.63108
    0.23779723   2    1000016   -15
    0.23776626   2   -1000015    16
    0.12956556   2    1000024    25
    0.12929902   2    1000024    23
    0.12547681   2    1000023    24
    0.083261511   2    1000025    24
    0.04145612   2    1000022    24
    0.011120501   2    1000006   -5
    0.0042539108   2   -2000005    6
    3.0760178e-06   2   -1000005    6

DECAY 1000022 -1


DECAY 1000023  4.1584695e-05
    0.15366165   3    1000022   -1    1
    0.15366165   3    1000022   -3    3
    0.13667399   3    1000022   -5    5
    0.11830231   3    1000022   -2    2
    0.11830231   3    1000022   -4    4
    0.070792897   3    1000022   -16    16
    0.070734976   3    1000022   -12    12
    0.070734976   3    1000022   -14    14
    0.035359565   3    1000022   -11    11
    0.035359565   3    1000022   -13    13
    0.035120601   3    1000022   -15    15
    0.0012921436   2    1000022    22
    6.3101516e-07   3    1000024   -2    1
    6.3101516e-07   3   -1000024   -1    2
    6.3101516e-07   3    1000024   -4    3
    6.3101516e-07   3   -1000024   -3    4
    2.1033854e-07   3    1000024   -12    11
    2.1033854e-07   3   -1000024    12   -11
    2.1033854e-07   3    1000024   -14    13
    2.1033854e-07   3   -1000024    14   -13
    6.3260782e-09   3    1000024   -16    15
    6.3260782e-09   3   -1000024    16   -15

DECAY 1000025  1.3479239e-05
    0.11649212   3    1000024   -2    1
    0.11649212   3   -1000024   -1    2
    0.11649212   3    1000024   -4    3
    0.11649212   3   -1000024   -3    4
    0.06352821   2    1000022    22
    0.038830264   3    1000024   -12    11
    0.038830264   3   -1000024    12   -11
    0.038830264   3    1000024   -14    13
    0.038830264   3   -1000024    14   -13
    0.037703843   3    1000024   -16    15
    0.037703843   3   -1000024    16   -15
    0.026248465   3    1000023   -1    1
    0.026248465   3    1000023   -3    3
    0.02472001   2    1000023    22
    0.020207223   3    1000023   -2    2
    0.020207223   3    1000023   -4    4
    0.01635277   3    1000023   -5    5
    0.012082144   3    1000023   -12    12
    0.012082144   3    1000023   -14    14
    0.01207536   3    1000023   -16    16
    0.0086733341   3    1000022   -5    5
    0.0075109324   3    1000022   -1    1
    0.0075109324   3    1000022   -3    3
    0.006042784   3    1000023   -11    11
    0.006042784   3    1000023   -13    13
    0.0058769187   3    1000022   -2    2
    0.0058769187   3    1000022   -4    4
    0.0058296545   3    1000023   -15    15
    0.0043875982   3    1000022   -16    16
    0.0034962002   3    1000022   -12    12
    0.0034962002   3    1000022   -14    14
    0.0017716981   3    1000022   -15    15
    0.0015174061   3    1000022   -11    11
    0.0015174061   3    1000022   -13    13

DECAY 1000035  50.671825
    0.12534731   2    1000024   -24
    0.12534731   2   -1000024    24
    0.11891515   2    1000016   -16
    0.11891515   2   -1000016    16
    0.11866119   2    1000015   -15
    0.11866119   2   -1000015    15
    0.073686745   2    1000023    23
    0.055608139   2    1000023    25
    0.049887549   2    1000025    25
    0.036103363   2    1000025    23
    0.023830111   2    1000022    25
    0.019210283   2    1000022    23
    0.0050699147   2    2000005   -5
    0.0050699147   2   -2000005    5
    0.0028417493   2    1000006   -6
    0.0028417493   2   -1000006    6
    1.566916e-06   2    1000005   -5
    1.566916e-06   2   -1000005    5
    1.0919094e-08   2    2000011   -11
    1.0919094e-08   2   -2000011    11
    1.0919094e-08   2    2000013   -13
    1.0919094e-08   2   -2000013    13
    6.8144714e-10   2    2000002   -2
    6.8144714e-10   2   -2000002    2
    6.8143393e-10   2    2000004   -4
    6.8143393e-10   2   -2000004    4
    3.1024159e-10   2    2000001   -1
    3.1024159e-10   2   -2000001    1
    3.1024159e-10   2    2000003   -3
    3.1024159e-10   2   -2000003    3

DECAY 25  0.004183226
    0.54755799   2    5   -5
    0.25125135   2    24   -24
    0.080036444   2    21    21
    0.063141141   2   -15    15
    0.032335823   2    23    23
    0.021008522   2    4   -4
    0.0024127171   2    22    22
    0.0017893727   2    22    23
    0.00024316447   2    3   -3
    0.00022347174   2   -13    13

DECAY 35  55.997217
    0.76962942   2    5   -5
    0.15303489   2   -15    15
    0.021902689   2    1000022    1000022
    0.018975159   2    1000022    1000023
    0.015503573   2    1000025    1000025
    0.015464166   2    1000023    1000025
    0.0022347326   2    6   -6
    0.0013737127   2    1000022    1000025
    0.00058353316   2    1000024   -1000024
    0.00052247072   2   -13    13
    0.00041547402   2    1000023    1000023
    0.00033014407   2    3   -3
    1.6499547e-05   2    1000005   -1000005
    7.7373638e-06   2    21    21
    3.1053051e-06   2    25    25
    9.4398093e-07   2    1000015   -1000015
    8.9519359e-07   2    24   -24
    4.4676211e-07   2    23    23
    3.7576114e-07   2    1000016   -1000016
    2.2672737e-08   2    4   -4
    4.8710829e-09   2    23    22
    1.7108295e-09   2    22    22

DECAY 36  55.999471
    0.76961914   2    5   -5
    0.15302902   2   -15    15
    0.021064948   2    1000022    1000023
    0.020279189   2    1000022    1000022
    0.016404758   2    1000023    1000025
    0.014211825   2    1000025    1000025
    0.0022395833   2    6   -6
    0.0011877424   2    1000022    1000025
    0.0006001962   2    1000024   -1000024
    0.00052245019   2   -13    13
    0.00048646616   2    1000023    1000023
    0.00033015194   2    3   -3
    2.3567142e-05   2    21    21
    9.0767558e-07   2    23    25
    2.2790787e-08   2    4   -4
    1.8742551e-08   2    23    22
    6.1903514e-09   2    22    22

DECAY 37  58.535615
    0.78077028   2    6   -5
    0.14644603   2   -15    16
    0.040472903   2    1000024    1000022
    0.030141844   2    1000024    1000025
    0.0013101899   2    4   -5
    0.00049997545   2   -13    14
    0.00031113718   2    4   -3
    1.6668886e-05   2    1000024    1000023
    1.5806314e-05   2    2   -3
    1.3101887e-05   2    2   -5
    1.1994465e-06   2   -1000015    1000016
    8.6958651e-07   2    24    25
    4.1891917e-14   2    24    36

DECAY 5 -1


DECAY 15 -1


DECAY 23  2.4952


DECAY 24  2.085
