BLOCK SPINFO
   1   SPheno
   2   v4.0.5be

BLOCK SPHENOINFO
   1   2
   2   2

BLOCK MODSEL
   1   0

BLOCK MINPAR
   3    35.802052
   4   -1

BLOCK EXTPAR
   0    3964.239
   1   -3142.8157
   2   -1435.3517
   3    3940.8737
   11   -1939.2574
   12   -7867.5088
   13    7303.138
   23   -698.50153
   25    34.709658
   26    3050.242
   31    3131.3855
   32    3131.3855
   33    1459.0749
   34    2031.8609
   35    2031.8609
   36    1511.2148
   41    2857.7199
   42    2857.7199
   43    3808.5993
   44    542.27575
   45    542.27575
   46    3912.7394
   47    693.58703
   48    693.58703
   49    3761.052

BLOCK SMINPUTS
   1    127.90897
   2    1.1663787e-05
   3    0.1184
   4    91.1876
   5    4.18
   6    173.2
   7    1.777
   8    0
   11    0.00051099893
   12    0
   13    0.10565837
   14    0
   21    0.005
   22    0.0025
   23    0.095
   24    1.27

BLOCK GAUGE Q=  3964.239
   1    0.35536298
   2    0.66519887
   3    1.219778

BLOCK YU Q=  3964.239
   1   1    8.3878511e-06
   2   2    0.0042610284
   3   3    1.0133198

BLOCK YD Q=  3964.239
   1   1    0.00058503426
   2   2    0.011115651
   3   3    0.58017066

BLOCK YE Q=  3964.239
   1   1    0.00010209276
   2   2    0.021109544
   3   3    0.3550278

BLOCK AU Q=  3964.239
   1   1    0
   2   2    0
   3   3   -1939.2577

BLOCK AD Q=  3964.239
   1   1    0
   2   2    0
   3   3   -7867.4928

BLOCK AE Q=  3964.239
   1   1    0
   2   2    0
   3   3    7303.1379

BLOCK MSOFT Q=  3964.239
   1   -3142.8157
   2   -1435.3517
   3    3940.8737
   21    9176735.5
   22   -159712.04
   31    3131.3855
   32    3131.3855
   33    1459.0749
   34    2031.8609
   35    2031.8609
   36    1511.2148
   41    2857.7199
   42    2857.7199
   43    3808.5993
   44    542.27575
   45    542.27575
   46    3912.7394
   47    693.58703
   48    693.58703
   49    3761.052

BLOCK MASS
   6    173.2
   23    91.1876
   24    80.429995
   15    1.777
   25    121.22019
   35    3046.8802
   36    3050.242
   37    3048.6806
   1000001    3044.5578
   2000001    1044.0499
   1000002    3043.4911
   2000002    950.40801
   1000003    3044.5532
   2000003    1044.0297
   1000004    3043.4865
   2000004    950.40694
   1000005    3877.1648
   2000005    3923.8204
   1000006    3910.7049
   2000006    4018.506
   1000011    3145.2115
   2000011    2049.1654
   1000012    3143.7878
   1000013    3145.19
   2000013    2049.1082
   1000014    3143.7657
   1000015    1452.2483
   2000015    1496.2793
   1000016    1460.35
   1000021    4071.739
   1000022   -698.87032
   1000023    704.86632
   1000025   -1486.5624
   1000035   -3078.6714
   1000024    700.97132
   1000037    1486.6728

BLOCK ALPHA
      -0.028000896

BLOCK HMIX Q=  3964.239
   1   -698.50153
   2    34.709658
   3    242.97003
   4    9303976.1

BLOCK STOPMIX
   1   1    0.92934611
   1   2    0.36920972
   2   1   -0.36920972
   2   2    0.92934611

BLOCK SBOTMIX
   1   1   -0.10690453
   1   2    0.99426929
   2   1   -0.99426929
   2   2   -0.10690453

BLOCK STAUMIX
   1   1   -0.87030194
   1   2    0.49251856
   2   1   -0.49251856
   2   2   -0.87030194

BLOCK NMIX
   1   1   -0.01352212
   1   2    0.073443034
   1   3    0.70729814
   1   4   -0.70295989
   2   1    0.0080390943
   2   2   -0.024940649
   2   3    0.70606499
   2   4    0.70766204
   3   1   -0.0019352684
   3   2   -0.99698723
   3   3    0.034437244
   3   4   -0.069475088
   4   1    0.99987438
   4   2   -0.0007359246
   4   3    0.0039551897
   4   4   -0.015330849

BLOCK UMIX
   1   1   -0.048833191
   1   2   -0.99880695
   2   1   -0.99880695
   2   2    0.048833191

BLOCK VMIX
   1   1    0.098531028
   1   2    0.99513398
   2   1    0.99513398
   2   2   -0.098531028

BLOCK HIGGSBOUNDSINPUTHIGGSCOUPLINGSFERMIONS
       0, 1204.7604,3,36,15,15

BLOCK HIGGSBOUNDSINPUTHIGGSCOUPLINGSBOSONS
       0,4,36,21,21,23

BLOCK SPHENOLOWENERGY
   1    0.00033067672
   2    1.5888529e-06
   3    3.5248077e-05
   4    2.2182427e-15
   5    9.4761106e-11
   6    1.9855764e-08
   7    7.5238443e-14
   8    3.2141938e-09
   9    6.8238202e-07
   10    9.5980193e-05
   11    0.99143865
   12    0.54195169
   13    19.35928
   14    0
   15    0
   16    0.0021572568
   17    2.2816586e-15
   18    2.4797481e-11
   19    8.289568e-11
   20    1.7491769e-15
   21    7.4781102e-11
   22    4.4152028e-08
   23    0
   24    0
   25    0
   26    0
   27    0
   28    0
   29    0
   30    0
   31    0
   39    6.7258781e-05
   40    0
   41    0
   42    0

BLOCK FWCOEF Q=  160
   305   4422   0   0   -0.18881911
   305   4422   0   2   -0.20034915
   305   4322   0   2   -0.00025934189
   305   6421   0   0   -0.095227835
   305   6421   0   2   -0.10553308
   305   6321   0   2   -0.00022172204
   3051111   4133   0   0    1.6265433
   3051111   4133   0   2    1.6267494
   3051111   4233   0   2    0.00016853359
   3051111   4137   0   0   -4.4492354
   3051111   4137   0   2   -4.4471526
   3051111   4237   0   2   -0.0012480279
   3051313   4133   0   0    1.6265433
   3051313   4133   0   2    1.626749
   3051313   4233   0   2    0.00016853318
   3051313   4137   0   0   -4.4492354
   3051313   4137   0   2   -4.447153
   3051313   4237   0   2   -0.0012480282
   3051212   4137   0   0    1.5053501
   3051212   4137   0   2    1.5049028
   3051212   4237   0   2    0.00026987866
   3051414   4137   0   0    1.5053501
   3051414   4137   0   2    1.5049028
   3051414   4237   0   2    0.00026987869
   3051616   4137   0   0    1.5053501
   3051616   4137   0   2    1.5049026
   3051616   4237   0   2    0.00026988962

BLOCK IMFWCOEF Q=  160
   305   4422   0   0    3.8581086e-07
   305   4422   0   2    7.1431836e-06
   305   4322   0   2   -2.3370527e-06
   305   6421   0   0    3.3047251e-07
   305   6421   0   2    7.6007654e-06
   305   6321   0   2   -9.7025845e-07
   3051111   4133   0   2   -5.2141515e-07
   3051111   4233   0   2    3.5826655e-06
   3051111   4137   0   2    4.8113437e-06
   3051111   4237   0   2   -2.6530655e-05
   3051313   4133   0   2   -5.2141638e-07
   3051313   4233   0   2    3.5826616e-06
   3051313   4137   0   2    4.8113501e-06
   3051313   4237   0   2   -2.6530665e-05
   3051212   4137   0   2   -9.8468557e-07
   3051212   4237   0   2    5.7371002e-06
   3051414   4137   0   2   -9.8468557e-07
   3051414   4237   0   2    5.7371002e-06
   3051616   4137   0   2   -9.8773856e-07
   3051616   4237   0   2    5.7370974e-06

DECAY 23  2.4952


DECAY 24  2.085


DECAY 2000011  0.0019967476
    0.73636141   2    1000022    11
    0.25913879   2    1000023    11
    0.0043341117   2    1000025    11
    0.00016557186   2   -1000024    12

DECAY 1000011  25.100783
    0.66363004   2   -1000037    12
    0.3313214   2    1000025    11
    0.0023759156   2   -1000024    12
    0.0021855277   2    1000022    11
    0.00027503677   2    1000035    11
    0.00021208189   2    1000023    11

DECAY 2000013  0.030280729
    0.46675898   2   -1000024    14
    0.28291514   2    1000022    13
    0.24955951   2    1000023    13
    0.00044545732   2    1000025    13
    0.00032090248   2   -1000037    14

DECAY 1000013  25.125967
    0.66295514   2   -1000037    14
    0.3309852   2    1000025    13
    0.0026850311   2    1000022    13
    0.0023735146   2   -1000024    14
    0.00071089411   2    1000023    13
    0.00027458727   2    1000035    13

DECAY 1000015  2.9434723
    0.41770844   2    1000022    15
    0.34433152   2    1000023    15
    0.23796004   2   -1000024    16

DECAY 2000015  3.7420825
    0.41524507   2   -1000024    16
    0.31662719   2    1000023    15
    0.26788387   2    1000022    15
    0.00015270778   2   -1000037    16

DECAY 1000012  25.134532
    0.65723318   2    1000037    11
    0.32918614   2    1000025    12
    0.0096544304   2    1000024    11
    0.0032370886   2    1000022    12
    0.00042442522   2    1000023    12
    0.000264732   2    1000035    12

DECAY 1000014  25.159299
    0.65657792   2    1000037    13
    0.32885711   2    1000025    14
    0.010642805   2    1000024    13
    0.0032338744   2    1000022    14
    0.00042400379   2    1000023    14
    0.00026429552   2    1000035    14

DECAY 1000016  2.2661961
    0.98760298   2    1000024    15
    0.010970725   2    1000022    16
    0.0014262729   2    1000023    16

DECAY 2000001  4.7900964e-05
    0.70048019   2    1000022    1
    0.25476608   2    1000023    1
    0.04475372   2   -1000024    2

DECAY 1000001  23.362473
    0.66375512   2   -1000037    2
    0.33047154   2    1000025    1
    0.0029619099   2    1000022    1
    0.0024536981   2   -1000024    2
    0.0003577102   2    1000023    1

DECAY 2000003  0.0015874307
    0.48746653   2   -1000024    4
    0.26687978   2    1000022    3
    0.24565369   2    1000023    3

DECAY 1000003  23.370234
    0.66353272   2   -1000037    4
    0.33036084   2    1000025    3
    0.003104333   2    1000022    3
    0.0024945294   2   -1000024    4
    0.00050016598   2    1000023    3

DECAY 1000005  49.702671
    0.49960597   2   -1000024    6
    0.24947863   2    1000022    5
    0.24177314   2    1000023    5
    0.0058703672   2    1000035    5
    0.0022319519   2   -1000037    6
    0.0010399394   2    1000025    5

DECAY 2000005  136.5137
    0.5375005   2   -1000024    6
    0.19000185   2   -1000037    6
    0.092120815   2    1000025    5
    0.090573778   2    1000023    5
    0.089175766   2    1000022    5
    0.00062728782   2    1000035    5

DECAY 2000002  0.00010963268
    0.7466834   2    1000022    2
    0.25331409   2    1000023    2

DECAY 1000002  23.406769
    0.6571165   2    1000037    1
    0.3300419   2    1000025    2
    0.0099669527   2    1000024    1
    0.0025913633   2    1000022    2
    0.00028328317   2    1000023    2

DECAY 2000004  0.00025194512
    0.46897227   2    1000022    4
    0.28144564   2    1000024    3
    0.24958209   2    1000023    4

DECAY 1000004  23.41435
    0.65690205   2    1000037    3
    0.32993356   2    1000025    4
    0.010248664   2    1000024    3
    0.0026114414   2    1000022    4
    0.00030428361   2    1000023    4

DECAY 1000006  141.48968
    0.2572824   2    1000023    6
    0.24877607   2    1000022    6
    0.19942621   2    1000024    5
    0.17139238   2    1000037    5
    0.086172518   2    1000025    6
    0.034519522   3    1000022    24    5
    0.0021566663   2    1000035    6
    0.00024719405   2    1000022    4

DECAY 2000006  155.56685
    0.4685434   2    1000024    5
    0.25594935   2    1000022    6
    0.25322244   2    1000023    6
    0.0088435178   2    1000037    5
    0.0078032968   2    1000035    6
    0.0046134917   2    1000025    6
    0.00056748262   2    2000005    24
    0.00037589184   2    1000006    23

DECAY 1000024  3.0442456e-11
    0.59274012   3    1000022   -1    2
    0.19759118   3    1000022   -11    12
    0.19367555   3    1000022   -13    14
    0.015993145   3    1000022   -3    4

DECAY 1000037  12.746488
    0.24936582   2    1000022    24
    0.24490817   2    1000024    25
    0.24477856   2    1000023    24
    0.24413754   2    1000024    23
    0.0052324648   3    1000023   -5    6
    0.0051383882   3    1000024    6   -6
    0.0049887935   3    1000022   -5    6
    0.00078896837   2   -1000015    16
    0.00062306706   2    1000016   -15

DECAY 1000022 -1


DECAY 1000023  7.5917103e-08
    0.68543726   2    1000022    22
    0.071136743   3    1000022    12   -12
    0.053194194   3    1000022    1   -1
    0.053039244   3    1000022    3   -3
    0.041486946   3    1000022    2   -2
    0.022384604   3    1000022    4   -4
    0.01200443   3    1000022    11   -11
    0.011949367   3    1000022    13   -13
    0.009389947   3    1000024    1   -2
    0.009389947   3   -1000024   -1    2
    0.0062122076   3    1000024    3   -4
    0.0062122076   3   -1000024   -3    4
    0.003129984   3    1000024    11   -12
    0.003129984   3   -1000024   -11    12
    0.0031207214   3    1000024    13   -14
    0.0031207214   3   -1000024   -13    14
    0.0028714089   3    1000022    15   -15
    0.0013950395   3    1000024    15   -16
    0.0013950395   3   -1000024   -15    16

DECAY 1000025  15.124345
    0.21298769   2    1000024   -24
    0.21298769   2   -1000024    24
    0.18910398   2    1000023    23
    0.18254012   2    1000022    25
    0.16704798   2    1000023    25
    0.02129445   2    1000022    23
    0.0047214707   3    1000024    5   -6
    0.0047214707   3   -1000024   -5    6
    0.0017242838   3    1000022    6   -6
    0.0016112573   3    1000023    6   -6
    0.00033065453   2    1000015   -15
    0.00033065453   2   -1000015    15
    0.00026216487   2    1000016   -16
    0.00026216487   2   -1000016    16

DECAY 1000035  74.662857
    0.11302441   2    2000004   -4
    0.11302441   2   -2000004    4
    0.11302432   2    2000002   -2
    0.11302432   2   -2000002    2
    0.049450799   2    2000015   -15
    0.049450799   2   -2000015    15
    0.032131831   2    2000013   -13
    0.032131831   2   -2000013    13
    0.032128977   2    2000011   -11
    0.032128977   2   -2000011    11
    0.02776881   2    1000024   -24
    0.02776881   2   -1000024    24
    0.027038907   2    2000003   -3
    0.027038907   2   -2000003    3
    0.027038633   2    2000001   -1
    0.027038633   2   -2000001    1
    0.026973595   2    1000015   -15
    0.026973595   2   -1000015    15
    0.021080857   2    1000023    23
    0.019173281   2    1000022    25
    0.017475774   2    1000023    25
    0.015594112   2    1000016   -16
    0.015594112   2   -1000016    16
    0.0072329481   2    1000022    23
    0.0014154597   3    1000024    5   -6
    0.0014154597   3   -1000024   -5    6
    0.0010160161   3    1000022    6   -6
    0.00098194094   3    1000023    6   -6
    0.00048103506   2    1000037   -24
    0.00048103506   2   -1000037    24
    0.00042870239   2    1000025    25

DECAY 1000021  523.62648
    0.10288662   2    2000004   -4
    0.10288662   2   -2000004    4
    0.1028866   2    2000002   -2
    0.1028866   2   -2000002    2
    0.10045012   2    2000003   -3
    0.10045012   2   -2000003    3
    0.10044958   2    2000001   -1
    0.10044958   2   -2000001    1
    0.02241181   2    1000004   -4
    0.02241181   2   -1000004    4
    0.022411651   2    1000002   -2
    0.022411651   2   -1000002    2
    0.022372055   2    1000003   -3
    0.022372055   2   -1000003    3
    0.022371883   2    1000001   -1
    0.022371883   2   -1000001    1
    0.0011074993   3    1000023    6   -6
    0.001102291   3    1000022    6   -6
    0.0010060439   2    1000005   -5
    0.0010060439   2   -1000005    5
    0.00058185006   2    2000005   -5
    0.00058185006   2   -2000005    5
    0.00050223822   3    1000024    5   -6
    0.00050223822   3   -1000024   -5    6
    0.00029726593   2    1000006   -4
    0.00029726593   2   -1000006    4
    0.00018529516   3    1000025    6   -6
    0.00016465677   3    1000037    5   -6
    0.00016465677   3   -1000037   -5    6

DECAY 25  0.0034490667
    0.62940131   2   -5    5
    0.16997293   2   -24    24
    0.074433973   2    21    21
    0.072057204   2   -15    15
    0.0310756   2   -4    4
    0.019066164   2    23    23
    0.0023255912   2    22    22
    0.0011798111   2    22    23
    0.00024986899   2   -13    13
    0.00023672666   2   -3    3
    6.5452637e-07   2   -1    1
    1.6015277e-07   2   -2    2
    5.6173845e-09   2   -11    11

DECAY 35  87.01175
    0.56883414   2   -5    5
    0.10161114   2   -15    15
    0.072206147   2   -1000024    1000037
    0.072206147   2   -1000037    1000024
    0.048672233   2    1000023    1000025
    0.036510098   2   -2000015    1000015
    0.036510098   2   -1000015    2000015
    0.02738931   2   -1000015    1000015
    0.023419395   2    1000022    1000025
    0.0076394737   2   -2000015    2000015
    0.0021262785   2   -1000024    1000024
    0.0012226203   2   -6    6
    0.00069094119   2    1000022    1000022
    0.0003338183   2   -13    13
    0.00027180479   2   -3    3
    0.00021482394   2    1000022    1000023
    9.5202138e-05   2    1000023    1000023
    2.3835482e-05   2   -1000037    1000037
    1.1886303e-05   2    1000025    1000025
    5.3752877e-06   2    21    21
    2.9659002e-06   2    25    25
    7.5149348e-07   2   -1    1
    3.7972721e-07   2    23    23
    3.5740604e-07   2   -1000002    1000002
    3.5722043e-07   2   -1000004    1000004
    1.2855288e-07   2    22    22
    1.1234528e-07   2   -24    24
    5.0894862e-08   2    22    23
    2.2232337e-08   2   -4    4
    1.5215585e-08   2   -1000001    1000001
    1.5128169e-08   2   -1000003    1000003
    7.4973245e-09   2   -11    11
    1.1463444e-13   2   -2    2

DECAY 36  83.947307
    0.55160153   2   -5    5
    0.098537004   2   -15    15
    0.074489555   2   -1000024    1000037
    0.074489555   2   -1000037    1000024
    0.059955526   2   -2000015    1000015
    0.059955526   2   -1000015    2000015
    0.05017583   2    1000022    1000025
    0.024372883   2    1000023    1000025
    0.0029492867   2   -1000024    1000024
    0.0011642722   2   -6    6
    0.0010109962   2    1000022    1000022
    0.00032372032   2   -13    13
    0.00029747291   2   -1000037    1000037
    0.00026357608   2   -3    3
    0.00014817206   2    1000025    1000025
    0.00013953832   2    1000022    1000023
    0.0001119829   2    1000023    1000023
    1.1931564e-05   2    21    21
    7.2874229e-07   2   -1    1
    6.494208e-07   2    23    25
    1.5047178e-07   2    22    23
    8.2556134e-08   2    22    22
    2.1001591e-08   2   -4    4
    7.2705218e-09   2   -11    11
    5.6171919e-12   2    23    35
    1.0830101e-13   2   -2    2
    3.1452102e-39   2    25    25

DECAY 37  84.635241
    0.56205999   2   -5    6
    0.10321141   2   -2000015    1000016
    0.092336143   2   -15    16
    0.075541473   2    1000022    1000037
    0.074941464   2    1000024    1000025
    0.074268617   2    1000023    1000037
    0.015518693   2   -1000015    1000016
    0.00083201499   2   -5    4
    0.00065380372   2    1000023    1000024
    0.00032644122   2   -13    14
    0.00024867176   2   -3    4
    4.0293422e-05   2    1000022    1000024
    1.1648724e-05   2   -3    2
    5.9414456e-06   2   -5    2
    1.9431218e-06   2   -3    6
    6.9002796e-07   2   -1    2
    6.4353557e-07   2    24    25
    7.2227872e-08   2   -1    6
    3.2890601e-08   2   -1    4
    7.6354942e-09   2   -11    12
    3.0802696e-10   2    1000025    1000037
    5.8970887e-12   2   -1000003    1000004
    3.042292e-13   2    24    35
    8.740081e-16   2   -1000001    1000004
    1.6568195e-18   2   -1000003    1000002
    8.5833565e-20   2   -1000001    1000002

DECAY 6  2.43
    1   2    5    24

DECAY 15 -1
