BLOCK SPINFO
   1   SPheno
   2   v4.0.5be

BLOCK SPHENOINFO
   1   2
   2   2

BLOCK MODSEL
   1   0

BLOCK MINPAR
   3    41.947936
   4   -1

BLOCK EXTPAR
   0    3699.4404
   1    3058.958
   2   -505.00662
   3    2579.2437
   11    1170.8159
   12    6610.6184
   13   -760.5202
   23   -421.78833
   25    41.142498
   26    4066.2186
   31    3184.2125
   32    3184.2125
   33    3576.6763
   34    3382.6345
   35    3382.6345
   36    4272.3005
   41    2413.444
   42    2413.444
   43    3157.7275
   44    4643.4323
   45    4643.4323
   46    4224.4958
   47    1310.3351
   48    1310.3351
   49    1308.9445

BLOCK SMINPUTS
   1    127.90897
   2    1.1663787e-05
   3    0.1184
   4    91.1876
   5    4.18
   6    173.2
   7    1.777
   8    0
   11    0.00051099893
   12    0
   13    0.10565837
   14    0
   21    0.005
   22    0.0025
   23    0.095
   24    1.27

BLOCK GAUGE Q=  3699.4404
   1    0.35536298
   2    0.66519887
   3    1.219778

BLOCK YU Q=  3699.4404
   1   1    8.3868484e-06
   2   2    0.004260519
   3   3    1.0131987

BLOCK YD Q=  3699.4404
   1   1    0.00069337742
   2   2    0.013174171
   3   3    0.68761313

BLOCK YE Q=  3699.4404
   1   1    0.00012099943
   2   2    0.025018845
   3   3    0.42077581

BLOCK AU Q=  3699.4404
   1   1    0
   2   2    0
   3   3    1170.8159

BLOCK AD Q=  3699.4404
   1   1    0
   2   2    0
   3   3    6610.6193

BLOCK AE Q=  3699.4404
   1   1    0
   2   2    0
   3   3   -760.52019

BLOCK MSOFT Q=  3699.4404
   1    3058.958
   2   -505.00662
   3    2579.2437
   21    17202892
   22    119691.24
   31    3184.2125
   32    3184.2125
   33    3576.6763
   34    3382.6345
   35    3382.6345
   36    4272.3005
   41    2413.444
   42    2413.444
   43    3157.7275
   44    4643.4323
   45    4643.4323
   46    4224.4958
   47    1310.3351
   48    1310.3351
   49    1308.9445

BLOCK MASS
   6    173.2
   23    91.1876
   24    80.429995
   15    1.777
   25    121.66774
   35    4063.4903
   36    4066.2186
   37    4064.4505
   1000001    2556.9899
   2000001    1507.7334
   1000002    2555.7294
   2000002    4715.1379
   1000003    2556.9835
   2000003    1507.7153
   1000004    2555.7231
   2000004    4715.1372
   1000005    1454.1242
   2000005    3215.5543
   1000006    3217.7055
   2000006    4253.2977
   1000011    3191.3371
   2000011    3397.983
   1000012    3189.9364
   1000013    3191.3049
   2000013    3397.9232
   1000014    3189.9049
   1000015    3575.8954
   2000015    4268.6537
   1000016    3574.5502
   1000021    2794.2335
   1000022   -404.15056
   1000023    431.15242
   1000025   -562.49416
   1000035    3032.9042
   1000024    406.49027
   1000037    563.20658

BLOCK ALPHA
      -0.023871539

BLOCK HMIX Q=  3699.4404
   1   -421.78833
   2    41.142498
   3    243.02665
   4    16534134

BLOCK STOPMIX
   1   1   -0.99987914
   1   2    0.015547039
   2   1   -0.015547039
   2   2   -0.99987914

BLOCK SBOTMIX
   1   1   -0.007140186
   1   2    0.99997451
   2   1   -0.99997451
   2   2   -0.007140186

BLOCK STAUMIX
   1   1   -0.99998563
   1   2    0.0053611897
   2   1   -0.0053611897
   2   2   -0.99998563

BLOCK NMIX
   1   1   -0.0080953009
   1   2   -0.39648814
   1   3   -0.66723996
   1   4    0.63049382
   2   1    0.011313445
   2   2    0.057639813
   2   3   -0.70357547
   2   4   -0.70818868
   3   1    0.0037892036
   3   2   -0.9162285
   3   3    0.24447846
   3   4   -0.31739765
   4   1    0.99989605
   4   2   -0.00039005987
   4   3    0.001632145
   4   4    0.014320264

BLOCK UMIX
   1   1   -0.35152488
   1   2   -0.93617854
   2   1   -0.93617854
   2   2    0.35152488

BLOCK VMIX
   1   1    0.4565342
   1   2    0.88970586
   2   1    0.88970586
   2   2   -0.4565342

BLOCK HIGGSBOUNDSINPUTHIGGSCOUPLINGSFERMIONS
       0, 1692.7051,3,36,15,15

BLOCK HIGGSBOUNDSINPUTHIGGSCOUPLINGSBOSONS
       0,4,36,21,21,23

BLOCK SPHENOLOWENERGY
   1    0.00032314298
   2    1.5894113e-06
   3    3.5241182e-05
   4    2.6100612e-15
   5    1.1149868e-10
   6    2.3331093e-08
   7    9.025924e-14
   8    3.8558621e-09
   9    8.1728339e-07
   10    9.6217088e-05
   11    0.99388568
   12    0.5419607
   13    19.362412
   14    0
   15    0
   16    0.002157303
   17    2.2816588e-15
   18    2.4790924e-11
   19    8.2883313e-11
   20    2.5898206e-15
   21    1.1072645e-10
   22    2.639258e-08
   23    0
   24    0
   25    0
   26    0
   27    0
   28    0
   29    0
   30    0
   31    0
   39    7.7482319e-05
   40    0
   41    0
   42    0

BLOCK FWCOEF Q=  160
   305   4422   0   0   -0.18881911
   305   4422   0   2   -0.19221217
   305   4322   0   2   -5.6319088e-05
   305   6421   0   0   -0.095227835
   305   6421   0   2   -0.09835184
   305   6321   0   2   -6.6121673e-05
   3051111   4133   0   0    1.6243792
   3051111   4133   0   2    1.6247247
   3051111   4233   0   2    0.00032761672
   3051111   4137   0   0   -4.4470713
   3051111   4137   0   2   -4.4443289
   3051111   4237   0   2   -0.0024308454
   3051313   4133   0   0    1.6243792
   3051313   4133   0   2    1.6247241
   3051313   4233   0   2    0.0003276161
   3051313   4137   0   0   -4.4470713
   3051313   4137   0   2   -4.4443295
   3051313   4237   0   2   -0.0024308468
   3051212   4137   0   0    1.5053501
   3051212   4137   0   2    1.5047658
   3051212   4237   0   2    0.00052591361
   3051414   4137   0   0    1.5053501
   3051414   4137   0   2    1.5047658
   3051414   4237   0   2    0.00052591364
   3051616   4137   0   0    1.5053501
   3051616   4137   0   2    1.5047656
   3051616   4237   0   2    0.00052592101

BLOCK IMFWCOEF Q=  160
   305   4422   0   0    3.8582392e-07
   305   4422   0   2    9.9665204e-06
   305   4322   0   2    3.9913153e-07
   305   6421   0   0    3.304837e-07
   305   6421   0   2    3.7391052e-05
   305   6321   0   2    6.9098257e-07
   3051111   4133   0   2    1.1139075e-06
   3051111   4233   0   2    6.341032e-06
   3051111   4137   0   2   -6.7424638e-07
   3051111   4237   0   2   -4.7052466e-05
   3051313   4133   0   2    1.1138722e-06
   3051313   4233   0   2    6.3410233e-06
   3051313   4137   0   2   -6.7421095e-07
   3051313   4237   0   2   -4.7052494e-05
   3051212   4137   0   2    3.0970027e-07
   3051212   4237   0   2    1.0179805e-05
   3051414   4137   0   2    3.0970163e-07
   3051414   4237   0   2    1.0179805e-05
   3051616   4137   0   2    3.0659123e-07
   3051616   4237   0   2    1.0179805e-05

DECAY 23  2.4952


DECAY 24  2.085


DECAY 1000011  39.770938
    0.58113203   2   -1000037    12
    0.27713061   2    1000025    11
    0.084478204   2   -1000024    12
    0.054935139   2    1000022    11
    0.001380606   2    1000023    11
    0.00094340771   2    1000035    11

DECAY 2000011  0.70921077
    0.99515405   2    1000035    11
    0.0029835931   2    1000023    11
    0.0015339538   2    1000022    11
    0.00032705225   2    1000025    11

DECAY 1000013  39.808795
    0.58057281   2   -1000037    14
    0.27691985   2    1000025    13
    0.084396964   2   -1000024    14
    0.055312686   2    1000022    13
    0.001855546   2    1000023    13
    0.00094214696   2    1000035    13

DECAY 2000013  0.79098749
    0.89200785   2    1000035    13
    0.045551815   2   -1000024    14
    0.028309515   2    1000023    13
    0.024521844   2    1000022    13
    0.0062520715   2   -1000037    14
    0.0033176535   2    1000025    13

DECAY 1000015  57.655977
    0.45389284   2   -1000037    16
    0.22884094   2    1000025    15
    0.13821517   2    1000022    15
    0.10600074   2    1000023    15
    0.066924606   2   -1000024    16
    0.0061257073   2    1000035    15

DECAY 2000015  34.808249
    0.3693722   2   -1000024    16
    0.20974791   2    1000023    15
    0.18758973   2    1000022    15
    0.151059   2    1000035    15
    0.053885781   2   -1000037    16
    0.026072305   2    1000025    15
    0.00114186   2    1000016   -24
    0.00056670815   2    1000015    25
    0.00056450404   2    1000015    23

DECAY 1000012  39.806073
    0.52414529   2    1000037    11
    0.27920548   2    1000025    12
    0.14229594   2    1000024    11
    0.05251878   2    1000022    12
    0.00092949689   2    1000035    12
    0.0009050082   2    1000023    12

DECAY 1000014  39.84392
    0.5237574   2    1000037    13
    0.27893716   2    1000025    14
    0.1430047   2    1000024    13
    0.052468342   2    1000022    14
    0.00092825957   2    1000035    14
    0.00090413896   2    1000023    14

DECAY 1000016  57.676986
    0.43637109   2    1000037    15
    0.29716201   2    1000024    15
    0.21875972   2    1000025    16
    0.040886622   2    1000022    16
    0.0061153455   2    1000035    16
    0.0007052182   2    1000023    16

DECAY 2000001  0.00017169353
    0.56415302   2    1000023    1
    0.30898221   2    1000022    1
    0.063301077   2   -1000024    2
    0.055879159   2    1000025    1
    0.0076845368   2   -1000037    2

DECAY 1000001  30.773693
    0.58036827   2   -1000037    2
    0.27842957   2    1000025    1
    0.085873947   2   -1000024    2
    0.054259664   2    1000022    1
    0.0010685449   2    1000023    1

DECAY 2000003  0.0089469914
    0.43851807   2   -1000024    4
    0.25301265   2    1000023    3
    0.22846508   2    1000022    3
    0.053234379   2   -1000037    4
    0.026769823   2    1000025    3

DECAY 1000003  30.782863
    0.58019984   2   -1000037    4
    0.2783611   2    1000025    3
    0.085870134   2   -1000024    4
    0.054364553   2    1000022    3
    0.0012018472   2    1000023    3

DECAY 1000005  22.426939
    0.44081934   2   -1000024    6
    0.25098495   2    1000023    5
    0.23252832   2    1000022    5
    0.050265653   2   -1000037    6
    0.025401736   2    1000025    5

DECAY 2000005  148.10796
    0.35726204   2   -1000024    6
    0.24811732   2   -1000037    6
    0.10277594   2    1000021    5
    0.10203355   2    1000022    5
    0.097840078   2    1000023    5
    0.087356225   2    1000025    5
    0.002626837   2    1000005    25
    0.0019509608   2    1000005    23

DECAY 1000002  30.845389
    0.52264983   2    1000037    1
    0.27680096   2    1000025    2
    0.14442783   2    1000024    1
    0.054896383   2    1000022    2
    0.0012249966   2    1000023    2

DECAY 2000002  160.29409
    0.97741366   2    1000021    2
    0.022572913   2    1000035    2

DECAY 1000004  30.854469
    0.52252669   2    1000037    3
    0.27672077   2    1000025    4
    0.14462207   2    1000024    3
    0.054891627   2    1000022    4
    0.0012388425   2    1000023    4

DECAY 2000004  160.29729
    0.97739326   2    1000021    4
    0.022572443   2    1000035    4

DECAY 1000006  151.53559
    0.21068855   2    1000024    5
    0.20936839   2    1000023    6
    0.1831442   2    1000022    6
    0.15888555   2    1000037    5
    0.11015355   2    1000025    6
    0.090239578   2    1000021    6
    0.03368085   3    1000022    24    5
    0.0038284731   2    1000005    24

DECAY 2000006  282.54906
    0.38106315   2    1000021    6
    0.23640819   2    1000024    5
    0.15031686   2    1000023    6
    0.11850315   2    1000022    6
    0.064323072   2    1000037    5
    0.031039031   2    1000025    6
    0.0081030771   2    1000035    6
    0.0050215188   2    1000006    25
    0.0034897961   2    2000005    24
    0.00173058   2    1000006    23

DECAY 1000024  2.5100412e-10
    0.52657697   3    1000022   -1    2
    0.17551267   3    1000022   -11    12
    0.17374349   3    1000022   -13    14
    0.11834569   3    1000022   -3    4
    0.005821186   3    1000022   -15    16

DECAY 1000037  2.2810655
    0.4995048   2    1000022    24
    0.22168147   2    1000024    23
    0.16395239   2    1000023    24
    0.11486129   2    1000024    25

DECAY 1000022 -1


DECAY 1000023  6.4709132e-05
    0.13044193   3    1000022    12   -12
    0.097534533   3    1000022    1   -1
    0.097521295   3    1000022    3   -3
    0.076076768   3    1000022    2   -2
    0.075111783   3    1000022    5   -5
    0.073924477   3    1000022    4   -4
    0.060654496   2    1000022    22
    0.054384846   3    1000024    1   -2
    0.054384846   3   -1000024   -1    2
    0.053694231   3    1000024    3   -4
    0.053694231   3   -1000024   -3    4
    0.022011109   3    1000022    11   -11
    0.022006351   3    1000022    13   -13
    0.020710477   3    1000022    15   -15
    0.018128116   3    1000024    11   -12
    0.018128116   3   -1000024   -11    12
    0.01812798   3    1000024    13   -14
    0.01812798   3   -1000024   -13    14
    0.017668219   3    1000024    15   -16
    0.017668219   3   -1000024   -15    16

DECAY 1000025  3.9015814
    0.31914891   2    1000024   -24
    0.31914891   2   -1000024    24
    0.23930814   2    1000023    23
    0.061688829   2    1000022    25
    0.057438834   2    1000023    25
    0.0032254877   2    1000022    23

DECAY 1000035  17.581762
    0.087203227   2    1000024   -24
    0.087203227   2   -1000024    24
    0.085651495   2    1000005   -5
    0.085651495   2   -1000005    5
    0.081865699   2    2000003   -3
    0.081865699   2   -2000003    3
    0.081864407   2    2000001   -1
    0.081864407   2   -2000001    1
    0.066311651   2    1000023    25
    0.058843734   2    1000022    25
    0.052409448   2    1000022    23
    0.041097772   2    1000023    23
    0.018338262   2    1000037   -24
    0.018338262   2   -1000037    24
    0.0130884   2    1000025    25
    0.011893588   2    1000025    23
    0.0048387965   3    1000024    5   -6
    0.0048387965   3   -1000024   -5    6
    0.0045424046   3    1000023    6   -6
    0.0037843653   3    1000022    6   -6
    0.0030334763   2    1000003   -3
    0.0030334763   2   -1000003    3
    0.003033401   2    1000001   -1
    0.003033401   2   -1000001    1
    0.0030216014   2    1000004   -4
    0.0030216014   2   -1000004    4
    0.0030215224   2    1000002   -2
    0.0030215224   2   -1000002    2
    0.0011188072   3    1000037    5   -6
    0.0011188072   3   -1000037   -5    6
    0.00082645132   3    1000025    6   -6
    0.00014731245   3    1000025    12   -12

DECAY 1000021  136.16542
    0.16149305   2    1000005   -5
    0.16149305   2   -1000005    5
    0.15260513   2    2000003   -3
    0.15260513   2   -2000003    3
    0.15260212   2    2000001   -1
    0.15260212   2   -2000001    1
    0.0081117875   2    1000004   -4
    0.0081117875   2   -1000004    4
    0.0081114791   2    1000002   -2
    0.0081114791   2   -1000002    2
    0.0080301648   2    1000003   -3
    0.0080301648   2   -1000003    3
    0.0080297507   2    1000001   -1
    0.0080297507   2   -1000001    1
    0.00037332468   3    1000024    5   -6
    0.00037332468   3   -1000024   -5    6
    0.00030537437   3    1000023    6   -6
    0.0002835933   3    1000022    6   -6
    0.00015378505   3    1000037    5   -6
    0.00015378505   3   -1000037   -5    6

DECAY 25  0.003490778
    0.62255976   2   -5    5
    0.17668976   2   -24    24
    0.074625826   2    21    21
    0.071286966   2   -15    15
    0.030804817   2   -4    4
    0.019999202   2    23    23
    0.0023321521   2    22    22
    0.0012194677   2    22    23
    0.00024726081   2   -13    13
    0.00023397043   2   -3    3
    6.4690503e-07   2   -1    1
    1.5875539e-07   2   -2    2
    5.558743e-09   2   -11    11

DECAY 35  147.45152
    0.5752788   2   -5    5
    0.096943036   2   -15    15
    0.073324137   2   -1000024    1000037
    0.073324137   2   -1000037    1000024
    0.047431786   2    1000023    1000025
    0.044595036   2   -1000024    1000024
    0.022836774   2   -1000037    1000037
    0.021011158   2    1000022    1000025
    0.0171276   2    1000022    1000022
    0.012025464   2    1000025    1000025
    0.0090046843   2    1000022    1000023
    0.0029732567   2    1000022    1000035
    0.0017410765   2    1000023    1000035
    0.00083637113   2   -6    6
    0.00055300625   2    1000025    1000035
    0.00033661655   2   -13    13
    0.00031554065   2    1000023    1000023
    0.0002370746   2   -3    3
    0.00010010173   2   -1000005    1000005
    3.089785e-06   2    21    21
    6.5542179e-07   2   -1    1
    4.2760046e-07   2    25    25
    9.4775426e-08   2    23    23
    2.5754462e-08   2    22    23
    1.9656528e-08   2   -24    24
    1.0132314e-08   2   -4    4
    9.5454994e-09   2    22    22
    7.5595016e-09   2   -11    11
    4.2064771e-09   2   -1000001    1000001
    4.1789699e-09   2   -1000003    1000003
    2.3928735e-10   2   -2000003    1000003
    2.3928735e-10   2   -1000003    2000003
    6.6283717e-13   2   -2000001    1000001
    6.6283717e-13   2   -1000001    2000001
    5.2218985e-14   2   -2    2

DECAY 36  140.68204
    0.56175203   2   -5    5
    0.094672115   2   -15    15
    0.071534969   2   -1000024    1000037
    0.071534969   2   -1000037    1000024
    0.052195144   2   -1000024    1000024
    0.042908084   2    1000023    1000025
    0.029282618   2   -1000037    1000037
    0.025180734   2    1000022    1000025
    0.020403094   2    1000022    1000022
    0.015296062   2    1000025    1000025
    0.0080414813   2    1000022    1000023
    0.0036426756   2    1000023    1000035
    0.0016784408   2    1000022    1000035
    0.00076421176   2   -6    6
    0.00032873099   2   -13    13
    0.00031435604   2    1000023    1000023
    0.00023151297   2   -3    3
    0.00022987962   2    1000025    1000035
    7.8934529e-06   2    21    21
    6.4004259e-07   2   -1    1
    2.1353857e-07   2    23    25
    7.9853178e-08   2    22    23
    4.5474647e-08   2    22    22
    9.1547285e-09   2   -4    4
    7.3824741e-09   2   -11    11
    2.52163e-10   2   -2000003    1000003
    2.52163e-10   2   -1000003    2000003
    1.1804595e-12   2    23    35
    6.9850323e-13   2   -2000001    1000001
    6.9850323e-13   2   -1000001    2000001
    4.7182296e-14   2   -2    2
    6.5306359e-39   2    25    25

DECAY 37  151.38415
    0.58571396   2   -5    6
    0.10996196   2    1000022    1000037
    0.098865783   2    1000024    1000025
    0.094479582   2   -15    16
    0.080996255   2    1000023    1000037
    0.022479012   2    1000023    1000024
    0.0043554005   2    1000024    1000035
    0.00086818335   2   -5    4
    0.00077194631   2    1000035    1000037
    0.00075218045   2   -1000005    1000004
    0.00033401895   2   -13    14
    0.00021434706   2   -3    4
    0.00018124052   2    1000022    1000024
    1.007313e-05   2   -3    2
    6.1997242e-06   2   -5    2
    5.3713471e-06   2   -1000005    1000002
    2.4767845e-06   2    1000025    1000037
    1.1511918e-06   2   -3    6
    5.9473848e-07   2   -1    2
    1.982499e-07   2    24    25
    3.8149678e-08   2   -1    6
    2.8216077e-08   2   -1    4
    7.8127379e-09   2   -11    12
    4.4140287e-10   2   -1000003    1000004
    2.3643837e-11   2   -1000003    1000002
    1.2247789e-12   2   -1000001    1000002
    6.5414003e-14   2   -1000001    1000004

DECAY 6  2.43
    1   2    5    24

DECAY 15 -1
