BLOCK SPINFO
   1   SPheno
   2   v4.0.5be

BLOCK SPHENOINFO
   1   2
   2   2

BLOCK MODSEL
   1   0

BLOCK MINPAR
   3    13.883898
   4   -1

BLOCK EXTPAR
   0    3136.4553
   1    528.35433
   2   -517.89466
   3    3691.0038
   11   -2421.6565
   12    1251.5091
   13   -2647.2651
   23   -716.30474
   25    13.25551
   26    4023.0298
   31    2426.0763
   32    2426.0763
   33    1536.213
   34    617.30335
   35    617.30335
   36    2278.6184
   41    1899.3957
   42    1899.3957
   43    4114.853
   44    578.91215
   45    578.91215
   46    2240.5087
   47    3902.5879
   48    3902.5879
   49    1783.8584

BLOCK SMINPUTS
   1    127.90897
   2    1.1663787e-05
   3    0.1184
   4    91.1876
   5    4.18
   6    173.2
   7    1.777
   8    0
   11    0.00051099893
   12    0
   13    0.10565837
   14    0
   21    0.005
   22    0.0025
   23    0.095
   24    1.27

BLOCK GAUGE Q=  3136.4553
   1    0.35536298
   2    0.66519887
   3    1.219778

BLOCK YU Q=  3136.4553
   1   1    8.408197e-06
   2   2    0.0042713641
   3   3    1.0157777

BLOCK YD Q=  3136.4553
   1   1    0.00022396469
   2   2    0.0042553292
   3   3    0.2221028

BLOCK YE Q=  3136.4553
   1   1    3.9083477e-05
   2   2    0.0080812235
   3   3    0.13591289

BLOCK AU Q=  3136.4553
   1   1    0
   2   2    0
   3   3   -2421.6575

BLOCK AD Q=  3136.4553
   1   1    0
   2   2    0
   3   3    1251.5092

BLOCK AE Q=  3136.4553
   1   1    0
   2   2    0
   3   3   -2647.2647

BLOCK MSOFT Q=  3136.4553
   1    528.35433
   2   -517.89466
   3    3691.0038
   21    15546383
   22   -259862.69
   31    2426.0763
   32    2426.0763
   33    1536.213
   34    617.30335
   35    617.30335
   36    2278.6184
   41    1899.3957
   42    1899.3957
   43    4114.853
   44    578.91215
   45    578.91215
   46    2240.5087
   47    3902.5879
   48    3902.5879
   49    1783.8584

BLOCK MASS
   6    173.2
   23    91.1876
   24    80.429995
   15    1.777
   25    120.76174
   35    4022.5037
   36    4023.0298
   37    4023.4954
   1000001    2054.1988
   2000001    4006.7111
   1000002    2052.6121
   2000002    830.84227
   1000003    2054.198
   2000003    4006.7104
   1000004    2052.6115
   2000004    830.84182
   1000005    1930.9234
   2000005    4199.6484
   1000006    2340.7029
   2000006    4202.7339
   1000011    2432.103
   2000011    621.41812
   1000012    2430.4288
   1000013    2432.101
   2000013    621.40793
   1000014    2430.4268
   1000015    1540.9992
   2000015    2279.4273
   1000016    1538.7061
   1000021    3782.9117
   1000022    513.48079
   1000023   -529.93658
   1000025    732.66899
   1000035   -745.81245
   1000024    530.15106
   1000037    746.72151

BLOCK ALPHA
      -0.072007256

BLOCK HMIX Q=  3136.4553
   1   -716.30474
   2    13.25551
   3    243.22086
   4    16184769

BLOCK STOPMIX
   1   1    0.028400144
   1   2    0.99959663
   2   1   -0.99959663
   2   2    0.028400144

BLOCK SBOTMIX
   1   1   -0.0017731471
   1   2    0.99999843
   2   1   -0.99999843
   2   2   -0.0017731471

BLOCK STAUMIX
   1   1   -0.99999041
   1   2    0.0043798311
   2   1   -0.0043798311
   2   2   -0.99999041

BLOCK NMIX
   1   1    0.9905007
   1   2    0.0051132959
   1   3   -0.11419205
   1   4   -0.076435611
   2   1   -0.0080445091
   2   2   -0.95781961
   2   3   -0.22886745
   2   4    0.17359886
   3   1    0.13481389
   3   2   -0.04014309
   3   3    0.69677271
   3   4    0.70336444
   4   1   -0.025862552
   4   2    0.28450654
   4   3   -0.67014003
   4   4    0.68505438

BLOCK UMIX
   1   1   -0.94676752
   1   2   -0.32191809
   2   1   -0.32191809
   2   2    0.94676752

BLOCK VMIX
   1   1    0.96967629
   1   2    0.24439292
   2   1    0.24439292
   2   2   -0.96967629

BLOCK HIGGSBOUNDSINPUTHIGGSCOUPLINGSFERMIONS
       0, 175.70854,3,36,15,15

BLOCK HIGGSBOUNDSINPUTHIGGSCOUPLINGSBOSONS
       0,4,36,21,21,23

BLOCK SPHENOLOWENERGY
   1    0.00032703262
   2    1.5885333e-06
   3    3.5233472e-05
   4    2.4704377e-15
   5    1.0553432e-10
   6    2.2094454e-08
   7    8.332584e-14
   8    3.5596782e-09
   9    7.5510141e-07
   10    9.6734698e-05
   11    0.9992324
   12    0.54227721
   13    19.375625
   14    0
   15    0
   16    0.0021585511
   17    2.2816711e-15
   18    2.4788122e-11
   19    8.2868569e-11
   20    9.7372387e-16
   21    4.1628485e-11
   22    2.0323324e-08
   23    0
   24    0
   25    0
   26    0
   27    0
   28    0
   29    0
   30    0
   31    0
   39    1.2226842e-05
   40    0
   41    0
   42    0

BLOCK FWCOEF Q=  160
   305   4422   0   0   -0.18881911
   305   4422   0   2   -0.19640422
   305   4322   0   2   -0.00020698438
   305   6421   0   0   -0.095227835
   305   6421   0   2   -0.10214684
   305   6321   0   2   -0.00016983399
   3051111   4133   0   0    1.6177705
   3051111   4133   0   2    1.6179856
   3051111   4233   0   2    1.4906136e-05
   3051111   4137   0   0   -4.4404626
   3051111   4137   0   2   -4.4368902
   3051111   4237   0   2   -0.00011145706
   3051313   4133   0   0    1.6177705
   3051313   4133   0   2    1.6179854
   3051313   4233   0   2    1.4906126e-05
   3051313   4137   0   0   -4.4404626
   3051313   4137   0   2   -4.4368904
   3051313   4237   0   2   -0.00011145707
   3051212   4137   0   0    1.5053501
   3051212   4137   0   2    1.504581
   3051212   4237   0   2    2.414601e-05
   3051414   4137   0   0    1.5053501
   3051414   4137   0   2    1.504581
   3051414   4237   0   2    2.4146011e-05
   3051616   4137   0   0    1.5053501
   3051616   4137   0   2    1.5045814
   3051616   4237   0   2    2.4145943e-05

BLOCK IMFWCOEF Q=  160
   305   4422   0   0    3.8581586e-07
   305   4422   0   2    2.2082925e-06
   305   4322   0   2   -2.3392877e-06
   305   6421   0   0    3.304768e-07
   305   6421   0   2    2.8366209e-06
   305   6321   0   2   -1.1749316e-06
   3051111   4133   0   2   -1.0355104e-06
   3051111   4233   0   2    3.2087294e-07
   3051111   4137   0   2    9.6840162e-06
   3051111   4237   0   2   -2.4004903e-06
   3051313   4133   0   2   -1.0355109e-06
   3051313   4233   0   2    3.2087279e-07
   3051313   4137   0   2    9.684019e-06
   3051313   4237   0   2   -2.4004905e-06
   3051212   4137   0   2   -2.0071928e-06
   3051212   4237   0   2    5.2005452e-07
   3051414   4137   0   2   -2.0071927e-06
   3051414   4237   0   2    5.2005452e-07
   3051616   4137   0   2   -2.0000762e-06
   3051616   4237   0   2    5.2005164e-07

DECAY 23  2.4952


DECAY 24  2.085


DECAY 2000011  0.30827707
    0.99995124   2    1000022    11

DECAY 1000011  31.663591
    0.54986676   2   -1000024    12
    0.28394338   2    1000023    11
    0.088089235   2    1000022    11
    0.057484054   2   -1000037    12
    0.020332546   2    1000035    11
    0.00028402356   2    1000025    11

DECAY 2000013  0.30823973
    0.99992098   2    1000022    13

DECAY 1000013  31.666308
    0.54981907   2   -1000024    14
    0.28392353   2    1000023    13
    0.08808277   2    1000022    13
    0.057479057   2   -1000037    14
    0.020367508   2    1000035    13
    0.00032405535   2    1000025    13

DECAY 1000015  17.326381
    0.54582788   2   -1000024    16
    0.28325777   2    1000023    15
    0.088680514   2    1000022    15
    0.047256566   2   -1000037    16
    0.025275998   2    1000035    15
    0.0097012683   2    1000025    15

DECAY 2000015  11.698384
    0.8662566   2    1000022    15
    0.051895872   2   -1000037    16
    0.042372781   2    1000025    15
    0.026505558   2    1000035    15
    0.0058286412   2   -1000024    16
    0.0030023551   2    1000023    15
    0.0020920921   2    1000016   -24
    0.0010325681   2    1000015    23
    0.0010135293   2    1000015    25

DECAY 1000012  31.693613
    0.57577656   2    1000024    11
    0.2783986   2    1000023    12
    0.08459973   2    1000022    12
    0.033067296   2    1000037    11
    0.024648174   2    1000035    12
    0.0035096452   2    1000025    12

DECAY 1000014  31.696199
    0.57573828   2    1000024    13
    0.2783756   2    1000023    14
    0.084592744   2    1000022    14
    0.033137884   2    1000037    13
    0.024646134   2    1000035    14
    0.0035093548   2    1000025    14

DECAY 1000016  17.362336
    0.57228312   2    1000024    15
    0.27551444   2    1000023    16
    0.084589629   2    1000022    16
    0.044358576   2    1000037    15
    0.020319841   2    1000035    16
    0.0029343949   2    1000025    16

DECAY 1000001  23.570395
    0.59913588   2   -1000024    2
    0.30572165   2    1000023    1
    0.059882434   2   -1000037    2
    0.024167575   2    1000035    1
    0.0098899206   2    1000022    1
    0.0012025373   2    1000025    1

DECAY 2000001  5.8921193
    0.63295904   2    1000021    1
    0.36033308   2    1000022    1
    0.0064465584   2    1000025    1
    0.00023692602   2    1000035    1

DECAY 1000003  23.571511
    0.59910747   2   -1000024    4
    0.30570853   2    1000023    3
    0.059903221   2   -1000037    4
    0.02417692   2    1000035    3
    0.0098898133   2    1000022    3
    0.0012140366   2    1000025    3

DECAY 2000003  5.8948026
    0.63266662   2    1000021    3
    0.36017209   2    1000022    3
    0.0065543383   2    1000025    3
    0.00033900229   2    1000035    3
    0.0002045016   2   -1000037    4

DECAY 1000005  3.6902616
    0.32392376   2   -1000037    6
    0.2535763   2    1000022    5
    0.18624726   2    1000025    5
    0.16649744   2    1000035    5
    0.046017313   2   -1000024    6
    0.023737934   2    1000023    5

DECAY 2000005  163.96085
    0.48688659   2   -1000037    6
    0.2236276   2   -1000024    6
    0.10110291   2    1000023    5
    0.080967705   2    1000006   -24
    0.071924797   2    1000021    5
    0.019454245   2    1000035    5
    0.011920488   2    1000025    5
    0.0035164726   2    1000022    5
    0.00036287234   2    1000005    25
    0.00023631834   2    1000005    23

DECAY 2000002  0.69708719
    0.99748038   2    1000022    2
    0.0023918654   2    1000025    2

DECAY 1000002  23.649912
    0.62574599   2    1000024    1
    0.3062177   2    1000023    2
    0.034354523   2    1000037    1
    0.02254797   2    1000035    2
    0.011058079   2    1000022    2

DECAY 2000004  0.69710644
    0.99743037   2    1000022    4
    0.002406366   2    1000025    4

DECAY 1000004  23.651022
    0.62571901   2    1000024    3
    0.30620409   2    1000023    4
    0.03437409   2    1000037    3
    0.022557433   2    1000035    4
    0.011057737   2    1000022    4

DECAY 1000006  82.128227
    0.44765259   2    1000037    5
    0.23311597   2    1000025    6
    0.22022978   2    1000035    6
    0.058588881   2    1000022    6
    0.026958349   2    1000024    5
    0.013454378   2    1000023    6

DECAY 2000006  165.54116
    0.24283031   2    1000025    6
    0.23302444   2    1000035    6
    0.2103005   2    1000024    5
    0.11732529   2    1000023    6
    0.063689518   2    1000021    6
    0.056576725   2    1000006    25
    0.040198865   2    1000006    23
    0.029511642   2    1000037    5
    0.0060730787   2    1000022    6
    0.00046962407   2    1000005    24

DECAY 1000024  2.744669e-09
    0.34487158   3    1000022   -1    2
    0.3354114   3    1000022   -3    4
    0.1101883   3    1000022   -13    14
    0.11018378   3    1000022   -11    12
    0.099344565   3    1000022   -15    16

DECAY 1000037  3.5973077
    0.41998451   2    1000023    24
    0.27173511   2    1000024    23
    0.22317867   2    1000024    25
    0.085012176   2    1000022    24

DECAY 1000022 -1


DECAY 1000023  8.5910739e-09
    0.33009267   2    1000022    22
    0.14515886   3    1000022    12   -12
    0.1153044   3    1000022    1   -1
    0.11526039   3    1000022    3   -3
    0.090243738   3    1000022    2   -2
    0.083394699   3    1000022    4   -4
    0.052250129   3    1000022    5   -5
    0.024238418   3    1000022    11   -11
    0.024226562   3    1000022    13   -13
    0.019830128   3    1000022    15   -15

DECAY 1000025  4.2540989
    0.33653297   2    1000023    23
    0.21545405   2    1000024   -24
    0.21545405   2   -1000024    24
    0.17548393   2    1000023    25
    0.051128697   2    1000022    25
    0.0033501585   2    1000022    23
    0.00062380479   2    2000013   -13
    0.00062380479   2   -2000013    13
    0.00061931684   2    2000011   -11
    0.00061931684   2   -2000011    11

DECAY 1000035  4.6466764
    0.33110181   2    1000024   -24
    0.33110181   2   -1000024    24
    0.17190796   2    1000023    25
    0.087643304   2    1000022    23
    0.072704997   2    1000022    25
    0.0053392014   2    1000023    23

DECAY 1000021  529.363
    0.095805746   2    2000004   -4
    0.095805746   2   -2000004    4
    0.095805736   2    2000002   -2
    0.095805736   2   -2000002    2
    0.05783164   2    1000005   -5
    0.05783164   2   -1000005    5
    0.052654073   2    1000004   -4
    0.052654073   2   -1000004    4
    0.052654052   2    1000002   -2
    0.052654052   2   -1000002    2
    0.052586148   2    1000003   -3
    0.052586148   2   -1000003    3
    0.052586116   2    1000001   -1
    0.052586116   2   -1000001    1
    0.039772605   2    1000006   -6
    0.039772605   2   -1000006    6

DECAY 25  0.003396639
    0.63515041   2   -5    5
    0.16375364   2   -24    24
    0.074797319   2    21    21
    0.072680891   2   -15    15
    0.031451795   2   -4    4
    0.018200503   2    23    23
    0.0023268818   2    22    22
    0.0011469148   2    22    23
    0.00025206038   2   -13    13
    0.00023876414   2   -3    3
    6.6016016e-07   2   -1    1
    1.6209295e-07   2   -2    2
    5.6666564e-09   2   -11    11

DECAY 35  60.476437
    0.21912927   2   -1000024    1000037
    0.21912927   2   -1000037    1000024
    0.14213614   2   -5    5
    0.12194222   2    1000022    1000025
    0.067004617   2    1000022    1000035
    0.040743203   2   -1000024    1000024
    0.032843271   2    1000023    1000025
    0.026546944   2   -15    15
    0.021610116   2    1000023    1000035
    0.020901753   2    1000025    1000035
    0.019897961   2    1000022    1000022
    0.016913674   2   -1000037    1000037
    0.013985096   2   -6    6
    0.013953653   2    1000022    1000023
    0.013873414   2    1000035    1000035
    0.0034943259   2    1000025    1000025
    0.0021281361   2    1000023    1000023
    0.0017941083   2   -2000015    1000015
    0.0017941083   2   -1000015    2000015
    9.0285059e-05   2   -13    13
    5.6276122e-05   2   -3    3
    1.3764659e-05   2    25    25
    2.6272892e-06   2   -1000002    1000002
    2.6260585e-06   2   -1000004    1000004
    2.4053476e-06   2   -2000004    1000004
    2.4053476e-06   2   -1000004    2000004
    1.846194e-06   2    23    23
    1.318435e-06   2   -1000001    1000001
    1.3182892e-06   2   -1000003    1000003
    6.2420192e-07   2    21    21
    3.8741692e-07   2   -24    24
    3.5002802e-07   2   -1000011    1000011
    3.4958188e-07   2   -1000013    1000013
    1.9754139e-07   2   -4    4
    1.6182788e-07   2   -2000002    2000002
    1.615819e-07   2   -2000004    2000004
    1.5559275e-07   2   -1    1
    1.3788873e-07   2    22    23
    7.3072624e-08   2    22    22
    4.8711802e-08   2   -1000005    1000005
    4.3615587e-09   2   -2000013    1000013
    4.3615587e-09   2   -1000013    2000013
    2.0275613e-09   2   -11    11
    1.1282468e-09   2   -1000015    1000015
    9.3207439e-12   2   -2000002    1000002
    9.3207439e-12   2   -1000002    2000002
    1.018279e-12   2   -2    2
    1.0201732e-13   2   -2000011    1000011
    1.0201732e-13   2   -1000011    2000011

DECAY 36  59.97376
    0.20838276   2   -1000024    1000037
    0.20838276   2   -1000037    1000024
    0.13714784   2   -5    5
    0.10083966   2    1000022    1000035
    0.081848183   2    1000022    1000025
    0.053959721   2   -1000024    1000024
    0.029427593   2   -1000037    1000037
    0.027945116   2    1000023    1000035
    0.027208421   2    1000023    1000025
    0.02647874   2    1000022    1000022
    0.025616071   2   -15    15
    0.021687288   2    1000035    1000035
    0.016199833   2    1000025    1000035
    0.013244683   2    1000022    1000023
    0.012944513   2   -6    6
    0.0030225781   2    1000025    1000025
    0.0018832004   2    1000023    1000023
    0.0018110895   2   -2000015    1000015
    0.0018110895   2   -1000015    2000015
    8.7118631e-05   2   -13    13
    5.4301329e-05   2   -3    3
    8.0446433e-06   2    21    21
    3.9512747e-06   2    23    25
    2.4255115e-06   2   -2000004    1000004
    2.4255115e-06   2   -1000004    2000004
    1.8253237e-07   2   -4    4
    1.5013339e-07   2   -1    1
    1.4700859e-07   2    22    23
    9.73661e-08   2    22    22
    4.3884544e-09   2   -2000013    1000013
    4.3884544e-09   2   -1000013    2000013
    1.9564498e-09   2   -11    11
    9.3988794e-12   2   -2000002    1000002
    9.3988794e-12   2   -1000002    2000002
    9.4094528e-13   2   -2    2
    1.026464e-13   2   -2000011    1000011
    1.026464e-13   2   -1000011    2000011
    1.7480758e-38   2    25    25

DECAY 37  60.215513
    0.25609463   2    1000022    1000037
    0.24130433   2    1000024    1000035
    0.21281769   2    1000024    1000025
    0.1534894   2   -5    6
    0.050834357   2    1000023    1000037
    0.027627776   2    1000025    1000037
    0.027446247   2    1000023    1000024
    0.025758066   2   -15    16
    0.0036284157   2   -2000015    1000016
    0.00060476033   2    1000035    1000037
    0.00020804663   2   -5    4
    9.1063932e-05   2   -13    14
    5.1524124e-05   2   -3    4
    1.8972061e-05   2   -3    6
    7.8975955e-06   2   -1000005    2000004
    3.9381381e-06   2    24    25
    2.4132601e-06   2   -3    2
    2.2087516e-06   2    1000022    1000024
    2.1026231e-06   2   -1000001    2000002
    2.0988673e-06   2   -1000003    2000004
    1.4856655e-06   2   -5    2
    8.666366e-07   2   -1    6
    6.7104119e-07   2   -1000003    1000004
    5.6254098e-07   2   -1000015    1000016
    1.425096e-07   2   -1    2
    1.1242981e-07   2   -1000003    2000002
    1.1229508e-07   2   -1000001    2000004
    5.6397015e-08   2   -1000005    2000002
    3.5900342e-08   2   -1000001    1000004
    1.4574982e-08   2   -1    4
    8.708148e-09   2   -1000013    1000014
    2.1299948e-09   2   -11    12
    3.5256588e-12   2   -1000001    1000002
    2.3819133e-12   2   -1000005    1000004
    2.0368432e-13   2   -1000011    1000012
    1.8853271e-13   2   -1000003    1000002
    8.921578e-20   2   -1000005    1000002

DECAY 6  2.43
    1   2    5    24

DECAY 15 -1
