BLOCK SPINFO
   1   SPheno
   2   v4.0.5be

BLOCK SPHENOINFO
   1   2
   2   2

BLOCK MODSEL
   1   0

BLOCK MINPAR
   3    32.602459
   4    1

BLOCK EXTPAR
   0    4407.5333
   1   -3839.5778
   2    1341.1537
   3    4970.8989
   11    4757.1024
   12    3569.2035
   13   -808.25604
   23    362.54709
   25    31.388508
   26    1739.4834
   31    1265.8951
   32    1265.8951
   33    1461.9006
   34    4747.0736
   35    4747.0736
   36    579.4375
   41    2955.2949
   42    2955.2949
   43    4060.9734
   44    4714.0415
   45    4714.0415
   46    4569.1317
   47    652.58954
   48    652.58954
   49    3584.3228

BLOCK SMINPUTS
   1    127.90897
   2    1.1663787e-05
   3    0.1184
   4    91.1876
   5    4.18
   6    173.2
   7    1.777
   8    0
   11    0.00051099893
   12    0
   13    0.10565837
   14    0
   21    0.005
   22    0.0025
   23    0.095
   24    1.27

BLOCK GAUGE Q=  4407.5333
   1    0.35536298
   2    0.66519887
   3    1.219778

BLOCK YU Q=  4407.5333
   1   1    8.388626e-06
   2   2    0.004261422
   3   3    1.0134134

BLOCK YD Q=  4407.5333
   1   1    0.00052910486
   2   2    0.010052992
   3   3    0.52470622

BLOCK YE Q=  4407.5333
   1   1    9.2332667e-05
   2   2    0.019091467
   3   3    0.32108707

BLOCK AU Q=  4407.5333
   1   1    0
   2   2    0
   3   3    4757.1024

BLOCK AD Q=  4407.5333
   1   1    0
   2   2    0
   3   3    3569.2035

BLOCK AE Q=  4407.5333
   1   1    0
   2   2    0
   3   3   -808.25604

BLOCK MSOFT Q=  4407.5333
   1   -3839.5778
   2    1341.1537
   3    4970.8989
   21    2997513.3
   22    250193.86
   31    1265.8951
   32    1265.8951
   33    1461.9006
   34    4747.0736
   35    4747.0736
   36    579.4375
   41    2955.2949
   42    2955.2949
   43    4060.9734
   44    4714.0415
   45    4714.0415
   46    4569.1317
   47    652.58954
   48    652.58954
   49    3584.3228

BLOCK MASS
   6    173.2
   23    91.1876
   24    80.429995
   15    1.777
   25    124.24845
   35    1739.2264
   36    1739.4834
   37    1741.4784
   1000001    3168.4478
   2000001    1064.953
   1000002    3167.4239
   2000002    4878.6609
   1000003    3168.445
   2000003    1064.9428
   1000004    3167.4212
   2000004    4878.6601
   1000005    3751.8939
   2000005    4194.6871
   1000006    4184.7172
   2000006    4642.2132
   1000011    1292.6747
   2000011    4761.0615
   1000012    1289.8012
   1000013    1292.6431
   2000013    4761.0332
   1000014    1289.7815
   1000015    634.88687
   2000015    1480.2389
   1000016    1477.7292
   1000021    5070.7571
   1000022    374.45282
   1000023   -378.70847
   1000025    1381.3794
   1000035   -3788.8526
   1000024    376.55382
   1000037    1381.5624

BLOCK ALPHA
      -0.030908996

BLOCK HMIX Q=  4407.5333
   1    362.54709
   2    31.388508
   3    242.85005
   4    3025802.5

BLOCK STOPMIX
   1   1   -0.98793895
   1   2    0.15484387
   2   1   -0.15484387
   2   2   -0.98793895

BLOCK SBOTMIX
   1   1    0.0047049845
   1   2    0.99998893
   2   1   -0.99998893
   2   2    0.0047049845

BLOCK STAUMIX
   1   1    0.012571735
   1   2    0.99992097
   2   1   -0.99992097
   2   2    0.012571735

BLOCK NMIX
   1   1   -0.0076542441
   1   2   -0.056891379
   1   3    0.70852269
   1   4   -0.7033494
   2   1   -0.0088379745
   2   2   -0.030973156
   2   3   -0.7054451
   2   4   -0.70803232
   3   1   -0.00053469542
   3   2    0.9978998
   3   3    0.01849768
   3   4   -0.062076938
   4   1    0.99993151
   4   2   -0.00017564004
   4   3   -0.0008016644
   4   4   -0.011675171

BLOCK UMIX
   1   1   -0.026194787
   1   2    0.99965686
   2   1    0.99965686
   2   2    0.026194787

BLOCK VMIX
   1   1   -0.087912614
   1   2    0.99612819
   2   1    0.99612819
   2   2    0.087912614

BLOCK HIGGSBOUNDSINPUTHIGGSCOUPLINGSFERMIONS
       0, 985.23842,3,36,15,15

BLOCK HIGGSBOUNDSINPUTHIGGSCOUPLINGSBOSONS
       0,4,36,21,21,23

BLOCK SPHENOLOWENERGY
   1    0.0003375036
   2    1.5884855e-06
   3    3.5254386e-05
   4    2.5021305e-15
   5    1.0688832e-10
   6    2.2384554e-08
   7    8.3881899e-14
   8    3.5834373e-09
   9    7.6038642e-07
   10    9.4683381e-05
   11    0.97804308
   12    0.54187155
   13    19.350537
   14    0
   15    0
   16    0.0021569186
   17    2.2816565e-15
   18    2.4800798e-11
   19    8.290597e-11
   20    2.7704168e-15
   21    1.1844741e-10
   22    2.999994e-08
   23    0
   24    0
   25    0
   26    0
   27    0
   28    0
   29    0
   30    0
   31    0
   39    6.6218013e-05
   40    0
   41    0
   42    0

BLOCK FWCOEF Q=  160
   305   4422   0   0   -0.18881911
   305   4422   0   2   -0.20639851
   305   4322   0   2   -0.00036203312
   305   6421   0   0   -0.095227835
   305   6421   0   2   -0.11592605
   305   6321   0   2   -0.0004188852
   3051111   4133   0   0    1.6301275
   3051111   4133   0   2    1.6302744
   3051111   4233   0   2    0.00012750099
   3051111   4137   0   0   -4.4528196
   3051111   4137   0   2   -4.4513318
   3051111   4237   0   2   -0.00093920692
   3051313   4133   0   0    1.6301275
   3051313   4133   0   2    1.6302738
   3051313   4233   0   2    0.00012749999
   3051313   4137   0   0   -4.4528196
   3051313   4137   0   2   -4.4513324
   3051313   4237   0   2   -0.00093920642
   3051212   4137   0   0    1.5053501
   3051212   4137   0   2    1.5050347
   3051212   4237   0   2    0.00020293469
   3051414   4137   0   0    1.5053501
   3051414   4137   0   2    1.5050347
   3051414   4237   0   2    0.00020293488
   3051616   4137   0   0    1.5053501
   3051616   4137   0   2    1.5050348
   3051616   4237   0   2    0.00020299056

BLOCK IMFWCOEF Q=  160
   305   4422   0   0    3.8581134e-07
   305   4422   0   2    8.7419373e-06
   305   4322   0   2   -7.9537582e-07
   305   6421   0   0    3.3047293e-07
   305   6421   0   2   -3.9255837e-07
   305   6321   0   2   -4.3828104e-07
   3051111   4133   0   2   -3.1543579e-07
   3051111   4233   0   2    3.4202066e-06
   3051111   4137   0   2    2.0313795e-06
   3051111   4237   0   2   -2.5196273e-05
   3051313   4133   0   2   -3.1545292e-07
   3051313   4233   0   2    3.4202052e-06
   3051313   4137   0   2    2.0314008e-06
   3051313   4237   0   2   -2.5196281e-05
   3051212   4137   0   2   -3.2899631e-07
   3051212   4237   0   2    5.4441688e-06
   3051414   4137   0   2   -3.2899662e-07
   3051414   4237   0   2    5.4441688e-06
   3051616   4137   0   2   -3.2874708e-07
   3051616   4237   0   2    5.4441691e-06

DECAY 23  2.4952


DECAY 24  2.085


DECAY 1000011  0.030357764
    0.5849003   2    1000022    11
    0.21553249   2   -1000024    12
    0.19956721   2    1000023    11

DECAY 2000011  3.219683
    0.99899474   2    1000035    11
    0.00057316672   2    1000023    11
    0.00043006677   2    1000022    11

DECAY 1000013  0.038203232
    0.56810715   2    1000022    13
    0.26062815   2    1000023    13
    0.1712647   2   -1000024    14

DECAY 2000013  3.287804
    0.97825024   2    1000035    13
    0.010362691   2   -1000024    14
    0.0057207704   2    1000023    13
    0.0056272563   2    1000022    13

DECAY 1000015  1.0967248
    0.50086315   2   -1000024    16
    0.25426416   2    1000022    15
    0.24487269   2    1000023    15

DECAY 2000015  3.1869819
    0.42442682   2    1000022    15
    0.41693933   2    1000023    15
    0.06787901   2   -1000037    16
    0.033936623   2    1000025    15
    0.029131895   2    1000015    23
    0.026236887   2    1000015    25
    0.0014494353   2   -1000024    16

DECAY 1000012  0.090013041
    0.81625566   2    1000024    11
    0.14745093   2    1000022    12
    0.036293409   2    1000023    12

DECAY 1000014  0.097833695
    0.83094739   2    1000024    13
    0.13566113   2    1000022    14
    0.033391477   2    1000023    14

DECAY 1000016  3.2495424
    0.84217722   2    1000024    15
    0.063010247   2    1000037    15
    0.056983238   2    1000015    24
    0.031738177   2    1000025    16
    0.004886956   2    1000022    16
    0.0012041613   2    1000023    16

DECAY 2000001  7.1271052e-05
    0.52879819   2    1000023    1
    0.40747669   2    1000022    1
    0.063725118   2   -1000024    2

DECAY 1000001  27.465265
    0.66562515   2   -1000037    2
    0.33174823   2    1000025    1
    0.0015225372   2    1000022    1
    0.00067734343   2   -1000024    2
    0.00042673621   2    1000023    1

DECAY 2000003  0.0033403259
    0.49083293   2   -1000024    4
    0.25516052   2    1000022    3
    0.25400655   2    1000023    3

DECAY 1000003  27.472537
    0.665448   2   -1000037    4
    0.33165991   2    1000025    3
    0.0016349821   2    1000022    3
    0.00071731608   2   -1000024    4
    0.00053844329   2    1000023    3

DECAY 1000005  40.186054
    0.49873251   2   -1000024    6
    0.25178323   2    1000022    5
    0.24925098   2    1000023    5
    0.00015526691   2   -1000037    6

DECAY 2000005  150.6854
    0.55339736   2   -1000024    6
    0.19890318   2   -1000037    6
    0.097062922   2    1000025    5
    0.07564918   2    1000022    5
    0.074774972   2    1000023    5
    0.00013204392   2    1000035    5

DECAY 1000002  27.513562
    0.65936066   2    1000037    1
    0.3308321   2    1000025    2
    0.0076138706   2    1000024    1
    0.0016718411   2    1000022    2
    0.00052152739   2    1000023    2

DECAY 2000002  1.7172078
    0.9991415   2    1000035    2
    0.00048961791   2    1000023    2
    0.00036734544   2    1000022    2

DECAY 1000004  27.520796
    0.65918638   2    1000037    3
    0.33074467   2    1000025    4
    0.0078359666   2    1000024    3
    0.001691359   2    1000022    4
    0.00054162008   2    1000023    4

DECAY 2000004  1.7206837
    0.99712063   2    1000035    4
    0.0010043739   2    1000024    3
    0.00099600704   2    1000023    4
    0.00086742175   2    1000022    4

DECAY 1000006  156.97589
    0.26690579   2    1000023    6
    0.26225025   2    1000022    6
    0.18820112   2    1000037    5
    0.14520242   2    1000024    5
    0.096342406   2    1000025    6
    0.040954036   3    1000022    24    5

DECAY 2000006  210.21019
    0.44198593   2    1000024    5
    0.22333228   2    1000023    6
    0.22164603   2    1000022    6
    0.045669765   2    2000005    24
    0.038452374   2    1000006    25
    0.023456824   2    1000006    23
    0.0052950695   2    1000035    6

DECAY 1000024  6.2755776e-12
    0.60052781   3    1000022   -1    2
    0.20019395   3    1000022   -11    12
    0.19543945   3    1000022   -13    14
    0.0038387821   3    1000022   -3    4

DECAY 1000037  12.592782
    0.24067355   2    1000024    25
    0.23886624   2    1000023    24
    0.23516383   2    1000024    23
    0.23507446   2    1000022    24
    0.0079061294   2    1000014   -13
    0.0079028769   2    1000012   -11
    0.0074895208   2   -1000013    14
    0.0074843705   2   -1000011    12
    0.0070553149   3    1000024    6   -6
    0.006253703   3    1000022   -5    6
    0.0059114004   3    1000023   -5    6

DECAY 1000022 -1


DECAY 1000023  1.8785597e-08
    0.7688084   2    1000022    22
    0.05155706   3    1000022    12   -12
    0.03855243   3    1000022    1   -1
    0.038329886   3    1000022    3   -3
    0.030067977   3    1000022    2   -2
    0.011502612   3    1000024    1   -2
    0.011502612   3   -1000024   -1    2
    0.0087001535   3    1000022    11   -11
    0.0086211099   3    1000022    13   -13
    0.008045074   3    1000022    4   -4
    0.003999693   3    1000024    3   -4
    0.003999693   3   -1000024   -3    4
    0.0038342638   3    1000024    11   -12
    0.0038342638   3   -1000024   -11    12
    0.0038060124   3    1000024    13   -14
    0.0038060124   3   -1000024   -13    14
    0.00041439897   3    1000024    15   -16
    0.00041439897   3   -1000024   -15    16
    0.00020395259   3    1000022    15   -15

DECAY 1000025  14.015842
    0.21326381   2    1000024   -24
    0.21326381   2   -1000024    24
    0.16590982   2    1000022    25
    0.16580661   2    1000023    23
    0.14962667   2    1000023    25
    0.047898875   2    1000022    23
    0.0055669952   3    1000024    5   -6
    0.0055669952   3   -1000024   -5    6
    0.0035531054   2    1000014   -14
    0.0035531054   2   -1000014    14
    0.0035516341   2    1000012   -12
    0.0035516341   2   -1000012    12
    0.0033378902   2    1000013   -13
    0.0033378902   2   -1000013    13
    0.0033355965   2    1000011   -11
    0.0033355965   2   -1000011    11
    0.0027638369   3    1000022    6   -6
    0.0025616625   3    1000023    6   -6

DECAY 1000035  67.704503
    0.1327723   2    1000015   -15
    0.1327723   2   -1000015    15
    0.039746733   2    2000003   -3
    0.039746733   2   -2000003    3
    0.039746603   2    2000001   -1
    0.039746603   2   -2000001    1
    0.036188351   2    1000024   -24
    0.036188351   2   -1000024    24
    0.027488494   2    1000014   -14
    0.027488494   2   -1000014    14
    0.027488274   2    1000012   -12
    0.027488274   2   -1000012    12
    0.027420406   2    1000013   -13
    0.027420406   2   -1000013    13
    0.027420053   2    1000011   -11
    0.027420053   2   -1000011    11
    0.025281557   2    1000016   -16
    0.025281557   2   -1000016    16
    0.025231642   2    2000015   -15
    0.025231642   2   -2000015    15
    0.022121079   2    1000022    25
    0.021334971   2    37   -1000024
    0.021334971   2   -37    1000024
    0.020462912   2    1000022    23
    0.019810147   2    1000023    25
    0.015732339   2    1000023    23
    0.014373697   2    1000023    35
    0.012783028   2    1000022    35
    0.008736382   2    1000022    36
    0.0075979721   2    1000023    36
    0.0023729004   3    1000024    5   -6
    0.0023729004   3   -1000024   -5    6
    0.0017985707   3    1000022    6   -6
    0.0017794842   3    1000023    6   -6
    0.0010611695   2    1000003   -3
    0.0010611695   2   -1000003    3
    0.0010611609   2    1000001   -1
    0.0010611609   2   -1000001    1
    0.001060166   2    1000004   -4
    0.001060166   2   -1000004    4
    0.0010601618   2    1000002   -2
    0.0010601618   2   -1000002    2
    0.0001303001   3    1000037    11   -12
    0.0001303001   3   -1000037   -11    12
    0.00013029123   3    1000037    13   -14
    0.00013029123   3   -1000037   -13    14
    0.00013005805   3    1000025    12   -12
    0.00012110932   2    1000037   -24
    0.00012110932   2   -1000037    24

DECAY 1000021  564.00336
    0.1215826   2    2000003   -3
    0.1215826   2   -2000003    3
    0.12158239   2    2000001   -1
    0.12158239   2   -2000001    1
    0.04948286   2    1000004   -4
    0.04948286   2   -1000004    4
    0.049482758   2    1000002   -2
    0.049482758   2   -1000002    2
    0.049441932   2    1000003   -3
    0.049441932   2   -1000003    3
    0.049441821   2    1000001   -1
    0.049441821   2   -1000001    1
    0.027248515   2    1000005   -5
    0.027248515   2   -1000005    5
    0.014190057   2    1000006   -6
    0.014190057   2   -1000006    6
    0.013261387   2    2000005   -5
    0.013261387   2   -2000005    5
    0.0028002914   2    2000006   -6
    0.0028002914   2   -2000006    6
    0.00073518117   2    2000002   -2
    0.00073518117   2   -2000002    2
    0.00073517187   2    2000004   -4
    0.00073517187   2   -2000004    4

DECAY 25  0.0038120428
    0.58668609   2   -5    5
    0.21471614   2   -24    24
    0.072625447   2    21    21
    0.06748778   2   -15    15
    0.028674169   2   -4    4
    0.025605582   2    23    23
    0.0023255207   2    22    22
    0.0014241295   2    22    23
    0.00023411304   2   -13    13
    0.00022026573   2   -3    3
    6.0901228e-07   2   -1    1
    1.4776702e-07   2   -2    2
    5.2631306e-09   2   -11    11

DECAY 35  26.51775
    0.79322813   2   -5    5
    0.15289459   2   -15    15
    0.01585916   2   -1000024    1000037
    0.01585916   2   -1000037    1000024
    0.014379514   2    1000023    1000025
    0.003332565   2   -1000024    1000024
    0.001938775   2   -6    6
    0.00077176934   2    1000022    1000025
    0.00058509298   2    1000022    1000022
    0.00053743511   2   -13    13
    0.00029071184   2   -3    3
    0.0001640904   2    1000023    1000023
    0.00010872858   2    1000022    1000023
    2.0160865e-05   2    25    25
    1.7167276e-05   2    21    21
    7.0192037e-06   2   -1000015    1000015
    2.9074351e-06   2    23    23
    1.8836839e-06   2   -24    24
    8.037633e-07   2   -1    1
    8.8082466e-08   2    22    23
    7.8624825e-08   2   -1000001    1000001
    7.8380405e-08   2   -1000003    1000003
    5.3718711e-08   2    22    22
    2.7566903e-08   2   -4    4
    1.207253e-08   2   -11    11
    1.4212915e-13   2   -2    2

DECAY 36  25.824317
    0.7904291   2   -5    5
    0.15235315   2   -15    15
    0.016204508   2   -1000024    1000037
    0.016204508   2   -1000037    1000024
    0.01596477   2    1000022    1000025
    0.004288241   2   -1000024    1000024
    0.0019869037   2   -6    6
    0.00081880789   2    1000022    1000022
    0.0006364193   2    1000023    1000025
    0.00053552587   2   -13    13
    0.00028967951   2   -3    3
    0.0001805601   2    1000023    1000023
    6.3429517e-05   2    1000022    1000023
    3.9299242e-05   2    21    21
    3.9550513e-06   2    23    25
    8.0090891e-07   2   -1    1
    1.729102e-07   2    22    22
    1.2560238e-07   2    22    23
    2.7098811e-08   2   -4    4
    1.2029627e-08   2   -11    11
    1.397034e-13   2   -2    2
    1.5208685e-36   2    25    25

DECAY 37  24.873282
    0.79543613   2   -5    6
    0.14882652   2   -15    16
    0.018173959   2    1000022    1000037
    0.017586708   2    1000024    1000025
    0.016671833   2    1000023    1000037
    0.0011837196   2   -5    4
    0.00098195303   2    1000023    1000024
    0.00052615561   2   -13    14
    0.00030618552   2    1000022    1000024
    0.00027614042   2   -3    4
    1.2848336e-05   2   -3    2
    8.4529857e-06   2   -5    2
    4.2764393e-06   2   -3    6
    4.1283417e-06   2    24    25
    7.6617431e-07   2   -1    2
    1.7775415e-07   2   -1    6
    3.7195067e-08   2   -1    4
    1.2306835e-08   2   -11    12
    3.1672925e-12   2    24    35
    1.7282351e-12   2    24    36

DECAY 6  2.43
    1   2    5    24

DECAY 15 -1
