BLOCK SPINFO
   1   SPheno
   2   v4.0.5be

BLOCK SPHENOINFO
   1   2
   2   2

BLOCK MODSEL
   1   0

BLOCK MINPAR
   3    55.352454
   4   -1

BLOCK EXTPAR
   0    3866.544
   1   -789.17792
   2   -4801.1063
   3    4758.8973
   11   -2656.147
   12   -7223.5282
   13    5075.0979
   23   -1067.3004
   25    55.663403
   26    2821.3974
   31    1075.5726
   32    1075.5726
   33    4439.0621
   34    3821.8134
   35    3821.8134
   36    3864.6347
   41    1733.4027
   42    1733.4027
   43    4923.621
   44    2687.501
   45    2687.501
   46    2871.6185
   47    4528.794
   48    4528.794
   49    2985.3984

BLOCK SMINPUTS
   1    127.90897
   2    1.1663787e-05
   3    0.1184
   4    91.1876
   5    4.18
   6    173.2
   7    1.777
   8    0
   11    0.00051099893
   12    0
   13    0.10565837
   14    0
   21    0.005
   22    0.0025
   23    0.095
   24    1.27

BLOCK GAUGE Q=  3866.544
   1    0.35536298
   2    0.66519887
   3    1.219778

BLOCK YU Q=  3866.544
   1   1    8.385725e-06
   2   2    0.0042599483
   3   3    1.0130629

BLOCK YD Q=  3866.544
   1   1    0.0009379736
   2   2    0.017821498
   3   3    0.93017589

BLOCK YE Q=  3866.544
   1   1    0.00016368325
   2   2    0.033844505
   3   3    0.5692089

BLOCK AU Q=  3866.544
   1   1    0
   2   2    0
   3   3   -2656.1469

BLOCK AD Q=  3866.544
   1   1    0
   2   2    0
   3   3   -7223.5285

BLOCK AE Q=  3866.544
   1   1    0
   2   2    0
   3   3    5075.0979

BLOCK MSOFT Q=  3866.544
   1   -789.17792
   2   -4801.1063
   3    4758.8973
   21    7251796
   22   -945238.78
   31    1075.5726
   32    1075.5726
   33    4439.0621
   34    3821.8134
   35    3821.8134
   36    3864.6347
   41    1733.4027
   42    1733.4027
   43    4923.621
   44    2687.501
   45    2687.501
   46    2871.6185
   47    4528.794
   48    4528.794
   49    2985.3984

BLOCK MASS
   6    173.2
   23    91.1876
   24    80.429995
   15    1.777
   25    120.73408
   35    2819.7221
   36    2821.3974
   37    2820.4577
   1000001    1969.7437
   2000001    4668.0649
   1000002    1968.1209
   2000002    2856.3507
   1000003    1969.7243
   2000003    4668.0395
   1000004    1968.1017
   2000004    2856.3501
   1000005    3086.2778
   2000005    5000.0881
   1000006    2988.3105
   2000006    5002.8812
   1000011    1131.0313
   2000011    3825.5275
   1000012    1127.9178
   1000013    1130.9377
   2000013    3825.4346
   1000014    1127.8607
   1000015    3834.1159
   2000015    4451.6482
   1000016    4450.1212
   1000021    4832.3999
   1000022   -777.3034
   1000023    1087.0823
   1000025   -1088.7703
   1000035   -4751.9584
   1000024    1085.6145
   1000037    4752.0207

BLOCK ALPHA
      -0.018128032

BLOCK HMIX Q=  3866.544
   1   -1067.3004
   2    55.663403
   3    242.99893
   4    7960283

BLOCK STOPMIX
   1   1    0.023154328
   1   2    0.9997319
   2   1   -0.9997319
   2   2    0.023154328

BLOCK SBOTMIX
   1   1   -0.0082017282
   1   2    0.99996637
   2   1   -0.99996637
   2   2   -0.0082017282

BLOCK STAUMIX
   1   1   -0.022963351
   1   2    0.99973631
   2   1   -0.99973631
   2   2   -0.022963351

BLOCK NMIX
   1   1    0.99425526
   1   2   -0.0012408924
   1   3   -0.086543547
   1   4    0.062969525
   2   1    0.016702974
   2   2   -0.0092059067
   2   3    0.7066579
   2   4    0.70729829
   3   1   -0.10572348
   3   2   -0.01506802
   3   3   -0.70223025
   3   4    0.703895
   4   1   -0.00020554595
   4   2    0.99984332
   4   3   -0.0041838392
   4   4    0.017198459

BLOCK UMIX
   1   1   -0.0059195761
   1   2   -0.99998248
   2   1   -0.99998248
   2   2    0.0059195761

BLOCK VMIX
   1   1    0.024325464
   1   2    0.99970409
   2   1    0.99970409
   2   2   -0.024325464

BLOCK HIGGSBOUNDSINPUTHIGGSCOUPLINGSFERMIONS
       0, 3098.4144,3,36,15,15

BLOCK HIGGSBOUNDSINPUTHIGGSCOUPLINGSBOSONS
       0,4,36,21,21,23

BLOCK SPHENOLOWENERGY
   1    0.00033362323
   2    1.5890061e-06
   3    3.5256557e-05
   4    1.1501907e-15
   5    4.9098294e-11
   6    8.201872e-09
   7    3.9015528e-14
   8    1.6655864e-09
   9    2.867626e-07
   10    9.4509937e-05
   11    0.97625147
   12    0.54194243
   13    19.335284
   14    0
   15    0
   16    0.0021576152
   17    2.281664e-15
   18    2.4803318e-11
   19    8.2909096e-11
   20    2.1017221e-15
   21    8.9856381e-11
   22    1.1660621e-08
   23    0
   24    0
   25    0
   26    0
   27    0
   28    0
   29    0
   30    0
   31    0
   39    7.1297034e-05
   40    0
   41    0
   42    0

BLOCK FWCOEF Q=  160
   305   4422   0   0   -0.18881911
   305   4422   0   2   -0.20375421
   305   4322   0   2   -0.00044359965
   305   6421   0   0   -0.095227835
   305   6421   0   2   -0.10750139
   305   6321   0   2   -0.00032713323
   3051111   4133   0   0    1.6266483
   3051111   4133   0   2    1.6269486
   3051111   4233   0   2    0.00018632156
   3051111   4137   0   0   -4.4493404
   3051111   4137   0   2   -4.4481135
   3051111   4237   0   2   -0.0013785362
   3051313   4133   0   0    1.6266483
   3051313   4133   0   2    1.6269462
   3051313   4233   0   2    0.00018631977
   3051313   4137   0   0   -4.4493404
   3051313   4137   0   2   -4.4481159
   3051313   4237   0   2   -0.0013785367
   3051212   4137   0   0    1.5053501
   3051212   4137   0   2    1.5050848
   3051212   4237   0   2    0.0002980931
   3051414   4137   0   0    1.5053501
   3051414   4137   0   2    1.5050848
   3051414   4237   0   2    0.00029809339
   3051616   4137   0   0    1.5053501
   3051616   4137   0   2    1.505085
   3051616   4237   0   2    0.00029817623

BLOCK IMFWCOEF Q=  160
   305   4422   0   0    3.857858e-07
   305   4422   0   2    1.9125032e-06
   305   4322   0   2   -5.3520603e-06
   305   6421   0   0    3.3045105e-07
   305   6421   0   2    5.4490938e-06
   305   6321   0   2   -2.5052256e-06
   3051111   4133   0   2   -7.1590738e-07
   3051111   4233   0   2    4.8714698e-06
   3051111   4137   0   2    5.6180812e-06
   3051111   4237   0   2   -3.6051936e-05
   3051313   4133   0   2   -7.1589045e-07
   3051313   4233   0   2    4.8714626e-06
   3051313   4137   0   2    5.6180974e-06
   3051313   4237   0   2   -3.6051969e-05
   3051212   4137   0   2   -1.2150711e-06
   3051212   4237   0   2    7.7958382e-06
   3051414   4137   0   2   -1.2150717e-06
   3051414   4237   0   2    7.7958382e-06
   3051616   4137   0   2   -1.2120221e-06
   3051616   4237   0   2    7.7958406e-06

DECAY 23  2.4952


DECAY 24  2.085


DECAY 1000011  0.3893927
    0.99964248   2    1000022    11
    0.00035196174   2    1000025    11

DECAY 2000011  17.651052
    0.98946295   2    1000022    11
    0.010280171   2    1000025    11
    0.00025678086   2    1000023    11

DECAY 1000013  0.38943898
    0.99927694   2    1000022    13
    0.00052639582   2    1000025    13
    0.00019113767   2    1000023    13

DECAY 2000013  17.801022
    0.98113285   2    1000022    13
    0.012232544   2    1000025    13
    0.0041399647   2   -1000024    14
    0.0023209837   2    1000023    13
    0.00017365855   2    1000013    25

DECAY 1000015  59.50959
    0.35128459   2   -1000024    16
    0.29767633   2    1000022    15
    0.17575378   2    1000025    15
    0.1752853   2    1000023    15

DECAY 2000015  31.158004
    0.40705836   2    1000023    15
    0.4051842   2    1000025    15
    0.17121076   2    1000022    15
    0.0084524466   2    1000015    23
    0.0078844479   2    1000015    25
    0.00020977451   2   -1000024    16

DECAY 1000012  0.38803811
    0.99979462   2    1000022    12
    0.00010208454   2    1000025    12

DECAY 1000014  0.38808568
    0.99943819   2    1000022    14
    0.00043883242   2    1000024    13
    0.00010178445   2    1000025    14

DECAY 1000016  31.171958
    0.81455003   2    1000024    15
    0.16740248   2    1000022    16
    0.016912436   2    1000015    24
    0.00095244965   2    1000025    16
    0.00018260602   2    1000023    16

DECAY 1000001  0.19743717
    0.99497486   2    1000022    1
    0.0031926481   2    1000023    1
    0.0014918109   2   -1000024    2
    0.00034068123   2    1000025    1

DECAY 2000001  2.4622483
    0.98909751   2    1000022    1
    0.010593139   2    1000025    1
    0.00027895407   2    1000023    1

DECAY 1000003  0.20379291
    0.96425671   2    1000022    3
    0.017797802   2    1000023    3
    0.014813323   2    1000025    3
    0.0031321609   2   -1000024    4

DECAY 2000003  2.5154971
    0.96823725   2    1000022    3
    0.015524303   2    1000025    3
    0.010491017   2   -1000024    4
    0.0054958977   2    1000023    3
    0.00025153551   2    1000003    25

DECAY 1000005  82.724649
    0.48868171   2   -1000024    6
    0.24600169   2    1000023    5
    0.24280927   2    1000025    5
    0.022507326   2    1000022    5

DECAY 2000005  187.11671
    0.49379267   2   -1000024    6
    0.20854701   2    1000023    5
    0.20592208   2    1000025    5
    0.064560619   2    1000006   -24
    0.0091744118   2    1000021    5
    0.0066759267   2    1000022    5
    0.0049756317   2    1000005    25
    0.0036129875   2    1000005    23
    0.0016374557   2   -1000037    6
    0.0011012111   2    1000035    5

DECAY 1000002  0.20067478
    0.95049519   2    1000022    2
    0.024811714   2    1000024    1
    0.023883591   2    1000025    2
    0.00080950414   2    1000023    2

DECAY 2000002  5.4596729
    0.99022176   2    1000022    2
    0.0095398757   2    1000025    2
    0.00023836655   2    1000023    2

DECAY 1000004  0.20701627
    0.92136759   2    1000022    4
    0.053036518   2    1000024    3
    0.023980206   2    1000025    4
    0.0016156842   2    1000023    4

DECAY 2000004  5.4611759
    0.9899495   2    1000022    4
    0.0096048751   2    1000025    4
    0.00030749426   2    1000023    4
    0.00013813195   2    1000024    3

DECAY 1000006  97.026164
    0.47315884   2    1000024    5
    0.23425678   2    1000023    6
    0.23146071   2    1000025    6
    0.061123542   2    1000022    6

DECAY 2000006  188.62054
    0.41507024   2    1000024    5
    0.24564043   2    1000023    6
    0.24302423   2    1000025    6
    0.04818532   2    1000006    25
    0.032098174   2    1000006    23
    0.007197632   2    1000005    24
    0.00580181   2    1000022    6
    0.0022260823   2    1000037    5
    0.00075607526   2    1000035    6

DECAY 1000024  0.63002729
    0.99797556   2    1000022    24
    0.0020240234   3    1000022   -5    6

DECAY 1000037  305.37454
    0.14095066   2    1000004   -3
    0.14094952   2    1000002   -1
    0.14093283   2   -1000003    4
    0.1409317   2   -1000001    2
    0.060957926   2    1000014   -13
    0.060957185   2    1000012   -11
    0.060952098   2   -1000013    14
    0.060950886   2   -1000011    12
    0.0346175   2    1000024    25
    0.031886763   2    1000023    24
    0.031873073   2    1000024    23
    0.031700731   2    1000025    24
    0.012827893   2    37    1000025
    0.012407157   2    1000024    35
    0.012393886   2    1000024    36
    0.012388565   2    37    1000023
    0.0042316177   3    1000024    6   -6
    0.0026236829   3    1000023   -5    6
    0.0025279608   3    1000025   -5    6
    0.0010359961   2    1000016   -15
    0.0010262057   2   -2000015    16
    0.00027201143   2    1000006   -5
    0.00020927422   3    1000024    5   -5
    0.00019587029   2    37    1000022
    0.00017563038   2    1000022    24

DECAY 1000022 -1


DECAY 1000023  1.069631
    0.59532509   2    1000022    23
    0.40466001   2    1000022    25

DECAY 1000025  0.46923381
    0.96668564   2    1000022    25
    0.033309532   2    1000022    23

DECAY 1000035  309.7588
    0.069490451   2    1000004   -4
    0.069490451   2   -1000004    4
    0.069489876   2    1000002   -2
    0.069489876   2   -1000002    2
    0.069453151   2    1000003   -3
    0.069453151   2   -1000003    3
    0.069452579   2    1000001   -1
    0.069452579   2   -1000001    1
    0.031459925   2    1000024   -24
    0.031459925   2   -1000024    24
    0.030062053   2    1000014   -14
    0.030062053   2   -1000014    14
    0.030061689   2    1000012   -12
    0.030061689   2   -1000012    12
    0.030029254   2    1000013   -13
    0.030029254   2   -1000013    13
    0.030028654   2    1000011   -11
    0.030028654   2   -1000011    11
    0.024828266   2    1000025    25
    0.023240932   2    1000023    25
    0.02294574   2    1000023    23
    0.012815832   2    37   -1000024
    0.012815832   2   -37    1000024
    0.010723301   2    1000023    35
    0.0098500001   2    1000025    35
    0.0084305842   2    1000025    23
    0.002325019   3    1000024    5   -6
    0.002325019   3   -1000024   -5    6
    0.0022071672   2    1000025    36
    0.0020855402   2    1000023    36
    0.0017410568   3    1000025    6   -6
    0.0017033942   3    1000023    6   -6
    0.00051075002   2    1000016   -16
    0.00051075002   2   -1000016    16
    0.00050542814   2    2000015   -15
    0.00050542814   2   -2000015    15
    0.00013854982   2    1000022    35
    0.00013603118   2    1000022    25
    0.00013425032   2    1000006   -6
    0.00013425032   2   -1000006    6
    0.00010373731   3    1000023    5   -5
    0.00010238723   3    1000025    5   -5

DECAY 1000021  625.37729
    0.079569998   2    1000004   -4
    0.079569998   2   -1000004    4
    0.079569383   2    1000002   -2
    0.079569383   2   -1000002    2
    0.079517808   2    1000003   -3
    0.079517808   2   -1000003    3
    0.079517182   2    1000001   -1
    0.079517182   2   -1000001    1
    0.048410348   2    2000004   -4
    0.048410348   2   -2000004    4
    0.04841033   2    2000002   -2
    0.04841033   2   -2000002    2
    0.043273709   2    1000006   -6
    0.043273709   2   -1000006    6
    0.040096422   2    1000005   -5
    0.040096422   2   -1000005    5
    0.00051134333   2    2000003   -3
    0.00051134333   2   -2000003    3
    0.00051118836   2    2000001   -1
    0.00051118836   2   -2000001    1
    0.0003019275   3    1000024    5   -6
    0.0003019275   3   -1000024   -5    6
    0.00015813735   3    1000023    6   -6
    0.00015692455   3    1000025    6   -6
    0.00014238867   3    1000023    5   -5
    0.00014053257   3    1000025    5   -5

DECAY 25  0.0034055233
    0.63632839   2   -5    5
    0.16280589   2   -24    24
    0.074723661   2    21    21
    0.07275354   2   -15    15
    0.031358073   2   -4    4
    0.018085172   2    23    23
    0.0023139218   2    22    22
    0.0011385112   2    22    23
    0.00025242432   2   -13    13
    0.00023958388   2   -3    3
    6.6242827e-07   2   -1    1
    1.6160985e-07   2   -2    2
    5.6748393e-09   2   -11    11

DECAY 35  149.25128
    0.85898134   2   -5    5
    0.12672757   2   -15    15
    0.0083825425   2    1000022    1000023
    0.0043454376   2    1000022    1000025
    0.00049066732   2   -13    13
    0.00045937178   2   -3    3
    0.00023642399   2   -6    6
    0.00019419305   2    1000022    1000022
    9.632722e-05   2    1000023    1000025
    3.8215814e-05   2    1000025    1000025
    2.6743493e-05   2   -1000024    1000024
    1.1070191e-05   2    21    21
    7.3089296e-06   2    1000023    1000023
    1.2704518e-06   2   -1    1
    1.194242e-06   2    25    25
    1.2816621e-07   2    23    23
    4.2023328e-08   2   -24    24
    1.3507409e-08   2   -1000011    1000011
    1.3291067e-08   2   -1000013    1000013
    1.1020305e-08   2   -11    11
    1.0775103e-08   2    22    23
    1.0553713e-08   2    22    22
    5.5158546e-09   2   -4    4
    2.8456841e-14   2   -2    2

DECAY 36  134.7974
    0.85766909   2   -5    5
    0.12653424   2   -15    15
    0.0090480204   2    1000022    1000025
    0.0049548329   2    1000022    1000023
    0.00048993133   2   -13    13
    0.00045868478   2   -3    3
    0.00032964129   2    1000022    1000022
    0.00025672984   2   -6    6
    0.00010740823   2    1000025    1000025
    7.0606222e-05   2   -1000024    1000024
    4.4125506e-05   2    1000023    1000025
    1.7700769e-05   2    1000023    1000023
    1.745668e-05   2    21    21
    1.2685537e-06   2   -1    1
    2.2167898e-07   2    23    25
    1.7438154e-08   2    22    22
    1.1003794e-08   2   -11    11
    1.0557177e-08   2    22    23
    5.7927929e-09   2   -4    4
    1.0751211e-13   2    23    35
    2.9885229e-14   2   -2    2
    2.2561096e-39   2    25    25

DECAY 37  141.06337
    0.86148134   2   -5    6
    0.12251076   2   -15    16
    0.013649477   2    1000022    1000024
    0.0012776293   2   -5    4
    0.0004341222   2   -3    4
    0.00043311932   2   -13    14
    0.00017958633   2    1000024    1000025
    2.0318822e-05   2   -3    2
    9.1235924e-06   2   -5    2
    1.8979979e-06   2    1000023    1000024
    1.2050074e-06   2   -1    2
    1.0117028e-06   2   -3    6
    2.1176821e-07   2    24    25
    5.6389872e-08   2   -1    4
    5.6114438e-08   2   -1000011    1000012
    5.5792646e-08   2   -1000013    1000014
    1.6967523e-08   2   -1    6
    1.0130706e-08   2   -11    12

DECAY 6  2.43
    1   2    5    24

DECAY 15 -1
