BLOCK SPINFO
   1   SPheno
   2   v4.0.5be

BLOCK SPHENOINFO
   1   2
   2   2

BLOCK MODSEL
   1   0

BLOCK MINPAR
   3    49.335134
   4    1

BLOCK EXTPAR
   0    4246.424
   1    392.01468
   2    2109.4403
   3    3581.2895
   11   -4082.2261
   12   -3038.1896
   13   -5656.6433
   23    560.1398
   25    48.458592
   26    831.35476
   31    2027.6271
   32    2027.6271
   33    2815.7689
   34    2328.4458
   35    2328.4458
   36    2320.439
   41    2917.327
   42    2917.327
   43    3586.8634
   44    3524.1013
   45    3524.1013
   46    4856.4142
   47    213.9156
   48    213.9156
   49    1455.3973

BLOCK SMINPUTS
   1    127.90897
   2    1.1663787e-05
   3    0.1184
   4    91.1876
   5    4.18
   6    173.2
   7    1.777
   8    0
   11    0.00051099893
   12    0
   13    0.10565837
   14    0
   21    0.005
   22    0.0025
   23    0.095
   24    1.27

BLOCK GAUGE Q=  4246.424
   1    0.35536298
   2    0.66519887
   3    1.219778

BLOCK YU Q=  4246.424
   1   1    8.3861572e-06
   2   2    0.0042601678
   3   3    1.0131151

BLOCK YD Q=  4246.424
   1   1    0.00081660877
   2   2    0.015515567
   3   3    0.80982001

BLOCK YE Q=  4246.424
   1   1    0.0001425042
   2   2    0.029465349
   3   3    0.4955587

BLOCK AU Q=  4246.424
   1   1    0
   2   2    0
   3   3   -4082.2261

BLOCK AD Q=  4246.424
   1   1    0
   2   2    0
   3   3   -3038.1898

BLOCK AE Q=  4246.424
   1   1    0
   2   2    0
   3   3   -5656.6435

BLOCK MSOFT Q=  4246.424
   1    392.01468
   2    2109.4403
   3    3581.2895
   21    648633.24
   22   -9302.5946
   31    2027.6271
   32    2027.6271
   33    2815.7689
   34    2328.4458
   35    2328.4458
   36    2320.439
   41    2917.327
   42    2917.327
   43    3586.8634
   44    3524.1013
   45    3524.1013
   46    4856.4142
   47    213.9156
   48    213.9156
   49    1455.3973

BLOCK MASS
   6    173.2
   23    91.1876
   24    80.429995
   15    1.777
   25    123.4145
   35    831.23817
   36    831.35476
   37    836.11689
   1000001    3113.8484
   2000001    825.40853
   1000002    3112.8235
   2000002    3673.2012
   1000003    3113.8446
   2000003    825.3894
   1000004    3112.8197
   2000004    3673.2004
   1000005    1654.1369
   2000005    3698.3864
   1000006    3695.9653
   2000006    4878.8654
   1000011    2051.7791
   2000011    2339.8877
   1000012    2049.8208
   1000013    2051.7367
   2000013    2339.8155
   1000014    2049.7812
   1000015    2266.261
   2000015    2796.5368
   1000016    2794.6867
   1000021    3770.8735
   1000022    379.71856
   1000023   -550.92667
   1000025    552.76093
   1000035    2142.257
   1000024    547.94169
   1000037    2142.4568

BLOCK ALPHA
      -0.020995475

BLOCK HMIX Q=  4246.424
   1    560.1398
   2    48.458592
   3    242.8858
   4    691150.73

BLOCK STOPMIX
   1   1    0.99833586
   1   2    0.057667299
   2   1   -0.057667299
   2   2    0.99833586

BLOCK SBOTMIX
   1   1    0.005830911
   1   2    0.999983
   2   1   -0.999983
   2   2    0.005830911

BLOCK STAUMIX
   1   1    0.021690881
   1   2    0.99976473
   2   1   -0.99976473
   2   2    0.021690881

BLOCK NMIX
   1   1   -0.98208071
   1   2    0.005035614
   1   3   -0.15407089
   1   4    0.10841715
   2   1    0.032371085
   2   2   -0.020327583
   2   3   -0.70519795
   2   4   -0.70797934
   3   1   -0.18565718
   3   2   -0.035565479
   3   3    0.69197952
   3   4   -0.69672868
   4   1    0.0010004335
   4   2   -0.9991479
   4   3   -0.01106088
   4   4    0.039750816

BLOCK UMIX
   1   1   -0.015595037
   1   2    0.99987839
   2   1    0.99987839
   2   2    0.015595037

BLOCK VMIX
   1   1   -0.056118669
   1   2    0.99842411
   2   1    0.99842411
   2   2    0.056118669

BLOCK HIGGSBOUNDSINPUTHIGGSCOUPLINGSFERMIONS
       0, 2348.2351,3,36,15,15

BLOCK HIGGSBOUNDSINPUTHIGGSCOUPLINGSBOSONS
       0,4,36,21,21,23

BLOCK SPHENOLOWENERGY
   1    0.00035512574
   2    1.5879528e-06
   3    3.5264977e-05
   4    3.0347172e-15
   5    1.2963681e-10
   6    2.6973181e-08
   7    1.0009304e-13
   8    4.2758901e-09
   9    9.0220155e-07
   10    8.0132642e-05
   11    0.82773951
   12    0.54164979
   13    19.267718
   14    0
   15    0
   16    0.002156649
   17    2.2816754e-15
   18    2.4806668e-11
   19    8.2922658e-11
   20    2.8212711e-15
   21    1.2061411e-10
   22    2.6346011e-08
   23    0
   24    0
   25    0
   26    0
   27    0
   28    0
   29    0
   30    0
   31    0
   39    7.1133637e-05
   40    0
   41    0
   42    0

BLOCK FWCOEF Q=  160
   305   4422   0   0   -0.18881911
   305   4422   0   2   -0.22156693
   305   4322   0   2   -0.00062888034
   305   6421   0   0   -0.095227835
   305   6421   0   2   -0.14257968
   305   6321   0   2   -0.00093648464
   3051111   4133   0   0    1.6295773
   3051111   4133   0   2    1.6298802
   3051111   4233   0   2    0.00020149741
   3051111   4137   0   0   -4.4522694
   3051111   4137   0   2   -4.4518579
   3051111   4237   0   2   -0.0014844757
   3051313   4133   0   0    1.6295773
   3051313   4133   0   2    1.6298791
   3051313   4233   0   2    0.00020144006
   3051313   4137   0   0   -4.4522694
   3051313   4137   0   2   -4.451859
   3051313   4237   0   2   -0.0014844224
   3051212   4137   0   0    1.5053501
   3051212   4137   0   2    1.5052655
   3051212   4237   0   2    0.00032079398
   3051414   4137   0   0    1.5053501
   3051414   4137   0   2    1.5052655
   3051414   4237   0   2    0.00032080616
   3051616   4137   0   0    1.5053501
   3051616   4137   0   2    1.5052656
   3051616   4237   0   2    0.00032423965

BLOCK IMFWCOEF Q=  160
   305   4422   0   0    3.8583614e-07
   305   4422   0   2    2.7043377e-05
   305   4322   0   2    4.9405585e-06
   305   6421   0   0    3.3049417e-07
   305   6421   0   2   -1.3710382e-05
   305   6321   0   2    1.8504581e-06
   3051111   4133   0   2    6.2273842e-07
   3051111   4233   0   2    1.0856819e-05
   3051111   4137   0   2   -3.4799241e-06
   3051111   4237   0   2   -8.0033763e-05
   3051313   4133   0   2    6.2272208e-07
   3051313   4233   0   2    1.0856801e-05
   3051313   4137   0   2   -3.4799289e-06
   3051313   4237   0   2   -8.0033819e-05
   3051212   4137   0   2    8.2846435e-07
   3051212   4237   0   2    1.7295134e-05
   3051414   4137   0   2    8.2846397e-07
   3051414   4237   0   2    1.7295134e-05
   3051616   4137   0   2    8.3088201e-07
   3051616   4237   0   2    1.7295131e-05

DECAY 23  2.4952


DECAY 24  2.085


DECAY 1000011  2.4190598
    0.9401023   2    1000022    11
    0.058301846   2    1000025    11
    0.0015661118   2   -1000024    12

DECAY 2000011  11.122386
    0.96652923   2    1000022    11
    0.032482356   2    1000025    11
    0.0009883135   2    1000023    11

DECAY 1000013  2.4495542
    0.92869804   2    1000022    13
    0.063531573   2    1000025    13
    0.0062238165   2    1000023    13
    0.0015465735   2   -1000024    14

DECAY 2000013  11.194433
    0.96035681   2    1000022    13
    0.033813478   2    1000025    13
    0.003224311   2   -1000024    14
    0.0025837549   2    1000023    13

DECAY 1000015  30.365515
    0.35084537   2    1000022    15
    0.32330533   2   -1000024    16
    0.16531817   2    1000025    15
    0.16053001   2    1000023    15

DECAY 2000015  22.601427
    0.27836282   2    1000023    15
    0.27741007   2    1000025    15
    0.18581608   2   -1000037    16
    0.15375907   2    1000022    15
    0.092739774   2    1000035    15
    0.0059841297   2    1000015    23
    0.0059277293   2    1000015    25

DECAY 1000012  2.4519844
    0.96272998   2    1000022    12
    0.01998286   2    1000024    11
    0.012804519   2    1000025    12
    0.0044826421   2    1000023    12

DECAY 1000014  2.4824452
    0.95089587   2    1000022    14
    0.032029525   2    1000024    13
    0.012647081   2    1000025    14
    0.0044275259   2    1000023    14

DECAY 1000016  22.610428
    0.56134659   2    1000024    15
    0.18441174   2    1000037    15
    0.14705347   2    1000022    16
    0.092470403   2    1000035    16
    0.011973647   2    1000015    24
    0.0020328412   2    1000025    16
    0.00071130738   2    1000023    16

DECAY 2000001  0.28122326
    0.98226743   2    1000022    1
    0.017186441   2    1000025    1
    0.0005339528   2    1000023    1

DECAY 1000001  11.842025
    0.64173987   2   -1000037    2
    0.32062301   2    1000035    1
    0.036359042   2    1000022    1
    0.00074100527   2    1000023    1
    0.00052863574   2   -1000024    2

DECAY 2000003  0.28367726
    0.97391911   2    1000022    3
    0.019067812   2    1000025    3
    0.0043577599   2   -1000024    4
    0.0026553184   2    1000023    3

DECAY 1000003  11.857193
    0.64091496   2   -1000037    4
    0.32021111   2    1000035    3
    0.036341338   2    1000022    3
    0.0013253843   2    1000023    3
    0.00061664491   2   -1000024    4
    0.00057167767   2    1000025    3

DECAY 1000005  34.538727
    0.48099981   2   -1000024    6
    0.24555473   2    1000023    5
    0.23672908   2    1000025    5
    0.036716383   2    1000022    5

DECAY 2000005  164.22013
    0.43643355   2   -1000024    6
    0.13982614   2    1000023    5
    0.13456402   2    1000025    5
    0.088490785   2   -1000037    6
    0.071003505   2    1000005    36
    0.070985956   2    1000005    35
    0.043735848   2    1000035    5
    0.009809095   2    1000022    5
    0.0033333932   2    1000005    25
    0.001817702   2    1000005    23

DECAY 1000002  11.882224
    0.63674506   2    1000037    1
    0.31882762   2    1000035    2
    0.032281487   2    1000022    2
    0.0068229553   2    1000024    1
    0.0050934066   2    1000025    2
    0.000229471   2    1000023    2

DECAY 2000002  8.0216492
    0.96530663   2    1000022    2
    0.033669029   2    1000025    2
    0.0010238942   2    1000023    2

DECAY 1000004  11.897165
    0.63594197   2    1000037    3
    0.31842527   2    1000035    4
    0.03224201   2    1000022    4
    0.0079873025   2    1000024    3
    0.0051298573   2    1000025    4
    0.00027358043   2    1000023    4

DECAY 2000004  8.0241777
    0.96500362   2    1000022    4
    0.033735421   2    1000025    4
    0.0011026637   2    1000023    4
    0.0001575111   2    1000024    3

DECAY 1000006  164.51261
    0.28325293   2    1000024    5
    0.21904689   2    1000023    6
    0.21064983   2    1000025    6
    0.140155   2    1000005    37
    0.085809634   2    1000037    5
    0.043428792   2    1000035    6
    0.0096360282   2    1000022    6
    0.0044098642   3    1000022    24    5
    0.0036090716   2    1000005    24

DECAY 2000006  310.55856
    0.31007473   2    1000024    5
    0.19476496   2    1000021    6
    0.15601154   2    1000023    6
    0.15362695   2    1000025    6
    0.064660993   2    2000005    24
    0.047177456   2    1000006    25
    0.035857457   2    1000022    6
    0.032330622   2    1000006    23
    0.0018401565   2    1000037    5
    0.00092307874   2    1000035    6
    0.00090156796   2    2000005    37
    0.00089887044   2    1000005    37
    0.00046023935   2    1000006    36
    0.00045146402   2    1000006    35

DECAY 1000024  0.19624362
    0.99999843   2    1000022    24

DECAY 1000037  32.42609
    0.14602865   2    1000024    25
    0.14312326   2    1000023    24
    0.14221173   2    1000024    23
    0.14111092   2    1000025    24
    0.10211923   2    37    1000023
    0.098326181   2    1000024    36
    0.098114239   2    1000024    35
    0.094207276   2    37    1000025
    0.0082488825   3    1000024    6   -6
    0.0058041941   3    1000025   -5    6
    0.0056938301   3    1000023   -5    6
    0.0044789741   2    37    1000022
    0.0021840222   2    1000022    24
    0.0020769438   2    1000014   -13
    0.0020752117   2    1000012   -11
    0.0019978881   2   -1000013    14
    0.0019960584   2   -1000011    12

DECAY 1000022 -1


DECAY 1000023  0.53887572
    0.68641114   2    1000022    23
    0.31355833   2    1000022    25

DECAY 1000025  0.18109265
    0.94118353   2    1000022    25
    0.058803791   2    1000022    23

DECAY 1000035  34.485443
    0.13356904   2    1000024   -24
    0.13356904   2   -1000024    24
    0.1023699   2    1000023    23
    0.10215899   2    1000025    25
    0.095835761   2    1000023    25
    0.091996032   2    37   -1000024
    0.091996032   2   -37    1000024
    0.076774249   2    1000023    35
    0.068039217   2    1000025    35
    0.031783617   2    1000025    23
    0.020666411   2    1000025    36
    0.019816544   2    1000023    36
    0.0053072444   3    1000024    5   -6
    0.0053072444   3   -1000024   -5    6
    0.0034069046   3    1000025    6   -6
    0.003305428   3    1000023    6   -6
    0.0029148208   2    1000022    35
    0.0014913194   2    1000022    25
    0.0013042526   2    1000022    36
    0.00097488614   2    1000014   -14
    0.00097488614   2   -1000014    14
    0.00097406959   2    1000012   -12
    0.00097406959   2   -1000012    12
    0.0009329639   2    1000013   -13
    0.0009329639   2   -1000013    13
    0.00093210924   2    1000011   -11
    0.00093210924   2   -1000011    11
    0.00059950818   2    1000022    23

DECAY 1000021  321.90681
    0.1571552   2    2000003   -3
    0.1571552   2   -2000003    3
    0.15715447   2    2000001   -1
    0.15715447   2   -2000001    1
    0.11306449   2    1000005   -5
    0.11306449   2   -1000005    5
    0.017594255   2    1000004   -4
    0.017594255   2   -1000004    4
    0.017594097   2    1000002   -2
    0.017594097   2   -1000002    2
    0.017544742   2    1000003   -3
    0.017544742   2   -1000003    3
    0.017544556   2    1000001   -1
    0.017544556   2   -1000001    1
    0.00069635801   3    1000023    6   -6
    0.00067582206   3    1000025    6   -6
    0.00045328398   2    2000002   -2
    0.00045328398   2   -2000002    2
    0.00045325435   2    2000004   -4
    0.00045325435   2   -2000004    4
    0.00038305921   3    1000024    5   -6
    0.00038305921   3   -1000024   -5    6
    0.0002511124   2    2000005   -5
    0.0002511124   2   -2000005    5

DECAY 25  0.0038570545
    0.60977143   2   -5    5
    0.19399734   2   -24    24
    0.071079685   2    21    21
    0.070208339   2   -15    15
    0.028185008   2   -4    4
    0.02274915   2    23    23
    0.0022336534   2    22    22
    0.0013034027   2    22    23
    0.00024372015   2   -13    13
    0.00022749986   2   -3    3
    6.2900963e-07   2   -1    1
    1.4524882e-07   2   -2    2
    5.4791212e-09   2   -11    11

DECAY 35  29.152258
    0.8451128   2   -5    5
    0.15345922   2   -15    15
    0.00054373209   2   -13    13
    0.00044513191   2   -6    6
    0.00028083285   2   -3    3
    7.2877359e-05   2    21    21
    6.7081436e-05   2    1000022    1000022
    1.2035465e-05   2    25    25
    3.227872e-06   2   -24    24
    1.9965146e-06   2    23    23
    7.7636794e-07   2   -1    1
    8.7105892e-08   2   -1000001    1000001
    8.6501719e-08   2   -1000003    1000003
    6.0557883e-08   2    22    22
    3.4860254e-08   2    22    23
    1.2216721e-08   2   -11    11
    6.7208766e-09   2   -4    4
    3.4653642e-14   2   -2    2

DECAY 36  28.1665
    0.84464551   2   -5    5
    0.15337359   2   -15    15
    0.00056009052   2    1000022    1000022
    0.00054341793   2   -13    13
    0.00049587225   2   -6    6
    0.00028067377   2   -3    3
    9.6767499e-05   2    21    21
    3.1983836e-06   2    23    25
    7.7592811e-07   2   -1    1
    6.3074548e-08   2    22    22
    2.1698129e-08   2    22    23
    1.2209669e-08   2   -11    11
    6.0937393e-09   2   -4    4
    3.1413884e-14   2   -2    2
    1.3661942e-41   2    25    25

DECAY 37  26.544504
    0.84449734   2   -5    6
    0.15331922   2   -15    16
    0.0013355531   2   -5    4
    0.00054204267   2   -13    14
    0.00027800628   2   -3    4
    1.2809573e-05   2   -3    2
    9.5372684e-06   2   -5    2
    3.4866147e-06   2    24    25
    1.1508315e-06   2   -3    6
    7.7132643e-07   2   -1    2
    3.5789958e-08   2   -1    4
    3.5658175e-08   2   -1    6
    1.2678435e-08   2   -11    12
    1.4087967e-10   2    24    35
    1.2484565e-10   2    24    36

DECAY 6  2.43
    1   2    5    24

DECAY 15 -1
