BLOCK SPINFO
   1   SPheno
   2   v4.0.5be

BLOCK SPHENOINFO
   1   2
   2   2

BLOCK MODSEL
   1   0

BLOCK MINPAR
   3    53.169183
   4   -1

BLOCK EXTPAR
   0    4399.9224
   1    4954.7884
   2    3899.1269
   3    3210.1383
   11    2442.6122
   12    4286.8201
   13   -5649.3115
   23   -208.40578
   25    52.900587
   26    2955.3173
   31    1328.1769
   32    1328.1769
   33    1395.9462
   34    1421.0306
   35    1421.0306
   36    1082.7791
   41    2345.4744
   42    2345.4744
   43    4488.4775
   44    3300.0069
   45    3300.0069
   46    4207.5618
   47    2926.2645
   48    2926.2645
   49    983.06793

BLOCK SMINPUTS
   1    127.90897
   2    1.1663787e-05
   3    0.1184
   4    91.1876
   5    4.18
   6    173.2
   7    1.777
   8    0
   11    0.00051099893
   12    0
   13    0.10565837
   14    0
   21    0.005
   22    0.0025
   23    0.095
   24    1.27

BLOCK GAUGE Q=  4399.9224
   1    0.35536298
   2    0.66519887
   3    1.219778

BLOCK YU Q=  4399.9224
   1   1    8.38587e-06
   2   2    0.004260022
   3   3    1.0130805

BLOCK YD Q=  4399.9224
   1   1    0.00089143332
   2   2    0.016937233
   3   3    0.88402252

BLOCK YE Q=  4399.9224
   1   1    0.00015556163
   2   2    0.032165212
   3   3    0.54096595

BLOCK AU Q=  4399.9224
   1   1    0
   2   2    0
   3   3    2442.6122

BLOCK AD Q=  4399.9224
   1   1    0
   2   2    0
   3   3    4286.8201

BLOCK AE Q=  4399.9224
   1   1    0
   2   2    0
   3   3   -5649.3115

BLOCK MSOFT Q=  4399.9224
   1    4954.7884
   2    3899.1269
   3    3210.1383
   21    9369954.2
   22    251016.63
   31    1328.1769
   32    1328.1769
   33    1395.9462
   34    1421.0306
   35    1421.0306
   36    1082.7791
   41    2345.4744
   42    2345.4744
   43    4488.4775
   44    3300.0069
   45    3300.0069
   46    4207.5618
   47    2926.2645
   48    2926.2645
   49    983.06793

BLOCK MASS
   6    173.2
   23    91.1876
   24    80.429995
   15    1.777
   25    121.29353
   35    2951.9562
   36    2955.3173
   37    2953.0443
   1000001    2581.8417
   2000001    3091.857
   1000002    2580.6168
   2000002    3448.8613
   1000003    2581.8289
   2000003    3091.8356
   1000004    2580.6041
   2000004    3448.8605
   1000005    1174.8303
   2000005    4545.9943
   1000006    4253.8347
   2000006    4551.0271
   1000011    1394.8992
   2000011    1462.7353
   1000012    1392.276
   1000013    1394.8223
   2000013    1462.6002
   1000014    1392.205
   1000015    1020.5079
   2000015    1412.3363
   1000016    1410.2202
   1000021    3424.9146
   1000022    224.35519
   1000023   -226.22288
   1000025    3855.1664
   1000035    4862.3848
   1000024    225.41006
   1000037    3855.2335

BLOCK ALPHA
      -0.018854366

BLOCK HMIX Q=  4399.9224
   1   -208.40578
   2    52.900587
   3    242.85417
   4    8733900.3

BLOCK STOPMIX
   1   1   -0.1048605
   1   2    0.99448694
   2   1   -0.99448694
   2   2   -0.1048605

BLOCK SBOTMIX
   1   1   -0.0016805353
   1   2    0.99999859
   2   1   -0.99999859
   2   2   -0.0016805353

BLOCK STAUMIX
   1   1   -0.0094935031
   1   2    0.99995494
   2   1   -0.99995494
   2   2   -0.0094935031

BLOCK NMIX
   1   1   -0.006636683
   1   2    0.01471604
   1   3    0.70855388
   1   4    0.70547203
   2   1   -0.0062855908
   2   2    0.013733353
   2   3   -0.70565628
   2   4    0.70839333
   3   1    0.00091936345
   3   2    0.99979713
   3   3   -0.0007360337
   3   4   -0.02010772
   4   1    0.9999578
   4   2   -0.00073522003
   4   3    0.0002676689
   4   4    0.0091535375

BLOCK UMIX
   1   1   -0.001042376
   1   2   -0.99999946
   2   1    0.99999946
   2   2   -0.001042376

BLOCK VMIX
   1   1   -0.028457349
   1   2    0.99959501
   2   1    0.99959501
   2   2    0.028457349

BLOCK HIGGSBOUNDSINPUTHIGGSCOUPLINGSFERMIONS
       0, 2798.4721,3,36,15,15

BLOCK HIGGSBOUNDSINPUTHIGGSCOUPLINGSBOSONS
       0,4,36,21,21,23

BLOCK SPHENOLOWENERGY
   1    0.00032595496
   2    1.5898137e-06
   3    3.5256446e-05
   4    2.7835067e-15
   5    1.1890739e-10
   6    2.4843286e-08
   7    9.6070076e-14
   8    4.1040733e-09
   9    8.6835592e-07
   10    9.5112809e-05
   11    0.9824789
   12    0.54189532
   13    19.354551
   14    0
   15    0
   16    0.0021571234
   17    2.2816585e-15
   18    2.480212e-11
   19    8.2909662e-11
   20   -2.3383022e-15
   21   -9.9966831e-11
   22   -2.7334752e-08
   23    0
   24    0
   25    0
   26    0
   27    0
   28    0
   29    0
   30    0
   31    0
   39    7.2104743e-05
   40    0
   41    0
   42    0

BLOCK FWCOEF Q=  160
   305   4422   0   0   -0.18881911
   305   4422   0   2   -0.1947854
   305   4322   0   2   -9.528512e-05
   305   6421   0   0   -0.095227835
   305   6421   0   2   -0.10257779
   305   6321   0   2   -0.00014202405
   3051111   4133   0   0    1.6310623
   3051111   4133   0   2    1.6314465
   3051111   4233   0   2    0.00032015455
   3051111   4137   0   0   -4.4537543
   3051111   4137   0   2   -4.4525534
   3051111   4237   0   2   -0.0023526093
   3051313   4133   0   0    1.6310623
   3051313   4133   0   2    1.6314447
   3051313   4233   0   2    0.00032015236
   3051313   4137   0   0   -4.4537543
   3051313   4137   0   2   -4.4525552
   3051313   4237   0   2   -0.0023526119
   3051212   4137   0   0    1.5053501
   3051212   4137   0   2    1.5050908
   3051212   4237   0   2    0.0005082249
   3051414   4137   0   0    1.5053501
   3051414   4137   0   2    1.5050908
   3051414   4237   0   2    0.00050822511
   3051616   4137   0   0    1.5053501
   3051616   4137   0   2    1.5050909
   3051616   4237   0   2    0.00050828379

BLOCK IMFWCOEF Q=  160
   305   4422   0   0    3.8582198e-07
   305   4422   0   2   -1.348879e-05
   305   4322   0   2    7.0253571e-07
   305   6421   0   0    3.3048204e-07
   305   6421   0   2    1.1908636e-05
   305   6321   0   2    6.0447404e-07
   3051111   4133   0   2    3.5045464e-08
   3051111   4233   0   2    7.0391354e-06
   3051111   4137   0   2    4.6926916e-07
   3051111   4237   0   2   -5.1738454e-05
   3051313   4133   0   2    3.5048556e-08
   3051313   4233   0   2    7.0391143e-06
   3051313   4137   0   2    4.6927295e-07
   3051313   4237   0   2   -5.1738518e-05
   3051212   4137   0   2   -9.893365e-08
   3051212   4237   0   2    1.1176847e-05
   3051414   4137   0   2   -9.8934354e-08
   3051414   4237   0   2    1.1176847e-05
   3051616   4137   0   2   -9.9447023e-08
   3051616   4237   0   2    1.1176847e-05

DECAY 23  2.4952


DECAY 24  2.085


DECAY 1000011  0.0013669155
    0.53208595   2    1000022    11
    0.4586563   2    1000023    11
    0.009257634   2   -1000024    12

DECAY 2000011  0.00058666442
    0.52671832   2    1000022    11
    0.47213766   2    1000023    11
    0.001144024   2   -1000024    12

DECAY 1000013  0.028597066
    0.50370135   2    1000022    13
    0.49585616   2    1000023    13
    0.00044248003   2   -1000024    14

DECAY 2000013  0.057969201
    0.49493866   2   -1000024    14
    0.25392228   2    1000022    13
    0.25113907   2    1000023    13

DECAY 1000015  10.752302
    0.49993143   2   -1000024    16
    0.25137875   2    1000022    15
    0.24868981   2    1000023    15

DECAY 2000015  7.8294958
    0.50086099   2    1000022    15
    0.49672965   2    1000023    15
    0.0012368914   2    1000015    25
    0.0011052081   2    1000015    23

DECAY 1000012  0.013048206
    0.72136479   2    1000024    11
    0.14859275   2    1000022    12
    0.13004247   2    1000023    12

DECAY 1000014  0.040220314
    0.90961074   2    1000024    13
    0.048203488   2    1000022    14
    0.042185773   2    1000023    14

DECAY 1000016  7.8269008
    0.9973079   2    1000024    15
    0.0022209637   2    1000015    24
    0.00025124969   2    1000022    16
    0.00021988883   2    1000023    16

DECAY 1000001  0.0053620535
    0.5313533   2    1000022    1
    0.46411044   2    1000023    1
    0.0045362577   2   -1000024    2

DECAY 2000001  0.00023945709
    0.41558155   2    1000022    1
    0.38231995   2    1000023    1
    0.20196224   2   -1000024    2
    0.00013625877   2    1000001    25

DECAY 1000003  0.020750249
    0.4874806   2    1000022    3
    0.46714494   2    1000023    3
    0.045374466   2   -1000024    4

DECAY 2000003  0.03507129
    0.49779451   2   -1000024    4
    0.25208795   2    1000022    3
    0.24978169   2    1000023    3
    0.00033585069   2    1000003    25

DECAY 1000005  33.101673
    0.48804583   2   -1000024    6
    0.25720084   2    1000022    5
    0.25475333   2    1000023    5

DECAY 2000005  259.70302
    0.35433293   2   -1000024    6
    0.2583367   2    1000021    5
    0.135981   2    1000022    5
    0.13486924   2    1000023    5
    0.046611061   2    1000005    35
    0.046417143   2    1000005    36
    0.011955503   2   -1000037    6
    0.0060718936   2    1000025    5
    0.0046292726   2    1000006   -24
    0.00051320004   2    1000005    25
    0.00028205947   2    1000005    23

DECAY 1000002  0.021986428
    0.82584954   2    1000024    1
    0.093207098   2    1000022    2
    0.080943364   2    1000023    2

DECAY 2000002  0.052770444
    0.98790881   2    1000021    2
    0.0063742444   2    1000022    2
    0.0057168585   2    1000023    2

DECAY 1000004  0.037367236
    0.87299936   2    1000024    3
    0.067058926   2    1000022    4
    0.059941709   2    1000023    4

DECAY 2000004  0.055144209
    0.94368447   2    1000021    4
    0.022369663   2    1000024    3
    0.017242016   2    1000022    4
    0.016703844   2    1000023    4

DECAY 1000006  210.71763
    0.40687132   2    1000024    5
    0.20469485   2    1000023    6
    0.20299288   2    1000022    6
    0.184345   2    1000021    6
    0.00061829099   3    1000022    24    5
    0.00029084634   2    1000005    37
    0.00012405674   2    1000037    5

DECAY 2000006  262.82603
    0.27031298   2    1000024    5
    0.26006238   2    1000021    6
    0.17630474   2    1000023    6
    0.17489995   2    1000022    6
    0.092149502   2    1000005    37
    0.01190292   2    1000037    5
    0.0058642697   2    1000025    6
    0.0056431485   2    1000006    25
    0.0023065429   2    1000006    23
    0.00055356724   2    1000005    24

DECAY 1000024  1.2451078e-12
    0.68029953   2    1000022    211
    0.16378805   3    1000022   -11    12
    0.15591241   3    1000022   -13    14

DECAY 1000037  178.28854
    0.086911081   2    1000004   -3
    0.086909693   2    1000002   -1
    0.086847322   2   -1000003    4
    0.086845988   2   -1000001    2
    0.071913337   2    1000014   -13
    0.071911137   2    1000012   -11
    0.071890324   2   -1000013    14
    0.071887936   2   -1000011    12
    0.07135279   2    1000016   -15
    0.071338839   2   -2000015    16
    0.047245849   2    1000024    25
    0.044029133   2    1000023    24
    0.043841685   2    1000024    23
    0.043665316   2    1000022    24
    0.0080489462   2    37    1000022
    0.0080251824   2    1000024    35
    0.0079724465   2    1000024    36
    0.0078121873   2    37    1000023
    0.0050746014   3    1000024    6   -6
    0.0031912914   3    1000023   -5    6
    0.0031404475   3    1000022   -5    6
    0.00013747988   3    1000024    5   -5

DECAY 1000022 -1


DECAY 1000023  9.5392229e-10
    0.94193073   2    1000022    22
    0.016641438   3    1000022    12   -12
    0.012443104   3    1000022    1   -1
    0.01207554   3    1000022    3   -3
    0.0097051058   3    1000022    2   -2
    0.0028082883   3    1000022    11   -11
    0.0026789079   3    1000022    13   -13
    0.00052330192   3    1000024    1   -2
    0.00052330192   3   -1000024   -1    2
    0.00017447587   3    1000024    11   -12
    0.00017447587   3   -1000024   -11    12
    0.00016066505   3    1000024    13   -14
    0.00016066505   3   -1000024   -13    14

DECAY 1000025  179.06645
    0.043748048   2    1000024   -24
    0.043748048   2   -1000024    24
    0.043295197   2    1000004   -4
    0.043295197   2   -1000004    4
    0.043294537   2    1000002   -2
    0.043294537   2   -1000002    2
    0.0432002   2    1000003   -3
    0.0432002   2   -1000003    3
    0.043199505   2    1000001   -1
    0.043199505   2   -1000001    1
    0.035808682   2    1000013   -13
    0.035808682   2   -1000013    13
    0.035807492   2    1000011   -11
    0.035807492   2   -1000011    11
    0.035778765   2    1000014   -14
    0.035778765   2   -1000014    14
    0.03577767   2    1000012   -12
    0.03577767   2   -1000012    12
    0.03553406   2    2000015   -15
    0.03553406   2   -2000015    15
    0.03549978   2    1000016   -16
    0.03549978   2   -1000016    16
    0.027438305   2    1000023    25
    0.025210159   2    1000022    25
    0.023486921   2    1000023    23
    0.020121826   2    1000022    23
    0.0079836619   2    37   -1000024
    0.0079836619   2   -37    1000024
    0.0052653207   2    1000022    35
    0.0048500838   2    1000023    35
    0.0029110553   2    1000023    36
    0.002782995   3    1000024    5   -6
    0.002782995   3   -1000024   -5    6
    0.0027310679   2    1000022    36
    0.0022254548   3    1000023    6   -6
    0.0021949196   3    1000022    6   -6

DECAY 1000035  147.37364
    0.075737612   2    1000015   -15
    0.075737612   2   -1000015    15
    0.068563325   2    2000013   -13
    0.068563325   2   -2000013    13
    0.068560805   2    2000011   -11
    0.068560805   2   -2000011    11
    0.02728647   2    2000004   -4
    0.02728647   2   -2000004    4
    0.027286458   2    2000002   -2
    0.027286458   2   -2000002    2
    0.024496087   2    1000005   -5
    0.024496087   2   -1000005    5
    0.02195047   2    1000024   -24
    0.02195047   2   -1000024    24
    0.017510813   2    1000014   -14
    0.017510813   2   -1000014    14
    0.017510495   2    1000012   -12
    0.017510495   2   -1000012    12
    0.017429446   2    1000016   -16
    0.017429446   2   -1000016    16
    0.017402973   2    1000013   -13
    0.017402973   2   -1000013    13
    0.017402629   2    1000011   -11
    0.017402629   2   -1000011    11
    0.01732855   2    2000015   -15
    0.01732855   2   -2000015    15
    0.011799075   2    1000023    25
    0.011742248   2    1000023    23
    0.010842838   2    1000022    25
    0.010360383   2    1000022    23
    0.0098030237   2    2000003   -3
    0.0098030237   2   -2000003    3
    0.0098028397   2    2000001   -1
    0.0098028397   2   -2000001    1
    0.0082437774   2    37   -1000024
    0.0082437774   2   -37    1000024
    0.0058278512   2    1000006   -6
    0.0058278512   2   -1000006    6
    0.00492382   2    1000022    35
    0.0045336656   2    1000023    35
    0.0036275055   2    1000023    36
    0.0035907641   2    1000003   -3
    0.0035907641   2   -1000003    3
    0.0035907362   2    1000001   -1
    0.0035907362   2   -1000001    1
    0.0035345813   2    1000004   -4
    0.0035345813   2   -1000004    4
    0.0035345512   2    1000002   -2
    0.0035345512   2   -1000002    2
    0.0033960233   2    1000022    36
    0.0014847481   3    1000024    5   -6
    0.0014847481   3   -1000024   -5    6
    0.0012707884   3    1000023    6   -6
    0.0012541497   3    1000022    6   -6
    0.00011040818   2    2000005   -5
    0.00011040818   2   -2000005    5

DECAY 1000021  161.80687
    0.24388463   2    1000005   -5
    0.24388463   2   -1000005    5
    0.058535671   2    1000004   -4
    0.058535671   2   -1000004    4
    0.058534208   2    1000002   -2
    0.058534208   2   -1000002    2
    0.058389816   2    1000003   -3
    0.058389816   2   -1000003    3
    0.058388297   2    1000001   -1
    0.058388297   2   -1000001    1
    0.010726847   2    2000003   -3
    0.010726847   2   -2000003    3
    0.010725541   2    2000001   -1
    0.010725541   2   -2000001    1
    0.00040691874   3    1000024    5   -6
    0.00040691874   3   -1000024   -5    6
    0.00033240919   3    1000023    6   -6
    0.00032974294   3    1000022    6   -6

DECAY 25  0.00345557
    0.62815994   2   -5    5
    0.17107695   2   -24    24
    0.074640712   2    21    21
    0.07188594   2   -15    15
    0.031023551   2   -4    4
    0.019218334   2    23    23
    0.0023221156   2    22    22
    0.0011863037   2    22    23
    0.00024933265   2   -13    13
    0.00023600743   2   -3    3
    6.5253729e-07   2   -1    1
    1.5988403e-07   2   -2    2
    5.6053258e-09   2   -11    11

DECAY 35  145.389
    0.66200454   2   -5    5
    0.11341323   2   -2000015    1000015
    0.11341323   2   -1000015    2000015
    0.10988421   2   -15    15
    0.00037952152   2   -13    13
    0.00032175521   2   -6    6
    0.00024975476   2   -3    3
    0.00013753326   2   -1000024    1000024
    9.0852929e-05   2   -1000015    1000015
    4.0961073e-05   2   -2000015    2000015
    2.8531195e-05   2    1000022    1000022
    2.321453e-05   2    1000023    1000023
    8.2507718e-06   2    21    21
    3.0504022e-06   2   -1000005    1000005
    6.9047589e-07   2   -1    1
    4.0833769e-07   2    25    25
    8.4963277e-08   2    23    23
    2.620628e-08   2   -24    24
    1.2230122e-08   2    22    22
    9.6614086e-09   2   -1000011    1000011
    9.5072193e-09   2   -1000013    1000013
    8.5238783e-09   2   -11    11
    8.0937703e-09   2    22    23
    4.2264796e-09   2   -4    4
    4.0947234e-09   2    1000022    1000023
    3.8622942e-09   2   -2000011    2000011
    3.8079855e-09   2   -2000013    2000013
    1.3227035e-10   2   -2000013    1000013
    1.3227035e-10   2   -1000013    2000013
    2.1786099e-14   2   -2    2
    3.0940776e-15   2   -2000011    1000011
    3.0940776e-15   2   -1000011    2000011

DECAY 36  134.1266
    0.64531681   2   -5    5
    0.12320894   2   -2000015    1000015
    0.12320894   2   -1000015    2000015
    0.10712005   2   -15    15
    0.00036997507   2   -13    13
    0.00030870137   2   -6    6
    0.00024344732   2   -3    3
    0.00015189368   2   -1000024    1000024
    2.9305566e-05   2    1000022    1000022
    2.7732214e-05   2    1000023    1000023
    1.3236649e-05   2    21    21
    6.7303982e-07   2   -1    1
    1.4856658e-07   2    23    25
    1.2086463e-07   2    1000022    1000023
    9.3410364e-09   2    22    22
    8.3094529e-09   2   -11    11
    6.769749e-09   2    22    23
    3.9928927e-09   2   -4    4
    1.4154452e-10   2   -2000013    1000013
    1.4154452e-10   2   -1000013    2000013
    3.5116928e-12   2    23    35
    2.0582394e-14   2   -2    2
    3.3107403e-15   2   -2000011    1000011
    3.3107403e-15   2   -1000011    2000011
    5.0406185e-39   2    25    25

DECAY 37  145.75214
    0.65677247   2   -5    6
    0.22701718   2   -1000015    1000016
    0.11454343   2   -15    16
    0.00097377314   2   -5    4
    0.00040495193   2   -13    14
    0.00022654842   2   -3    4
    2.1631688e-05   2   -2000015    1000016
    1.1523136e-05   2    1000023    1000024
    1.0608962e-05   2   -3    2
    9.295774e-06   2    1000022    1000024
    6.9537454e-06   2   -5    2
    7.3881323e-07   2   -3    6
    6.285877e-07   2   -1    2
    1.3648718e-07   2    24    25
    3.7991984e-08   2   -1000011    1000012
    3.7774368e-08   2   -1000013    1000014
    2.9519265e-08   2   -1    4
    1.8507041e-08   2   -1    6
    9.4718677e-09   2   -11    12
    2.8794502e-10   2   -2000013    1000014
    1.4242606e-14   2    24    35
    6.736838e-15   2   -2000011    1000012

DECAY 6  2.43
    1   2    5    24

DECAY 15 -1
