BLOCK SPINFO
   1   SPheno
   2   v4.0.5be

BLOCK SPHENOINFO
   1   2
   2   2

BLOCK MODSEL
   1   0

BLOCK MINPAR
   3    43.845374
   4    1

BLOCK EXTPAR
   0    3893.2563
   1    1787.4011
   2    2998.1958
   3    3146.691
   11    1228.3261
   12    345.27154
   13    2796.605
   23    773.92697
   25    42.617672
   26    4932.7811
   31    4173.238
   32    4173.238
   33    3566.6376
   34    2804.8976
   35    2804.8976
   36    3132.6027
   41    2533.7324
   42    2533.7324
   43    3882.1921
   44    2469.4992
   45    2469.4992
   46    3746.6955
   47    3939.9961
   48    3939.9961
   49    447.67578

BLOCK SMINPUTS
   1    127.90897
   2    1.1663787e-05
   3    0.1184
   4    91.1876
   5    4.18
   6    173.2
   7    1.777
   8    0
   11    0.00051099893
   12    0
   13    0.10565837
   14    0
   21    0.005
   22    0.0025
   23    0.095
   24    1.27

BLOCK GAUGE Q=  3893.2563
   1    0.35536298
   2    0.66519887
   3    1.219778

BLOCK YU Q=  3893.2563
   1   1    8.38668e-06
   2   2    0.0042604334
   3   3    1.0131783

BLOCK YD Q=  3893.2563
   1   1    0.0007182242
   2   2    0.01364626
   3   3    0.71225335

BLOCK YE Q=  3893.2563
   1   1    0.00012533538
   2   2    0.025915381
   3   3    0.43585407

BLOCK AU Q=  3893.2563
   1   1    0
   2   2    0
   3   3    1228.3262

BLOCK AD Q=  3893.2563
   1   1    0
   2   2    0
   3   3    345.27154

BLOCK AE Q=  3893.2563
   1   1    0
   2   2    0
   3   3    2796.6049

BLOCK MSOFT Q=  3893.2563
   1    1787.4011
   2    2998.1958
   3    3146.691
   21    23897138
   22   -332317.66
   31    4173.238
   32    4173.238
   33    3566.6376
   34    2804.8976
   35    2804.8976
   36    3132.6027
   41    2533.7324
   42    2533.7324
   43    3882.1921
   44    2469.4992
   45    2469.4992
   46    3746.6955
   47    3939.9961
   48    3939.9961
   49    447.67578

BLOCK MASS
   6    173.2
   23    91.1876
   24    80.429995
   15    1.777
   25    120.25822
   35    4930.8202
   36    4932.7811
   37    4931.6698
   1000001    2728.9823
   2000001    4045.9771
   1000002    2727.8082
   2000002    2631.0289
   1000003    2728.9763
   2000003    4045.968
   1000004    2727.8023
   2000004    2631.0281
   1000005    807.94917
   2000005    3978.6033
   1000006    3806.8719
   2000006    3981.601
   1000011    4192.3511
   2000011    2815.0233
   1000012    4191.1705
   1000013    4192.3213
   2000013    2814.9516
   1000014    4191.1402
   1000015    3122.5136
   2000015    3580.7369
   1000016    3579.2007
   1000021    3350.7809
   1000022    780.26643
   1000023   -784.46843
   1000025    1768.3922
   1000035    3021.6267
   1000024    782.36743
   1000037    3021.8474

BLOCK ALPHA
      -0.022826455

BLOCK HMIX Q=  3893.2563
   1    773.92697
   2    42.617672
   3    242.98611
   4    24332329

BLOCK STOPMIX
   1   1   -0.084265769
   1   2    0.99644332
   2   1   -0.99644332
   2   2   -0.084265769

BLOCK SBOTMIX
   1   1    0.0041507072
   1   2    0.99999139
   2   1   -0.99999139
   2   2    0.0041507072

BLOCK STAUMIX
   1   1    0.017679322
   1   2    0.99984371
   2   1   -0.99984371
   2   2    0.017679322

BLOCK NMIX
   1   1   -0.032527857
   1   2    0.025075647
   1   3   -0.70754334
   1   4    0.70547543
   2   1   -0.011991332
   2   2    0.014233058
   2   3    0.7064781
   2   4    0.70749016
   3   1    0.9993984
   3   2    0.0019768449
   3   3   -0.014544365
   3   4    0.031422709
   4   1    0.00098973871
   4   2   -0.99958227
   4   3   -0.0077187393
   4   4    0.027833746

BLOCK UMIX
   1   1   -0.010911366
   1   2    0.99994047
   2   1    0.99994047
   2   2    0.010911366

BLOCK VMIX
   1   1   -0.039353348
   1   2    0.99922536
   2   1    0.99922536
   2   2    0.039353348

BLOCK HIGGSBOUNDSINPUTHIGGSCOUPLINGSFERMIONS
       0, 1816.2659,3,36,15,15

BLOCK HIGGSBOUNDSINPUTHIGGSCOUPLINGSBOSONS
       0,4,36,21,21,23

BLOCK SPHENOLOWENERGY
   1    0.00032173737
   2    1.590212e-06
   3    3.5254225e-05
   4    2.6184604e-15
   5    1.1185769e-10
   6    2.3418636e-08
   7    8.7794266e-14
   8    3.7505702e-09
   9    7.9565577e-07
   10    9.6358701e-05
   11    0.99534849
   12    0.54202189
   13    19.364413
   14    0
   15    0
   16    0.0021575638
   17    2.2816613e-15
   18    2.4800062e-11
   19    8.2905645e-11
   20    1.1949946e-15
   21    5.1087632e-11
   22    1.7581782e-08
   23    0
   24    0
   25    0
   26    0
   27    0
   28    0
   29    0
   30    0
   31    0
   39    6.9128693e-05
   40    0
   41    0
   42    0

BLOCK FWCOEF Q=  160
   305   4422   0   0   -0.18881911
   305   4422   0   2   -0.19002622
   305   4322   0   2   -2.1180474e-05
   305   6421   0   0   -0.095227835
   305   6421   0   2   -0.099130697
   305   6321   0   2   -7.5090459e-05
   3051111   4133   0   0    1.6262412
   3051111   4133   0   2    1.626678
   3051111   4233   0   2    0.0002209024
   3051111   4137   0   0   -4.4489333
   3051111   4137   0   2   -4.4474839
   3051111   4237   0   2   -0.0016336021
   3051313   4133   0   0    1.6262412
   3051313   4133   0   2    1.6266775
   3051313   4233   0   2    0.00022090195
   3051313   4137   0   0   -4.4489333
   3051313   4137   0   2   -4.4474844
   3051313   4237   0   2   -0.0016336029
   3051212   4137   0   0    1.5053501
   3051212   4137   0   2    1.5050373
   3051212   4237   0   2    0.00035328207
   3051414   4137   0   0    1.5053501
   3051414   4137   0   2    1.5050373
   3051414   4237   0   2    0.00035328208
   3051616   4137   0   0    1.5053501
   3051616   4137   0   2    1.5050372
   3051616   4237   0   2    0.00035328627

BLOCK IMFWCOEF Q=  160
   305   4422   0   0    3.8581105e-07
   305   4422   0   2    1.2823083e-05
   305   4322   0   2    6.1772664e-07
   305   6421   0   0    3.3047268e-07
   305   6421   0   2   -8.2528199e-06
   305   6321   0   2    2.4511229e-08
   3051111   4133   0   2    2.4518815e-07
   3051111   4233   0   2    4.326921e-06
   3051111   4137   0   2   -9.4480258e-07
   3051111   4237   0   2   -3.2002838e-05
   3051313   4133   0   2    2.4518619e-07
   3051313   4233   0   2    4.3269142e-06
   3051313   4137   0   2   -9.448008e-07
   3051313   4237   0   2   -3.2002854e-05
   3051212   4137   0   2    2.1533296e-07
   3051212   4237   0   2    6.9209193e-06
   3051414   4137   0   2    2.1533283e-07
   3051414   4237   0   2    6.9209193e-06
   3051616   4137   0   2    2.1462369e-07
   3051616   4237   0   2    6.9209197e-06

DECAY 23  2.4952


DECAY 24  2.085


DECAY 2000011  5.1917651
    0.99720967   2    1000025    11
    0.0024567445   2    1000022    11
    0.00033344374   2    1000023    11

DECAY 1000011  16.357792
    0.52072162   2   -1000037    12
    0.25998126   2    1000035    11
    0.21892012   2    1000025    11
    0.00025025149   2   -1000024    12

DECAY 2000013  5.2553404
    0.98505638   2    1000025    13
    0.0060943963   2   -1000024    14
    0.005480141   2    1000022    13
    0.0033690791   2    1000023    13

DECAY 1000013  16.409959
    0.51904655   2   -1000037    14
    0.25914501   2    1000035    13
    0.21822174   2    1000025    13
    0.0016545941   2    1000022    13
    0.0016508518   2    1000023    13
    0.0002494539   2   -1000024    14

DECAY 1000015  27.984509
    0.37053403   2   -1000024    16
    0.25830515   2    1000025    15
    0.18650522   2    1000022    15
    0.18465494   2    1000023    15

DECAY 2000015  18.896337
    0.324582   2    1000022    15
    0.32442662   2    1000023    15
    0.13814667   2   -1000037    16
    0.13724942   2    1000025    15
    0.06900676   2    1000035    15
    0.0033410398   2    1000015    23
    0.0032468185   2    1000015    25

DECAY 1000012  16.366341
    0.51892613   2    1000037    11
    0.26000544   2    1000035    12
    0.2154757   2    1000025    12
    0.0032525567   2    1000024    11
    0.0018930369   2    1000022    12
    0.00044714857   2    1000023    12

DECAY 1000014  16.417964
    0.51727466   2    1000037    13
    0.25917791   2    1000035    14
    0.21479528   2    1000025    14
    0.0064193381   2    1000024    13
    0.001887069   2    1000022    14
    0.00044573892   2    1000023    14

DECAY 1000016  18.910241
    0.65092839   2    1000024    15
    0.13722382   2    1000037    15
    0.13468097   2    1000025    16
    0.068777459   2    1000035    16
    0.0067055946   2    1000015    24
    0.0013621056   2    1000022    16
    0.00032165889   2    1000023    16

DECAY 1000001  0.13998299
    0.89432212   2    1000025    1
    0.069023772   2    1000022    1
    0.019438392   2    1000023    1
    0.01721572   2   -1000024    2

DECAY 2000001  32.991913
    0.95516901   2    1000021    1
    0.044752356   2    1000025    1

DECAY 1000003  0.14930256
    0.83849613   2    1000025    3
    0.093215101   2    1000022    3
    0.046601151   2    1000023    3
    0.021687616   2   -1000024    4

DECAY 2000003  33.019063
    0.95436263   2    1000021    3
    0.044715431   2    1000025    3
    0.00042063636   2   -1000024    4
    0.00027776193   2    1000022    3
    0.00021900584   2    1000023    3

DECAY 1000005  0.032169594
    0.56598017   2    1000022    5
    0.43401984   2    1000023    5

DECAY 2000005  149.24598
    0.50026205   2   -1000024    6
    0.17780322   2    1000021    5
    0.12458728   2    1000022    5
    0.12411577   2    1000023    5
    0.042041246   2   -1000037    6
    0.021011352   2    1000035    5
    0.0047711385   2    1000005    25
    0.0023849485   2    1000025    5
    0.0021757991   2    1000005    23
    0.00084720367   2    1000006   -24

DECAY 2000002  1.769754
    0.99668155   2    1000025    2
    0.0029220203   2    1000022    2
    0.00039642736   2    1000023    2

DECAY 1000002  0.16725445
    0.7811967   2    1000025    2
    0.18745608   2    1000024    1
    0.022503905   2    1000022    2
    0.0088433083   2    1000023    2

DECAY 2000004  1.771326
    0.99579514   2    1000025    4
    0.0031409197   2    1000022    4
    0.00061881139   2    1000023    4
    0.00044513138   2    1000024    3

DECAY 1000004  0.17656713
    0.73998573   2    1000025    4
    0.22563673   2    1000024    3
    0.023653123   2    1000022    4
    0.010724413   2    1000023    4

DECAY 1000006  160.1638
    0.44113216   2    1000024    5
    0.22198585   2    1000023    6
    0.22032096   2    1000022    6
    0.081959752   2    1000021    6
    0.033106892   2    1000025    6
    0.00059311077   2    1000037    5
    0.00035954088   2    1000021    4
    0.0002927404   2    1000035    6
    0.00022387729   3    1000022    24    5

DECAY 2000006  149.75172
    0.25228625   2    1000024    5
    0.2498685   2    1000023    6
    0.24921205   2    1000022    6
    0.17785755   2    1000021    6
    0.041299053   2    1000037    5
    0.020678806   2    1000035    6
    0.0043184827   2    1000005    24
    0.002560157   2    1000025    6
    0.0015222942   2    1000006    25
    0.00039686223   2    1000006    23

DECAY 1000024  7.8936153e-12
    0.59737287   3    1000022   -1    2
    0.19913659   3    1000022   -11    12
    0.19480928   3    1000022   -13    14
    0.0086812658   3    1000022   -3    4

DECAY 1000037  32.489077
    0.20714364   2    1000024    25
    0.19581506   2    1000023    24
    0.19527567   2    1000024    23
    0.19447348   2    1000022    24
    0.042034614   2    1000004   -3
    0.042033004   2    1000002   -1
    0.041775952   2   -1000003    4
    0.041774753   2   -1000001    2
    0.016910348   3    1000024    6   -6
    0.011002041   3    1000022   -5    6
    0.010569623   3    1000023   -5    6
    0.00076637834   2    1000025    24
    0.00023521795   3    1000024    5   -5

DECAY 1000022 -1


DECAY 1000023  1.1583641e-08
    0.88626316   2    1000022    22
    0.029972586   3    1000022    12   -12
    0.022412391   3    1000022    1   -1
    0.022216759   3    1000022    3   -3
    0.01748009   3    1000022    2   -2
    0.0050579653   3    1000022    11   -11
    0.0049885455   3    1000022    13   -13
    0.0027992334   3    1000024    1   -2
    0.0027992334   3   -1000024   -1    2
    0.0018741128   3    1000022    4   -4
    0.00093311938   3    1000024    11   -12
    0.00093311938   3   -1000024   -11    12
    0.00091850035   3    1000024    13   -14
    0.00091850035   3   -1000024   -13    14
    0.00021617473   3    1000024    3   -4
    0.00021617473   3   -1000024   -3    4

DECAY 1000025  7.284567
    0.16103525   2    1000024   -24
    0.16103525   2   -1000024    24
    0.14315058   2    1000023    23
    0.12927985   2    1000022    25
    0.12742412   2    1000005   -5
    0.12742412   2   -1000005    5
    0.11913632   2    1000023    25
    0.01923265   2    1000022    23
    0.0041972578   3    1000024    5   -6
    0.0041972578   3   -1000024   -5    6
    0.0020120156   3    1000022    6   -6
    0.0018573164   3    1000023    6   -6

DECAY 1000035  35.429301
    0.1791869   2    1000024   -24
    0.1791869   2   -1000024    24
    0.14347859   2    1000022    25
    0.13613672   2    1000023    23
    0.13206505   2    1000023    25
    0.043342513   2    1000022    23
    0.019253688   2    1000004   -4
    0.019253688   2   -1000004    4
    0.019253151   2    1000002   -2
    0.019253151   2   -1000002    2
    0.019121618   2    1000003   -3
    0.019121618   2   -1000003    3
    0.019120867   2    1000001   -1
    0.019120867   2   -1000001    1
    0.0093562754   3    1000024    5   -6
    0.0093562754   3   -1000024   -5    6
    0.0068119037   3    1000022    6   -6
    0.0064766213   3    1000023    6   -6
    0.0006710081   2    1000025    25
    0.00010923384   3    1000023    5   -5
    0.00010799992   3    1000022    5   -5

DECAY 1000021  162.82109
    0.27018427   2    1000005   -5
    0.27018427   2   -1000005    5
    0.044786206   2    2000004   -4
    0.044786206   2   -2000004    4
    0.044786175   2    2000002   -2
    0.044786175   2   -2000002    2
    0.034646818   2    1000004   -4
    0.034646818   2   -1000004    4
    0.034646281   2    1000002   -2
    0.034646281   2   -1000002    2
    0.034529749   2    1000003   -3
    0.034529749   2   -1000003    3
    0.034529143   2    1000001   -1
    0.034529143   2   -1000001    1
    0.001361068   3    1000024    5   -6
    0.001361068   3   -1000024   -5    6
    0.00044258358   3    1000023    6   -6
    0.0004391513   3    1000022    6   -6

DECAY 25  0.0033469851
    0.6417177   2   -5    5
    0.15674524   2   -24    24
    0.075165748   2    21    21
    0.073389216   2   -15    15
    0.031815786   2   -4    4
    0.017247945   2    23    23
    0.0023179053   2    22    22
    0.0011038578   2    22    23
    0.0002545499   2   -13    13
    0.00024122372   2   -3    3
    6.6696037e-07   2   -1    1
    1.6397034e-07   2   -2    2
    5.7226314e-09   2   -11    11

DECAY 35  124.80043
    0.6316473   2   -5    5
    0.16249419   2   -15    15
    0.056905367   2   -1000024    1000037
    0.056905367   2   -1000037    1000024
    0.038586709   2    1000023    1000035
    0.01923818   2    1000023    1000025
    0.018401503   2    1000022    1000035
    0.013384119   2    1000022    1000025
    0.00062203026   2   -6    6
    0.00055828161   2   -13    13
    0.00045499881   2   -1000024    1000024
    0.00027319611   2   -3    3
    0.00023822485   2    1000022    1000022
    8.8249281e-05   2   -2000005    1000005
    8.8249281e-05   2   -1000005    2000005
    6.3335749e-05   2    1000023    1000023
    4.0093071e-05   2    1000022    1000023
    4.8682864e-06   2    1000025    1000025
    3.3041565e-06   2    21    21
    7.5531904e-07   2   -1    1
    6.6724551e-07   2    25    25
    5.8789653e-07   2    1000025    1000035
    3.1685418e-07   2   -1000005    1000005
    6.1058177e-08   2    23    23
    1.2536635e-08   2   -11    11
    1.157282e-08   2    22    23
    1.0245907e-08   2   -24    24
    5.9280023e-09   2   -4    4
    4.3974915e-09   2    22    22
    3.0540531e-14   2   -2    2

DECAY 36  117.9457
    0.62200091   2   -5    5
    0.16002594   2   -15    15
    0.060265879   2   -1000024    1000037
    0.060265879   2   -1000037    1000024
    0.040953091   2    1000022    1000035
    0.020341304   2    1000022    1000025
    0.019401692   2    1000023    1000035
    0.014168453   2    1000023    1000025
    0.00058388297   2   -6    6
    0.00054980113   2   -13    13
    0.00054797327   2   -1000024    1000024
    0.00030619097   2    1000022    1000022
    0.00026902106   2   -3    3
    9.4456896e-05   2   -2000005    1000005
    9.4456896e-05   2   -1000005    2000005
    6.7898937e-05   2    1000023    1000023
    2.920341e-05   2    1000022    1000023
    1.3329245e-05   2    1000025    1000025
    1.3124993e-05   2    1000025    1000035
    6.5236595e-06   2    21    21
    7.4377595e-07   2   -1    1
    1.759347e-07   2    23    25
    2.9918494e-08   2    22    23
    2.6311345e-08   2    22    22
    1.234616e-08   2   -11    11
    5.4954986e-09   2   -4    4
    2.7009372e-13   2    23    35
    2.8311615e-14   2   -2    2
    9.7042254e-39   2    25    25

DECAY 37  124.83827
    0.64204731   2   -5    6
    0.15187602   2   -15    16
    0.057127813   2    1000022    1000037
    0.0569032   2    1000024    1000035
    0.056845738   2    1000023    1000037
    0.033099967   2    1000024    1000025
    0.00095234101   2   -5    4
    0.00053693571   2   -13    14
    0.00025242174   2   -3    4
    0.00018736989   2   -1000005    2000006
    7.6859078e-05   2   -1000005    1000006
    5.797154e-05   2    1000023    1000024
    1.2986642e-05   2    1000025    1000037
    1.1886846e-05   2   -3    2
    6.8006962e-06   2   -5    2
    1.4762923e-06   2   -3    6
    1.4042854e-06   2   -1000005    2000004
    7.0043583e-07   2   -1    2
    5.275707e-07   2    1000022    1000024
    1.6614653e-07   2    24    25
    5.0402398e-08   2   -1    6
    3.3347688e-08   2   -1    4
    1.2558982e-08   2   -11    12
    1.0028046e-08   2   -1000005    2000002
    6.953521e-12   2   -1000005    1000004
    2.6044765e-19   2   -1000005    1000002

DECAY 6  2.43
    1   2    5    24

DECAY 15 -1
